1000000000,165927664,146320425,185400069,575670268,0,87773223,58503477,6686,395,78026566,790,14625123
1000000000,165899662,146331475,185389939,575642781,0,87788493,58514119,0,0,78036140,0,14628528
1000000000,165899661,146331465,185389939,575642790,0,87788484,58514117,0,0,78036139,0,14628531
1000000000,165899674,146331471,185389947,575642775,0,87788502,58514113,0,0,78036135,0,14628528
1000000000,165899658,146331468,185389936,575642786,0,87788484,58514122,0,0,78036142,0,14628530
1000000000,165899673,146331461,185389945,575642784,0,87788493,58514113,0,0,78036136,0,14628529
1000000000,165899662,146331475,185389939,575642781,0,87788493,58514119,0,0,78036140,0,14628528
1000000000,165899661,146331465,185389939,575642790,0,87788484,58514117,0,0,78036139,0,14628531
1000000000,165899674,146331471,185389947,575642775,0,87788502,58514113,0,0,78036135,0,14628528
1000000000,165899658,146331468,185389936,575642786,0,87788484,58514122,0,0,78036142,0,14628530
1000000000,165899674,146331467,185389943,575642781,0,87788496,58514111,0,0,78036140,2,14628527
1000000000,165899675,146331470,185389946,575642779,0,87788498,58514114,0,0,78036134,0,14628529
1000000000,165899657,146331472,185389934,575642785,0,87788488,58514122,0,0,78036143,0,14628528
1000000000,165899671,146331460,185389944,575642784,0,87788492,58514113,0,0,78036136,0,14628531
1000000000,165899665,146331471,185389943,575642778,0,87788494,58514117,0,0,78036140,0,14628528
1000000000,165899660,146331467,185389939,575642790,0,87788484,58514118,0,0,78036139,0,14628530
1000000000,165899675,146331470,185389946,575642779,0,87788498,58514114,0,0,78036134,0,14628529
1000000000,165899657,146331472,185389934,575642785,0,87788488,58514122,0,0,78036143,0,14628528
1000000000,165899671,146331460,185389944,575642784,0,87788492,58514113,0,0,78036136,0,14628531
1000000000,165899665,146331471,185389943,575642778,0,87788494,58514117,0,0,78036140,0,14628528
1000000000,235950547,158608360,229996331,580674944,0,44611153,38159640,0,8424762,81779108,495583,15858479
1000000000,308327375,171292985,276083990,585874015,0,0,17129298,0,17129299,85646494,1007606,17129298
1000000000,308327374,171292988,276083988,585874018,0,0,17129299,0,17129299,85646492,1007605,17129299
1000000000,308327373,171292986,276083987,585874018,0,0,17129299,0,17129298,85646494,1007606,17129298
1000000000,308327375,171292985,276083991,585874013,0,0,17129298,0,17129299,85646494,1007606,17129299
1000000000,308327375,171292986,276083988,585874020,0,0,17129299,0,17129298,85646491,1007606,17129298
1000000000,308327372,171292985,276083991,585874013,0,0,17129298,0,17129299,85646494,1007606,17129299
1000000000,308327378,171292986,276083986,585874020,0,0,17129299,0,17129299,85646492,1007605,17129299
1000000000,308327374,171292986,276083989,585874017,0,0,17129299,0,17129298,85646493,1007606,17129298
1000000000,308327373,171292986,276083990,585874016,0,0,17129298,0,17129299,85646492,1007606,17129299
1000000000,308327373,171292985,276083987,585874018,0,0,17129299,0,17129298,85646494,1007606,17129298
1000000000,308327375,171292986,276083991,585874014,0,0,17129298,0,17129299,85646493,1007606,17129299
1000000000,308327377,171292986,276083988,585874020,0,0,17129299,0,17129298,85646492,1007605,17129298
1000000000,308327374,171292985,276083990,585874014,0,0,17129298,0,17129299,85646494,1007606,17129299
1000000000,308327374,171292986,276083987,585874018,0,0,17129299,0,17129299,85646492,1007606,17129299
1000000000,308327374,171292985,276083989,585874017,0,0,17129299,0,17129298,85646493,1007606,17129298
1000000000,308327373,171292987,276083990,585874016,0,0,17129298,0,17129299,85646492,1007606,17129299
1000000000,308327376,171292987,276083988,585874018,0,0,17129299,0,17129298,85646494,1007605,17129298
1000000000,308327372,171292985,276083991,585874013,0,0,17129298,0,17129299,85646494,1007606,17129299
1000000000,308327377,171292985,276083987,585874021,0,0,17129299,0,17129298,85646491,1007606,17129298
1000000000,308327374,171292985,276083990,585874014,0,0,17129298,0,17129299,85646494,1007606,17129299
1000000000,308327374,171292986,276083987,585874018,0,0,17129299,0,17129299,85646492,1007606,17129299
1000000000,308327374,171292987,276083988,585874018,0,0,17129299,0,17129298,85646494,1007605,17129298
1000000000,308327375,171292986,276083991,585874014,0,0,17129298,0,17129299,85646493,1007606,17129299
1000000000,308327374,171292986,276083988,585874019,0,0,17129299,0,17129298,85646492,1007606,17129298
1000000000,308327372,171292985,276083991,585874013,0,0,17129298,0,17129299,85646494,1007606,17129299
1000000000,308327377,171292985,276083987,585874021,0,0,17129299,0,17129298,85646491,1007606,17129298
1000000000,308327376,171292986,276083988,585874016,0,0,17129299,0,17129299,85646494,1007605,17129299
1000000000,308327373,171292987,276083990,585874016,0,0,17129298,0,17129299,85646492,1007606,17129299
1000000000,308327373,171292985,276083987,585874018,0,0,17129299,0,17129298,85646494,1007606,17129298
1000000000,308327375,171292986,276083991,585874015,0,0,17129298,0,17129299,85646492,1007606,17129299
1000000000,308327374,171292986,276083987,585874019,0,0,17129299,0,17129298,85646493,1007606,17129298
1000000000,308327376,171292985,276083991,585874014,0,0,17129298,0,17129299,85646494,1007605,17129299
1000000000,308327375,171292986,276083987,585874019,0,0,17129299,0,17129299,85646491,1007606,17129299
1000000000,308327374,171292985,276083989,585874016,0,0,17129299,0,17129298,85646494,1007606,17129298
1000000000,308327373,171292987,276083990,585874016,0,0,17129298,0,17129299,85646492,1007606,17129299
1000000000,308327373,171292985,276083987,585874019,0,0,17129299,0,17129298,85646493,1007606,17129298
1000000000,308327375,171292987,276083991,585874013,0,0,17129298,0,17129299,85646495,1007605,17129299
1000000000,308327377,171292985,276083988,585874020,0,0,17129299,0,17129298,85646491,1007606,17129298
1000000000,308327372,171292985,276083990,585874014,0,0,17129298,0,17129299,85646494,1007606,17129299
1000000000,308327375,171292986,276083987,585874019,0,0,17129299,0,17129299,85646491,1007606,17129299
1000000000,308327375,171292985,276083989,585874017,0,0,17129298,0,17129298,85646494,1007606,17129298
1000000000,308327375,171292988,276083989,585874016,0,0,17129299,0,17129299,85646493,1007605,17129299
1000000000,308327373,171292985,276083988,585874018,0,0,17129299,0,17129298,85646493,1007606,17129298
1000000000,308327373,171292986,276083991,585874013,0,0,17129298,0,17129299,85646494,1007606,17129299
1000000000,308327376,171292985,276083987,585874021,0,0,17129299,0,17129298,85646491,1007606,17129298
1000000000,308327372,171292985,276083991,585874013,0,0,17129298,0,17129299,85646494,1007606,17129299
1000000000,308327378,171292987,276083987,585874019,0,0,17129299,0,17129299,85646492,1007605,17129299
1000000000,308327373,171292986,276083988,585874018,0,0,17129299,0,17129298,85646493,1007606,17129298
1000000000,308327374,171292985,276083990,585874016,0,0,17129298,0,17129299,85646492,1007606,17129299
1000000000,51751354,216834026,253410481,705665481,0,18,2239658,0,2239658,22635788,11569258,2239658
1000000000,13157895,223684210,250000000,723684210,0,0,0,0,0,13157895,13157895,0
1000000000,13157894,223684211,250000001,723684211,0,0,0,0,0,13157894,13157894,0
1000000000,33280976,220567272,252484581,714360771,0,18,1237311,0,1237308,17195966,12246736,1237307
1000000000,303746395,178674353,285878961,589048993,0,0,17867435,0,17867435,71469741,0,17867435
1000000000,303746400,178674351,285878964,589048991,0,0,17867435,0,17867435,71469740,0,17867435
1000000000,337556089,130278875,247140010,584276768,0,307,13027983,0,90415633,52111438,21,13027836
1000000000,428571286,140,142857202,571428654,0,62,17,0,285714009,28,6,13
1000000000,428571348,51,142857172,571428586,0,18,3,0,285714188,9,3,12
1000000000,428571348,51,142857172,571428586,0,18,3,0,285714188,9,3,12
1000000000,428571348,51,142857172,571428586,0,18,3,0,285714188,9,3,12
1000000000,428571348,51,142857172,571428586,0,18,3,0,285714188,9,3,12
1000000000,324022643,60987195,77514761,554003997,0,408,65,0,246507661,179,31,30493301
1000000000,272727272,90909090,45454547,545454549,0,0,0,0,227272725,0,1,45454545
1000000000,272727273,90909090,45454547,545454547,0,0,0,0,227272725,0,1,45454545
1000000000,272727273,90909090,45454547,545454547,0,0,0,0,227272725,0,1,45454545
1000000000,272727274,90909090,45454547,545454547,0,0,0,0,227272725,0,1,45454545
1000000000,272727274,90909089,45454546,545454548,0,0,0,0,227272725,0,1,45454545
1000000000,272727274,90909089,45454547,545454548,0,0,0,0,227272724,0,1,45454545
1000000000,272727272,90909092,45454546,545454548,0,0,0,0,227272726,0,0,45454545
1000000000,272727273,90909090,45454547,545454547,0,0,0,0,227272725,0,1,45454545
1000000000,272727273,90909090,45454547,545454547,0,0,0,0,227272725,0,1,45454545
1000000000,272727274,90909090,45454547,545454547,0,0,0,0,227272725,0,1,45454545
1000000000,272727274,90909089,45454546,545454548,0,0,0,0,227272725,0,1,45454545
1000000000,272727274,90909089,45454547,545454548,0,0,0,0,227272724,0,1,45454545
1000000000,272727273,90909090,45454547,545454548,0,0,0,0,227272725,0,1,45454544
1000000000,272727274,90909090,45454547,545454549,0,0,0,0,227272723,0,1,45454545
1000000000,272727273,90909090,45454547,545454548,0,0,0,0,227272725,0,1,45454545
1000000000,272727274,90909090,45454547,545454548,0,0,0,0,227272724,0,1,45454545
1000000000,271398307,92715295,61352115,543546324,0,8996688,749745,0,211170603,4498320,9,42983834
1000000000,253968259,116402114,269841271,518518518,0,126984126,10582011,0,0,63492063,0,10582011
1000000000,253968249,116402118,269841268,518518520,0,126984126,10582011,0,0,63492064,0,10582011
1000000000,253968256,116402120,269841269,518518516,0,126984132,10582010,0,0,63492063,0,10582010
1000000000,253968250,116402113,269841272,518518522,0,126984120,10582011,0,0,63492064,0,10582011
1000000000,253968256,116402118,269841269,518518516,0,126984132,10582010,0,0,63492063,0,10582010
1000000000,253968260,116402114,269841270,518518519,0,126984126,10582011,0,0,63492063,0,10582011
1000000000,253968249,116402118,269841269,518518520,0,126984126,10582011,0,0,63492064,0,10582010
1000000000,253968256,116402116,269841272,518518514,0,126984129,10582010,0,0,63492064,0,10582011
1000000000,253968250,116402116,269841268,518518524,0,126984123,10582011,0,0,63492063,0,10582011
1000000000,269551315,188514844,232255954,673057411,9,48148911,4012632,45,339,38512353,96,4012277
1000000000,279069768,232558140,209302326,767441860,0,0,0,0,0,23255814,0,0
1000000000,279069768,232558138,209302326,767441860,0,0,0,0,0,23255814,0,0
1000000000,279069768,232558139,209302326,767441860,0,0,0,0,0,23255814,0,0
679211082,189547179,157954005,142160454,521252185,3,1777,418,59,58,15795983,111,33
