5487117,104838,1058,104
5485726,104772,38,8
5485727,104773,38,8
5485727,104773,38,8
5485726,104772,38,8
5485727,104772,38,8
5485726,104773,38,8
5485727,104773,38,8
5485727,104773,38,8
5485726,104773,38,8
5485719,104773,48,9
5485727,104773,38,8
5485726,104773,38,8
5485727,104772,38,8
5485726,104772,38,8
5485726,104773,38,8
5485727,104773,38,8
5485726,104773,38,8
5485727,104772,38,8
5485726,104773,38,8
3469164,63914,91,15
1385469,21656,9,3
1385470,21655,9,3
1385470,21656,9,3
1385470,21656,9,3
1385470,21656,9,3
1385470,21656,9,3
1385470,21655,9,3
1385470,21656,9,3
1385470,21656,9,3
1385470,21656,9,3
1385471,21656,9,3
1385469,21655,9,3
1385470,21656,9,3
1385470,21656,9,3
1385469,21656,9,3
1385470,21656,9,3
1385470,21655,9,3
1385470,21656,9,3
1385469,21656,9,3
1385471,21656,9,3
1385470,21656,9,3
1385469,21655,9,3
1385470,21656,9,3
1385471,21656,9,3
1385470,21656,9,3
1385469,21656,9,3
1385470,21655,9,3
1385471,21656,9,3
1385470,21656,9,3
1385469,21656,9,3
1385470,21656,9,3
1385470,21655,9,3
1385469,21656,9,3
1385470,21656,9,3
1385470,21656,9,3
1385470,21656,9,3
1385469,21655,9,3
1385470,21656,9,3
1385470,21656,9,3
1385471,21656,9,3
1385469,21656,9,3
1385470,21655,9,3
1385470,21656,9,3
1385470,21656,9,3
1385470,21656,9,3
1385470,21656,9,3
1385470,21654,9,3
1385470,21656,9,3
1385470,21656,9,3
15907731,248568,13,3
18092107,282691,2,1
18092106,282691,2,1
16916594,264333,26,6
1116726,17455,9,3
1116726,17456,9,3
46655815,880175,128,24
67262792,1123067,62,12
59375018,1123057,21,6
65773024,1123057,21,6
71875018,1123057,21,6
60119827,1123057,21,6
100558477,1778213,172,28
105113644,1997526,3,1
105113644,1997523,3,1
105113644,1997523,3,1
105113644,1997523,3,1
105113644,1997523,3,1
105113645,1997524,3,1
105113641,1997522,2,1
105113644,1997522,3,1
105113644,1997524,3,1
105113644,1997523,3,1
105113644,1997523,3,1
105113646,1997525,3,1
105113645,1997523,3,1
105113645,1997524,3,1
105113644,1997522,3,1
105113644,1997524,3,1
98697374,1872138,97,20
14550282,227359,10,4
14550282,227359,10,4
14550280,227358,10,4
14550282,227359,10,4
14550282,227359,10,4
14550280,227359,10,4
14550281,227359,10,4
14550282,227359,10,4
14550280,227358,10,4
18548673,289863,422,47
29069776,454221,5,1
29069775,454221,5,1
29069775,454221,5,1
19744172,308559,477,61
