1000000000,13030,7707,8015,9847,23278,7809,7804,8682,48780460,11372,9757200,8005,141496172,9760721,4881993
1000000000,5772,2886,2886,2886,11544,2886,2886,2886,48779079,5772,9755238,2886,141481263,9758124,4879062
1000000000,5772,2886,2886,2886,11544,2886,2886,2886,48779080,5772,9755240,2886,141481265,9758126,4879063
1000000000,5772,2886,2886,2886,11544,2886,2886,2886,48779080,5772,9755238,2886,141481268,9758124,4879062
1000000000,5772,2886,2886,2886,11544,2886,2886,2886,48779079,5772,9755238,2886,141481262,9758124,4879062
1000000000,5772,2886,2886,2886,11544,2886,2886,2886,48779082,5772,9755240,2886,141481270,9758125,4879063
1000000000,5772,2886,2886,2886,11544,2886,2886,2886,48779079,5772,9755238,2886,141481263,9758124,4879062
1000000000,5772,2886,2886,2886,11544,2886,2886,2886,48779080,5772,9755240,2886,141481265,9758126,4879063
1000000000,5772,2886,2886,2886,11544,2886,2886,2886,48779080,5772,9755238,2886,141481268,9758124,4879062
1000000000,5772,2886,2886,2886,11544,2886,2886,2886,48779079,5772,9755238,2886,141481262,9758124,4879062
1000000000,5792,2902,2897,2928,11583,2904,2893,2916,48779083,5789,9755245,2908,141481268,9758141,4879072
1000000000,5772,2886,2886,2886,11544,2886,2886,2886,48779080,5772,9755238,2886,141481267,9758124,4879062
1000000000,5772,2886,2886,2886,11544,2886,2886,2886,48779079,5772,9755238,2886,141481261,9758124,4879062
1000000000,5772,2886,2886,2886,11544,2886,2886,2886,48779081,5772,9755240,2886,141481270,9758126,4879063
1000000000,5772,2886,2886,2886,11544,2886,2886,2886,48779080,5772,9755238,2886,141481265,9758124,4879062
1000000000,5772,2886,2886,2886,11544,2886,2886,2886,48779080,5772,9755240,2886,141481265,9758126,4879063
1000000000,5772,2886,2886,2886,11544,2886,2886,2886,48779080,5772,9755238,2886,141481267,9758124,4879062
1000000000,5772,2886,2886,2886,11544,2886,2886,2886,48779079,5772,9755238,2886,141481261,9758124,4879062
1000000000,5772,2886,2886,2886,11544,2886,2886,2886,48779081,5772,9755240,2886,141481270,9758126,4879063
1000000000,5772,2886,2886,2886,11544,2886,2886,2886,48779080,5772,9755238,2886,141481265,9758124,4879062
1000000000,770605,768931,768842,768877,774554,768902,768837,768858,34939829,770426,5724645,768840,148710077,6493447,3246726
1000000000,1560164,1560164,1560164,1560164,1560164,1560164,1560164,1560164,20639668,1560164,1560164,1560164,156178900,3120328,1560164
1000000000,1560163,1560163,1560163,1560163,1560163,1560163,1560163,1560163,20639664,1560163,1560163,1560163,156178896,3120326,1560163
1000000000,1560164,1560164,1560164,1560164,1560164,1560164,1560164,1560164,20639669,1560164,1560164,1560164,156178900,3120328,1560164
1000000000,1560164,1560164,1560164,1560164,1560164,1560164,1560164,1560164,20639668,1560164,1560164,1560164,156178899,3120328,1560164
1000000000,1560164,1560164,1560164,1560164,1560164,1560164,1560164,1560164,20639667,1560164,1560164,1560164,156178900,3120328,1560164
1000000000,1560164,1560164,1560164,1560164,1560164,1560164,1560164,1560164,20639668,1560164,1560164,1560164,156178899,3120328,1560164
1000000000,1560163,1560163,1560163,1560163,1560163,1560163,1560163,1560163,20639664,1560163,1560163,1560163,156178897,3120326,1560163
1000000000,1560164,1560164,1560164,1560164,1560164,1560164,1560164,1560164,20639668,1560164,1560164,1560164,156178899,3120328,1560164
1000000000,1560164,1560164,1560164,1560164,1560164,1560164,1560164,1560164,20639667,1560164,1560164,1560164,156178898,3120328,1560164
1000000000,1560164,1560164,1560164,1560164,1560164,1560164,1560164,1560164,20639669,1560164,1560164,1560164,156178900,3120328,1560164
1000000000,1560164,1560164,1560164,1560164,1560164,1560164,1560164,1560164,20639668,1560164,1560164,1560164,156178899,3120328,1560164
1000000000,1560163,1560163,1560163,1560163,1560163,1560163,1560163,1560163,20639664,1560163,1560163,1560163,156178898,3120326,1560163
1000000000,1560164,1560164,1560164,1560164,1560164,1560164,1560164,1560164,20639668,1560164,1560164,1560164,156178900,3120328,1560164
1000000000,1560164,1560164,1560164,1560164,1560164,1560164,1560164,1560164,20639667,1560164,1560164,1560164,156178898,3120328,1560164
1000000000,1560164,1560164,1560164,1560164,1560164,1560164,1560164,1560164,20639668,1560164,1560164,1560164,156178899,3120328,1560164
1000000000,1560164,1560164,1560164,1560164,1560164,1560164,1560164,1560164,20639669,1560164,1560164,1560164,156178898,3120328,1560164
1000000000,1560163,1560163,1560163,1560163,1560163,1560163,1560163,1560163,20639664,1560163,1560163,1560163,156178900,3120326,1560163
1000000000,1560164,1560164,1560164,1560164,1560164,1560164,1560164,1560164,20639668,1560164,1560164,1560164,156178899,3120328,1560164
1000000000,1560165,1560165,1560165,1560165,1560165,1560165,1560165,1560165,20639667,1560165,1560165,1560165,156178898,3120329,1560165
1000000000,1560164,1560164,1560164,1560164,1560164,1560164,1560164,1560164,20639669,1560164,1560164,1560164,156178900,3120328,1560164
1000000000,1560164,1560164,1560164,1560164,1560164,1560164,1560164,1560164,20639667,1560164,1560164,1560164,156178898,3120329,1560164
1000000000,1560163,1560163,1560163,1560163,1560163,1560163,1560163,1560163,20639666,1560163,1560163,1560163,156178898,3120326,1560163
1000000000,1560164,1560164,1560164,1560164,1560164,1560164,1560164,1560164,20639668,1560164,1560164,1560164,156178899,3120328,1560164
1000000000,1560164,1560164,1560164,1560164,1560164,1560164,1560164,1560164,20639667,1560164,1560164,1560164,156178900,3120328,1560164
1000000000,1560164,1560164,1560164,1560164,1560164,1560164,1560164,1560164,20639668,1560164,1560164,1560164,156178899,3120328,1560164
1000000000,1560164,1560164,1560164,1560164,1560164,1560164,1560164,1560164,20639667,1560164,1560164,1560164,156178898,3120327,1560164
1000000000,1560163,1560163,1560163,1560163,1560163,1560163,1560163,1560163,20639665,1560163,1560163,1560163,156178898,3120327,1560163
1000000000,1560164,1560164,1560164,1560164,1560164,1560164,1560164,1560164,20639669,1560164,1560164,1560164,156178898,3120328,1560164
1000000000,1560164,1560164,1560164,1560164,1560164,1560164,1560164,1560164,20639667,1560164,1560164,1560164,156178900,3120328,1560164
1000000000,1560164,1560164,1560164,1560164,1560164,1560164,1560164,1560164,20639668,1560164,1560164,1560164,156178899,3120328,1560164
1000000000,1560164,1560164,1560164,1560164,1560164,1560164,1560164,1560164,20639667,1560164,1560164,1560164,156178899,3120327,1560164
1000000000,1560163,1560163,1560163,1560163,1560163,1560163,1560163,1560163,20639665,1560163,1560163,1560163,156178899,3120327,1560163
1000000000,1560164,1560164,1560164,1560164,1560164,1560164,1560164,1560164,20639669,1560164,1560164,1560164,156178898,3120328,1560164
1000000000,1560164,1560164,1560164,1560164,1560164,1560164,1560164,1560164,20639666,1560164,1560164,1560164,156178899,3120328,1560164
1000000000,1560164,1560164,1560164,1560164,1560164,1560164,1560164,1560164,20639669,1560164,1560164,1560164,156178898,3120328,1560164
1000000000,1560164,1560164,1560164,1560164,1560164,1560164,1560164,1560164,20639667,1560164,1560164,1560164,156178900,3120327,1560164
1000000000,1560163,1560163,1560163,1560163,1560163,1560163,1560163,1560163,20639665,1560163,1560163,1560163,156178898,3120327,1560163
1000000000,1560164,1560164,1560164,1560164,1560164,1560164,1560164,1560164,20639667,1560164,1560164,1560164,156178899,3120328,1560164
1000000000,1560164,1560164,1560164,1560164,1560164,1560164,1560164,1560164,20639668,1560164,1560164,1560164,156178900,3120328,1560164
1000000000,1560164,1560164,1560164,1560164,1560164,1560164,1560164,1560164,20639669,1560164,1560164,1560164,156178898,3120328,1560164
1000000000,1560164,1560164,1560164,1560164,1560164,1560164,1560164,1560164,20639666,1560164,1560164,1560164,156178899,3120327,1560164
1000000000,1560163,1560163,1560163,1560163,1560163,1560163,1560163,1560163,20639666,1560163,1560163,1560163,156178897,3120327,1560163
1000000000,1560164,1560164,1560164,1560164,1560164,1560164,1560164,1560164,20639667,1560164,1560164,1560164,156178900,3120328,1560164
1000000000,1560164,1560164,1560164,1560164,1560164,1560164,1560164,1560164,20639668,1560164,1560164,1560164,156178899,3120328,1560164
1000000000,1560164,1560164,1560164,1560164,1560164,1560164,1560164,1560164,20639669,1560164,1560164,1560164,156178899,3120328,1560164
1000000000,1560164,1560164,1560164,1560164,1560164,1560164,1560164,1560164,20639666,1560164,1560164,1560164,156178900,3120327,1560164
1000000000,1560163,1560163,1560163,1560163,1560163,1560163,1560163,1560163,20639666,1560163,1560163,1560163,156178896,3120327,1560163
1000000000,1560164,1560164,1560164,1560164,1560164,1560164,1560164,1560164,20639667,1560164,1560164,1560164,156178900,3120328,1560164
1000000000,1560164,1560164,1560164,1560164,1560164,1560164,1560164,1560164,20639668,1560164,1560164,1560164,156178898,3120328,1560164
1000000000,11641595,11641497,11641532,11641542,11641888,11641496,11641523,11641524,14136602,11641493,11641514,11641506,237732875,23283010,11641505
1000000000,13157895,13157895,13157895,13157895,13157895,13157895,13157895,13157895,13157895,13157895,13157895,13157895,250000000,26315790,13157895
1000000000,13157895,13157895,13157895,13157895,13157895,13157895,13157895,13157895,13157895,13157895,13157895,13157895,250000001,26315789,13157895
1000000000,12286641,12286637,12286648,12286667,12286643,12286637,12286641,12286657,13524230,12286637,12286638,12286646,243823425,24573260,12286648
1000000000,576369,576369,576369,576369,576369,576369,576369,576369,18443805,576369,576369,576369,160806916,1152738,576369
1000000000,576369,576369,576369,576369,576369,576369,576369,576369,18443804,576369,576369,576369,160806917,1152738,576369
1000000000,420356,420313,420333,420325,420474,420308,420324,420314,13448457,420315,420323,420312,155945065,840556,420291
1000000000,43,24,35,50,65,26,29,44,84,27,24,34,142857149,20,9
1000000000,16,3,3,24,33,3,3,24,36,3,3,17,142857142,6,3
1000000000,14,3,3,24,33,3,3,24,36,3,3,3,142857142,6,3
1000000000,12,3,3,24,30,3,3,3,36,3,3,3,142857142,6,3
1000000000,12,3,3,10,30,3,3,3,36,3,3,3,142857142,6,3
1000000000,129,64,93,156,226,63,75,139,245,72,58,117,77514518,40,22
1000000000,1,2,13,2,1,2,9,2,4,2,5,2,45454547,2,1
1000000000,1,2,2,2,1,2,2,2,4,2,2,2,45454547,2,1
1000000000,1,1,1,2,1,1,1,2,4,1,1,2,45454547,2,1
1000000000,1,1,1,2,1,1,1,2,4,1,1,2,45454547,2,1
1000000000,1,1,1,2,1,1,1,2,4,1,1,2,45454546,2,1
1000000000,1,1,1,2,1,1,1,2,4,1,1,1,45454547,2,1
1000000000,0,0,0,0,0,0,0,0,0,0,0,0,45454546,0,0
1000000000,1,1,1,2,1,1,1,2,4,1,1,1,45454547,2,1
1000000000,1,1,1,2,1,1,1,2,4,1,1,1,45454547,2,1
1000000000,1,1,1,2,1,1,1,2,4,1,1,1,45454547,2,1
1000000000,1,1,1,2,1,1,1,1,4,1,1,1,45454546,2,1
1000000000,1,1,1,2,1,1,1,1,4,1,1,1,45454547,2,1
1000000000,1,1,1,2,1,1,1,1,4,1,1,1,45454547,2,1
1000000000,1,1,1,2,1,1,1,1,4,1,1,1,45454547,2,1
1000000000,1,1,1,1,1,1,1,1,4,1,1,1,45454547,2,1
1000000000,1,1,1,1,1,1,1,1,4,1,1,1,45454547,2,1
1000000000,375176,32,30,111,376077,35,37,82,2999252,43,35,58,57603469,31,21
1000000000,5291006,0,0,0,5291005,0,0,0,42328043,0,0,0,216931217,0,0
1000000000,5291005,0,0,0,5291005,0,0,0,42328042,0,0,0,216931216,0,0
1000000000,5291005,0,0,0,5291006,0,0,0,42328043,0,0,0,216931215,0,0
1000000000,5291005,0,0,0,5291005,0,0,0,42328042,0,0,0,216931221,0,0
1000000000,5291006,0,0,0,5291005,0,0,0,42328042,0,0,0,216931215,0,0
1000000000,5291005,0,0,0,5291005,0,0,0,42328042,0,0,0,216931216,0,0
1000000000,5291005,0,0,0,5291006,0,0,0,42328043,0,0,0,216931218,0,0
1000000000,5291006,0,0,0,5291005,0,0,0,42328043,0,0,0,216931217,0,0
1000000000,5291005,0,0,0,5291005,0,0,0,42328042,0,0,0,216931217,0,0
1000000000,2007361,505,571,1238,2008562,506,537,1133,30488810,530,543,787,212193182,394,411
1000000000,0,0,0,0,0,0,0,0,23255814,0,0,0,209302326,0,0
1000000000,0,0,0,0,0,0,0,0,23255814,0,0,0,209302326,0,0
1000000000,0,0,0,0,0,0,0,0,23255814,0,0,0,209302326,0,0
679211082,680,317,383,616,1447,328,379,456,15796450,373,350,401,142159298,317,233
number,of,instructions:,113679211032
