

Block=(512,1,1)

-----------------------------------------------------------------------

Time spent in different stages of the application:
 0.038506001234 s,  0.165177300572 % : SETUP VARIABLES
 0.000021000000 s,  0.000090082671 % : READ COMMAND LINE PARAMETERS
 0.023819999769 s,  0.102179482579 % : READ IMAGE FROM FILE
 0.000478000002 s,  0.002050453098 % : RESIZE IMAGE
 0.171272993088 s,  0.734701395035 % : GPU DRIVER INIT, CPU/GPU SETUP, MEMORY ALLOCATION
 0.000480999995 s,  0.002063322114 % : COPY DATA TO CPU->GPU
 0.000062999999 s,  0.000270248012 % : EXTRACT IMAGE
23.032691955566 s, 98.802207946777 % : COMPUTE
 0.000004000000 s,  0.000017158603 % : COMPRESS IMAGE
 0.000515999971 s,  0.002213459928 % : COPY DATA TO GPU->CPU
 0.038761999458 s,  0.166275441647 % : SAVE IMAGE INTO FILE
 0.005303999875 s,  0.022752307355 % : FREE MEMORY
Total time:
23.311920166016 s
=======================================================================

