40315,738,1599,161
32329,545,250,36
32659,548,249,36
32547,554,249,36
32489,549,249,36
32336,545,249,36
399729,6345,631,81
399095,6247,137,15
399095,6247,137,15
399095,6247,137,15
399095,6247,137,15
399095,6247,137,15
399095,6247,137,15
399095,6247,137,15
399095,6247,137,15
399095,6247,137,15
399095,6247,137,15
399095,6247,137,15
399095,6247,137,15
399095,6247,137,15
399095,6247,137,15
399095,6247,137,15
399095,6247,137,15
399095,6247,137,15
399095,6247,137,15
399095,6247,137,15
399095,6247,137,15
399095,6247,137,15
399095,6247,137,15
399095,6247,137,15
399095,6247,137,15
399095,6247,137,15
399095,6247,137,15
399095,6247,137,15
399095,6247,137,15
399095,6247,137,15
399095,6247,137,15
399095,6247,137,15
399095,6247,137,15
399095,6247,137,15
399095,6247,137,15
399095,6247,137,15
399095,6247,137,15
399095,6247,137,15
399095,6247,137,15
399095,6247,137,15
399095,6247,137,15
399095,6247,137,15
399095,6247,137,15
399095,6247,137,15
399095,6247,137,15
399095,6247,137,15
399095,6247,137,15
399095,6247,137,15
399095,6247,137,15
399095,6247,137,15
399095,6247,137,15
399095,6247,137,15
399095,6247,137,15
399095,6247,137,15
399095,6247,137,15
399095,6247,137,15
399095,6247,137,15
399095,6247,137,15
399095,6247,137,15
399095,6247,137,15
399095,6247,137,15
399095,6247,137,15
399095,6247,137,15
399095,6247,137,15
399095,6247,137,15
399095,6247,137,15
399095,6247,137,15
399095,6247,137,15
399095,6247,137,15
399095,6247,137,15
399095,6247,137,15
399095,6247,137,15
399095,6247,137,15
399095,6247,137,15
399095,6247,137,15
399095,6247,137,15
399095,6247,137,15
399095,6247,137,15
399095,6247,137,15
399095,6247,137,15
399095,6247,137,15
399095,6247,137,15
399095,6247,137,15
399095,6247,137,15
399095,6247,137,15
399095,6247,137,15
399095,6247,137,15
399095,6247,137,15
399095,6247,137,15
399095,6247,137,15
399095,6247,137,15
399095,6247,137,15
399095,6247,137,15
399095,6247,137,15
399095,6247,137,15
399095,6247,137,15
399095,6247,137,15
399095,6247,137,15
399095,6247,137,15
399095,6247,137,15
399095,6247,137,15
399095,6247,137,15
399095,6247,137,15
399095,6247,137,15
399095,6247,137,15
399095,6247,137,15
399095,6247,137,15
399095,6247,137,15
399095,6247,137,15
