264981248,15594020,251769466,258921018,264021254,264033259,264048520,264054178,15263,88354215,126576532,158393823,170781751,173947751,178932272,134408888,2734702,128416205,130003042,133400867,133401995,133402698,133402779,0,9320301,88270689,106665111,118419800,118419919,118419939
264835142,15613980,251162455,258847507,264026130,264027880,264035335,264035335,0,88495301,126829636,158607774,170942525,174083046,179036277,134738392,2718627,128523604,130094150,133741874,133741874,133741874,133741874,0,9470385,88635492,107115847,118857073,118857073,118857073
265008255,15740579,252498954,259010716,263886472,263887425,263894855,263894855,0,88158753,126524740,158434849,170903397,174076724,179081691,134097284,2747025,128489374,130076389,133090363,133090363,133090363,133090363,0,9200850,87741249,106175458,118049483,118049483,118049483
265001526,15662848,252513732,259029367,263893159,263894029,263901464,263901464,0,88201808,126895103,158805075,171317978,174480747,179469072,133960650,2737890,128343580,129925389,132957079,132957079,132957079,132957079,0,9188657,87559098,105956179,117962277,117962277,117962277
264947306,15627122,252462572,258996870,263838336,263839012,263846265,263846265,0,88207499,127051535,158959787,171487732,174644395,179623082,133891962,2732602,128272938,129851719,132890327,132890327,132890327,132890327,0,9189680,87476909,105863819,117925170,117925170,117925170
264906350,15547041,251887889,258943196,263958162,263958561,263965673,263965673,0,88387714,127234575,159074273,171545080,174686793,179641906,134202044,2719663,128282622,129853917,133205153,133205153,133205153,133205153,0,9317705,87907197,106302689,118311330,118311330,118311330
241193501,5870144,212700361,219193706,221564600,224592343,229811745,230447815,177,47504540,126698571,143243952,152502730,153690268,155562900,90315361,1027859,88178836,88773968,89937939,89937989,89937993,89937993,0,21066388,64521122,72011478,76555167,76555175,76555175
227657418,96,188312371,194964099,195801969,200940574,209592459,210523609,0,21536100,127506027,135061372,142562824,142562932,142562932,63749139,84,63749087,63749087,63749087,63749087,63749087,63749087,0,28155170,51426557,52496156,52496264,52496264,52496264
228426371,128,189936675,196484142,197308606,202257026,210679541,211671076,0,21939285,126281596,133683302,141022148,141022292,141022292,63875264,112,63875200,63875200,63875200,63875200,63875200,63875200,0,27982301,50750388,51796470,51796614,51796614,51796614
227068470,112,188239249,194802167,195635367,200732917,209233467,210157197,0,21721304,126509192,133966968,141371022,141371148,141371148,63420204,98,63420150,63420150,63420150,63420150,63420150,63420150,0,28229057,51194827,52250569,52250695,52250695,52250695
228427100,128,189934345,196471951,197302445,202298810,210740080,211674775,0,21937020,126288265,133687788,141025114,141025258,141025258,63869508,112,63869444,63869444,63869444,63869444,63869444,63869444,0,27978534,50745948,51791842,51791986,51791986,51791986
227068046,112,188242578,194817574,195639249,200662974,209170869,210155069,0,21722872,126504579,133963944,141369067,141369193,141369193,63424182,98,63424128,63424128,63424128,63424128,63424128,63424128,0,28231662,51197895,52253767,52253893,52253893,52253893
228449667,120,189922359,196442457,197268159,202263424,210755034,211679899,0,21942514,126342329,133743257,141086888,141087023,141087023,63910074,105,63910015,63910015,63910015,63910015,63910015,63910015,0,27992972,50778778,51825755,51825890,51825890,51825890
227633163,104,188324741,195003951,195839998,200923203,209510873,210512698,0,21533817,127442425,134998854,142496023,142496140,142496140,63716773,91,63716716,63716716,63716716,63716716,63716716,63716716,0,28146083,51400051,52468835,52468952,52468952,52468952
227073290,112,188245112,194813502,195634342,200656402,209242037,210171422,0,21715036,126528056,133982359,141382771,141382897,141382897,63404090,98,63404036,63404036,63404036,63404036,63404036,63404036,0,28218573,51182402,52237617,52237743,52237743,52237743
228423072,128,189934540,196482201,197308910,202268250,210669600,211661635,0,21943643,126268485,133672656,141014045,141014189,141014189,63886462,112,63886398,63886398,63886398,63886398,63886398,63886398,0,27989589,50759024,51805472,51805616,51805616,51805616
227070673,112,188244178,194809284,195636544,200712864,209240704,210163254,0,21718665,126517161,133973633,141376188,141376314,141376314,63413410,98,63413356,63413356,63413356,63413356,63413356,63413356,0,28224640,51189587,52245107,52245233,52245233,52245233
228426643,128,189935532,196483753,197309657,202265057,210693837,211674152,0,21937278,126287456,133686881,141024304,141024448,141024448,63870181,112,63870117,63870117,63870117,63870117,63870117,63870117,0,27978966,50746467,51792383,51792527,51792527,51792527
227655429,96,188309492,194959416,195798591,200943501,209571546,210516011,0,21540106,127494122,135052692,142556694,142556802,142556802,63759382,84,63759330,63759330,63759330,63759330,63759330,63759330,0,28161855,51434455,52504389,52504497,52504497,52504497
228427646,128,189935691,196478804,197307278,202286138,210725208,211676448,0,21936255,126290571,133689626,141026497,141026641,141026641,63867529,112,63867465,63867465,63867465,63867465,63867465,63867465,0,27977247,50744424,51790253,51790397,51790397,51790397
227067260,112,188240583,194809540,195634820,200681100,209185345,210152335,0,21724171,126500699,133960980,141366902,141367028,141367028,63427516,98,63427462,63427462,63427462,63427462,63427462,63427462,0,28233836,51200466,52256447,52256573,52256573,52256573
228425039,128,189928558,196449219,197283933,202299373,210745318,211668628,0,21940183,126278796,133680414,141019653,141019797,141019797,63877615,112,63877551,63877551,63877551,63877551,63877551,63877551,0,27983816,50752200,51798359,51798503,51798503,51798503
227070830,112,188250720,194844056,195659496,200642211,209166666,210163701,0,21718623,126517302,133973866,141376422,141376548,141376548,63413292,98,63413238,63413238,63413238,63413238,63413238,63413238,0,28224566,51189497,52245013,52245139,52245139,52245139
227939968,104,188660297,195303114,196145611,201259581,209907146,210841496,0,21578501,127466698,135011461,142498679,142498796,142498796,63836369,91,63836312,63836312,63836312,63836312,63836312,63836312,0,28100663,51330777,52398206,52398323,52398323,52398323
228143097,120,189586689,196144190,196962392,201916512,210358337,211351317,0,21897824,126318098,133730906,141084533,141084668,141084668,63790451,105,63790392,63790392,63790392,63790392,63790392,63790392,0,28038380,50848032,51896363,51896498,51896498,51896498
227070741,112,188244748,194812140,195635680,200691915,209238333,210163683,0,21718575,126517431,133973850,141376352,141376478,141376478,63413171,98,63413117,63413117,63413117,63413117,63413117,63413117,0,28224486,51189404,52244916,52245042,52245042,52245042
228426449,128,189936837,196484383,197308967,202257397,210680444,211671294,0,21939180,126281913,133683557,141022341,141022485,141022485,63874992,112,63874928,63874928,63874928,63874928,63874928,63874928,0,27982124,50750179,51796252,51796396,51796396,51796396
227068444,112,188239236,194802273,195635223,200732138,209232753,210157138,0,21721337,126509094,133966889,141370962,141371088,141371088,63420289,98,63420235,63420235,63420235,63420235,63420235,63420235,0,28229112,51194891,52250636,52250762,52250762,52250762
228427044,128,189934168,196471000,197301784,202299569,210740514,211674609,0,21937101,126288033,133687603,141024976,141025120,141025120,63869712,112,63869648,63869648,63869648,63869648,63869648,63869648,0,27978665,50746104,51792004,51792148,51792148,51792148
227655489,96,188311696,194972900,195804985,200898925,209524215,210516475,0,21539948,127494581,135053008,142556906,142557014,142557014,63758973,84,63758921,63758921,63758921,63758921,63758921,63758921,0,28161590,51434143,52504064,52504172,52504172,52504172
228425582,128,189930264,196456486,197292110,202313965,210748055,211670545,0,21939102,126282027,133682775,141021326,141021470,141021470,63874857,112,63874793,63874793,63874793,63874793,63874793,63874793,0,27982015,50750072,51796141,51796285,51796285,51796285
227069845,112,188247793,194835556,195650966,200635401,209163976,210160761,0,21720094,126512897,133970410,141373850,141373976,141373976,63417059,98,63417005,63417005,63417005,63417005,63417005,63417005,0,28227022,51192403,52248042,52248168,52248168,52248168
227073199,112,188245092,194813329,195633919,200654814,209241974,210171294,0,21715088,126527890,133982173,141382604,141382730,141382730,63404215,98,63404161,63404161,63404161,63404161,63404161,63404161,0,28218655,51182499,52237718,52237844,52237844,52237844
228423201,128,189934660,196482253,197309197,202269564,210669769,211661899,0,21943539,126268798,133672960,141014301,141014445,141014445,63886208,112,63886144,63886144,63886144,63886144,63886144,63886144,0,27989422,50758826,51805266,51805410,51805410,51805410
227657853,96,188313107,194966295,195800510,200922163,209591933,210525058,0,21535512,127507811,135062807,142563913,142564021,142564021,63747626,84,63747574,63747574,63747574,63747574,63747574,63747574,0,28154181,51425387,52494937,52495045,52495045,52495045
228425230,128,189934380,196480826,197305975,202264030,210674750,211667830,0,21940839,126276920,133679542,141019302,141019446,141019446,63879256,112,63879192,63879192,63879192,63879192,63879192,63879192,0,27984903,50753470,51799682,51799826,51799826,51799826
227069587,112,188241556,194805075,195638110,200735765,209239220,210160285,0,21719803,126513702,133970611,141373785,141373911,141373911,63416344,98,63416290,63416290,63416290,63416290,63416290,63416290,0,28226544,51191849,52247465,52247591,52247591,52247591
228427637,128,189935556,196478352,197306961,202287091,210726201,211676426,0,21936261,126290546,133689606,141026482,141026626,141026626,63867558,112,63867494,63867494,63867494,63867494,63867494,63867494,0,27977265,50744446,51790276,51790420,51790420,51790420
227067349,112,188240865,194810288,195635328,200680258,209184568,210152583,0,21724058,126501051,133961264,141367118,141367244,141367244,63427216,98,63427162,63427162,63427162,63427162,63427162,63427162,0,28233638,51200231,52256202,52256328,52256328,52256328
228424938,128,189928357,196448703,197283222,202297267,210745192,211668487,0,21940296,126278451,133680119,141019421,141019565,141019565,63877912,112,63877848,63877848,63877848,63877848,63877848,63877848,0,27984011,50752432,51798601,51798745,51798745,51798745
227657716,96,188318569,194996635,195824010,200891705,209520730,210523660,0,21536261,127505608,135061431,142563063,142563171,142563171,63749534,84,63749482,63749482,63749482,63749482,63749482,63749482,0,28155434,51426861,52496473,52496581,52496581,52496581
227290234,120,188514211,195075188,195906355,200938765,209483260,210411930,0,21750151,126490587,133939014,141330066,141330201,141330201,63477498,105,63477439,63477439,63477439,63477439,63477439,63477439,0,28180588,51113338,52167086,52167221,52167221,52167221
228206039,120,189665221,196220296,197037988,201989403,210428258,211421058,0,21908432,126306216,133716056,141066715,141066850,141066850,63812807,105,63812748,63812748,63812748,63812748,63812748,63812748,0,28027410,50827897,51875804,51875939,51875939,51875939
227070677,112,188244471,194811607,195635417,200693232,209238357,210163492,0,21718663,126517176,133973646,141376199,141376325,141376325,63413398,98,63413344,63413344,63413344,63413344,63413344,63413344,0,28224631,51189576,52245095,52245221,52245221,52245221
228426561,128,189937203,196484726,197309445,202257610,210680965,211671610,0,21939024,126282376,133683930,141022624,141022768,141022768,63874591,112,63874527,63874527,63874527,63874527,63874527,63874527,0,27981864,50749870,51795930,51796074,51796074,51796074
227655964,96,188308711,194957889,195799009,200956929,209586834,210519764,0,21537786,127500928,135057065,142559466,142559574,142559574,63753495,84,63753443,63753443,63753443,63753443,63753443,63753443,0,28158000,51429917,52499659,52499767,52499767,52499767
228428148,128,189935767,196482651,197308900,202273055,210710365,211678005,0,21935519,126292784,133691372,141027803,141027947,141027947,63865652,112,63865588,63865588,63865588,63865588,63865588,63865588,0,27976022,50742974,51788742,51788886,51788886,51788886
227066769,112,188240380,194805452,195633757,200699817,209199552,210150192,0,21725216,126497592,133958738,141365329,141365455,141365455,63430180,98,63430126,63430126,63430126,63430126,63430126,63430126,0,28235576,51202521,52258589,52258715,52258715,52258715
228425549,128,189930186,196456171,197291895,202313990,210748076,211670441,0,21939139,126281902,133682673,141021247,141021391,141021391,63874954,112,63874890,63874890,63874890,63874890,63874890,63874890,0,27982079,50750148,51796220,51796364,51796364,51796364
227069887,112,188247917,194835895,195651075,200634695,209164064,210160934,0,21720041,126513061,133970542,141373950,141374076,141374076,63416918,98,63416864,63416864,63416864,63416864,63416864,63416864,0,28226927,51192291,52247925,52248051,52248051,52248051
228898960,104,189855778,196459989,197297101,202371631,210972381,211903881,0,21740332,127285007,134784549,142226624,142226741,142226741,64177595,91,64177538,64177538,64177538,64177538,64177538,64177538,0,27933806,51024305,52085289,52085406,52085406,52085406
227184072,120,188391607,194986991,195810933,200806843,209293313,210289078,0,21735911,126500017,133957915,141356619,141356754,141356754,63449026,105,63448967,63448967,63448967,63448967,63448967,63448967,0,28205107,51154353,52209123,52209258,52209258,52209258
227071182,112,188245388,194814887,195635857,200669512,209238032,210165122,0,21717946,126519320,133975351,141377478,141377604,141377604,63411552,98,63411498,63411498,63411498,63411498,63411498,63411498,0,28223432,51188156,52243615,52243741,52243741,52243741
228425286,128,189934437,196480921,197305950,202263245,210674925,211667990,0,21940768,126277137,133679717,141019437,141019581,141019581,63879083,112,63879019,63879019,63879019,63879019,63879019,63879019,0,27984785,50753332,51799539,51799683,51799683,51799683
227069548,112,188241537,194805082,195638092,200736167,209239002,210160182,0,21719852,126513558,133970496,141373699,141373825,141373825,63416473,98,63416419,63416419,63416419,63416419,63416419,63416419,0,28226629,51191950,52247570,52247696,52247696,52247696
228427622,128,189935349,196477621,197306250,202287380,210727415,211676375,0,21936287,126290468,133689542,141026432,141026576,141026576,63867616,112,63867552,63867552,63867552,63867552,63867552,63867552,0,27977303,50744490,51790322,51790466,51790466,51790466
227654775,96,188310492,194965667,195800857,200912367,209537107,210514312,0,21540977,127491508,135050574,142555085,142555193,142555193,63761617,84,63761565,63761565,63761565,63761565,63761565,63761565,0,28163310,51436179,52506186,52506294,52506294,52506294
228426329,128,189932198,196463027,197296906,202310566,210748361,211672631,0,21938078,126285101,133685245,141023192,141023336,141023336,63872217,112,63872153,63872153,63872153,63872153,63872153,63872153,0,27980296,50748035,51794017,51794161,51794161,51794161
227068941,112,188245331,194827652,195645432,200645167,209163662,210157907,0,21721501,126508678,133967138,141371434,141371560,141371560,63420678,98,63420624,63420624,63420624,63420624,63420624,63420624,0,28229380,51195195,52250953,52251079,52251079,52251079
227227326,120,188435811,194999348,195830830,200865635,209413555,210342300,0,21739497,126502609,133953976,141347968,141348103,141348103,63455019,105,63454960,63454960,63454960,63454960,63454960,63454960,0,28191478,51133378,52187546,52187681,52187681,52187681
228268932,120,189743622,196296103,197113425,202062140,210497995,211490650,0,21919105,126294141,133701053,141048784,141048919,141048919,63835344,105,63835285,63835285,63835285,63835285,63835285,63835285,0,28016557,50807901,51855390,51855525,51855525,51855525
227658866,96,188313208,194966102,195798117,200907552,209593152,210528197,0,21534124,127511970,135066150,142566438,142566546,142566546,63744058,84,63744006,63744006,63744006,63744006,63744006,63744006,0,28151861,51422638,52492071,52492179,52492179,52492179
228424303,128,189934419,196481320,197307919,202273624,210672509,211665069,0,21942107,126273112,133676480,141016988,141017132,141017132,63882515,112,63882451,63882451,63882451,63882451,63882451,63882451,0,27987021,50755980,51802299,51802443,51802443,51802443
227070005,112,188242595,194806621,195637801,200727601,209240531,210161521,0,21719279,126515282,133971916,141374789,141374915,141374915,63415002,98,63414948,63414948,63414948,63414948,63414948,63414948,0,28225672,51190815,52246387,52246513,52246513,52246513
228428149,128,189935845,196482734,197309153,202274293,210712363,211677998,0,21935518,126292782,133691369,141027800,141027944,141027944,63865638,112,63865574,63865574,63865574,63865574,63865574,63865574,0,27976015,50742965,51788732,51788876,51788876,51788876
227066788,112,188240357,194805513,195633543,200698403,209197868,210150308,0,21725167,126497744,133958845,141365403,141365529,141365529,63430059,98,63430005,63430005,63430005,63430005,63430005,63430005,0,28235494,51202424,52258488,52258614,52258614,52258614
228425530,128,189930139,196455800,197291614,202313604,210747779,211670354,0,21939192,126281746,133682564,141021172,141021316,141021316,63875090,112,63875026,63875026,63875026,63875026,63875026,63875026,0,27982169,50750255,51796332,51796476,51796476,51796476
227656879,96,188316214,194989033,195815608,200878558,209517778,210521383,0,21537508,127501868,135058491,142560871,142560979,142560979,63752720,84,63752668,63752668,63752668,63752668,63752668,63752668,0,28157511,51429319,52499035,52499143,52499143,52499143
228249102,120,189709235,196231450,197057407,202054587,210548877,211473897,0,21912152,126308397,133711703,141057712,141057847,141057847,63819164,105,63819105,63819105,63819105,63819105,63819105,63819105,0,28014015,50807202,51854519,51854654,51854654,51854654
227246994,120,188469865,195062859,195886476,200879691,209363026,210358756,0,21746540,126488061,133943004,141338753,141338888,141338888,63471442,105,63471383,63471383,63471383,63471383,63471383,63471383,0,28194175,51134264,52188612,52188747,52188747,52188747
227071121,112,188245496,194814825,195635970,200670955,209238105,210164945,0,21718029,126519065,133975146,141377323,141377449,141377449,63411767,98,63411713,63411713,63411713,63411713,63411713,63411713,0,28223572,51188322,52243788,52243914,52243914,52243914
228425300,128,189934379,196481000,197305894,202262389,210674999,211668029,0,21940754,126277197,133679768,141019479,141019623,141019623,63879035,112,63878971,63878971,63878971,63878971,63878971,63878971,0,27984754,50753293,51799498,51799642,51799642,51799642
227657341,96,188311795,194961065,195802150,200957415,209593385,210523265,0,21536199,127505719,135061122,142562633,142562741,142562741,63749402,84,63749350,63749350,63749350,63749350,63749350,63749350,0,28155341,51426762,52496370,52496478,52496478,52496478
228426692,128,189935424,196483767,197309721,202265466,210694591,211674301,0,21937213,126287671,133687056,141024440,141024584,141024584,63870020,112,63869956,63869956,63869956,63869956,63869956,63869956,0,27978860,50746341,51792252,51792396,51792396,51792396
227067918,112,188240183,194803404,195633164,200712989,209215473,210153328,0,21723692,126502170,133962453,141368155,141368281,141368281,63426267,98,63426213,63426213,63426213,63426213,63426213,63426213,0,28233030,51199504,52255444,52255570,52255570,52255570
228426312,128,189932105,196462760,197296869,202311429,210748840,211672570,0,21938101,126285029,133685187,141023148,141023292,141023292,63872269,112,63872205,63872205,63872205,63872205,63872205,63872205,0,27980333,50748079,51794063,51794207,51794207,51794207
227069032,112,188245599,194828226,195645781,200644031,209163261,210158206,0,21721358,126509116,133967474,141371681,141371807,141371807,63420307,98,63420253,63420253,63420253,63420253,63420253,63420253,0,28229134,51194903,52250648,52250774,52250774,52250774
228759234,120,189952167,196518153,197349945,202387380,210938555,211867360,0,21960853,126978213,134432589,141829577,141829712,141829712,64207965,105,64207906,64207906,64207906,64207906,64207906,64207906,0,28072263,51023342,52077938,52078073,52078073,52078073
227323664,104,188295169,194928770,195758417,200794997,209327067,210325527,0,21515397,126806772,134309722,141753490,141753607,141753607,63418683,91,63418626,63418626,63418626,63418626,63418626,63418626,0,28066663,51155336,52216495,52216612,52216612,52216612
227072132,112,188245271,194814584,195634019,200653544,209239003,210167958,0,21716622,126523288,133978525,141379871,141379997,141379997,63408158,98,63408104,63408104,63408104,63408104,63408104,63408104,0,28221223,51185539,52240887,52241013,52241013,52241013
228424370,128,189934363,196481055,197307614,202273069,210672595,211665270,0,21942021,126273384,133676700,141017157,141017301,141017301,63882293,112,63882229,63882229,63882229,63882229,63882229,63882229,0,27986875,50755807,51802119,51802263,51802263,51802263
227069975,112,188242596,194806785,195638100,200728490,209240610,210161430,0,21719319,126515161,133971818,141374714,141374840,141374840,63415102,98,63415048,63415048,63415048,63415048,63415048,63415048,0,28225738,51190894,52246469,52246595,52246595,52246595
228428114,128,189935930,196482746,197309255,202275360,210713795,211677890,0,21935564,126292630,133691246,141027703,141027847,141027847,63865755,112,63865691,63865691,63865691,63865691,63865691,63865691,0,27976092,50743056,51788827,51788971,51788971,51788971
227654145,96,188309663,194960870,195798815,200927710,209551080,210512485,0,21541841,127488919,135048493,142553512,142553620,142553620,63763841,84,63763789,63763789,63763789,63763789,63763789,63763789,0,28164756,51437892,52507972,52508080,52508080,52508080
228426960,128,189934018,196470145,197301099,202299929,210740854,211674369,0,21937214,126287688,133687325,141024765,141024909,141024909,63870002,112,63869938,63869938,63869938,63869938,63869938,63869938,0,27978856,50746330,51792240,51792384,51792384,51792384
227068116,112,188242881,194819225,195640550,200660915,209169960,210155275,0,21722772,126504873,133964180,141369245,141369371,141369371,63423935,98,63423881,63423881,63423881,63423881,63423881,63423881,0,28231500,51197704,52253568,52253694,52253694,52253694
228186215,120,189630880,196155633,196981855,201981485,210479025,211404310,0,21901480,126320482,133726717,141075655,141075790,141075790,63796628,105,63796569,63796569,63796569,63796569,63796569,63796569,0,28024870,50827199,51874934,51875069,51875069,51875069
227309908,120,188548193,195138674,195961976,200952276,209432756,210428406,0,21757182,126476072,133928068,141320870,141321005,141321005,63493890,105,63493831,63493831,63493831,63493831,63493831,63493831,0,28183265,51114200,52168127,52168262,52168262,52168262
227659842,96,188313130,194965819,195798244,200906309,209595849,210531064,0,21532795,127515976,135069373,142568880,142568988,142568988,63740642,84,63740590,63740590,63740590,63740590,63740590,63740590,0,28149638,51420004,52489325,52489433,52489433,52489433
228423286,128,189934638,196482062,197309326,202270941,210670056,211662086,0,21943475,126269003,133673160,141014468,141014612,141014612,63886036,112,63885972,63885972,63885972,63885972,63885972,63885972,0,27989310,50758692,51805126,51805270,51805270,51805270
227070600,112,188243928,194808781,195636356,200714916,209240651,210162991,0,21718766,126516854,133973386,141376002,141376128,141376128,63413667,98,63413613,63413613,63413613,63413613,63413613,63413613,0,28224808,51189787,52245316,52245442,52245442,52245442
228426818,128,189935439,196484038,197310157,202266432,210695647,211674652,0,21937033,126288189,133687470,141024748,141024892,141024892,63869552,112,63869488,63869488,63869488,63869488,63869488,63869488,0,27978560,50745985,51791880,51792024,51792024,51792024
227067811,112,188240159,194803339,195632634,200711504,209214379,210153044,0,21723842,126501734,133962104,141367894,141368020,141368020,63426656,98,63426602,63426602,63426602,63426602,63426602,63426602,0,28233281,51199802,52255755,52255881,52255881,52255881
228426272,128,189931940,196462371,197296830,202311935,210748955,211672450,0,21938147,126284874,133685060,141023049,141023193,141023193,63872391,112,63872327,63872327,63872327,63872327,63872327,63872327,0,27980412,50748173,51794161,51794305,51794305,51794305
227656101,96,188313883,194982179,195810744,200884453,209516928,210518953,0,21538701,127498306,135055715,142558816,142558924,142558924,63755797,84,63755745,63755745,63755745,63755745,63755745,63755745,0,28159513,51431689,52501506,52501614,52501614,52501614
228424940,128,189928314,196448295,197282694,202295695,210745225,211668505,0,21940349,126278315,133680047,141019388,141019532,141019532,63878037,112,63877973,63877973,63877973,63877973,63877973,63877973,0,27984090,50752524,51798697,51798841,51798841,51798841
227070953,112,188250952,194845078,195660788,200645083,209166723,210163813,0,21718479,126517730,133974226,141376700,141376826,141376826,63412908,98,63412854,63412854,63412854,63412854,63412854,63412854,0,28224321,51189204,52244707,52244833,52244833,52244833
227072074,112,188245270,194814780,195634385,200654570,209239005,210167825,0,21716702,126523053,133978336,141379728,141379854,141379854,63408368,98,63408314,63408314,63408314,63408314,63408314,63408314,0,28221357,51185700,52241055,52241181,52241181,52241181
228424406,128,189934294,196480865,197307334,202272509,210672699,211665344,0,21941964,126273536,133676820,141017244,141017388,141017388,63882149,112,63882085,63882085,63882085,63882085,63882085,63882085,0,27986783,50755698,51802005,51802149,51802149,51802149
227657234,96,188311912,194963055,195801470,200943225,209592090,210523065,0,21536359,127505264,135060760,142562364,142562472,142562472,63749805,84,63749753,63749753,63749753,63749753,63749753,63749753,0,28155601,51427069,52496690,52496798,52496798,52496798
228426628,128,189937390,196485040,197309874,202257909,210681814,211671809,0,21938929,126282659,133684156,141022793,141022937,141022937,63874351,112,63874287,63874287,63874287,63874287,63874287,63874287,0,27981707,50749685,51795737,51795881,51795881,51795881
227068385,112,188238951,194802248,195634838,200730697,209231402,210156967,0,21721419,126508844,133966688,141370810,141370936,141370936,63420504,98,63420450,63420450,63420450,63420450,63420450,63420450,0,28229252,51195057,52250809,52250935,52250935,52250935
228426907,128,189933915,196469379,197300573,202300589,210741591,211674216,0,21937287,126287470,133687150,141024633,141024777,141024777,63870187,112,63870123,63870123,63870123,63870123,63870123,63870123,0,27978977,50746473,51792389,51792533,51792533,51792533
227068188,112,188243089,194820204,195641234,200659904,209169292,210155467,0,21722682,126505154,133964407,141369418,141369544,141369544,63423691,98,63423637,63423637,63423637,63423637,63423637,63423637,0,28231343,51197516,52253372,52253498,52253498,52253498
228497812,120,189926917,196454195,197280767,202282827,210783692,211709147,0,21945321,126441331,133850525,141202422,141202557,141202557,63956282,105,63956223,63956223,63956223,63956223,63956223,63956223,0,28005227,50816719,51864877,51865012,51865012,51865012
227585000,104,188320012,194992118,195827260,200903365,209482285,210483550,0,21531003,127343437,134891580,142380476,142380593,142380593,63670563,91,63670506,63670506,63670506,63670506,63670506,63670506,0,28133824,51362108,52429711,52429828,52429828,52429828
227073083,112,188245219,194813898,195633868,200652528,209241523,210170893,0,21715223,126527478,133981823,141382329,141382455,141382455,63404554,98,63404500,63404500,63404500,63404500,63404500,63404500,0,28218876,51182761,52237991,52238117,52238117,52238117
228423314,128,189934576,196481842,197309256,202272046,210669956,211662166,0,21943435,126269123,133673256,141014542,141014686,141014686,63885934,112,63885870,63885870,63885870,63885870,63885870,63885870,0,27989245,50758615,51805046,51805190,51805190,51805190
227070547,112,188243684,194808598,195636483,200716053,209241227,210162917,0,21718788,126516779,133973291,141375912,141376038,141376038,63413723,98,63413669,63413669,63413669,63413669,63413669,63413669,0,28224845,51189830,52245360,52245486,52245486,52245486
228427010,128,189935679,196484285,197310299,202267074,210696360,211675120,0,21936826,126288829,133688020,141025183,141025327,141025327,63869019,112,63868955,63868955,63868955,63868955,63868955,63868955,0,27978210,50745571,51791449,51791593,51791593,51791593
227655067,96,188309555,194959186,195798011,200940401,209568571,210514986,0,21540605,127492633,135051496,142555791,142555899,142555899,63760663,84,63760611,63760611,63760611,63760611,63760611,63760611,0,28162688,51435442,52505418,52505526,52505526,52505526
228427606,128,189935287,196477071,197305800,202287770,210728225,211676335,0,21936303,126290415,133689499,141026399,141026543,141026543,63867654,112,63867590,63867590,63867590,63867590,63867590,63867590,0,27977329,50744521,51790354,51790498,51790498,51790498
227067391,112,188241150,194811588,195636243,200678248,209182273,210152783,0,21723944,126501382,133961495,141367276,141367402,141367402,63426935,98,63426881,63426881,63426881,63426881,63426881,63426881,0,28233457,51200018,52255980,52256106,52256106,52256106
228424859,128,189928205,196447656,197281795,202293500,210745380,211668495,0,21940406,126278126,133679860,141019227,141019371,141019371,63878193,112,63878129,63878129,63878129,63878129,63878129,63878129,0,27984192,50752645,51798823,51798967,51798967,51798967
92297050,48,76579926,79268979,79591557,81564677,85027417,85456522,0,8863779,51350744,54366902,57361745,57361799,57361799,25727081,42,25727059,25727059,25727059,25727059,25727059,25727059,0,11504890,20803626,21230686,21230740,21230740,21230740
number,of,instructions:,114407147635
