omp threads,kernel time,total_time, kernel percentage,,serial time,speedup
1,23.004995346069,40.85619354248,56.307239532471,,40.85619354248,1
2,13.797162055969,32.543476104736,42.396091461182,,40.85619354248,1.25543422008733
4,7.888547897339,26.644685745239,29.60645866394,,40.85619354248,1.53337119203143
8,5.106537818909,23.921586990356,21.34698677063,,40.85619354248,1.7079215337574
14,4.966215133667,23.871555328369,20.803903579712,,40.85619354248,1.71150111421213
28,2.863937139511,21.61156463623,13.251873970032,,40.85619354248,1.89047828004031
42,2.699002027512,21.463396072388,12.574906349182,,40.85619354248,1.90352884532752
56,2.773772001266,21.508430480957,12.896208763123,,40.85619354248,1.89954323160181
