nn_openmp.c: In function 'main':
nn_openmp.c:29:2: warning: implicit declaration of function 'clock' [-Wimplicit-function-declaration]
  long long time0 = clock();
  ^
nn_openmp.c:34:44: warning: unused variable 'tmp_long' [-Wunused-variable]
  float target_lat, target_long, tmp_lat=0, tmp_long=0;
                                            ^
nn_openmp.c:34:33: warning: unused variable 'tmp_lat' [-Wunused-variable]
  float target_lat, target_long, tmp_lat=0, tmp_long=0;
                                 ^
nn_openmp.c:32:54: warning: unused variable 'rec_iter2' [-Wunused-variable]
  char   sandbox[REC_LENGTH * REC_WINDOW], *rec_iter,*rec_iter2, dbname[64];
                                                      ^
Analysis type: all
Measuring ALL characteristics...
interval size: full
Returning data for full execution...
All done reading config
interval_size: -1, mode: 1
