1,66.574
2,66.574
3,66.574
4,66.574
5,66.574
6,66.574
7,66.574
8,66.574
9,66.574
10,66.574
11,66.574
12,73.095
13,73.095
14,73.095
15,73.095
16,73.095
17,73.095
18,73.095
19,73.095
20,73.095
21,73.095
