1000000000,4474497,4281668,3319781,3546955,6407582,4775567,3319398,4014821,10190075,5161107,3326579,4375294,70456548,5958458,4708828
1000000000,911144,607229,607160,607289,911361,607165,607155,607270,950804,607177,607156,607201,63985868,1214266,607142
1000000000,19393,18545,18512,19106,20644,18437,18455,18812,480832,18648,18446,18488,317384285,36685,18422
1000000000,7783,7783,7783,7783,7783,7783,7783,7783,7783,7783,7783,7783,333322956,15566,7783
1000000000,5952,5952,5952,5952,5952,5952,5952,5952,5952,5952,5952,5952,333325398,11904,5952
1000000000,4806,4806,4806,4806,4806,4806,4806,4806,4806,4806,4806,4806,333326925,9612,4806
1000000000,4225,4225,4225,4225,4225,4225,4225,4225,4225,4225,4225,4225,333327700,8450,4225
1000000000,3914,3914,3914,3914,3914,3914,3914,3914,3914,3914,3914,3914,333328115,7828,3914
1000000000,3498,3498,3498,3498,3498,3498,3498,3498,3498,3498,3498,3498,333328669,6996,3498
1000000000,3314,3314,3314,3314,3314,3314,3314,3314,3314,3314,3314,3314,333328915,6628,3314
1000000000,3163,3163,3163,3163,3163,3163,3163,3163,3163,3163,3163,3163,333329116,6326,3163
635032122,1923,1923,1923,1923,1923,1923,1923,1923,1923,1923,1923,1923,211674810,3846,1923
number,of,instructions:,11635032122
