100000000,30276764,17750049,28433533,59055797,1,47706,1832572,9604,1761345,7091849,5766,1771341
100000000,30374318,17866733,28587643,58904770,0,0,1786674,0,1786673,7147130,437,1786673
100000000,30374321,17866735,28587649,58904766,0,0,1786673,0,1786674,7147128,436,1786674
100000000,30374321,17866732,28587646,58904768,0,0,1786673,0,1786673,7147131,436,1786673
100000000,30374320,17866735,28587646,58904769,0,0,1786674,0,1786673,7147129,436,1786673
100000000,30374317,17866735,28587648,58904764,0,0,1786673,0,1786674,7147131,436,1786674
100000000,30374322,17866731,28587644,58904771,0,0,1786673,0,1786673,7147129,437,1786673
100000000,30374319,17866734,28587646,58904768,0,0,1786674,0,1786673,7147129,436,1786674
100000000,30374318,17866735,28587649,58904764,0,0,1786673,0,1786674,7147131,436,1786673
100000000,24380783,12809713,18548269,53617000,0,1859854,2583429,0,1187599,4751690,1681,14662659
100000000,20305293,9372348,11730352,50036760,0,3122832,3124777,0,780123,3123361,3923,23398525
100000000,20302573,9371352,11734753,50050723,0,3122018,3124685,0,779696,3122732,5416,23383728
100000000,20308065,9373373,11725889,50022604,0,3123668,3124861,0,780557,3123991,2412,23413532
100000000,20309215,9373797,11724068,50016819,0,3124016,3124890,0,780735,3124249,1795,23419661
100000000,20307123,9373030,11727533,50027721,0,3123390,3124803,0,780402,3123762,2958,23408090
100000000,20309149,9373769,11724117,50017023,0,3123994,3124899,0,780728,3124240,1817,23419457
100000000,20305309,9372361,11730325,50036708,0,3122840,3124776,0,780125,3123358,3918,23398590
100000000,20308535,9373535,11725067,50020061,0,3123803,3124891,0,780634,3124106,2142,23416241
100000000,20307407,9373121,11726862,50025793,0,3123463,3124863,0,780458,3123850,2753,23410171
100000000,20307466,9373146,11726806,50025579,0,3123484,3124852,0,780465,3123859,2730,23410397
100000000,20307103,9373030,11727548,50027803,0,3123386,3124808,0,780400,3123755,2966,23408006
100000000,20306998,9372977,11727631,50028140,0,3123346,3124823,0,780388,3123741,3004,23407670
100000000,20308064,9373371,11725878,50022636,0,3123666,3124866,0,780556,3123989,2415,23413512
100000000,20306955,9372959,11727667,50028274,0,3123332,3124828,0,780383,3123738,3018,23407531
100000000,20306401,9372753,11728561,50031116,0,3123164,3124813,0,780296,3123610,3323,23404518
100000000,20306056,9372647,11729274,50033247,0,3123074,3124764,0,780234,3123510,3548,23402232
100000000,20305740,9372503,11729546,50034276,0,3122962,3124809,0,780197,3123473,3659,23401175
100000000,20304383,9372035,11731942,50041745,0,3122570,3124715,0,779973,3123130,4457,23393235
100000000,20308680,9373606,11724948,50019585,0,3123858,3124869,0,780651,3124124,2090,23416722
100000000,20308068,9373365,11725883,50022636,0,3123664,3124866,0,780556,3123988,2416,23413510
100000000,19975513,9143822,11150482,49001308,0,2836894,2837298,0,4930575,2837078,1359,22151778
100000000,16699804,6956580,5392816,38961677,0,0,0,0,45906702,1020,0,9737785
100000000,16699876,6956610,5392419,38961844,0,0,0,0,45906892,1020,0,9737825
100000000,16699825,6956593,5392621,38961738,0,0,0,0,45906812,1017,0,9737812
100000000,16699848,6956599,5392573,38961779,0,0,0,0,45906819,1020,0,9737809
100000000,16699743,6956555,5393190,38961533,0,0,0,0,45906512,1020,0,9737745
100000000,16699872,6956613,5392338,38961851,0,0,0,0,45906954,1017,0,9737840
100000000,16699778,6956569,5392988,38961613,0,0,0,0,45906615,1020,0,9737764
100000000,16699881,6956618,5392290,38961872,0,0,0,0,45906975,1017,0,9737846
100000000,16699911,6956624,5392253,38961922,0,0,0,0,45906965,1020,0,9737840
100000000,16699829,6956590,5392658,38961735,0,0,0,0,45906784,1020,0,9737803
100000000,16700001,6956667,5391634,38962149,0,0,0,0,45907290,1017,0,9737910
100000000,17209633,6845905,5329522,39300679,0,172,41,0,45520791,1113,34,9643558
100000000,33336862,3333361,3334175,50007735,0,0,0,0,33325463,1628,814,6665093
100000000,33336860,3333360,3334174,50007731,0,0,0,0,33325466,1628,814,6665093
100000000,33336857,3333361,3334174,50007725,0,0,0,0,33325473,1626,813,6665095
100000000,33336861,3333360,3334174,50007733,0,0,0,0,33325465,1628,814,6665092
100000000,33336855,3333361,3334174,50007723,0,0,0,0,33325474,1626,813,6665096
100000000,16776740,6942544,5295391,39049048,0,120,14,0,45903950,1203,134,9725266
100000000,16717560,6963979,5292202,39003109,0,0,0,0,45955525,1020,0,9748144
100000000,16717554,6963976,5292247,39003092,0,0,0,0,45955504,1020,0,9748137
100000000,16717530,6963965,5292358,39003036,0,0,0,0,45955458,1020,0,9748128
100000000,16717457,6963936,5292781,39002869,0,0,0,0,45955247,1020,0,9748083
100000000,16717677,6964027,5291559,39003378,0,0,0,0,45955836,1020,0,9748207
100000000,16717604,6963997,5291969,39003209,0,0,0,0,45955637,1020,0,9748165
100000000,16717752,6964058,5291108,39003555,0,0,0,0,45956061,1020,0,9748256
100000000,16717654,6964017,5291690,39003323,0,0,0,0,45955774,1020,0,9748193
100000000,16717444,6963930,5292834,39002838,0,0,0,0,45955228,1020,0,9748080
100000000,16717832,6964092,5290672,39003744,0,0,0,0,45956265,1020,0,9748299
100000000,16717740,6964053,5291205,39003523,0,0,0,0,45956010,1020,0,9748242
100000000,32467254,3523588,3436087,49432212,0,108,10,0,33986459,1642,773,6826449
100000000,33336859,3333360,3334173,50007725,0,0,0,0,33325475,1626,813,6665094
100000000,33336858,3333361,3334174,50007731,0,0,0,0,33325465,1628,814,6665094
100000000,33336858,3333360,3334174,50007726,0,0,0,0,33325473,1626,813,6665094
100000000,33336860,3333360,3334174,50007730,0,0,0,0,33325467,1628,814,6665093
8703027,2899820,293574,296418,4357441,2,2187,697,84,2889053,1268,238,577838
