118601,1954,1124,110
111678,1752,9,3
111678,1752,9,3
111678,1752,9,3
111678,1751,9,3
111678,1752,9,3
111678,1752,9,3
111678,1752,9,3
111678,1752,9,3
103597,1650,142,17
97755,1543,93,9
97691,1541,93,9
97821,1543,93,9
97849,1543,93,9
97797,1543,93,9
97849,1545,92,9
97755,1541,92,9
97833,1543,93,9
97806,1543,93,9
97809,1543,92,9
97797,1543,93,9
97795,1543,93,9
97822,1543,93,9
97795,1543,93,9
97781,1543,93,9
97771,1543,93,9
97767,1541,93,9
97732,1542,92,9
97835,1543,93,9
97823,1543,93,9
138137,2297,239,34
522750,8175,10,1
522749,8181,10,1
522743,8183,10,1
522749,8175,10,1
522744,8181,10,1
522750,8177,10,1
522743,8181,10,1
522744,8175,10,1
522748,8183,10,1
522743,8175,10,1
522755,8181,10,1
545178,8567,142,20
1250278,19547,5,1
1250278,19542,5,1
1250278,19542,5,1
1250277,19548,5,1
1250277,19542,5,1
525205,8236,115,16
523302,8187,10,1
523301,8189,10,1
523301,8187,10,1
523302,8187,10,1
523302,8189,10,1
523301,8187,10,1
523307,8181,10,1
523308,8188,10,1
523296,8188,10,1
523313,8187,10,1
523306,8187,10,1
1212769,18981,102,14
1250278,19542,5,1
1250277,19542,5,1
1250278,19548,5,1
1250280,19541,5,1
109142,1810,600,77
number,of,instructions:,6508702953
