30277011,6624,10243121,1786946,14391704,3774673,25103,31408,9506,2830,1725,1489,1041,380,461,0,0,0,0,0,0
30374318,0,10202205,1786673,14581699,3803741,0,0,0,0,0,0,0,0,0,0,0,0,0,0,0
30374321,0,10202196,1786674,14581667,3803784,0,0,0,0,0,0,0,0,0,0,0,0,0,0,0
30374321,0,10202205,1786673,14581704,3803739,0,0,0,0,0,0,0,0,0,0,0,0,0,0,0
30374320,0,10202200,1786674,14581684,3803762,0,0,0,0,0,0,0,0,0,0,0,0,0,0,0
30374317,0,10202198,1786673,14581685,3803761,0,0,0,0,0,0,0,0,0,0,0,0,0,0,0
30374322,0,10202205,1786673,14581684,3803760,0,0,0,0,0,0,0,0,0,0,0,0,0,0,0
30374319,0,10202199,1786674,14581684,3803762,0,0,0,0,0,0,0,0,0,0,0,0,0,0,0
30374318,0,10202198,1786673,14581687,3803760,0,0,0,0,0,0,0,0,0,0,0,0,0,0,0
24380783,29291,10175652,1654079,6829671,4797157,73793,142911,269296,398959,9772,1,46,1,100,54,0,0,0,0,0
20305293,48742,10158248,1564769,1561728,5469376,124121,239279,451717,670091,16650,89,131,132,176,44,0,0,0,0,0
20302573,48710,10158990,1565657,1561438,5465869,123944,237547,451923,670963,16874,86,88,308,88,88,0,0,0,0,0
20308065,48775,10157477,1563893,1562026,5472572,123870,238619,452599,671784,16098,0,88,132,0,132,0,0,0,0,0
20309215,48789,10157155,1563554,1562150,5473682,123719,239090,452547,672145,16120,0,88,44,0,44,88,0,0,0,0
20307123,48763,10157736,1564273,1561927,5471766,124306,238578,451517,671562,16255,88,48,40,176,88,0,0,0,0,0
20309149,48789,10157175,1563540,1562142,5474003,124311,238771,453045,671033,16076,0,0,44,132,88,0,0,0,0,0
20305309,48742,10158233,1564777,1561730,5469282,123474,239536,453317,669136,16510,0,220,132,132,44,44,0,0,0,0
20308535,48781,10157351,1563705,1562074,5473472,124364,237941,452803,671554,16182,44,44,0,132,44,44,0,0,0,0
20307407,48768,10157666,1564052,1561953,5471895,123958,238499,452777,671084,16359,44,44,132,88,88,0,0,0,0,0
20307466,48769,10157641,1564065,1561960,5471785,123877,238953,452629,671019,16372,44,44,44,132,132,0,0,0,0,0
20307103,48763,10157738,1564272,1561926,5471630,123764,239151,451698,671430,16291,0,66,154,132,88,0,0,0,0,0
20306998,48762,10157771,1564254,1561911,5471473,123503,238730,452704,671132,16318,44,44,44,220,88,0,0,0,0,0
20308064,48776,10157481,1563897,1562025,5472476,123757,239282,452749,671129,16140,0,88,88,132,0,44,0,0,0,0
20306955,48762,10157783,1564247,1561906,5471562,124095,237836,451859,672130,16335,0,88,176,88,88,0,0,0,0,0
20306401,48755,10157940,1564424,1561846,5470564,123958,239183,451625,671207,16459,44,44,176,110,22,44,0,0,0,0
20306056,48750,10158024,1564631,1561815,5469888,123441,238784,452758,670902,16581,42,0,224,128,88,0,0,0,0,0
20305740,48748,10158127,1564576,1561774,5470143,124568,238542,452100,670184,16494,88,88,0,220,88,0,0,0,0,0
20304383,48731,10158478,1565158,1561636,5467930,124262,238275,452247,670282,16768,88,44,176,308,0,0,0,0,0,0
20308680,48782,10157304,1563729,1562093,5473669,124432,238635,452043,671556,16173,0,0,88,44,88,44,0,0,0,0
20308068,48776,10157483,1563900,1562024,5473047,123432,238359,452750,671805,16140,0,44,132,44,132,0,0,0,0,0
19975513,77580,9352654,1538078,1552774,6057773,112837,217540,410678,609679,14556,0,1092,29676,87,210,144,0,0,0,155
16699804,346938,1220622,1305867,1478057,11997998,0,0,0,0,0,0,680,348757,0,0,0,288,576,0,21
16699876,347813,1220628,1305873,1478063,11998052,0,0,0,0,0,0,680,348757,0,0,0,0,0,0,10
16699825,347818,1220617,1305866,1478060,11998035,0,0,0,0,0,0,678,348751,0,0,0,0,0,0,0
16699848,347822,1220626,1305871,1478060,11998031,0,0,0,0,0,0,680,348758,0,0,0,0,0,0,0
16699743,347819,1220619,1305863,1478051,11997958,0,0,0,0,0,0,680,348753,0,0,0,0,0,0,0
16699872,347823,1220619,1305869,1478064,11998065,0,0,0,0,0,0,678,348754,0,0,0,0,0,0,0
16699778,347818,1220621,1305866,1478054,11997983,0,0,0,0,0,0,680,348756,0,0,0,0,0,0,0
16699881,347822,1220620,1305870,1478065,11998071,0,0,0,0,0,0,678,348755,0,0,0,0,0,0,0
16699911,347826,1220630,1305875,1478067,11998073,0,0,0,0,0,0,680,348760,0,0,0,0,0,0,0
16699829,347819,1220626,1305870,1478058,11998023,0,0,0,0,0,0,680,348753,0,0,0,0,0,0,0
16700001,347827,1220628,1305879,1478076,11998155,0,0,0,0,0,0,678,348758,0,0,0,0,0,0,0
17209633,349928,1191633,1358085,1534604,12398339,52,5,17,0,0,0,1802,349525,0,0,0,0,0,0,25643
33336862,416568,5698,3127518,3332547,25201571,0,0,0,0,0,0,814,418959,0,0,0,0,0,0,833187
33336860,416568,5698,3127519,3332546,25201569,0,0,0,0,0,0,814,418959,0,0,0,0,0,0,833187
33336857,416568,5691,3127515,3332548,25201579,0,0,0,0,0,0,813,418956,0,0,0,0,0,0,833187
33336861,416568,5698,3127519,3332546,25201570,0,0,0,0,0,0,814,418960,0,0,0,0,0,0,833186
33336855,416568,5691,3127515,3332547,25201577,0,0,0,0,0,0,813,418957,0,0,0,0,0,0,833187
16776740,1300,1239501,1312553,1511199,12011960,11,0,0,0,0,0,2226,346721,36,72,144,288,576,0,350153
16717560,0,1221918,1307255,1479629,12010762,0,0,0,0,0,0,680,349125,0,0,0,0,0,0,348191
16717554,0,1221917,1307254,1479628,12010759,0,0,0,0,0,0,680,349126,0,0,0,0,0,0,348190
16717530,0,1221915,1307252,1479626,12010742,0,0,0,0,0,0,680,349125,0,0,0,0,0,0,348190
16717457,0,1221909,1307246,1479620,12010686,0,0,0,0,0,0,680,349125,0,0,0,0,0,0,348191
16717677,0,1221927,1307265,1479639,12010850,0,0,0,0,0,0,680,349125,0,0,0,0,0,0,348191
16717604,0,1221922,1307258,1479632,12010795,0,0,0,0,0,0,680,349127,0,0,0,0,0,0,348190
16717752,0,1221931,1307270,1479646,12010901,0,0,0,0,0,0,680,349130,0,0,0,0,0,0,348194
16717654,0,1221924,1307261,1479637,12010829,0,0,0,0,0,0,680,349128,0,0,0,0,0,0,348195
16717444,0,1221910,1307246,1479618,12010682,0,0,0,0,0,0,680,349121,0,0,0,0,0,0,348187
16717832,0,1221936,1307275,1479654,12010955,0,0,0,0,0,0,680,349134,0,0,0,0,0,0,348198
16717740,0,1221931,1307269,1479644,12010892,0,0,0,0,0,0,680,349130,0,0,0,0,0,0,348194
32467254,0,77384,3028683,3235330,24507368,23,0,0,0,0,0,2017,413835,0,0,0,0,0,0,1202614
33336859,0,5691,3127516,3332548,25201580,0,0,0,0,0,0,813,418956,0,0,0,0,0,0,1249755
33336858,0,5698,3127518,3332546,25201568,0,0,0,0,0,0,814,418960,0,0,0,0,0,0,1249754
33336858,0,5691,3127515,3332548,25201579,0,0,0,0,0,0,813,418957,0,0,0,0,0,0,1249755
33336860,0,5698,3127518,3332546,25201563,0,0,0,0,0,0,814,418960,0,0,0,0,0,0,1249761
2899825,74,9266,271929,316079,2155533,512,213,720,545,31,0,575,35816,0,0,0,0,0,0,108532
number,of,instructions:,6508702953
