Sat Apr  4 16:06:28 2020       
+-----------------------------------------------------------------------------+
| NVIDIA-SMI 396.37                 Driver Version: 396.37                    |
|-------------------------------+----------------------+----------------------+
| GPU  Name        Persistence-M| Bus-Id        Disp.A | Volatile Uncorr. ECC |
| Fan  Temp  Perf  Pwr:Usage/Cap|         Memory-Usage | GPU-Util  Compute M. |
|===============================+======================+======================|
|   0  Tesla K40c          Off  | 00000000:01:00.0 Off |                    0 |
| 25%   49C    P0    66W / 235W |      0MiB / 11441MiB |      0%      Default |
+-------------------------------+----------------------+----------------------+
|   1  Quadro M4000        Off  | 00000000:04:00.0 Off |                  N/A |
| 51%   53C    P0    42W / 120W |      0MiB /  8126MiB |      0%      Default |
+-------------------------------+----------------------+----------------------+
|   2  Quadro M4000        Off  | 00000000:05:00.0 Off |                  N/A |
|  0%   54C    P0    43W / 120W |      0MiB /  8126MiB |      0%      Default |
+-------------------------------+----------------------+----------------------+
                                                                               
+-----------------------------------------------------------------------------+
| Processes:                                                       GPU Memory |
|  GPU       PID   Type   Process name                             Usage      |
|=============================================================================|
|  No running processes found                                                 |
+-----------------------------------------------------------------------------+
