1,66.477
2,66.477
3,66.477
4,66.477
5,66.477
6,66.477
7,69.073
8,69.073
9,69.073
10,69.073
11,69.073
12,69.073
13,69.073
14,69.073
15,67.823
16,67.823
17,67.823
18,67.823
19,67.823
20,67.823
21,67.823
22,67.823
23,67.823
24,67.823
25,67.823
26,67.823
27,68.209
28,68.209
29,68.209
30,68.209
31,68.209
32,68.209
33,68.209
34,68.209
35,67.727
36,67.727
37,67.727
38,67.727
39,67.727
40,67.727
41,67.727
42,67.727
43,67.727
44,67.727
45,67.727
46,67.727
47,68.209
48,68.209
49,68.209
50,68.209
51,68.209
52,68.209
53,68.209
54,68.209
55,67.727
56,67.727
57,67.727
58,67.727
59,67.727
60,67.727
61,67.727
62,67.727
63,67.727
64,67.727
65,67.727
66,67.727
67,68.209
68,68.209
69,68.209
70,68.209
71,68.209
72,68.209
73,68.209
74,68.209
75,67.727
76,67.727
77,67.727
78,67.727
79,67.727
80,67.727
81,67.727
82,67.727
83,67.727
84,67.727
85,67.727
86,67.727
87,68.209
88,68.209
89,68.209
90,68.209
91,68.209
92,68.209
93,68.209
94,68.209
95,67.633
96,67.633
97,67.633
98,67.633
99,67.633
100,67.633
101,67.633
102,67.633
103,67.633
104,67.633
105,67.633
106,67.633
107,68.209
108,68.209
109,68.209
110,68.209
111,68.209
112,68.209
113,68.209
114,68.209
115,67.633
116,67.633
117,67.633
118,67.633
119,67.633
120,67.633
121,67.633
122,67.633
123,67.633
124,67.633
125,67.633
126,67.633
127,68.209
128,68.209
129,68.209
130,68.209
131,68.209
132,68.209
133,68.209
134,68.209
135,67.633
136,67.633
137,67.633
138,67.633
139,67.633
140,67.633
141,67.633
142,67.633
143,67.731
144,67.731
145,67.731
146,67.731
147,67.731
148,67.731
149,67.731
150,67.731
151,67.731
152,67.823
153,67.823
154,67.823
155,67.823
156,67.823
157,67.823
158,67.823
159,67.823
160,67.924
161,67.924
162,67.924
163,67.924
164,67.924
165,67.924
166,67.924
167,67.924
168,67.924
169,67.924
170,68.018
171,68.018
172,68.018
173,68.018
174,68.018
175,68.018
176,68.018
177,68.018
178,67.536
179,67.536
180,67.536
181,67.536
182,67.536
183,67.536
184,67.536
185,67.536
186,67.536
187,67.920
188,67.920
189,67.920
190,67.920
191,67.920
192,67.920
193,67.920
194,67.920
195,67.826
196,67.826
197,67.826
198,67.826
199,67.826
200,67.826
201,67.826
202,67.826
203,67.826
204,68.018
205,68.018
206,68.018
207,68.018
208,68.018
209,68.018
210,68.018
211,68.018
212,67.536
213,67.536
214,67.536
215,67.536
216,67.536
217,67.536
218,67.536
219,67.536
220,67.536
221,67.536
222,67.536
223,67.536
224,68.018
225,68.018
226,68.018
227,68.018
228,68.018
229,68.018
230,68.018
231,68.018
232,67.536
233,67.536
234,67.536
235,67.536
236,67.536
237,67.536
238,67.536
239,67.536
240,67.536
241,67.920
242,67.920
243,67.920
244,67.920
245,67.920
246,67.920
247,67.920
248,67.920
249,67.536
250,67.536
251,67.536
252,67.536
253,67.536
254,67.536
255,67.536
256,67.536
257,67.536
258,68.018
259,68.018
260,68.018
261,68.018
262,68.018
263,68.018
264,68.018
265,68.018
266,67.536
267,67.536
268,67.536
269,67.536
270,67.536
271,67.536
272,67.536
273,67.536
274,67.536
275,68.018
276,68.018
277,68.018
278,68.018
279,68.018
280,68.018
281,68.018
282,68.018
283,67.536
284,67.536
285,67.536
286,67.536
287,67.536
288,67.536
289,67.536
290,67.536
291,67.536
292,67.536
293,67.536
294,67.536
295,67.920
296,67.920
297,67.920
298,67.920
299,67.920
300,67.920
301,67.920
302,67.920
303,67.536
304,67.536
305,67.536
306,67.536
307,67.536
308,67.536
309,67.536
310,67.536
311,67.536
312,67.536
313,67.536
314,68.018
315,68.018
316,68.018
317,68.018
318,68.018
319,68.018
320,68.018
321,68.018
322,67.536
323,67.536
324,67.536
325,67.536
326,67.536
327,67.536
328,67.536
329,67.536
330,67.536
331,67.536
332,67.920
333,67.920
334,67.920
335,67.920
336,67.920
337,67.920
338,67.920
339,67.920
340,67.536
341,67.536
342,67.536
343,67.536
344,67.536
345,67.536
346,67.536
347,67.536
348,67.536
349,68.018
350,68.018
351,68.018
352,68.018
353,68.018
354,68.018
355,68.020
356,68.020
357,68.020
358,68.020
359,68.020
360,68.020
361,68.020
362,68.020
363,68.018
364,68.018
365,68.018
366,68.018
367,68.018
368,68.018
369,68.018
370,68.018
371,67.536
372,67.536
373,67.536
374,67.536
375,67.536
376,67.536
377,67.536
378,67.536
379,67.536
380,67.536
381,67.536
382,68.018
383,68.018
384,68.018
385,68.018
386,68.018
387,68.018
388,68.018
389,68.018
390,67.536
391,67.536
392,67.536
393,67.536
394,67.536
395,67.536
396,67.536
397,67.536
398,67.536
399,67.536
400,67.536
401,67.536
402,68.112
403,68.112
404,68.112
405,68.112
406,68.112
407,68.112
408,68.112
409,68.112
410,67.438
411,67.438
412,67.438
413,67.438
414,67.438
415,67.438
416,67.438
417,67.438
418,67.438
419,67.438
420,67.438
421,67.438
422,67.920
423,67.920
424,67.920
425,67.920
426,67.920
427,67.920
428,67.920
429,67.920
430,68.020
431,68.020
432,68.020
433,68.020
434,68.020
435,68.020
436,68.020
437,68.020
438,68.020
439,68.209
440,68.209
441,68.209
442,68.209
443,68.209
444,68.209
445,68.209
446,68.209
447,67.727
448,67.727
449,67.727
450,67.727
451,67.727
452,67.727
453,67.727
454,67.727
455,67.727
456,67.727
457,67.727
458,67.727
459,68.209
460,68.209
461,68.209
462,68.209
463,68.209
464,68.209
465,68.209
466,68.209
467,67.727
468,67.727
469,67.727
470,67.727
471,67.727
472,67.727
473,67.727
474,67.727
475,67.727
476,67.727
477,67.727
478,67.727
479,68.209
480,68.209
481,68.209
482,68.209
483,68.209
484,68.209
485,68.209
486,68.209
487,67.727
488,67.727
489,67.727
490,67.727
491,67.727
492,67.727
493,67.727
494,67.727
495,67.727
496,67.727
497,67.727
498,67.727
499,68.209
500,68.209
501,68.209
502,68.209
503,68.209
504,68.209
505,68.209
506,68.209
507,67.727
508,67.727
509,67.727
510,67.727
511,67.727
512,67.727
513,67.727
514,67.727
515,67.727
516,67.727
517,67.727
518,67.727
519,68.112
520,68.112
521,68.112
522,68.112
523,68.112
524,68.112
525,68.112
526,68.112
527,67.727
528,67.727
529,67.727
530,67.727
531,67.727
532,67.727
533,67.727
534,67.727
535,67.727
536,67.727
537,67.727
538,67.727
539,68.209
540,68.209
541,68.209
542,68.209
543,68.209
544,68.209
545,68.209
546,68.209
547,67.633
548,67.633
549,67.633
550,67.633
551,67.633
552,67.633
553,67.633
554,67.633
555,67.633
556,67.633
557,67.633
558,67.633
559,68.112
560,68.112
561,68.112
562,68.112
563,68.112
564,68.112
565,68.112
566,68.112
567,67.633
568,67.633
569,67.633
570,67.633
571,67.633
572,67.633
573,67.633
574,67.633
575,67.633
576,67.633
577,67.633
578,67.633
579,68.209
580,68.209
581,68.209
582,68.209
583,68.209
584,68.209
585,68.209
586,68.209
587,67.633
588,67.633
589,67.633
590,67.633
591,67.633
592,67.633
593,67.633
594,67.633
595,67.633
596,67.633
597,67.633
598,67.633
599,68.112
600,68.112
601,68.112
602,68.112
603,68.112
604,68.112
605,68.112
606,68.112
607,67.633
608,67.633
609,67.633
610,67.633
611,67.633
612,67.633
613,67.633
614,67.633
615,67.633
616,67.633
617,67.633
618,67.633
619,68.112
620,68.112
621,68.112
622,68.112
623,68.112
624,68.112
625,68.112
626,68.112
627,67.633
628,67.633
629,67.633
630,67.633
631,67.633
632,67.633
633,67.633
634,67.633
635,67.633
636,67.633
637,67.633
638,67.633
639,68.112
640,68.112
641,68.112
642,68.112
643,68.112
644,68.112
645,68.112
646,68.112
647,67.536
648,67.536
649,67.536
650,67.536
651,67.536
652,67.536
653,67.536
654,67.536
655,67.536
656,67.536
657,67.536
658,67.536
659,68.018
660,68.018
661,68.018
662,68.018
663,68.018
664,68.018
665,68.018
666,68.018
667,67.924
668,67.924
669,67.924
670,67.924
671,67.924
672,67.924
673,67.924
674,67.924
675,67.924
676,68.112
677,68.112
678,68.112
679,68.112
680,68.112
681,68.112
682,68.112
683,68.112
684,67.536
685,67.536
686,67.536
687,67.536
688,67.536
689,67.536
690,67.536
691,67.536
692,67.343
693,67.343
694,67.343
695,67.343
696,67.343
697,67.343
698,67.343
699,67.343
700,67.343
701,67.343
702,68.112
703,68.112
704,68.112
705,68.112
706,68.112
707,68.112
708,68.112
709,68.112
710,67.823
711,67.823
712,67.823
713,67.823
714,67.823
715,67.823
716,67.823
717,67.823
718,67.823
719,67.823
720,67.823
721,67.823
722,68.400
723,68.400
724,68.400
725,68.400
726,68.400
727,68.400
728,68.400
729,68.400
730,67.823
731,67.823
732,67.823
733,67.823
734,67.823
735,67.823
736,67.823
737,67.823
738,67.823
739,67.823
740,67.823
741,67.823
742,68.496
743,68.496
744,68.496
745,68.496
746,68.496
747,68.496
748,68.496
749,68.496
750,67.727
751,67.727
752,67.727
753,67.727
754,67.727
755,67.727
756,67.727
757,67.727
758,67.727
759,67.727
760,67.727
761,67.727
762,68.305
763,68.305
764,68.305
765,68.305
766,68.305
767,68.305
768,68.305
769,68.305
770,67.823
771,67.823
772,67.823
773,67.823
774,67.823
775,67.823
776,67.823
777,67.823
778,67.823
779,67.823
780,67.823
781,67.823
782,68.305
783,68.305
784,68.305
785,68.305
786,68.305
787,68.305
788,68.305
789,67.727
790,67.727
791,67.727
792,67.727
793,67.727
794,67.727
795,67.727
796,67.727
797,67.727
798,68.496
799,68.496
800,68.496
801,68.496
802,68.496
803,68.496
804,67.823
805,67.823
806,67.823
807,67.823
808,67.823
809,67.823
810,67.823
811,67.823
812,67.823
813,67.823
814,67.823
815,68.496
816,68.496
817,68.496
818,68.496
819,68.496
820,68.496
821,68.496
822,68.496
823,67.920
824,67.920
825,67.920
826,67.920
827,67.920
828,67.920
829,67.920
830,67.920
831,68.213
832,68.213
833,68.213
834,68.213
835,68.213
836,68.213
837,68.213
838,68.213
839,68.213
840,68.112
841,68.112
842,68.112
843,68.112
844,68.112
845,68.112
846,68.112
847,68.112
848,67.536
849,67.536
850,67.536
851,67.536
852,67.536
853,67.536
854,67.536
855,67.536
856,67.536
857,67.536
858,67.536
859,67.536
860,67.920
861,67.920
862,67.920
863,67.920
864,67.920
865,67.920
866,67.920
867,67.920
868,68.214
869,68.214
870,68.214
871,68.214
872,68.214
873,68.214
874,68.214
875,68.214
876,68.214
877,68.112
878,68.112
879,68.112
880,68.112
881,68.112
882,68.112
883,68.112
884,68.112
885,67.633
886,67.633
887,67.633
888,67.633
889,67.633
890,67.633
891,67.633
892,67.633
893,67.633
894,67.633
895,67.633
896,67.633
897,68.112
898,68.112
899,68.112
900,68.112
901,68.112
902,68.112
903,68.112
904,68.112
905,67.633
906,67.633
907,67.633
908,67.633
909,67.633
910,67.633
911,67.633
912,67.633
913,67.633
914,67.633
915,67.633
916,67.633
917,68.112
918,68.112
919,68.112
920,68.112
921,68.112
922,68.112
923,68.112
924,68.112
925,67.536
926,67.536
927,67.536
928,67.536
929,67.536
930,67.536
931,67.536
932,67.536
933,67.536
934,67.536
935,67.536
936,67.536
937,68.112
938,68.112
939,68.112
940,68.112
941,68.112
942,68.112
943,68.112
944,68.112
945,68.020
946,68.020
947,68.020
948,68.020
949,68.020
950,68.020
951,68.020
952,68.020
953,68.020
954,68.101
955,68.101
956,68.101
957,68.101
958,68.101
959,68.101
960,68.101
961,68.101
962,67.652
963,67.652
964,67.652
965,67.652
966,67.652
967,67.652
968,67.652
969,67.652
970,67.652
971,67.652
972,67.652
973,67.652
974,68.112
975,68.112
976,68.112
977,68.112
978,68.112
979,68.112
980,68.112
981,68.112
982,67.645
983,67.645
984,67.645
985,67.645
986,67.645
987,67.645
988,67.645
989,67.645
990,67.645
991,67.645
992,67.645
993,67.645
994,68.125
995,68.125
996,68.125
997,68.125
998,68.125
999,68.125
1000,68.125
1001,68.125
1002,67.645
1003,67.645
1004,67.645
1005,67.645
1006,67.645
1007,67.645
1008,67.645
1009,67.645
1010,67.645
1011,67.645
1012,67.645
1013,67.645
1014,68.030
1015,68.030
1016,68.030
1017,68.030
1018,68.030
1019,68.030
1020,68.030
1021,68.030
1022,67.645
1023,67.645
1024,67.645
1025,67.645
1026,67.645
1027,67.645
1028,67.645
1029,67.645
1030,67.645
1031,68.030
1032,68.030
1033,68.030
1034,68.030
1035,68.030
1036,68.030
1037,68.030
1038,68.030
1039,67.644
1040,67.644
1041,67.644
1042,67.644
1043,67.644
1044,67.644
1045,67.644
1046,67.644
1047,67.644
1048,68.030
1049,68.030
1050,68.030
1051,68.030
1052,68.030
1053,68.030
1054,68.030
1055,68.030
1056,67.741
1057,67.741
1058,67.741
1059,67.741
1060,67.741
1061,67.741
1062,67.741
1063,67.741
1064,67.741
1065,68.030
1066,68.030
1067,68.030
1068,68.030
1069,68.030
1070,68.030
1071,68.030
1072,68.030
1073,67.645
1074,67.645
1075,67.645
1076,67.645
1077,67.645
1078,67.645
1079,67.645
1080,67.645
1081,67.645
1082,67.645
1083,67.645
1084,67.645
1085,68.030
1086,68.030
1087,68.030
1088,68.030
1089,68.030
1090,68.030
1091,68.030
1092,68.030
1093,67.645
1094,67.645
1095,67.645
1096,67.645
1097,67.645
1098,67.645
1099,67.645
1100,67.645
1101,67.645
1102,67.645
1103,68.125
1104,68.125
1105,68.125
1106,68.125
1107,68.125
1108,68.125
1109,68.125
1110,68.125
1111,67.645
1112,67.645
1113,67.645
1114,67.645
1115,67.645
1116,67.645
1117,67.645
1118,67.645
1119,67.645
1120,67.933
1121,67.933
1122,67.933
1123,67.933
1124,67.933
1125,67.933
1126,67.933
1127,67.933
1128,68.225
1129,68.225
1130,68.225
1131,68.225
1132,68.225
1133,68.225
1134,68.225
1135,68.225
1136,68.225
1137,68.125
1138,68.125
1139,68.125
1140,68.125
1141,68.125
1142,68.125
1143,68.125
1144,68.125
1145,67.645
1146,67.645
1147,67.645
1148,67.645
1149,67.645
1150,67.645
1151,67.645
1152,67.645
1153,67.645
1154,67.645
1155,67.645
1156,67.645
1157,68.125
1158,68.125
1159,68.125
1160,68.125
1161,68.125
1162,68.125
1163,68.125
1164,68.125
1165,67.645
1166,67.645
1167,67.645
1168,67.645
1169,67.645
1170,67.645
1171,67.645
1172,67.645
1173,67.645
1174,67.645
1175,67.645
1176,67.645
1177,68.030
1178,68.030
1179,68.030
1180,68.030
1181,68.030
1182,68.030
1183,68.030
1184,68.030
1185,67.645
1186,67.645
1187,67.645
1188,67.645
1189,67.645
1190,67.645
1191,67.645
1192,67.645
1193,67.645
1194,67.645
1195,68.125
1196,68.125
1197,68.125
1198,68.125
1199,68.125
1200,68.125
1201,68.125
1202,68.125
1203,67.645
1204,67.645
1205,67.645
1206,67.645
1207,67.645
1208,67.645
1209,67.645
1210,67.645
1211,67.645
1212,67.645
1213,67.645
1214,68.221
1215,68.221
1216,68.221
1217,68.221
1218,68.221
1219,68.221
1220,68.221
1221,68.221
1222,67.645
1223,67.645
1224,67.645
1225,67.645
1226,67.645
1227,67.645
1228,67.645
1229,67.645
1230,67.645
1231,67.645
1232,67.645
1233,67.645
1234,68.126
1235,68.126
1236,68.126
1237,68.126
1238,68.126
1239,68.126
1240,68.126
1241,68.126
1242,67.645
1243,67.645
1244,67.645
1245,67.645
1246,67.645
1247,67.645
1248,67.645
1249,67.645
1250,67.645
1251,67.645
1252,68.221
1253,68.221
1254,68.221
1255,68.221
1256,68.221
1257,68.221
1258,68.221
1259,68.221
1260,67.741
1261,67.741
1262,67.741
1263,67.741
1264,67.741
1265,67.741
1266,67.741
1267,67.741
1268,67.741
1269,67.741
1270,67.741
1271,67.741
1272,68.318
1273,68.318
1274,68.318
1275,68.318
1276,68.318
1277,68.318
1278,68.318
1279,68.318
1280,67.741
1281,67.741
1282,67.741
1283,67.741
1284,67.741
1285,67.741
1286,67.741
1287,67.741
1288,67.741
1289,67.741
1290,67.741
1291,67.741
1292,68.221
1293,68.221
1294,68.221
1295,68.221
1296,68.221
1297,68.221
1298,68.221
1299,68.221
1300,67.645
1301,67.645
1302,67.645
1303,67.645
1304,67.645
1305,67.645
1306,67.645
1307,67.645
1308,67.645
1309,67.645
1310,67.645
1311,67.645
1312,68.221
1313,68.221
1314,68.221
1315,68.221
1316,68.221
1317,68.221
1318,68.221
1319,68.221
1320,67.645
1321,67.645
1322,67.645
1323,67.645
1324,67.645
1325,67.645
1326,67.645
1327,67.645
1328,67.645
1329,67.645
1330,67.645
1331,67.645
1332,68.318
1333,68.318
1334,68.318
1335,68.318
1336,68.318
1337,68.318
1338,68.318
1339,68.318
1340,67.741
1341,67.741
1342,67.741
1343,67.741
1344,67.741
1345,67.741
1346,67.741
1347,67.741
1348,67.741
1349,67.741
1350,67.741
1351,67.741
1352,68.415
1353,68.415
1354,68.415
1355,68.415
1356,68.415
1357,68.415
1358,68.415
1359,68.415
1360,67.741
1361,67.741
1362,67.741
1363,67.741
1364,67.741
1365,67.741
1366,67.741
1367,67.741
1368,67.741
1369,67.741
1370,67.741
1371,67.741
1372,68.415
1373,68.415
1374,68.415
1375,68.415
1376,68.415
1377,68.415
1378,68.415
1379,68.415
1380,67.741
1381,67.741
1382,67.741
1383,67.741
1384,67.741
1385,67.741
1386,67.741
1387,67.741
1388,67.741
1389,67.741
1390,67.741
1391,67.741
1392,68.415
1393,68.415
1394,68.415
1395,68.415
1396,68.415
1397,68.415
1398,68.415
1399,68.415
1400,67.741
1401,67.741
1402,67.741
1403,67.741
1404,67.741
1405,67.741
1406,67.741
1407,67.741
1408,67.741
1409,67.741
1410,67.741
1411,67.741
1412,68.221
1413,68.221
1414,68.221
1415,68.221
1416,68.221
1417,68.221
1418,68.221
1419,68.221
1420,67.741
1421,67.741
1422,67.741
1423,67.741
1424,67.741
1425,67.741
1426,67.741
1427,67.741
1428,67.741
1429,67.741
1430,67.741
1431,67.741
1432,68.415
1433,68.415
1434,68.415
1435,68.415
1436,68.415
1437,68.415
1438,68.415
1439,68.415
1440,67.741
1441,67.741
1442,67.741
1443,67.741
1444,67.741
1445,67.741
1446,67.741
1447,67.741
1448,67.741
1449,67.741
1450,67.741
1451,67.741
1452,68.318
1453,68.318
1454,68.318
1455,68.318
1456,68.318
1457,68.318
1458,68.318
1459,68.318
1460,67.839
1461,67.839
1462,67.839
1463,67.839
1464,67.839
1465,67.839
1466,67.839
1467,67.839
1468,67.839
1469,67.839
1470,67.839
1471,67.839
1472,68.415
1473,68.415
1474,68.415
1475,68.415
1476,68.415
1477,68.415
1478,68.415
1479,68.415
1480,67.933
1481,67.933
1482,67.933
1483,67.933
1484,67.933
1485,67.933
1486,67.933
1487,68.511
1488,68.511
1489,68.511
1490,68.511
1491,68.511
1492,68.511
1493,68.511
1494,68.511
1495,68.511
1496,68.030
1497,68.030
1498,68.030
1499,68.030
1500,68.030
1501,68.030
1502,68.030
1503,68.030
1504,67.741
1505,67.741
1506,67.741
1507,67.741
1508,67.741
1509,67.741
1510,67.741
1511,67.741
1512,67.741
1513,67.741
1514,68.126
1515,68.126
1516,68.126
1517,68.126
1518,68.126
1519,68.126
1520,68.126
1521,68.126
1522,68.419
1523,68.419
1524,68.419
1525,68.419
1526,68.419
1527,68.419
1528,68.419
1529,68.419
1530,68.419
1531,68.126
1532,68.126
1533,68.126
1534,68.126
1535,68.126
1536,68.126
1537,68.126
1538,68.126
1539,67.645
1540,67.645
1541,67.645
1542,67.645
1543,67.645
1544,67.645
1545,67.645
1546,67.645
1547,67.645
1548,67.645
1549,67.645
1550,68.126
1551,68.126
1552,68.126
1553,68.126
1554,68.126
1555,68.126
1556,68.126
1557,68.126
1558,68.126
1559,68.126
1560,68.126
1561,68.605
1562,68.605
1563,68.605
1564,68.605
1565,68.605
1566,68.605
1567,68.605
1568,68.605
1569,68.605
1570,68.223
1571,68.223
1572,68.223
1573,68.223
1574,68.223
1575,68.223
1576,68.223
1577,68.223
1578,67.741
1579,67.741
1580,67.741
1581,67.741
1582,67.741
1583,67.741
1584,67.741
1585,67.741
1586,67.741
1587,67.741
1588,67.741
1589,67.741
1590,68.318
1591,68.318
1592,68.318
1593,68.318
1594,68.318
1595,68.318
1596,68.318
1597,68.318
1598,67.748
1599,67.748
1600,67.748
1601,67.748
1602,67.748
1603,67.748
1604,67.748
1605,67.748
1606,67.748
1607,67.748
1608,67.748
1609,67.748
1610,68.221
1611,68.221
1612,68.221
1613,68.221
1614,68.221
1615,68.221
1616,68.221
1617,68.221
1618,67.741
1619,67.741
1620,67.741
1621,67.741
1622,67.741
1623,67.741
1624,67.741
1625,67.741
1626,67.741
1627,67.741
1628,67.741
1629,67.741
1630,68.318
1631,68.318
1632,68.318
1633,68.318
1634,68.318
1635,68.318
1636,68.318
1637,68.318
1638,67.741
1639,67.741
1640,67.741
1641,67.741
1642,67.741
1643,67.741
1644,67.741
1645,67.741
1646,67.741
1647,67.741
1648,67.741
1649,67.741
1650,68.221
1651,68.221
1652,68.221
1653,68.221
1654,68.221
1655,68.221
1656,68.221
1657,68.221
1658,67.748
1659,67.748
1660,67.748
1661,67.748
1662,67.748
1663,67.748
1664,67.748
1665,67.748
1666,67.748
1667,67.748
1668,67.748
1669,67.748
1670,68.126
1671,68.126
1672,68.126
1673,68.126
1674,68.126
1675,68.126
1676,68.126
1677,68.128
1678,68.128
1679,68.128
1680,68.128
1681,68.128
1682,68.128
1683,68.128
1684,68.128
1685,68.128
1686,68.126
1687,68.126
1688,68.126
1689,68.126
1690,68.126
1691,68.126
1692,68.126
1693,68.126
1694,67.645
1695,67.645
1696,67.645
1697,67.645
1698,67.645
1699,67.645
1700,67.645
1701,67.645
1702,67.645
1703,67.645
1704,67.645
1705,68.126
1706,68.126
1707,68.126
1708,68.126
1709,68.126
1710,68.126
1711,68.126
1712,68.126
1713,67.652
1714,67.652
1715,67.652
1716,67.652
1717,67.652
1718,67.652
1719,67.652
1720,67.652
1721,67.652
1722,68.126
1723,68.126
1724,68.126
1725,68.126
1726,68.126
1727,68.126
1728,68.126
1729,68.126
1730,68.032
1731,68.032
1732,68.032
1733,68.032
1734,68.032
1735,68.032
1736,68.032
1737,68.032
1738,68.032
1739,68.030
1740,68.030
1741,68.030
1742,68.030
1743,68.030
1744,68.030
1745,68.030
1746,68.030
1747,67.645
1748,67.645
1749,67.645
1750,67.645
1751,67.645
1752,67.645
1753,67.645
1754,67.645
1755,67.645
1756,68.030
1757,68.030
1758,68.030
1759,68.030
1760,68.030
1761,68.030
1762,68.030
1763,68.030
1764,67.645
1765,67.645
1766,67.645
1767,67.645
1768,67.645
1769,67.645
1770,67.645
1771,67.645
1772,67.645
1773,67.645
1774,67.645
1775,67.645
1776,68.126
1777,68.126
1778,68.126
1779,68.126
1780,68.126
1781,68.126
1782,68.126
1783,68.126
1784,67.741
1785,67.741
1786,67.741
1787,67.741
1788,67.741
1789,67.741
1790,67.741
1791,67.741
1792,67.741
1793,68.030
1794,68.030
1795,68.030
1796,68.030
1797,68.030
1798,68.030
1799,68.030
1800,68.030
1801,68.305
1802,68.305
1803,68.305
1804,68.305
1805,68.305
1806,68.305
1807,68.305
1808,68.305
1809,68.305
1810,68.126
1811,68.126
1812,68.126
1813,68.126
1814,68.126
1815,68.126
1816,68.126
1817,68.126
1818,68.608
1819,68.608
1820,68.608
1821,68.608
1822,68.608
1823,68.608
1824,68.608
1825,68.608
1826,68.608
1827,68.126
1828,68.126
1829,68.126
1830,68.126
1831,68.126
1832,68.126
1833,68.126
1834,68.126
1835,68.032
1836,68.032
1837,68.032
1838,68.032
1839,68.032
1840,68.032
1841,68.032
1842,68.032
1843,68.032
1844,68.126
1845,68.126
1846,68.126
1847,68.126
1848,68.126
1849,68.126
1850,68.126
1851,68.126
1852,67.748
1853,67.748
1854,67.748
1855,67.748
1856,67.748
1857,67.748
1858,67.748
1859,67.645
1860,67.645
1861,67.645
1862,67.645
1863,67.645
1864,67.645
1865,67.645
1866,67.645
1867,67.645
1868,67.645
1869,67.645
1870,67.645
1871,68.415
1872,68.415
1873,68.415
1874,68.415
1875,68.415
1876,68.415
1877,68.415
1878,68.415
1879,68.223
1880,68.223
1881,68.223
1882,68.223
1883,68.223
1884,68.223
1885,68.223
1886,68.223
1887,67.846
1888,67.846
1889,67.846
1890,67.846
1891,67.846
1892,67.846
1893,67.846
1894,67.846
1895,67.846
1896,67.846
1897,67.846
1898,67.846
1899,68.511
1900,68.511
1901,68.511
1902,68.511
1903,68.511
1904,68.511
1905,68.511
1906,68.511
1907,68.511
1908,68.030
1909,68.030
1910,68.030
1911,68.030
1912,68.030
1913,68.030
1914,68.030
1915,68.030
1916,67.741
1917,67.741
1918,67.741
1919,67.741
1920,67.741
1921,67.741
1922,67.741
1923,67.741
1924,67.741
1925,67.741
1926,67.741
1927,67.741
1928,68.221
1929,68.221
1930,68.221
1931,68.221
1932,68.221
1933,68.221
1934,68.221
1935,68.221
1936,67.822
1937,67.822
1938,67.822
1939,67.822
1940,67.822
1941,67.822
1942,67.822
1943,67.822
1944,67.936
1945,67.936
1946,67.936
1947,67.936
1948,67.936
1949,67.936
1950,67.936
1951,67.936
1952,67.936
1953,68.223
1954,68.223
1955,68.223
1956,68.223
1957,68.223
1958,68.223
1959,68.223
1960,68.223
1961,67.932
1962,67.932
1963,67.932
1964,67.932
1965,67.932
1966,67.932
1967,67.932
1968,67.932
1969,67.932
1970,68.511
1971,68.511
1972,68.511
1973,68.511
1974,68.511
1975,68.511
1976,68.511
1977,68.511
1978,68.223
1979,68.223
1980,68.223
1981,68.223
1982,68.223
1983,68.223
1984,68.223
1985,68.223
1986,68.030
1987,68.030
1988,68.030
1989,68.030
1990,68.030
1991,68.030
1992,68.030
1993,68.030
1994,68.030
1995,68.588
1996,68.588
1997,68.588
1998,68.588
1999,68.588
2000,68.588
2001,68.588
2002,68.588
2003,68.588
2004,68.415
2005,68.415
2006,68.415
2007,68.415
2008,68.415
2009,68.415
2010,68.415
2011,68.415
2012,68.030
2013,68.030
2014,68.030
2015,68.030
2016,68.030
2017,68.030
2018,68.030
2019,68.030
2020,68.030
2021,68.030
2022,68.030
2023,68.030
2024,68.605
2025,68.605
2026,68.605
2027,68.605
2028,68.605
2029,68.605
2030,68.605
2031,68.605
2032,68.126
2033,68.126
2034,68.126
2035,68.126
2036,68.126
2037,68.126
2038,68.126
2039,67.741
2040,67.741
2041,67.741
2042,67.741
2043,67.741
2044,67.741
2045,67.741
2046,67.741
2047,67.549
2048,67.549
2049,67.549
2050,67.549
2051,67.549
2052,67.549
2053,67.549
2054,67.549
2055,67.549
2056,68.126
2057,68.126
2058,68.126
2059,68.126
2060,68.126
2061,68.126
2062,68.126
2063,68.126
2064,67.741
2065,67.741
2066,67.741
2067,67.741
2068,67.741
2069,67.741
2070,67.741
2071,67.741
2072,67.741
2073,67.741
2074,67.741
2075,67.741
2076,68.126
2077,68.126
2078,68.126
2079,68.126
2080,68.126
2081,68.126
2082,68.126
2083,67.936
2084,67.936
2085,67.936
2086,67.936
2087,67.936
2088,67.936
2089,67.936
2090,67.936
2091,67.936
2092,67.936
2093,67.936
2094,67.936
2095,68.605
2096,68.605
2097,68.605
2098,68.605
2099,68.605
2100,68.605
2101,68.605
2102,68.605
2103,68.030
2104,68.030
2105,68.030
2106,68.030
2107,68.030
2108,68.030
2109,68.030
2110,68.030
2111,68.030
2112,68.030
2113,68.030
2114,68.030
2115,68.511
2116,68.511
2117,68.511
2118,68.511
2119,68.511
2120,68.511
2121,68.511
2122,68.511
2123,67.932
2124,67.932
2125,67.932
2126,67.932
2127,67.932
2128,67.932
2129,67.932
2130,67.932
2131,67.932
2132,67.932
2133,67.932
2134,67.932
2135,68.511
2136,68.511
2137,68.511
2138,68.511
2139,68.511
2140,68.511
2141,68.511
2142,68.511
2143,68.030
2144,68.030
2145,68.030
2146,68.030
2147,68.030
2148,68.030
2149,68.030
2150,68.030
2151,68.704
2152,68.704
2153,68.704
2154,68.704
2155,68.704
2156,68.704
2157,68.704
2158,68.704
2159,68.704
2160,68.126
2161,68.126
2162,68.126
2163,68.126
2164,68.126
2165,68.126
2166,68.126
2167,68.126
2168,67.741
2169,67.741
2170,67.741
2171,67.741
2172,67.741
2173,67.741
2174,67.741
2175,67.741
2176,67.741
2177,67.741
2178,67.741
2179,68.126
2180,68.126
2181,68.126
2182,68.126
2183,68.126
2184,68.126
2185,68.126
2186,68.126
2187,67.741
2188,67.741
2189,67.741
2190,67.741
2191,67.741
2192,67.741
2193,67.741
2194,67.741
2195,67.741
2196,67.741
2197,67.741
2198,67.741
2199,68.126
2200,68.126
2201,68.126
2202,68.126
2203,68.126
2204,68.126
2205,68.126
2206,68.126
2207,67.741
2208,67.741
2209,67.741
2210,67.741
2211,67.741
2212,67.741
2213,67.741
2214,67.741
2215,67.741
2216,68.126
2217,68.126
2218,68.126
2219,68.126
2220,68.126
2221,68.126
2222,68.126
2223,68.126
2224,68.208
2225,68.208
2226,68.208
2227,68.208
2228,68.208
2229,68.208
2230,68.208
2231,68.208
2232,68.208
2233,68.221
2234,68.221
2235,68.221
2236,68.221
2237,68.221
2238,68.221
2239,68.221
2240,68.221
2241,67.838
2242,67.838
2243,67.838
2244,67.838
2245,67.838
2246,67.838
2247,67.838
2248,67.838
2249,67.838
2250,67.838
2251,67.838
2252,67.838
2253,68.318
2254,68.318
2255,68.318
2256,68.318
2257,68.318
2258,68.318
2259,68.318
2260,68.318
2261,67.838
2262,67.838
2263,67.838
2264,67.838
2265,67.838
2266,67.838
2267,67.838
2268,67.838
2269,67.838
2270,67.838
2271,67.838
2272,67.838
2273,68.320
2274,68.320
2275,68.320
2276,68.320
2277,68.320
2278,68.320
2279,68.320
2280,68.320
2281,67.838
2282,67.838
2283,67.838
2284,67.838
2285,67.838
2286,67.838
2287,67.838
2288,67.838
2289,67.838
2290,67.838
2291,67.838
2292,67.838
2293,68.223
2294,68.223
2295,68.223
2296,68.223
2297,68.223
2298,68.223
2299,68.223
2300,68.223
2301,67.748
2302,67.748
2303,67.748
2304,67.748
2305,67.748
2306,67.748
2307,67.748
2308,67.748
2309,67.748
2310,67.748
2311,68.320
2312,68.320
2313,68.320
2314,68.320
2315,68.320
2316,68.320
2317,68.320
2318,68.320
2319,68.225
2320,68.225
2321,68.225
2322,68.225
2323,68.225
2324,68.225
2325,68.225
2326,68.225
2327,68.225
2328,68.126
2329,68.126
2330,68.126
2331,68.126
2332,68.126
2333,68.126
2334,68.126
2335,68.126
2336,68.322
2337,68.322
2338,68.322
2339,68.322
2340,68.322
2341,68.322
2342,68.322
2343,68.322
2344,68.322
2345,68.223
2346,68.223
2347,68.223
2348,68.223
2349,68.223
2350,68.223
2351,68.223
2352,68.223
2353,67.838
2354,67.838
2355,67.838
2356,67.838
2357,67.838
2358,67.838
2359,67.838
2360,67.838
2361,67.838
2362,67.838
2363,67.838
2364,67.838
2365,68.126
2366,68.126
2367,68.126
2368,68.126
2369,68.126
2370,68.126
2371,68.126
2372,68.126
2373,67.838
2374,67.838
2375,67.838
2376,67.838
2377,67.838
2378,67.838
2379,67.838
2380,67.838
2381,67.838
2382,67.838
2383,68.320
2384,68.320
2385,68.320
2386,68.320
2387,68.320
2388,68.320
2389,68.320
2390,68.320
2391,67.838
2392,67.838
2393,67.838
2394,67.838
2395,67.838
2396,67.838
2397,67.838
2398,67.838
2399,67.838
2400,67.838
2401,67.838
2402,67.838
2403,68.415
2404,68.415
2405,68.415
2406,68.415
2407,68.415
2408,68.415
2409,68.415
2410,68.415
2411,67.838
2412,67.838
2413,67.838
2414,67.838
2415,67.838
2416,67.838
2417,67.838
2418,67.838
2419,67.838
2420,67.838
2421,67.838
2422,67.838
2423,68.415
2424,68.415
2425,68.415
2426,68.415
2427,68.415
2428,68.415
2429,68.415
2430,68.415
2431,67.838
2432,67.838
2433,67.838
2434,67.838
2435,67.838
2436,67.838
2437,67.838
2438,67.838
2439,67.838
2440,67.838
2441,67.838
2442,67.838
2443,68.320
2444,68.320
2445,68.320
2446,68.320
2447,68.320
2448,68.320
2449,68.320
2450,68.320
2451,67.838
2452,67.838
2453,67.838
2454,67.838
2455,67.838
2456,67.838
2457,67.838
2458,67.838
2459,67.838
2460,68.223
2461,68.223
2462,68.223
2463,68.223
2464,68.223
2465,68.223
2466,68.223
2467,68.223
2468,67.838
2469,67.838
2470,67.838
2471,67.838
2472,67.838
2473,67.838
2474,67.838
2475,67.838
2476,67.838
2477,68.126
2478,68.126
2479,68.126
2480,68.126
2481,68.126
2482,68.126
2483,68.126
2484,68.126
2485,67.838
2486,67.838
2487,67.838
2488,67.838
2489,67.838
2490,67.838
2491,67.838
2492,67.838
2493,67.838
2494,67.838
2495,67.838
2496,67.838
2497,68.223
2498,68.223
2499,68.223
2500,68.223
2501,68.223
2502,68.223
2503,68.223
2504,68.223
2505,68.223
2506,68.223
2507,68.798
2508,68.798
2509,68.798
2510,68.798
2511,68.798
2512,68.798
2513,68.798
2514,68.798
2515,68.798
2516,68.320
2517,68.320
2518,68.320
2519,68.320
2520,68.320
2521,68.320
2522,68.320
2523,68.320
2524,67.748
2525,67.748
2526,67.748
2527,67.748
2528,67.748
2529,67.748
2530,67.748
2531,67.748
2532,67.748
2533,67.748
2534,67.748
2535,67.748
2536,68.415
2537,68.415
2538,68.415
2539,68.415
2540,68.415
2541,68.415
2542,68.415
2543,68.415
2544,67.838
2545,67.838
2546,67.838
2547,67.838
2548,67.838
2549,67.838
2550,67.838
2551,67.838
2552,67.838
2553,67.838
2554,67.838
2555,68.223
2556,68.223
2557,68.223
2558,68.223
2559,68.223
2560,68.223
2561,68.223
2562,68.223
2563,67.838
2564,67.838
2565,67.838
2566,67.838
2567,67.838
2568,67.838
2569,67.838
2570,67.838
2571,67.838
2572,67.838
2573,67.838
2574,67.838
2575,68.223
2576,68.223
2577,68.223
2578,68.223
2579,68.223
2580,68.223
2581,68.223
2582,68.223
2583,67.838
2584,67.838
2585,67.838
2586,67.838
2587,67.838
2588,67.838
2589,67.838
2590,67.838
2591,67.838
2592,67.838
2593,68.320
2594,68.320
2595,68.320
2596,68.320
2597,68.320
2598,68.320
2599,68.320
2600,68.320
2601,68.322
2602,68.322
2603,68.322
2604,68.322
2605,68.322
2606,68.322
2607,68.322
2608,68.322
2609,68.322
2610,68.223
2611,68.223
2612,68.223
2613,68.223
2614,68.223
2615,68.223
2616,68.223
2617,68.223
2618,68.322
2619,68.322
2620,68.322
2621,68.322
2622,68.322
2623,68.322
2624,68.322
2625,68.322
2626,68.322
2627,68.223
2628,68.223
2629,68.223
2630,68.223
2631,68.223
2632,68.223
2633,68.223
2634,68.223
2635,67.838
2636,67.838
2637,67.838
2638,67.838
2639,67.838
2640,67.838
2641,67.838
2642,67.838
2643,67.838
2644,67.838
2645,67.838
2646,67.838
2647,68.310
2648,68.310
2649,68.310
2650,68.310
2651,68.310
2652,68.310
2653,68.310
2654,68.310
2655,67.846
2656,67.846
2657,67.846
2658,67.846
2659,67.846
2660,67.846
2661,67.846
2662,67.846
2663,67.846
2664,68.126
2665,68.126
2666,68.126
2667,68.126
2668,68.126
2669,68.126
2670,68.126
2671,68.126
2672,67.839
2673,67.839
2674,67.839
2675,67.839
2676,67.839
2677,67.839
2678,67.839
2679,67.839
2680,67.839
2681,67.839
2682,68.318
2683,68.318
2684,68.318
2685,68.318
2686,68.318
2687,68.318
2688,68.318
2689,68.318
2690,68.128
2691,68.128
2692,68.128
2693,68.128
2694,68.128
2695,68.128
2696,68.128
2697,68.128
2698,68.128
2699,68.320
2700,68.320
2701,68.320
2702,68.320
2703,68.320
2704,68.320
2705,68.320
2706,68.320
2707,67.936
2708,67.936
2709,67.936
2710,67.936
2711,67.936
2712,67.936
2713,67.936
2714,67.936
2715,67.936
2716,67.936
2717,67.936
2718,67.936
2719,68.415
2720,68.415
2721,68.415
2722,68.415
2723,68.415
2724,68.415
2725,68.415
2726,68.415
2727,67.838
2728,67.838
2729,67.838
2730,67.838
2731,67.838
2732,67.838
2733,67.838
2734,67.838
2735,67.838
2736,68.415
2737,68.415
2738,68.415
2739,68.415
2740,68.415
2741,68.415
2742,68.415
2743,68.415
2744,67.838
2745,67.838
2746,67.838
2747,67.838
2748,67.838
2749,67.838
2750,67.838
2751,67.838
2752,67.838
2753,68.320
2754,68.320
2755,68.320
2756,68.320
2757,68.320
2758,68.320
2759,68.320
2760,68.320
2761,67.838
2762,67.838
2763,67.838
2764,67.838
2765,67.838
2766,67.838
2767,67.838
2768,67.838
2769,67.838
2770,67.838
2771,67.838
2772,67.838
2773,68.415
2774,68.415
2775,68.415
2776,68.415
2777,68.415
2778,68.415
2779,68.415
2780,68.415
2781,67.838
2782,67.838
2783,67.838
2784,67.838
2785,67.838
2786,67.838
2787,67.838
2788,67.838
2789,67.838
2790,67.838
2791,67.838
2792,67.838
2793,68.415
2794,68.415
2795,68.415
2796,68.415
2797,68.415
2798,68.415
2799,68.415
2800,68.415
2801,67.838
2802,67.838
2803,67.838
2804,67.838
2805,67.838
2806,67.838
2807,67.838
2808,67.838
2809,67.838
2810,67.838
2811,68.223
2812,68.223
2813,68.223
2814,68.223
2815,68.223
2816,68.223
2817,68.223
2818,68.223
2819,68.612
2820,68.612
2821,68.612
2822,68.612
2823,68.612
2824,68.612
2825,68.612
2826,68.612
2827,68.612
2828,68.320
2829,68.320
2830,68.320
2831,68.320
2832,68.320
2833,68.320
2834,68.320
2835,68.320
2836,68.612
2837,68.612
2838,68.612
2839,68.612
2840,68.612
2841,68.612
2842,68.612
2843,68.612
2844,68.612
2845,68.223
2846,68.223
2847,68.223
2848,68.223
2849,68.223
2850,68.223
2851,68.223
2852,68.223
2853,68.612
2854,68.612
2855,68.612
2856,68.612
2857,68.612
2858,68.612
2859,68.612
2860,68.612
2861,68.612
2862,68.415
2863,68.415
2864,68.415
2865,68.415
2866,68.415
2867,68.415
2868,68.415
2869,68.415
2870,67.838
2871,67.838
2872,67.838
2873,67.838
2874,67.838
2875,67.838
2876,67.838
2877,67.838
2878,67.838
2879,67.838
2880,68.415
2881,68.415
2882,68.415
2883,68.415
2884,68.415
2885,68.415
2886,68.415
2887,68.415
2888,67.838
2889,67.838
2890,67.838
2891,67.838
2892,67.838
2893,67.838
2894,67.838
2895,67.838
2896,67.838
2897,67.838
2898,68.320
2899,68.320
2900,68.320
2901,68.320
2902,68.320
2903,68.320
2904,68.320
2905,68.320
2906,67.838
2907,67.838
2908,67.838
2909,67.838
2910,67.838
2911,67.838
2912,67.838
2913,67.838
2914,67.838
2915,68.320
2916,68.320
2917,68.320
2918,68.320
2919,68.320
2920,68.320
2921,68.320
2922,68.320
2923,68.419
2924,68.419
2925,68.419
2926,68.419
2927,68.419
2928,68.419
2929,68.419
2930,68.419
2931,68.419
2932,68.320
2933,68.320
2934,68.320
2935,68.320
2936,68.320
2937,68.320
2938,68.320
2939,68.320
2940,67.838
2941,67.838
2942,67.838
2943,67.838
2944,67.838
2945,67.838
2946,67.838
2947,67.838
2948,67.838
2949,68.415
2950,68.415
2951,68.415
2952,68.415
2953,68.415
2954,68.415
2955,68.415
2956,68.415
2957,67.936
2958,67.936
2959,67.936
2960,67.936
2961,67.936
2962,67.936
2963,67.936
2964,67.936
2965,67.936
2966,67.936
2967,67.936
2968,67.936
2969,68.320
2970,68.320
2971,68.320
2972,68.320
2973,68.320
2974,68.320
2975,68.320
2976,68.320
2977,67.838
2978,67.838
2979,67.838
2980,67.838
2981,67.838
2982,67.838
2983,67.838
2984,67.838
2985,67.838
2986,67.838
2987,67.838
2988,67.838
2989,68.318
2990,68.318
2991,68.318
2992,68.318
2993,68.318
2994,68.318
2995,68.318
2996,68.318
2997,68.322
2998,68.322
2999,68.322
3000,68.322
3001,68.322
3002,68.322
3003,68.322
3004,68.322
3005,68.322
3006,68.320
3007,68.320
3008,68.320
3009,68.320
3010,68.320
3011,68.320
3012,68.320
3013,68.320
3014,67.936
3015,67.936
3016,67.936
3017,67.936
3018,67.936
3019,67.936
3020,67.936
3021,67.936
3022,67.936
3023,67.936
3024,67.936
3025,67.936
3026,68.415
3027,68.415
3028,68.415
3029,68.415
3030,68.415
3031,68.415
3032,68.415
3033,68.415
3034,67.936
3035,67.936
3036,67.936
3037,67.936
3038,67.936
3039,67.936
3040,67.936
3041,67.936
3042,67.838
3043,67.838
3044,67.838
3045,67.838
3046,67.838
3047,67.838
3048,67.838
3049,67.838
3050,67.838
3051,68.320
3052,68.320
3053,68.320
3054,68.320
3055,68.320
3056,68.320
3057,68.320
3058,68.320
3059,67.936
3060,67.936
3061,67.936
3062,67.936
3063,67.936
3064,67.936
3065,67.936
3066,67.936
3067,67.936
3068,68.320
3069,68.320
3070,68.320
3071,68.320
3072,68.320
3073,68.320
3074,68.320
3075,68.322
3076,68.322
3077,68.322
3078,68.322
3079,68.322
3080,68.322
3081,68.322
3082,68.322
3083,68.322
3084,68.415
3085,68.415
3086,68.415
3087,68.415
3088,68.415
3089,68.415
3090,68.415
3091,68.415
3092,67.936
3093,67.936
3094,67.936
3095,67.936
3096,67.936
3097,67.936
3098,67.936
3099,67.936
3100,67.936
3101,67.936
3102,67.936
3103,67.936
3104,68.704
3105,68.704
3106,68.704
3107,68.704
3108,68.704
3109,68.704
3110,68.704
3111,68.704
3112,68.223
3113,68.223
3114,68.223
3115,68.223
3116,68.223
3117,68.223
3118,68.223
3119,68.223
3120,67.936
3121,67.936
3122,67.936
3123,67.936
3124,67.936
3125,67.936
3126,67.936
3127,67.936
3128,67.936
3129,67.936
3130,67.936
3131,67.936
3132,68.415
3133,68.415
3134,68.415
3135,68.415
3136,68.415
3137,68.415
3138,68.415
3139,68.415
3140,67.936
3141,67.936
3142,67.936
3143,67.936
3144,67.936
3145,67.936
3146,67.936
3147,67.936
3148,67.936
3149,67.936
3150,67.936
3151,67.936
3152,68.415
3153,68.415
3154,68.415
3155,68.415
3156,68.415
3157,68.415
3158,68.415
3159,68.415
3160,67.936
3161,67.936
3162,67.936
3163,67.936
3164,67.936
3165,67.936
3166,67.936
3167,67.936
3168,67.936
3169,67.936
3170,67.936
3171,67.936
3172,68.405
3173,68.405
3174,68.405
3175,68.405
3176,68.405
3177,68.405
3178,68.405
3179,68.405
3180,67.838
3181,67.838
3182,67.838
3183,67.838
3184,67.838
3185,67.838
3186,67.838
3187,67.838
3188,67.838
3189,67.838
3190,67.838
3191,67.838
3192,68.415
3193,68.415
3194,68.415
3195,68.415
3196,68.415
3197,68.415
3198,68.415
3199,68.415
3200,67.838
3201,67.838
3202,67.838
3203,67.838
3204,67.838
3205,67.838
3206,67.838
3207,67.838
3208,67.838
3209,67.838
3210,67.838
3211,67.838
3212,68.607
3213,68.607
3214,68.607
3215,68.607
3216,68.607
3217,68.607
3218,68.607
3219,68.607
3220,68.126
3221,68.126
3222,68.126
3223,68.126
3224,68.126
3225,68.126
3226,68.126
3227,68.126
3228,68.126
3229,68.126
3230,68.126
3231,68.126
3232,68.798
3233,68.798
3234,68.798
3235,68.798
3236,68.798
3237,68.798
3238,68.798
3239,68.798
3240,68.126
3241,68.126
3242,68.126
3243,68.126
3244,68.126
3245,68.126
3246,68.126
3247,68.126
3248,68.126
3249,68.126
3250,68.126
3251,68.126
3252,68.798
3253,68.798
3254,68.798
3255,68.798
3256,68.798
3257,68.798
3258,68.798
3259,68.798
3260,68.030
3261,68.030
3262,68.030
3263,68.030
3264,68.030
3265,68.030
3266,68.030
3267,68.030
3268,68.030
3269,68.030
3270,68.030
3271,68.030
3272,68.798
3273,68.798
3274,68.798
3275,68.798
3276,68.798
3277,68.798
3278,68.798
3279,68.798
3280,68.320
3281,68.320
3282,68.320
3283,68.320
3284,68.320
3285,68.320
3286,68.320
3287,68.320
3288,67.936
3289,67.936
3290,67.936
3291,67.936
3292,67.936
3293,67.936
3294,67.936
3295,67.936
3296,67.936
3297,67.936
3298,67.936
3299,67.936
3300,68.405
3301,68.405
3302,68.405
3303,68.405
3304,68.405
3305,68.405
3306,68.405
3307,68.405
3308,67.936
3309,67.936
3310,67.936
3311,67.936
3312,67.936
3313,67.936
3314,67.936
3315,67.936
3316,67.936
3317,68.415
3318,68.415
3319,68.415
3320,68.415
3321,68.415
3322,68.415
3323,68.415
3324,68.415
3325,68.419
3326,68.419
3327,68.419
3328,68.419
3329,68.419
3330,68.419
3331,68.419
3332,68.419
3333,68.419
3334,68.415
3335,68.415
3336,68.415
3337,68.415
3338,68.415
3339,68.415
3340,68.415
3341,68.415
3342,67.936
3343,67.936
3344,67.936
3345,67.936
3346,67.936
3347,67.936
3348,67.936
3349,67.936
3350,67.936
3351,67.936
3352,67.936
3353,67.936
3354,68.415
3355,68.415
3356,68.415
3357,68.415
3358,68.415
3359,68.415
3360,68.415
3361,67.936
3362,67.936
3363,67.936
3364,67.936
3365,67.936
3366,67.936
3367,67.936
3368,67.936
3369,67.936
3370,67.936
3371,67.936
3372,68.320
3373,68.320
3374,68.320
3375,68.320
3376,68.320
3377,68.320
3378,68.320
3379,68.320
3380,67.936
3381,67.936
3382,67.936
3383,67.936
3384,67.936
3385,67.936
3386,67.936
3387,67.936
3388,67.936
3389,67.936
3390,67.936
3391,67.936
3392,68.415
3393,68.415
3394,68.415
3395,68.415
3396,68.415
3397,68.415
3398,68.415
3399,68.415
3400,67.936
3401,67.936
3402,67.936
3403,67.936
3404,67.936
3405,67.936
3406,67.936
3407,67.936
3408,67.936
3409,67.936
3410,68.415
3411,68.415
3412,68.415
3413,68.415
3414,68.415
3415,68.415
3416,68.415
3417,68.415
3418,67.936
3419,67.936
3420,67.936
3421,67.936
3422,67.936
3423,67.936
3424,67.936
3425,67.936
3426,67.936
3427,68.320
3428,68.320
3429,68.320
3430,68.320
3431,68.320
3432,68.320
3433,68.320
3434,68.320
3435,68.322
3436,68.322
3437,68.322
3438,68.322
3439,68.322
3440,68.322
3441,68.322
3442,68.322
3443,68.322
3444,68.320
3445,68.320
3446,68.320
3447,68.320
3448,68.320
3449,68.320
3450,68.320
3451,68.320
3452,67.936
3453,67.936
3454,67.936
3455,67.936
3456,67.936
3457,67.936
3458,67.936
3459,67.936
3460,67.936
3461,67.936
3462,67.936
3463,67.936
3464,68.415
3465,68.415
3466,68.415
3467,68.415
3468,68.415
3469,68.415
3470,68.415
3471,68.415
3472,67.936
3473,67.936
3474,67.936
3475,67.936
3476,67.936
3477,67.936
3478,67.936
3479,67.936
3480,67.936
3481,67.936
3482,68.415
3483,68.415
3484,68.415
3485,68.415
3486,68.415
3487,68.415
3488,68.415
3489,68.415
3490,68.129
3491,68.129
3492,68.129
3493,68.129
3494,68.129
3495,68.129
3496,68.129
3497,68.129
3498,68.129
3499,68.415
3500,68.415
3501,68.415
3502,68.415
3503,68.415
3504,68.415
3505,68.415
3506,68.415
3507,68.225
3508,68.225
3509,68.225
3510,68.225
3511,68.225
3512,68.225
3513,68.225
3514,68.225
3515,68.225
3516,68.415
3517,68.415
3518,68.415
3519,68.415
3520,68.415
3521,68.415
3522,68.415
3523,68.415
3524,68.612
3525,68.612
3526,68.612
3527,68.612
3528,68.612
3529,68.612
3530,68.612
3531,68.612
3532,68.612
3533,68.415
3534,68.415
3535,68.415
3536,68.415
3537,68.415
3538,68.415
3539,68.415
3540,68.415
3541,68.030
3542,68.030
3543,68.030
3544,68.030
3545,68.030
3546,68.030
3547,68.030
3548,68.030
3549,68.030
3550,68.030
3551,68.030
3552,68.030
3553,68.415
3554,68.415
3555,68.415
3556,68.415
3557,68.415
3558,68.415
3559,68.415
3560,68.415
3561,67.936
3562,67.936
3563,67.936
3564,67.936
3565,67.936
3566,67.936
3567,67.936
3568,67.936
3569,67.936
3570,68.415
3571,68.415
3572,68.415
3573,68.415
3574,68.415
3575,68.415
3576,68.415
3577,68.415
3578,67.936
3579,67.936
3580,67.936
3581,67.936
3582,67.936
3583,67.936
3584,67.936
3585,67.936
3586,67.936
3587,67.936
3588,67.936
3589,67.936
3590,68.415
3591,68.415
3592,68.415
3593,68.415
3594,68.415
3595,68.415
3596,68.415
3597,68.415
3598,68.427
3599,68.427
3600,68.427
3601,68.427
3602,68.427
3603,68.427
3604,68.427
3605,68.427
3606,68.427
3607,68.415
3608,68.415
3609,68.415
3610,68.415
3611,68.415
3612,68.415
3613,68.415
3614,68.415
3615,68.419
3616,68.419
3617,68.419
3618,68.419
3619,68.419
3620,68.419
3621,68.419
3622,68.419
3623,68.320
3624,68.320
3625,68.320
3626,68.320
3627,68.320
3628,68.320
3629,68.320
3630,68.320
3631,68.320
3632,68.320
3633,68.320
3634,68.320
3635,68.798
3636,68.798
3637,68.798
3638,68.798
3639,68.798
3640,68.798
3641,68.798
3642,68.798
3643,68.320
3644,68.320
3645,68.320
3646,68.320
3647,68.320
3648,68.320
3649,68.320
3650,68.320
3651,68.320
3652,68.320
3653,68.320
3654,68.320
3655,68.798
3656,68.798
3657,68.798
3658,68.798
3659,68.798
3660,68.798
3661,68.798
3662,68.798
3663,68.223
3664,68.223
3665,68.223
3666,68.223
3667,68.223
3668,68.223
3669,68.223
3670,68.223
3671,68.223
3672,68.223
3673,68.223
3674,68.798
3675,68.798
3676,68.798
3677,68.798
3678,68.798
3679,68.798
3680,68.798
3681,68.798
3682,68.126
3683,68.126
3684,68.126
3685,68.126
3686,68.126
3687,68.126
3688,68.126
3689,68.126
3690,68.126
3691,68.126
3692,68.126
3693,68.126
3694,68.798
3695,68.798
3696,68.798
3697,68.798
3698,68.798
3699,68.798
3700,68.798
3701,68.798
3702,68.223
3703,68.223
3704,68.223
3705,68.223
3706,68.223
3707,68.223
3708,68.223
3709,68.223
3710,68.223
3711,68.223
3712,68.223
3713,68.223
3714,68.702
3715,68.702
3716,68.702
3717,68.702
3718,68.702
3719,68.702
3720,68.702
3721,68.702
3722,68.126
3723,68.126
3724,68.126
3725,68.126
3726,68.126
3727,68.126
3728,68.126
3729,68.126
3730,68.126
3731,68.126
3732,68.126
3733,68.126
3734,68.704
3735,68.704
3736,68.704
3737,68.704
3738,68.704
3739,68.704
3740,68.704
3741,68.704
3742,68.126
3743,68.126
3744,68.126
3745,68.126
3746,68.126
3747,68.126
3748,68.126
3749,68.126
3750,68.126
3751,68.126
3752,68.126
3753,68.126
3754,68.608
3755,68.608
3756,68.608
3757,68.608
3758,68.608
3759,68.608
3760,68.608
3761,68.608
3762,68.126
3763,68.126
3764,68.126
3765,68.126
3766,68.126
3767,68.126
3768,68.126
3769,68.126
3770,68.126
3771,68.126
3772,68.126
3773,68.126
3774,68.704
3775,68.704
3776,68.704
3777,68.704
3778,68.704
3779,68.704
3780,68.704
3781,68.704
3782,68.223
3783,68.223
3784,68.223
3785,68.223
3786,68.223
3787,68.223
3788,68.223
3789,68.223
3790,68.223
3791,68.223
3792,68.223
3793,68.223
3794,68.798
3795,68.798
3796,68.798
3797,68.798
3798,68.798
3799,68.798
3800,68.798
3801,68.798
3802,68.223
3803,68.223
3804,68.223
3805,68.223
3806,68.223
3807,68.223
3808,68.223
3809,68.223
3810,68.223
3811,68.223
3812,68.223
3813,68.223
3814,68.605
3815,68.605
3816,68.605
3817,68.605
3818,68.605
3819,68.605
3820,68.605
3821,68.605
3822,68.134
3823,68.134
3824,68.134
3825,68.134
3826,68.134
3827,68.134
3828,68.134
3829,68.134
3830,68.134
3831,68.134
3832,68.134
3833,68.134
3834,68.511
3835,68.511
3836,68.511
3837,68.511
3838,68.511
3839,68.511
3840,68.511
3841,68.511
3842,68.126
3843,68.126
3844,68.126
3845,68.126
3846,68.126
3847,68.126
3848,68.126
3849,68.126
3850,68.126
3851,68.126
3852,68.126
3853,68.126
3854,68.607
3855,68.607
3856,68.607
3857,68.607
3858,68.607
3859,68.607
3860,68.607
3861,68.607
3862,68.030
3863,68.030
3864,68.030
3865,68.030
3866,68.030
3867,68.030
3868,68.030
3869,68.030
3870,68.030
3871,68.030
3872,68.030
3873,68.030
3874,68.511
3875,68.511
3876,68.511
3877,68.511
3878,68.511
3879,68.511
3880,68.511
3881,68.511
3882,68.030
3883,68.030
3884,68.030
3885,68.030
3886,68.030
3887,68.030
3888,68.030
3889,68.030
3890,68.030
3891,68.030
3892,68.030
3893,68.030
3894,68.511
3895,68.511
3896,68.511
3897,68.511
3898,68.511
3899,68.511
3900,68.511
3901,68.511
3902,68.030
3903,68.030
3904,68.030
3905,68.030
3906,68.030
3907,68.030
3908,68.030
3909,68.030
3910,68.030
3911,68.030
3912,68.030
3913,68.030
3914,68.511
3915,68.511
3916,68.511
3917,68.511
3918,68.511
3919,68.511
3920,68.511
3921,68.511
3922,68.030
3923,68.030
3924,68.030
3925,68.030
3926,68.030
3927,68.030
3928,68.030
3929,68.030
3930,68.030
3931,68.030
3932,68.030
3933,68.511
3934,68.511
3935,68.511
3936,68.511
3937,68.511
3938,68.511
3939,68.511
3940,68.511
3941,68.030
3942,68.030
3943,68.030
3944,68.030
3945,68.030
3946,68.030
3947,68.030
3948,68.030
3949,68.030
3950,68.030
3951,68.030
3952,68.030
3953,68.415
3954,68.415
3955,68.415
3956,68.415
3957,68.415
3958,68.415
3959,68.415
3960,68.415
3961,68.030
3962,68.030
3963,68.030
3964,68.030
3965,68.030
3966,68.030
3967,68.030
3968,68.030
3969,68.030
3970,68.030
3971,68.030
3972,68.030
3973,68.511
3974,68.511
3975,68.511
3976,68.511
3977,68.511
3978,68.511
3979,68.511
3980,68.511
3981,68.030
3982,68.030
3983,68.030
3984,68.030
3985,68.030
3986,68.030
3987,68.030
3988,68.030
3989,68.030
3990,68.030
3991,68.030
3992,68.030
3993,68.415
3994,68.415
3995,68.415
3996,68.415
3997,68.415
3998,68.415
3999,68.415
4000,68.415
4001,67.936
4002,67.936
4003,67.936
4004,67.936
4005,67.936
4006,67.936
4007,67.936
4008,67.936
4009,67.936
4010,68.415
4011,68.415
4012,68.415
4013,68.415
4014,68.415
4015,68.415
4016,68.415
4017,68.415
4018,68.515
4019,68.515
4020,68.515
4021,68.515
4022,68.515
4023,68.515
4024,68.515
4025,68.515
4026,68.515
4027,68.590
4028,68.590
4029,68.590
4030,68.590
4031,68.590
4032,68.590
4033,68.590
4034,68.590
4035,68.319
4036,68.319
4037,68.319
4038,68.319
4039,68.319
4040,68.319
4041,68.319
4042,68.319
4043,68.319
4044,68.511
4045,68.511
4046,68.511
4047,68.511
4048,68.511
4049,68.511
4050,68.511
4051,68.511
4052,67.936
4053,67.936
4054,67.936
4055,67.936
4056,67.936
4057,67.936
4058,67.936
4059,67.936
4060,67.936
4061,67.936
4062,67.936
4063,67.936
4064,68.415
4065,68.415
4066,68.415
4067,68.415
4068,68.415
4069,68.415
4070,68.415
4071,68.415
4072,68.109
4073,68.109
4074,68.109
4075,68.109
4076,68.109
4077,68.109
4078,68.109
4079,68.109
4080,68.109
4081,68.511
4082,68.511
4083,68.511
4084,68.511
4085,68.511
4086,68.511
4087,68.511
4088,68.511
4089,67.936
4090,67.936
4091,67.936
4092,67.936
4093,67.936
4094,67.936
4095,67.936
4096,67.936
4097,67.936
4098,68.415
4099,68.415
4100,68.415
4101,68.415
4102,68.415
4103,68.415
4104,68.415
4105,68.415
4106,67.936
4107,67.936
4108,67.936
4109,67.936
4110,67.936
4111,67.936
4112,67.936
4113,67.936
4114,67.936
4115,68.415
4116,68.415
4117,68.415
4118,68.415
4119,68.415
4120,68.415
4121,68.415
4122,68.415
4123,68.415
4124,68.895
4125,68.895
4126,68.895
4127,68.895
4128,68.895
4129,68.895
4130,68.895
4131,68.895
4132,68.895
4133,68.615
4134,68.615
4135,68.615
4136,68.615
4137,68.615
4138,68.615
4139,68.615
4140,68.615
4141,68.126
4142,68.126
4143,68.126
4144,68.126
4145,68.126
4146,68.126
4147,68.126
4148,68.126
4149,68.126
4150,68.126
4151,68.126
4152,68.126
4153,68.511
4154,68.511
4155,68.511
4156,68.511
4157,68.511
4158,68.511
4159,68.511
4160,68.511
4161,68.126
4162,68.126
4163,68.126
4164,68.126
4165,68.126
4166,68.126
4167,68.126
4168,68.126
4169,68.126
4170,68.126
4171,68.126
4172,68.126
4173,68.511
4174,68.511
4175,68.511
4176,68.511
4177,68.511
4178,68.511
4179,68.511
4180,68.511
4181,68.030
4182,68.030
4183,68.030
4184,68.030
4185,68.030
4186,68.030
4187,68.030
4188,68.030
4189,68.030
4190,68.030
4191,68.030
4192,68.030
4193,68.511
4194,68.511
4195,68.511
4196,68.511
4197,68.511
4198,68.511
4199,68.511
4200,68.511
4201,68.030
4202,68.030
4203,68.030
4204,68.030
4205,68.030
4206,68.030
4207,68.030
4208,68.030
4209,68.030
4210,68.030
4211,68.030
4212,68.030
4213,68.511
4214,68.511
4215,68.511
4216,68.511
4217,68.511
4218,68.511
4219,68.511
4220,68.511
4221,68.030
4222,68.030
4223,68.030
4224,68.030
4225,68.030
4226,68.030
4227,68.030
4228,68.030
4229,68.030
4230,68.030
4231,68.030
4232,68.030
4233,68.511
4234,68.511
4235,68.511
4236,68.511
4237,68.511
4238,68.511
4239,68.511
4240,68.511
4241,67.936
4242,67.936
4243,67.936
4244,67.936
4245,67.936
4246,67.936
4247,67.936
4248,67.936
4249,67.936
4250,67.936
4251,68.511
4252,68.511
4253,68.511
4254,68.511
4255,68.511
4256,68.511
4257,68.511
4258,68.511
4259,67.936
4260,67.936
4261,67.936
4262,67.936
4263,67.936
4264,67.936
4265,67.936
4266,67.936
4267,67.936
4268,67.936
4269,68.415
4270,68.415
4271,68.415
4272,68.415
4273,68.415
4274,68.415
4275,68.415
4276,68.415
4277,68.419
4278,68.419
4279,68.419
4280,68.419
4281,68.419
4282,68.419
4283,68.419
4284,68.419
4285,68.419
4286,68.511
4287,68.511
4288,68.511
4289,68.511
4290,68.511
4291,68.511
4292,68.511
4293,68.511
4294,68.708
4295,68.708
4296,68.708
4297,68.708
4298,68.708
4299,68.708
4300,68.708
4301,68.708
4302,68.708
4303,68.607
4304,68.607
4305,68.607
4306,68.607
4307,68.607
4308,68.607
4309,68.607
4310,68.607
4311,68.223
4312,68.223
4313,68.223
4314,68.223
4315,68.223
4316,68.223
4317,68.223
4318,68.223
4319,68.223
4320,68.223
4321,68.223
4322,68.223
4323,68.607
4324,68.607
4325,68.607
4326,68.607
4327,68.607
4328,68.607
4329,68.607
4330,68.607
4331,68.223
4332,68.223
4333,68.223
4334,68.223
4335,68.223
4336,68.223
4337,68.223
4338,68.223
4339,68.223
4340,68.223
4341,68.223
4342,68.223
4343,68.607
4344,68.607
4345,68.607
4346,68.607
4347,68.607
4348,68.607
4349,68.607
4350,68.607
4351,68.126
4352,68.126
4353,68.126
4354,68.126
4355,68.126
4356,68.126
4357,68.126
4358,68.126
4359,68.126
4360,68.126
4361,68.126
4362,68.126
4363,68.607
4364,68.607
4365,68.607
4366,68.607
4367,68.607
4368,68.607
4369,68.607
4370,68.607
4371,68.223
4372,68.223
4373,68.223
4374,68.223
4375,68.223
4376,68.223
4377,68.223
4378,68.223
4379,68.223
4380,68.223
4381,68.223
4382,68.223
4383,68.590
4384,68.590
4385,68.590
4386,68.590
4387,68.590
4388,68.590
4389,68.590
4390,68.590
4391,68.127
4392,68.127
4393,68.127
4394,68.127
4395,68.127
4396,68.127
4397,68.127
4398,68.127
4399,68.127
4400,68.127
4401,68.127
4402,68.607
4403,68.607
4404,68.607
4405,68.607
4406,68.607
4407,68.607
4408,68.607
4409,68.607
4410,68.127
4411,68.127
4412,68.127
4413,68.127
4414,68.127
4415,68.127
4416,68.127
4417,68.127
4418,68.127
4419,68.127
4420,68.127
4421,68.511
4422,68.511
4423,68.511
4424,68.511
4425,68.511
4426,68.511
4427,68.511
4428,68.511
4429,68.032
4430,68.032
4431,68.032
4432,68.032
4433,68.032
4434,68.032
4435,68.032
4436,68.032
4437,68.032
4438,68.511
4439,68.511
4440,68.511
4441,68.511
4442,68.511
4443,68.511
4444,68.511
4445,68.511
4446,68.419
4447,68.419
4448,68.419
4449,68.419
4450,68.419
4451,68.419
4452,68.419
4453,68.419
4454,68.419
4455,68.511
4456,68.511
4457,68.511
4458,68.511
4459,68.511
4460,68.511
4461,68.511
4462,68.511
4463,68.515
4464,68.515
4465,68.515
4466,68.515
4467,68.515
4468,68.515
4469,68.515
4470,68.515
4471,68.515
4472,68.511
4473,68.511
4474,68.511
4475,68.511
4476,68.511
4477,68.511
4478,68.511
4479,68.511
4480,68.223
4481,68.223
4482,68.223
4483,68.223
4484,68.223
4485,68.223
4486,68.223
4487,68.223
4488,68.223
4489,68.223
4490,68.223
4491,68.223
4492,68.704
4493,68.704
4494,68.704
4495,68.704
4496,68.704
4497,68.704
4498,68.704
4499,68.704
4500,68.223
4501,68.223
4502,68.223
4503,68.223
4504,68.223
4505,68.223
4506,68.223
4507,68.223
4508,68.223
4509,68.223
4510,68.223
4511,68.223
4512,68.607
4513,68.607
4514,68.607
4515,68.607
4516,68.607
4517,68.607
4518,68.607
4519,68.607
4520,68.223
4521,68.223
4522,68.223
4523,68.223
4524,68.223
4525,68.223
4526,68.223
4527,68.223
4528,68.223
4529,68.223
4530,68.223
4531,68.992
4532,68.992
4533,68.992
4534,68.992
4535,68.992
4536,68.992
4537,68.992
4538,68.992
4539,68.992
4540,68.704
4541,68.704
4542,68.704
4543,68.704
4544,68.704
4545,68.704
4546,68.704
4547,68.704
4548,68.223
4549,68.223
4550,68.223
4551,68.223
4552,68.223
4553,68.223
4554,68.223
4555,68.223
4556,68.223
4557,68.223
4558,68.223
4559,68.223
4560,68.798
4561,68.798
4562,68.798
4563,68.798
4564,68.798
4565,68.798
4566,68.798
4567,68.798
4568,68.320
4569,68.320
4570,68.320
4571,68.320
4572,68.320
4573,68.320
4574,68.320
4575,68.320
4576,67.838
4577,67.838
4578,67.838
4579,67.838
4580,67.838
4581,67.838
4582,67.838
4583,67.838
4584,67.838
4585,67.838
4586,67.838
4587,67.838
4588,68.607
4589,68.607
4590,68.607
4591,68.607
4592,68.607
4593,68.607
4594,68.607
4595,68.607
4596,68.030
4597,68.030
4598,68.030
4599,68.030
4600,68.030
4601,68.030
4602,68.030
4603,68.030
4604,68.030
4605,68.607
4606,68.607
4607,68.607
4608,68.607
4609,68.607
4610,68.607
4611,68.607
4612,68.607
4613,68.126
4614,68.126
4615,68.126
4616,68.126
4617,68.126
4618,68.126
4619,68.126
4620,68.126
4621,68.126
4622,68.126
4623,68.607
4624,68.607
4625,68.607
4626,68.607
4627,68.607
4628,68.607
4629,68.607
4630,68.607
4631,68.223
4632,68.223
4633,68.223
4634,68.223
4635,68.223
4636,68.223
4637,68.223
4638,68.223
4639,68.223
4640,68.223
4641,68.223
4642,68.223
4643,68.704
4644,68.704
4645,68.704
4646,68.704
4647,68.704
4648,68.704
4649,68.704
4650,68.704
4651,68.223
4652,68.223
4653,68.223
4654,68.223
4655,68.223
4656,68.223
4657,68.223
4658,68.223
4659,68.223
4660,68.223
4661,68.223
4662,68.223
4663,68.704
4664,68.704
4665,68.704
4666,68.704
4667,68.704
4668,68.704
4669,68.704
4670,68.704
4671,68.223
4672,68.223
4673,68.223
4674,68.223
4675,68.223
4676,68.223
4677,68.223
4678,68.223
4679,68.223
4680,68.223
4681,68.223
4682,68.223
4683,68.798
4684,68.798
4685,68.798
4686,68.798
4687,68.798
4688,68.798
4689,68.798
4690,68.798
4691,68.223
4692,68.223
4693,68.223
4694,68.223
4695,68.223
4696,68.223
4697,68.223
4698,68.223
4699,68.223
4700,68.223
4701,68.223
4702,68.223
4703,68.704
4704,68.704
4705,68.704
4706,68.704
4707,68.704
4708,68.704
4709,68.704
4710,68.704
4711,68.320
4712,68.320
4713,68.320
4714,68.320
4715,68.320
4716,68.320
4717,68.320
4718,68.320
4719,68.320
4720,68.320
4721,68.320
4722,68.320
4723,68.798
4724,68.798
4725,68.798
4726,68.798
4727,68.798
4728,68.798
4729,68.798
4730,68.798
4731,68.223
4732,68.223
4733,68.223
4734,68.223
4735,68.223
4736,68.223
4737,68.223
4738,68.223
4739,68.223
4740,68.223
4741,68.223
4742,68.223
4743,68.704
4744,68.704
4745,68.704
4746,68.704
4747,68.704
4748,68.704
4749,68.704
4750,68.704
4751,68.223
4752,68.223
4753,68.223
4754,68.223
4755,68.223
4756,68.223
4757,68.223
4758,68.223
4759,68.223
4760,68.223
4761,68.223
4762,68.223
4763,68.704
4764,68.704
4765,68.704
4766,68.704
4767,68.704
4768,68.704
4769,68.704
4770,68.704
4771,68.223
4772,68.223
4773,68.223
4774,68.223
4775,68.223
4776,68.223
4777,68.223
4778,68.223
4779,68.223
4780,68.223
4781,68.223
4782,68.704
4783,68.704
4784,68.704
4785,68.704
4786,68.704
4787,68.704
4788,68.704
4789,68.704
4790,68.223
4791,68.223
4792,68.223
4793,68.223
4794,68.223
4795,68.223
4796,68.223
4797,68.223
4798,68.223
4799,68.223
4800,68.223
4801,68.223
4802,68.704
4803,68.704
4804,68.704
4805,68.704
4806,68.704
4807,68.704
4808,68.704
4809,68.704
4810,68.223
4811,68.223
4812,68.223
4813,68.223
4814,68.223
4815,68.223
4816,68.223
4817,68.223
4818,68.223
4819,68.223
4820,68.223
4821,68.223
4822,68.590
4823,68.590
4824,68.590
4825,68.590
4826,68.590
4827,68.590
4828,68.590
4829,68.590
4830,68.223
4831,68.223
4832,68.223
4833,68.223
4834,68.223
4835,68.223
4836,68.223
4837,68.223
4838,68.223
4839,68.223
4840,68.223
4841,68.223
4842,68.607
4843,68.607
4844,68.607
4845,68.607
4846,68.607
4847,68.607
4848,68.607
4849,68.607
4850,68.127
4851,68.127
4852,68.127
4853,68.127
4854,68.127
4855,68.127
4856,68.127
4857,68.127
4858,68.127
4859,68.127
4860,68.127
4861,68.607
4862,68.607
4863,68.607
4864,68.607
4865,68.607
4866,68.607
4867,68.607
4868,68.607
4869,68.223
4870,68.223
4871,68.223
4872,68.223
4873,68.223
4874,68.223
4875,68.223
4876,68.223
4877,68.223
4878,68.704
4879,68.704
4880,68.704
4881,68.704
4882,68.704
4883,68.704
4884,68.704
4885,68.704
4886,68.223
4887,68.223
4888,68.223
4889,68.223
4890,68.223
4891,68.223
4892,68.223
4893,68.223
4894,68.223
4895,68.223
4896,68.223
4897,68.223
4898,68.607
4899,68.607
4900,68.607
4901,68.607
4902,68.607
4903,68.607
4904,68.607
4905,68.607
4906,68.223
4907,68.223
4908,68.223
4909,68.223
4910,68.223
4911,68.223
4912,68.223
4913,68.223
4914,68.223
4915,68.223
4916,68.223
4917,68.223
4918,68.607
4919,68.607
4920,68.607
4921,68.607
4922,68.607
4923,68.607
4924,68.607
4925,68.607
4926,68.126
4927,68.126
4928,68.126
4929,68.126
4930,68.126
4931,68.126
4932,68.126
4933,68.126
4934,68.126
4935,68.126
4936,68.126
4937,68.511
4938,68.511
4939,68.511
4940,68.511
4941,68.511
4942,68.609
4943,68.609
4944,68.609
4945,68.609
4946,68.609
4947,68.609
4948,68.609
4949,68.609
4950,68.609
4951,68.607
4952,68.607
4953,68.607
4954,68.607
4955,68.607
4956,68.607
4957,68.607
4958,68.607
4959,68.805
4960,68.805
4961,68.805
4962,68.805
4963,68.805
4964,68.805
4965,68.805
4966,68.805
4967,68.805
4968,68.798
4969,68.798
4970,68.798
4971,68.798
4972,68.798
4973,68.798
4974,68.798
4975,68.798
4976,68.223
4977,68.223
4978,68.223
4979,68.223
4980,68.223
4981,68.223
4982,68.223
4983,68.223
4984,68.223
4985,68.223
4986,68.223
4987,68.223
4988,68.798
4989,68.798
4990,68.798
4991,68.798
4992,68.798
4993,68.798
4994,68.798
4995,68.798
4996,68.223
4997,68.223
4998,68.223
4999,68.223
5000,68.223
5001,68.223
5002,68.223
5003,68.223
5004,68.801
5005,68.801
5006,68.801
5007,68.801
5008,68.801
5009,68.801
5010,68.801
5011,68.801
5012,68.801
5013,68.511
5014,68.511
5015,68.511
5016,68.511
5017,68.511
5018,68.511
5019,68.511
5020,68.511
5021,68.126
5022,68.126
5023,68.126
5024,68.126
5025,68.126
5026,68.126
5027,68.126
5028,68.126
5029,68.126
5030,68.607
5031,68.607
5032,68.607
5033,68.607
5034,68.607
5035,68.607
5036,68.607
5037,68.607
5038,68.223
5039,68.223
5040,68.223
5041,68.223
5042,68.223
5043,68.223
5044,68.223
5045,68.223
5046,68.223
5047,68.223
5048,68.223
5049,68.223
5050,68.704
5051,68.704
5052,68.704
5053,68.704
5054,68.704
5055,68.704
5056,68.704
5057,68.704
5058,68.223
5059,68.223
5060,68.223
5061,68.223
5062,68.223
5063,68.223
5064,68.223
5065,68.223
5066,68.223
5067,68.223
5068,68.223
5069,68.704
5070,68.704
5071,68.704
5072,68.704
5073,68.704
5074,68.704
5075,68.704
5076,68.704
5077,68.223
5078,68.223
5079,68.223
5080,68.223
5081,68.223
5082,68.223
5083,68.223
5084,68.223
5085,68.223
5086,68.223
5087,68.607
5088,68.607
5089,68.607
5090,68.607
5091,68.607
5092,68.607
5093,68.607
5094,68.607
5095,68.136
5096,68.136
5097,68.136
5098,68.136
5099,68.136
5100,68.136
5101,68.136
5102,68.136
5103,68.136
5104,68.136
5105,68.136
5106,68.136
5107,68.607
5108,68.607
5109,68.607
5110,68.607
5111,68.607
5112,68.607
5113,68.607
5114,68.607
5115,68.126
5116,68.126
5117,68.126
5118,68.126
5119,68.126
5120,68.126
5121,68.126
5122,68.126
5123,68.126
5124,68.608
5125,68.608
5126,68.608
5127,68.608
5128,68.608
5129,68.608
5130,68.608
5131,68.608
5132,68.706
5133,68.706
5134,68.706
5135,68.706
5136,68.706
5137,68.706
5138,68.706
5139,68.706
5140,68.706
5141,68.704
5142,68.704
5143,68.704
5144,68.704
5145,68.704
5146,68.704
5147,68.704
5148,68.704
5149,68.320
5150,68.320
5151,68.320
5152,68.320
5153,68.320
5154,68.320
5155,68.320
5156,68.320
5157,68.320
5158,68.320
5159,68.320
5160,68.320
5161,68.975
5162,68.975
5163,68.975
5164,68.975
5165,68.975
5166,68.975
5167,68.975
5168,68.975
5169,68.511
5170,68.511
5171,68.511
5172,68.511
5173,68.511
5174,68.511
5175,68.511
5176,68.511
5177,68.511
5178,68.511
5179,68.511
5180,68.895
5181,68.895
5182,68.895
5183,68.895
5184,68.895
5185,68.895
5186,68.895
5187,68.895
5188,68.320
5189,68.320
5190,68.320
5191,68.320
5192,68.320
5193,68.320
5194,68.320
5195,68.320
5196,68.320
5197,68.320
5198,68.320
5199,68.320
5200,68.895
5201,68.895
5202,68.895
5203,68.895
5204,68.895
5205,68.895
5206,68.895
5207,68.895
5208,68.320
5209,68.320
5210,68.320
5211,68.320
5212,68.320
5213,68.320
5214,68.320
5215,68.320
5216,68.320
5217,68.320
5218,68.320
5219,68.320
5220,68.895
5221,68.895
5222,68.895
5223,68.895
5224,68.895
5225,68.895
5226,68.895
5227,68.895
5228,68.320
5229,68.320
5230,68.320
5231,68.320
5232,68.320
5233,68.320
5234,68.320
5235,68.320
5236,68.320
5237,68.320
5238,68.320
5239,68.320
5240,68.895
5241,68.895
5242,68.895
5243,68.895
5244,68.895
5245,68.895
5246,68.895
5247,68.895
5248,68.320
5249,68.320
5250,68.320
5251,68.320
5252,68.320
5253,68.320
5254,68.320
5255,68.320
5256,68.320
5257,68.320
5258,68.320
5259,68.320
5260,68.895
5261,68.895
5262,68.895
5263,68.895
5264,68.895
5265,68.895
5266,68.895
5267,68.895
5268,68.320
5269,68.320
5270,68.320
5271,68.320
5272,68.320
5273,68.320
5274,68.320
5275,68.320
5276,68.320
5277,68.320
5278,68.320
5279,68.320
5280,68.895
5281,68.895
5282,68.895
5283,68.895
5284,68.895
5285,68.895
5286,68.895
5287,68.895
5288,68.320
5289,68.320
5290,68.320
5291,68.320
5292,68.320
5293,68.320
5294,68.320
5295,68.320
5296,68.320
5297,68.320
5298,68.320
5299,68.320
5300,68.895
5301,68.895
5302,68.895
5303,68.895
5304,68.895
5305,68.895
5306,68.895
5307,68.895
5308,68.303
5309,68.303
5310,68.303
5311,68.303
5312,68.303
5313,68.303
5314,68.303
5315,68.303
5316,68.303
5317,68.303
5318,68.303
5319,68.303
5320,68.798
5321,68.798
5322,68.798
5323,68.798
5324,68.798
5325,68.798
5326,68.798
5327,68.798
5328,68.320
5329,68.320
5330,68.320
5331,68.320
5332,68.320
5333,68.320
5334,68.320
5335,68.320
5336,68.320
5337,68.320
5338,68.320
5339,68.320
5340,68.798
5341,68.798
5342,68.798
5343,68.798
5344,68.798
5345,68.798
5346,68.798
5347,68.320
5348,68.320
5349,68.320
5350,68.320
5351,68.320
5352,68.320
5353,68.320
5354,68.320
5355,68.320
5356,68.320
5357,68.320
5358,68.320
5359,68.320
5360,68.320
5361,68.320
5362,68.320
5363,68.223
5364,68.223
5365,68.223
5366,68.223
5367,68.223
5368,68.223
5369,68.223
5370,68.223
5371,68.223
5372,68.223
5373,68.223
5374,68.223
5375,68.704
5376,68.704
5377,68.704
5378,68.704
5379,68.704
5380,68.704
5381,68.704
5382,68.704
5383,68.320
5384,68.320
5385,68.320
5386,68.320
5387,68.320
5388,68.320
5389,68.320
5390,68.320
5391,68.320
5392,68.320
5393,68.320
5394,68.320
5395,68.704
5396,68.704
5397,68.704
5398,68.704
5399,68.704
5400,68.704
5401,68.704
5402,68.704
5403,68.320
5404,68.320
5405,68.320
5406,68.320
5407,68.320
5408,68.320
5409,68.320
5410,68.320
5411,68.320
5412,68.320
5413,68.320
5414,68.320
5415,68.704
5416,68.704
5417,68.704
5418,68.704
5419,68.704
5420,68.704
5421,68.704
5422,68.704
5423,68.320
5424,68.320
5425,68.320
5426,68.320
5427,68.320
5428,68.320
5429,68.320
5430,68.320
5431,68.320
5432,68.320
5433,68.320
5434,68.320
5435,68.895
5436,68.895
5437,68.895
5438,68.895
5439,68.895
5440,68.895
5441,68.895
5442,68.895
5443,68.320
5444,68.320
5445,68.320
5446,68.320
5447,68.320
5448,68.320
5449,68.320
5450,68.320
5451,68.320
5452,68.320
5453,68.320
5454,68.320
5455,68.895
5456,68.895
5457,68.895
5458,68.895
5459,68.895
5460,68.895
5461,68.895
5462,68.895
5463,68.320
5464,68.320
5465,68.320
5466,68.320
5467,68.320
5468,68.320
5469,68.320
5470,68.320
5471,68.320
5472,68.320
5473,68.320
5474,68.320
5475,68.704
5476,68.704
5477,68.704
5478,68.704
5479,68.704
5480,68.704
5481,68.704
5482,68.704
5483,68.223
5484,68.223
5485,68.223
5486,68.223
5487,68.223
5488,68.223
5489,68.223
5490,68.223
5491,68.223
5492,68.223
5493,68.223
5494,68.223
5495,68.704
5496,68.704
5497,68.704
5498,68.704
5499,68.704
5500,68.704
5501,68.704
5502,68.704
5503,68.320
5504,68.320
5505,68.320
5506,68.320
5507,68.320
5508,68.320
5509,68.320
5510,68.320
5511,68.320
5512,68.320
5513,68.320
5514,68.320
5515,68.704
5516,68.704
5517,68.704
5518,68.704
5519,68.704
5520,68.704
5521,68.704
5522,68.704
5523,68.223
5524,68.223
5525,68.223
5526,68.223
5527,68.223
5528,68.223
5529,68.223
5530,68.223
5531,68.223
5532,68.223
5533,68.223
5534,68.223
5535,68.704
5536,68.704
5537,68.704
5538,68.704
5539,68.704
5540,68.704
5541,68.704
5542,68.704
5543,68.320
5544,68.320
5545,68.320
5546,68.320
5547,68.320
5548,68.320
5549,68.320
5550,68.320
5551,68.320
5552,68.320
5553,68.320
5554,68.320
5555,68.704
5556,68.704
5557,68.704
5558,68.704
5559,68.704
5560,68.704
5561,68.704
5562,68.704
5563,68.320
5564,68.320
5565,68.320
5566,68.320
5567,68.320
5568,68.320
5569,68.320
5570,68.320
5571,68.320
5572,68.320
5573,68.704
5574,68.704
5575,68.704
5576,68.704
5577,68.704
5578,68.704
5579,68.704
5580,68.704
5581,68.223
5582,68.223
5583,68.223
5584,68.223
5585,68.223
5586,68.223
5587,68.223
5588,68.223
5589,68.223
5590,68.704
5591,68.704
5592,68.704
5593,68.704
5594,68.704
5595,68.704
5596,68.704
5597,68.704
5598,68.609
5599,68.609
5600,68.609
5601,68.609
5602,68.609
5603,68.609
5604,68.609
5605,68.609
5606,68.609
5607,68.798
5608,68.798
5609,68.798
5610,68.798
5611,68.798
5612,68.798
5613,68.798
5614,68.798
5615,68.320
5616,68.320
5617,68.320
5618,68.320
5619,68.320
5620,68.320
5621,68.320
5622,68.320
5623,68.320
5624,68.320
5625,68.320
5626,68.320
5627,68.704
5628,68.704
5629,68.704
5630,68.704
5631,68.704
5632,68.704
5633,68.704
5634,68.320
5635,68.320
5636,68.320
5637,68.320
5638,68.320
5639,68.320
5640,68.320
5641,68.320
5642,68.320
5643,68.320
5644,68.320
5645,68.320
5646,68.798
5647,68.798
5648,68.798
5649,68.798
5650,68.798
5651,68.798
5652,68.798
5653,68.798
5654,68.320
5655,68.320
5656,68.320
5657,68.320
5658,68.320
5659,68.320
5660,68.320
5661,68.320
5662,68.320
5663,68.320
5664,68.320
5665,68.320
5666,68.704
5667,68.704
5668,68.704
5669,68.704
5670,68.704
5671,68.704
5672,68.704
5673,68.704
5674,68.320
5675,68.320
5676,68.320
5677,68.320
5678,68.320
5679,68.320
5680,68.320
5681,68.320
5682,68.320
5683,68.320
5684,68.320
5685,68.320
5686,68.704
5687,68.704
5688,68.704
5689,68.704
5690,68.704
5691,68.704
5692,68.704
5693,68.704
5694,68.223
5695,68.223
5696,68.223
5697,68.223
5698,68.223
5699,68.223
5700,68.223
5701,68.223
5702,68.223
5703,68.223
5704,68.223
5705,68.223
5706,68.704
5707,68.704
5708,68.704
5709,68.704
5710,68.704
5711,68.704
5712,68.704
5713,68.704
5714,68.223
5715,68.223
5716,68.223
5717,68.223
5718,68.223
5719,68.223
5720,68.223
5721,68.223
5722,68.223
5723,68.704
5724,68.704
5725,68.704
5726,68.704
5727,68.704
5728,68.704
5729,68.704
5730,68.704
5731,68.223
5732,68.223
5733,68.223
5734,68.223
5735,68.223
5736,68.223
5737,68.223
5738,68.223
5739,68.223
5740,68.704
5741,68.704
5742,68.704
5743,68.704
5744,68.704
5745,68.704
5746,68.704
5747,68.704
5748,68.223
5749,68.223
5750,68.223
5751,68.223
5752,68.223
5753,68.223
5754,68.223
5755,68.223
5756,68.704
5757,68.704
5758,68.704
5759,68.704
5760,68.704
5761,68.704
5762,68.704
5763,68.704
5764,68.223
5765,68.223
5766,68.223
5767,68.223
5768,68.223
5769,68.223
5770,68.223
5771,68.223
5772,68.223
5773,68.223
5774,68.223
5775,68.223
5776,68.704
5777,68.704
5778,68.704
5779,68.704
5780,68.704
5781,68.704
5782,68.704
5783,68.704
5784,68.320
5785,68.320
5786,68.320
5787,68.320
5788,68.320
5789,68.320
5790,68.320
5791,68.320
5792,68.320
5793,68.320
5794,68.320
5795,68.320
5796,68.704
5797,68.704
5798,68.704
5799,68.704
5800,68.704
5801,68.704
5802,68.704
5803,68.704
5804,68.327
5805,68.327
5806,68.327
5807,68.327
5808,68.327
5809,68.327
5810,68.327
5811,68.327
5812,68.327
5813,68.327
5814,68.327
5815,68.327
5816,68.704
5817,68.704
5818,68.704
5819,68.704
5820,68.704
5821,68.704
5822,68.704
5823,68.704
5824,68.223
5825,68.223
5826,68.223
5827,68.223
5828,68.223
5829,68.223
5830,68.223
5831,68.223
5832,68.223
5833,68.223
5834,68.223
5835,68.704
5836,68.704
5837,68.704
5838,68.704
5839,68.704
5840,68.320
5841,68.320
5842,68.320
5843,68.320
5844,68.320
5845,68.320
5846,68.320
5847,68.320
5848,68.320
5849,68.320
5850,68.320
5851,68.320
5852,68.798
5853,68.798
5854,68.798
5855,68.798
5856,68.798
5857,68.798
5858,68.798
5859,68.798
5860,68.320
5861,68.320
5862,68.320
5863,68.320
5864,68.320
5865,68.320
5866,68.320
5867,68.320
5868,68.320
5869,68.320
5870,68.320
5871,68.320
5872,68.895
5873,68.895
5874,68.895
5875,68.895
5876,68.895
5877,68.895
5878,68.895
5879,68.895
5880,68.320
5881,68.320
5882,68.320
5883,68.320
5884,68.320
5885,68.320
5886,68.320
5887,68.320
5888,68.320
5889,68.320
5890,68.320
5891,68.320
5892,68.798
5893,68.798
5894,68.798
5895,68.798
5896,68.798
5897,68.798
5898,68.798
5899,68.798
5900,68.320
5901,68.320
5902,68.320
5903,68.320
5904,68.320
5905,68.320
5906,68.320
5907,68.320
5908,68.320
5909,68.320
5910,68.320
5911,68.320
5912,68.895
5913,68.895
5914,68.895
5915,68.895
5916,68.895
5917,68.895
5918,68.895
5919,68.320
5920,68.320
5921,68.320
5922,68.320
5923,68.320
5924,68.320
5925,68.320
5926,68.320
5927,68.320
5928,68.320
5929,68.320
5930,68.320
5931,68.704
5932,68.704
5933,68.704
5934,68.704
5935,68.704
5936,68.704
5937,68.704
5938,68.704
5939,68.327
5940,68.327
5941,68.327
5942,68.327
5943,68.327
5944,68.327
5945,68.327
5946,68.327
5947,68.327
5948,68.327
5949,68.327
5950,68.327
5951,68.704
5952,68.704
5953,68.704
5954,68.704
5955,68.704
5956,68.704
5957,68.704
5958,68.704
5959,68.320
5960,68.320
5961,68.320
5962,68.320
5963,68.320
5964,68.320
5965,68.320
5966,68.320
5967,68.320
5968,68.320
5969,68.320
5970,68.320
5971,68.704
5972,68.704
5973,68.704
5974,68.704
5975,68.704
5976,68.704
5977,68.704
5978,68.704
5979,68.327
5980,68.327
5981,68.327
5982,68.327
5983,68.327
5984,68.327
5985,68.327
5986,68.327
5987,68.327
5988,68.327
5989,68.327
5990,68.327
5991,68.704
5992,68.704
5993,68.704
5994,68.704
5995,68.704
5996,68.704
5997,68.704
5998,68.704
5999,68.320
6000,68.320
6001,68.320
6002,68.320
6003,68.320
6004,68.320
6005,68.320
6006,68.320
6007,68.320
6008,68.320
6009,68.320
6010,68.704
6011,68.704
6012,68.704
6013,68.704
6014,68.704
6015,68.704
6016,68.704
6017,68.704
6018,68.223
6019,68.223
6020,68.223
6021,68.223
6022,68.223
6023,68.223
6024,68.223
6025,68.223
6026,68.223
6027,68.798
6028,68.798
6029,68.798
6030,68.798
6031,68.798
6032,68.798
6033,68.798
6034,68.798
6035,68.223
6036,68.223
6037,68.223
6038,68.223
6039,68.223
6040,68.223
6041,68.223
6042,68.223
6043,68.223
6044,68.798
6045,68.798
6046,68.798
6047,68.798
6048,68.798
6049,68.798
6050,68.798
6051,68.798
6052,68.320
6053,68.320
6054,68.320
6055,68.320
6056,68.320
6057,68.320
6058,68.320
6059,68.320
6060,68.320
6061,68.320
6062,68.320
6063,68.320
6064,68.895
6065,68.895
6066,68.895
6067,68.895
6068,68.895
6069,68.895
6070,68.895
6071,68.895
6072,68.320
6073,68.320
6074,68.320
6075,68.320
6076,68.320
6077,68.320
6078,68.320
6079,68.320
6080,68.320
6081,68.320
6082,68.320
6083,68.320
6084,68.992
6085,68.992
6086,68.992
6087,68.992
6088,68.992
6089,68.992
6090,68.992
6091,68.992
6092,68.416
6093,68.416
6094,68.416
6095,68.416
6096,68.416
6097,68.416
6098,68.416
6099,68.416
6100,68.416
6101,68.416
6102,68.416
6103,68.416
6104,68.895
6105,68.895
6106,68.895
6107,68.895
6108,68.895
6109,68.895
6110,68.895
6111,68.895
6112,68.320
6113,68.320
6114,68.320
6115,68.320
6116,68.320
6117,68.320
6118,68.320
6119,68.320
6120,68.320
6121,68.320
6122,68.320
6123,68.992
6124,68.992
6125,68.992
6126,68.992
6127,68.992
6128,68.992
6129,68.992
6130,68.992
6131,68.320
6132,68.320
6133,68.320
6134,68.320
6135,68.320
6136,68.320
6137,68.320
6138,68.320
6139,68.320
6140,68.320
6141,68.320
6142,68.320
6143,68.895
6144,68.895
6145,68.895
6146,68.895
6147,68.895
6148,68.895
6149,68.895
6150,68.895
6151,68.320
6152,68.320
6153,68.320
6154,68.320
6155,68.320
6156,68.320
6157,68.320
6158,68.320
6159,68.320
6160,68.320
6161,68.320
6162,68.320
6163,68.895
6164,68.895
6165,68.895
6166,68.895
6167,68.895
6168,68.895
6169,68.895
6170,68.895
6171,68.320
6172,68.320
6173,68.320
6174,68.320
6175,68.320
6176,68.320
6177,68.320
6178,68.320
6179,68.320
6180,68.320
6181,68.320
6182,68.320
6183,68.801
6184,68.801
6185,68.801
6186,68.801
6187,68.801
6188,68.801
6189,68.801
6190,68.801
6191,68.327
6192,68.327
6193,68.327
6194,68.327
6195,68.327
6196,68.327
6197,68.327
6198,68.327
6199,68.327
6200,68.327
6201,68.327
6202,68.327
6203,68.704
6204,68.704
6205,68.704
6206,68.704
6207,68.704
6208,68.704
6209,68.704
6210,68.320
6211,68.320
6212,68.320
6213,68.320
6214,68.320
6215,68.320
6216,68.320
6217,68.320
6218,68.320
6219,68.320
6220,68.320
6221,68.320
6222,68.801
6223,68.801
6224,68.801
6225,68.801
6226,68.801
6227,68.801
6228,68.801
6229,68.801
6230,68.320
6231,68.320
6232,68.320
6233,68.320
6234,68.320
6235,68.320
6236,68.320
6237,68.320
6238,68.320
6239,68.320
6240,68.320
6241,68.320
6242,68.704
6243,68.704
6244,68.704
6245,68.704
6246,68.704
6247,68.704
6248,68.704
6249,68.704
6250,68.320
6251,68.320
6252,68.320
6253,68.320
6254,68.320
6255,68.320
6256,68.320
6257,68.320
6258,68.320
6259,68.320
6260,68.801
6261,68.801
6262,68.801
6263,68.801
6264,68.801
6265,68.801
6266,68.801
6267,68.801
6268,68.320
6269,68.320
6270,68.320
6271,68.320
6272,68.320
6273,68.320
6274,68.320
6275,68.320
6276,68.320
6277,68.320
6278,68.320
6279,68.320
6280,68.895
6281,68.895
6282,68.895
6283,68.895
6284,68.895
6285,68.895
6286,68.895
6287,68.895
6288,68.511
6289,68.511
6290,68.511
6291,68.511
6292,68.511
6293,68.511
6294,68.511
6295,68.511
6296,68.511
6297,68.511
6298,68.511
6299,68.511
6300,68.895
6301,68.895
6302,68.895
6303,68.895
6304,68.895
6305,68.895
6306,68.895
6307,68.895
6308,68.320
6309,68.320
6310,68.320
6311,68.320
6312,68.320
6313,68.320
6314,68.320
6315,68.320
6316,68.708
6317,68.708
6318,68.708
6319,68.708
6320,68.708
6321,68.708
6322,68.708
6323,68.708
6324,68.708
6325,68.992
6326,68.992
6327,68.992
6328,68.992
6329,68.992
6330,68.992
6331,68.992
6332,68.992
6333,68.415
6334,68.415
6335,68.415
6336,68.415
6337,68.415
6338,68.415
6339,68.415
6340,68.415
6341,68.415
6342,68.415
6343,68.415
6344,68.415
6345,69.088
6346,69.088
6347,69.088
6348,69.088
6349,69.088
6350,69.088
6351,69.088
6352,69.088
6353,68.511
6354,68.511
6355,68.511
6356,68.511
6357,68.511
6358,68.511
6359,68.511
6360,68.511
6361,68.511
6362,68.511
6363,68.511
6364,68.511
6365,68.895
6366,68.895
6367,68.895
6368,68.895
6369,68.895
6370,68.895
6371,68.895
6372,68.895
6373,68.416
6374,68.416
6375,68.416
6376,68.416
6377,68.416
6378,68.416
6379,68.416
6380,68.416
6381,68.416
6382,68.416
6383,68.416
6384,68.416
6385,68.991
6386,68.991
6387,68.991
6388,68.991
6389,68.991
6390,68.991
6391,68.991
6392,68.991
6393,68.320
6394,68.320
6395,68.320
6396,68.320
6397,68.320
6398,68.320
6399,68.320
6400,68.320
6401,68.320
6402,68.320
6403,68.320
6404,68.320
6405,68.895
6406,68.895
6407,68.895
6408,68.895
6409,68.895
6410,68.895
6411,68.895
6412,68.895
6413,68.416
6414,68.416
6415,68.416
6416,68.416
6417,68.416
6418,68.416
6419,68.416
6420,68.416
6421,68.416
6422,68.416
6423,68.416
6424,68.416
6425,68.991
6426,68.991
6427,68.991
6428,68.991
6429,68.991
6430,68.991
6431,68.991
6432,68.991
6433,68.320
6434,68.320
6435,68.320
6436,68.320
6437,68.320
6438,68.320
6439,68.320
6440,68.320
6441,68.320
6442,68.320
6443,68.320
6444,68.320
6445,68.895
6446,68.895
6447,68.895
6448,68.895
6449,68.895
6450,68.895
6451,68.895
6452,68.895
6453,68.416
6454,68.416
6455,68.416
6456,68.416
6457,68.416
6458,68.416
6459,68.416
6460,68.416
6461,68.416
6462,68.416
6463,68.416
6464,68.416
6465,68.895
6466,68.895
6467,68.895
6468,68.895
6469,68.895
6470,68.895
6471,68.895
6472,68.895
6473,68.320
6474,68.320
6475,68.320
6476,68.320
6477,68.320
6478,68.320
6479,68.320
6480,68.320
6481,68.320
6482,68.320
6483,68.320
6484,68.320
6485,68.801
6486,68.801
6487,68.801
6488,68.801
6489,68.801
6490,68.801
6491,68.801
6492,68.801
6493,68.320
6494,68.320
6495,68.320
6496,68.320
6497,68.320
6498,68.320
6499,68.320
6500,68.320
6501,68.320
6502,68.320
6503,68.320
6504,68.320
6505,68.895
6506,68.895
6507,68.895
6508,68.895
6509,68.895
6510,68.895
6511,68.895
6512,68.895
6513,68.320
6514,68.320
6515,68.320
6516,68.320
6517,68.320
6518,68.320
6519,68.320
6520,68.320
6521,68.320
6522,68.320
6523,68.320
6524,68.320
6525,68.801
6526,68.801
6527,68.801
6528,68.801
6529,68.801
6530,68.801
6531,68.801
6532,68.801
6533,68.320
6534,68.320
6535,68.320
6536,68.320
6537,68.320
6538,68.320
6539,68.320
6540,68.320
6541,68.320
6542,68.320
6543,68.320
6544,68.895
6545,68.895
6546,68.895
6547,68.895
6548,68.895
6549,68.895
6550,68.895
6551,68.895
6552,68.320
6553,68.320
6554,68.320
6555,68.320
6556,68.320
6557,68.320
6558,68.320
6559,68.320
6560,68.320
6561,68.320
6562,68.320
6563,68.320
6564,69.088
6565,69.088
6566,69.088
6567,69.088
6568,69.088
6569,69.088
6570,69.088
6571,69.088
6572,68.511
6573,68.511
6574,68.511
6575,68.511
6576,68.511
6577,68.511
6578,68.511
6579,68.511
6580,68.511
6581,68.511
6582,68.511
6583,68.511
6584,68.992
6585,68.992
6586,68.992
6587,68.992
6588,68.992
6589,68.992
6590,68.992
6591,68.992
6592,68.416
6593,68.416
6594,68.416
6595,68.416
6596,68.416
6597,68.416
6598,68.416
6599,68.416
6600,68.416
6601,68.416
6602,68.416
6603,68.416
6604,68.992
6605,68.992
6606,68.992
6607,68.992
6608,68.992
6609,68.992
6610,68.992
6611,68.992
6612,68.320
6613,68.320
6614,68.320
6615,68.320
6616,68.320
6617,68.320
6618,68.320
6619,68.320
6620,68.320
6621,68.320
6622,68.320
6623,68.320
6624,68.992
6625,68.992
6626,68.992
6627,68.992
6628,68.992
6629,68.992
6630,68.992
6631,68.992
6632,68.320
6633,68.320
6634,68.320
6635,68.320
6636,68.320
6637,68.320
6638,68.320
6639,68.320
6640,68.320
6641,68.320
6642,68.320
6643,68.320
6644,68.992
6645,68.992
6646,68.992
6647,68.992
6648,68.992
6649,68.992
6650,68.992
6651,68.992
6652,68.320
6653,68.320
6654,68.320
6655,68.320
6656,68.320
6657,68.320
6658,68.320
6659,68.320
6660,68.320
6661,68.320
6662,68.320
6663,68.320
6664,68.895
6665,68.895
6666,68.895
6667,68.895
6668,68.895
6669,68.895
6670,68.895
6671,68.895
6672,68.320
6673,68.320
6674,68.320
6675,68.320
6676,68.320
6677,68.320
6678,68.320
6679,68.320
6680,68.320
6681,68.320
6682,68.320
6683,68.320
6684,68.801
6685,68.801
6686,68.801
6687,68.801
6688,68.801
6689,68.801
6690,68.801
6691,68.801
6692,68.320
6693,68.320
6694,68.320
6695,68.320
6696,68.320
6697,68.320
6698,68.320
6699,68.320
6700,68.320
6701,68.320
6702,68.320
6703,69.088
6704,69.088
6705,69.088
6706,69.088
6707,69.088
6708,69.088
6709,69.088
6710,69.088
6711,68.320
6712,68.320
6713,68.320
6714,68.320
6715,68.320
6716,68.320
6717,68.320
6718,68.320
6719,68.320
6720,68.320
6721,68.320
6722,68.320
6723,68.801
6724,68.801
6725,68.801
6726,68.801
6727,68.801
6728,68.801
6729,68.801
6730,68.801
6731,68.416
6732,68.416
6733,68.416
6734,68.416
6735,68.416
6736,68.416
6737,68.416
6738,68.416
6739,68.416
6740,68.416
6741,68.416
6742,68.416
6743,68.895
6744,68.895
6745,68.895
6746,68.895
6747,68.895
6748,68.895
6749,68.895
6750,68.895
6751,68.415
6752,68.415
6753,68.415
6754,68.415
6755,68.415
6756,68.415
6757,68.415
6758,68.415
6759,68.415
6760,68.415
6761,68.415
6762,68.415
6763,68.895
6764,68.895
6765,68.895
6766,68.895
6767,68.895
6768,68.895
6769,68.895
6770,68.895
6771,68.416
6772,68.416
6773,68.416
6774,68.416
6775,68.416
6776,68.416
6777,68.416
6778,68.416
6779,68.416
6780,68.416
6781,68.416
6782,68.416
6783,68.895
6784,68.895
6785,68.895
6786,68.895
6787,68.895
6788,68.895
6789,68.895
6790,68.895
6791,68.320
6792,68.320
6793,68.320
6794,68.320
6795,68.320
6796,68.320
6797,68.320
6798,68.320
6799,68.320
6800,68.320
6801,68.320
6802,68.320
6803,68.798
6804,68.798
6805,68.798
6806,68.798
6807,68.798
6808,68.798
6809,68.798
6810,68.798
6811,68.416
6812,68.416
6813,68.416
6814,68.416
6815,68.416
6816,68.416
6817,68.416
6818,68.416
6819,68.416
6820,68.416
6821,68.416
6822,68.416
6823,68.798
6824,68.798
6825,68.798
6826,68.798
6827,68.798
6828,68.798
6829,68.798
6830,68.798
6831,68.320
6832,68.320
6833,68.320
6834,68.320
6835,68.320
6836,68.320
6837,68.320
6838,68.320
6839,68.320
6840,68.320
6841,68.320
6842,68.320
6843,69.088
6844,69.088
6845,69.088
6846,69.088
6847,69.088
6848,69.088
6849,69.088
6850,69.088
6851,68.511
6852,68.511
6853,68.511
6854,68.511
6855,68.511
6856,68.511
6857,68.511
6858,68.511
6859,68.511
6860,68.511
6861,68.511
6862,68.511
6863,68.992
6864,68.992
6865,68.992
6866,68.992
6867,68.992
6868,68.992
6869,68.992
6870,68.992
6871,68.416
6872,68.416
6873,68.416
6874,68.416
6875,68.416
6876,68.416
6877,68.416
6878,68.416
6879,68.416
6880,68.416
6881,68.416
6882,68.416
6883,69.088
6884,69.088
6885,69.088
6886,69.088
6887,69.088
6888,69.088
6889,69.088
6890,69.088
6891,68.512
6892,68.512
6893,68.512
6894,68.512
6895,68.512
6896,68.512
6897,68.512
6898,68.512
6899,68.512
6900,68.512
6901,68.512
6902,68.512
6903,68.878
6904,68.878
6905,68.878
6906,68.878
6907,68.878
6908,68.878
6909,68.878
6910,68.878
6911,68.416
6912,68.416
6913,68.416
6914,68.416
6915,68.416
6916,68.416
6917,68.416
6918,68.416
6919,68.416
6920,68.416
6921,68.416
6922,68.416
6923,68.991
6924,68.991
6925,68.991
6926,68.991
6927,68.991
6928,68.991
6929,68.991
6930,68.991
6931,68.416
6932,68.416
6933,68.416
6934,68.416
6935,68.416
6936,68.416
6937,68.416
6938,68.416
6939,68.416
6940,68.416
6941,68.416
6942,68.416
6943,68.895
6944,68.895
6945,68.895
6946,68.895
6947,68.895
6948,68.895
6949,68.895
6950,68.895
6951,68.320
6952,68.320
6953,68.320
6954,68.320
6955,68.320
6956,68.320
6957,68.320
6958,68.320
6959,68.320
6960,68.320
6961,68.320
6962,68.320
6963,68.895
6964,68.895
6965,68.895
6966,68.895
6967,68.895
6968,68.895
6969,68.895
6970,68.895
6971,68.416
6972,68.416
6973,68.416
6974,68.416
6975,68.416
6976,68.416
6977,68.416
6978,68.416
6979,68.416
6980,68.416
6981,68.416
6982,68.416
6983,68.801
6984,68.801
6985,68.801
6986,68.801
6987,68.801
6988,68.801
6989,68.801
6990,68.801
6991,68.320
6992,68.320
6993,68.320
6994,68.320
6995,68.320
6996,68.320
6997,68.320
6998,68.320
6999,68.320
7000,68.320
7001,68.320
7002,68.320
7003,68.895
7004,68.895
7005,68.895
7006,68.895
7007,68.895
7008,68.895
7009,68.895
7010,68.895
7011,68.416
7012,68.416
7013,68.416
7014,68.416
7015,68.416
7016,68.416
7017,68.416
7018,68.416
7019,68.416
7020,68.416
7021,68.416
7022,68.416
7023,68.895
7024,68.895
7025,68.895
7026,68.895
7027,68.895
7028,68.895
7029,68.895
7030,68.895
7031,68.416
7032,68.416
7033,68.416
7034,68.416
7035,68.416
7036,68.416
7037,68.416
7038,68.416
7039,68.416
7040,68.416
7041,68.416
7042,68.416
7043,68.992
7044,68.992
7045,68.992
7046,68.992
7047,68.992
7048,68.992
7049,68.992
7050,68.992
7051,68.416
7052,68.416
7053,68.416
7054,68.416
7055,68.416
7056,68.416
7057,68.416
7058,68.416
7059,68.416
7060,68.416
7061,68.416
7062,68.416
7063,68.895
7064,68.895
7065,68.895
7066,68.895
7067,68.895
7068,68.895
7069,68.895
7070,68.895
7071,68.320
7072,68.320
7073,68.320
7074,68.320
7075,68.320
7076,68.320
7077,68.320
7078,68.320
7079,68.320
7080,68.320
7081,68.320
7082,68.320
7083,68.895
7084,68.895
7085,68.895
7086,68.895
7087,68.895
7088,68.895
7089,68.895
7090,68.895
7091,68.423
7092,68.423
7093,68.423
7094,68.423
7095,68.423
7096,68.423
7097,68.423
7098,68.423
7099,68.423
7100,68.423
7101,68.423
7102,68.423
7103,68.895
7104,68.895
7105,68.895
7106,68.895
7107,68.895
7108,68.895
7109,68.895
7110,68.895
7111,68.416
7112,68.416
7113,68.416
7114,68.416
7115,68.416
7116,68.416
7117,68.416
7118,68.416
7119,68.416
7120,68.416
7121,68.416
7122,68.416
7123,68.895
7124,68.895
7125,68.895
7126,68.895
7127,68.895
7128,68.895
7129,68.895
7130,68.895
7131,68.416
7132,68.416
7133,68.416
7134,68.416
7135,68.416
7136,68.416
7137,68.416
7138,68.416
7139,68.416
7140,68.416
7141,68.416
7142,68.416
7143,68.992
7144,68.992
7145,68.992
7146,68.992
7147,68.992
7148,68.992
7149,68.992
7150,68.992
7151,68.416
7152,68.416
7153,68.416
7154,68.416
7155,68.416
7156,68.416
7157,68.416
7158,68.416
7159,68.416
7160,68.416
7161,68.416
7162,68.416
7163,68.895
7164,68.895
7165,68.895
7166,68.895
7167,68.895
7168,68.895
7169,68.895
7170,68.895
7171,68.511
7172,68.511
7173,68.511
7174,68.511
7175,68.511
7176,68.511
7177,68.511
7178,68.511
7179,68.511
7180,68.511
7181,68.511
7182,68.511
7183,68.895
7184,68.895
7185,68.895
7186,68.895
7187,68.895
7188,68.895
7189,68.895
7190,68.895
7191,68.416
7192,68.416
7193,68.416
7194,68.416
7195,68.416
7196,68.416
7197,68.416
7198,68.416
7199,68.416
7200,68.416
7201,68.416
7202,68.416
7203,68.895
7204,68.895
7205,68.895
7206,68.895
7207,68.895
7208,68.895
7209,68.895
7210,68.895
7211,68.416
7212,68.416
7213,68.416
7214,68.416
7215,68.416
7216,68.416
7217,68.416
7218,68.416
7219,68.416
7220,68.416
7221,68.416
7222,68.416
7223,68.801
7224,68.801
7225,68.801
7226,68.801
7227,68.801
7228,68.801
7229,68.801
7230,68.801
7231,68.320
7232,68.320
7233,68.320
7234,68.320
7235,68.320
7236,68.320
7237,68.320
7238,68.320
7239,68.320
7240,68.320
7241,68.320
7242,68.320
7243,68.801
7244,68.801
7245,68.801
7246,68.801
7247,68.801
7248,68.801
7249,68.801
7250,68.801
7251,68.416
7252,68.416
7253,68.416
7254,68.416
7255,68.416
7256,68.416
7257,68.416
7258,68.416
7259,68.416
7260,68.801
7261,68.801
7262,68.801
7263,68.801
7264,68.801
7265,68.801
7266,68.801
7267,68.801
7268,68.320
7269,68.320
7270,68.320
7271,68.320
7272,68.320
7273,68.320
7274,68.320
7275,68.320
7276,68.320
7277,68.320
7278,68.895
7279,68.895
7280,68.895
7281,68.895
7282,68.895
7283,68.895
7284,68.895
7285,68.895
7286,68.899
7287,68.899
7288,68.899
7289,68.899
7290,68.899
7291,68.899
7292,68.899
7293,68.899
7294,68.899
7295,68.801
7296,68.801
7297,68.801
7298,68.801
7299,68.801
7300,68.801
7301,68.801
7302,68.801
7303,68.320
7304,68.320
7305,68.320
7306,68.320
7307,68.320
7308,68.320
7309,68.320
7310,68.320
7311,68.320
7312,68.320
7313,68.320
7314,68.320
7315,68.895
7316,68.895
7317,68.895
7318,68.895
7319,68.895
7320,68.895
7321,68.895
7322,68.895
7323,68.320
7324,68.320
7325,68.320
7326,68.320
7327,68.320
7328,68.320
7329,68.320
7330,68.320
7331,68.320
7332,68.320
7333,68.320
7334,68.320
7335,68.895
7336,68.895
7337,68.895
7338,68.895
7339,68.895
7340,68.895
7341,68.895
7342,68.895
7343,68.320
7344,68.320
7345,68.320
7346,68.320
7347,68.320
7348,68.320
7349,68.320
7350,68.320
7351,68.320
7352,68.320
7353,68.320
7354,68.789
7355,68.789
7356,68.789
7357,68.789
7358,68.789
7359,68.789
7360,68.789
7361,68.789
7362,68.789
7363,68.789
7364,68.789
7365,69.281
7366,69.281
7367,69.281
7368,69.281
7369,69.281
7370,69.281
7371,69.281
7372,69.281
7373,69.281
7374,69.088
7375,69.088
7376,69.088
7377,69.088
7378,69.088
7379,69.088
7380,69.088
7381,69.088
7382,68.416
7383,68.416
7384,68.416
7385,68.416
7386,68.416
7387,68.416
7388,68.416
7389,68.416
7390,68.416
7391,68.416
7392,68.416
7393,69.088
7394,69.088
7395,69.088
7396,69.088
7397,69.088
7398,69.088
7399,69.088
7400,69.088
7401,68.423
7402,68.423
7403,68.423
7404,68.423
7405,68.423
7406,68.423
7407,68.423
7408,68.423
7409,68.423
7410,68.423
7411,68.423
7412,68.423
7413,68.801
7414,68.801
7415,68.801
7416,68.801
7417,68.801
7418,68.801
7419,68.801
7420,68.801
7421,68.801
7422,68.801
7423,69.281
7424,69.281
7425,69.281
7426,69.281
7427,69.281
7428,69.281
7429,69.281
7430,69.281
7431,69.281
7432,68.895
7433,68.895
7434,68.895
7435,68.895
7436,68.895
7437,68.895
7438,68.895
7439,68.895
7440,68.416
7441,68.416
7442,68.416
7443,68.416
7444,68.416
7445,68.416
7446,68.416
7447,68.416
7448,68.416
7449,68.416
7450,68.416
7451,68.416
7452,68.895
7453,68.895
7454,68.895
7455,68.895
7456,68.895
7457,68.895
7458,68.895
7459,68.895
7460,68.416
7461,68.416
7462,68.416
7463,68.416
7464,68.416
7465,68.416
7466,68.416
7467,68.416
7468,68.416
7469,68.416
7470,68.416
7471,68.416
7472,68.895
7473,68.895
7474,68.895
7475,68.895
7476,68.895
7477,68.895
7478,68.895
7479,68.895
7480,68.416
7481,68.416
7482,68.416
7483,68.416
7484,68.416
7485,68.416
7486,68.416
7487,68.416
7488,68.416
7489,68.416
7490,68.416
7491,68.416
7492,68.801
7493,68.801
7494,68.801
7495,68.801
7496,68.801
7497,68.801
7498,68.801
7499,68.801
7500,68.416
7501,68.416
7502,68.416
7503,68.416
7504,68.416
7505,68.416
7506,68.416
7507,68.416
7508,68.416
7509,68.416
7510,68.416
7511,68.416
7512,68.895
7513,68.895
7514,68.895
7515,68.895
7516,68.895
7517,68.895
7518,68.895
7519,68.895
7520,68.320
7521,68.320
7522,68.320
7523,68.320
7524,68.320
7525,68.320
7526,68.320
7527,68.320
7528,68.320
7529,68.895
7530,68.895
7531,68.895
7532,68.895
7533,68.895
7534,68.895
7535,68.895
7536,68.895
7537,68.416
7538,68.416
7539,68.416
7540,68.416
7541,68.416
7542,68.416
7543,68.416
7544,68.416
7545,68.416
7546,68.801
7547,68.801
7548,68.801
7549,68.801
7550,68.801
7551,68.801
7552,68.801
7553,68.801
7554,68.801
7555,68.801
7556,68.801
7557,68.801
7558,69.377
7559,69.377
7560,69.377
7561,69.377
7562,69.377
7563,69.377
7564,69.377
7565,69.377
7566,68.704
7567,68.704
7568,68.704
7569,68.704
7570,68.704
7571,68.704
7572,68.704
7573,68.704
7574,68.704
7575,68.704
7576,68.704
7577,68.704
7578,69.281
7579,69.281
7580,69.281
7581,69.281
7582,69.281
7583,69.281
7584,69.281
7585,69.281
7586,68.704
7587,68.704
7588,68.704
7589,68.704
7590,68.704
7591,68.704
7592,68.704
7593,68.704
7594,68.704
7595,68.704
7596,68.704
7597,68.704
7598,69.281
7599,69.281
7600,69.281
7601,69.281
7602,69.281
7603,69.281
7604,69.281
7605,69.281
7606,68.704
7607,68.704
7608,68.704
7609,68.704
