-------------------------------------------

omp_num_threads=1

Configuration used: cores = 1, boxes1d = 30
PAPI measurements:(rapl)> > > > > > > > > > > >
Counting Energy Consumption:
PACKAGE_ENERGY_CNT:PACKAGE0 (J) 0.192602684000
PACKAGE_ENERGY_CNT:PACKAGE1 (J) 0.145215130000
DRAM_ENERGY_CNT:PACKAGE0 (J)    0.389658026000
DRAM_ENERGY_CNT:PACKAGE1 (J)    0.406265841000


Energy in total:
PACKAGE_ENERGY:PACKAGE0 (J) 11755.534912109000
PACKAGE_ENERGY:PACKAGE1 (J) 8863.228149414001
DRAM_ENERGY:PACKAGE0    (J) 5945.709625244001
DRAM_ENERGY:PACKAGE1    (J) 6199.124771118000

Total (kernel) time: 468.759887695312 (s)
Power (W) 69.894200246035
=============================================


Time spent in different stages of CPU/MCPU KERNEL:
 0.000000000000 s,  0.000000000000 % : CPU/MCPU: VARIABLES
 0.000008000000 s,  0.000001706376 % : MCPU: SET DEVICE
 0.070001997054 s,  0.014931214973 % : CPU/MCPU: INPUTS
468.759857177734 s, 99.985061645508 % : CPU/MCPU: KERNEL
Total time:
468.829895019531 s
===========================================

-------------------------------------------

omp_num_threads=2

Configuration used: cores = 2, boxes1d = 30
PAPI measurements:(rapl)> > > > > > > > > > > >
Counting Energy Consumption:
PACKAGE_ENERGY_CNT:PACKAGE0 (J) 0.097175083000
PACKAGE_ENERGY_CNT:PACKAGE1 (J) 0.091006848000
DRAM_ENERGY_CNT:PACKAGE0 (J)    0.196769124000
DRAM_ENERGY_CNT:PACKAGE1 (J)    0.205580696000


Energy in total:
PACKAGE_ENERGY:PACKAGE0 (J) 5931.096374511000
PACKAGE_ENERGY:PACKAGE1 (J) 5554.617187500000
DRAM_ENERGY:PACKAGE0    (J) 3002.458557128000
DRAM_ENERGY:PACKAGE1    (J) 3136.912475585000

Total (kernel) time: 236.490600585938 (s)
Power (W) 74.527632603814
=============================================


Time spent in different stages of CPU/MCPU KERNEL:
 0.000000000000 s,  0.000000000000 % : CPU/MCPU: VARIABLES
 0.000006000000 s,  0.000002536392 % : MCPU: SET DEVICE
 0.065930001438 s,  0.027870716527 % : CPU/MCPU: INPUTS
236.490600585938 s, 99.972129821777 % : CPU/MCPU: KERNEL
Total time:
236.556549072266 s
===========================================

-------------------------------------------

omp_num_threads=4

Configuration used: cores = 4, boxes1d = 30
PAPI measurements:(rapl)> > > > > > > > > > > >
Counting Energy Consumption:
PACKAGE_ENERGY_CNT:PACKAGE0 (J) 0.053315492000
PACKAGE_ENERGY_CNT:PACKAGE1 (J) 0.049162935000
DRAM_ENERGY_CNT:PACKAGE0 (J)    0.099867130000
DRAM_ENERGY_CNT:PACKAGE1 (J)    0.104586906000


Energy in total:
PACKAGE_ENERGY:PACKAGE0 (J) 3254.119384765000
PACKAGE_ENERGY:PACKAGE1 (J) 3000.667419433000
DRAM_ENERGY:PACKAGE0    (J) 1523.851470947000
DRAM_ENERGY:PACKAGE1    (J) 1595.869537353000

Total (kernel) time: 120.228607177734 (s)
Power (W) 77.972356434602
=============================================


Time spent in different stages of CPU/MCPU KERNEL:
 0.000000000000 s,  0.000000000000 % : CPU/MCPU: VARIABLES
 0.000008000000 s,  0.000006650343 % : MCPU: SET DEVICE
 0.065938003361 s,  0.054813787341 % : CPU/MCPU: INPUTS
120.228607177734 s, 99.945182800293 % : CPU/MCPU: KERNEL
Total time:
120.294555664062 s
===========================================

-------------------------------------------

omp_num_threads=8

Configuration used: cores = 8, boxes1d = 30
PAPI measurements:(rapl)> > > > > > > > > > > >
Counting Energy Consumption:
PACKAGE_ENERGY_CNT:PACKAGE0 (J) 0.030981624000
PACKAGE_ENERGY_CNT:PACKAGE1 (J) 0.029043783000
DRAM_ENERGY_CNT:PACKAGE0 (J)    0.050326702000
DRAM_ENERGY_CNT:PACKAGE1 (J)    0.052585053000


Energy in total:
PACKAGE_ENERGY:PACKAGE0 (J) 1890.968261718000
PACKAGE_ENERGY:PACKAGE1 (J) 1772.691833496000
DRAM_ENERGY:PACKAGE0    (J) 767.924530029000
DRAM_ENERGY:PACKAGE1    (J) 802.384231567000

Total (kernel) time: 60.557037353516 (s)
Power (W) 86.430398274861
=============================================


Time spent in different stages of CPU/MCPU KERNEL:
 0.000000000000 s,  0.000000000000 % : CPU/MCPU: VARIABLES
 0.000008000000 s,  0.000013194443 % : MCPU: SET DEVICE
 0.074538998306 s,  0.122937574983 % : CPU/MCPU: INPUTS
60.557037353516 s, 99.877044677734 % : CPU/MCPU: KERNEL
Total time:
60.631584167480 s
===========================================

-------------------------------------------

omp_num_threads=10

Configuration used: cores = 10, boxes1d = 30
PAPI measurements:(rapl)> > > > > > > > > > > >
Counting Energy Consumption:
PACKAGE_ENERGY_CNT:PACKAGE0 (J) 0.027188413000
PACKAGE_ENERGY_CNT:PACKAGE1 (J) 0.024511386000
DRAM_ENERGY_CNT:PACKAGE0 (J)    0.040605612000
DRAM_ENERGY_CNT:PACKAGE1 (J)    0.042413128000


Energy in total:
PACKAGE_ENERGY:PACKAGE0 (J) 1659.449035644000
PACKAGE_ENERGY:PACKAGE1 (J) 1496.028869628000
DRAM_ENERGY:PACKAGE0    (J) 619.592468261000
DRAM_ENERGY:PACKAGE1    (J) 647.159698486000

Total (kernel) time: 48.819049835205 (s)
Power (W) 90.584107780606
=============================================


Time spent in different stages of CPU/MCPU KERNEL:
 0.000000000000 s,  0.000000000000 % : CPU/MCPU: VARIABLES
 0.000008000000 s,  0.000016365000 % : MCPU: SET DEVICE
 0.065760001540 s,  0.134520307183 % : CPU/MCPU: INPUTS
48.819049835205 s, 99.865463256836 % : CPU/MCPU: KERNEL
Total time:
48.884815216064 s
===========================================

-------------------------------------------

omp_num_threads=20

Configuration used: cores = 20, boxes1d = 30
PAPI measurements:(rapl)> > > > > > > > > > > >
Counting Energy Consumption:
PACKAGE_ENERGY_CNT:PACKAGE0 (J) 0.018140953000
PACKAGE_ENERGY_CNT:PACKAGE1 (J) 0.016669331000
DRAM_ENERGY_CNT:PACKAGE0 (J)    0.020496254000
DRAM_ENERGY_CNT:PACKAGE1 (J)    0.021411702000


Energy in total:
PACKAGE_ENERGY:PACKAGE0 (J) 1107.235900878000
PACKAGE_ENERGY:PACKAGE1 (J) 1017.415222167000
DRAM_ENERGY:PACKAGE0    (J) 312.748016357000
DRAM_ENERGY:PACKAGE1    (J) 326.716644287000

Total (kernel) time: 24.653482437134 (s)
Power (W) 112.118674947342
=============================================


Time spent in different stages of CPU/MCPU KERNEL:
 0.000000000000 s,  0.000000000000 % : CPU/MCPU: VARIABLES
 0.000008000000 s,  0.000032368138 % : MCPU: SET DEVICE
 0.062174998224 s,  0.251561135054 % : CPU/MCPU: INPUTS
24.653482437134 s, 99.748405456543 % : CPU/MCPU: KERNEL
Total time:
24.715663909912 s
===========================================

-------------------------------------------

omp_num_threads=30

Configuration used: cores = 30, boxes1d = 30
PAPI measurements:(rapl)> > > > > > > > > > > >
Counting Energy Consumption:
PACKAGE_ENERGY_CNT:PACKAGE0 (J) 0.015816700000
PACKAGE_ENERGY_CNT:PACKAGE1 (J) 0.014558918000
DRAM_ENERGY_CNT:PACKAGE0 (J)    0.016835382000
DRAM_ENERGY_CNT:PACKAGE1 (J)    0.017552767000


Energy in total:
PACKAGE_ENERGY:PACKAGE0 (J) 965.374755859000
PACKAGE_ENERGY:PACKAGE1 (J) 888.605834960000
DRAM_ENERGY:PACKAGE0    (J) 256.887542724000
DRAM_ENERGY:PACKAGE1    (J) 267.833969116000

Total (kernel) time: 20.238632202148 (s)
Power (W) 117.532750182914
=============================================


Time spent in different stages of CPU/MCPU KERNEL:
 0.000000000000 s,  0.000000000000 % : CPU/MCPU: VARIABLES
 0.000011000000 s,  0.000054157641 % : MCPU: SET DEVICE
 0.072431996465 s,  0.356613308191 % : CPU/MCPU: INPUTS
20.238632202148 s, 99.643325805664 % : CPU/MCPU: KERNEL
Total time:
20.311075210571 s
===========================================

-------------------------------------------

omp_num_threads=40

Configuration used: cores = 40, boxes1d = 30
PAPI measurements:(rapl)> > > > > > > > > > > >
Counting Energy Consumption:
PACKAGE_ENERGY_CNT:PACKAGE0 (J) 0.013424479000
PACKAGE_ENERGY_CNT:PACKAGE1 (J) 0.012746826000
DRAM_ENERGY_CNT:PACKAGE0 (J)    0.013702438000
DRAM_ENERGY_CNT:PACKAGE1 (J)    0.014254265000


Energy in total:
PACKAGE_ENERGY:PACKAGE0 (J) 819.365173339000
PACKAGE_ENERGY:PACKAGE1 (J) 778.004516601000
DRAM_ENERGY:PACKAGE0    (J) 209.082611083000
DRAM_ENERGY:PACKAGE1    (J) 217.502822875000

Total (kernel) time: 16.435157775879 (s)
Power (W) 123.147897421980
=============================================


Time spent in different stages of CPU/MCPU KERNEL:
 0.000000000000 s,  0.000000000000 % : CPU/MCPU: VARIABLES
 0.000008000000 s,  0.000048473477 % : MCPU: SET DEVICE
 0.068705998361 s,  0.416302323341 % : CPU/MCPU: INPUTS
16.435157775879 s, 99.583648681641 % : CPU/MCPU: KERNEL
Total time:
16.503871917725 s
===========================================

