Data1-100,,,,,,,,,EDP,Data1-100,,,,,,,,,,
omp threads,time,kernel_time,,serial,speedup,,max,threads,|||||,omp threads,time,power,energy,EDP,,max_su_EDP,threads,|||||,min EDP,threads
1,0.000220376998,0.000198,,0.000220376998,1,,1,1,|||||,1,0.000220376998,65.413490390935,0.014415628641056,3.17687296419876E-06,,3.17687296419876E-06,1,|||||,3.17687296419876E-06,1
2,0.000234967098,0.000204,,0.000220376998,0.937905774365056,,,,|||||,2,0.000234967098,72.777849859525,0.017100400180172,4.01803140497376E-06,,,,|||||,,
4,0.000309748109,0.000273,,0.000220376998,0.711471649371716,,,,|||||,4,0.000309748109,79.92365594272,0.024756201292624,7.66818653641368E-06,,,,|||||,,
8,0.00035868492,0.000293,,0.000220376998,0.614402740990617,,,,|||||,8,0.00035868492,78.521510267442,0.028164481628557,1.01021748397803E-05,,,,|||||,,
10,0.000527846627,0.000463,,0.000220376998,0.417501953649881,,,,|||||,10,0.000527846627,88.69808004642,0.046818982373879,2.47132419256244E-05,,,,|||||,,
20,0.002843080088,0.00273,,0.000220376998,0.077513468203081,,,,|||||,20,0.002843080088,100.041945278342,0.28442726258564,0.000808649486742,,,,|||||,,
30,0.005539382808,0.005366,,0.000220376998,0.039783673676015,,,,|||||,30,0.005539382808,102.072565383385,0.565419013853179,0.003132072364655,,,,|||||,,
40,0.006008946802,0.005765,,0.000220376998,0.036674812618852,,,,|||||,40,0.006008946802,107.953668837404,0.648687853124686,0.00389793080053,,,,|||||,,
Data2-204800.txt,,,,,,,,,|||||,Data2-204800.txt,,,,,,,,|||||,,
omp threads,time,kernel_time,,serial,speedup,,max,threads,|||||,omp threads,time,power,energy,EDP,,max_su_EDP,threads,|||||,min EDP,threads
1,0.90768187074,0.907103,,0.90768187074,1,,2.69865492,10,|||||,1,0.90768187074,70.167822046628,63.6900599810347,57.8103127911284,,10.4363308154374,10,|||||,10.4363308154374,10
2,0.731997401919,0.731389,,0.90768187074,1.24000695680125,,,,|||||,2,0.731997401919,74.813755226087,54.7634744532997,40.0867210198729,,,,|||||,,
4,0.673235922121,0.67264,,0.90768187074,1.34823743195459,,,,|||||,4,0.673235922121,79.222012399737,53.3351045702182,35.9071083067508,,,,|||||,,
8,0.3828848782,0.382269,,0.90768187074,2.37063912005914,,,,|||||,8,0.3828848782,87.32971547193,33.4372274717106,12.8026087678516,,,,|||||,,
10,0.336346030235,0.335708,,0.90768187074,2.69865492423328,,,,|||||,10,0.336346030235,92.251879836577,31.0285535647489,10.4363308154374,,,,|||||,,
20,0.440127270762,0.439426,,0.90768187074,2.06231681388094,,,,|||||,20,0.440127270762,114.363325868673,50.3344184898443,22.1535502353275,,,,|||||,,
30,0.387724779081,0.386837,,0.90768187074,2.34104684485583,,,,|||||,30,0.387724779081,119.384912834644,46.2884889544168,17.9471941538446,,,,|||||,,
40,0.34423177084,0.343204,,0.90768187074,2.63683351634005,,,,|||||,40,0.34423177084,125.753402914434,43.2883165743916,14.9012138710854,,,,|||||,,
,,,,,,,,,|||||,,,,,,,,,|||||,,
Data3-819200.txt,,,,,,,,,|||||,Data3-819200.txt,,,,,,,,|||||,,
omp threads,time,kernel_time,,serial,speedup,,max,threads,|||||,omp threads,time,power,energy,EDP,,max_su_EDP,threads,|||||,min EDP,threads
1,4.183643102646,4.181517,,4.183643102646,1,,2.63614884,40,|||||,1,4.183643102646,70.26179409036,293.950270225668,1229.78302055054,,323.950373240893,40,|||||,323.950373240893,40
2,4.31942525506,4.31729,,4.183643102646,0.968564763968323,,,,|||||,2,4.31942525506,75.234033521526,324.96778443291,1403.67405516041,,,,|||||,,
4,3.101168809924,3.098995,,4.183643102646,1.34905365011346,,,,|||||,4,3.101168809924,80.487739935566,249.606068669452,774.070554925451,,,,|||||,,
8,2.478716154117,2.476514,,4.183643102646,1.68782661770176,,,,|||||,8,2.478716154117,86.34553530328,214.02607319212,530.509885023535,,,,|||||,,
10,2.371644875035,2.369398,,4.183643102646,1.76402594953608,,,,|||||,10,2.371644875035,93.254995540875,221.167732245928,524.531318704168,,,,|||||,,
20,2.367113491055,2.364755,,4.183643102646,1.76740283829036,,,,|||||,20,2.367113491055,115.002747912754,272.224556092677,644.386419323435,,,,|||||,,
30,1.923588428181,1.921072,,4.183643102646,2.17491592346611,,,,|||||,30,1.923588428181,121.280783914611,233.294312498866,448.762239883261,,,,|||||,,
40,1.587028407957,1.584316,,4.183643102646,2.6361488437574,,,,|||||,40,1.587028407957,128.620171160967,204.123865468746,323.950373240893,,,,|||||,,
,,,,,,,,,|||||,,,,,,,,,|||||,,
,,,,,,,,,|||||,,,,,,,,,|||||,,
Data4-kdd cup,,,,,,,,,|||||,Data4-kdd cup,,,,,,,,|||||,,
omp threads,time,kernel_time,,serial,speedup,,max,threads,|||||,omp threads,time,power,energy,EDP,,max_su_EDP,threads,|||||,min EDP,threads
1,3.937145679258,3.935839,,3.937145679258,1,,2.25457765,40,|||||,1,3.937145679258,70.328034960992,276.891718977375,1090.16303499409,,390.782804743366,40,|||||,390.782804743366,40
2,3.541408430785,3.540029,,3.937145679258,1.11174572382923,,,,|||||,2,3.541408430785,75.089237946759,265.921660325873,941.737209806393,,,,|||||,,
4,3.010911216028,3.009508,,3.937145679258,1.30762596329622,,,,|||||,4,3.010911216028,79.854542177848,240.434936694064,723.928247617138,,,,|||||,,
8,2.739965716377,2.738502,,3.937145679258,1.43693246076962,,,,|||||,8,2.739965716377,88.257517146751,241.822571194653,662.585554519485,,,,|||||,,
10,2.648783079349,2.647262,,3.937145679258,1.486397927393,,,,|||||,10,2.648783079349,93.107858820786,246.622520998913,653.249560608316,,,,|||||,,
20,2.656068426091,2.654481,,3.937145679258,1.48232087719682,,,,|||||,20,2.656068426091,115.892279182143,307.817823563413,817.585202154833,,,,|||||,,
30,2.157076222822,2.155127,,3.937145679258,1.82522325247609,,,,|||||,30,2.157076222822,120.737226722532,260.439400972643,561.787639324093,,,,|||||,,
40,1.746289676987,1.744132,,3.937145679258,2.2545776517737,,,,|||||,40,1.746289676987,128.145356066417,223.778912452607,390.782804743366,,,,|||||,,
