streamcluster,,,,,,,,,,,,,,EDP,streamcluster,,,,,,,,,,
,,,,,,,,,,,,,,||||||||,,,,,,,,,||||||||,,
data1,,,,,,,,,,,,,,||||||||,data1,,,,,,,,||||||||,,
omp threads,pgain,pgain_dist,pgain_init,pselect,pspeedy,pshuffle,local search,total time,,serial,speedup,max,threads,||||||||,omp threads,total time,power,energy,EDP,,max_su_EDP,threads,||||||||,min_EDP,threads
1,50.506473064423,49.904951334,0.204702615738,0.000289916992,0.953680276871,0.006488084793,51.490926027298,51.693991184235,,51.693991184235,1,8.37,40,||||||||,1,51.693991184235,70.855817259272,3662.81999275257,189345.784414791,,4603.89756,40,||||||||,4603.89756,40
2,54.873512029648,54.265314340591,0.208954572678,0.000293016434,0.560477256775,0.006452083588,55.464040994644,55.689110994339,,51.693991184235,0.928260305492933,,,||||||||,2,55.689110994339,74.881841111728,4170.10316113148,232229.337798095,,,,||||||||,,
4,17.480037927628,17.044989585876,0.206221580505,0.000288963318,0.56037902832,0.006464242935,18.070461034775,18.275400876999,,51.693991184235,2.82861052034683,,,||||||||,4,18.275400876999,79.832212847387,1458.96569268391,26663.1828995869,,,,||||||||,,
8,12.0213804245,11.493888616562,0.228927850723,0.000291824341,0.561834812164,0.006459236145,12.613291025162,12.818197965622,,51.693991184235,4.03285948016068,,,||||||||,8,12.818197965622,91.541688025025,1173.39947921198,15040.8668172969,,,,||||||||,,
10,12.136283636093,10.780253410339,0.264684438705,0.000288963318,0.561032056808,0.006435871124,12.727200031281,12.93154001236,,51.693991184235,3.99751237167621,,,||||||||,10,12.93154001236,95.65993423946,1237.0302671973,15996.7063967623,,,,||||||||,,
20,8.360415220261,6.184839487076,0.211652994156,0.000290870667,0.560694217682,0.006436109543,8.951423883438,9.163560152054,,51.693991184235,5.64125627228494,,,||||||||,20,9.163560152054,113.004252127945,1035.5212618123,9489.06137134787,,,,||||||||,,
30,6.096103668213,4.039001464844,0.189258337021,0.000298023224,0.559175252914,0.006422996521,6.684816837311,6.890850067139,,51.693991184235,7.50183078728598,,,||||||||,30,6.890850067139,117.556187501704,810.062062538722,5582.01621803171,,,,||||||||,,
40,5.390517473221,3.318494319916,0.277116537094,0.000287055969,0.560928821564,0.006392002106,5.980624914169,6.185495138168,,51.693991184235,8.3572923475849,,,||||||||,40,6.185495138168,120.330774526027,744.30542080273,4603.89756168737,,,,||||||||,,
,,,,,,,,,,,,,,||||||||,,,,,,,,,||||||||,,
data2,,,,,,,,,,,,,,||||||||,data2,,,,,,,,||||||||,,
omp threads,pgain,pgain_dist,pgain_init,pselect,pspeedy,pshuffle,local search,total time,,serial,speedup,max,threads,||||||||,omp threads,total time,power,energy,EDP,,max_su_EDP,threads,||||||||,min_EDP,threads
1,100.714260816574,99.695228099823,0.409726142883,0.000537872314,1.221881389618,0.012881755829,102.004482984543,102.377786874771,,102.377786874771,1,8.16,40,||||||||,1,102.377786874771,70.786116859291,7246.92598551313,741924.244042103,,18942.3071,40,||||||||,18942.3071,40
2,109.440037727356,108.382090568542,0.418534517288,0.000540971756,2.052360534668,0.013585567474,111.602779865265,112.020363092422,,102.377786874771,0.913921219754524,,,||||||||,2,112.020363092422,74.849981838156,8384.72214297143,939259.61888473,,,,||||||||,,
4,35.175119161606,34.355180501938,0.420223474503,0.000551939011,1.476775169373,0.013370513916,36.731332063675,37.125724077225,,102.377786874771,2.75759704138876,,,||||||||,4,37.125724077225,79.348506051984,2945.87074162598,109367.584320776,,,,||||||||,,
8,21.875391483307,20.032773256302,0.421149253845,0.000557899475,1.884096622467,0.013399124146,23.839085102081,24.234636068344,,102.377786874771,4.22444086166823,,,||||||||,8,24.234636068344,91.57962401332,2219.39885923859,53786.323644145,,,,||||||||,,
10,22.98095536232,19.292893409729,0.465076684952,0.000553846359,1.843156099319,0.01340174675,24.9035820961,25.298581838608,,102.377786874771,4.04677967831908,,,||||||||,10,25.298581838608,95.004058523426,2403.4679495548,60804.3306182834,,,,||||||||,,
20,15.256932258606,11.101381778717,0.398970127106,0.000554084778,1.476889371872,0.013362646103,16.812095165253,17.202696084976,,102.377786874771,5.9512640558815,,,||||||||,20,17.202696084976,112.420831993282,1933.94140640058,33269.0062604602,,,,||||||||,,
30,13.06200504303,8.670910835266,0.590249300003,0.000538110733,1.184751033783,0.012998580933,14.314906835556,14.691442012787,,102.377786874771,6.96853220981742,,,||||||||,30,14.691442012787,116.218564616758,1707.41830287644,25084.4369882804,,,,||||||||,,
40,10.640100479126,6.470899820328,0.557466506958,0.000556230545,1.427830696106,0.013383150101,12.147243976593,12.540528059006,,102.377786874771,8.16375406147656,,,||||||||,40,12.540528059006,120.448452713948,1510.48720092312,18942.3071259458,,,,||||||||,,
,,,,,,,,,,,,,,||||||||,,,,,,,,,||||||||,,
data3,,,,,,,,,,,,,,||||||||,data3,,,,,,,,||||||||,,
omp threads,pgain,pgain_dist,pgain_init,pselect,pspeedy,pshuffle,local search,total time,,serial,speedup,max,threads,||||||||,omp threads,total time,power,energy,EDP,,max_su_EDP,threads,||||||||,min_EDP,threads
1,145.310457468033,143.763891458511,0.590712785721,0.000781774521,2.264129638672,0.021509647369,147.683403015137,148.219187021255,,148.219187021255,1,8.23,40,||||||||,1,148.219187021255,70.84205787277,10500.1522248147,1556324.02636145,,38731.4995,40,||||||||,38731.4995,40
2,163.385855913162,161.744843006134,0.605148553848,0.000798225403,3.285043239594,0.022694349289,166.862422227859,167.472147941589,,148.219187021255,0.885037833711615,,,||||||||,2,167.472147941589,74.855315567959,12536.1804830116,2099461.07247337,,,,||||||||,,
4,56.288187265396,55.005945920944,0.605703115463,0.000806093216,2.831042528152,0.022326946259,59.249782800674,59.83158493042,,148.219187021255,2.47727328623542,,,||||||||,4,59.83158493042,80.771321749038,4832.67619716985,289146.676332187,,,,||||||||,,
8,35.322345733643,31.10155415535,0.662891149521,0.000674962997,3.101795434952,0.022412061691,38.554453134537,39.129172086716,,148.219187021255,3.78794590114965,,,||||||||,8,39.129172086716,90.993549034579,3560.50223895507,139319.504823211,,,,||||||||,,
10,31.875121593475,26.493456840515,0.624106168747,0.000786066055,2.036005973816,0.021389484406,34.01948595047,34.5645840168,,148.219187021255,4.28818084283073,,,||||||||,10,34.5645840168,95.302538298756,3294.09259204165,113858.940156742,,,,||||||||,,
20,22.313397884369,16.620407581329,0.576359272003,0.000663757324,2.191841840744,0.021409511566,24.613203048706,25.154078006744,,148.219187021255,5.89245159299881,,,||||||||,20,25.154078006744,112.920383897199,2840.40814510162,71447.8480528773,,,,||||||||,,
30,18.905230522156,12.739135026932,0.673232555389,0.00078868866,2.065050125122,0.021450042725,21.077951908112,21.620628118515,,148.219187021255,6.85545240447137,,,||||||||,30,21.620628118515,116.711079441355,2523.366845912,54556.7761820534,,,,||||||||,,
40,15.326022148132,9.373703718185,0.797433376312,0.000782966614,2.031347751617,0.021448850632,17.465522766113,18.012698888779,,148.219187021255,8.22859405669564,,,||||||||,40,18.012698888779,119.37317175991,2150.23299830976,38731.4995392701,,,,||||||||,,
,,,,,,,,,,,,,,||||||||,,,,,,,,,||||||||,,
data4,,,,,,,,,,,,,,||||||||,data4,,,,,,,,||||||||,,
omp threads,pgain,pgain_dist,pgain_init,pselect,pspeedy,pshuffle,local search,total time,,serial,speedup,max,threads,||||||||,omp threads,total time,power,energy,EDP,,max_su_EDP,threads,||||||||,min_EDP,threads
1,196.817987203598,194.817866325378,0.796830415726,0.00103187561,3.643932104111,0.029748916626,200.610178232193,201.31406712532,,201.31406712532,1,7.95,40,||||||||,1,201.31406712532,70.771189008086,14247.2358945125,2868169.00321817,,74705.8945,40,||||||||,74705.8945,40
2,213.248662233353,211.119483470917,0.811977386475,0.001080751419,5.236732721329,0.031673431396,218.730650186539,219.530952215195,,201.31406712532,0.917019058560736,,,||||||||,2,219.530952215195,74.864274344394,16435.0254337244,3607996.78314647,,,,||||||||,,
4,70.111794233322,68.434424638748,0.816222190857,0.001033782959,4.051421880722,0.030015707016,74.31209230423,75.029214859009,,201.31406712532,2.68314239331464,,,||||||||,4,75.029214859009,80.112438542792,6010.7733643063,450983.606219346,,,,||||||||,,
8,43.863292694092,40.054410934448,0.827362060547,0.000768899918,3.607746601105,0.029901981354,47.618928909302,48.334558010101,,201.31406712532,4.16501309649401,,,||||||||,8,48.334558010101,91.217136239215,4408.93996306962,213104.164408041,,,,||||||||,,
10,40.568735599518,34.607991695404,0.838061094284,0.001024007797,3.596874713898,0.029877185822,44.313383102417,45.03006696701,,201.31406712532,4.4706588438522,,,||||||||,10,45.03006696701,94.550246727614,4257.60394189178,191720.190622392,,,,||||||||,,
20,26.988471984863,19.280246019363,0.697608470917,0.001053094864,4.822164297104,0.031197547913,31.990513801575,32.742208957672,,201.31406712532,6.14845709968964,,,||||||||,20,32.742208957672,110.628934974343,3622.23570569465,118599.998369795,,,,||||||||,,
30,24.679539203644,16.34870672226,1.108184576035,0.000918626785,3.483091831207,0.029948234558,28.311208248138,29.023790836334,,201.31406712532,6.9361741290287,,,||||||||,30,29.023790836334,114.015804954487,3309.17087503528,96044.6833187125,,,,||||||||,,
40,19.722285747528,11.983024597168,1.012491464615,0.001065254211,4.660672903061,0.03128361702,24.563968420029,25.31902384758,,201.31406712532,7.95109907622136,,,||||||||,40,25.31902384758,116.536227308577,2950.58351833286,74705.8944649463,,,,||||||||,,
