1000006710 172178311 130234310 103236694 100036515
1000000000 172452994 130474152 103375584 100184018
1000000000 172450855 130473100 103375005 100183509
1000000000 131880091 90926640 79228692 75872982
1000000000 121086030 80446480 72792830 69411674
1000000492 203812193 152742175 111451810 80956045
1000000000 209334648 156387527 113299988 80566055
1000000000 209374656 156549544 113346280 80649399
1000000000 209377906 156602786 113319577 80631229
746187204 156348861 117294843 84435305 60054522
number of instructions: 9746187204
