1.000000,68.697000
1.000000,68.765760
1.000000,68.888000
1.000000,68.888000
1.000000,68.888000
1.000000,68.874840
1.000000,68.794000
1.000000,68.794000
1.000000,68.794000
1.000000,83.491480
1.000000,86.291000
1.000000,86.291000
1.000000,86.291000
1.000000,86.291000
1.000000,86.291000
1.000000,91.691720
1.000000,116.295000
1.000000,116.295000
1.000000,116.295000
1.000000,116.295000
1.000000,116.295000
1.000000,116.295000
1.000000,118.471200
1.000000,120.480000
1.000000,120.480000
1.000000,120.480000
1.000000,120.480000
1.000000,120.480000
1.000000,120.480000
1.000000,121.586820
1.000000,121.767000
1.000000,121.767000
1.000000,121.767000
1.000000,121.767000
1.000000,121.767000
1.000000,121.645000
1.000000,121.157000
1.000000,121.157000
1.000000,121.157000
1.000000,121.157000
1.000000,121.157000
1.000000,121.157000
1.000000,121.533920
1.000000,121.855000
1.000000,121.855000
1.000000,121.855000
1.000000,121.855000
1.000000,121.855000
1.000000,121.855000
1.000000,121.476880
1.000000,121.444000
1.000000,121.444000
1.000000,121.444000
1.000000,121.444000
1.000000,121.444000
1.000000,121.602340
1.000000,122.053000
1.000000,122.053000
1.000000,122.053000
1.000000,122.053000
1.000000,122.053000
1.000000,122.053000
1.000000,121.629400
1.000000,121.347000
1.000000,121.347000
1.000000,121.347000
1.000000,121.347000
1.000000,121.347000
1.000000,121.347000
1.000000,121.918520
1.000000,121.955000
1.000000,121.955000
1.000000,121.955000
1.000000,121.955000
1.000000,121.955000
1.000000,121.773800
1.000000,121.351000
1.000000,121.351000
1.000000,121.351000
1.000000,121.351000
1.000000,121.351000
1.000000,121.351000
1.000000,121.750360
1.000000,121.975000
1.000000,121.975000
1.000000,121.975000
1.000000,121.975000
1.000000,121.975000
1.000000,121.975000
1.000000,121.549680
1.000000,121.541000
1.000000,121.541000
1.000000,121.541000
1.000000,121.541000
1.000000,121.541000
1.000000,121.591760
1.000000,121.682000
1.000000,121.682000
1.000000,121.682000
1.000000,121.682000
1.000000,121.682000
1.000000,121.682000
1.000000,121.515400
1.000000,121.444000
1.000000,121.444000
1.000000,121.444000
1.000000,121.444000
1.000000,121.444000
1.000000,121.469120
1.000000,122.072000
1.000000,122.072000
1.000000,122.072000
1.000000,122.072000
1.000000,122.072000
1.000000,122.072000
1.000000,121.795680
1.000000,121.444000
1.000000,121.444000
1.000000,121.444000
1.000000,121.444000
1.000000,121.444000
1.000000,121.444000
1.000000,121.689700
1.000000,121.759000
1.000000,121.759000
1.000000,121.759000
1.000000,121.759000
1.000000,121.759000
1.000000,121.744360
1.000000,121.637000
1.000000,121.637000
1.000000,121.637000
1.000000,121.637000
1.000000,121.637000
1.000000,121.637000
1.000000,121.657240
1.000000,121.681000
1.000000,121.681000
1.000000,121.681000
1.000000,121.681000
1.000000,121.681000
1.000000,121.681000
1.000000,121.722000
1.000000,121.731000
1.000000,121.731000
1.000000,121.731000
1.000000,121.731000
1.000000,121.731000
1.000000,121.827120
1.000000,122.265000
1.000000,122.265000
1.000000,122.265000
1.000000,122.265000
1.000000,122.265000
1.000000,122.265000
1.000000,121.874040
1.000000,121.541000
1.000000,121.541000
1.000000,121.541000
1.000000,121.541000
1.000000,121.541000
1.000000,121.541000
1.000000,122.260100
1.000000,122.340000
1.000000,122.340000
1.000000,122.340000
1.000000,122.340000
1.000000,122.340000
1.000000,122.148240
1.000000,121.541000
1.000000,121.541000
1.000000,121.541000
1.000000,121.541000
1.000000,121.541000
1.000000,121.541000
1.000000,121.948740
1.000000,122.244000
1.000000,122.244000
1.000000,122.244000
1.000000,122.244000
1.000000,122.244000
1.000000,122.244000
1.000000,121.581300
1.000000,121.539000
1.000000,121.539000
1.000000,121.539000
1.000000,121.539000
1.000000,121.539000
1.000000,121.709520
1.000000,122.148000
1.000000,122.148000
1.000000,122.148000
1.000000,122.148000
1.000000,122.148000
1.000000,122.148000
1.000000,121.759520
1.000000,121.541000
1.000000,121.541000
1.000000,121.541000
1.000000,121.541000
1.000000,121.541000
1.000000,121.541000
1.000000,122.156440
1.000000,122.169000
1.000000,122.169000
1.000000,122.169000
1.000000,122.169000
1.000000,122.169000
1.000000,121.911720
1.000000,121.365000
1.000000,121.365000
1.000000,121.365000
1.000000,121.365000
1.000000,121.365000
1.000000,121.365000
1.000000,121.766280
1.000000,121.973000
1.000000,121.973000
1.000000,121.973000
1.000000,121.973000
1.000000,121.973000
1.000000,121.964720
1.000000,121.559000
1.000000,121.559000
1.000000,121.559000
1.000000,121.559000
1.000000,121.559000
1.000000,121.559000
1.000000,121.645800
1.000000,121.776000
1.000000,121.776000
1.000000,121.776000
1.000000,121.776000
1.000000,121.776000
1.000000,121.776000
1.000000,121.632440
1.000000,121.582000
1.000000,121.582000
1.000000,121.582000
1.000000,121.582000
1.000000,121.582000
1.000000,121.605360
1.000000,121.874000
1.000000,121.874000
1.000000,121.874000
1.000000,121.874000
1.000000,121.874000
1.000000,121.874000
1.000000,121.733840
1.000000,121.582000
1.000000,121.582000
1.000000,121.582000
1.000000,121.582000
1.000000,121.582000
1.000000,121.582000
1.000000,121.706640
1.000000,121.734000
1.000000,121.734000
1.000000,121.734000
1.000000,121.734000
1.000000,121.734000
1.000000,121.707000
1.000000,121.584000
1.000000,121.584000
1.000000,121.584000
1.000000,121.584000
1.000000,121.584000
1.000000,121.584000
1.000000,121.561000
1.000000,121.538000
1.000000,121.538000
1.000000,121.538000
1.000000,121.538000
1.000000,121.538000
1.000000,121.538000
1.000000,121.661840
1.000000,121.682000
1.000000,121.682000
1.000000,121.682000
1.000000,121.682000
1.000000,121.682000
1.000000,121.672400
1.000000,121.634000
1.000000,121.634000
1.000000,121.634000
1.000000,121.634000
1.000000,121.634000
1.000000,121.634000
1.000000,121.712840
1.000000,121.780000
1.000000,121.780000
1.000000,121.780000
1.000000,121.780000
1.000000,121.780000
1.000000,121.780000
1.000000,121.567040
1.000000,121.538000
1.000000,121.538000
1.000000,121.538000
1.000000,121.538000
1.000000,121.538000
1.000000,121.684880
1.000000,122.150000
1.000000,122.150000
1.000000,122.150000
1.000000,122.150000
1.000000,122.150000
1.000000,122.150000
1.000000,121.741100
1.000000,121.445000
1.000000,121.445000
1.000000,121.445000
1.000000,121.445000
1.000000,121.445000
1.000000,121.445000
1.000000,122.016520
1.000000,122.053000
1.000000,122.053000
1.000000,122.053000
1.000000,122.053000
1.000000,122.053000
1.000000,121.909360
1.000000,121.540000
1.000000,121.540000
1.000000,121.540000
1.000000,121.540000
1.000000,121.540000
1.000000,121.540000
1.000000,121.853720
1.000000,122.046000
1.000000,122.046000
1.000000,122.046000
1.000000,122.046000
1.000000,122.046000
1.000000,122.046000
1.000000,121.479180
1.000000,121.443000
1.000000,121.443000
1.000000,121.443000
1.000000,121.443000
1.000000,121.443000
1.000000,121.640960
1.000000,122.150000
1.000000,122.150000
1.000000,122.150000
1.000000,122.150000
1.000000,122.150000
1.000000,122.150000
1.000000,121.574000
1.000000,121.350000
1.000000,121.350000
1.000000,121.350000
1.000000,121.350000
1.000000,121.350000
1.000000,121.392060
1.000000,122.051000
1.000000,122.051000
1.000000,122.051000
1.000000,122.051000
1.000000,122.051000
1.000000,122.051000
1.000000,121.785240
1.000000,121.447000
1.000000,121.447000
1.000000,121.447000
1.000000,121.447000
1.000000,121.447000
1.000000,121.447000
1.000000,121.932160
1.000000,122.069000
1.000000,122.069000
1.000000,122.069000
1.000000,122.069000
1.000000,122.069000
1.000000,121.992280
1.000000,121.521000
1.000000,121.521000
1.000000,121.521000
1.000000,121.521000
1.000000,121.521000
1.000000,121.521000
1.000000,121.739000
1.000000,121.957000
1.000000,121.957000
1.000000,121.957000
1.000000,121.957000
1.000000,121.957000
1.000000,121.957000
1.000000,121.529440
1.000000,121.448000
1.000000,121.448000
1.000000,121.448000
1.000000,121.448000
1.000000,121.448000
1.000000,121.533600
1.000000,121.876000
1.000000,121.876000
1.000000,121.876000
1.000000,121.876000
1.000000,121.876000
1.000000,121.876000
1.000000,121.684840
1.000000,121.522000
1.000000,121.522000
1.000000,121.522000
1.000000,121.522000
1.000000,121.522000
1.000000,121.522000
1.000000,122.003360
1.000000,122.069000
1.000000,122.069000
1.000000,122.069000
1.000000,122.069000
1.000000,122.069000
1.000000,121.947560
1.000000,121.517000
1.000000,121.517000
1.000000,121.517000
1.000000,121.517000
1.000000,121.517000
1.000000,121.517000
1.000000,121.826120
1.000000,122.069000
1.000000,122.069000
1.000000,122.069000
1.000000,122.069000
1.000000,122.069000
1.000000,122.069000
1.000000,121.509200
1.000000,121.447000
1.000000,121.447000
1.000000,121.447000
1.000000,121.447000
1.000000,121.447000
1.000000,121.539400
1.000000,121.832000
1.000000,121.832000
1.000000,121.832000
1.000000,121.832000
1.000000,121.832000
1.000000,121.832000
1.000000,121.687580
1.000000,121.583000
1.000000,121.583000
1.000000,121.583000
1.000000,121.583000
1.000000,121.583000
1.000000,121.583000
1.000000,121.761480
1.000000,121.777000
1.000000,121.777000
1.000000,121.777000
1.000000,121.777000
1.000000,121.777000
1.000000,121.695880
1.000000,121.465000
1.000000,121.465000
1.000000,121.465000
1.000000,121.465000
1.000000,121.465000
1.000000,121.465000
1.000000,121.691300
1.000000,121.830000
1.000000,121.830000
1.000000,121.830000
1.000000,121.830000
1.000000,121.830000
1.000000,121.830000
1.000000,121.688880
1.000000,121.683000
1.000000,121.683000
1.000000,121.683000
1.000000,121.683000
1.000000,121.683000
1.000000,121.636280
1.000000,121.537000
1.000000,121.537000
1.000000,121.537000
1.000000,121.537000
1.000000,121.537000
1.000000,121.537000
1.000000,121.939600
1.000000,122.147000
1.000000,122.147000
1.000000,122.147000
1.000000,122.147000
1.000000,122.147000
1.000000,122.147000
1.000000,121.732000
1.000000,121.732000
1.000000,121.732000
1.000000,121.732000
1.000000,121.732000
1.000000,121.732000
1.000000,121.810840
1.000000,121.951000
1.000000,121.951000
1.000000,121.951000
1.000000,121.951000
1.000000,121.951000
1.000000,121.951000
1.000000,121.729100
1.000000,121.634000
1.000000,121.634000
1.000000,121.634000
1.000000,121.634000
1.000000,121.634000
1.000000,121.682800
1.000000,122.244000
1.000000,122.244000
1.000000,122.244000
1.000000,122.244000
1.000000,122.244000
1.000000,122.244000
1.000000,121.882900
1.000000,121.459000
1.000000,121.459000
1.000000,121.459000
1.000000,121.459000
1.000000,121.459000
1.000000,121.459000
1.000000,122.086120
1.000000,122.263000
1.000000,122.263000
1.000000,122.263000
1.000000,122.263000
1.000000,122.263000
1.000000,122.153800
1.000000,121.483000
1.000000,121.483000
1.000000,121.483000
1.000000,121.483000
1.000000,121.483000
1.000000,121.483000
1.000000,121.671640
1.000000,121.876000
1.000000,121.876000
1.000000,121.876000
1.000000,121.876000
1.000000,121.876000
1.000000,121.876000
1.000000,121.754200
1.000000,121.731000
1.000000,121.731000
1.000000,114.707800
1.000000,77.836000
1.000000,77.836000
1.000000,77.836000
1.000000,70.967420
1.000000,70.529000
1.000000,70.529000
1.000000,69.694520
1.000000,69.370000
1.000000,69.370000
1.000000,69.265240
1.000000,69.176000
1.000000,69.176000
1.000000,69.134800
1.000000,69.073000
1.000000,69.073000
1.000000,69.057200
1.000000,68.994000
1.000000,68.994000
1.000000,68.994000
1.000000,68.994000
1.000000,68.994000
1.000000,68.994000
1.000000,68.994000
1.000000,68.994000
1.000000,68.993520
1.000000,68.986000
1.000000,68.986000
1.000000,68.986000
1.000000,68.986000
1.000000,68.986000
1.000000,68.986000
1.000000,68.927800
1.000000,68.889000
1.000000,68.889000
1.000000,68.889000
1.000000,68.889000
1.000000,68.889000
1.000000,68.889000
1.000000,68.889000
1.000000,68.836620
1.000000,68.792000
1.000000,68.792000
1.000000,68.798720
1.000000,68.799000
1.000000,68.794380
0.100000,68.792000
