1.000000,68.214000
1.000000,68.370600
1.000000,68.504000
1.000000,68.504000
1.000000,68.471020
1.000000,68.407000
1.000000,68.407000
1.000000,68.385400
1.000000,68.317000
1.000000,68.317000
1.000000,68.318800
1.000000,68.407000
1.000000,68.407000
1.000000,68.407000
1.000000,68.327460
1.000000,68.310000
1.000000,68.310000
1.000000,68.310000
1.000000,68.310000
1.000000,68.310000
1.000000,68.302240
1.000000,68.167160
1.000000,68.022000
1.000000,68.022000
1.000000,68.167920
1.000000,68.214000
1.000000,68.214000
1.000000,68.214000
1.000000,68.214000
1.000000,68.214000
1.000000,68.214000
1.000000,68.289400
1.000000,68.504000
1.000000,68.504000
1.000000,68.498180
1.000000,68.407000
1.000000,68.407000
1.000000,68.407000
1.000000,68.320600
1.000000,68.317000
1.000000,68.317000
1.000000,68.385400
1.000000,68.407000
1.000000,68.407000
1.000000,68.354620
1.000000,68.310000
1.000000,68.310000
1.000000,68.310000
1.000000,68.310000
1.000000,68.310000
1.000000,68.310000
1.000000,68.232400
0.020000,68.213000
