1.000000,68.117000
1.000000,68.148040
1.000000,68.214000
1.000000,68.214000
1.000000,68.214000
1.000000,68.214000
1.000000,68.214000
1.000000,68.214000
1.000000,72.646540
1.000000,72.737000
1.000000,72.737000
1.000000,72.737000
1.000000,72.737000
1.000000,72.737000
1.000000,87.238880
1.000000,113.020000
1.000000,113.020000
1.000000,113.020000
1.000000,113.020000
1.000000,113.020000
1.000000,113.020000
1.000000,117.260080
1.000000,118.909000
1.000000,118.909000
1.000000,118.909000
1.000000,118.909000
1.000000,118.909000
1.000000,119.000200
1.000000,120.049000
1.000000,120.049000
1.000000,120.049000
1.000000,120.049000
1.000000,120.049000
1.000000,120.049000
1.000000,119.806580
1.000000,119.522000
1.000000,119.522000
1.000000,119.522000
1.000000,119.522000
1.000000,119.522000
1.000000,119.522000
1.000000,119.836060
1.000000,119.905000
1.000000,119.905000
1.000000,119.905000
1.000000,119.905000
1.000000,119.905000
1.000000,120.010000
1.000000,120.430000
1.000000,120.430000
1.000000,120.430000
1.000000,120.430000
1.000000,120.430000
1.000000,120.430000
1.000000,120.428880
1.000000,120.428000
1.000000,120.428000
1.000000,120.428000
1.000000,120.428000
1.000000,120.428000
1.000000,120.428000
1.000000,120.145760
1.000000,120.134000
1.000000,120.134000
1.000000,120.134000
1.000000,120.134000
1.000000,120.134000
1.000000,120.166960
1.000000,120.237000
1.000000,120.237000
1.000000,120.237000
1.000000,120.237000
1.000000,120.237000
1.000000,120.237000
1.000000,120.137600
1.000000,120.095000
1.000000,120.095000
1.000000,120.095000
1.000000,120.095000
1.000000,120.095000
1.000000,120.114280
1.000000,120.336000
1.000000,120.336000
1.000000,120.336000
1.000000,120.336000
1.000000,120.336000
1.000000,120.336000
1.000000,120.048960
1.000000,119.712000
1.000000,119.712000
1.000000,119.712000
1.000000,119.712000
1.000000,119.712000
1.000000,119.712000
1.000000,120.315120
1.000000,120.430000
1.000000,120.430000
1.000000,120.430000
1.000000,120.430000
1.000000,120.430000
1.000000,120.217580
1.000000,119.613000
1.000000,119.613000
1.000000,119.613000
1.000000,119.613000
1.000000,119.613000
1.000000,119.613000
1.000000,120.105000
1.000000,120.433000
1.000000,120.433000
1.000000,120.433000
1.000000,120.433000
1.000000,120.433000
1.000000,120.433000
1.000000,120.019240
1.000000,120.002000
1.000000,120.002000
1.000000,120.002000
1.000000,120.002000
1.000000,120.002000
1.000000,120.078320
1.000000,120.214000
1.000000,120.214000
1.000000,120.214000
1.000000,120.214000
1.000000,120.214000
1.000000,120.214000
1.000000,120.376060
1.000000,120.433000
1.000000,120.433000
1.000000,120.433000
1.000000,120.433000
1.000000,120.433000
1.000000,120.358120
1.000000,119.809000
1.000000,119.809000
1.000000,119.809000
1.000000,119.809000
1.000000,119.809000
1.000000,119.809000
1.000000,120.215000
1.000000,120.621000
1.000000,120.621000
1.000000,120.621000
1.000000,120.621000
1.000000,120.621000
1.000000,120.621000
1.000000,120.540160
1.000000,120.527000
1.000000,120.527000
1.000000,120.527000
1.000000,120.527000
1.000000,120.527000
1.000000,120.423560
1.000000,120.096000
1.000000,120.096000
1.000000,120.096000
1.000000,120.096000
1.000000,120.096000
1.000000,120.096000
1.000000,120.459660
1.000000,120.723000
1.000000,120.723000
1.000000,120.723000
1.000000,120.723000
1.000000,120.723000
1.000000,120.723000
1.000000,119.934840
1.000000,119.902000
1.000000,119.902000
1.000000,119.902000
1.000000,119.902000
1.000000,119.902000
1.000000,120.177100
1.000000,120.819000
1.000000,120.819000
1.000000,120.819000
1.000000,120.819000
1.000000,120.819000
1.000000,120.819000
1.000000,120.245000
1.000000,119.999000
1.000000,119.999000
1.000000,119.999000
1.000000,119.999000
1.000000,119.999000
1.000000,120.057080
1.000000,120.725000
1.000000,120.725000
1.000000,120.725000
1.000000,120.725000
1.000000,120.725000
1.000000,120.725000
1.000000,120.434740
1.000000,120.094000
1.000000,120.094000
1.000000,120.094000
1.000000,120.094000
1.000000,120.094000
1.000000,120.094000
1.000000,120.453160
1.000000,120.532000
1.000000,120.532000
1.000000,120.532000
1.000000,120.532000
1.000000,120.532000
1.000000,120.406000
1.000000,119.902000
1.000000,119.902000
1.000000,119.902000
1.000000,119.902000
1.000000,119.902000
1.000000,119.902000
1.000000,120.252560
1.000000,120.528000
1.000000,120.528000
1.000000,120.528000
1.000000,120.528000
1.000000,120.528000
1.000000,120.528000
1.000000,120.252580
1.000000,120.235000
1.000000,120.235000
1.000000,120.235000
1.000000,120.235000
1.000000,120.235000
1.000000,120.221240
1.000000,120.192000
1.000000,120.192000
1.000000,120.192000
1.000000,120.192000
1.000000,120.192000
1.000000,120.192000
1.000000,120.358600
1.000000,120.430000
1.000000,120.430000
1.000000,120.430000
1.000000,120.430000
1.000000,120.430000
1.000000,120.426160
1.000000,120.334000
1.000000,120.334000
1.000000,120.334000
1.000000,120.334000
1.000000,120.334000
1.000000,120.334000
1.000000,120.101680
1.000000,119.806000
1.000000,119.806000
1.000000,119.806000
1.000000,119.806000
1.000000,119.806000
1.000000,119.806000
1.000000,120.047920
1.000000,120.094000
1.000000,120.094000
1.000000,120.094000
1.000000,120.094000
1.000000,120.094000
1.000000,120.151200
1.000000,120.354000
1.000000,120.354000
1.000000,120.354000
1.000000,120.354000
1.000000,120.354000
1.000000,120.354000
1.000000,120.401400
1.000000,120.433000
1.000000,120.433000
1.000000,120.433000
1.000000,120.433000
1.000000,120.433000
1.000000,120.433000
1.000000,120.141940
1.000000,120.136000
1.000000,120.136000
1.000000,120.136000
1.000000,120.136000
1.000000,120.136000
1.000000,120.135640
1.000000,120.135000
1.000000,120.135000
1.000000,120.135000
1.000000,120.135000
1.000000,120.135000
1.000000,120.135000
1.000000,120.428780
1.000000,120.532000
1.000000,120.532000
1.000000,120.532000
1.000000,120.532000
1.000000,120.532000
1.000000,120.488400
1.000000,120.096000
1.000000,120.096000
1.000000,120.096000
1.000000,120.096000
1.000000,120.096000
1.000000,120.096000
1.000000,120.349920
1.000000,120.625000
1.000000,120.625000
1.000000,120.625000
1.000000,120.625000
1.000000,120.625000
1.000000,120.625000
1.000000,120.461000
1.000000,120.425000
1.000000,120.425000
1.000000,120.425000
1.000000,120.425000
1.000000,120.425000
1.000000,120.425600
1.000000,120.428000
1.000000,120.428000
1.000000,120.428000
1.000000,120.428000
1.000000,120.428000
1.000000,120.428000
1.000000,120.226160
1.000000,120.080000
1.000000,120.080000
1.000000,120.080000
1.000000,120.080000
1.000000,120.080000
1.000000,120.080000
1.000000,120.509120
1.000000,120.527000
1.000000,120.527000
1.000000,120.527000
1.000000,120.527000
1.000000,120.527000
1.000000,120.327420
1.000000,119.940000
1.000000,119.940000
1.000000,119.940000
1.000000,119.940000
1.000000,119.940000
1.000000,119.940000
1.000000,120.080400
1.000000,120.135000
1.000000,120.135000
1.000000,120.135000
1.000000,120.135000
1.000000,120.135000
1.000000,120.174200
1.000000,120.527000
1.000000,120.527000
1.000000,120.527000
1.000000,120.527000
1.000000,120.527000
1.000000,120.527000
1.000000,120.422360
1.000000,120.309000
1.000000,120.309000
1.000000,120.309000
1.000000,120.309000
1.000000,120.309000
1.000000,120.309000
1.000000,119.878140
1.000000,119.808000
1.000000,119.808000
1.000000,119.808000
1.000000,119.808000
1.000000,119.808000
1.000000,119.898720
1.000000,120.132000
1.000000,120.132000
1.000000,120.132000
1.000000,120.132000
1.000000,120.132000
1.000000,120.132000
1.000000,120.386080
1.000000,120.529000
1.000000,120.529000
1.000000,120.529000
1.000000,120.529000
1.000000,120.529000
1.000000,120.515520
1.000000,120.192000
1.000000,120.192000
1.000000,120.192000
1.000000,120.192000
1.000000,120.192000
1.000000,120.192000
1.000000,120.341600
1.000000,120.532000
1.000000,120.532000
1.000000,120.532000
1.000000,120.532000
1.000000,120.532000
1.000000,120.532000
1.000000,119.922160
1.000000,119.806000
1.000000,119.806000
1.000000,119.806000
1.000000,119.806000
1.000000,119.806000
1.000000,119.985960
1.000000,120.624000
1.000000,120.624000
1.000000,120.624000
1.000000,120.624000
1.000000,120.624000
1.000000,120.624000
1.000000,120.448800
1.000000,120.332000
1.000000,120.332000
1.000000,120.332000
1.000000,120.332000
1.000000,120.332000
1.000000,120.332000
1.000000,120.013280
1.000000,120.000000
1.000000,120.000000
1.000000,120.000000
1.000000,120.000000
1.000000,120.000000
1.000000,120.111520
1.000000,120.328000
1.000000,120.328000
1.000000,120.328000
1.000000,120.328000
1.000000,120.328000
1.000000,120.328000
1.000000,120.468700
1.000000,120.529000
1.000000,120.529000
1.000000,120.529000
1.000000,120.529000
1.000000,120.529000
1.000000,120.471400
1.000000,119.809000
1.000000,119.809000
1.000000,119.809000
1.000000,119.809000
1.000000,119.809000
1.000000,119.809000
1.000000,119.993800
1.000000,120.229000
1.000000,120.229000
1.000000,120.229000
1.000000,120.229000
1.000000,120.229000
1.000000,120.229000
1.000000,120.621800
1.000000,120.720000
1.000000,120.720000
1.000000,120.720000
1.000000,120.720000
1.000000,120.720000
1.000000,120.619840
1.000000,120.094000
1.000000,120.094000
1.000000,120.094000
1.000000,120.094000
1.000000,120.094000
1.000000,120.094000
1.000000,120.328360
1.000000,120.528000
1.000000,120.528000
1.000000,120.528000
1.000000,120.528000
1.000000,120.528000
1.000000,120.528000
1.000000,120.442000
1.000000,120.428000
1.000000,120.428000
1.000000,120.428000
1.000000,120.428000
1.000000,120.428000
1.000000,120.367040
1.000000,120.174000
1.000000,120.174000
1.000000,120.174000
1.000000,120.174000
1.000000,120.174000
1.000000,120.174000
1.000000,120.444600
1.000000,120.625000
1.000000,120.625000
1.000000,120.625000
1.000000,120.625000
1.000000,120.625000
1.000000,120.625000
1.000000,120.200660
1.000000,120.192000
1.000000,120.192000
1.000000,120.192000
1.000000,120.192000
1.000000,120.192000
1.000000,120.348960
1.000000,120.628000
1.000000,120.628000
1.000000,120.628000
1.000000,120.628000
1.000000,120.628000
1.000000,120.628000
1.000000,120.077000
1.000000,119.903000
1.000000,119.903000
1.000000,119.903000
1.000000,119.903000
1.000000,119.903000
1.000000,119.989280
1.000000,120.622000
1.000000,120.622000
1.000000,120.622000
1.000000,120.622000
1.000000,120.622000
1.000000,120.622000
1.000000,120.521120
1.000000,120.428000
1.000000,120.428000
1.000000,120.428000
1.000000,120.428000
1.000000,120.428000
1.000000,120.428000
1.000000,120.042800
1.000000,120.000000
1.000000,120.000000
1.000000,120.000000
1.000000,120.000000
1.000000,120.000000
1.000000,120.092120
1.000000,120.329000
1.000000,120.329000
1.000000,120.329000
1.000000,120.329000
1.000000,120.329000
1.000000,120.329000
1.000000,120.461000
1.000000,120.529000
1.000000,120.529000
1.000000,120.529000
1.000000,120.529000
1.000000,120.529000
1.000000,120.511180
1.000000,120.232000
1.000000,120.232000
1.000000,120.232000
1.000000,120.232000
1.000000,120.232000
1.000000,120.232000
1.000000,115.914960
1.000000,112.523000
1.000000,112.523000
1.000000,108.048200
1.000000,75.233000
1.000000,75.233000
1.000000,75.233000
1.000000,69.770480
1.000000,69.659000
1.000000,69.659000
1.000000,68.982740
1.000000,68.792000
1.000000,68.792000
1.000000,68.737680
1.000000,68.695000
1.000000,68.695000
1.000000,68.663680
1.000000,68.608000
1.000000,68.608000
1.000000,68.592480
1.000000,68.511000
1.000000,68.511000
1.000000,68.498520
1.000000,68.407000
1.000000,68.407000
1.000000,68.407000
1.000000,68.407000
1.000000,68.407000
1.000000,68.407000
1.000000,68.323580
1.000000,68.310000
1.000000,68.310000
1.000000,68.310000
1.000000,68.310000
1.000000,68.310000
1.000000,68.314060
1.000000,68.317000
1.000000,68.317000
1.000000,68.394600
1.000000,68.414000
1.000000,68.377140
1.000000,68.317000
1.000000,68.317000
1.000000,68.317000
1.000000,68.317000
1.000000,68.312660
1.000000,68.310000
1.000000,68.310000
0.980000,68.310000
