1000009484,218065494,153573015,141153115,141136861
1000000000,218038742,153495880,141083811,141083811
1000000000,218038772,153495894,141083827,141083825
1000000000,218038764,153495904,141083825,141083825
1000000000,218038767,153495893,141083825,141083827
1000000000,218038773,153495892,141083827,141083822
1000000000,218038762,153495904,141083822,141083828
1000000000,222235830,162934899,152987667,152987448
1000000000,239697202,201530995,201530301,201530278
1000000000,239692815,201555972,201555287,201555258
1000000000,239697612,201556092,201555403,201555376
1000000000,239701768,201569210,201568516,201568495
1000000000,239692979,201565320,201564634,201564604
1000000000,239694960,201574859,201574167,201574141
1000000000,239697373,201584986,201584290,201584263
153410315,36770227,30922901,30922391,30921910
number,of,instructions:,15153410245
