================================================================

PROBLEM SIZE=64

---------------

with OMP_NUM_THREADS= 1 
 

Reading matrix from file /home/users/amarkou/DIPLOMA/rodinia_3.1/data/lud/64.dat
PAPI measurements:(rapl)> > > > > > > > > > > >
Counting Energy Consumption:
PACKAGE_ENERGY_CNT:PACKAGE0 (J) 0.000002501000
PACKAGE_ENERGY_CNT:PACKAGE1 (J) 0.000002403000
DRAM_ENERGY_CNT:PACKAGE0 (J)    0.000001987000
DRAM_ENERGY_CNT:PACKAGE1 (J)    0.000001814000


Energy in total:
PACKAGE_ENERGY:PACKAGE0 (J) 0.152648925000
PACKAGE_ENERGY:PACKAGE1 (J) 0.146667480000
DRAM_ENERGY:PACKAGE0    (J) 0.030319213000
DRAM_ENERGY:PACKAGE1    (J) 0.027679443000

Total time (kernel x100):  0.005006000000 (s)
Power (W) 71.377359368757
=======================================================


Time consumed(ms): 5.0060000000
-------------------------------------------------------------------------------------------

with OMP_NUM_THREADS= 2 
 

Reading matrix from file /home/users/amarkou/DIPLOMA/rodinia_3.1/data/lud/64.dat
PAPI measurements:(rapl)> > > > > > > > > > > >
Counting Energy Consumption:
PACKAGE_ENERGY_CNT:PACKAGE0 (J) 0.000004707000
PACKAGE_ENERGY_CNT:PACKAGE1 (J) 0.000006246000
DRAM_ENERGY_CNT:PACKAGE0 (J)    0.000005634000
DRAM_ENERGY_CNT:PACKAGE1 (J)    0.000004902000


Energy in total:
PACKAGE_ENERGY:PACKAGE0 (J) 0.287292480000
PACKAGE_ENERGY:PACKAGE1 (J) 0.381225585000
DRAM_ENERGY:PACKAGE0    (J) 0.085968017000
DRAM_ENERGY:PACKAGE1    (J) 0.074798583000

Total time (kernel x100):  0.010907000000 (s)
Power (W) 76.032333822316
=======================================================


Time consumed(ms): 10.9070000000
-------------------------------------------------------------------------------------------

with OMP_NUM_THREADS= 4 
 

Reading matrix from file /home/users/amarkou/DIPLOMA/rodinia_3.1/data/lud/64.dat
PAPI measurements:(rapl)> > > > > > > > > > > >
Counting Energy Consumption:
PACKAGE_ENERGY_CNT:PACKAGE0 (J) 0.000006552000
PACKAGE_ENERGY_CNT:PACKAGE1 (J) 0.000008372000
DRAM_ENERGY_CNT:PACKAGE0 (J)    0.000006729000
DRAM_ENERGY_CNT:PACKAGE1 (J)    0.000006460000


Energy in total:
PACKAGE_ENERGY:PACKAGE0 (J) 0.399902343000
PACKAGE_ENERGY:PACKAGE1 (J) 0.510986328000
DRAM_ENERGY:PACKAGE0    (J) 0.102676391000
DRAM_ENERGY:PACKAGE1    (J) 0.098571777000

Total time (kernel x100):  0.012577000000 (s)
Power (W) 88.426241472529
=======================================================


Time consumed(ms): 12.5770000000
-------------------------------------------------------------------------------------------

with OMP_NUM_THREADS= 6 
 

Reading matrix from file /home/users/amarkou/DIPLOMA/rodinia_3.1/data/lud/64.dat
PAPI measurements:(rapl)> > > > > > > > > > > >
Counting Energy Consumption:
PACKAGE_ENERGY_CNT:PACKAGE0 (J) 0.000006929000
PACKAGE_ENERGY_CNT:PACKAGE1 (J) 0.000008841000
DRAM_ENERGY_CNT:PACKAGE0 (J)    0.000006429000
DRAM_ENERGY_CNT:PACKAGE1 (J)    0.000005977000


Energy in total:
PACKAGE_ENERGY:PACKAGE0 (J) 0.422912597000
PACKAGE_ENERGY:PACKAGE1 (J) 0.539611816000
DRAM_ENERGY:PACKAGE0    (J) 0.098098754000
DRAM_ENERGY:PACKAGE1    (J) 0.091201782000

Total time (kernel x100):  0.012159000000 (s)
Power (W) 94.730236779340
=======================================================


Time consumed(ms): 12.1590000000
-------------------------------------------------------------------------------------------

with OMP_NUM_THREADS= 8 
 

Reading matrix from file /home/users/amarkou/DIPLOMA/rodinia_3.1/data/lud/64.dat
PAPI measurements:(rapl)> > > > > > > > > > > >
Counting Energy Consumption:
PACKAGE_ENERGY_CNT:PACKAGE0 (J) 0.000007809000
PACKAGE_ENERGY_CNT:PACKAGE1 (J) 0.000009748000
DRAM_ENERGY_CNT:PACKAGE0 (J)    0.000006534000
DRAM_ENERGY_CNT:PACKAGE1 (J)    0.000005833000


Energy in total:
PACKAGE_ENERGY:PACKAGE0 (J) 0.476623535000
PACKAGE_ENERGY:PACKAGE1 (J) 0.594970703000
DRAM_ENERGY:PACKAGE0    (J) 0.099700927000
DRAM_ENERGY:PACKAGE1    (J) 0.089004516000

Total time (kernel x100):  0.011801000000 (s)
Power (W) 106.796007202779
=======================================================


Time consumed(ms): 11.8010000000
-------------------------------------------------------------------------------------------

with OMP_NUM_THREADS= 10 
 

Reading matrix from file /home/users/amarkou/DIPLOMA/rodinia_3.1/data/lud/64.dat
PAPI measurements:(rapl)> > > > > > > > > > > >
Counting Energy Consumption:
PACKAGE_ENERGY_CNT:PACKAGE0 (J) 0.000008667000
PACKAGE_ENERGY_CNT:PACKAGE1 (J) 0.000010276000
DRAM_ENERGY_CNT:PACKAGE0 (J)    0.000006447000
DRAM_ENERGY_CNT:PACKAGE1 (J)    0.000005753000


Energy in total:
PACKAGE_ENERGY:PACKAGE0 (J) 0.528991699000
PACKAGE_ENERGY:PACKAGE1 (J) 0.627197265000
DRAM_ENERGY:PACKAGE0    (J) 0.098373413000
DRAM_ENERGY:PACKAGE1    (J) 0.087783813000

Total time (kernel x100):  0.011649000000 (s)
Power (W) 115.232740149369
=======================================================


Time consumed(ms): 11.6490000000
-------------------------------------------------------------------------------------------

with OMP_NUM_THREADS= 12 
 

Reading matrix from file /home/users/amarkou/DIPLOMA/rodinia_3.1/data/lud/64.dat
PAPI measurements:(rapl)> > > > > > > > > > > >
Counting Energy Consumption:
PACKAGE_ENERGY_CNT:PACKAGE0 (J) 0.000009942000
PACKAGE_ENERGY_CNT:PACKAGE1 (J) 0.000011686000
DRAM_ENERGY_CNT:PACKAGE0 (J)    0.000006968000
DRAM_ENERGY_CNT:PACKAGE1 (J)    0.000006163000


Energy in total:
PACKAGE_ENERGY:PACKAGE0 (J) 0.606811523000
PACKAGE_ENERGY:PACKAGE1 (J) 0.713256835000
DRAM_ENERGY:PACKAGE0    (J) 0.106323242000
DRAM_ENERGY:PACKAGE1    (J) 0.094039916000

Total time (kernel x100):  0.012068000000 (s)
Power (W) 125.988690420948
=======================================================


Time consumed(ms): 12.0680000000
-------------------------------------------------------------------------------------------

with OMP_NUM_THREADS= 14 
 

Reading matrix from file /home/users/amarkou/DIPLOMA/rodinia_3.1/data/lud/64.dat
PAPI measurements:(rapl)> > > > > > > > > > > >
Counting Energy Consumption:
PACKAGE_ENERGY_CNT:PACKAGE0 (J) 0.000015237000
PACKAGE_ENERGY_CNT:PACKAGE1 (J) 0.000014860000
DRAM_ENERGY_CNT:PACKAGE0 (J)    0.000009116000
DRAM_ENERGY_CNT:PACKAGE1 (J)    0.000008294000


Energy in total:
PACKAGE_ENERGY:PACKAGE0 (J) 0.929992675000
PACKAGE_ENERGY:PACKAGE1 (J) 0.906982421000
DRAM_ENERGY:PACKAGE0    (J) 0.139099121000
DRAM_ENERGY:PACKAGE1    (J) 0.126556396000

Total time (kernel x100):  0.018910000000 (s)
Power (W) 111.191465520888
=======================================================


Time consumed(ms): 18.9100000000
-------------------------------------------------------------------------------------------

with OMP_NUM_THREADS= 16 
 

Reading matrix from file /home/users/amarkou/DIPLOMA/rodinia_3.1/data/lud/64.dat
PAPI measurements:(rapl)> > > > > > > > > > > >
Counting Energy Consumption:
PACKAGE_ENERGY_CNT:PACKAGE0 (J) 0.000011742000
PACKAGE_ENERGY_CNT:PACKAGE1 (J) 0.000013114000
DRAM_ENERGY_CNT:PACKAGE0 (J)    0.000006958000
DRAM_ENERGY_CNT:PACKAGE1 (J)    0.000006412000


Energy in total:
PACKAGE_ENERGY:PACKAGE0 (J) 0.716674804000
PACKAGE_ENERGY:PACKAGE1 (J) 0.800415039000
DRAM_ENERGY:PACKAGE0    (J) 0.106170654000
DRAM_ENERGY:PACKAGE1    (J) 0.097839355000

Total time (kernel x100):  0.013280000000 (s)
Power (W) 129.600892469880
=======================================================


Time consumed(ms): 13.2800000000
-------------------------------------------------------------------------------------------

with OMP_NUM_THREADS= 18 
 

Reading matrix from file /home/users/amarkou/DIPLOMA/rodinia_3.1/data/lud/64.dat
PAPI measurements:(rapl)> > > > > > > > > > > >
Counting Energy Consumption:
PACKAGE_ENERGY_CNT:PACKAGE0 (J) 0.000011893000
PACKAGE_ENERGY_CNT:PACKAGE1 (J) 0.000009388000
DRAM_ENERGY_CNT:PACKAGE0 (J)    0.000005963000
DRAM_ENERGY_CNT:PACKAGE1 (J)    0.000005373000


Energy in total:
PACKAGE_ENERGY:PACKAGE0 (J) 0.725891113000
PACKAGE_ENERGY:PACKAGE1 (J) 0.572998046000
DRAM_ENERGY:PACKAGE0    (J) 0.090988159000
DRAM_ENERGY:PACKAGE1    (J) 0.081985473000

Total time (kernel x100):  0.014529000000 (s)
Power (W) 101.305168352949
=======================================================


Time consumed(ms): 14.5290000000
-------------------------------------------------------------------------------------------

with OMP_NUM_THREADS= 20 
 

Reading matrix from file /home/users/amarkou/DIPLOMA/rodinia_3.1/data/lud/64.dat
PAPI measurements:(rapl)> > > > > > > > > > > >
Counting Energy Consumption:
PACKAGE_ENERGY_CNT:PACKAGE0 (J) 0.000015764000
PACKAGE_ENERGY_CNT:PACKAGE1 (J) 0.000014967000
DRAM_ENERGY_CNT:PACKAGE0 (J)    0.000008059000
DRAM_ENERGY_CNT:PACKAGE1 (J)    0.000007132000


Energy in total:
PACKAGE_ENERGY:PACKAGE0 (J) 0.962158203000
PACKAGE_ENERGY:PACKAGE1 (J) 0.913513183000
DRAM_ENERGY:PACKAGE0    (J) 0.122970581000
DRAM_ENERGY:PACKAGE1    (J) 0.108825683000

Total time (kernel x100):  0.014135000000 (s)
Power (W) 149.095695083127
=======================================================


Time consumed(ms): 14.1350000000
-------------------------------------------------------------------------------------------

with OMP_NUM_THREADS= 22 
 

Reading matrix from file /home/users/amarkou/DIPLOMA/rodinia_3.1/data/lud/64.dat
PAPI measurements:(rapl)> > > > > > > > > > > >
Counting Energy Consumption:
PACKAGE_ENERGY_CNT:PACKAGE0 (J) 0.000014722000
PACKAGE_ENERGY_CNT:PACKAGE1 (J) 0.000014535000
DRAM_ENERGY_CNT:PACKAGE0 (J)    0.000007088000
DRAM_ENERGY_CNT:PACKAGE1 (J)    0.000006546000


Energy in total:
PACKAGE_ENERGY:PACKAGE0 (J) 0.898559570000
PACKAGE_ENERGY:PACKAGE1 (J) 0.887145996000
DRAM_ENERGY:PACKAGE0    (J) 0.108154296000
DRAM_ENERGY:PACKAGE1    (J) 0.099884033000

Total time (kernel x100):  0.013813000000 (s)
Power (W) 144.338224498661
=======================================================


Time consumed(ms): 13.8130000000
-------------------------------------------------------------------------------------------

with OMP_NUM_THREADS= 24 
 

Reading matrix from file /home/users/amarkou/DIPLOMA/rodinia_3.1/data/lud/64.dat
PAPI measurements:(rapl)> > > > > > > > > > > >
Counting Energy Consumption:
PACKAGE_ENERGY_CNT:PACKAGE0 (J) 0.000017523000
PACKAGE_ENERGY_CNT:PACKAGE1 (J) 0.000016273000
DRAM_ENERGY_CNT:PACKAGE0 (J)    0.000008065000
DRAM_ENERGY_CNT:PACKAGE1 (J)    0.000007106000


Energy in total:
PACKAGE_ENERGY:PACKAGE0 (J) 1.069519042000
PACKAGE_ENERGY:PACKAGE1 (J) 0.993225097000
DRAM_ENERGY:PACKAGE0    (J) 0.123062133000
DRAM_ENERGY:PACKAGE1    (J) 0.108428955000

Total time (kernel x100):  0.014414000000 (s)
Power (W) 159.167144928542
=======================================================


Time consumed(ms): 14.4140000000
-------------------------------------------------------------------------------------------

with OMP_NUM_THREADS= 26 
 

Reading matrix from file /home/users/amarkou/DIPLOMA/rodinia_3.1/data/lud/64.dat
PAPI measurements:(rapl)> > > > > > > > > > > >
Counting Energy Consumption:
PACKAGE_ENERGY_CNT:PACKAGE0 (J) 0.000016402000
PACKAGE_ENERGY_CNT:PACKAGE1 (J) 0.000016416000
DRAM_ENERGY_CNT:PACKAGE0 (J)    0.000007310000
DRAM_ENERGY_CNT:PACKAGE1 (J)    0.000006619000


Energy in total:
PACKAGE_ENERGY:PACKAGE0 (J) 1.001098632000
PACKAGE_ENERGY:PACKAGE1 (J) 1.001953125000
DRAM_ENERGY:PACKAGE0    (J) 0.111541748000
DRAM_ENERGY:PACKAGE1    (J) 0.100997924000

Total time (kernel x100):  0.014224000000 (s)
Power (W) 155.764301813836
=======================================================


Time consumed(ms): 14.2240000000
-------------------------------------------------------------------------------------------

with OMP_NUM_THREADS= 28 
 

Reading matrix from file /home/users/amarkou/DIPLOMA/rodinia_3.1/data/lud/64.dat
PAPI measurements:(rapl)> > > > > > > > > > > >
Counting Energy Consumption:
PACKAGE_ENERGY_CNT:PACKAGE0 (J) 0.000019355000
PACKAGE_ENERGY_CNT:PACKAGE1 (J) 0.000018884000
DRAM_ENERGY_CNT:PACKAGE0 (J)    0.000008478000
DRAM_ENERGY_CNT:PACKAGE1 (J)    0.000007442000


Energy in total:
PACKAGE_ENERGY:PACKAGE0 (J) 1.148620605000
PACKAGE_ENERGY:PACKAGE1 (J) 1.152587890000
DRAM_ENERGY:PACKAGE0    (J) 0.129364013000
DRAM_ENERGY:PACKAGE1    (J) 0.113555908000

Total time (kernel x100):  0.015478000000 (s)
Power (W) 164.370617392428
=======================================================


Time consumed(ms): 15.4780000000
-------------------------------------------------------------------------------------------

with OMP_NUM_THREADS= 30 
 

Reading matrix from file /home/users/amarkou/DIPLOMA/rodinia_3.1/data/lud/64.dat
PAPI measurements:(rapl)> > > > > > > > > > > >
Counting Energy Consumption:
PACKAGE_ENERGY_CNT:PACKAGE0 (J) 0.000019765000
PACKAGE_ENERGY_CNT:PACKAGE1 (J) 0.000019074000
DRAM_ENERGY_CNT:PACKAGE0 (J)    0.000008506000
DRAM_ENERGY_CNT:PACKAGE1 (J)    0.000007409000


Energy in total:
PACKAGE_ENERGY:PACKAGE0 (J) 1.206359863000
PACKAGE_ENERGY:PACKAGE1 (J) 1.164184570000
DRAM_ENERGY:PACKAGE0    (J) 0.129791259000
DRAM_ENERGY:PACKAGE1    (J) 0.113052368000

Total time (kernel x100):  0.015559000000 (s)
Power (W) 167.966325599332
=======================================================


Time consumed(ms): 15.5590000000
-------------------------------------------------------------------------------------------

with OMP_NUM_THREADS= 32 
 

Reading matrix from file /home/users/amarkou/DIPLOMA/rodinia_3.1/data/lud/64.dat
PAPI measurements:(rapl)> > > > > > > > > > > >
Counting Energy Consumption:
PACKAGE_ENERGY_CNT:PACKAGE0 (J) 0.000020721000
PACKAGE_ENERGY_CNT:PACKAGE1 (J) 0.000018679000
DRAM_ENERGY_CNT:PACKAGE0 (J)    0.000008598000
DRAM_ENERGY_CNT:PACKAGE1 (J)    0.000007431000


Energy in total:
PACKAGE_ENERGY:PACKAGE0 (J) 1.234008789000
PACKAGE_ENERGY:PACKAGE1 (J) 1.140075683000
DRAM_ENERGY:PACKAGE0    (J) 0.131195068000
DRAM_ENERGY:PACKAGE1    (J) 0.113388061000

Total time (kernel x100):  0.016027000000 (s)
Power (W) 163.391002745367
=======================================================


Time consumed(ms): 16.0270000000
-------------------------------------------------------------------------------------------

with OMP_NUM_THREADS= 34 
 

Reading matrix from file /home/users/amarkou/DIPLOMA/rodinia_3.1/data/lud/64.dat
PAPI measurements:(rapl)> > > > > > > > > > > >
Counting Energy Consumption:
PACKAGE_ENERGY_CNT:PACKAGE0 (J) 0.000019862000
PACKAGE_ENERGY_CNT:PACKAGE1 (J) 0.000019380000
DRAM_ENERGY_CNT:PACKAGE0 (J)    0.000008523000
DRAM_ENERGY_CNT:PACKAGE1 (J)    0.000007358000


Energy in total:
PACKAGE_ENERGY:PACKAGE0 (J) 1.212280273000
PACKAGE_ENERGY:PACKAGE1 (J) 1.182861328000
DRAM_ENERGY:PACKAGE0    (J) 0.130050659000
DRAM_ENERGY:PACKAGE1    (J) 0.112274169000

Total time (kernel x100):  0.016323000000 (s)
Power (W) 161.579760399436
=======================================================


Time consumed(ms): 16.3230000000
-------------------------------------------------------------------------------------------

with OMP_NUM_THREADS= 36 
 

Reading matrix from file /home/users/amarkou/DIPLOMA/rodinia_3.1/data/lud/64.dat
PAPI measurements:(rapl)> > > > > > > > > > > >
Counting Energy Consumption:
PACKAGE_ENERGY_CNT:PACKAGE0 (J) 0.000018898000
PACKAGE_ENERGY_CNT:PACKAGE1 (J) 0.000018329000
DRAM_ENERGY_CNT:PACKAGE0 (J)    0.000008087000
DRAM_ENERGY_CNT:PACKAGE1 (J)    0.000007110000


Energy in total:
PACKAGE_ENERGY:PACKAGE0 (J) 1.153442382000
PACKAGE_ENERGY:PACKAGE1 (J) 1.118713378000
DRAM_ENERGY:PACKAGE0    (J) 0.123397827000
DRAM_ENERGY:PACKAGE1    (J) 0.108489990000

Total time (kernel x100):  0.015740000000 (s)
Power (W) 159.087901969504
=======================================================


Time consumed(ms): 15.7400000000
-------------------------------------------------------------------------------------------

with OMP_NUM_THREADS= 38 
 

Reading matrix from file /home/users/amarkou/DIPLOMA/rodinia_3.1/data/lud/64.dat
PAPI measurements:(rapl)> > > > > > > > > > > >
Counting Energy Consumption:
PACKAGE_ENERGY_CNT:PACKAGE0 (J) 0.000019856000
PACKAGE_ENERGY_CNT:PACKAGE1 (J) 0.000019393000
DRAM_ENERGY_CNT:PACKAGE0 (J)    0.000008481000
DRAM_ENERGY_CNT:PACKAGE1 (J)    0.000007131000


Energy in total:
PACKAGE_ENERGY:PACKAGE0 (J) 1.211914062000
PACKAGE_ENERGY:PACKAGE1 (J) 1.183654785000
DRAM_ENERGY:PACKAGE0    (J) 0.129409790000
DRAM_ENERGY:PACKAGE1    (J) 0.108810424000

Total time (kernel x100):  0.016207000000 (s)
Power (W) 162.509351576479
=======================================================


Time consumed(ms): 16.2070000000
-------------------------------------------------------------------------------------------

with OMP_NUM_THREADS= 40 
 

Reading matrix from file /home/users/amarkou/DIPLOMA/rodinia_3.1/data/lud/64.dat
PAPI measurements:(rapl)> > > > > > > > > > > >
Counting Energy Consumption:
PACKAGE_ENERGY_CNT:PACKAGE0 (J) 0.000020211000
PACKAGE_ENERGY_CNT:PACKAGE1 (J) 0.000019457000
DRAM_ENERGY_CNT:PACKAGE0 (J)    0.000008667000
DRAM_ENERGY_CNT:PACKAGE1 (J)    0.000007393000


Energy in total:
PACKAGE_ENERGY:PACKAGE0 (J) 1.233581542000
PACKAGE_ENERGY:PACKAGE1 (J) 1.187561035000
DRAM_ENERGY:PACKAGE0    (J) 0.132247924000
DRAM_ENERGY:PACKAGE1    (J) 0.112808227000

Total time (kernel x100):  0.016698000000 (s)
Power (W) 159.671740807282
=======================================================


Time consumed(ms): 16.6980000000
-------------------------------------------------------------------------------------------

with OMP_NUM_THREADS= 42 
 

Reading matrix from file /home/users/amarkou/DIPLOMA/rodinia_3.1/data/lud/64.dat
PAPI measurements:(rapl)> > > > > > > > > > > >
Counting Energy Consumption:
PACKAGE_ENERGY_CNT:PACKAGE0 (J) 0.000022973000
PACKAGE_ENERGY_CNT:PACKAGE1 (J) 0.000022155000
DRAM_ENERGY_CNT:PACKAGE0 (J)    0.000009460000
DRAM_ENERGY_CNT:PACKAGE1 (J)    0.000008427000


Energy in total:
PACKAGE_ENERGY:PACKAGE0 (J) 1.402160644000
PACKAGE_ENERGY:PACKAGE1 (J) 1.352233886000
DRAM_ENERGY:PACKAGE0    (J) 0.144348144000
DRAM_ENERGY:PACKAGE1    (J) 0.128585815000

Total time (kernel x100):  0.018323000000 (s)
Power (W) 165.220132565628
=======================================================


Time consumed(ms): 18.3230000000
-------------------------------------------------------------------------------------------

with OMP_NUM_THREADS= 44 
 

Reading matrix from file /home/users/amarkou/DIPLOMA/rodinia_3.1/data/lud/64.dat
PAPI measurements:(rapl)> > > > > > > > > > > >
Counting Energy Consumption:
PACKAGE_ENERGY_CNT:PACKAGE0 (J) 0.000031536000
PACKAGE_ENERGY_CNT:PACKAGE1 (J) 0.000031286000
DRAM_ENERGY_CNT:PACKAGE0 (J)    0.000012812000
DRAM_ENERGY_CNT:PACKAGE1 (J)    0.000011219000


Energy in total:
PACKAGE_ENERGY:PACKAGE0 (J) 1.924804687000
PACKAGE_ENERGY:PACKAGE1 (J) 1.909545898000
DRAM_ENERGY:PACKAGE0    (J) 0.195495605000
DRAM_ENERGY:PACKAGE1    (J) 0.171188354000

Total time (kernel x100):  0.026107000000 (s)
Power (W) 160.916020377676
=======================================================


Time consumed(ms): 26.1070000000
-------------------------------------------------------------------------------------------

with OMP_NUM_THREADS= 46 
 

Reading matrix from file /home/users/amarkou/DIPLOMA/rodinia_3.1/data/lud/64.dat
PAPI measurements:(rapl)> > > > > > > > > > > >
Counting Energy Consumption:
PACKAGE_ENERGY_CNT:PACKAGE0 (J) 0.000041716000
PACKAGE_ENERGY_CNT:PACKAGE1 (J) 0.000039862000
DRAM_ENERGY_CNT:PACKAGE0 (J)    0.000015645000
DRAM_ENERGY_CNT:PACKAGE1 (J)    0.000013442000


Energy in total:
PACKAGE_ENERGY:PACKAGE0 (J) 2.546142578000
PACKAGE_ENERGY:PACKAGE1 (J) 2.432983398000
DRAM_ENERGY:PACKAGE0    (J) 0.238723754000
DRAM_ENERGY:PACKAGE1    (J) 0.205108642000

Total time (kernel x100):  0.032678000000 (s)
Power (W) 165.951354795275
=======================================================


Time consumed(ms): 32.6780000000
-------------------------------------------------------------------------------------------

with OMP_NUM_THREADS= 48 
 

Reading matrix from file /home/users/amarkou/DIPLOMA/rodinia_3.1/data/lud/64.dat
PAPI measurements:(rapl)> > > > > > > > > > > >
Counting Energy Consumption:
PACKAGE_ENERGY_CNT:PACKAGE0 (J) 0.000044176000
PACKAGE_ENERGY_CNT:PACKAGE1 (J) 0.000043227000
DRAM_ENERGY_CNT:PACKAGE0 (J)    0.000017003000
DRAM_ENERGY_CNT:PACKAGE1 (J)    0.000016058000


Energy in total:
PACKAGE_ENERGY:PACKAGE0 (J) 2.696289062000
PACKAGE_ENERGY:PACKAGE1 (J) 2.638366699000
DRAM_ENERGY:PACKAGE0    (J) 0.259445190000
DRAM_ENERGY:PACKAGE1    (J) 0.238571166000

Total time (kernel x100):  0.037345000000 (s)
Power (W) 156.183481510242
=======================================================


Time consumed(ms): 37.3450000000
-------------------------------------------------------------------------------------------

with OMP_NUM_THREADS= 50 
 

Reading matrix from file /home/users/amarkou/DIPLOMA/rodinia_3.1/data/lud/64.dat
PAPI measurements:(rapl)> > > > > > > > > > > >
Counting Energy Consumption:
PACKAGE_ENERGY_CNT:PACKAGE0 (J) 0.000037069000
PACKAGE_ENERGY_CNT:PACKAGE1 (J) 0.000035746000
DRAM_ENERGY_CNT:PACKAGE0 (J)    0.000014222000
DRAM_ENERGY_CNT:PACKAGE1 (J)    0.000012590000


Energy in total:
PACKAGE_ENERGY:PACKAGE0 (J) 2.262512207000
PACKAGE_ENERGY:PACKAGE1 (J) 2.181762695000
DRAM_ENERGY:PACKAGE0    (J) 0.217010498000
DRAM_ENERGY:PACKAGE1    (J) 0.192108154000

Total time (kernel x100):  0.030434000000 (s)
Power (W) 159.472746073470
=======================================================


Time consumed(ms): 30.4340000000
-------------------------------------------------------------------------------------------

with OMP_NUM_THREADS= 52 
 

Reading matrix from file /home/users/amarkou/DIPLOMA/rodinia_3.1/data/lud/64.dat
PAPI measurements:(rapl)> > > > > > > > > > > >
Counting Energy Consumption:
PACKAGE_ENERGY_CNT:PACKAGE0 (J) 0.000058680000
PACKAGE_ENERGY_CNT:PACKAGE1 (J) 0.000056400000
DRAM_ENERGY_CNT:PACKAGE0 (J)    0.000022092000
DRAM_ENERGY_CNT:PACKAGE1 (J)    0.000017894000


Energy in total:
PACKAGE_ENERGY:PACKAGE0 (J) 3.581542968000
PACKAGE_ENERGY:PACKAGE1 (J) 3.442382812000
DRAM_ENERGY:PACKAGE0    (J) 0.337097167000
DRAM_ENERGY:PACKAGE1    (J) 0.273040771000

Total time (kernel x100):  0.048011000000 (s)
Power (W) 159.006555122784
=======================================================


Time consumed(ms): 48.0110000000
-------------------------------------------------------------------------------------------

with OMP_NUM_THREADS= 54 
 

Reading matrix from file /home/users/amarkou/DIPLOMA/rodinia_3.1/data/lud/64.dat
PAPI measurements:(rapl)> > > > > > > > > > > >
Counting Energy Consumption:
PACKAGE_ENERGY_CNT:PACKAGE0 (J) 0.000034857000
PACKAGE_ENERGY_CNT:PACKAGE1 (J) 0.000032198000
DRAM_ENERGY_CNT:PACKAGE0 (J)    0.000013400000
DRAM_ENERGY_CNT:PACKAGE1 (J)    0.000011261000


Energy in total:
PACKAGE_ENERGY:PACKAGE0 (J) 2.127502441000
PACKAGE_ENERGY:PACKAGE1 (J) 1.965209960000
DRAM_ENERGY:PACKAGE0    (J) 0.204467773000
DRAM_ENERGY:PACKAGE1    (J) 0.171829223000

Total time (kernel x100):  0.026176000000 (s)
Power (W) 170.729270973411
=======================================================


Time consumed(ms): 26.1760000000
-------------------------------------------------------------------------------------------

with OMP_NUM_THREADS= 56 
 

Reading matrix from file /home/users/amarkou/DIPLOMA/rodinia_3.1/data/lud/64.dat
PAPI measurements:(rapl)> > > > > > > > > > > >
Counting Energy Consumption:
PACKAGE_ENERGY_CNT:PACKAGE0 (J) 0.000102536000
PACKAGE_ENERGY_CNT:PACKAGE1 (J) 0.000100360000
DRAM_ENERGY_CNT:PACKAGE0 (J)    0.000036483000
DRAM_ENERGY_CNT:PACKAGE1 (J)    0.000033439000


Energy in total:
PACKAGE_ENERGY:PACKAGE0 (J) 6.258300781000
PACKAGE_ENERGY:PACKAGE1 (J) 6.125488281000
DRAM_ENERGY:PACKAGE0    (J) 0.556686401000
DRAM_ENERGY:PACKAGE1    (J) 0.510238647000

Total time (kernel x100):  0.084258000000 (s)
Power (W) 159.637234565264
=======================================================


Time consumed(ms): 84.2580000000
===========================================================================================

PROBLEM SIZE=256

----------------

with OMP_NUM_THREADS= 1 
 

Reading matrix from file /home/users/amarkou/DIPLOMA/rodinia_3.1/data/lud/256.dat
PAPI measurements:(rapl)> > > > > > > > > > > >
Counting Energy Consumption:
PACKAGE_ENERGY_CNT:PACKAGE0 (J) 0.000116591000
PACKAGE_ENERGY_CNT:PACKAGE1 (J) 0.000126021000
DRAM_ENERGY_CNT:PACKAGE0 (J)    0.000071806000
DRAM_ENERGY_CNT:PACKAGE1 (J)    0.000067545000


Energy in total:
PACKAGE_ENERGY:PACKAGE0 (J) 7.116149902000
PACKAGE_ENERGY:PACKAGE1 (J) 7.691711425000
DRAM_ENERGY:PACKAGE0    (J) 1.095672607000
DRAM_ENERGY:PACKAGE1    (J) 1.030654907000

Total time (kernel x100):  0.187743000000 (s)
Power (W) 90.198776204705
=======================================================


Time consumed(ms): 187.7430000000
-------------------------------------------------------------------------------------------

with OMP_NUM_THREADS= 2 
 

Reading matrix from file /home/users/amarkou/DIPLOMA/rodinia_3.1/data/lud/256.dat
PAPI measurements:(rapl)> > > > > > > > > > > >
Counting Energy Consumption:
PACKAGE_ENERGY_CNT:PACKAGE0 (J) 0.000083723000
PACKAGE_ENERGY_CNT:PACKAGE1 (J) 0.000104313000
DRAM_ENERGY_CNT:PACKAGE0 (J)    0.000077372000
DRAM_ENERGY_CNT:PACKAGE1 (J)    0.000058103000


Energy in total:
PACKAGE_ENERGY:PACKAGE0 (J) 5.145446777000
PACKAGE_ENERGY:PACKAGE1 (J) 6.366760253000
DRAM_ENERGY:PACKAGE0    (J) 1.180603027000
DRAM_ENERGY:PACKAGE1    (J) 0.886581420000

Total time (kernel x100):  0.145327000000 (s)
Power (W) 93.440251825194
=======================================================


Time consumed(ms): 145.3270000000
-------------------------------------------------------------------------------------------

with OMP_NUM_THREADS= 4 
 

Reading matrix from file /home/users/amarkou/DIPLOMA/rodinia_3.1/data/lud/256.dat
PAPI measurements:(rapl)> > > > > > > > > > > >
Counting Energy Consumption:
PACKAGE_ENERGY_CNT:PACKAGE0 (J) 0.000060001000
PACKAGE_ENERGY_CNT:PACKAGE1 (J) 0.000088106000
DRAM_ENERGY_CNT:PACKAGE0 (J)    0.000060805000
DRAM_ENERGY_CNT:PACKAGE1 (J)    0.000042450000


Energy in total:
PACKAGE_ENERGY:PACKAGE0 (J) 3.662170410000
PACKAGE_ENERGY:PACKAGE1 (J) 5.377563476000
DRAM_ENERGY:PACKAGE0    (J) 0.927810668000
DRAM_ENERGY:PACKAGE1    (J) 0.647735595000

Total time (kernel x100):  0.105244000000 (s)
Power (W) 100.863518575881
=======================================================


Time consumed(ms): 105.2440000000
-------------------------------------------------------------------------------------------

with OMP_NUM_THREADS= 6 
 

Reading matrix from file /home/users/amarkou/DIPLOMA/rodinia_3.1/data/lud/256.dat
PAPI measurements:(rapl)> > > > > > > > > > > >
Counting Energy Consumption:
PACKAGE_ENERGY_CNT:PACKAGE0 (J) 0.000070871000
PACKAGE_ENERGY_CNT:PACKAGE1 (J) 0.000087461000
DRAM_ENERGY_CNT:PACKAGE0 (J)    0.000067500000
DRAM_ENERGY_CNT:PACKAGE1 (J)    0.000041755000


Energy in total:
PACKAGE_ENERGY:PACKAGE0 (J) 4.325622558000
PACKAGE_ENERGY:PACKAGE1 (J) 5.338195800000
DRAM_ENERGY:PACKAGE0    (J) 1.029968261000
DRAM_ENERGY:PACKAGE1    (J) 0.637130737000

Total time (kernel x100):  0.103867000000 (s)
Power (W) 109.090638566628
=======================================================


Time consumed(ms): 103.8670000000
-------------------------------------------------------------------------------------------

with OMP_NUM_THREADS= 8 
 

Reading matrix from file /home/users/amarkou/DIPLOMA/rodinia_3.1/data/lud/256.dat
PAPI measurements:(rapl)> > > > > > > > > > > >
Counting Energy Consumption:
PACKAGE_ENERGY_CNT:PACKAGE0 (J) 0.000092958000
PACKAGE_ENERGY_CNT:PACKAGE1 (J) 0.000103332000
DRAM_ENERGY_CNT:PACKAGE0 (J)    0.000089755000
DRAM_ENERGY_CNT:PACKAGE1 (J)    0.000049625000


Energy in total:
PACKAGE_ENERGY:PACKAGE0 (J) 5.673706054000
PACKAGE_ENERGY:PACKAGE1 (J) 6.306884765000
DRAM_ENERGY:PACKAGE0    (J) 1.369552612000
DRAM_ENERGY:PACKAGE1    (J) 0.757217407000

Total time (kernel x100):  0.125145000000 (s)
Power (W) 112.728122082384
=======================================================


Time consumed(ms): 125.1450000000
-------------------------------------------------------------------------------------------

with OMP_NUM_THREADS= 10 
 

Reading matrix from file /home/users/amarkou/DIPLOMA/rodinia_3.1/data/lud/256.dat
PAPI measurements:(rapl)> > > > > > > > > > > >
Counting Energy Consumption:
PACKAGE_ENERGY_CNT:PACKAGE0 (J) 0.000112696000
PACKAGE_ENERGY_CNT:PACKAGE1 (J) 0.000112278000
DRAM_ENERGY_CNT:PACKAGE0 (J)    0.000101868000
DRAM_ENERGY_CNT:PACKAGE1 (J)    0.000054419000


Energy in total:
PACKAGE_ENERGY:PACKAGE0 (J) 6.878417968000
PACKAGE_ENERGY:PACKAGE1 (J) 6.823791503000
DRAM_ENERGY:PACKAGE0    (J) 1.554382324000
DRAM_ENERGY:PACKAGE1    (J) 0.835800170000

Total time (kernel x100):  0.138292000000 (s)
Power (W) 116.365313720244
=======================================================


Time consumed(ms): 138.2920000000
-------------------------------------------------------------------------------------------

with OMP_NUM_THREADS= 12 
 

Reading matrix from file /home/users/amarkou/DIPLOMA/rodinia_3.1/data/lud/256.dat
PAPI measurements:(rapl)> > > > > > > > > > > >
Counting Energy Consumption:
PACKAGE_ENERGY_CNT:PACKAGE0 (J) 0.000171785000
PACKAGE_ENERGY_CNT:PACKAGE1 (J) 0.000162843000
DRAM_ENERGY_CNT:PACKAGE0 (J)    0.000118170000
DRAM_ENERGY_CNT:PACKAGE1 (J)    0.000060300000


Energy in total:
PACKAGE_ENERGY:PACKAGE0 (J) 10.484924316000
PACKAGE_ENERGY:PACKAGE1 (J) 9.939147949000
DRAM_ENERGY:PACKAGE0    (J) 1.803131103000
DRAM_ENERGY:PACKAGE1    (J) 0.920104980000

Total time (kernel x100):  0.152106000000 (s)
Power (W) 152.178798653571
=======================================================


Time consumed(ms): 152.1060000000
-------------------------------------------------------------------------------------------

with OMP_NUM_THREADS= 14 
 

Reading matrix from file /home/users/amarkou/DIPLOMA/rodinia_3.1/data/lud/256.dat
PAPI measurements:(rapl)> > > > > > > > > > > >
Counting Energy Consumption:
PACKAGE_ENERGY_CNT:PACKAGE0 (J) 0.000163075000
PACKAGE_ENERGY_CNT:PACKAGE1 (J) 0.000149249000
DRAM_ENERGY_CNT:PACKAGE0 (J)    0.000111194000
DRAM_ENERGY_CNT:PACKAGE1 (J)    0.000057292000


Energy in total:
PACKAGE_ENERGY:PACKAGE0 (J) 9.953308105000
PACKAGE_ENERGY:PACKAGE1 (J) 9.109436035000
DRAM_ENERGY:PACKAGE0    (J) 1.696685791000
DRAM_ENERGY:PACKAGE1    (J) 0.874206542000

Total time (kernel x100):  0.144302000000 (s)
Power (W) 149.919172797328
=======================================================


Time consumed(ms): 144.3020000000
-------------------------------------------------------------------------------------------

with OMP_NUM_THREADS= 16 
 

Reading matrix from file /home/users/amarkou/DIPLOMA/rodinia_3.1/data/lud/256.dat
PAPI measurements:(rapl)> > > > > > > > > > > >
Counting Energy Consumption:
PACKAGE_ENERGY_CNT:PACKAGE0 (J) 0.000155139000
PACKAGE_ENERGY_CNT:PACKAGE1 (J) 0.000156944000
DRAM_ENERGY_CNT:PACKAGE0 (J)    0.000114258000
DRAM_ENERGY_CNT:PACKAGE1 (J)    0.000059683000


Energy in total:
PACKAGE_ENERGY:PACKAGE0 (J) 9.468933105000
PACKAGE_ENERGY:PACKAGE1 (J) 9.579101562000
DRAM_ENERGY:PACKAGE0    (J) 1.743438720000
DRAM_ENERGY:PACKAGE1    (J) 0.910690307000

Total time (kernel x100):  0.147788000000 (s)
Power (W) 146.846588992340
=======================================================


Time consumed(ms): 147.7880000000
-------------------------------------------------------------------------------------------

with OMP_NUM_THREADS= 18 
 

Reading matrix from file /home/users/amarkou/DIPLOMA/rodinia_3.1/data/lud/256.dat
PAPI measurements:(rapl)> > > > > > > > > > > >
Counting Energy Consumption:
PACKAGE_ENERGY_CNT:PACKAGE0 (J) 0.000159460000
PACKAGE_ENERGY_CNT:PACKAGE1 (J) 0.000177237000
DRAM_ENERGY_CNT:PACKAGE0 (J)    0.000119391000
DRAM_ENERGY_CNT:PACKAGE1 (J)    0.000059099000


Energy in total:
PACKAGE_ENERGY:PACKAGE0 (J) 9.732666015000
PACKAGE_ENERGY:PACKAGE1 (J) 10.817687988000
DRAM_ENERGY:PACKAGE0    (J) 1.821762084000
DRAM_ENERGY:PACKAGE1    (J) 0.901779174000

Total time (kernel x100):  0.153377000000 (s)
Power (W) 151.743059656924
=======================================================


Time consumed(ms): 153.3770000000
-------------------------------------------------------------------------------------------

with OMP_NUM_THREADS= 20 
 

Reading matrix from file /home/users/amarkou/DIPLOMA/rodinia_3.1/data/lud/256.dat
PAPI measurements:(rapl)> > > > > > > > > > > >
Counting Energy Consumption:
PACKAGE_ENERGY_CNT:PACKAGE0 (J) 0.000189525000
PACKAGE_ENERGY_CNT:PACKAGE1 (J) 0.000163534000
DRAM_ENERGY_CNT:PACKAGE0 (J)    0.000128111000
DRAM_ENERGY_CNT:PACKAGE1 (J)    0.000066179000


Energy in total:
PACKAGE_ENERGY:PACKAGE0 (J) 11.567687988000
PACKAGE_ENERGY:PACKAGE1 (J) 9.981323242000
DRAM_ENERGY:PACKAGE0    (J) 1.954818725000
DRAM_ENERGY:PACKAGE1    (J) 1.009811401000

Total time (kernel x100):  0.162545000000 (s)
Power (W) 150.811414414470
=======================================================


Time consumed(ms): 162.5450000000
-------------------------------------------------------------------------------------------

with OMP_NUM_THREADS= 22 
 

Reading matrix from file /home/users/amarkou/DIPLOMA/rodinia_3.1/data/lud/256.dat
PAPI measurements:(rapl)> > > > > > > > > > > >
Counting Energy Consumption:
PACKAGE_ENERGY_CNT:PACKAGE0 (J) 0.000185203000
PACKAGE_ENERGY_CNT:PACKAGE1 (J) 0.000176196000
DRAM_ENERGY_CNT:PACKAGE0 (J)    0.000124579000
DRAM_ENERGY_CNT:PACKAGE1 (J)    0.000064780000


Energy in total:
PACKAGE_ENERGY:PACKAGE0 (J) 11.303894042000
PACKAGE_ENERGY:PACKAGE1 (J) 10.754150390000
DRAM_ENERGY:PACKAGE0    (J) 1.900924682000
DRAM_ENERGY:PACKAGE1    (J) 0.988464355000

Total time (kernel x100):  0.159634000000 (s)
Power (W) 156.278947273137
=======================================================


Time consumed(ms): 159.6340000000
-------------------------------------------------------------------------------------------

with OMP_NUM_THREADS= 24 
 

Reading matrix from file /home/users/amarkou/DIPLOMA/rodinia_3.1/data/lud/256.dat
PAPI measurements:(rapl)> > > > > > > > > > > >
Counting Energy Consumption:
PACKAGE_ENERGY_CNT:PACKAGE0 (J) 0.000200471000
PACKAGE_ENERGY_CNT:PACKAGE1 (J) 0.000190382000
DRAM_ENERGY_CNT:PACKAGE0 (J)    0.000120714000
DRAM_ENERGY_CNT:PACKAGE1 (J)    0.000063456000


Energy in total:
PACKAGE_ENERGY:PACKAGE0 (J) 12.235778808000
PACKAGE_ENERGY:PACKAGE1 (J) 11.619995117000
DRAM_ENERGY:PACKAGE0    (J) 1.841949462000
DRAM_ENERGY:PACKAGE1    (J) 0.968261718000

Total time (kernel x100):  0.155082000000 (s)
Power (W) 171.947647728299
=======================================================


Time consumed(ms): 155.0820000000
-------------------------------------------------------------------------------------------

with OMP_NUM_THREADS= 26 
 

Reading matrix from file /home/users/amarkou/DIPLOMA/rodinia_3.1/data/lud/256.dat
PAPI measurements:(rapl)> > > > > > > > > > > >
Counting Energy Consumption:
PACKAGE_ENERGY_CNT:PACKAGE0 (J) 0.000213909000
PACKAGE_ENERGY_CNT:PACKAGE1 (J) 0.000194768000
DRAM_ENERGY_CNT:PACKAGE0 (J)    0.000125034000
DRAM_ENERGY_CNT:PACKAGE1 (J)    0.000058143000


Energy in total:
PACKAGE_ENERGY:PACKAGE0 (J) 13.055969238000
PACKAGE_ENERGY:PACKAGE1 (J) 11.887695312000
DRAM_ENERGY:PACKAGE0    (J) 1.907867431000
DRAM_ENERGY:PACKAGE1    (J) 0.887191772000

Total time (kernel x100):  0.158872000000 (s)
Power (W) 174.597938925676
=======================================================


Time consumed(ms): 158.8720000000
-------------------------------------------------------------------------------------------

with OMP_NUM_THREADS= 28 
 

Reading matrix from file /home/users/amarkou/DIPLOMA/rodinia_3.1/data/lud/256.dat
PAPI measurements:(rapl)> > > > > > > > > > > >
Counting Energy Consumption:
PACKAGE_ENERGY_CNT:PACKAGE0 (J) 0.000210491000
PACKAGE_ENERGY_CNT:PACKAGE1 (J) 0.000200661000
DRAM_ENERGY_CNT:PACKAGE0 (J)    0.000122168000
DRAM_ENERGY_CNT:PACKAGE1 (J)    0.000064419000


Energy in total:
PACKAGE_ENERGY:PACKAGE0 (J) 12.847351074000
PACKAGE_ENERGY:PACKAGE1 (J) 12.247375488000
DRAM_ENERGY:PACKAGE0    (J) 1.864135742000
DRAM_ENERGY:PACKAGE1    (J) 0.982955932000

Total time (kernel x100):  0.157296000000 (s)
Power (W) 177.638453844980
=======================================================


Time consumed(ms): 157.2960000000
-------------------------------------------------------------------------------------------

with OMP_NUM_THREADS= 30 
 

Reading matrix from file /home/users/amarkou/DIPLOMA/rodinia_3.1/data/lud/256.dat
PAPI measurements:(rapl)> > > > > > > > > > > >
Counting Energy Consumption:
PACKAGE_ENERGY_CNT:PACKAGE0 (J) 0.000211984000
PACKAGE_ENERGY_CNT:PACKAGE1 (J) 0.000204343000
DRAM_ENERGY_CNT:PACKAGE0 (J)    0.000123087000
DRAM_ENERGY_CNT:PACKAGE1 (J)    0.000065669000


Energy in total:
PACKAGE_ENERGY:PACKAGE0 (J) 12.938476562000
PACKAGE_ENERGY:PACKAGE1 (J) 12.472106933000
DRAM_ENERGY:PACKAGE0    (J) 1.878158569000
DRAM_ENERGY:PACKAGE1    (J) 1.002029418000

Total time (kernel x100):  0.159563000000 (s)
Power (W) 177.301576693845
=======================================================


Time consumed(ms): 159.5630000000
-------------------------------------------------------------------------------------------

with OMP_NUM_THREADS= 32 
 

Reading matrix from file /home/users/amarkou/DIPLOMA/rodinia_3.1/data/lud/256.dat
PAPI measurements:(rapl)> > > > > > > > > > > >
Counting Energy Consumption:
PACKAGE_ENERGY_CNT:PACKAGE0 (J) 0.000211283000
PACKAGE_ENERGY_CNT:PACKAGE1 (J) 0.000200012000
DRAM_ENERGY_CNT:PACKAGE0 (J)    0.000122314000
DRAM_ENERGY_CNT:PACKAGE1 (J)    0.000064482000


Energy in total:
PACKAGE_ENERGY:PACKAGE0 (J) 12.895690917000
PACKAGE_ENERGY:PACKAGE1 (J) 12.207763671000
DRAM_ENERGY:PACKAGE0    (J) 1.866363525000
DRAM_ENERGY:PACKAGE1    (J) 0.983917236000

Total time (kernel x100):  0.158896000000 (s)
Power (W) 175.924726544406
=======================================================


Time consumed(ms): 158.8960000000
-------------------------------------------------------------------------------------------

with OMP_NUM_THREADS= 34 
 

Reading matrix from file /home/users/amarkou/DIPLOMA/rodinia_3.1/data/lud/256.dat
PAPI measurements:(rapl)> > > > > > > > > > > >
Counting Energy Consumption:
PACKAGE_ENERGY_CNT:PACKAGE0 (J) 0.000210855000
PACKAGE_ENERGY_CNT:PACKAGE1 (J) 0.000212715000
DRAM_ENERGY_CNT:PACKAGE0 (J)    0.000123490000
DRAM_ENERGY_CNT:PACKAGE1 (J)    0.000065726000


Energy in total:
PACKAGE_ENERGY:PACKAGE0 (J) 12.869567871000
PACKAGE_ENERGY:PACKAGE1 (J) 12.983093261000
DRAM_ENERGY:PACKAGE0    (J) 1.884307861000
DRAM_ENERGY:PACKAGE1    (J) 1.002899169000

Total time (kernel x100):  0.166708000000 (s)
Power (W) 172.396454651247
=======================================================


Time consumed(ms): 166.7080000000
-------------------------------------------------------------------------------------------

with OMP_NUM_THREADS= 36 
 

Reading matrix from file /home/users/amarkou/DIPLOMA/rodinia_3.1/data/lud/256.dat
PAPI measurements:(rapl)> > > > > > > > > > > >
Counting Energy Consumption:
PACKAGE_ENERGY_CNT:PACKAGE0 (J) 0.000217879000
PACKAGE_ENERGY_CNT:PACKAGE1 (J) 0.000207630000
DRAM_ENERGY_CNT:PACKAGE0 (J)    0.000125124000
DRAM_ENERGY_CNT:PACKAGE1 (J)    0.000063977000


Energy in total:
PACKAGE_ENERGY:PACKAGE0 (J) 13.298278808000
PACKAGE_ENERGY:PACKAGE1 (J) 12.672729492000
DRAM_ENERGY:PACKAGE0    (J) 1.909240722000
DRAM_ENERGY:PACKAGE1    (J) 0.976211547000

Total time (kernel x100):  0.163161000000 (s)
Power (W) 176.858811658423
=======================================================


Time consumed(ms): 163.1610000000
-------------------------------------------------------------------------------------------

with OMP_NUM_THREADS= 38 
 

Reading matrix from file /home/users/amarkou/DIPLOMA/rodinia_3.1/data/lud/256.dat
PAPI measurements:(rapl)> > > > > > > > > > > >
Counting Energy Consumption:
PACKAGE_ENERGY_CNT:PACKAGE0 (J) 0.000231914000
PACKAGE_ENERGY_CNT:PACKAGE1 (J) 0.000221792000
DRAM_ENERGY_CNT:PACKAGE0 (J)    0.000131552000
DRAM_ENERGY_CNT:PACKAGE1 (J)    0.000069084000


Energy in total:
PACKAGE_ENERGY:PACKAGE0 (J) 14.154907226000
PACKAGE_ENERGY:PACKAGE1 (J) 13.537109375000
DRAM_ENERGY:PACKAGE0    (J) 2.007324218000
DRAM_ENERGY:PACKAGE1    (J) 1.054138183000

Total time (kernel x100):  0.172693000000 (s)
Power (W) 178.081792556734
=======================================================


Time consumed(ms): 172.6930000000
-------------------------------------------------------------------------------------------

with OMP_NUM_THREADS= 40 
 

Reading matrix from file /home/users/amarkou/DIPLOMA/rodinia_3.1/data/lud/256.dat
PAPI measurements:(rapl)> > > > > > > > > > > >
Counting Energy Consumption:
PACKAGE_ENERGY_CNT:PACKAGE0 (J) 0.000218371000
PACKAGE_ENERGY_CNT:PACKAGE1 (J) 0.000210919000
DRAM_ENERGY_CNT:PACKAGE0 (J)    0.000126025000
DRAM_ENERGY_CNT:PACKAGE1 (J)    0.000063331000


Energy in total:
PACKAGE_ENERGY:PACKAGE0 (J) 13.328308105000
PACKAGE_ENERGY:PACKAGE1 (J) 12.873474121000
DRAM_ENERGY:PACKAGE0    (J) 1.922988891000
DRAM_ENERGY:PACKAGE1    (J) 0.966354370000

Total time (kernel x100):  0.164837000000 (s)
Power (W) 176.484196430413
=======================================================


Time consumed(ms): 164.8370000000
-------------------------------------------------------------------------------------------

with OMP_NUM_THREADS= 42 
 

Reading matrix from file /home/users/amarkou/DIPLOMA/rodinia_3.1/data/lud/256.dat
PAPI measurements:(rapl)> > > > > > > > > > > >
Counting Energy Consumption:
PACKAGE_ENERGY_CNT:PACKAGE0 (J) 0.000231252000
PACKAGE_ENERGY_CNT:PACKAGE1 (J) 0.000220931000
DRAM_ENERGY_CNT:PACKAGE0 (J)    0.000128328000
DRAM_ENERGY_CNT:PACKAGE1 (J)    0.000066767000


Energy in total:
PACKAGE_ENERGY:PACKAGE0 (J) 14.114501953000
PACKAGE_ENERGY:PACKAGE1 (J) 13.484558105000
DRAM_ENERGY:PACKAGE0    (J) 1.958129882000
DRAM_ENERGY:PACKAGE1    (J) 1.018783569000

Total time (kernel x100):  0.170555000000 (s)
Power (W) 179.273392799977
=======================================================


Time consumed(ms): 170.5550000000
-------------------------------------------------------------------------------------------

with OMP_NUM_THREADS= 44 
 

Reading matrix from file /home/users/amarkou/DIPLOMA/rodinia_3.1/data/lud/256.dat
PAPI measurements:(rapl)> > > > > > > > > > > >
Counting Energy Consumption:
PACKAGE_ENERGY_CNT:PACKAGE0 (J) 0.000235618000
PACKAGE_ENERGY_CNT:PACKAGE1 (J) 0.000225188000
DRAM_ENERGY_CNT:PACKAGE0 (J)    0.000128621000
DRAM_ENERGY_CNT:PACKAGE1 (J)    0.000063740000


Energy in total:
PACKAGE_ENERGY:PACKAGE0 (J) 14.380981445000
PACKAGE_ENERGY:PACKAGE1 (J) 13.744384765000
DRAM_ENERGY:PACKAGE0    (J) 1.962600708000
DRAM_ENERGY:PACKAGE1    (J) 0.972595214000

Total time (kernel x100):  0.175639000000 (s)
Power (W) 176.843196169416
=======================================================


Time consumed(ms): 175.6390000000
-------------------------------------------------------------------------------------------

with OMP_NUM_THREADS= 46 
 

Reading matrix from file /home/users/amarkou/DIPLOMA/rodinia_3.1/data/lud/256.dat
PAPI measurements:(rapl)> > > > > > > > > > > >
Counting Energy Consumption:
PACKAGE_ENERGY_CNT:PACKAGE0 (J) 0.000252087000
PACKAGE_ENERGY_CNT:PACKAGE1 (J) 0.000243834000
DRAM_ENERGY_CNT:PACKAGE0 (J)    0.000138269000
DRAM_ENERGY_CNT:PACKAGE1 (J)    0.000071524000


Energy in total:
PACKAGE_ENERGY:PACKAGE0 (J) 15.386169433000
PACKAGE_ENERGY:PACKAGE1 (J) 14.882446289000
DRAM_ENERGY:PACKAGE0    (J) 2.109817504000
DRAM_ENERGY:PACKAGE1    (J) 1.091369628000

Total time (kernel x100):  0.186666000000 (s)
Power (W) 179.303155657699
=======================================================


Time consumed(ms): 186.6660000000
-------------------------------------------------------------------------------------------

with OMP_NUM_THREADS= 48 
 

Reading matrix from file /home/users/amarkou/DIPLOMA/rodinia_3.1/data/lud/256.dat
PAPI measurements:(rapl)> > > > > > > > > > > >
Counting Energy Consumption:
PACKAGE_ENERGY_CNT:PACKAGE0 (J) 0.000264750000
PACKAGE_ENERGY_CNT:PACKAGE1 (J) 0.000250182000
DRAM_ENERGY_CNT:PACKAGE0 (J)    0.000137875000
DRAM_ENERGY_CNT:PACKAGE1 (J)    0.000073805000


Energy in total:
PACKAGE_ENERGY:PACKAGE0 (J) 16.159057617000
PACKAGE_ENERGY:PACKAGE1 (J) 15.269897460000
DRAM_ENERGY:PACKAGE0    (J) 2.103805541000
DRAM_ENERGY:PACKAGE1    (J) 1.126174926000

Total time (kernel x100):  0.199598000000 (s)
Power (W) 173.643701560136
=======================================================


Time consumed(ms): 199.5980000000
-------------------------------------------------------------------------------------------

with OMP_NUM_THREADS= 50 
 

Reading matrix from file /home/users/amarkou/DIPLOMA/rodinia_3.1/data/lud/256.dat
PAPI measurements:(rapl)> > > > > > > > > > > >
Counting Energy Consumption:
PACKAGE_ENERGY_CNT:PACKAGE0 (J) 0.000248173000
PACKAGE_ENERGY_CNT:PACKAGE1 (J) 0.000243501000
DRAM_ENERGY_CNT:PACKAGE0 (J)    0.000130504000
DRAM_ENERGY_CNT:PACKAGE1 (J)    0.000070025000


Energy in total:
PACKAGE_ENERGY:PACKAGE0 (J) 15.147277832000
PACKAGE_ENERGY:PACKAGE1 (J) 14.862121582000
DRAM_ENERGY:PACKAGE0    (J) 1.991333007000
DRAM_ENERGY:PACKAGE1    (J) 1.068496704000

Total time (kernel x100):  0.185043000000 (s)
Power (W) 178.711051620434
=======================================================


Time consumed(ms): 185.0430000000
-------------------------------------------------------------------------------------------

with OMP_NUM_THREADS= 52 
 

Reading matrix from file /home/users/amarkou/DIPLOMA/rodinia_3.1/data/lud/256.dat
PAPI measurements:(rapl)> > > > > > > > > > > >
Counting Energy Consumption:
PACKAGE_ENERGY_CNT:PACKAGE0 (J) 0.000274744000
PACKAGE_ENERGY_CNT:PACKAGE1 (J) 0.000262209000
DRAM_ENERGY_CNT:PACKAGE0 (J)    0.000135402000
DRAM_ENERGY_CNT:PACKAGE1 (J)    0.000079478000


Energy in total:
PACKAGE_ENERGY:PACKAGE0 (J) 16.769042968000
PACKAGE_ENERGY:PACKAGE1 (J) 16.003967285000
DRAM_ENERGY:PACKAGE0    (J) 2.066070556000
DRAM_ENERGY:PACKAGE1    (J) 1.212738037000

Total time (kernel x100):  0.201269000000 (s)
Power (W) 179.122561576795
=======================================================


Time consumed(ms): 201.2690000000
-------------------------------------------------------------------------------------------

with OMP_NUM_THREADS= 54 
 

Reading matrix from file /home/users/amarkou/DIPLOMA/rodinia_3.1/data/lud/256.dat
PAPI measurements:(rapl)> > > > > > > > > > > >
Counting Energy Consumption:
PACKAGE_ENERGY_CNT:PACKAGE0 (J) 0.000301185000
PACKAGE_ENERGY_CNT:PACKAGE1 (J) 0.000282315000
DRAM_ENERGY_CNT:PACKAGE0 (J)    0.000147719000
DRAM_ENERGY_CNT:PACKAGE1 (J)    0.000089185000


Energy in total:
PACKAGE_ENERGY:PACKAGE0 (J) 18.382873535000
PACKAGE_ENERGY:PACKAGE1 (J) 17.231140136000
DRAM_ENERGY:PACKAGE0    (J) 2.254013061000
DRAM_ENERGY:PACKAGE1    (J) 1.360855102000

Total time (kernel x100):  0.224274000000 (s)
Power (W) 174.914978258737
=======================================================


Time consumed(ms): 224.2740000000
-------------------------------------------------------------------------------------------

with OMP_NUM_THREADS= 56 
 

Reading matrix from file /home/users/amarkou/DIPLOMA/rodinia_3.1/data/lud/256.dat
PAPI measurements:(rapl)> > > > > > > > > > > >
Counting Energy Consumption:
PACKAGE_ENERGY_CNT:PACKAGE0 (J) 0.000415292000
PACKAGE_ENERGY_CNT:PACKAGE1 (J) 0.000420926000
DRAM_ENERGY_CNT:PACKAGE0 (J)    0.000194183000
DRAM_ENERGY_CNT:PACKAGE1 (J)    0.000127555000


Energy in total:
PACKAGE_ENERGY:PACKAGE0 (J) 25.347412109000
PACKAGE_ENERGY:PACKAGE1 (J) 25.691284179000
DRAM_ENERGY:PACKAGE0    (J) 2.956558227000
DRAM_ENERGY:PACKAGE1    (J) 1.946334838000

Total time (kernel x100):  0.335659000000 (s)
Power (W) 166.661967511671
=======================================================


Time consumed(ms): 335.6590000000
============================================================================================

PROBLEM SIZE=512

----------------

with OMP_NUM_THREADS= 1 
 

Reading matrix from file /home/users/amarkou/DIPLOMA/rodinia_3.1/data/lud/512.dat
PAPI measurements:(rapl)> > > > > > > > > > > >
Counting Energy Consumption:
PACKAGE_ENERGY_CNT:PACKAGE0 (J) 0.000721078000
PACKAGE_ENERGY_CNT:PACKAGE1 (J) 0.000604941000
DRAM_ENERGY_CNT:PACKAGE0 (J)    0.000509964000
DRAM_ENERGY_CNT:PACKAGE1 (J)    0.000451542000


Energy in total:
PACKAGE_ENERGY:PACKAGE0 (J) 43.978698730000
PACKAGE_ENERGY:PACKAGE1 (J) 36.922668457000
DRAM_ENERGY:PACKAGE0    (J) 7.781433105000
DRAM_ENERGY:PACKAGE1    (J) 6.889984130000

Total time (kernel x100):  1.347944000000 (s)
Power (W) 70.902637217867
=======================================================


Time consumed(ms): 1347.9440000000
--------------------------------------------------------------------------------------------

with OMP_NUM_THREADS= 2 
 

Reading matrix from file /home/users/amarkou/DIPLOMA/rodinia_3.1/data/lud/512.dat
PAPI measurements:(rapl)> > > > > > > > > > > >
Counting Energy Consumption:
PACKAGE_ENERGY_CNT:PACKAGE0 (J) 0.000646173000
PACKAGE_ENERGY_CNT:PACKAGE1 (J) 0.000668838000
DRAM_ENERGY_CNT:PACKAGE0 (J)    0.000361185000
DRAM_ENERGY_CNT:PACKAGE1 (J)    0.000305259000


Energy in total:
PACKAGE_ENERGY:PACKAGE0 (J) 39.439270019000
PACKAGE_ENERGY:PACKAGE1 (J) 40.822631835000
DRAM_ENERGY:PACKAGE0    (J) 5.511245727000
DRAM_ENERGY:PACKAGE1    (J) 4.657882690000

Total time (kernel x100):  0.777503000000 (s)
Power (W) 116.309557996561
=======================================================


Time consumed(ms): 777.5030000000
--------------------------------------------------------------------------------------------

with OMP_NUM_THREADS= 4 
 

Reading matrix from file /home/users/amarkou/DIPLOMA/rodinia_3.1/data/lud/512.dat
PAPI measurements:(rapl)> > > > > > > > > > > >
Counting Energy Consumption:
PACKAGE_ENERGY_CNT:PACKAGE0 (J) 0.000418431000
PACKAGE_ENERGY_CNT:PACKAGE1 (J) 0.000432677000
DRAM_ENERGY_CNT:PACKAGE0 (J)    0.000240515000
DRAM_ENERGY_CNT:PACKAGE1 (J)    0.000187030000


Energy in total:
PACKAGE_ENERGY:PACKAGE0 (J) 25.539001464000
PACKAGE_ENERGY:PACKAGE1 (J) 26.408508300000
DRAM_ENERGY:PACKAGE0    (J) 3.669967651000
DRAM_ENERGY:PACKAGE1    (J) 2.853851318000

Total time (kernel x100):  0.464441000000 (s)
Power (W) 125.896139085481
=======================================================


Time consumed(ms): 464.4410000000
--------------------------------------------------------------------------------------------

with OMP_NUM_THREADS= 6 
 

Reading matrix from file /home/users/amarkou/DIPLOMA/rodinia_3.1/data/lud/512.dat
PAPI measurements:(rapl)> > > > > > > > > > > >
Counting Energy Consumption:
PACKAGE_ENERGY_CNT:PACKAGE0 (J) 0.000390110000
PACKAGE_ENERGY_CNT:PACKAGE1 (J) 0.000380602000
DRAM_ENERGY_CNT:PACKAGE0 (J)    0.000234057000
DRAM_ENERGY_CNT:PACKAGE1 (J)    0.000147066000


Energy in total:
PACKAGE_ENERGY:PACKAGE0 (J) 23.810424804000
PACKAGE_ENERGY:PACKAGE1 (J) 23.230102539000
DRAM_ENERGY:PACKAGE0    (J) 3.571426391000
DRAM_ENERGY:PACKAGE1    (J) 2.244049072000

Total time (kernel x100):  0.387280000000 (s)
Power (W) 136.480073347449
=======================================================


Time consumed(ms): 387.2800000000
--------------------------------------------------------------------------------------------

with OMP_NUM_THREADS= 8 
 

Reading matrix from file /home/users/amarkou/DIPLOMA/rodinia_3.1/data/lud/512.dat
PAPI measurements:(rapl)> > > > > > > > > > > >
Counting Energy Consumption:
PACKAGE_ENERGY_CNT:PACKAGE0 (J) 0.000375518000
PACKAGE_ENERGY_CNT:PACKAGE1 (J) 0.000379113000
DRAM_ENERGY_CNT:PACKAGE0 (J)    0.000250786000
DRAM_ENERGY_CNT:PACKAGE1 (J)    0.000150981000


Energy in total:
PACKAGE_ENERGY:PACKAGE0 (J) 22.919799804000
PACKAGE_ENERGY:PACKAGE1 (J) 23.139221191000
DRAM_ENERGY:PACKAGE0    (J) 3.826690673000
DRAM_ENERGY:PACKAGE1    (J) 2.303787231000

Total time (kernel x100):  0.375434000000 (s)
Power (W) 139.011114867061
=======================================================


Time consumed(ms): 375.4340000000
--------------------------------------------------------------------------------------------

with OMP_NUM_THREADS= 10 
 

Reading matrix from file /home/users/amarkou/DIPLOMA/rodinia_3.1/data/lud/512.dat
PAPI measurements:(rapl)> > > > > > > > > > > >
Counting Energy Consumption:
PACKAGE_ENERGY_CNT:PACKAGE0 (J) 0.000364404000
PACKAGE_ENERGY_CNT:PACKAGE1 (J) 0.000377027000
DRAM_ENERGY_CNT:PACKAGE0 (J)    0.000271216000
DRAM_ENERGY_CNT:PACKAGE1 (J)    0.000139497000


Energy in total:
PACKAGE_ENERGY:PACKAGE0 (J) 22.241455078000
PACKAGE_ENERGY:PACKAGE1 (J) 23.011901855000
DRAM_ENERGY:PACKAGE0    (J) 4.138427734000
DRAM_ENERGY:PACKAGE1    (J) 2.128555297000

Total time (kernel x100):  0.371949000000 (s)
Power (W) 138.514527432524
=======================================================


Time consumed(ms): 371.9490000000
--------------------------------------------------------------------------------------------

with OMP_NUM_THREADS= 12 
 

Reading matrix from file /home/users/amarkou/DIPLOMA/rodinia_3.1/data/lud/512.dat
PAPI measurements:(rapl)> > > > > > > > > > > >
Counting Energy Consumption:
PACKAGE_ENERGY_CNT:PACKAGE0 (J) 0.000396940000
PACKAGE_ENERGY_CNT:PACKAGE1 (J) 0.000390590000
DRAM_ENERGY_CNT:PACKAGE0 (J)    0.000269079000
DRAM_ENERGY_CNT:PACKAGE1 (J)    0.000141276000


Energy in total:
PACKAGE_ENERGY:PACKAGE0 (J) 24.227294921000
PACKAGE_ENERGY:PACKAGE1 (J) 23.839721679000
DRAM_ENERGY:PACKAGE0    (J) 4.105819702000
DRAM_ENERGY:PACKAGE1    (J) 2.155700683000

Total time (kernel x100):  0.353609000000 (s)
Power (W) 153.640142035412
=======================================================


Time consumed(ms): 353.6090000000
--------------------------------------------------------------------------------------------

with OMP_NUM_THREADS= 14 
 

Reading matrix from file /home/users/amarkou/DIPLOMA/rodinia_3.1/data/lud/512.dat
PAPI measurements:(rapl)> > > > > > > > > > > >
Counting Energy Consumption:
PACKAGE_ENERGY_CNT:PACKAGE0 (J) 0.000419544000
PACKAGE_ENERGY_CNT:PACKAGE1 (J) 0.000373020000
DRAM_ENERGY_CNT:PACKAGE0 (J)    0.000276906000
DRAM_ENERGY_CNT:PACKAGE1 (J)    0.000142783000


Energy in total:
PACKAGE_ENERGY:PACKAGE0 (J) 25.606933593000
PACKAGE_ENERGY:PACKAGE1 (J) 22.767333984000
DRAM_ENERGY:PACKAGE0    (J) 4.225250244000
DRAM_ENERGY:PACKAGE1    (J) 2.178695678000

Total time (kernel x100):  0.350145000000 (s)
Power (W) 156.444368758657
=======================================================


Time consumed(ms): 350.1450000000
--------------------------------------------------------------------------------------------

with OMP_NUM_THREADS= 16 
 

Reading matrix from file /home/users/amarkou/DIPLOMA/rodinia_3.1/data/lud/512.dat
PAPI measurements:(rapl)> > > > > > > > > > > >
Counting Energy Consumption:
PACKAGE_ENERGY_CNT:PACKAGE0 (J) 0.000445125000
PACKAGE_ENERGY_CNT:PACKAGE1 (J) 0.000424228000
DRAM_ENERGY_CNT:PACKAGE0 (J)    0.000288099000
DRAM_ENERGY_CNT:PACKAGE1 (J)    0.000138412000


Energy in total:
PACKAGE_ENERGY:PACKAGE0 (J) 27.168273925000
PACKAGE_ENERGY:PACKAGE1 (J) 25.892822265000
DRAM_ENERGY:PACKAGE0    (J) 4.396041870000
DRAM_ENERGY:PACKAGE1    (J) 2.111999511000

Total time (kernel x100):  0.362206000000 (s)
Power (W) 164.462039753621
=======================================================


Time consumed(ms): 362.2060000000
--------------------------------------------------------------------------------------------

with OMP_NUM_THREADS= 18 
 

Reading matrix from file /home/users/amarkou/DIPLOMA/rodinia_3.1/data/lud/512.dat
PAPI measurements:(rapl)> > > > > > > > > > > >
Counting Energy Consumption:
PACKAGE_ENERGY_CNT:PACKAGE0 (J) 0.000446964000
PACKAGE_ENERGY_CNT:PACKAGE1 (J) 0.000448897000
DRAM_ENERGY_CNT:PACKAGE0 (J)    0.000307423000
DRAM_ENERGY_CNT:PACKAGE1 (J)    0.000147985000


Energy in total:
PACKAGE_ENERGY:PACKAGE0 (J) 27.280517578000
PACKAGE_ENERGY:PACKAGE1 (J) 27.398498535000
DRAM_ENERGY:PACKAGE0    (J) 4.690902709000
DRAM_ENERGY:PACKAGE1    (J) 2.258071899000

Total time (kernel x100):  0.374336000000 (s)
Power (W) 164.632818433172
=======================================================


Time consumed(ms): 374.3360000000
--------------------------------------------------------------------------------------------

with OMP_NUM_THREADS= 20 
 

Reading matrix from file /home/users/amarkou/DIPLOMA/rodinia_3.1/data/lud/512.dat
PAPI measurements:(rapl)> > > > > > > > > > > >
Counting Energy Consumption:
PACKAGE_ENERGY_CNT:PACKAGE0 (J) 0.000469961000
PACKAGE_ENERGY_CNT:PACKAGE1 (J) 0.000425819000
DRAM_ENERGY_CNT:PACKAGE0 (J)    0.000311763000
DRAM_ENERGY_CNT:PACKAGE1 (J)    0.000151121000


Energy in total:
PACKAGE_ENERGY:PACKAGE0 (J) 28.684143066000
PACKAGE_ENERGY:PACKAGE1 (J) 25.989929199000
DRAM_ENERGY:PACKAGE0    (J) 4.757125854000
DRAM_ENERGY:PACKAGE1    (J) 2.305923461000

Total time (kernel x100):  0.372131000000 (s)
Power (W) 165.901581916046
=======================================================


Time consumed(ms): 372.1310000000
--------------------------------------------------------------------------------------------

with OMP_NUM_THREADS= 22 
 

Reading matrix from file /home/users/amarkou/DIPLOMA/rodinia_3.1/data/lud/512.dat
PAPI measurements:(rapl)> > > > > > > > > > > >
Counting Energy Consumption:
PACKAGE_ENERGY_CNT:PACKAGE0 (J) 0.000512249000
PACKAGE_ENERGY_CNT:PACKAGE1 (J) 0.000470899000
DRAM_ENERGY_CNT:PACKAGE0 (J)    0.000329986000
DRAM_ENERGY_CNT:PACKAGE1 (J)    0.000147519000


Energy in total:
PACKAGE_ENERGY:PACKAGE0 (J) 31.265197753000
PACKAGE_ENERGY:PACKAGE1 (J) 28.741394042000
DRAM_ENERGY:PACKAGE0    (J) 5.035186767000
DRAM_ENERGY:PACKAGE1    (J) 2.250961303000

Total time (kernel x100):  0.385800000000 (s)
Power (W) 174.423898043027
=======================================================


Time consumed(ms): 385.8000000000
--------------------------------------------------------------------------------------------

with OMP_NUM_THREADS= 24 
 

Reading matrix from file /home/users/amarkou/DIPLOMA/rodinia_3.1/data/lud/512.dat
PAPI measurements:(rapl)> > > > > > > > > > > >
Counting Energy Consumption:
PACKAGE_ENERGY_CNT:PACKAGE0 (J) 0.000533217000
PACKAGE_ENERGY_CNT:PACKAGE1 (J) 0.000491980000
DRAM_ENERGY_CNT:PACKAGE0 (J)    0.000337480000
DRAM_ENERGY_CNT:PACKAGE1 (J)    0.000159979000


Energy in total:
PACKAGE_ENERGY:PACKAGE0 (J) 32.544982910000
PACKAGE_ENERGY:PACKAGE1 (J) 30.028076171000
DRAM_ENERGY:PACKAGE0    (J) 5.149536132000
DRAM_ENERGY:PACKAGE1    (J) 2.441085815000

Total time (kernel x100):  0.393823000000 (s)
Power (W) 178.160445245707
=======================================================


Time consumed(ms): 393.8230000000
--------------------------------------------------------------------------------------------

with OMP_NUM_THREADS= 26 
 

Reading matrix from file /home/users/amarkou/DIPLOMA/rodinia_3.1/data/lud/512.dat
PAPI measurements:(rapl)> > > > > > > > > > > >
Counting Energy Consumption:
PACKAGE_ENERGY_CNT:PACKAGE0 (J) 0.000535780000
PACKAGE_ENERGY_CNT:PACKAGE1 (J) 0.000507106000
DRAM_ENERGY_CNT:PACKAGE0 (J)    0.000331802000
DRAM_ENERGY_CNT:PACKAGE1 (J)    0.000159494000


Energy in total:
PACKAGE_ENERGY:PACKAGE0 (J) 32.701416015000
PACKAGE_ENERGY:PACKAGE1 (J) 30.951293945000
DRAM_ENERGY:PACKAGE0    (J) 5.062896728000
DRAM_ENERGY:PACKAGE1    (J) 2.433685302000

Total time (kernel x100):  0.390298000000 (s)
Power (W) 182.294790109096
=======================================================


Time consumed(ms): 390.2980000000
--------------------------------------------------------------------------------------------

with OMP_NUM_THREADS= 28 
 

Reading matrix from file /home/users/amarkou/DIPLOMA/rodinia_3.1/data/lud/512.dat
PAPI measurements:(rapl)> > > > > > > > > > > >
Counting Energy Consumption:
PACKAGE_ENERGY_CNT:PACKAGE0 (J) 0.000560155000
PACKAGE_ENERGY_CNT:PACKAGE1 (J) 0.000530529000
DRAM_ENERGY_CNT:PACKAGE0 (J)    0.000356241000
DRAM_ENERGY_CNT:PACKAGE1 (J)    0.000164310000


Energy in total:
PACKAGE_ENERGY:PACKAGE0 (J) 34.189147949000
PACKAGE_ENERGY:PACKAGE1 (J) 32.380920410000
DRAM_ENERGY:PACKAGE0    (J) 5.435806274000
DRAM_ENERGY:PACKAGE1    (J) 2.507171630000

Total time (kernel x100):  0.400855000000 (s)
Power (W) 185.885285858976
=======================================================


Time consumed(ms): 400.8550000000
--------------------------------------------------------------------------------------------

with OMP_NUM_THREADS= 30 
 

Reading matrix from file /home/users/amarkou/DIPLOMA/rodinia_3.1/data/lud/512.dat
PAPI measurements:(rapl)> > > > > > > > > > > >
Counting Energy Consumption:
PACKAGE_ENERGY_CNT:PACKAGE0 (J) 0.000574579000
PACKAGE_ENERGY_CNT:PACKAGE1 (J) 0.000549298000
DRAM_ENERGY_CNT:PACKAGE0 (J)    0.000354712000
DRAM_ENERGY_CNT:PACKAGE1 (J)    0.000167393000


Energy in total:
PACKAGE_ENERGY:PACKAGE0 (J) 35.069519042000
PACKAGE_ENERGY:PACKAGE1 (J) 33.526489257000
DRAM_ENERGY:PACKAGE0    (J) 5.412475585000
DRAM_ENERGY:PACKAGE1    (J) 2.554214477000

Total time (kernel x100):  0.416229000000 (s)
Power (W) 183.943690518921
=======================================================


Time consumed(ms): 416.2290000000
--------------------------------------------------------------------------------------------

with OMP_NUM_THREADS= 32 
 

Reading matrix from file /home/users/amarkou/DIPLOMA/rodinia_3.1/data/lud/512.dat
PAPI measurements:(rapl)> > > > > > > > > > > >
Counting Energy Consumption:
PACKAGE_ENERGY_CNT:PACKAGE0 (J) 0.000566570000
PACKAGE_ENERGY_CNT:PACKAGE1 (J) 0.000549512000
DRAM_ENERGY_CNT:PACKAGE0 (J)    0.000350853000
DRAM_ENERGY_CNT:PACKAGE1 (J)    0.000170926000


Energy in total:
PACKAGE_ENERGY:PACKAGE0 (J) 34.529541015000
PACKAGE_ENERGY:PACKAGE1 (J) 33.539550781000
DRAM_ENERGY:PACKAGE0    (J) 5.353591918000
DRAM_ENERGY:PACKAGE1    (J) 2.608123779000

Total time (kernel x100):  0.414775000000 (s)
Power (W) 183.306147894642
=======================================================


Time consumed(ms): 414.7750000000
--------------------------------------------------------------------------------------------

with OMP_NUM_THREADS= 34 
 

Reading matrix from file /home/users/amarkou/DIPLOMA/rodinia_3.1/data/lud/512.dat
PAPI measurements:(rapl)> > > > > > > > > > > >
Counting Energy Consumption:
PACKAGE_ENERGY_CNT:PACKAGE0 (J) 0.000584356000
PACKAGE_ENERGY_CNT:PACKAGE1 (J) 0.000538983000
DRAM_ENERGY_CNT:PACKAGE0 (J)    0.000344444000
DRAM_ENERGY_CNT:PACKAGE1 (J)    0.000165509000


Energy in total:
PACKAGE_ENERGY:PACKAGE0 (J) 35.666259765000
PACKAGE_ENERGY:PACKAGE1 (J) 32.896911621000
DRAM_ENERGY:PACKAGE0    (J) 5.255798339000
DRAM_ENERGY:PACKAGE1    (J) 2.525466918000

Total time (kernel x100):  0.420264000000 (s)
Power (W) 181.658282991167
=======================================================


Time consumed(ms): 420.2640000000
--------------------------------------------------------------------------------------------

with OMP_NUM_THREADS= 36 
 

Reading matrix from file /home/users/amarkou/DIPLOMA/rodinia_3.1/data/lud/512.dat
PAPI measurements:(rapl)> > > > > > > > > > > >
Counting Energy Consumption:
PACKAGE_ENERGY_CNT:PACKAGE0 (J) 0.000562130000
PACKAGE_ENERGY_CNT:PACKAGE1 (J) 0.000550355000
DRAM_ENERGY_CNT:PACKAGE0 (J)    0.000358078000
DRAM_ENERGY_CNT:PACKAGE1 (J)    0.000165332000


Energy in total:
PACKAGE_ENERGY:PACKAGE0 (J) 34.309692382000
PACKAGE_ENERGY:PACKAGE1 (J) 33.591003417000
DRAM_ENERGY:PACKAGE0    (J) 5.463836669000
DRAM_ENERGY:PACKAGE1    (J) 2.522766113000

Total time (kernel x100):  0.419890000000 (s)
Power (W) 180.731378649170
=======================================================


Time consumed(ms): 419.8900000000
--------------------------------------------------------------------------------------------

with OMP_NUM_THREADS= 38 
 

Reading matrix from file /home/users/amarkou/DIPLOMA/rodinia_3.1/data/lud/512.dat
PAPI measurements:(rapl)> > > > > > > > > > > >
Counting Energy Consumption:
PACKAGE_ENERGY_CNT:PACKAGE0 (J) 0.000598650000
PACKAGE_ENERGY_CNT:PACKAGE1 (J) 0.000572147000
DRAM_ENERGY_CNT:PACKAGE0 (J)    0.000366862000
DRAM_ENERGY_CNT:PACKAGE1 (J)    0.000175562000


Energy in total:
PACKAGE_ENERGY:PACKAGE0 (J) 36.538696289000
PACKAGE_ENERGY:PACKAGE1 (J) 34.921081542000
DRAM_ENERGY:PACKAGE0    (J) 5.597869873000
DRAM_ENERGY:PACKAGE1    (J) 2.678863525000

Total time (kernel x100):  0.430571000000 (s)
Power (W) 185.187834826312
=======================================================


Time consumed(ms): 430.5710000000
--------------------------------------------------------------------------------------------

with OMP_NUM_THREADS= 40 
 

Reading matrix from file /home/users/amarkou/DIPLOMA/rodinia_3.1/data/lud/512.dat
PAPI measurements:(rapl)> > > > > > > > > > > >
Counting Energy Consumption:
PACKAGE_ENERGY_CNT:PACKAGE0 (J) 0.000581667000
PACKAGE_ENERGY_CNT:PACKAGE1 (J) 0.000551164000
DRAM_ENERGY_CNT:PACKAGE0 (J)    0.000356154000
DRAM_ENERGY_CNT:PACKAGE1 (J)    0.000158973000


Energy in total:
PACKAGE_ENERGY:PACKAGE0 (J) 35.502136230000
PACKAGE_ENERGY:PACKAGE1 (J) 33.640380859000
DRAM_ENERGY:PACKAGE0    (J) 5.434478759000
DRAM_ENERGY:PACKAGE1    (J) 2.425735473000

Total time (kernel x100):  0.421102000000 (s)
Power (W) 182.860046546917
=======================================================


Time consumed(ms): 421.1020000000
--------------------------------------------------------------------------------------------

with OMP_NUM_THREADS= 42 
 

Reading matrix from file /home/users/amarkou/DIPLOMA/rodinia_3.1/data/lud/512.dat
PAPI measurements:(rapl)> > > > > > > > > > > >
Counting Energy Consumption:
PACKAGE_ENERGY_CNT:PACKAGE0 (J) 0.000607691000
PACKAGE_ENERGY_CNT:PACKAGE1 (J) 0.000571937000
DRAM_ENERGY_CNT:PACKAGE0 (J)    0.000363928000
DRAM_ENERGY_CNT:PACKAGE1 (J)    0.000161224000


Energy in total:
PACKAGE_ENERGY:PACKAGE0 (J) 37.090515136000
PACKAGE_ENERGY:PACKAGE1 (J) 34.908264160000
DRAM_ENERGY:PACKAGE0    (J) 5.553100585000
DRAM_ENERGY:PACKAGE1    (J) 2.460083007000

Total time (kernel x100):  0.430665000000 (s)
Power (W) 185.787010525583
=======================================================


Time consumed(ms): 430.6650000000
--------------------------------------------------------------------------------------------

with OMP_NUM_THREADS= 44 
 

Reading matrix from file /home/users/amarkou/DIPLOMA/rodinia_3.1/data/lud/512.dat
PAPI measurements:(rapl)> > > > > > > > > > > >
Counting Energy Consumption:
PACKAGE_ENERGY_CNT:PACKAGE0 (J) 0.000583432000
PACKAGE_ENERGY_CNT:PACKAGE1 (J) 0.000577445000
DRAM_ENERGY_CNT:PACKAGE0 (J)    0.000335492000
DRAM_ENERGY_CNT:PACKAGE1 (J)    0.000176197000


Energy in total:
PACKAGE_ENERGY:PACKAGE0 (J) 35.577331542000
PACKAGE_ENERGY:PACKAGE1 (J) 35.244445800000
DRAM_ENERGY:PACKAGE0    (J) 5.112747192000
DRAM_ENERGY:PACKAGE1    (J) 2.688552856000

Total time (kernel x100):  0.433603000000 (s)
Power (W) 181.325030938439
=======================================================


Time consumed(ms): 433.6030000000
--------------------------------------------------------------------------------------------

with OMP_NUM_THREADS= 46 
 

Reading matrix from file /home/users/amarkou/DIPLOMA/rodinia_3.1/data/lud/512.dat
PAPI measurements:(rapl)> > > > > > > > > > > >
Counting Energy Consumption:
PACKAGE_ENERGY_CNT:PACKAGE0 (J) 0.000625776000
PACKAGE_ENERGY_CNT:PACKAGE1 (J) 0.000594510000
DRAM_ENERGY_CNT:PACKAGE0 (J)    0.000365356000
DRAM_ENERGY_CNT:PACKAGE1 (J)    0.000179105000


Energy in total:
PACKAGE_ENERGY:PACKAGE0 (J) 38.194335937000
PACKAGE_ENERGY:PACKAGE1 (J) 36.286010742000
DRAM_ENERGY:PACKAGE0    (J) 5.574890136000
DRAM_ENERGY:PACKAGE1    (J) 2.732925415000

Total time (kernel x100):  0.441837000000 (s)
Power (W) 187.372633414585
=======================================================


Time consumed(ms): 441.8370000000
--------------------------------------------------------------------------------------------

with OMP_NUM_THREADS= 48 
 

Reading matrix from file /home/users/amarkou/DIPLOMA/rodinia_3.1/data/lud/512.dat
PAPI measurements:(rapl)> > > > > > > > > > > >
Counting Energy Consumption:
PACKAGE_ENERGY_CNT:PACKAGE0 (J) 0.000607811000
PACKAGE_ENERGY_CNT:PACKAGE1 (J) 0.000593784000
DRAM_ENERGY_CNT:PACKAGE0 (J)    0.000351259000
DRAM_ENERGY_CNT:PACKAGE1 (J)    0.000178459000


Energy in total:
PACKAGE_ENERGY:PACKAGE0 (J) 37.097839355000
PACKAGE_ENERGY:PACKAGE1 (J) 36.241699218000
DRAM_ENERGY:PACKAGE0    (J) 5.359786987000
DRAM_ENERGY:PACKAGE1    (J) 2.723068237000

Total time (kernel x100):  0.438438000000 (s)
Power (W) 185.710166082776
=======================================================


Time consumed(ms): 438.4380000000
--------------------------------------------------------------------------------------------

with OMP_NUM_THREADS= 50 
 

Reading matrix from file /home/users/amarkou/DIPLOMA/rodinia_3.1/data/lud/512.dat
PAPI measurements:(rapl)> > > > > > > > > > > >
Counting Energy Consumption:
PACKAGE_ENERGY_CNT:PACKAGE0 (J) 0.000652966000
PACKAGE_ENERGY_CNT:PACKAGE1 (J) 0.000618700000
DRAM_ENERGY_CNT:PACKAGE0 (J)    0.000374830000
DRAM_ENERGY_CNT:PACKAGE1 (J)    0.000182419000


Energy in total:
PACKAGE_ENERGY:PACKAGE0 (J) 39.853881835000
PACKAGE_ENERGY:PACKAGE1 (J) 37.762451171000
DRAM_ENERGY:PACKAGE0    (J) 5.719451904000
DRAM_ENERGY:PACKAGE1    (J) 2.783493041000

Total time (kernel x100):  0.458327000000 (s)
Power (W) 187.899202863894
=======================================================


Time consumed(ms): 458.3270000000
--------------------------------------------------------------------------------------------

with OMP_NUM_THREADS= 52 
 

Reading matrix from file /home/users/amarkou/DIPLOMA/rodinia_3.1/data/lud/512.dat
PAPI measurements:(rapl)> > > > > > > > > > > >
Counting Energy Consumption:
PACKAGE_ENERGY_CNT:PACKAGE0 (J) 0.000645842000
PACKAGE_ENERGY_CNT:PACKAGE1 (J) 0.000621827000
DRAM_ENERGY_CNT:PACKAGE0 (J)    0.000368474000
DRAM_ENERGY_CNT:PACKAGE1 (J)    0.000183265000


Energy in total:
PACKAGE_ENERGY:PACKAGE0 (J) 39.419067382000
PACKAGE_ENERGY:PACKAGE1 (J) 37.953308105000
DRAM_ENERGY:PACKAGE0    (J) 5.622467041000
DRAM_ENERGY:PACKAGE1    (J) 2.796401977000

Total time (kernel x100):  0.453603000000 (s)
Power (W) 189.132886036909
=======================================================


Time consumed(ms): 453.6030000000
--------------------------------------------------------------------------------------------

with OMP_NUM_THREADS= 54 
 

Reading matrix from file /home/users/amarkou/DIPLOMA/rodinia_3.1/data/lud/512.dat
PAPI measurements:(rapl)> > > > > > > > > > > >
Counting Energy Consumption:
PACKAGE_ENERGY_CNT:PACKAGE0 (J) 0.000661355000
PACKAGE_ENERGY_CNT:PACKAGE1 (J) 0.000633193000
DRAM_ENERGY_CNT:PACKAGE0 (J)    0.000356224000
DRAM_ENERGY_CNT:PACKAGE1 (J)    0.000179341000


Energy in total:
PACKAGE_ENERGY:PACKAGE0 (J) 40.365905761000
PACKAGE_ENERGY:PACKAGE1 (J) 38.647033691000
DRAM_ENERGY:PACKAGE0    (J) 5.435546875000
DRAM_ENERGY:PACKAGE1    (J) 2.736526489000

Total time (kernel x100):  0.468436000000 (s)
Power (W) 186.119369168894
=======================================================


Time consumed(ms): 468.4360000000
--------------------------------------------------------------------------------------------

with OMP_NUM_THREADS= 56 
 

Reading matrix from file /home/users/amarkou/DIPLOMA/rodinia_3.1/data/lud/512.dat
PAPI measurements:(rapl)> > > > > > > > > > > >
Counting Energy Consumption:
PACKAGE_ENERGY_CNT:PACKAGE0 (J) 0.001752504000
PACKAGE_ENERGY_CNT:PACKAGE1 (J) 0.001727065000
DRAM_ENERGY_CNT:PACKAGE0 (J)    0.000688734000
DRAM_ENERGY_CNT:PACKAGE1 (J)    0.000498553000


Energy in total:
PACKAGE_ENERGY:PACKAGE0 (J) 106.964355468000
PACKAGE_ENERGY:PACKAGE1 (J) 105.411682128000
DRAM_ENERGY:PACKAGE0    (J) 10.509246826000
DRAM_ENERGY:PACKAGE1    (J) 7.607315063000

Total time (kernel x100):  1.288579000000 (s)
Power (W) 178.873471851551
=======================================================


Time consumed(ms): 1288.5790000000
=============================================================================================

PROBLEM SIZE=2048

-----------------

    with OMP_NUM_THREADS= 1 
 

Reading matrix from file /home/users/amarkou/DIPLOMA/rodinia_3.1/data/lud/2048.dat
PAPI measurements:(rapl)> > > > > > > > > > > >
Counting Energy Consumption:
PACKAGE_ENERGY_CNT:PACKAGE0 (J) 0.040835078000
PACKAGE_ENERGY_CNT:PACKAGE1 (J) 0.032732345000
DRAM_ENERGY_CNT:PACKAGE0 (J)    0.029821066000
DRAM_ENERGY_CNT:PACKAGE1 (J)    0.027133569000


Energy in total:
PACKAGE_ENERGY:PACKAGE0 (J) 2492.407653808000
PACKAGE_ENERGY:PACKAGE1 (J) 1997.823791503000
DRAM_ENERGY:PACKAGE0    (J) 455.039001464000
DRAM_ENERGY:PACKAGE1    (J) 414.025405883000

Total time (kernel x100): 79.311459000000 (s)
Power (W) 67.572781036067
=======================================================


Time consumed(ms): 79311.4590000000
---------------------------------------------------------------------------------------------

    with OMP_NUM_THREADS= 2 
 

Reading matrix from file /home/users/amarkou/DIPLOMA/rodinia_3.1/data/lud/2048.dat
PAPI measurements:(rapl)> > > > > > > > > > > >
Counting Energy Consumption:
PACKAGE_ENERGY_CNT:PACKAGE0 (J) 0.022479536000
PACKAGE_ENERGY_CNT:PACKAGE1 (J) 0.022571220000
DRAM_ENERGY_CNT:PACKAGE0 (J)    0.016955779000
DRAM_ENERGY_CNT:PACKAGE1 (J)    0.014904342000


Energy in total:
PACKAGE_ENERGY:PACKAGE0 (J) 1372.041992187000
PACKAGE_ENERGY:PACKAGE1 (J) 1377.637939453000
DRAM_ENERGY:PACKAGE0    (J) 258.724655151000
DRAM_ENERGY:PACKAGE1    (J) 227.422210693000

Total time (kernel x100): 41.022667000000 (s)
Power (W) 78.878996275011
=======================================================


Time consumed(ms): 41022.6670000000
---------------------------------------------------------------------------------------------

    with OMP_NUM_THREADS= 4 
 

Reading matrix from file /home/users/amarkou/DIPLOMA/rodinia_3.1/data/lud/2048.dat
PAPI measurements:(rapl)> > > > > > > > > > > >
Counting Energy Consumption:
PACKAGE_ENERGY_CNT:PACKAGE0 (J) 0.014747143000
PACKAGE_ENERGY_CNT:PACKAGE1 (J) 0.014495716000
DRAM_ENERGY_CNT:PACKAGE0 (J)    0.008859428000
DRAM_ENERGY_CNT:PACKAGE1 (J)    0.007563520000


Energy in total:
PACKAGE_ENERGY:PACKAGE0 (J) 900.094177246000
PACKAGE_ENERGY:PACKAGE1 (J) 884.748291015000
DRAM_ENERGY:PACKAGE0    (J) 135.184143066000
DRAM_ENERGY:PACKAGE1    (J) 115.410156250000

Total time (kernel x100): 20.619025000000 (s)
Power (W) 98.716441130315
=======================================================


Time consumed(ms): 20619.0250000000
---------------------------------------------------------------------------------------------

    with OMP_NUM_THREADS= 6 
 

Reading matrix from file /home/users/amarkou/DIPLOMA/rodinia_3.1/data/lud/2048.dat
PAPI measurements:(rapl)> > > > > > > > > > > >
Counting Energy Consumption:
PACKAGE_ENERGY_CNT:PACKAGE0 (J) 0.011050255000
PACKAGE_ENERGY_CNT:PACKAGE1 (J) 0.011058614000
DRAM_ENERGY_CNT:PACKAGE0 (J)    0.006465270000
DRAM_ENERGY_CNT:PACKAGE1 (J)    0.005286054000


Energy in total:
PACKAGE_ENERGY:PACKAGE0 (J) 674.454040527000
PACKAGE_ENERGY:PACKAGE1 (J) 674.964233398000
DRAM_ENERGY:PACKAGE0    (J) 98.652191162000
DRAM_ENERGY:PACKAGE1    (J) 80.658782958000

Total time (kernel x100): 14.308935000000 (s)
Power (W) 106.837388529964
=======================================================


Time consumed(ms): 14308.9350000000
---------------------------------------------------------------------------------------------

    with OMP_NUM_THREADS= 8 
 

Reading matrix from file /home/users/amarkou/DIPLOMA/rodinia_3.1/data/lud/2048.dat
PAPI measurements:(rapl)> > > > > > > > > > > >
Counting Energy Consumption:
PACKAGE_ENERGY_CNT:PACKAGE0 (J) 0.009604775000
PACKAGE_ENERGY_CNT:PACKAGE1 (J) 0.009958960000
DRAM_ENERGY_CNT:PACKAGE0 (J)    0.005208305000
DRAM_ENERGY_CNT:PACKAGE1 (J)    0.004164624000


Energy in total:
PACKAGE_ENERGY:PACKAGE0 (J) 586.228942871000
PACKAGE_ENERGY:PACKAGE1 (J) 607.846679687000
DRAM_ENERGY:PACKAGE0    (J) 79.472427368000
DRAM_ENERGY:PACKAGE1    (J) 63.547119140000

Total time (kernel x100): 11.015018000000 (s)
Power (W) 121.388378036786
=======================================================


Time consumed(ms): 11015.0180000000
---------------------------------------------------------------------------------------------

    with OMP_NUM_THREADS= 10 
 

Reading matrix from file /home/users/amarkou/DIPLOMA/rodinia_3.1/data/lud/2048.dat
PAPI measurements:(rapl)> > > > > > > > > > > >
Counting Energy Consumption:
PACKAGE_ENERGY_CNT:PACKAGE0 (J) 0.008831639000
PACKAGE_ENERGY_CNT:PACKAGE1 (J) 0.009203026000
DRAM_ENERGY_CNT:PACKAGE0 (J)    0.004506866000
DRAM_ENERGY_CNT:PACKAGE1 (J)    0.003383824000


Energy in total:
PACKAGE_ENERGY:PACKAGE0 (J) 539.040466308000
PACKAGE_ENERGY:PACKAGE1 (J) 561.708129882000
DRAM_ENERGY:PACKAGE0    (J) 68.769317626000
DRAM_ENERGY:PACKAGE1    (J) 51.633056640000

Total time (kernel x100):  9.077987000000 (s)
Power (W) 134.517814407093
=======================================================


Time consumed(ms): 9077.9870000000
---------------------------------------------------------------------------------------------

    with OMP_NUM_THREADS= 12 
 

Reading matrix from file /home/users/amarkou/DIPLOMA/rodinia_3.1/data/lud/2048.dat
PAPI measurements:(rapl)> > > > > > > > > > > >
Counting Energy Consumption:
PACKAGE_ENERGY_CNT:PACKAGE0 (J) 0.008431796000
PACKAGE_ENERGY_CNT:PACKAGE1 (J) 0.008892288000
DRAM_ENERGY_CNT:PACKAGE0 (J)    0.004102101000
DRAM_ENERGY_CNT:PACKAGE1 (J)    0.002910156000


Energy in total:
PACKAGE_ENERGY:PACKAGE0 (J) 514.635986328000
PACKAGE_ENERGY:PACKAGE1 (J) 542.742187500000
DRAM_ENERGY:PACKAGE0    (J) 62.593093872000
DRAM_ENERGY:PACKAGE1    (J) 44.405456542000

Total time (kernel x100):  7.812466000000 (s)
Power (W) 149.040869328839
=======================================================


Time consumed(ms): 7812.4660000000
---------------------------------------------------------------------------------------------

    with OMP_NUM_THREADS= 14 
 

Reading matrix from file /home/users/amarkou/DIPLOMA/rodinia_3.1/data/lud/2048.dat
PAPI measurements:(rapl)> > > > > > > > > > > >
Counting Energy Consumption:
PACKAGE_ENERGY_CNT:PACKAGE0 (J) 0.007965499000
PACKAGE_ENERGY_CNT:PACKAGE1 (J) 0.008026220000
DRAM_ENERGY_CNT:PACKAGE0 (J)    0.003760175000
DRAM_ENERGY_CNT:PACKAGE1 (J)    0.002597272000


Energy in total:
PACKAGE_ENERGY:PACKAGE0 (J) 486.175476074000
PACKAGE_ENERGY:PACKAGE1 (J) 489.881591796000
DRAM_ENERGY:PACKAGE0    (J) 57.375717163000
DRAM_ENERGY:PACKAGE1    (J) 39.631225585000

Total time (kernel x100):  6.925581000000 (s)
Power (W) 154.942092312255
=======================================================


Time consumed(ms): 6925.5810000000
---------------------------------------------------------------------------------------------

    with OMP_NUM_THREADS= 16 
 

Reading matrix from file /home/users/amarkou/DIPLOMA/rodinia_3.1/data/lud/2048.dat
PAPI measurements:(rapl)> > > > > > > > > > > >
Counting Energy Consumption:
PACKAGE_ENERGY_CNT:PACKAGE0 (J) 0.007839523000
PACKAGE_ENERGY_CNT:PACKAGE1 (J) 0.007942706000
DRAM_ENERGY_CNT:PACKAGE0 (J)    0.003585837000
DRAM_ENERGY_CNT:PACKAGE1 (J)    0.002447221000


Energy in total:
PACKAGE_ENERGY:PACKAGE0 (J) 478.486511230000
PACKAGE_ENERGY:PACKAGE1 (J) 484.784301757000
DRAM_ENERGY:PACKAGE0    (J) 54.715530395000
DRAM_ENERGY:PACKAGE1    (J) 37.341629028000

Total time (kernel x100):  6.328624000000 (s)
Power (W) 166.754727790749
=======================================================


Time consumed(ms): 6328.6240000000
---------------------------------------------------------------------------------------------

    with OMP_NUM_THREADS= 18 
 

Reading matrix from file /home/users/amarkou/DIPLOMA/rodinia_3.1/data/lud/2048.dat
PAPI measurements:(rapl)> > > > > > > > > > > >
Counting Energy Consumption:
PACKAGE_ENERGY_CNT:PACKAGE0 (J) 0.007891249000
PACKAGE_ENERGY_CNT:PACKAGE1 (J) 0.007702936000
DRAM_ENERGY_CNT:PACKAGE0 (J)    0.003490049000
DRAM_ENERGY_CNT:PACKAGE1 (J)    0.002242259000


Energy in total:
PACKAGE_ENERGY:PACKAGE0 (J) 481.643615722000
PACKAGE_ENERGY:PACKAGE1 (J) 470.149902343000
DRAM_ENERGY:PACKAGE0    (J) 53.253921508000
DRAM_ENERGY:PACKAGE1    (J) 34.214157104000

Total time (kernel x100):  5.922790000000 (s)
Power (W) 175.468250043814
=======================================================


Time consumed(ms): 5922.7900000000
---------------------------------------------------------------------------------------------

    with OMP_NUM_THREADS= 20 
 

Reading matrix from file /home/users/amarkou/DIPLOMA/rodinia_3.1/data/lud/2048.dat
PAPI measurements:(rapl)> > > > > > > > > > > >
Counting Energy Consumption:
PACKAGE_ENERGY_CNT:PACKAGE0 (J) 0.007468714000
PACKAGE_ENERGY_CNT:PACKAGE1 (J) 0.007248092000
DRAM_ENERGY_CNT:PACKAGE0 (J)    0.003427733000
DRAM_ENERGY_CNT:PACKAGE1 (J)    0.002091586000


Energy in total:
PACKAGE_ENERGY:PACKAGE0 (J) 455.800720214000
PACKAGE_ENERGY:PACKAGE1 (J) 442.388427734000
DRAM_ENERGY:PACKAGE0    (J) 52.296157836000
DRAM_ENERGY:PACKAGE1    (J) 31.915069580000

Total time (kernel x100):  5.525777000000 (s)
Power (W) 177.785020163499
=======================================================


Time consumed(ms): 5525.7770000000
---------------------------------------------------------------------------------------------

    with OMP_NUM_THREADS= 22 
 

Reading matrix from file /home/users/amarkou/DIPLOMA/rodinia_3.1/data/lud/2048.dat
PAPI measurements:(rapl)> > > > > > > > > > > >
Counting Energy Consumption:
PACKAGE_ENERGY_CNT:PACKAGE0 (J) 0.007581358000
PACKAGE_ENERGY_CNT:PACKAGE1 (J) 0.007335063000
DRAM_ENERGY_CNT:PACKAGE0 (J)    0.003360091000
DRAM_ENERGY_CNT:PACKAGE1 (J)    0.002008861000


Energy in total:
PACKAGE_ENERGY:PACKAGE0 (J) 462.729370117000
PACKAGE_ENERGY:PACKAGE1 (J) 447.696716308000
DRAM_ENERGY:PACKAGE0    (J) 51.270919799000
DRAM_ENERGY:PACKAGE1    (J) 30.652786254000

Total time (kernel x100):  5.245669000000 (s)
Power (W) 189.175068514235
=======================================================


Time consumed(ms): 5245.6690000000
---------------------------------------------------------------------------------------------

    with OMP_NUM_THREADS= 24 
 

Reading matrix from file /home/users/amarkou/DIPLOMA/rodinia_3.1/data/lud/2048.dat
PAPI measurements:(rapl)> > > > > > > > > > > >
Counting Energy Consumption:
PACKAGE_ENERGY_CNT:PACKAGE0 (J) 0.007613598000
PACKAGE_ENERGY_CNT:PACKAGE1 (J) 0.007301153000
DRAM_ENERGY_CNT:PACKAGE0 (J)    0.003250458000
DRAM_ENERGY_CNT:PACKAGE1 (J)    0.001961811000


Energy in total:
PACKAGE_ENERGY:PACKAGE0 (J) 464.697143554000
PACKAGE_ENERGY:PACKAGE1 (J) 445.627014160000
DRAM_ENERGY:PACKAGE0    (J) 49.598052978000
DRAM_ENERGY:PACKAGE1    (J) 29.934860229000

Total time (kernel x100):  4.980193000000 (s)
Power (W) 198.758777204217
=======================================================


Time consumed(ms): 4980.1930000000
---------------------------------------------------------------------------------------------

    with OMP_NUM_THREADS= 26 
 

Reading matrix from file /home/users/amarkou/DIPLOMA/rodinia_3.1/data/lud/2048.dat
PAPI measurements:(rapl)> > > > > > > > > > > >
Counting Energy Consumption:
PACKAGE_ENERGY_CNT:PACKAGE0 (J) 0.007405064000
PACKAGE_ENERGY_CNT:PACKAGE1 (J) 0.007338146000
DRAM_ENERGY_CNT:PACKAGE0 (J)    0.003295173000
DRAM_ENERGY_CNT:PACKAGE1 (J)    0.001913904000


Energy in total:
PACKAGE_ENERGY:PACKAGE0 (J) 451.969238281000
PACKAGE_ENERGY:PACKAGE1 (J) 447.884887695000
DRAM_ENERGY:PACKAGE0    (J) 50.280349731000
DRAM_ENERGY:PACKAGE1    (J) 29.203857421000

Total time (kernel x100):  4.828730000000 (s)
Power (W) 202.814887792028
=======================================================


Time consumed(ms): 4828.7300000000
---------------------------------------------------------------------------------------------

    with OMP_NUM_THREADS= 28 
 

Reading matrix from file /home/users/amarkou/DIPLOMA/rodinia_3.1/data/lud/2048.dat
PAPI measurements:(rapl)> > > > > > > > > > > >
Counting Energy Consumption:
PACKAGE_ENERGY_CNT:PACKAGE0 (J) 0.007355700000
PACKAGE_ENERGY_CNT:PACKAGE1 (J) 0.007242435000
DRAM_ENERGY_CNT:PACKAGE0 (J)    0.003165201000
DRAM_ENERGY_CNT:PACKAGE1 (J)    0.001822171000


Energy in total:
PACKAGE_ENERGY:PACKAGE0 (J) 448.956298828000
PACKAGE_ENERGY:PACKAGE1 (J) 442.043151855000
DRAM_ENERGY:PACKAGE0    (J) 48.297134399000
DRAM_ENERGY:PACKAGE1    (J) 27.804122924000

Total time (kernel x100):  4.593260000000 (s)
Power (W) 210.547782621929
=======================================================


Time consumed(ms): 4593.2600000000
---------------------------------------------------------------------------------------------

    with OMP_NUM_THREADS= 30 
 

Reading matrix from file /home/users/amarkou/DIPLOMA/rodinia_3.1/data/lud/2048.dat
PAPI measurements:(rapl)> > > > > > > > > > > >
Counting Energy Consumption:
PACKAGE_ENERGY_CNT:PACKAGE0 (J) 0.009143160000
PACKAGE_ENERGY_CNT:PACKAGE1 (J) 0.010189933000
DRAM_ENERGY_CNT:PACKAGE0 (J)    0.004008823000
DRAM_ENERGY_CNT:PACKAGE1 (J)    0.002463066000


Energy in total:
PACKAGE_ENERGY:PACKAGE0 (J) 558.054199218000
PACKAGE_ENERGY:PACKAGE1 (J) 621.944152832000
DRAM_ENERGY:PACKAGE0    (J) 61.169784545000
DRAM_ENERGY:PACKAGE1    (J) 37.583404541000

Total time (kernel x100):  6.762523000000 (s)
Power (W) 189.093854636206
=======================================================


Time consumed(ms): 6762.5230000000
---------------------------------------------------------------------------------------------

    with OMP_NUM_THREADS= 32 
 

Reading matrix from file /home/users/amarkou/DIPLOMA/rodinia_3.1/data/lud/2048.dat
PAPI measurements:(rapl)> > > > > > > > > > > >
Counting Energy Consumption:
PACKAGE_ENERGY_CNT:PACKAGE0 (J) 0.009705360000
PACKAGE_ENERGY_CNT:PACKAGE1 (J) 0.009798938000
DRAM_ENERGY_CNT:PACKAGE0 (J)    0.004130651000
DRAM_ENERGY_CNT:PACKAGE1 (J)    0.002467385000


Energy in total:
PACKAGE_ENERGY:PACKAGE0 (J) 592.368164062000
PACKAGE_ENERGY:PACKAGE1 (J) 598.079711914000
DRAM_ENERGY:PACKAGE0    (J) 63.028732299000
DRAM_ENERGY:PACKAGE1    (J) 37.649307250000

Total time (kernel x100):  6.572755000000 (s)
Power (W) 196.436032611135
=======================================================


Time consumed(ms): 6572.7550000000
---------------------------------------------------------------------------------------------

    with OMP_NUM_THREADS= 34 
 

Reading matrix from file /home/users/amarkou/DIPLOMA/rodinia_3.1/data/lud/2048.dat
PAPI measurements:(rapl)> > > > > > > > > > > >
Counting Energy Consumption:
PACKAGE_ENERGY_CNT:PACKAGE0 (J) 0.009666604000
PACKAGE_ENERGY_CNT:PACKAGE1 (J) 0.008835595000
DRAM_ENERGY_CNT:PACKAGE0 (J)    0.003761633000
DRAM_ENERGY_CNT:PACKAGE1 (J)    0.002353748000


Energy in total:
PACKAGE_ENERGY:PACKAGE0 (J) 590.082214355000
PACKAGE_ENERGY:PACKAGE1 (J) 539.281921386000
DRAM_ENERGY:PACKAGE0    (J) 57.397964477000
DRAM_ENERGY:PACKAGE1    (J) 35.915344238000

Total time (kernel x100):  6.204698000000 (s)
Power (W) 197.056721286999
=======================================================


Time consumed(ms): 6204.6980000000
---------------------------------------------------------------------------------------------

    with OMP_NUM_THREADS= 36 
 

Reading matrix from file /home/users/amarkou/DIPLOMA/rodinia_3.1/data/lud/2048.dat
PAPI measurements:(rapl)> > > > > > > > > > > >
Counting Energy Consumption:
PACKAGE_ENERGY_CNT:PACKAGE0 (J) 0.009593058000
PACKAGE_ENERGY_CNT:PACKAGE1 (J) 0.009462151000
DRAM_ENERGY_CNT:PACKAGE0 (J)    0.004250267000
DRAM_ENERGY_CNT:PACKAGE1 (J)    0.002373595000


Energy in total:
PACKAGE_ENERGY:PACKAGE0 (J) 585.513793945000
PACKAGE_ENERGY:PACKAGE1 (J) 577.523864746000
DRAM_ENERGY:PACKAGE0    (J) 64.853927612000
DRAM_ENERGY:PACKAGE1    (J) 36.218185424000

Total time (kernel x100):  6.348705000000 (s)
Power (W) 199.113011508174
=======================================================


Time consumed(ms): 6348.7050000000
---------------------------------------------------------------------------------------------

    with OMP_NUM_THREADS= 38 
 

Reading matrix from file /home/users/amarkou/DIPLOMA/rodinia_3.1/data/lud/2048.dat
PAPI measurements:(rapl)> > > > > > > > > > > >
Counting Energy Consumption:
PACKAGE_ENERGY_CNT:PACKAGE0 (J) 0.009488614000
PACKAGE_ENERGY_CNT:PACKAGE1 (J) 0.009292255000
DRAM_ENERGY_CNT:PACKAGE0 (J)    0.004191540000
DRAM_ENERGY_CNT:PACKAGE1 (J)    0.002407186000


Energy in total:
PACKAGE_ENERGY:PACKAGE0 (J) 579.139038085000
PACKAGE_ENERGY:PACKAGE1 (J) 567.154235839000
DRAM_ENERGY:PACKAGE0    (J) 63.957824707000
DRAM_ENERGY:PACKAGE1    (J) 36.730743408000

Total time (kernel x100):  6.230069000000 (s)
Power (W) 200.155382233969
=======================================================


Time consumed(ms): 6230.0690000000
---------------------------------------------------------------------------------------------

    with OMP_NUM_THREADS= 40 
 

Reading matrix from file /home/users/amarkou/DIPLOMA/rodinia_3.1/data/lud/2048.dat
PAPI measurements:(rapl)> > > > > > > > > > > >
Counting Energy Consumption:
PACKAGE_ENERGY_CNT:PACKAGE0 (J) 0.009246021000
PACKAGE_ENERGY_CNT:PACKAGE1 (J) 0.009095497000
DRAM_ENERGY_CNT:PACKAGE0 (J)    0.004115629000
DRAM_ENERGY_CNT:PACKAGE1 (J)    0.002323376000


Energy in total:
PACKAGE_ENERGY:PACKAGE0 (J) 564.332336425000
PACKAGE_ENERGY:PACKAGE1 (J) 555.145080566000
DRAM_ENERGY:PACKAGE0    (J) 62.799514770000
DRAM_ENERGY:PACKAGE1    (J) 35.451904296000

Total time (kernel x100):  6.002236000000 (s)
Power (W) 202.879199694414
=======================================================


Time consumed(ms): 6002.2360000000
---------------------------------------------------------------------------------------------

    with OMP_NUM_THREADS= 42 
 

Reading matrix from file /home/users/amarkou/DIPLOMA/rodinia_3.1/data/lud/2048.dat
PAPI measurements:(rapl)> > > > > > > > > > > >
Counting Energy Consumption:
PACKAGE_ENERGY_CNT:PACKAGE0 (J) 0.009102127000
PACKAGE_ENERGY_CNT:PACKAGE1 (J) 0.008957812000
DRAM_ENERGY_CNT:PACKAGE0 (J)    0.004071561000
DRAM_ENERGY_CNT:PACKAGE1 (J)    0.002137939000


Energy in total:
PACKAGE_ENERGY:PACKAGE0 (J) 555.549743652000
PACKAGE_ENERGY:PACKAGE1 (J) 546.741455078000
DRAM_ENERGY:PACKAGE0    (J) 62.127090454000
DRAM_ENERGY:PACKAGE1    (J) 32.622360229000

Total time (kernel x100):  5.865221000000 (s)
Power (W) 204.091312060193
=======================================================


Time consumed(ms): 5865.2210000000
---------------------------------------------------------------------------------------------

    with OMP_NUM_THREADS= 44 
 

Reading matrix from file /home/users/amarkou/DIPLOMA/rodinia_3.1/data/lud/2048.dat
PAPI measurements:(rapl)> > > > > > > > > > > >
Counting Energy Consumption:
PACKAGE_ENERGY_CNT:PACKAGE0 (J) 0.009127887000
PACKAGE_ENERGY_CNT:PACKAGE1 (J) 0.008527981000
DRAM_ENERGY_CNT:PACKAGE0 (J)    0.003967504000
DRAM_ENERGY_CNT:PACKAGE1 (J)    0.002154504000


Energy in total:
PACKAGE_ENERGY:PACKAGE0 (J) 557.122009277000
PACKAGE_ENERGY:PACKAGE1 (J) 520.506652832000
DRAM_ENERGY:PACKAGE0    (J) 60.539306640000
DRAM_ENERGY:PACKAGE1    (J) 32.875122070000

Total time (kernel x100):  5.679031000000 (s)
Power (W) 206.204736480396
=======================================================


Time consumed(ms): 5679.0310000000
---------------------------------------------------------------------------------------------

    with OMP_NUM_THREADS= 46 
 

Reading matrix from file /home/users/amarkou/DIPLOMA/rodinia_3.1/data/lud/2048.dat
PAPI measurements:(rapl)> > > > > > > > > > > >
Counting Energy Consumption:
PACKAGE_ENERGY_CNT:PACKAGE0 (J) 0.008865500000
PACKAGE_ENERGY_CNT:PACKAGE1 (J) 0.008686626000
DRAM_ENERGY_CNT:PACKAGE0 (J)    0.003902736000
DRAM_ENERGY_CNT:PACKAGE1 (J)    0.002063519000


Energy in total:
PACKAGE_ENERGY:PACKAGE0 (J) 541.107177734000
PACKAGE_ENERGY:PACKAGE1 (J) 530.189575195000
DRAM_ENERGY:PACKAGE0    (J) 59.551025390000
DRAM_ENERGY:PACKAGE1    (J) 31.486801147000

Total time (kernel x100):  5.595358000000 (s)
Power (W) 207.731941274535
=======================================================


Time consumed(ms): 5595.3580000000
---------------------------------------------------------------------------------------------

    with OMP_NUM_THREADS= 48 
 

Reading matrix from file /home/users/amarkou/DIPLOMA/rodinia_3.1/data/lud/2048.dat
PAPI measurements:(rapl)> > > > > > > > > > > >
Counting Energy Consumption:
PACKAGE_ENERGY_CNT:PACKAGE0 (J) 0.008578997000
PACKAGE_ENERGY_CNT:PACKAGE1 (J) 0.008404164000
DRAM_ENERGY_CNT:PACKAGE0 (J)    0.003732337000
DRAM_ENERGY_CNT:PACKAGE1 (J)    0.002051401000


Energy in total:
PACKAGE_ENERGY:PACKAGE0 (J) 523.620422363000
PACKAGE_ENERGY:PACKAGE1 (J) 512.949462890000
DRAM_ENERGY:PACKAGE0    (J) 56.950942993000
DRAM_ENERGY:PACKAGE1    (J) 31.301895141000

Total time (kernel x100):  5.360093000000 (s)
Power (W) 209.851344629095
=======================================================


Time consumed(ms): 5360.0930000000
---------------------------------------------------------------------------------------------

    with OMP_NUM_THREADS= 50 
 

Reading matrix from file /home/users/amarkou/DIPLOMA/rodinia_3.1/data/lud/2048.dat
PAPI measurements:(rapl)> > > > > > > > > > > >
Counting Energy Consumption:
PACKAGE_ENERGY_CNT:PACKAGE0 (J) 0.008484681000
PACKAGE_ENERGY_CNT:PACKAGE1 (J) 0.008489897000
DRAM_ENERGY_CNT:PACKAGE0 (J)    0.003700570000
DRAM_ENERGY_CNT:PACKAGE1 (J)    0.002125788000


Energy in total:
PACKAGE_ENERGY:PACKAGE0 (J) 517.863830566000
PACKAGE_ENERGY:PACKAGE1 (J) 518.182189941000
DRAM_ENERGY:PACKAGE0    (J) 56.466217041000
DRAM_ENERGY:PACKAGE1    (J) 32.436950683000

Total time (kernel x100):  5.319981000000 (s)
Power (W) 211.457369534027
=======================================================


Time consumed(ms): 5319.9810000000
---------------------------------------------------------------------------------------------

    with OMP_NUM_THREADS= 52 
 

Reading matrix from file /home/users/amarkou/DIPLOMA/rodinia_3.1/data/lud/2048.dat
PAPI measurements:(rapl)> > > > > > > > > > > >
Counting Energy Consumption:
PACKAGE_ENERGY_CNT:PACKAGE0 (J) 0.008597591000
PACKAGE_ENERGY_CNT:PACKAGE1 (J) 0.008426399000
DRAM_ENERGY_CNT:PACKAGE0 (J)    0.003801000000
DRAM_ENERGY_CNT:PACKAGE1 (J)    0.002075273000


Energy in total:
PACKAGE_ENERGY:PACKAGE0 (J) 524.755310058000
PACKAGE_ENERGY:PACKAGE1 (J) 514.306579589000
DRAM_ENERGY:PACKAGE0    (J) 57.998657226000
DRAM_ENERGY:PACKAGE1    (J) 31.666152954000

Total time (kernel x100):  5.323349000000 (s)
Power (W) 212.033195611823
=======================================================


Time consumed(ms): 5323.3490000000
---------------------------------------------------------------------------------------------

    with OMP_NUM_THREADS= 54 
 

Reading matrix from file /home/users/amarkou/DIPLOMA/rodinia_3.1/data/lud/2048.dat
PAPI measurements:(rapl)> > > > > > > > > > > >
Counting Energy Consumption:
PACKAGE_ENERGY_CNT:PACKAGE0 (J) 0.008240934000
PACKAGE_ENERGY_CNT:PACKAGE1 (J) 0.008228008000
DRAM_ENERGY_CNT:PACKAGE0 (J)    0.003622110000
DRAM_ENERGY_CNT:PACKAGE1 (J)    0.001951070000


Energy in total:
PACKAGE_ENERGY:PACKAGE0 (J) 502.986694335000
PACKAGE_ENERGY:PACKAGE1 (J) 502.197753906000
DRAM_ENERGY:PACKAGE0    (J) 55.269012451000
DRAM_ENERGY:PACKAGE1    (J) 29.770965576000

Total time (kernel x100):  5.094356000000 (s)
Power (W) 214.006329017446
=======================================================


Time consumed(ms): 5094.3560000000
---------------------------------------------------------------------------------------------

    with OMP_NUM_THREADS= 56 
 

Reading matrix from file /home/users/amarkou/DIPLOMA/rodinia_3.1/data/lud/2048.dat
PAPI measurements:(rapl)> > > > > > > > > > > >
Counting Energy Consumption:
PACKAGE_ENERGY_CNT:PACKAGE0 (J) 0.008621610000
PACKAGE_ENERGY_CNT:PACKAGE1 (J) 0.008460763000
DRAM_ENERGY_CNT:PACKAGE0 (J)    0.003749931000
DRAM_ENERGY_CNT:PACKAGE1 (J)    0.001930264000


Energy in total:
PACKAGE_ENERGY:PACKAGE0 (J) 526.221313476000
PACKAGE_ENERGY:PACKAGE1 (J) 516.403991699000
DRAM_ENERGY:PACKAGE0    (J) 57.219406127000
DRAM_ENERGY:PACKAGE1    (J) 29.453491210000

Total time (kernel x100):  5.322408000000 (s)
Power (W) 212.178059726349
=======================================================


Time consumed(ms): 5322.4080000000
