omp threads,PACKAGE_ENERGY:PACKAGE0,PACKAGE_ENERGY:PACKAGE1,DRAM_ENERGY:PACKAGE0,DRAM_ENERGY:PACKAGE1,TOTAL_ENERGY,TOTAL_TIME,POWER
1,43.97869873,36.922668457,7.781433105,6.88998413,95.572784422,1.347944,70.902637217867
2,39.439270019,40.822631835,5.511245727,4.65788269,90.431030271,0.777503,116.309557996561
4,25.539001464,26.4085083,3.669967651,2.853851318,58.471328733,0.464441,125.896139085481
6,23.810424804,23.230102539,3.571426391,2.244049072,52.856002806,0.38728,136.480073347449
8,22.919799804,23.139221191,3.826690673,2.303787231,52.189498899,0.375434,139.011114867061
10,22.241455078,23.011901855,4.138427734,2.128555297,51.520339964,0.371949,138.514527432524
12,24.227294921,23.839721679,4.105819702,2.155700683,54.328536985,0.353609,153.640142035412
14,25.606933593,22.767333984,4.225250244,2.178695678,54.778213499,0.350145,156.444368758657
16,27.168273925,25.892822265,4.39604187,2.111999511,59.569137571,0.362206,164.462039753621
18,27.280517578,27.398498535,4.690902709,2.258071899,61.627990721,0.374336,164.632818433172
20,28.684143066,25.989929199,4.757125854,2.305923461,61.73712158,0.372131,165.901581916046
22,31.265197753,28.741394042,5.035186767,2.250961303,67.292739865,0.3858,174.423898043027
24,32.54498291,30.028076171,5.149536132,2.441085815,70.163681028,0.393823,178.160445245707
26,32.701416015,30.951293945,5.062896728,2.433685302,71.14929199,0.390298,182.294790109096
28,34.189147949,32.38092041,5.435806274,2.50717163,74.513046263,0.400855,185.885285858976
30,35.069519042,33.526489257,5.412475585,2.554214477,76.562698361,0.416229,183.943690518921
32,34.529541015,33.539550781,5.353591918,2.608123779,76.030807493,0.414775,183.306147894642
34,35.666259765,32.896911621,5.255798339,2.525466918,76.344436643,0.420264,181.658282991167
36,34.309692382,33.591003417,5.463836669,2.522766113,75.887298581,0.41989,180.73137864917
38,36.538696289,34.921081542,5.597869873,2.678863525,79.736511229,0.430571,185.187834826312
40,35.50213623,33.640380859,5.434478759,2.425735473,77.002731321,0.421102,182.860046546917
42,37.090515136,34.90826416,5.553100585,2.460083007,80.011962888,0.430665,185.787010525583
44,35.577331542,35.2444458,5.112747192,2.688552856,78.62307739,0.433603,181.325030938439
46,38.194335937,36.286010742,5.574890136,2.732925415,82.78816223,0.441837,187.372633414585
48,37.097839355,36.241699218,5.359786987,2.723068237,81.422393797,0.438438,185.710166082776
50,39.853881835,37.762451171,5.719451904,2.783493041,86.119277951,0.458327,187.899202863894
52,39.419067382,37.953308105,5.622467041,2.796401977,85.791244505,0.453603,189.132886036909
54,40.365905761,38.647033691,5.435546875,2.736526489,87.185012816,0.468436,186.119369168894
56,106.964355468,105.411682128,10.509246826,7.607315063,230.492599485,1.288579,178.873471851551
