points,,power(W),avg power=77.833236W
1,1,66.32716,77.833236
2,1,66.397,77.833236
3,1,66.397,77.833236
4,1,66.4218,77.833236
5,1,66.477,77.833236
6,1,66.477,77.833236
7,1,66.477,77.833236
8,1,66.574,77.833236
9,1,66.574,77.833236
10,1,66.574,77.833236
11,1,66.574,77.833236
12,1,66.574,77.833236
13,1,66.574,77.833236
14,1,66.574,77.833236
15,1,66.574,77.833236
16,1,66.574,77.833236
17,1,66.58058,77.833236
18,1,66.668,77.833236
19,1,66.668,77.833236
20,1,66.62598,77.833236
21,1,66.477,77.833236
22,1,66.51366,77.833236
23,1,66.571,77.833236
24,1,66.571,77.833236
25,1,66.571,77.833236
26,1,66.571,77.833236
27,1,66.571,77.833236
28,1,66.571,77.833236
29,1,66.57382,77.833236
30,1,66.574,77.833236
31,1,66.574,77.833236
32,1,67.58125,77.833236
33,1,67.917,77.833236
34,1,67.917,77.833236
35,1,70.23704,77.833236
36,1,71.659,77.833236
37,1,71.659,77.833236
38,1,72.7471,77.833236
39,1,73.674,77.833236
40,1,73.674,77.833236
41,1,75.31902,77.833236
42,1,76.56,77.833236
43,1,76.56,77.833236
44,1,78.72905,77.833236
45,1,79.615,77.833236
46,1,79.615,77.833236
47,1,77.31963,77.833236
48,1,76.634,77.833236
49,1,76.634,77.833236
50,1,79.14407,77.833236
51,1,79.333,77.833236
52,1,79.4584,77.833236
53,1,79.903,77.833236
54,1,79.903,77.833236
55,1,80.1435,77.833236
56,1,80.384,77.833236
57,1,80.384,77.833236
58,1,76.81784,77.833236
59,1,75.812,77.833236
60,1,75.87836,77.833236
61,1,79.13,77.833236
62,1,79.13,77.833236
63,1,79.2565,77.833236
64,1,79.705,77.833236
65,1,79.705,77.833236
66,1,78.81885,77.833236
67,1,77.31,77.833236
68,1,77.31,77.833236
69,1,78.3075,77.833236
70,1,78.735,77.833236
71,1,78.74187,77.833236
72,1,79.422,77.833236
73,1,79.422,77.833236
74,1,79.17737,77.833236
75,1,77.983,77.833236
76,1,77.983,77.833236
77,1,78.54503,77.833236
78,1,79.13,77.833236
79,1,79.13,77.833236
80,1,77.19086,77.833236
81,1,76.052,77.833236
82,1,76.11374,77.833236
83,1,79.139,77.833236
84,1,79.139,77.833236
85,1,79.30517,77.833236
86,1,79.712,77.833236
87,1,79.712,77.833236
88,1,79.1724,77.833236
89,1,78.363,77.833236
90,1,78.363,77.833236
91,1,79.12916,77.833236
92,1,79.619,77.833236
93,1,79.619,77.833236
94,1,80.21703,77.833236
95,1,80.376,77.833236
96,1,80.376,77.833236
97,1,79.17207,77.833236
98,1,79.053,77.833236
99,1,79.0916,77.833236
100,1,79.246,77.833236
101,1,79.246,77.833236
102,1,78.3835,77.833236
103,1,76.371,77.833236
104,1,76.371,77.833236
105,1,78.0171,77.833236
106,1,80.029,77.833236
107,1,80.029,77.833236
108,1,79.32115,77.833236
109,1,78.742,77.833236
110,1,78.742,77.833236
111,1,78.38488,77.833236
112,1,78.166,77.833236
113,1,78.166,77.833236
114,1,78.3228,77.833236
115,1,78.39,77.833236
116,1,78.39,77.833236
117,1,78.16564,77.833236
118,1,78.106,77.833236
119,1,78.106,77.833236
120,1,77.86392,77.833236
121,1,77.834,77.833236
122,1,77.8763,77.833236
123,1,79.244,77.833236
124,1,79.244,77.833236
125,1,76.08155,77.833236
126,1,75.609,77.833236
127,1,76.92255,77.833236
128,1,77.694,77.833236
129,1,77.694,77.833236
130,1,78.42632,77.833236
131,1,78.49,77.833236
132,1,78.1816,77.833236
133,1,76.948,77.833236
134,1,76.948,77.833236
135,1,77.25184,77.833236
136,1,77.792,77.833236
137,1,77.792,77.833236
138,1,77.8471,77.833236
139,1,77.887,77.833236
140,1,77.887,77.833236
141,1,75.67402,77.833236
142,1,75.013,77.833236
143,1,75.013,77.833236
144,1,77.886,77.833236
145,1,77.886,77.833236
146,1,77.9094,77.833236
147,1,78.081,77.833236
148,1,78.081,77.833236
149,1,78.11298,77.833236
150,1,78.204,77.833236
151,1,78.204,77.833236
152,1,77.4796,77.833236
153,1,76.393,77.833236
154,1,76.393,77.833236
155,1,76.75642,77.833236
156,1,77.066,77.833236
157,1,77.066,77.833236
158,1,76.91659,77.833236
159,1,76.843,77.833236
160,1,76.843,77.833236
161,1,76.8619,77.833236
162,1,76.864,77.833236
163,1,76.66224,77.833236
164,1,75.603,77.833236
165,1,75.603,77.833236
166,1,75.78832,77.833236
167,1,76.055,77.833236
168,1,76.055,77.833236
169,1,75.50627,77.833236
170,1,75.184,77.833236
171,1,75.184,77.833236
172,1,75.70907,77.833236
173,1,75.761,77.833236
174,1,75.69276,77.833236
175,1,74.908,77.833236
176,1,74.908,77.833236
177,1,75.13705,77.833236
178,1,75.32148,77.833236
179,1,72.233,77.833236
180,1,72.233,77.833236
181,1,72.7214,77.833236
182,1,74.453,77.833236
183,1,74.453,77.833236
184,1,74.3022,77.833236
185,1,74.076,77.833236
186,1,74.076,77.833236
187,1,74.18279,77.833236
188,1,74.257,77.833236
189,1,74.257,77.833236
190,1,74.82316,77.833236
191,1,74.931,77.833236
192,1,74.93028,77.833236
193,1,74.919,77.833236
194,1,74.919,77.833236
195,1,74.92656,77.833236
196,1,74.947,77.833236
197,1,74.947,77.833236
198,1,75.11582,77.833236
199,1,75.314,77.833236
200,1,75.314,77.833236
201,1,74.66923,77.833236
202,1,74.257,77.833236
203,1,74.257,77.833236
204,1,74.10067,77.833236
205,1,74.064,77.833236
206,1,74.0928,77.833236
207,1,74.544,77.833236
208,1,74.544,77.833236
209,1,74.53563,77.833236
210,1,74.513,77.833236
211,1,74.513,77.833236
212,1,74.16188,77.833236
213,1,73.677,77.833236
214,1,73.677,77.833236
215,1,74.32215,77.833236
216,1,74.612,77.833236
217,1,74.612,77.833236
218,1,75.33833,77.833236
219,1,75.393,77.833236
220,1,75.18158,77.833236
221,1,74.432,77.833236
222,1,74.432,77.833236
223,1,73.9172,77.833236
224,1,73.262,77.833236
225,1,73.262,77.833236
226,1,74.10746,77.833236
227,1,74.543,77.833236
228,1,74.543,77.833236
229,0.4,73.6241,77.833236
