259834 4840 2036 137
251450 3961 897 41
251449 3960 897 41
251491 3960 897 41
251409 3958 897 41
251520 3961 897 41
251459 3960 897 41
251465 3959 897 41
251519 3960 897 41
171890 3501 1465 94
number of instructions: 9638408142
