omp threads,PACKAGE_ENERGY:PACKAGE0,PACKAGE_ENERGY:PACKAGE1,DRAM_ENERGY:PACKAGE0,DRAM_ENERGY:PACKAGE1,TOTAL_ENERGY,TOTAL_TIME,POWER
1,82.443725585,91.311340332,10.148483276,11.107528686,195.011077879,1.71558201313,113.670507376788
2,47.344909667,47.461914062,5.552551269,5.781982421,106.141357419,0.867552995682,122.345675650154
4,29.031860351,27.121582031,3.062469482,3.410247802,62.626159666,0.46751999855,133.953969584569
6,18.501708984,18.887817382,1.950332641,2.330612182,41.670471189,0.29427999258,141.601441618948
8,15.689208984,16.059753417,1.584106445,1.919158935,35.252227781,0.222817003727,158.211569096397
10,12.335510253,10.967651367,1.222213745,1.544509887,26.069885252,0.182172000408,143.105884513471
12,11.543395996,10.87713623,1.02909851,1.358840942,24.808471678,0.153124004602,162.015562108712
14,11.211914062,11.248413085,0.982543945,1.288269042,24.731140134,0.131895005703,187.506266838447
16,9.874267578,9.91796875,0.827285766,1.144744873,21.764266967,0.117197997868,185.70510898575
18,9.866333007,10.014099121,0.815628051,1.127944946,21.824005125,0.110913001001,196.766879699041
20,8.210144042,8.887207031,0.701156616,1.01184082,18.810348509,0.099126003683,189.761997964005
22,8.023498535,8.196838378,0.619033813,0.908874511,17.748245237,0.091421000659,194.137507891764
24,8.277832031,8.264709472,0.612457275,0.89503479,18.050033568,0.08641000092,208.888246450191
26,7.986022949,8.099426269,0.589797973,0.869644165,17.544891356,0.082698002458,212.156168644962
28,7.882507324,7.984680175,0.559753417,0.835830688,17.262771604,0.077752001584,222.023501034171
30,9.621948242,9.846191406,0.718338012,0.991760253,21.178237913,0.104708001018,202.259977338754
32,9.50024414,9.2288208,0.999664306,0.651397705,20.380126951,0.100533001125,202.7207655493
34,9.253356933,9.252441406,0.692108154,0.967575073,20.165481566,0.097572997212,206.670719790447
36,8.686279296,8.829589843,0.63722229,0.920547485,19.073638914,0.093097999692,204.87700033416
38,8.880615234,11.330627441,0.77708435,1.035430908,22.023757933,0.114635996521,192.119042896424
40,8.097534179,8.837219238,0.606414794,0.866897583,18.408065794,0.087241001427,211.002458624533
42,8.778930664,8.800292968,0.664978027,0.940231323,19.184432982,0.086129002273,222.740685201175
44,8.018798828,8.250793457,0.590805053,0.874496459,17.734893797,0.084664002061,209.473842073342
46,9.4921875,9.905883789,0.774139404,1.034835815,21.207046508,0.096868000925,218.927264995485
48,8.794921875,8.543151855,0.960433959,0.616058349,18.914566038,0.087803997099,215.418052285109
50,11.725830078,10.840637207,1.160720825,0.795669555,24.522857665,0.128574997187,190.728043566655
52,37.758544921,37.663574218,2.935501098,3.14414978,81.501770017,0.465018004179,175.265837633304
54,12.913940429,12.721374511,1.007537841,1.243331909,27.88618469,0.138115003705,201.905542062303
56,31.590515136,30.366760253,2.676361083,2.255874633,66.889511105,0.374509006739,178.605881037399
,,,,,,,
,,,,,,,
default num omp threads(56),24.030761718,23.480773925,1.880401611,2.115188598,51.507125852,0.287719994783,179.018235735668
