20535710,364055,16787017,1950336,49475,29955,209221,81813,416421,284003,2457,4242,12654,48595,277596,15452,237,323,458,646,754
5997203,167383,4625704,544915,28199,45727,133569,66527,195562,7966,678,2797,11695,47919,111216,145,246,319,460,637,5539
number,of,instructions:,133661820
