omp threads,kernel time ,,serial,speedup
1,40.785717010498,,40.785717010498,1
2,20.951791763306,,40.785717010498,1.94664577957138
3,21.23296546936,,40.785717010498,1.92086767481223
4,20.725114822388,,40.785717010498,1.96793684184755
5,20.649564743042,,40.785717010498,1.97513688632304
6,21.156234741211,,40.785717010498,1.92783439536384
7,21.002319335938,,40.785717010498,1.94196252128724
8,20.803230285645,,40.785717010498,1.96054730205249
9,20.711456298828,,40.785717010498,1.96923463140571
10,20.581348419189,,40.785717010498,1.9816834242246
11,20.646005630493,,40.785717010498,1.9754773751616
12,20.768636703491,,40.785717010498,1.96381291621526
13,20.888082504272,,40.785717010498,1.95258310580478
14,20.8310546875,,40.785717010498,1.95792856494069
15,20.755979537964,,40.785717010498,1.96501046534076
16,20.693521499634,,40.785717010498,1.97094134080656
17,20.868341445923,,40.785717010498,1.95443021268306
18,20.7907371521,,40.785717010498,1.96172539300168
19,20.805347442627,,40.785717010498,1.96034779630425
20,20.858016967773,,40.785717010498,1.95539763312661
21,20.737983703613,,40.785717010498,1.96671564571595
22,20.723932266235,,40.785717010498,1.96804913693668
23,20.758043289185,,40.785717010498,1.96481510527283
24,21.084300994873,,40.785717010498,1.93441162789394
25,21.00772857666,,40.785717010498,1.9414624889914
26,20.863138198853,,40.785717010498,1.9549176457423
27,20.918796539307,,40.785717010498,1.94971622453808
28,20.882091522217,,40.785717010498,1.95314329348212
29,20.761981964111,,40.785717010498,1.96444236783366
30,20.842641830444,,40.785717010498,1.95684008497061
31,21.016023635864,,40.785717010498,1.94069619054372
32,20.987012863159,,40.785717010498,1.94337885417195
33,21.181922912598,,40.785717010498,1.92549643291547
34,30.491107940674,,40.785717010498,1.33762659887119
35,30.578285217285,,40.785717010498,1.33381308731606
36,27.164440155029,,40.785717010498,1.50143779064584
37,30.031051635742,,40.785717010498,1.35811817398882
38,30.945755004883,,40.785717010498,1.31797453331038
39,29.343481063843,,40.785717010498,1.38994132706205
40,32.4990234375,,40.785717010498,1.25498284860573
41,33.43334197998,,40.785717010498,1.21991145949216
42,32.512454986572,,40.785717010498,1.25446438994973
43,32.32479095459,,40.785717010498,1.26174727835963
44,32.289505004883,,40.785717010498,1.26312611495067
45,31.86053276062,,40.785717010498,1.28013292548923
46,32.98893737793,,40.785717010498,1.23634527972957
47,32.944240570068,,40.785717010498,1.23802268028465
48,32.594970703125,,40.785717010498,1.25128865376117
49,32.063049316406,,40.785717010498,1.27204735295182
50,33.754344940186,,40.785717010498,1.20831013259987
51,33.18962097168,,40.785717010498,1.22886962298544
52,33.586894989014,,40.785717010498,1.21433425220875
53,32.844535827637,,40.785717010498,1.24178089239973
54,33.819221496582,,40.785717010498,1.20599219040628
55,33.785552978516,,40.785717010498,1.20719400497702
56,33.83443069458,,40.785717010498,1.20545007476752
