1.000000,68.687270
1.000000,68.612000
1.000000,68.614317
1.000000,68.612000
1.000000,68.602203
1.000000,68.589690
1.000000,68.582577
1.000000,68.612000
1.000000,68.613113
1.000000,68.596402
1.000000,68.567671
1.000000,68.558553
1.000000,68.547010
1.000000,68.569999
1.000000,68.556419
1.000000,68.547107
1.000000,68.604046
1.000000,68.547786
1.000000,68.553412
1.000000,68.576591
1.000000,68.521956
1.000000,68.547318
1.000000,68.576401
1.000000,68.549823
1.000000,68.547010
1.000000,68.578826
1.000000,68.515291
1.000000,68.551666
1.000000,68.574655
1.000000,68.515000
1.000000,68.521887
1.000000,68.572783
1.000000,68.516757
1.000000,68.517982
1.000000,68.548669
1.000000,68.557777
1.000000,68.536437
1.000000,68.547107
1.000000,68.560202
1.000000,68.547786
1.000000,68.565246
1.000000,68.515000
1.000000,68.515000
1.000000,68.535952
1.000000,68.557971
1.000000,68.547010
1.000000,68.515000
1.000000,75.034833
1.000000,86.008366
1.000000,86.016576
1.000000,85.916230
1.000000,85.812026
1.000000,85.723976
1.000000,85.700191
1.000000,85.826034
1.000000,85.778590
1.000000,85.839652
1.000000,86.160179
1.000000,86.069871
1.000000,85.995381
1.000000,86.059591
1.000000,85.901405
1.000000,85.796798
1.000000,85.379359
1.000000,85.250113
1.000000,85.204670
1.000000,85.141653
1.000000,85.217107
1.000000,84.684699
1.000000,85.084415
1.000000,85.066549
1.000000,85.190521
1.000000,85.144121
1.000000,85.144686
1.000000,85.027533
1.000000,84.933434
1.000000,85.329767
1.000000,85.296651
1.000000,85.166849
1.000000,85.041647
1.000000,85.024586
1.000000,85.089894
1.000000,84.843394
1.000000,84.584120
1.000000,84.766840
1.000000,84.652360
1.000000,84.699401
1.000000,84.639466
1.000000,84.537816
1.000000,84.630273
1.000000,84.629024
1.000000,84.500734
1.000000,84.451695
1.000000,84.122168
1.000000,84.424984
1.000000,84.485594
1.000000,84.572635
1.000000,84.384773
1.000000,84.308685
1.000000,84.394480
1.000000,84.256514
1.000000,84.187502
1.000000,84.077485
1.000000,83.962524
1.000000,83.857511
1.000000,83.516068
1.000000,83.781839
1.000000,83.765410
1.000000,83.696575
1.000000,83.716805
1.000000,83.638547
1.000000,83.686140
1.000000,83.630692
1.000000,83.667683
1.000000,83.766970
1.000000,83.744926
1.000000,83.653608
1.000000,83.593695
1.000000,83.869716
1.000000,83.759280
1.000000,83.565828
1.000000,83.518914
1.000000,83.468541
1.000000,83.474955
1.000000,83.493503
1.000000,83.451152
1.000000,83.495587
1.000000,83.428266
1.000000,83.366512
1.000000,83.290078
1.000000,83.288510
1.000000,83.393959
1.000000,83.538891
1.000000,83.535999
1.000000,83.494479
1.000000,83.456644
1.000000,83.399161
1.000000,83.207846
1.000000,83.096641
1.000000,82.975518
1.000000,83.108982
1.000000,83.014602
1.000000,83.055823
1.000000,83.069740
1.000000,83.173966
1.000000,83.475708
1.000000,83.353141
1.000000,83.350065
1.000000,83.601907
1.000000,83.586660
1.000000,83.623744
1.000000,83.713123
1.000000,83.602860
1.000000,83.657754
1.000000,83.471046
1.000000,83.731940
1.000000,83.883037
1.000000,83.846424
1.000000,83.693639
1.000000,83.724170
1.000000,83.689260
1.000000,83.789721
1.000000,83.751028
1.000000,83.841683
1.000000,83.878669
1.000000,83.968523
1.000000,83.918674
1.000000,84.114179
1.000000,84.264640
1.000000,84.257826
1.000000,84.243373
1.000000,84.272551
1.000000,84.199409
1.000000,84.310018
1.000000,84.284742
1.000000,84.304257
1.000000,84.139905
1.000000,84.077555
1.000000,84.249354
1.000000,84.144107
1.000000,84.485313
1.000000,84.612757
1.000000,84.496508
1.000000,84.497070
1.000000,84.496266
1.000000,84.478746
1.000000,84.682096
1.000000,84.624292
1.000000,84.709138
1.000000,85.210274
1.000000,85.077681
1.000000,85.212898
1.000000,85.439818
1.000000,85.536837
1.000000,85.599463
1.000000,85.457665
1.000000,85.234556
1.000000,85.228862
1.000000,85.249664
1.000000,85.238831
1.000000,85.269480
1.000000,85.221370
1.000000,85.120444
1.000000,84.847965
1.000000,85.186792
1.000000,85.206586
1.000000,85.248286
1.000000,85.732248
1.000000,85.774566
1.000000,85.962532
1.000000,86.063069
1.000000,86.149717
1.000000,86.228592
1.000000,86.013256
1.000000,85.771379
1.000000,85.424394
1.000000,85.745569
1.000000,85.747390
1.000000,85.790989
1.000000,85.721199
1.000000,85.772868
1.000000,85.825057
1.000000,85.860705
1.000000,85.881517
1.000000,85.951564
1.000000,85.902283
1.000000,86.292352
1.000000,86.412170
1.000000,86.293177
1.000000,86.261415
1.000000,86.290026
1.000000,86.300577
1.000000,86.035268
1.000000,85.772059
1.000000,85.771790
1.000000,85.762608
1.000000,85.758371
1.000000,85.700612
1.000000,85.725469
1.000000,85.740330
1.000000,85.521260
1.000000,86.078220
1.000000,86.074296
1.000000,86.253226
1.000000,86.694126
1.000000,86.724804
1.000000,86.799410
1.000000,86.762894
1.000000,86.774683
1.000000,86.836401
1.000000,86.756333
1.000000,86.390096
1.000000,85.903248
1.000000,86.537624
1.000000,86.591907
1.000000,86.596075
1.000000,86.670901
1.000000,86.639785
1.000000,86.600915
1.000000,86.629688
1.000000,86.684269
1.000000,86.620282
1.000000,87.032152
1.000000,87.313152
1.000000,87.627141
1.000000,87.408981
1.000000,87.353306
1.000000,87.448513
1.000000,87.037251
1.000000,86.931378
1.000000,86.918940
1.000000,86.987853
1.000000,86.848578
1.000000,87.150492
1.000000,87.201003
1.000000,87.208945
1.000000,87.250266
1.000000,87.126111
1.000000,87.331169
1.000000,87.944088
1.000000,88.100172
1.000000,88.080344
1.000000,88.164372
1.000000,88.226560
1.000000,88.171799
1.000000,87.945158
1.000000,87.418229
1.000000,87.462040
1.000000,87.517581
1.000000,87.482154
1.000000,87.555024
1.000000,87.467312
1.000000,87.487256
1.000000,87.581420
1.000000,87.542704
1.000000,87.526192
1.000000,87.509680
1.000000,87.696852
1.000000,88.156635
1.000000,88.174994
1.000000,89.149733
1.000000,88.321704
1.000000,88.303051
1.000000,88.240802
1.000000,87.822292
1.000000,87.888124
1.000000,87.867110
1.000000,87.890567
1.000000,87.904799
1.000000,87.777725
1.000000,87.834074
1.000000,87.801685
1.000000,87.854095
1.000000,87.917742
1.000000,87.845547
1.000000,87.786261
1.000000,87.809940
1.000000,87.744096
1.000000,87.683411
1.000000,87.791555
1.000000,87.918263
1.000000,87.887411
1.000000,87.758559
1.000000,87.774077
1.000000,87.826464
1.000000,88.524307
1.000000,88.032533
1.000000,87.943287
1.000000,87.831083
1.000000,87.875527
1.000000,87.811583
1.000000,87.798852
1.000000,87.882111
1.000000,87.988683
1.000000,87.958383
1.000000,88.093010
1.000000,88.100958
1.000000,88.963530
1.000000,87.963130
1.000000,87.950348
1.000000,88.014143
1.000000,87.974930
1.000000,87.997035
1.000000,87.710212
1.000000,87.624594
1.000000,87.651882
1.000000,87.405969
1.000000,87.498340
1.000000,87.379723
1.000000,87.322978
1.000000,87.351023
1.000000,87.328675
1.000000,87.162026
1.000000,87.201184
1.000000,87.203844
1.000000,87.236985
1.000000,87.170224
1.000000,87.204430
1.000000,87.034882
1.000000,87.039166
1.000000,87.022322
1.000000,87.043116
1.000000,87.133557
1.000000,87.071768
1.000000,87.122148
1.000000,87.123082
1.000000,87.020956
1.000000,87.014387
1.000000,86.984944
1.000000,86.930458
1.000000,86.869147
1.000000,86.926684
1.000000,86.814319
1.000000,86.764917
1.000000,86.692909
1.000000,86.654487
1.000000,86.591054
1.000000,86.509138
1.000000,86.524576
1.000000,86.360117
1.000000,86.354662
1.000000,86.321642
1.000000,86.235775
1.000000,86.139337
1.000000,86.129685
1.000000,86.068676
1.000000,86.067518
1.000000,86.185279
1.000000,86.009396
1.000000,85.868275
1.000000,85.857240
1.000000,85.889558
1.000000,85.752189
1.000000,85.649132
1.000000,85.641250
1.000000,85.626869
1.000000,85.556985
1.000000,85.487501
1.000000,85.479599
1.000000,85.482253
1.000000,85.399146
1.000000,85.321964
1.000000,85.361365
1.000000,85.270015
1.000000,85.189344
1.000000,85.263663
1.000000,85.282650
1.000000,85.037775
1.000000,84.971338
1.000000,84.904940
1.000000,84.700220
1.000000,84.086552
1.000000,84.703220
1.000000,84.681402
1.000000,84.660717
1.000000,84.635531
1.000000,84.511708
1.000000,84.562335
1.000000,84.623355
1.000000,84.575261
1.000000,84.520924
1.000000,84.521385
1.000000,84.514281
1.000000,84.602466
1.000000,83.902407
1.000000,84.541447
1.000000,84.459462
1.000000,84.418795
1.000000,84.521311
1.000000,84.381156
1.000000,84.380702
1.000000,84.484192
1.000000,84.467605
1.000000,84.333076
1.000000,84.211650
1.000000,84.247113
1.000000,83.628545
1.000000,84.137978
1.000000,83.954601
1.000000,83.913485
1.000000,83.837415
1.000000,83.701642
1.000000,83.586443
1.000000,83.448216
1.000000,83.538830
1.000000,83.446256
1.000000,83.455097
1.000000,83.296211
1.000000,83.351358
1.000000,82.930652
1.000000,83.280306
1.000000,83.240063
1.000000,83.093740
1.000000,83.081412
1.000000,83.052481
1.000000,83.021852
1.000000,83.041218
1.000000,82.988200
1.000000,82.946788
1.000000,82.965832
1.000000,82.918152
1.000000,82.803724
1.000000,82.753340
1.000000,82.683511
1.000000,82.704353
1.000000,82.691630
1.000000,82.624464
1.000000,82.534829
1.000000,82.568795
1.000000,82.518047
1.000000,82.492370
1.000000,82.410758
1.000000,82.390056
1.000000,82.301626
1.000000,82.329537
1.000000,82.263550
1.000000,82.313697
1.000000,82.233901
1.000000,82.210552
1.000000,82.242387
1.000000,82.235502
1.000000,82.155495
1.000000,82.148439
1.000000,82.153261
1.000000,81.980114
1.000000,81.980666
1.000000,82.010790
1.000000,81.976276
1.000000,82.037188
1.000000,81.989000
1.000000,81.915159
1.000000,81.949770
1.000000,81.815134
1.000000,81.731606
1.000000,81.828166
1.000000,81.699406
1.000000,81.621811
1.000000,81.519152
1.000000,81.234168
1.000000,81.533764
1.000000,81.533764
1.000000,81.485458
1.000000,81.448034
1.000000,81.510109
1.000000,81.509611
1.000000,81.459500
1.000000,81.370330
1.000000,81.293818
1.000000,81.227160
1.000000,81.145662
1.000000,81.207184
1.000000,80.914568
1.000000,81.157060
1.000000,81.182692
1.000000,81.147252
1.000000,81.062408
1.000000,80.965144
1.000000,80.965144
1.000000,80.977476
1.000000,81.157100
1.000000,81.152040
1.000000,81.229458
1.000000,81.216512
1.000000,81.002001
1.000000,81.245299
1.000000,81.210203
1.000000,81.240200
1.000000,81.234328
1.000000,81.153904
1.000000,81.208500
1.000000,81.098502
1.000000,80.889282
1.000000,80.840038
1.000000,80.784125
1.000000,80.827470
1.000000,80.746996
1.000000,80.706685
1.000000,80.791977
1.000000,80.875872
1.000000,80.830507
1.000000,80.700910
1.000000,80.666710
1.000000,80.630309
1.000000,80.642715
1.000000,80.641101
1.000000,80.661086
1.000000,80.641847
1.000000,80.464465
1.000000,80.474935
1.000000,80.463331
1.000000,80.463646
1.000000,80.491312
1.000000,80.467600
1.000000,80.374607
1.000000,80.459574
1.000000,80.391355
1.000000,80.392180
1.000000,80.342065
1.000000,80.355085
1.000000,80.225996
1.000000,80.214756
1.000000,80.153384
1.000000,80.181457
1.000000,80.127468
1.000000,80.027356
1.000000,80.048244
1.000000,80.012512
1.000000,80.009536
1.000000,79.942818
1.000000,79.889120
1.000000,79.903724
1.000000,79.872558
1.000000,79.784272
1.000000,79.848360
1.000000,79.792655
1.000000,79.778186
1.000000,79.817496
1.000000,79.650921
1.000000,79.645664
1.000000,79.622600
1.000000,79.617004
1.000000,79.553521
1.000000,79.541529
1.000000,79.460800
1.000000,79.462535
1.000000,79.421482
1.000000,79.419939
1.000000,79.443118
1.000000,79.435745
1.000000,79.457552
1.000000,79.469005
1.000000,79.471657
1.000000,79.488602
1.000000,79.490093
1.000000,79.441384
1.000000,79.454638
1.000000,79.435165
1.000000,79.371226
1.000000,79.411577
1.000000,79.295844
1.000000,79.258558
1.000000,79.259939
1.000000,79.289538
1.000000,79.273395
1.000000,79.295495
1.000000,79.217577
1.000000,79.219333
1.000000,79.180738
1.000000,79.256600
1.000000,79.214558
1.000000,79.313327
1.000000,79.250174
1.000000,79.279617
1.000000,79.214000
1.000000,79.180460
1.000000,79.130448
1.000000,79.101400
1.000000,79.079901
1.000000,79.164914
1.000000,79.207978
1.000000,79.114180
1.000000,79.089967
1.000000,79.255456
1.000000,79.109836
1.000000,79.072687
1.000000,79.233583
1.000000,79.292380
1.000000,79.319647
1.000000,79.501906
1.000000,79.689615
1.000000,79.663000
1.000000,79.799862
1.000000,79.727084
1.000000,79.833082
1.000000,79.807927
1.000000,80.011526
1.000000,79.991303
1.000000,80.208582
1.000000,80.111209
1.000000,80.080223
1.000000,80.233201
1.000000,80.342204
1.000000,80.357394
1.000000,80.508753
1.000000,80.502277
1.000000,80.623266
1.000000,80.764111
1.000000,80.938128
1.000000,80.829136
1.000000,80.851385
1.000000,80.730395
1.000000,80.997895
1.000000,81.136965
1.000000,81.213511
1.000000,81.354957
1.000000,81.424785
1.000000,81.448513
1.000000,81.497392
1.000000,81.822326
1.000000,82.156932
1.000000,82.330100
1.000000,82.469492
1.000000,82.551324
1.000000,82.404387
1.000000,82.400682
1.000000,82.597887
1.000000,82.701798
1.000000,82.805720
1.000000,82.684816
1.000000,82.712394
1.000000,82.877726
1.000000,83.029397
1.000000,83.020058
1.000000,83.030952
1.000000,83.005907
1.000000,83.008661
1.000000,83.012278
1.000000,82.927498
1.000000,83.017693
1.000000,83.136916
1.000000,83.122603
1.000000,83.421506
1.000000,83.390428
1.000000,83.428863
1.000000,83.440229
1.000000,83.656268
1.000000,83.649121
1.000000,83.590571
1.000000,83.546360
1.000000,83.643220
1.000000,83.673022
1.000000,83.688663
1.000000,83.689792
1.000000,83.642318
1.000000,83.663774
1.000000,83.581669
1.000000,83.694919
1.000000,83.490004
1.000000,83.850606
1.000000,83.920219
1.000000,83.928133
1.000000,83.973951
1.000000,83.989413
1.000000,84.454968
1.000000,84.409854
1.000000,84.419992
1.000000,84.353837
1.000000,84.596484
1.000000,84.628425
1.000000,84.679982
1.000000,84.564620
1.000000,84.524698
1.000000,84.536392
1.000000,84.595004
1.000000,84.648862
1.000000,84.873318
1.000000,84.959167
1.000000,84.636090
1.000000,84.875330
1.000000,85.033084
1.000000,85.017914
1.000000,85.107450
1.000000,85.134448
1.000000,85.226752
1.000000,85.197626
1.000000,85.337897
1.000000,85.383019
1.000000,85.442936
1.000000,85.758396
1.000000,85.846237
1.000000,85.907002
1.000000,85.752505
1.000000,85.644084
1.000000,85.850094
1.000000,85.123711
1.000000,85.031662
1.000000,85.187699
1.000000,85.110497
1.000000,85.048418
1.000000,85.024535
1.000000,85.123136
1.000000,85.232416
1.000000,85.331559
1.000000,85.189062
1.000000,85.187755
1.000000,85.834827
1.000000,85.607172
1.000000,85.589382
1.000000,85.421532
1.000000,85.384958
1.000000,85.237871
1.000000,85.019382
1.000000,84.987460
1.000000,84.951101
1.000000,85.070696
1.000000,84.882765
1.000000,84.934840
1.000000,84.979722
1.000000,85.117400
1.000000,85.066571
1.000000,85.242132
1.000000,85.371976
1.000000,85.462944
1.000000,85.409530
1.000000,85.718331
1.000000,85.764788
1.000000,85.807267
1.000000,85.894914
1.000000,85.879195
1.000000,85.842494
1.000000,85.905399
1.000000,85.520738
1.000000,85.606122
1.000000,85.619874
1.000000,85.646153
1.000000,85.581595
1.000000,85.642089
1.000000,85.678296
1.000000,85.658887
1.000000,85.641933
1.000000,85.649636
1.000000,85.644409
1.000000,86.646728
1.000000,86.133234
1.000000,86.152857
1.000000,86.210091
1.000000,86.092974
1.000000,85.980975
1.000000,85.600410
1.000000,85.517809
1.000000,85.659945
1.000000,85.620296
1.000000,85.614410
1.000000,85.691757
1.000000,85.843277
1.000000,85.859834
1.000000,85.924788
1.000000,85.832992
1.000000,86.074886
1.000000,86.242149
1.000000,86.232221
1.000000,86.144648
1.000000,86.172287
1.000000,86.113073
1.000000,86.213304
1.000000,85.914553
1.000000,85.810956
1.000000,85.685113
1.000000,85.689005
1.000000,85.722550
1.000000,85.568503
1.000000,85.746228
1.000000,85.622253
1.000000,85.642773
1.000000,85.589703
1.000000,85.721997
1.000000,86.216322
1.000000,86.123142
1.000000,86.796804
1.000000,86.222886
1.000000,86.258928
1.000000,86.096282
1.000000,85.939918
1.000000,85.859463
1.000000,85.857814
1.000000,85.837352
1.000000,85.895240
1.000000,85.927528
1.000000,86.037630
1.000000,85.971725
1.000000,85.862391
1.000000,85.947532
1.000000,86.067883
1.000000,86.387753
1.000000,86.567138
1.000000,86.559104
1.000000,86.409786
1.000000,86.557878
1.000000,86.471687
1.000000,86.300974
1.000000,85.954252
1.000000,85.876316
1.000000,85.429428
1.000000,85.971732
1.000000,85.943064
1.000000,85.987100
1.000000,85.928771
1.000000,85.980669
1.000000,85.994146
1.000000,86.054985
1.000000,86.400761
1.000000,86.594224
1.000000,86.696597
1.000000,86.769274
1.000000,86.885402
1.000000,86.878362
1.000000,86.275860
1.000000,86.328036
1.000000,86.215241
1.000000,86.284724
1.000000,86.233579
1.000000,86.160741
1.000000,86.146210
1.000000,86.212292
1.000000,86.145675
1.000000,86.155264
1.000000,86.122511
1.000000,85.893267
1.000000,86.706705
1.000000,86.723869
1.000000,86.664066
1.000000,86.794772
1.000000,86.669626
1.000000,86.757501
1.000000,86.405436
1.000000,86.193657
1.000000,86.153552
1.000000,86.103120
1.000000,86.119907
1.000000,85.738016
1.000000,86.140519
1.000000,85.978557
1.000000,86.115789
1.000000,86.148486
1.000000,86.180738
1.000000,86.499060
1.000000,86.627976
1.000000,86.683515
1.000000,86.586311
1.000000,86.595227
1.000000,86.608745
1.000000,86.188815
1.000000,86.040606
1.000000,86.108436
1.000000,86.087412
1.000000,86.006251
1.000000,86.096196
1.000000,86.095445
1.000000,86.118956
1.000000,86.194374
1.000000,86.124946
1.000000,86.105148
1.000000,86.122458
1.000000,86.625876
1.000000,86.769072
1.000000,86.663524
1.000000,86.571881
1.000000,86.519042
1.000000,86.400447
1.000000,86.009270
1.000000,85.978026
1.000000,85.865545
1.000000,85.912550
1.000000,85.882415
1.000000,85.775892
1.000000,85.446132
1.000000,85.711174
1.000000,85.651955
1.000000,85.651317
1.000000,85.595974
1.000000,85.917344
1.000000,86.137980
1.000000,86.352643
1.000000,86.295403
1.000000,86.233610
1.000000,86.321851
1.000000,86.279796
1.000000,85.552240
1.000000,85.885985
1.000000,85.901952
1.000000,85.931149
1.000000,85.841729
1.000000,85.857973
1.000000,85.896589
1.000000,85.947636
1.000000,85.939085
1.000000,86.154839
1.000000,86.039400
1.000000,86.540514
1.000000,86.606021
1.000000,86.537239
1.000000,86.497636
1.000000,86.489049
1.000000,86.424852
1.000000,86.073151
1.000000,85.911309
1.000000,85.915476
1.000000,85.944563
1.000000,85.879420
1.000000,85.904839
1.000000,85.858375
1.000000,85.837792
1.000000,85.593775
1.000000,85.924442
1.000000,86.004714
1.000000,86.087173
1.000000,86.342863
1.000000,86.340852
1.000000,86.440349
1.000000,86.481450
1.000000,86.316851
1.000000,86.281740
1.000000,85.728008
1.000000,85.888026
1.000000,85.503306
1.000000,85.963610
1.000000,85.987761
1.000000,86.016723
1.000000,86.059013
1.000000,86.104416
1.000000,86.148930
1.000000,86.292101
1.000000,86.210702
1.000000,86.397813
1.000000,86.675818
1.000000,86.711567
1.000000,86.744109
1.000000,86.739369
1.000000,86.745976
1.000000,86.509379
1.000000,86.130244
1.000000,86.153233
1.000000,86.084741
1.000000,86.176594
1.000000,86.112770
1.000000,86.110951
1.000000,86.080179
1.000000,86.123114
1.000000,85.765062
1.000000,85.986553
1.000000,85.802579
1.000000,85.889340
1.000000,86.092687
1.000000,86.132628
1.000000,85.985258
1.000000,85.985372
1.000000,85.924617
1.000000,85.968558
1.000000,86.133279
1.000000,86.126981
1.000000,85.135107
1.000000,85.705716
1.000000,85.698905
1.000000,85.894389
1.000000,85.794891
1.000000,85.768033
1.000000,85.742508
1.000000,85.664460
1.000000,85.725286
1.000000,85.633638
1.000000,85.595170
1.000000,85.630338
1.000000,86.206163
1.000000,86.000879
1.000000,85.869268
1.000000,85.843191
1.000000,85.777226
1.000000,85.758796
1.000000,85.498919
1.000000,85.207920
1.000000,85.263286
1.000000,85.226884
1.000000,85.092483
1.000000,85.181627
1.000000,85.209900
1.000000,85.180057
1.000000,85.118289
1.000000,85.120160
1.000000,85.099980
0.692000,82.838098
