1000000000 953612 759437 795257 728076 965459 759432 795890 725154 972996 806432 795680 794137 103568459 1524562 797013
1000000000 944650 750319 789499 717544 944650 749817 789499 716905 944815 800725 789499 789499 103147814 1519218 789499
1000000000 944610 752883 791749 720209 944610 752670 791749 719918 944790 803382 791749 791792 103147237 1521819 791749
1000000000 4762649 4911317 4609131 4714111 4953852 5159821 4610794 4719955 39782635 5542467 12355837 4736165 244788278 6415821 12548967
1000000000 5768346 6000342 5622094 5767594 6012745 6315187 5624231 5773251 50066410 6788359 15578687 5773250 282517477 7704188 15773459
1000000000 2242382 1874947 1959176 1765905 3921370 2079834 3017568 1963679 9402485 2221835 3419881 2009213 104165449 2429395 5738993
1000000000 1426802 1338567 1357460 1315647 2860914 1419021 2538361 1371595 5645337 1517422 2560979 1389785 94985258 1575259 4989392
1000000000 1492562 1359133 1414015 1333302 2989346 1457683 2644042 1418699 5845797 1535003 2665956 1444996 95019515 1636422 5073817
1000000000 1593831 1454337 1516284 1419555 2965649 1584695 2619224 1527364 5866884 1685835 2642214 1555940 94990303 1746614 5118521
909680018 1320488 1164036 1258677 1138793 2667870 1293137 2359807 1257726 5615386 1364948 2380491 1291936 86292334 1463037 4981388
number of instructions: 9909680018
