sample point,power,Kernel average=137.4917263W
1,67.28409,137.4917263
2,67.467,137.4917263
3,67.49998,137.4917263
4,67.564,137.4917263
5,67.564,137.4917263
6,67.56715,137.4917263
7,67.669,137.4917263
8,67.669,137.4917263
9,67.669,137.4917263
10,67.66417,137.4917263
11,67.662,137.4917263
12,67.662,137.4917263
13,67.662,137.4917263
14,67.662,137.4917263
15,67.662,137.4917263
16,67.65225,137.4917263
17,67.467,137.4917263
18,67.467,137.4917263
19,67.467,137.4917263
20,67.54396,137.4917263
21,67.571,137.4917263
22,67.571,137.4917263
23,67.52316,137.4917263
24,67.467,137.4917263
25,67.467,137.4917263
26,67.467,137.4917263
27,67.467,137.4917263
28,83.99901,137.4917263
29,117.564,137.4917263
30,117.564,137.4917263
31,118.26072,137.491726304348
32,134.982,137.4917263
33,134.982,137.4917263
34,134.982,137.4917263
35,136.836,137.4917263
36,137.557,137.4917263
37,137.557,137.4917263
38,137.79892,137.4917263
39,138.133,137.4917263
40,138.133,137.4917263
41,138.14367,137.4917263
42,138.23,137.4917263
43,138.23,137.4917263
44,138.23,137.4917263
45,138.23,137.4917263
46,138.23,137.4917263
47,138.23,137.4917263
48,138.23,137.4917263
49,138.23,137.4917263
50,138.23,137.4917263
51,138.25016,137.4917263
52,138.326,137.4917263
53,138.326,137.4917263
54,138.326,137.4917263
55,138.41233,137.4917263
56,138.423,137.4917263
57,138.423,137.4917263
58,138.423,137.4917263
59,138.423,137.4917263
60,138.423,137.4917263
61,138.423,137.4917263
62,138.423,137.4917263
63,138.423,137.4917263
64,138.423,137.4917263
65,138.51903,137.4917263
66,138.52,137.4917263
67,138.52,137.4917263
68,138.51932,137.4917263
69,138.519,137.4917263
70,138.37116,137.4917263
71,138.327,137.4917263
72,138.327,137.4917263
73,138.37308,137.4917263
74,138.423,137.4917263
75,138.423,137.4917263
76,132.89502,137.4917263
77,107.712,137.4917263
78,107.712,137.4917263
79,107.712,137.4917263
80,78.57692,137.4917263
81,73.834,137.4917263
82,73.834,137.4917263
83,71.0763,137.4917263
