1000000000,344069503,34795079,103674487,654806650,0,34384,20882,6780,240121961,434241,715097,175622
1000000000,344394884,34528911,103220653,655076195,0,0,186,0,240725956,260536,716474,0
1000000000,344394770,34530273,103222345,655074451,0,0,186,0,240726034,260529,716455,0
1000000000,291463576,8851251,244802753,608021039,0,422,4494443,0,112166990,3036023,27476586,1744
1000000000,277458821,2003570,282517477,595321690,0,0,5575252,0,78423773,3714759,34447049,0
1000000000,247416599,40019370,146272170,381437183,3,2013009,9497949,515,82216266,2015529,1872988,322375739
1000000000,245762752,39391952,139926956,364806268,0,28582,9495105,0,74832881,32597,150781,353218316
1000000000,245734373,39474802,140010183,364982559,0,72488,9491957,0,74833342,74522,151685,352938283
1000000000,245831478,39496495,140008915,365051357,0,73832,9488960,0,74925793,75289,151747,352803541
909680018,223668575,35789510,127564001,331828500,0,30730,8626411,0,67963183,33870,137057,321266756
number,of,instructions:,9909680018
