dataset1

file:massif.out.3547

snapshot=89

mem_heap_B=145561720

mem_heap_extra_B=4798872

Total: 150360592 bytes, (~ 143.40 MB)
---------------------------------------

dataset2

file:massif.out.3554

snapshot=72

mem_heap_B=1447138828

mem_heap_extra_B=47709036

Total: 1494847864 bytes, (~ 1425.60 MB)
---------------------------------------

dataset3

file:massif.out.3658

snapshot=53

mem_heap_B=1444658076

mem_heap_extra_B=47590620

Total: 1492248696 bytes, (~ 1423.12 MB)
---------------------------------------

