omp threads,PACKAGE_ENERGY:PACKAGE0,PACKAGE_ENERGY:PACKAGE1,DRAM_ENERGY:PACKAGE0,DRAM_ENERGY:PACKAGE1,TOTAL_ENERGY,TOTAL_TIME,POWER
1,310.826110839,253.238891601,50.139999389,45.151397705,659.356399534,8.784992,75.054866246207
2,222.054626464,240.441711425,29.808944702,27.871124267,520.176406858,4.515787,115.190642707019
3,180.359252929,190.988708496,21.597946166,20.435867309,413.3817749,3.180068,129.991489144257
4,143.109558105,154.148742675,16.675628662,15.576492309,329.510421751,2.49194,132.230479767169
5,127.232421875,134.826110839,16.062911987,13.855392456,291.976837157,2.109367,138.419173693814
6,117.387756347,119.806274414,14.680450439,12.404510498,264.278991698,1.870831,141.262888896966
7,108.994873046,112.825988769,14.360565185,12.556137084,248.737564084,1.673175,148.662013288508
8,99.414855957,98.341247558,10.18913269,9.10206604,217.047302245,1.418358,153.027163977642
9,98.712646484,99.505310058,13.467620849,11.424621582,223.110198973,1.432555,155.742850342919
10,94.430969238,94.67401123,13.374694824,10.289627075,212.769302367,1.320417,161.137960482938
11,85.907531738,85.987731933,11.894729614,8.24861145,192.038604735,1.208682,158.882654606423
12,80.226074218,79.877502441,12.037109375,9.190689086,181.33137512,1.108556,163.574393282793
13,91.165893554,94.25592041,14.013748168,10.460586547,209.896148679,1.22613,171.185884595434
14,80.605041503,82.642089843,12.823852539,9.045135498,185.116119383,1.060364,174.577899082768
15,88.505432128,90.889099121,14.321487426,9.994049072,203.710067747,1.148921,177.305548203053
16,72.179748535,73.743530273,8.185501098,6.620925903,160.729705809,0.959766,167.467597111171
17,88.358825683,91.357116699,14.013671875,10.011032104,203.740646361,1.121854,181.610660889028
18,93.064025878,91.53942871,15.557876586,10.462295532,210.623626706,1.111333,189.523416209183
19,87.698669433,78.712219238,12.92628479,8.475860595,187.813034056,0.999384,187.928798195689
20,96.984436035,92.034301757,16.193511962,10.47151184,215.683761594,1.116358,193.203042029528
21,100.72479248,100.628051757,15.901550292,11.576141357,228.830535886,1.187614,192.68090127432
22,94.886291503,95.429626464,16.365234375,10.711868286,217.393020628,1.115711,194.847071175242
23,106.793762207,103.848266601,17.892715454,11.604980468,240.13972473,1.208723,198.672255537456
24,105.063476562,99.299926757,16.615386962,11.431121826,232.409912107,1.190131,195.280949834094
25,93.358764648,91.309692382,15.18119812,10.074798583,209.924453733,1.016292,206.559191386924
26,105.533203125,101.445922851,18.381317138,11.300231933,236.660675047,1.137143,208.118657940998
27,102.509460449,100.744140625,16.817977905,10.634780883,230.706359862,1.11762,206.426477570194
28,112.602233886,108.68359375,19.526611328,11.902786254,252.715225218,1.197014,211.121361335791
29,115.010437011,111.542724609,18.443786621,11.582321166,256.579269407,1.24627,205.877754745761
30,125.499572753,124.22467041,19.945755004,12.850494384,282.520492551,1.399697,201.844036638644
31,136.579956054,132.872680664,22.806518554,14.490432739,306.749588011,1.511585,202.93241068878
32,89.236816406,85.167297363,8.819641113,6.979797363,190.203552245,0.994457,191.263727084228
33,135.640563964,130.392395019,22.857513427,14.454360961,303.344833371,1.493616,203.094258076373
34,131.829162597,129.74609375,21.166122436,13.885116577,296.62649536,1.48095,200.294740106013
35,132.454711914,123.876403808,20.060577392,12.757339477,289.149032591,1.443538,200.305799079068
36,139.783935546,135.936523437,23.27545166,14.642898559,313.638809202,1.561277,200.886075438247
37,138.936401367,136.163635253,22.998016357,14.877212524,312.975265501,1.556378,201.092064717569
38,140.459411621,132.881591796,23.667266845,14.8825531,311.890823362,1.544813,201.895519627295
39,131.422424316,123.263916015,20.496154785,12.387420654,287.56991577,1.421031,202.367095278006
40,135.05871582,127.37335205,22.466827392,13.461410522,298.360305784,1.471583,202.74786116991
41,136.862182617,132.44958496,23.825012207,14.595230102,307.732009886,1.492596,206.172339927214
42,131.239929199,129.009216308,21.702606201,14.10281372,296.054565428,1.450516,204.102929873231
43,136.417480468,132.145874023,22.697204589,14.208511352,305.469070432,1.483671,205.887336499804
44,136.373596191,130.577941894,22.184509277,13.778701782,302.914749144,1.470681,205.969036891073
45,141.068054199,140.334594726,24.411819458,13.676040649,319.490509032,1.563387,204.357915878794
46,135.350524902,129.098083496,21.593841552,13.155029296,299.197479246,1.452011,206.057308963913
47,135.944274902,127.536132812,21.527725219,14.60206604,299.610198973,1.441049,207.911180655897
48,143.238342285,137.191467285,23.046722412,14.218292236,317.694824218,1.53671,206.737005822829
49,140.559509277,135.191345214,23.313385009,13.626480102,312.690719602,1.505964,207.634923279707
50,141.081909179,127.365905761,20.326034545,13.064880371,301.838729856,1.503558,200.74964175376
51,151.725219726,147.017395019,22.967803955,13.780563354,335.490982054,1.64378,204.097252706567
52,156.877685546,151.768127441,24.911605834,14.013595581,347.571014402,1.692981,205.301190268526
53,126.596618652,128.814086914,17.19291687,14.772628784,287.37625122,1.378795,208.425655169913
54,140.704956054,139.061645507,22.575042724,13.186553955,315.52819824,1.521414,207.391412357189
55,174.882385253,168.743286132,26.733932495,15.819137573,386.178741453,1.895812,203.700969005893
56,160.502746582,158.724060058,23.727111816,16.198898315,359.152816771,1.746116,205.686687923941
