218536099,301613,96707487,39196575,19169825,24114369,21322980,7839682,1775118,3696267,2986358,1084137,304830,29507,3886,1057,757,288,645,561,157
217673439,247181,96945390,37221293,18706466,25886350,22836461,3388563,2056504,4730813,3831532,1386791,389862,38014,4999,1299,848,0,0,6,1067
217672930,247182,96946522,37235274,18694583,25891548,22835266,3388183,2055636,4735997,3821414,1385524,389595,37916,5012,1313,891,0,0,0,1074
217672430,247190,96938966,37227367,18707464,25890370,22840813,3385449,2055721,4733967,3821600,1387200,390100,37947,5027,1309,863,0,0,0,1077
217673240,247177,96948039,37227518,18699997,25886938,22832993,3389707,2056462,4732065,3829049,1387121,389925,38028,5000,1301,846,0,0,0,1074
217673045,247181,96944455,37232478,18702166,25891482,22837867,3385571,2055521,4738639,3817097,1384895,389507,37899,5009,1313,892,0,0,0,1073
217672193,247191,96938715,37222897,18705847,25889431,22835336,3390496,2055656,4724787,3836996,1388270,390320,37977,5027,1308,862,0,0,0,1077
217673539,247180,96949871,37236405,18697093,25888417,22837677,3384690,2056615,4743033,3810573,1386119,389630,38011,4999,1306,845,0,0,0,1075
217672971,247171,96942410,37223804,18705388,25889865,22838380,3388058,2055549,4731332,3829295,1385796,389705,37932,5014,1307,893,0,0,0,1072
217672138,247195,96942660,37234367,18696082,25891585,22833839,3389236,2055776,4731419,3826248,1387434,390088,37935,5024,1309,862,0,0,0,1079
217673514,247177,96946134,37227055,18707734,25886824,22840337,3384120,2056494,4739852,3815106,1386663,389766,38027,5000,1306,847,0,0,0,1072
217672957,247187,96943459,37225185,18701334,25890179,22832326,3391462,2055392,4726901,3838175,1385497,389649,37925,5013,1307,891,0,0,0,1075
217672405,247184,96942153,37236881,18700492,25891949,22838509,3384866,2055812,4739226,3811603,1387439,390059,37959,5025,1310,861,0,0,0,1077
217673034,247182,96945585,37221093,18705897,25886153,22837763,3388068,2056478,4731520,3830536,1386675,389850,38011,4998,1304,848,0,0,0,1073
217673147,247176,96946574,37235483,18694752,25891476,22834302,3388370,2055682,4735450,3822507,1385499,389664,37921,5018,1308,891,0,0,0,1074
217672385,247197,96939244,37227084,18707200,25890252,22841512,3385596,2055679,4734041,3820966,1387369,390040,37938,5019,1309,862,0,0,0,1077
217672933,247174,96945915,37228525,18700609,25887779,22832474,3389708,2056389,4732583,3828714,1386861,389942,38029,5003,1306,848,0,0,0,1074
144965106,164614,64563697,24797477,12454239,17241384,15210833,2254359,1368960,3156664,2538758,923741,259586,25291,3336,870,581,0,0,0,716
number,of,instructions:,17665975831
