218536060,4631891,195347202,200435613,205952454,214158824,218399598,218401172,216903,45876194,81304017,99167262,104801634,111053289,121582105,104118660,2635037,96317143,98154602,102452367,104111152,104112074,104115229,0,29633284,76113088,92096810,94756488,94766650,94776144
217673439,9538,191971888,196450205,201745805,212235996,217666895,217667039,0,42249101,77085848,89440099,95549236,102699005,116043979,95214483,0,86478817,88632220,93102390,95213066,95214121,95214463,0,34107207,77989949,88363306,90821030,90821144,90821144
217672930,9543,191973452,196455964,201747796,212234289,217666365,217666510,0,42249421,77085359,89440203,95550700,102700337,116046110,95214960,0,86480322,88634213,93102910,95213541,95214595,95214940,0,34106284,77989249,88362422,90820330,90820445,90820445
217672430,9539,191972553,196453814,201741459,212231872,217665881,217666028,0,42249912,77084242,89440764,95552368,102694085,116044258,95219120,0,86482314,88636178,93106889,95217702,95218756,95219098,0,34106422,77992239,88365923,90823657,90823771,90823771
217673240,9543,191971796,196450195,201745746,212235627,217666693,217666838,0,42249553,77086055,89440090,95549296,102699503,116045020,95214928,0,86479610,88632918,93102951,95213509,95214563,95214908,0,34106902,77989917,88363270,90820916,90821031,90821031
217673045,9538,191973651,196456111,201747824,212234576,217666483,217666627,0,42248815,77085173,89439822,95550173,102699600,116044847,95214430,0,86479765,88633735,93102319,95213013,95214068,95214410,0,34106580,77989229,88362434,90820450,90820564,90820564
217672193,9544,191971997,196453258,201741120,212231426,217665641,217665789,0,42250478,77084450,89441023,95552955,102694707,116045263,95219359,0,86482495,88636293,93107169,95217939,95218992,95219337,0,34106125,77992132,88365747,90823378,90823493,90823493
217673539,9538,191972499,196450968,201746273,212236096,217666995,217667139,0,42249042,77085817,89439823,95548699,102698903,116044052,95214531,0,86479292,88632693,93102486,95213114,95214169,95214511,0,34107325,77989977,88363337,90821078,90821192,90821192
217672971,9543,191972717,196455169,201747645,212234424,217666408,217666553,0,42249358,77085484,89440626,95550972,102700362,116045903,95214928,0,86479553,88633508,93102885,95213509,95214563,95214908,0,34106117,77989238,88362429,90820346,90820461,90820461
217672138,9539,191972760,196453937,201741051,212231489,217665587,217665734,0,42249911,77084232,89440192,95552135,102693925,116044228,95218861,0,86482734,88636537,93106656,95217443,95218497,95218839,0,34106433,77992050,88365716,90823482,90823596,90823596
217673514,9543,191971745,196450331,201746377,212235951,217666969,217667114,0,42249446,77085974,89440554,95549409,102699564,116044838,95214911,0,86478913,88632349,93102891,95213492,95214546,95214891,0,34107017,77990042,88363359,90821002,90821117,90821117
217672957,9538,191973664,196456048,201747447,212234520,217666393,217666537,0,42249041,77085249,89439681,95550180,102699785,116045312,95214520,0,86480227,88634110,93102453,95213104,95214158,95214500,0,34106500,77989116,88362320,90820299,90820413,90820413
217672405,9544,191971799,196453042,201741464,212231637,217665855,217666003,0,42250135,77084373,89441139,95553038,102694449,116044605,95219258,0,86481714,88635601,93106989,95217837,95218891,95219236,0,34106216,77992254,88365903,90823616,90823731,90823731
217673034,9538,191972507,196451041,201745871,212235464,217666488,217666632,0,42249269,77085830,89439561,95548410,102699062,116044567,95214555,0,86480084,88633410,93102624,95213139,95214193,95214535,0,34107072,77989766,88363104,90820798,90820912,90820912
217673147,9540,191972594,196454933,201747559,212234772,217666584,217666729,0,42249160,77085492,89440473,95550813,102700018,116045370,95214992,0,86479191,88633157,93102855,95213572,95214627,95214972,0,34106339,77989470,88362739,90820689,90820804,90820804
217672385,9542,191972878,196454085,201741188,212231445,217665834,217665981,0,42250201,77084266,89440502,95552663,102694384,116044946,95218848,0,86482843,88636627,93106648,95217431,95218484,95218826,0,34106395,77991906,88365494,90823186,90823300,90823300
217672933,9540,191971958,196450584,201746736,212235652,217666388,217666533,0,42249409,77085470,89440496,95549081,102699216,116044604,95216435,0,86480305,88633767,93104391,95215015,95216070,95216415,0,34106882,77990988,88364457,90822105,90822220,90822220
144965106,6354,127849872,130834021,134355813,141342105,144960739,144960836,0,28137252,51337219,59565092,63634993,68394012,77283837,63411474,0,57594871,59029181,62004927,63410530,63411232,63411460,0,22714170,51939592,58848033,60484878,60484954,60484954
