100000000,73968,67905,68645,70042,87201,67967,68784,68976,1861798,69173,69541,68000,16082780,129682,69190
100000000,58504,58504,58504,58504,58565,58504,58504,58504,1846795,58504,58504,58504,16081175,117008,58504
100000000,23418,22062,21763,22214,25895,22828,21799,22072,1172963,24946,22638,22749,10313388,45582,24310
100000000,1661,686,349,308,4973,1672,538,472,790443,5949,2234,2106,7045534,5577,5430
100000000,2073,858,468,423,6741,2321,764,726,794984,8836,3320,3144,7052549,8303,8071
100000000,671,301,181,147,2455,863,299,260,786611,3438,1299,1224,7039591,3250,3168
100000000,540,261,154,143,2042,730,257,232,785808,2920,1104,1040,7038327,2764,2690
100000000,47582,49516,46313,48784,51447,50107,46367,46672,631296,52110,47594,47530,6307181,75049,49918
100000000,173940,175281,173780,174800,174285,176000,173774,173785,173848,177591,173774,173774,4174191,269024,173774
100000000,173942,174457,173780,174125,173903,174606,173779,173781,173779,177625,173779,173779,4174189,268856,173779
100000000,131237,131523,131139,131300,131295,131490,131133,131140,131723,134014,131121,131130,3968888,203608,131098
100000000,1627,1627,1627,1627,1627,1627,1627,1627,1627,1627,1627,1627,3335014,3254,1627
100000000,276848,278498,276703,277409,276776,278006,276696,276721,277236,282878,276685,276712,4178699,355722,276678
100000000,282325,283400,282225,282579,282282,283090,282225,282225,282225,288648,282225,282225,4178710,361224,282225
100000000,280980,281758,280955,281214,280996,281843,280955,280955,280955,287225,280955,280955,4178656,360604,280955
100000000,9517,9517,9493,9533,9537,9525,9493,9525,10047,9635,9493,9520,3358166,13070,9493
100000000,282804,283567,282762,282838,282866,283625,282769,282814,283327,285382,282763,282788,3952431,298346,282762
100000000,397619,398531,397621,397779,397622,398679,397622,397621,397621,401657,397621,397621,4183519,417302,397621
100000000,397000,397801,396988,397179,396988,398137,396988,396988,396988,400933,396988,396988,4183491,416902,396988
100000000,118728,118844,118706,118803,118723,118825,118679,118730,119178,119596,118622,118718,3586354,125544,118705
100000000,195908,220762,195883,221381,195312,205952,195264,206438,195756,196162,195196,195889,3726478,196553,227206
100000000,439152,470806,439138,470574,439111,442815,439111,442308,439071,439779,439071,439098,4188291,439779,512184
100000000,437551,455193,437544,454387,437489,438529,437489,437850,437466,438171,437466,437489,4188245,438171,511053
100000000,247063,253296,247031,252789,247051,247536,247007,247081,247537,247501,246981,246991,3814177,248087,287389
100000000,79223,82711,79194,82269,79241,79486,79192,79264,79670,79435,79187,79185,3500866,80769,111521
100000000,436145,445554,436134,444516,436066,436817,436066,436132,436142,436768,436066,436086,4192739,436768,618959
100000000,436398,441513,436395,440512,436349,437008,436349,436325,436349,437008,436349,436325,4192771,437008,619644
100000000,358284,360951,358261,360072,358263,358898,358218,358220,358775,358898,358219,358209,4041504,359057,508216
100000000,1627,1627,1627,1627,1627,1627,1627,1627,1627,1627,1627,1627,3335015,3254,1627
100000000,382968,385361,382942,384397,382962,383650,382913,382897,383474,383648,382914,382893,4137376,383782,628372
100000000,417527,419315,417528,418435,417518,418157,417518,417474,417518,418157,417518,417474,4196791,418157,683667
100000000,417543,418968,417543,418119,417506,418161,417506,417478,417538,418161,417538,417478,4196713,418161,685509
100000000,35892,36102,35869,35937,35913,36054,35868,35870,36423,36054,35867,35869,3406595,37418,58342
100000000,257375,258221,257350,257584,257367,257859,257318,257284,257893,257859,257339,257280,3916232,258415,396802
100000000,389413,390378,389413,389620,389362,390095,389362,389411,389470,390095,389470,389411,4200381,390095,598776
100000000,390423,391336,390423,390552,390359,391088,390359,390405,390516,391088,390516,390405,4200226,391088,602346
100000000,133652,134065,133630,133693,133667,133993,133622,133635,134206,133995,133657,133634,3629047,134942,205775
100000000,145540,145992,145516,145556,145544,145929,145495,145527,146097,145927,145580,145525,3695258,146902,214420
100000000,359246,360048,359246,359299,359200,359951,359200,359267,359422,359951,359382,359267,4203417,359951,526894
100000000,360403,361239,360403,360497,360388,361152,360388,360468,360604,361152,360604,360468,4203237,361152,531127
100000000,214589,215181,214568,214613,214597,215130,214552,214597,215217,215131,214668,214596,3851164,215663,315643
100000000,49514,49722,49491,49510,49539,49734,49491,49506,49987,49733,49530,49504,3474593,51122,70180
100000000,329301,330114,329301,329388,329285,330055,329285,329371,329598,330055,329501,329371,4205931,330055,467381
100000000,328451,329255,328451,328550,328435,329220,328435,328535,328722,329220,328722,328535,4205993,329220,465907
100000000,279683,280439,279662,279714,279693,280420,279650,279713,280408,280420,279859,279712,4072781,280541,398070
100000000,1627,1627,1627,1627,1627,1627,1627,1627,1627,1627,1627,1627,3335014,3254,1627
100000000,267940,268732,267918,267989,267949,268719,267901,267979,268663,268719,268106,267978,4127405,268892,370429
100000000,298464,299270,298464,298572,298455,299248,298455,298563,298772,299248,298772,298563,4208225,299248,413075
100000000,299738,300512,299738,299808,299718,300486,299718,299802,300028,300486,300028,299802,4208178,300486,414233
100000000,30936,31115,30915,30920,30958,31116,30915,30920,31479,31116,30934,30920,3420863,32455,42691
100000000,175818,176425,175795,175854,175839,176415,175791,175845,176507,176414,175968,175845,3909333,176996,238041
100000000,270014,270793,270018,270099,270006,270780,270006,270095,270304,270780,270289,270095,4210208,270780,366182
100000000,271201,272004,271201,271306,271197,271992,271197,271307,271586,271992,271586,271307,4210166,271992,367194
100000000,95827,96189,95806,95823,95847,96191,95801,95824,96425,96191,95879,95824,3639617,97124,129500
100000000,98009,98425,97988,98031,98034,98427,97982,98027,98619,98426,98120,98027,3691468,99412,130315
100000000,245149,245919,245149,245230,245146,245914,245146,245229,245509,245914,245451,245229,4211876,245914,326688
100000000,245624,246422,245624,245730,245619,246416,245619,245730,245985,246416,245985,245730,4211818,246416,328070
100000000,147440,148009,147420,147472,147466,148009,147420,147472,148186,148009,147640,147472,3858170,148538,195776
100000000,33634,33777,33612,33637,33660,33863,33612,33634,34121,33862,33664,33634,3473745,35254,44311
100000000,223274,224129,223274,223361,223274,224044,223274,223359,223694,224044,223595,223359,4213283,224044,293418
100000000,221209,221994,221209,221306,221191,222010,221191,221324,221615,222006,221615,221320,4213375,221992,291176
100000000,188927,189674,188907,188966,188928,189673,188883,188966,189737,189713,189191,189006,4076383,189798,248247
100000000,1627,1627,1627,1627,1627,1627,1627,1627,1627,1627,1627,1627,3335015,3254,1627
100000000,181242,182007,181220,181264,181256,181908,181209,181163,182077,182046,181523,181299,4135794,182203,236430
100000000,200881,201687,200881,201000,200931,201621,200931,200935,201345,201693,201345,201001,4214599,201736,262275
100000000,200940,201822,200940,201134,201116,201775,201116,201090,201523,201690,201523,201020,4214618,201891,261804
100000000,20099,20241,20080,20052,20080,20252,20035,20061,20611,20342,20065,20092,3414809,21592,25686
100000000,120463,121070,120441,120502,120553,121040,120507,120464,121278,121147,120760,120505,3919574,121714,155995
100000000,181921,182688,181921,181994,182065,182648,182065,181962,182491,182698,182457,182005,4215742,182840,235232
100000000,182102,183105,182102,182417,182490,183022,182490,182336,182964,182925,182964,182235,4215718,183298,235806
100000000,62543,62919,62524,62562,62588,62921,62544,62562,63196,62984,62650,62550,3631401,63882,80753
100000000,68493,68838,68471,68498,68621,68896,68575,68489,69237,69026,68751,68512,3703514,69994,88313
100000000,165388,166301,165388,165549,165826,166133,165826,165447,166305,166447,166238,165527,4216702,166592,212512
100000000,165250,166062,165250,165373,165726,165899,165726,165216,166194,166210,166194,165374,4216681,166530,212956
100000000,96732,97269,96714,96743,96808,97203,96764,96668,97547,97240,97001,96779,3847862,97894,124315
100000000,25580,25628,25558,25501,25600,25758,25554,25509,26078,25813,25622,25571,3487553,27180,32952
100000000,150764,151777,150764,150989,151554,151564,151554,150901,152093,152026,151996,150853,4217514,152319,193294
100000000,148977,149957,148977,149262,150019,149708,150019,148977,150516,150553,150516,149111,4217578,150825,191728
100000000,124401,125376,124383,124683,125214,125147,125170,124414,126070,125692,125524,124467,4064113,126096,160165
100000000,1627,1627,1627,1627,1627,1627,1627,1627,1627,1627,1627,1627,3335015,3254,1627
100000000,125505,126606,125484,125910,126613,126330,126567,125529,127523,127161,126988,125556,4154966,127540,161174
100000000,136038,137034,136038,136287,137390,136853,137390,136051,137902,137854,137880,136171,4218292,138194,174923
100000000,135666,136600,135666,135913,137207,136535,137207,135784,137687,137466,137687,135765,4218310,137980,174384
100000000,11160,11355,11144,11207,11244,11382,11200,11161,11770,11502,11224,11156,3396977,12774,14109
100000000,84967,85743,84947,85243,85817,85645,85771,85010,86583,86322,86078,84998,3939878,86948,109108
100000000,122555,123557,122555,122811,124387,123327,124387,122487,124941,124783,124890,122677,4219029,125167,157395
100000000,123675,124765,123675,124049,125245,124641,125245,123895,125758,125499,125758,123793,4218982,126029,158560
100000000,40316,40608,40300,40333,40713,40757,40669,40291,41328,41084,40782,40327,3612249,42026,51735
100000000,50330,50881,50310,50564,50982,50865,50936,50379,51630,51403,51152,50351,3724900,52330,64481
100000000,112075,113030,112075,112295,114027,112865,114027,112022,114555,114438,114478,112174,4219599,114770,143955
100000000,113121,114098,113121,113356,114765,113859,114765,113124,115255,115114,115255,113219,4219567,115506,144709
100000000,63620,64103,63604,63678,64386,64229,64343,63602,65139,64825,64593,63666,3827475,65494,81628
81591805,2677,2069,1982,2121,3594,2054,1959,2060,3185,1991,1916,2025,2725747,3192,1702
number,of,instructions:,9281591731
