1,66.300000
2,66.300000
3,66.300000
4,66.300000
5,66.300000
6,66.300000
7,66.300000
8,66.300000
9,66.300000
10,66.300000
11,66.300000
12,66.300000
13,66.300000
14,66.300000
15,66.300000
16,66.300000
17,66.300000
18,66.300000
19,66.300000
20,66.300000
21,66.300000
22,66.300000
23,66.300000
24,66.300000
25,66.300000
26,66.300000
27,66.300000
28,66.300000
29,66.300000
30,66.300000
31,66.300000
32,66.300000
33,66.300000
34,66.300000
35,66.300000
36,66.300000
37,66.300000
38,66.300000
39,66.300000
40,66.300000
41,66.300000
42,66.300000
43,66.300000
44,66.300000
45,66.300000
46,66.300000
47,66.300000
48,66.300000
49,66.300000
50,66.300000
51,66.300000
52,66.300000
53,66.300000
54,66.300000
55,66.300000
56,66.300000
57,66.300000
58,66.300000
59,66.300000
60,66.300000
61,66.300000
62,66.300000
63,66.300000
64,66.300000
65,66.300000
66,66.300000
67,66.300000
68,66.300000
69,66.300000
70,66.300000
71,66.300000
72,66.300000
73,66.300000
74,66.300000
75,66.300000
76,66.300000
77,66.300000
78,66.300000
79,66.300000
80,66.300000
81,66.300000
82,66.300000
83,66.300000
84,66.300000
85,66.300000
86,66.300000
87,66.300000
88,66.300000
89,66.300000
90,66.300000
91,66.300000
92,66.300000
93,66.300000
94,66.300000
95,66.300000
96,66.300000
97,66.300000
98,66.300000
99,66.300000
100,66.300000
101,66.300000
102,66.300000
103,66.300000
104,66.300000
105,66.300000
106,66.300000
107,66.300000
108,66.300000
109,66.300000
110,66.300000
111,66.300000
112,66.300000
113,66.380000
114,66.380000
115,66.380000
116,66.380000
117,66.380000
118,66.380000
119,66.380000
120,66.380000
121,66.380000
122,66.380000
123,66.380000
124,66.380000
125,66.380000
126,66.380000
127,66.380000
128,66.380000
129,66.380000
130,66.380000
131,66.380000
132,66.380000
133,66.380000
134,66.380000
135,66.380000
136,66.380000
137,66.380000
138,66.380000
139,66.380000
140,66.380000
141,66.380000
142,66.380000
143,66.380000
144,66.380000
145,66.380000
146,66.380000
147,66.380000
148,66.380000
149,66.380000
150,66.380000
151,66.380000
152,66.380000
153,66.380000
154,66.380000
155,66.380000
156,66.380000
157,66.380000
158,66.380000
159,66.380000
160,66.380000
161,66.380000
162,66.380000
163,66.380000
164,66.380000
165,66.380000
166,66.380000
167,66.380000
168,66.380000
169,66.380000
170,66.380000
171,66.380000
172,66.380000
173,66.380000
174,66.380000
175,66.380000
176,66.380000
177,66.380000
178,66.380000
179,66.380000
180,66.380000
181,66.380000
182,66.380000
183,66.380000
184,66.380000
185,66.380000
186,66.380000
187,66.380000
188,66.380000
189,66.380000
190,66.380000
191,66.380000
192,66.380000
193,66.380000
194,66.380000
195,66.380000
196,66.380000
197,66.380000
198,66.380000
199,66.380000
200,66.380000
201,66.380000
202,66.380000
203,66.380000
204,66.380000
205,66.380000
206,66.380000
207,66.380000
208,66.380000
209,66.380000
210,66.380000
211,66.380000
212,66.380000
213,66.380000
214,66.380000
215,66.380000
216,66.380000
217,66.380000
218,66.380000
219,66.380000
220,66.380000
221,66.380000
222,66.380000
223,66.380000
224,66.380000
225,66.380000
226,66.380000
227,66.380000
228,66.380000
229,66.380000
230,66.380000
231,66.380000
232,66.380000
233,66.380000
234,66.380000
235,66.380000
236,66.380000
237,66.380000
238,66.380000
239,66.380000
240,66.380000
241,66.380000
242,66.380000
243,66.380000
244,66.380000
245,66.380000
246,66.380000
247,66.380000
248,66.380000
249,66.380000
250,66.380000
251,66.380000
252,66.380000
253,66.380000
254,66.380000
255,66.380000
256,66.380000
257,66.380000
258,66.380000
259,66.380000
260,66.380000
261,66.380000
262,66.380000
263,66.380000
264,66.380000
265,66.380000
266,66.380000
267,66.380000
268,66.380000
269,66.380000
270,66.380000
271,66.380000
272,66.380000
273,66.380000
274,66.380000
275,66.380000
276,66.380000
277,66.380000
278,66.380000
279,66.380000
280,66.380000
281,66.380000
282,66.380000
283,66.380000
284,66.380000
285,66.380000
286,66.380000
287,66.380000
288,66.380000
289,66.380000
290,66.380000
291,66.380000
292,66.380000
293,66.380000
294,66.380000
295,66.380000
296,66.380000
297,66.380000
298,66.380000
299,66.380000
300,66.380000
301,66.380000
302,66.380000
303,66.380000
304,66.380000
305,66.380000
306,66.380000
307,66.380000
308,66.380000
309,66.380000
310,66.380000
311,66.380000
312,66.380000
313,66.380000
314,66.380000
315,66.380000
316,66.380000
317,66.380000
318,66.380000
319,66.380000
320,66.380000
321,66.380000
322,66.380000
323,66.380000
324,66.380000
325,66.380000
326,66.380000
327,66.380000
328,66.380000
329,66.380000
330,66.380000
331,66.380000
332,66.380000
333,66.380000
334,66.380000
335,66.380000
336,66.380000
337,66.380000
338,66.380000
339,66.380000
340,66.380000
341,66.380000
342,66.380000
343,66.380000
344,66.380000
345,66.380000
346,66.380000
347,66.380000
348,66.380000
349,66.380000
350,66.380000
351,66.380000
352,66.380000
353,66.380000
354,66.380000
355,66.380000
356,66.380000
357,66.380000
358,66.380000
359,66.380000
360,66.380000
361,66.380000
362,66.380000
363,66.380000
364,66.380000
365,66.380000
366,66.380000
367,66.380000
368,66.380000
369,66.380000
370,66.380000
371,66.380000
372,66.380000
373,66.380000
374,66.380000
375,66.380000
376,66.380000
377,66.380000
378,66.380000
379,66.380000
380,66.380000
381,66.380000
382,66.380000
383,66.380000
384,66.380000
385,66.380000
386,66.380000
387,66.380000
388,66.380000
389,66.380000
390,66.380000
391,66.380000
392,66.380000
393,66.380000
394,66.380000
395,66.380000
396,66.380000
397,66.380000
398,66.380000
399,66.380000
400,66.380000
401,66.380000
402,66.380000
403,66.380000
404,66.380000
405,66.380000
406,66.380000
407,66.380000
408,66.380000
409,66.380000
410,66.380000
411,66.380000
412,66.380000
413,66.380000
414,66.380000
415,66.380000
416,66.380000
417,66.380000
418,66.380000
419,66.380000
420,66.380000
421,66.380000
422,66.380000
423,66.380000
424,66.380000
425,66.380000
426,66.380000
427,66.380000
428,66.380000
429,66.380000
430,66.380000
431,66.380000
432,66.380000
433,66.380000
434,66.380000
435,66.380000
436,66.380000
437,66.380000
438,66.380000
439,66.380000
440,66.380000
441,66.380000
442,66.380000
443,66.477000
444,66.477000
445,66.477000
446,66.477000
447,66.477000
448,66.477000
449,66.477000
450,66.477000
451,66.477000
452,66.477000
453,66.477000
454,66.477000
455,66.477000
456,66.477000
457,66.477000
458,66.477000
459,66.477000
460,66.477000
461,66.477000
462,66.477000
463,66.477000
464,66.477000
465,66.477000
466,66.477000
467,66.477000
468,66.477000
469,66.477000
470,66.477000
471,66.477000
472,66.477000
473,66.477000
474,66.477000
475,66.477000
476,66.477000
477,66.477000
478,66.477000
479,66.477000
480,66.477000
481,66.477000
482,66.477000
483,66.477000
484,66.477000
485,66.477000
486,66.477000
487,66.477000
488,66.477000
489,66.477000
490,66.477000
491,66.477000
492,66.477000
493,66.477000
494,66.477000
495,66.477000
496,66.477000
497,66.477000
498,66.477000
499,66.477000
500,66.477000
501,66.477000
502,66.477000
503,66.477000
504,66.477000
505,66.477000
506,66.477000
507,66.477000
508,66.477000
509,66.477000
510,66.477000
511,66.477000
512,66.477000
513,66.477000
514,66.477000
515,66.477000
516,66.477000
517,66.477000
518,66.477000
519,66.477000
520,66.477000
521,66.477000
522,66.477000
523,66.477000
524,66.477000
525,66.477000
526,66.477000
527,66.477000
528,66.477000
529,66.477000
530,66.477000
531,66.477000
532,66.477000
533,66.477000
534,66.477000
535,66.477000
536,66.477000
537,66.477000
538,66.477000
539,66.477000
540,66.477000
541,66.477000
542,66.477000
543,66.477000
544,66.477000
545,66.477000
546,66.477000
547,66.477000
548,66.477000
549,66.477000
550,66.477000
551,66.477000
552,66.477000
553,66.477000
554,66.477000
555,66.477000
556,66.477000
557,66.477000
558,66.477000
559,66.477000
560,66.477000
561,66.477000
562,66.477000
563,66.477000
564,66.477000
565,66.477000
566,66.477000
567,66.477000
568,66.477000
569,66.477000
570,66.477000
571,66.477000
572,66.477000
573,66.477000
574,66.477000
575,66.477000
576,66.477000
577,66.477000
578,66.477000
579,66.477000
580,66.477000
581,66.477000
582,66.477000
583,66.477000
584,66.477000
585,66.477000
586,66.477000
587,66.477000
588,66.477000
589,66.477000
590,66.477000
591,66.477000
592,66.477000
593,66.477000
594,66.477000
595,66.477000
596,66.477000
597,66.477000
598,66.477000
599,66.477000
600,66.477000
601,66.477000
602,66.477000
603,66.477000
604,66.477000
605,66.477000
606,66.477000
607,66.477000
608,66.477000
609,66.477000
610,66.477000
611,66.477000
612,66.477000
613,66.477000
614,66.477000
615,66.477000
616,66.477000
617,66.477000
618,66.477000
619,66.477000
620,66.477000
621,66.477000
622,66.477000
623,66.477000
624,66.477000
625,66.477000
626,66.477000
627,66.477000
628,66.477000
629,66.477000
630,66.477000
631,66.477000
632,66.477000
633,66.477000
634,66.477000
635,66.477000
636,66.477000
637,66.477000
638,66.477000
639,66.477000
640,66.477000
641,66.477000
642,66.477000
643,66.477000
644,66.477000
645,66.477000
646,66.477000
647,66.477000
648,66.477000
649,66.477000
650,66.477000
651,66.477000
652,66.477000
653,66.477000
654,66.477000
655,66.477000
656,66.477000
657,66.477000
658,66.477000
659,66.477000
660,66.477000
661,66.477000
662,66.477000
663,66.477000
664,66.477000
665,66.477000
666,66.477000
667,66.477000
668,66.477000
669,66.477000
670,66.477000
671,66.477000
672,66.477000
673,66.477000
674,66.477000
675,66.477000
676,66.477000
677,66.477000
678,66.477000
679,66.477000
680,66.477000
681,66.477000
682,66.477000
683,66.477000
684,66.477000
685,66.477000
686,66.477000
687,66.477000
688,66.477000
689,66.477000
690,66.477000
691,66.477000
692,66.477000
693,66.477000
694,66.477000
695,66.477000
696,66.477000
697,66.477000
698,66.477000
699,66.477000
700,66.477000
701,66.477000
702,66.477000
703,66.477000
704,66.477000
705,66.477000
706,66.477000
707,66.477000
708,66.477000
709,66.477000
710,66.477000
711,66.477000
712,66.477000
713,66.477000
714,66.477000
715,66.477000
716,66.477000
717,66.477000
718,66.477000
719,66.477000
720,66.477000
721,66.477000
722,66.477000
723,66.477000
724,66.477000
725,66.477000
726,66.477000
727,66.477000
728,66.477000
729,66.477000
730,66.477000
731,66.477000
732,66.477000
733,66.477000
734,66.477000
735,66.477000
736,66.477000
737,66.477000
738,66.477000
739,66.477000
740,66.477000
741,66.477000
742,66.477000
743,66.477000
744,66.477000
745,66.477000
746,66.477000
747,66.477000
748,66.477000
749,66.477000
750,66.477000
751,66.477000
752,66.477000
753,66.477000
754,66.477000
755,66.477000
756,66.477000
757,66.477000
758,66.477000
759,66.477000
760,66.477000
761,66.477000
762,66.477000
763,66.477000
764,66.477000
765,66.477000
766,66.477000
767,66.477000
768,66.477000
769,66.477000
770,66.477000
771,66.477000
772,66.477000
773,66.477000
774,66.574000
775,66.574000
776,66.574000
777,66.574000
778,66.574000
779,66.574000
780,66.574000
781,66.574000
782,66.574000
783,66.574000
784,66.574000
785,66.574000
786,66.574000
787,66.574000
788,66.574000
789,66.574000
790,66.574000
791,66.574000
792,66.574000
793,66.574000
794,66.574000
795,66.574000
796,66.574000
797,66.574000
798,66.574000
799,66.574000
800,66.574000
801,66.574000
802,66.574000
803,66.574000
804,66.574000
805,66.574000
806,66.574000
807,66.574000
808,66.574000
809,66.574000
810,66.574000
811,66.574000
812,66.574000
813,66.574000
814,66.574000
815,66.574000
816,66.574000
817,66.574000
818,66.574000
819,66.574000
820,66.574000
821,66.574000
822,66.574000
823,66.574000
824,66.574000
825,66.574000
826,66.574000
827,66.574000
828,66.574000
829,66.574000
830,66.574000
831,66.574000
832,66.574000
833,66.574000
834,66.574000
835,66.574000
836,66.574000
837,66.574000
838,66.574000
839,66.574000
840,66.574000
841,66.574000
842,66.574000
843,66.574000
844,66.574000
845,66.574000
846,66.574000
847,66.574000
848,66.574000
849,66.574000
850,66.574000
851,66.574000
852,66.574000
853,66.574000
854,66.574000
855,66.574000
856,66.574000
857,66.574000
858,66.574000
859,66.574000
860,66.574000
861,66.574000
862,66.574000
863,66.574000
864,66.574000
865,66.574000
866,66.574000
867,66.574000
868,66.574000
869,66.574000
870,66.574000
871,66.574000
872,66.574000
873,66.574000
874,66.574000
875,66.574000
876,66.574000
877,66.574000
878,66.574000
879,66.574000
880,66.574000
881,66.574000
882,66.574000
883,66.574000
884,66.574000
885,66.574000
886,66.574000
887,66.574000
888,66.574000
889,66.574000
890,66.574000
891,66.574000
892,66.574000
893,66.574000
894,66.574000
895,66.574000
896,66.574000
897,66.574000
898,66.574000
899,66.574000
900,66.574000
901,66.574000
902,66.574000
903,66.574000
904,66.574000
905,66.574000
906,66.574000
907,66.574000
908,66.574000
909,66.574000
910,66.574000
911,66.574000
912,66.574000
913,66.574000
914,66.574000
915,66.574000
916,66.574000
917,66.574000
918,66.574000
919,66.574000
920,66.574000
921,66.574000
922,66.574000
923,66.574000
924,66.574000
925,66.574000
926,66.574000
927,66.574000
928,66.574000
929,66.574000
930,66.574000
931,66.574000
932,66.574000
933,66.574000
934,66.574000
935,66.574000
936,66.574000
937,66.574000
938,66.574000
939,66.574000
940,66.574000
941,66.574000
942,66.574000
943,66.574000
944,66.574000
945,66.574000
946,66.574000
947,66.574000
948,66.574000
949,66.574000
950,66.574000
951,66.574000
952,66.574000
953,66.574000
954,66.574000
955,66.574000
956,66.574000
957,66.574000
958,66.574000
959,66.574000
960,66.574000
961,66.574000
962,66.574000
963,66.574000
964,66.574000
965,66.574000
966,66.574000
967,66.574000
968,66.574000
969,66.574000
970,66.574000
971,66.574000
972,66.574000
973,66.574000
974,66.574000
975,66.574000
976,66.574000
977,66.574000
978,66.574000
979,66.574000
980,66.574000
981,66.574000
982,66.574000
983,66.574000
984,66.574000
985,66.574000
986,66.574000
987,66.574000
988,66.574000
989,66.574000
990,66.574000
991,66.574000
992,66.574000
993,66.574000
994,66.574000
995,66.574000
996,66.574000
997,66.574000
998,66.574000
999,66.574000
1000,66.574000
1001,66.574000
1002,66.574000
1003,66.574000
1004,66.574000
1005,66.574000
1006,66.574000
1007,66.574000
1008,66.574000
1009,66.574000
1010,66.574000
1011,66.574000
1012,66.574000
1013,66.574000
1014,66.574000
1015,66.574000
1016,66.574000
1017,66.574000
1018,66.574000
1019,66.574000
1020,66.574000
1021,66.574000
1022,66.574000
1023,66.574000
1024,66.574000
1025,66.574000
1026,66.574000
1027,66.574000
1028,66.574000
1029,66.574000
1030,66.574000
1031,66.574000
1032,66.574000
1033,66.574000
1034,66.574000
1035,66.574000
1036,66.574000
1037,66.574000
1038,66.574000
1039,66.574000
1040,66.574000
1041,66.574000
1042,66.574000
1043,66.574000
1044,66.574000
1045,66.574000
1046,66.574000
1047,66.574000
1048,66.574000
1049,66.574000
1050,66.574000
1051,66.574000
1052,66.574000
1053,66.574000
1054,66.574000
1055,66.574000
1056,66.574000
1057,66.574000
1058,66.574000
1059,66.574000
1060,66.574000
1061,66.574000
1062,66.574000
1063,66.574000
1064,66.574000
1065,66.574000
1066,66.574000
1067,66.574000
1068,66.574000
1069,66.574000
1070,66.574000
1071,66.574000
1072,66.574000
1073,66.574000
1074,66.574000
1075,66.574000
1076,66.574000
1077,66.574000
1078,66.574000
1079,66.574000
1080,66.574000
1081,66.574000
1082,66.574000
1083,66.574000
1084,66.574000
1085,66.574000
1086,66.574000
1087,66.574000
1088,66.574000
1089,66.574000
1090,66.574000
1091,66.574000
1092,66.574000
1093,66.574000
1094,66.574000
1095,66.574000
1096,66.574000
1097,66.574000
1098,66.574000
1099,66.574000
1100,66.574000
1101,66.574000
1102,66.574000
1103,66.574000
1104,66.574000
1105,66.574000
1106,66.574000
1107,66.574000
1108,66.574000
1109,66.574000
1110,66.574000
1111,66.574000
1112,66.574000
1113,66.574000
1114,66.574000
1115,66.574000
1116,66.574000
1117,66.574000
1118,66.574000
1119,66.574000
1120,66.574000
1121,66.574000
1122,66.574000
1123,66.574000
1124,66.574000
1125,66.574000
1126,66.574000
1127,66.574000
1128,66.574000
1129,66.574000
1130,66.574000
1131,66.574000
1132,66.574000
1133,66.574000
1134,66.574000
1135,66.574000
1136,66.574000
1137,66.574000
1138,66.574000
1139,66.574000
1140,66.574000
1141,66.574000
1142,66.574000
1143,66.574000
1144,66.574000
1145,66.574000
1146,66.574000
1147,66.574000
1148,66.574000
1149,66.574000
1150,66.574000
1151,66.574000
1152,66.574000
1153,66.574000
1154,66.574000
1155,66.574000
1156,66.574000
1157,66.574000
1158,66.574000
1159,66.574000
1160,66.574000
1161,66.574000
1162,66.574000
1163,66.574000
1164,66.574000
1165,66.574000
1166,66.574000
1167,66.574000
1168,66.574000
1169,66.574000
1170,66.574000
1171,66.574000
1172,66.574000
1173,66.574000
1174,66.574000
1175,66.574000
1176,66.574000
1177,66.574000
1178,66.574000
1179,66.574000
1180,66.574000
1181,66.574000
1182,66.574000
1183,66.574000
1184,66.574000
1185,66.574000
1186,66.574000
1187,66.574000
1188,66.574000
1189,66.574000
1190,66.574000
1191,66.574000
1192,66.574000
1193,66.574000
1194,66.574000
1195,66.574000
1196,66.574000
1197,66.574000
1198,66.574000
1199,66.574000
1200,66.574000
1201,66.574000
1202,66.574000
1203,66.574000
1204,66.574000
1205,66.574000
1206,66.574000
1207,66.574000
1208,66.574000
1209,66.574000
1210,66.574000
1211,66.574000
1212,66.574000
1213,66.574000
1214,66.574000
1215,66.574000
1216,66.574000
1217,66.574000
1218,66.574000
1219,66.574000
1220,66.574000
1221,66.574000
1222,66.574000
1223,66.574000
1224,66.574000
1225,66.574000
1226,66.574000
1227,66.574000
1228,66.574000
1229,66.574000
1230,66.574000
1231,66.574000
1232,66.574000
1233,66.574000
1234,66.574000
1235,66.574000
1236,66.574000
1237,66.574000
1238,66.574000
1239,66.574000
1240,66.574000
1241,66.574000
1242,66.574000
1243,66.574000
1244,66.574000
1245,66.574000
1246,66.574000
1247,66.574000
1248,66.574000
1249,66.574000
1250,66.574000
1251,66.574000
1252,66.574000
1253,66.574000
1254,66.574000
1255,66.574000
1256,66.574000
1257,66.574000
1258,66.574000
1259,66.574000
1260,66.574000
1261,66.574000
1262,66.574000
1263,66.574000
1264,66.574000
1265,66.574000
1266,66.574000
1267,66.574000
1268,66.574000
1269,66.574000
1270,66.574000
1271,66.574000
1272,66.574000
1273,66.574000
1274,66.574000
1275,66.574000
1276,66.574000
1277,66.574000
1278,66.574000
1279,66.574000
1280,66.574000
1281,66.574000
1282,66.574000
1283,66.574000
1284,66.574000
1285,66.574000
1286,66.574000
1287,66.574000
1288,66.574000
1289,66.574000
1290,66.574000
1291,66.574000
1292,66.574000
1293,66.574000
1294,66.574000
1295,66.574000
1296,66.574000
1297,66.574000
1298,66.574000
1299,66.574000
1300,66.574000
1301,66.574000
1302,66.574000
1303,66.574000
1304,66.574000
1305,66.574000
1306,66.574000
1307,66.574000
1308,66.574000
1309,66.574000
1310,66.574000
1311,66.574000
1312,66.574000
1313,66.574000
1314,66.574000
1315,66.574000
1316,66.574000
1317,66.574000
1318,66.574000
1319,66.574000
1320,66.574000
1321,66.574000
1322,66.574000
1323,66.574000
1324,66.574000
1325,66.574000
1326,66.574000
1327,66.574000
1328,66.574000
1329,66.574000
1330,66.574000
1331,66.574000
1332,66.574000
1333,66.574000
1334,66.574000
1335,66.574000
1336,66.574000
1337,66.574000
1338,66.574000
1339,66.574000
1340,66.574000
1341,66.574000
1342,66.574000
1343,66.574000
1344,66.574000
1345,66.574000
1346,66.574000
1347,66.574000
1348,66.574000
1349,66.574000
1350,66.574000
1351,66.574000
1352,66.574000
1353,66.574000
1354,66.574000
1355,66.574000
1356,66.574000
1357,66.574000
1358,66.574000
1359,66.574000
1360,66.574000
1361,66.574000
1362,66.574000
1363,66.574000
1364,66.574000
1365,66.574000
1366,66.574000
1367,66.574000
1368,66.574000
1369,66.574000
1370,66.574000
1371,66.574000
1372,66.574000
1373,66.574000
1374,66.574000
1375,66.574000
1376,66.574000
1377,66.574000
1378,66.574000
1379,66.574000
1380,66.574000
1381,66.574000
1382,66.574000
1383,66.574000
1384,66.574000
1385,66.574000
1386,66.574000
1387,66.574000
1388,66.574000
1389,66.574000
1390,66.574000
1391,66.574000
1392,66.574000
1393,66.574000
1394,66.574000
1395,66.574000
1396,66.574000
1397,66.574000
1398,66.574000
1399,66.574000
1400,66.574000
1401,66.574000
1402,66.574000
1403,66.574000
1404,66.574000
1405,66.574000
1406,66.574000
1407,66.574000
1408,66.574000
1409,66.574000
1410,66.574000
1411,66.574000
1412,66.574000
1413,66.574000
1414,66.574000
1415,66.574000
1416,66.574000
1417,66.574000
1418,66.574000
1419,66.574000
1420,66.574000
1421,66.574000
1422,66.574000
1423,66.574000
1424,66.574000
1425,66.574000
1426,66.574000
1427,66.574000
1428,66.574000
1429,66.574000
1430,66.574000
1431,66.574000
1432,66.574000
1433,66.574000
1434,66.477000
1435,66.477000
1436,66.477000
1437,66.477000
1438,66.477000
1439,66.477000
1440,66.477000
1441,66.477000
1442,66.477000
1443,66.477000
1444,66.477000
1445,66.477000
1446,66.477000
1447,66.477000
1448,66.477000
1449,66.477000
1450,66.477000
1451,66.477000
1452,66.477000
1453,66.477000
1454,66.477000
1455,66.477000
1456,66.477000
1457,66.477000
1458,66.477000
1459,66.477000
1460,66.477000
1461,66.477000
1462,66.477000
1463,66.477000
1464,66.477000
1465,66.477000
1466,66.477000
1467,66.477000
1468,66.477000
1469,66.477000
1470,66.477000
1471,66.477000
1472,66.477000
1473,66.477000
1474,66.477000
1475,66.477000
1476,66.477000
1477,66.477000
1478,66.477000
1479,66.477000
1480,66.477000
1481,66.477000
1482,66.477000
1483,66.477000
1484,66.477000
1485,66.477000
1486,66.477000
1487,66.477000
1488,66.477000
1489,66.477000
1490,66.477000
1491,66.477000
1492,66.477000
1493,66.477000
1494,66.477000
1495,66.477000
1496,66.477000
1497,66.477000
1498,66.477000
1499,66.477000
1500,66.477000
1501,66.477000
1502,66.477000
1503,66.477000
1504,66.477000
1505,66.477000
1506,66.477000
1507,66.477000
1508,66.477000
1509,66.477000
1510,66.477000
1511,66.477000
1512,66.477000
1513,66.477000
1514,66.477000
1515,66.477000
1516,66.477000
1517,66.477000
1518,66.477000
1519,66.477000
1520,66.477000
1521,66.477000
1522,66.477000
1523,66.477000
1524,66.477000
1525,66.477000
1526,66.477000
1527,66.477000
1528,66.477000
1529,66.477000
1530,66.477000
1531,66.477000
1532,66.477000
1533,66.477000
1534,66.477000
1535,66.477000
1536,66.477000
1537,66.477000
1538,66.477000
1539,66.477000
1540,66.477000
1541,66.477000
1542,66.477000
1543,66.477000
1544,66.477000
1545,66.477000
1546,66.477000
1547,66.477000
1548,66.477000
1549,66.477000
1550,66.477000
1551,66.477000
1552,66.477000
1553,66.477000
1554,66.477000
1555,66.477000
1556,66.477000
1557,66.477000
1558,66.477000
1559,66.477000
1560,66.477000
1561,66.477000
1562,66.477000
1563,66.477000
1564,66.477000
1565,66.477000
1566,66.477000
1567,66.477000
1568,66.477000
1569,66.477000
1570,66.477000
1571,66.477000
1572,66.477000
1573,66.477000
1574,66.477000
1575,66.477000
1576,66.477000
1577,66.477000
1578,66.477000
1579,66.477000
1580,66.477000
1581,66.477000
1582,66.477000
1583,66.477000
1584,66.477000
1585,66.477000
1586,66.477000
1587,66.477000
1588,66.477000
1589,66.477000
1590,66.477000
1591,66.477000
1592,66.477000
1593,66.477000
1594,66.477000
1595,66.477000
1596,66.477000
1597,66.477000
1598,66.477000
1599,66.477000
1600,66.477000
1601,66.477000
1602,66.477000
1603,66.477000
1604,66.477000
1605,66.477000
1606,66.477000
1607,66.477000
1608,66.477000
1609,66.477000
1610,66.477000
1611,66.477000
1612,66.477000
1613,66.477000
1614,66.477000
1615,66.477000
1616,66.477000
1617,66.477000
1618,66.477000
1619,66.477000
1620,66.477000
1621,66.477000
1622,66.477000
1623,66.477000
1624,66.477000
1625,66.477000
1626,66.477000
1627,66.477000
1628,66.477000
1629,66.477000
1630,66.477000
1631,66.477000
1632,66.477000
1633,66.477000
1634,66.477000
1635,66.477000
1636,66.477000
1637,66.477000
1638,66.477000
1639,66.477000
1640,66.477000
1641,66.477000
1642,66.477000
1643,66.477000
1644,66.477000
1645,66.477000
1646,66.477000
1647,66.477000
1648,66.477000
1649,66.477000
1650,66.477000
1651,66.477000
1652,66.477000
1653,66.477000
1654,66.477000
1655,66.477000
1656,66.477000
1657,66.477000
1658,66.477000
1659,66.477000
1660,66.477000
1661,66.477000
1662,66.477000
1663,66.477000
1664,66.477000
1665,66.477000
1666,66.477000
1667,66.477000
1668,66.477000
1669,66.477000
1670,66.477000
1671,66.477000
1672,66.477000
1673,66.477000
1674,66.477000
1675,66.477000
1676,66.477000
1677,66.477000
1678,66.477000
1679,66.477000
1680,66.477000
1681,66.477000
1682,66.477000
1683,66.477000
1684,66.477000
1685,66.477000
1686,66.477000
1687,66.477000
1688,66.477000
1689,66.477000
1690,66.477000
1691,66.477000
1692,66.477000
1693,66.477000
1694,66.477000
1695,66.477000
1696,66.477000
1697,66.477000
1698,66.477000
1699,66.477000
1700,66.477000
1701,66.477000
1702,66.477000
1703,66.477000
1704,66.477000
1705,66.477000
1706,66.477000
1707,66.477000
1708,66.477000
1709,66.477000
1710,66.477000
1711,66.477000
1712,66.477000
1713,66.477000
1714,66.477000
1715,66.477000
1716,66.477000
1717,66.477000
1718,66.477000
1719,66.477000
1720,66.477000
1721,66.477000
1722,66.477000
1723,66.477000
1724,66.477000
1725,66.477000
1726,66.477000
1727,66.477000
1728,66.477000
1729,66.477000
1730,66.477000
1731,66.477000
1732,66.477000
1733,66.477000
1734,66.477000
1735,66.477000
1736,66.477000
1737,66.477000
1738,66.477000
1739,66.477000
1740,66.477000
1741,66.477000
1742,66.477000
1743,66.477000
1744,66.477000
1745,66.477000
1746,66.477000
1747,66.477000
1748,66.477000
1749,66.477000
1750,66.477000
1751,66.477000
1752,66.477000
1753,66.477000
1754,66.477000
1755,66.477000
1756,66.477000
1757,66.477000
1758,66.477000
1759,66.477000
1760,66.477000
1761,66.477000
1762,66.477000
1763,66.477000
1764,66.477000
1765,66.477000
1766,66.477000
1767,66.477000
1768,66.477000
1769,66.477000
1770,66.477000
1771,66.477000
1772,66.477000
1773,66.477000
1774,66.477000
1775,66.477000
1776,66.477000
1777,66.477000
1778,66.477000
1779,66.477000
1780,66.477000
1781,66.477000
1782,66.477000
1783,66.477000
1784,66.477000
1785,66.477000
1786,66.477000
1787,66.477000
1788,66.477000
1789,66.477000
1790,66.477000
1791,66.477000
1792,66.477000
1793,66.477000
1794,66.477000
1795,66.477000
1796,66.477000
1797,66.477000
1798,66.477000
1799,66.477000
1800,66.477000
1801,66.477000
1802,66.477000
1803,66.477000
1804,66.477000
1805,66.477000
1806,66.477000
1807,66.477000
1808,66.477000
1809,66.477000
1810,66.477000
1811,66.477000
1812,66.477000
1813,66.477000
1814,66.477000
1815,66.477000
1816,66.477000
1817,66.477000
1818,66.477000
1819,66.477000
1820,66.477000
1821,66.477000
1822,66.477000
1823,66.477000
1824,66.477000
1825,66.477000
1826,66.477000
1827,66.477000
1828,66.477000
1829,66.477000
1830,66.477000
1831,66.477000
1832,66.477000
1833,66.477000
1834,66.477000
1835,66.477000
1836,66.477000
1837,66.477000
1838,66.477000
1839,66.477000
1840,66.477000
1841,66.477000
1842,66.477000
1843,66.477000
1844,66.477000
1845,66.477000
1846,66.477000
1847,66.477000
1848,66.477000
1849,66.477000
1850,66.477000
1851,66.477000
1852,66.477000
1853,66.477000
1854,66.477000
1855,66.477000
1856,66.477000
1857,66.477000
1858,66.477000
1859,66.477000
1860,66.477000
1861,66.477000
1862,66.477000
1863,66.477000
1864,66.477000
1865,66.477000
1866,66.477000
1867,66.477000
1868,66.477000
1869,66.477000
1870,66.477000
1871,66.477000
1872,66.477000
1873,66.477000
1874,66.477000
1875,66.477000
1876,66.477000
1877,66.477000
1878,66.477000
1879,66.477000
1880,66.477000
1881,66.477000
1882,66.477000
1883,66.477000
1884,66.477000
1885,66.477000
1886,66.477000
1887,66.477000
1888,66.477000
1889,66.477000
1890,66.477000
1891,66.477000
1892,66.477000
1893,66.477000
1894,66.477000
1895,66.477000
1896,66.477000
1897,66.477000
1898,66.477000
1899,66.477000
1900,66.477000
1901,66.477000
1902,66.477000
1903,66.477000
1904,66.477000
1905,66.477000
1906,66.477000
1907,66.477000
1908,66.477000
1909,66.477000
1910,66.477000
1911,66.477000
1912,66.477000
1913,66.477000
1914,66.477000
1915,66.477000
1916,66.477000
1917,66.477000
1918,66.477000
1919,66.477000
1920,66.477000
1921,66.477000
1922,66.477000
1923,66.477000
1924,66.477000
1925,66.477000
1926,66.477000
1927,66.477000
1928,66.477000
1929,66.477000
1930,66.477000
1931,66.477000
1932,66.477000
1933,66.477000
1934,66.477000
1935,66.477000
1936,66.477000
1937,66.477000
1938,66.477000
1939,66.477000
1940,66.477000
1941,66.477000
1942,66.477000
1943,66.477000
1944,66.477000
1945,66.477000
1946,66.477000
1947,66.477000
1948,66.477000
1949,66.477000
1950,66.477000
1951,66.477000
1952,66.477000
1953,66.477000
1954,66.477000
1955,66.477000
1956,66.477000
1957,66.477000
1958,66.477000
1959,66.477000
1960,66.477000
1961,66.477000
1962,66.477000
1963,66.477000
1964,66.477000
1965,66.477000
1966,66.477000
1967,66.477000
1968,66.477000
1969,66.477000
1970,66.477000
1971,66.477000
1972,66.477000
1973,66.477000
1974,66.477000
1975,66.477000
1976,66.477000
1977,66.477000
1978,66.477000
1979,66.477000
1980,66.477000
1981,66.477000
1982,66.477000
1983,66.477000
1984,66.477000
1985,66.477000
1986,66.477000
1987,66.477000
1988,66.477000
1989,66.477000
1990,66.477000
1991,66.477000
1992,66.477000
1993,66.477000
1994,66.477000
1995,66.477000
1996,66.477000
1997,66.477000
1998,66.477000
1999,66.477000
2000,66.477000
2001,66.477000
2002,66.477000
2003,66.477000
2004,66.477000
2005,66.477000
2006,66.477000
2007,66.477000
2008,66.477000
2009,66.477000
2010,66.477000
2011,66.477000
2012,66.477000
2013,66.477000
2014,66.477000
2015,66.477000
2016,66.477000
2017,66.477000
2018,66.477000
2019,66.477000
2020,66.477000
2021,66.477000
2022,66.477000
2023,66.477000
2024,66.477000
2025,66.477000
2026,66.477000
2027,66.477000
2028,66.477000
2029,66.477000
2030,66.477000
2031,66.477000
2032,66.477000
2033,66.477000
2034,66.477000
2035,66.477000
2036,66.477000
2037,66.477000
2038,66.477000
2039,66.477000
2040,66.477000
2041,66.477000
2042,66.477000
2043,66.477000
2044,66.477000
2045,66.477000
2046,66.477000
2047,66.477000
2048,66.477000
2049,66.477000
2050,66.477000
2051,66.477000
2052,66.477000
2053,66.477000
2054,66.477000
2055,66.477000
2056,66.477000
2057,66.477000
2058,66.477000
2059,66.477000
2060,66.477000
2061,66.477000
2062,66.477000
2063,66.477000
2064,66.477000
2065,66.477000
2066,66.477000
2067,66.477000
2068,66.477000
2069,66.477000
2070,66.477000
2071,66.477000
2072,66.477000
2073,66.477000
2074,66.477000
2075,66.477000
2076,66.477000
2077,66.477000
2078,66.477000
2079,66.477000
2080,66.477000
2081,66.477000
2082,66.477000
2083,66.477000
2084,66.477000
2085,66.477000
2086,66.477000
2087,66.477000
2088,66.477000
2089,66.477000
2090,66.477000
2091,66.477000
2092,66.477000
2093,66.477000
2094,66.477000
2095,66.477000
2096,66.477000
2097,66.477000
2098,66.477000
2099,66.477000
2100,66.477000
2101,66.283000
2102,66.283000
2103,66.283000
2104,66.283000
2105,66.283000
2106,66.283000
2107,66.283000
2108,66.283000
2109,66.283000
2110,66.283000
2111,66.283000
2112,66.283000
2113,66.283000
2114,66.283000
2115,66.283000
2116,66.283000
2117,66.283000
2118,66.283000
2119,66.283000
2120,66.283000
2121,66.283000
2122,66.283000
2123,66.283000
2124,66.283000
2125,66.283000
2126,66.283000
2127,66.283000
2128,66.283000
2129,66.283000
2130,66.283000
2131,66.283000
2132,66.283000
2133,66.283000
2134,66.283000
2135,66.283000
2136,66.283000
2137,66.283000
2138,66.283000
2139,66.283000
2140,66.283000
2141,66.283000
2142,66.283000
2143,66.283000
2144,66.283000
2145,66.283000
2146,66.283000
2147,66.283000
2148,66.283000
2149,66.283000
2150,66.283000
2151,66.283000
2152,66.283000
2153,66.283000
2154,66.283000
2155,66.283000
2156,66.283000
2157,66.283000
2158,66.283000
2159,66.283000
2160,66.283000
2161,66.283000
2162,66.283000
2163,66.283000
2164,66.283000
2165,66.283000
2166,66.283000
2167,66.283000
2168,66.283000
2169,66.283000
2170,66.283000
2171,66.283000
2172,66.283000
2173,66.283000
2174,66.283000
2175,66.283000
2176,66.283000
2177,66.283000
2178,66.283000
2179,66.283000
2180,66.283000
2181,66.283000
2182,66.283000
2183,66.283000
2184,66.283000
2185,66.283000
2186,66.283000
2187,66.283000
2188,66.283000
2189,66.283000
2190,66.283000
2191,66.283000
2192,66.283000
2193,66.283000
2194,66.283000
2195,66.283000
2196,66.283000
2197,66.283000
2198,66.283000
2199,66.283000
2200,66.283000
2201,66.283000
2202,66.283000
2203,66.283000
2204,66.283000
2205,66.283000
2206,66.283000
2207,66.283000
2208,66.283000
2209,66.283000
2210,66.283000
2211,66.380000
2212,66.380000
2213,66.380000
2214,66.380000
2215,66.380000
2216,66.380000
2217,66.380000
2218,66.380000
2219,66.380000
2220,66.380000
2221,66.380000
2222,66.380000
2223,66.380000
2224,66.380000
2225,66.380000
2226,66.380000
2227,66.380000
2228,66.380000
2229,66.380000
2230,66.380000
2231,66.380000
2232,66.380000
2233,66.380000
2234,66.380000
2235,66.380000
2236,66.380000
2237,66.380000
2238,66.380000
2239,66.380000
2240,66.380000
2241,66.380000
2242,66.380000
2243,66.380000
2244,66.380000
2245,66.380000
2246,66.380000
2247,66.380000
2248,66.380000
2249,66.380000
2250,66.380000
2251,66.380000
2252,66.380000
2253,66.380000
2254,66.380000
2255,66.380000
2256,66.380000
2257,66.380000
2258,66.380000
2259,66.380000
2260,66.380000
2261,66.380000
2262,66.380000
2263,66.380000
2264,66.380000
2265,66.380000
2266,66.380000
2267,66.380000
2268,66.380000
2269,66.380000
2270,66.380000
2271,66.380000
2272,66.380000
2273,66.380000
2274,66.380000
2275,66.380000
2276,66.380000
2277,66.380000
2278,66.380000
2279,66.380000
2280,66.380000
2281,66.380000
2282,66.380000
2283,66.380000
2284,66.380000
2285,66.380000
2286,66.380000
2287,66.380000
2288,66.380000
2289,66.380000
2290,66.380000
2291,66.380000
2292,66.380000
2293,66.380000
2294,66.380000
2295,66.380000
2296,66.380000
2297,66.380000
2298,66.380000
2299,66.380000
2300,66.380000
2301,66.380000
2302,66.380000
2303,66.380000
2304,66.380000
2305,66.380000
2306,66.380000
2307,66.380000
2308,66.380000
2309,66.380000
2310,66.380000
2311,66.380000
2312,66.380000
2313,66.380000
2314,66.380000
2315,66.380000
2316,66.380000
2317,66.380000
2318,66.380000
2319,66.380000
2320,66.380000
2321,66.380000
2322,66.380000
2323,66.380000
2324,66.380000
2325,66.380000
2326,66.380000
2327,66.380000
2328,66.380000
2329,66.380000
2330,66.380000
2331,66.380000
2332,66.380000
2333,66.380000
2334,66.380000
2335,66.380000
2336,66.380000
2337,66.380000
2338,66.380000
2339,66.380000
2340,66.380000
2341,66.380000
2342,66.380000
2343,66.380000
2344,66.380000
2345,66.380000
2346,66.380000
2347,66.380000
2348,66.380000
2349,66.380000
2350,66.380000
2351,66.380000
2352,66.380000
2353,66.380000
2354,66.380000
2355,66.380000
2356,66.380000
2357,66.380000
2358,66.380000
2359,66.380000
2360,66.380000
2361,66.380000
2362,66.380000
2363,66.380000
2364,66.380000
2365,66.380000
2366,66.380000
2367,66.380000
2368,66.380000
2369,66.380000
2370,66.380000
2371,66.380000
2372,66.380000
2373,66.380000
2374,66.380000
2375,66.380000
2376,66.380000
2377,66.380000
2378,66.380000
2379,66.380000
2380,66.380000
2381,66.380000
2382,66.380000
2383,66.380000
2384,66.380000
2385,66.380000
2386,66.380000
2387,66.380000
2388,66.380000
2389,66.380000
2390,66.380000
2391,66.380000
2392,66.380000
2393,66.380000
2394,66.380000
2395,66.380000
2396,66.380000
2397,66.380000
2398,66.380000
2399,66.380000
2400,66.380000
2401,66.380000
2402,66.380000
2403,66.380000
2404,66.380000
2405,66.380000
2406,66.380000
2407,66.380000
2408,66.380000
2409,66.380000
2410,66.380000
2411,66.380000
2412,66.380000
2413,66.380000
2414,66.380000
2415,66.380000
2416,66.380000
2417,66.380000
2418,66.380000
2419,66.380000
2420,66.380000
2421,66.380000
2422,66.380000
2423,66.380000
2424,66.380000
2425,66.380000
2426,66.380000
2427,66.380000
2428,66.380000
2429,66.380000
2430,66.380000
2431,66.380000
2432,66.380000
2433,66.380000
2434,66.380000
2435,66.380000
2436,66.380000
2437,66.380000
2438,66.380000
2439,66.380000
2440,66.380000
2441,66.380000
2442,66.380000
2443,66.380000
2444,66.380000
2445,66.380000
2446,66.380000
2447,66.380000
2448,66.380000
2449,66.380000
2450,66.380000
2451,66.380000
2452,66.380000
2453,66.380000
2454,66.380000
2455,66.380000
2456,66.380000
2457,66.380000
2458,66.380000
2459,66.380000
2460,66.380000
2461,66.380000
2462,66.380000
2463,66.380000
2464,66.380000
2465,66.380000
2466,66.380000
2467,66.380000
2468,66.380000
2469,66.380000
2470,66.380000
2471,66.380000
2472,66.380000
2473,66.380000
2474,66.380000
2475,66.380000
2476,66.380000
2477,66.380000
2478,66.380000
2479,66.380000
2480,66.380000
2481,66.380000
2482,66.380000
2483,66.380000
2484,66.380000
2485,66.380000
2486,66.380000
2487,66.380000
2488,66.380000
2489,66.380000
2490,66.380000
2491,66.380000
2492,66.380000
2493,66.380000
2494,66.380000
2495,66.380000
2496,66.380000
2497,66.380000
2498,66.380000
2499,66.380000
2500,66.380000
2501,66.380000
2502,66.380000
2503,66.380000
2504,66.380000
2505,66.380000
2506,66.380000
2507,66.380000
2508,66.380000
2509,66.380000
2510,66.380000
2511,66.380000
2512,66.380000
2513,66.477000
2514,66.477000
2515,66.477000
2516,66.477000
2517,66.477000
2518,66.477000
2519,66.477000
2520,66.477000
2521,66.477000
2522,66.477000
2523,66.477000
2524,66.477000
2525,66.477000
2526,66.477000
2527,66.477000
2528,66.477000
2529,66.477000
2530,66.477000
2531,66.477000
2532,66.477000
2533,66.477000
2534,66.477000
2535,66.477000
2536,66.477000
2537,66.477000
2538,66.477000
2539,66.477000
2540,66.477000
2541,66.477000
2542,66.477000
2543,66.477000
2544,66.477000
2545,66.477000
2546,66.477000
2547,66.477000
2548,66.477000
2549,66.477000
2550,66.477000
2551,66.477000
2552,66.477000
2553,66.477000
2554,66.477000
2555,66.477000
2556,66.477000
2557,66.477000
2558,66.477000
2559,66.477000
2560,66.477000
2561,66.477000
2562,66.477000
2563,66.477000
2564,66.477000
2565,66.477000
2566,66.477000
2567,66.477000
2568,66.477000
2569,66.477000
2570,66.477000
2571,66.477000
2572,66.477000
2573,66.477000
2574,66.477000
2575,66.477000
2576,66.477000
2577,66.477000
2578,66.477000
2579,66.477000
2580,66.477000
2581,66.477000
2582,66.477000
2583,66.477000
2584,66.477000
2585,66.477000
2586,66.477000
2587,66.477000
2588,66.477000
2589,66.477000
2590,66.477000
2591,66.477000
2592,66.477000
2593,66.477000
2594,66.477000
2595,66.477000
2596,66.477000
2597,66.477000
2598,66.477000
2599,66.477000
2600,66.477000
2601,66.477000
2602,66.477000
2603,66.477000
2604,66.477000
2605,66.477000
2606,66.477000
2607,66.477000
2608,66.477000
2609,66.477000
2610,66.477000
2611,66.477000
2612,66.477000
2613,66.477000
2614,66.477000
2615,66.477000
2616,66.477000
2617,66.477000
2618,66.477000
2619,66.477000
2620,66.477000
2621,66.477000
2622,66.477000
2623,66.477000
2624,66.477000
2625,66.477000
2626,66.477000
2627,66.477000
2628,66.477000
2629,66.477000
2630,66.477000
2631,66.477000
2632,66.477000
2633,66.477000
2634,66.477000
2635,66.477000
2636,66.477000
2637,66.477000
2638,66.477000
2639,66.477000
2640,66.477000
2641,66.477000
2642,66.477000
2643,66.477000
2644,66.477000
2645,66.477000
2646,66.477000
2647,66.477000
2648,66.477000
2649,66.477000
2650,66.477000
2651,66.477000
2652,66.477000
2653,66.477000
2654,66.477000
2655,66.477000
2656,66.477000
2657,66.477000
2658,66.477000
2659,66.477000
2660,66.477000
2661,66.477000
2662,66.477000
2663,66.477000
2664,66.477000
2665,66.477000
2666,66.477000
2667,66.477000
2668,66.477000
2669,66.477000
2670,66.477000
2671,66.477000
2672,66.477000
2673,66.477000
2674,66.477000
2675,66.477000
2676,66.477000
2677,66.477000
2678,66.477000
2679,66.477000
2680,66.477000
2681,66.477000
2682,66.477000
2683,66.477000
2684,66.477000
2685,66.477000
2686,66.477000
2687,66.477000
2688,66.477000
2689,66.477000
2690,66.477000
2691,66.477000
2692,66.477000
2693,66.477000
2694,66.477000
2695,66.477000
2696,66.477000
2697,66.477000
2698,66.477000
2699,66.477000
2700,66.477000
2701,66.477000
2702,66.477000
2703,66.477000
2704,66.477000
2705,66.477000
2706,66.477000
2707,66.477000
2708,66.477000
2709,66.477000
2710,66.477000
2711,66.477000
2712,66.477000
2713,66.477000
2714,66.477000
2715,66.477000
2716,66.477000
2717,66.477000
2718,66.477000
2719,66.477000
2720,66.477000
2721,66.477000
2722,66.477000
2723,66.477000
2724,66.477000
2725,66.477000
2726,66.477000
2727,66.477000
2728,66.477000
2729,66.477000
2730,66.477000
2731,66.477000
2732,66.477000
2733,66.477000
2734,66.477000
2735,66.477000
2736,66.477000
2737,66.477000
2738,66.477000
2739,66.477000
2740,66.477000
2741,66.477000
2742,66.477000
2743,66.477000
2744,66.477000
2745,66.477000
2746,66.477000
2747,66.477000
2748,66.477000
2749,66.477000
2750,66.477000
2751,66.477000
2752,66.477000
2753,66.477000
2754,66.477000
2755,66.477000
2756,66.477000
2757,66.477000
2758,66.477000
2759,66.477000
2760,66.477000
2761,66.477000
2762,66.477000
2763,66.477000
2764,66.477000
2765,66.477000
2766,66.477000
2767,66.477000
2768,66.477000
2769,66.477000
2770,66.477000
2771,66.477000
2772,66.477000
2773,66.477000
2774,66.477000
2775,66.477000
2776,66.477000
2777,66.477000
2778,66.477000
2779,66.477000
2780,66.477000
2781,66.477000
2782,66.477000
2783,66.477000
2784,66.477000
2785,66.477000
2786,66.477000
2787,66.477000
2788,66.477000
2789,66.477000
2790,66.477000
2791,66.477000
2792,66.477000
2793,66.477000
2794,66.477000
2795,66.477000
2796,66.477000
2797,66.477000
2798,66.477000
2799,66.477000
2800,66.477000
2801,66.477000
2802,66.477000
2803,66.477000
2804,66.477000
2805,66.477000
2806,66.477000
2807,66.477000
2808,66.477000
2809,66.477000
2810,66.477000
2811,66.477000
2812,66.477000
2813,66.477000
2814,66.477000
2815,66.477000
2816,66.477000
2817,66.477000
2818,66.477000
2819,66.477000
2820,66.477000
2821,66.477000
2822,66.477000
2823,66.477000
2824,66.477000
2825,66.477000
2826,66.477000
2827,66.477000
2828,66.477000
2829,66.477000
2830,66.477000
2831,66.477000
2832,66.477000
2833,66.477000
2834,66.477000
2835,66.477000
2836,66.477000
2837,66.477000
2838,66.477000
2839,66.477000
2840,66.477000
2841,66.477000
2842,66.477000
2843,66.477000
2844,66.477000
2845,66.477000
2846,66.477000
2847,66.477000
2848,66.477000
2849,66.477000
2850,66.477000
2851,66.477000
2852,66.477000
2853,66.477000
2854,66.477000
2855,66.477000
2856,66.477000
2857,66.477000
2858,66.477000
2859,66.477000
2860,66.477000
2861,66.477000
2862,66.477000
2863,66.477000
2864,66.477000
2865,66.477000
2866,66.477000
2867,66.477000
2868,66.477000
2869,66.477000
2870,66.477000
2871,66.477000
2872,66.477000
2873,66.477000
2874,66.477000
2875,66.477000
2876,66.477000
2877,66.477000
2878,66.477000
2879,66.477000
2880,66.477000
2881,66.477000
2882,66.477000
2883,66.477000
2884,66.477000
2885,66.477000
2886,66.477000
2887,66.477000
2888,66.477000
2889,66.477000
2890,66.477000
2891,66.477000
2892,66.477000
2893,66.477000
2894,66.477000
2895,66.477000
2896,66.477000
2897,66.477000
2898,66.477000
2899,66.477000
2900,66.477000
2901,66.477000
2902,66.477000
2903,66.477000
2904,66.477000
2905,66.477000
2906,66.477000
2907,66.477000
2908,66.477000
2909,66.477000
2910,66.477000
2911,66.477000
2912,66.477000
2913,66.477000
2914,66.477000
2915,66.477000
2916,66.477000
2917,66.477000
2918,66.477000
2919,66.477000
2920,66.477000
2921,66.477000
2922,66.477000
2923,66.477000
2924,66.477000
2925,66.477000
2926,66.477000
2927,66.477000
2928,66.477000
2929,66.477000
2930,66.477000
2931,66.477000
2932,66.477000
2933,66.477000
2934,66.477000
2935,66.477000
2936,66.477000
2937,66.477000
2938,66.477000
2939,66.477000
2940,66.477000
2941,66.477000
2942,66.477000
2943,66.477000
2944,66.477000
2945,66.477000
2946,66.477000
2947,66.477000
2948,66.477000
2949,66.477000
2950,66.477000
2951,66.477000
2952,66.477000
2953,66.477000
2954,66.477000
2955,66.477000
2956,66.477000
2957,66.477000
2958,66.477000
2959,66.477000
2960,66.477000
2961,66.477000
2962,66.477000
2963,66.477000
2964,66.477000
2965,66.477000
2966,66.477000
2967,66.477000
2968,66.477000
2969,66.477000
2970,66.477000
2971,66.477000
2972,66.477000
2973,66.477000
2974,66.477000
2975,66.477000
2976,66.477000
2977,66.477000
2978,66.477000
2979,66.477000
2980,66.477000
2981,66.477000
2982,66.477000
2983,66.477000
2984,66.477000
2985,66.477000
2986,66.477000
2987,66.477000
2988,66.477000
2989,66.477000
2990,66.477000
2991,66.477000
2992,66.477000
2993,66.477000
2994,66.477000
