+++++++++++++++++++++++++++++++++++++++++++++++

++++++++++++++OMP_NUM_THREADS=1++++++++++++++++

+++++++++++++++++++++++++++++++++++++++++++++++





-----ompnthreads=1-----


Starting...
Compute time: 251.611
Saving solution...
Saved solution...
Cleaning up...
Done...
*********************************************************************************************




-----ompnthreads=1-----


Starting...
0.168412 seconds per iteration
Saving solution...
Saved solution...
Cleaning up...
Done...
*********************************************************************************************




-----ompnthreads=1-----


Starting...
0.124044 seconds per iteration
Saving solution...
Saved solution...
Cleaning up...
Done...
*********************************************************************************************




-----ompnthreads=1-----


Starting...
0.239407 seconds per iteration
Saving solution...
Saved solution...
Cleaning up...
Done...
*********************************************************************************************

+++++++++++++++++++++++++++++++++++++++++++++++

++++++++++++++OMP_NUM_THREADS=2++++++++++++++++

+++++++++++++++++++++++++++++++++++++++++++++++





-----ompnthreads=2-----


Starting...
Compute time: 128.605
Saving solution...
Saved solution...
Cleaning up...
Done...
*********************************************************************************************




-----ompnthreads=2-----


Starting...
0.0824469 seconds per iteration
Saving solution...
Saved solution...
Cleaning up...
Done...
*********************************************************************************************




-----ompnthreads=2-----


Starting...
0.0625096 seconds per iteration
Saving solution...
Saved solution...
Cleaning up...
Done...
*********************************************************************************************




-----ompnthreads=2-----


Starting...
0.103727 seconds per iteration
Saving solution...
Saved solution...
Cleaning up...
Done...
*********************************************************************************************

+++++++++++++++++++++++++++++++++++++++++++++++

++++++++++++++OMP_NUM_THREADS=3++++++++++++++++

+++++++++++++++++++++++++++++++++++++++++++++++





-----ompnthreads=3-----


Starting...
Compute time: 87.4867
Saving solution...
Saved solution...
Cleaning up...
Done...
*********************************************************************************************




-----ompnthreads=3-----


Starting...
0.0582166 seconds per iteration
Saving solution...
Saved solution...
Cleaning up...
Done...
*********************************************************************************************




-----ompnthreads=3-----


Starting...
0.0441684 seconds per iteration
Saving solution...
Saved solution...
Cleaning up...
Done...
*********************************************************************************************




-----ompnthreads=3-----


Starting...
0.0920564 seconds per iteration
Saving solution...
Saved solution...
Cleaning up...
Done...
*********************************************************************************************

+++++++++++++++++++++++++++++++++++++++++++++++

++++++++++++++OMP_NUM_THREADS=4++++++++++++++++

+++++++++++++++++++++++++++++++++++++++++++++++





-----ompnthreads=4-----


Starting...
Compute time: 64.8997
Saving solution...
Saved solution...
Cleaning up...
Done...
*********************************************************************************************




-----ompnthreads=4-----


Starting...
0.0421794 seconds per iteration
Saving solution...
Saved solution...
Cleaning up...
Done...
*********************************************************************************************




-----ompnthreads=4-----


Starting...
0.0318957 seconds per iteration
Saving solution...
Saved solution...
Cleaning up...
Done...
*********************************************************************************************




-----ompnthreads=4-----


Starting...
0.0541722 seconds per iteration
Saving solution...
Saved solution...
Cleaning up...
Done...
*********************************************************************************************

+++++++++++++++++++++++++++++++++++++++++++++++

++++++++++++++OMP_NUM_THREADS=5++++++++++++++++

+++++++++++++++++++++++++++++++++++++++++++++++





-----ompnthreads=5-----


Starting...
Compute time: 53.898
Saving solution...
Saved solution...
Cleaning up...
Done...
*********************************************************************************************




-----ompnthreads=5-----


Starting...
0.0357032 seconds per iteration
Saving solution...
Saved solution...
Cleaning up...
Done...
*********************************************************************************************




-----ompnthreads=5-----


Starting...
0.027209 seconds per iteration
Saving solution...
Saved solution...
Cleaning up...
Done...
*********************************************************************************************




-----ompnthreads=5-----


Starting...
0.0535471 seconds per iteration
Saving solution...
Saved solution...
Cleaning up...
Done...
*********************************************************************************************

+++++++++++++++++++++++++++++++++++++++++++++++

++++++++++++++OMP_NUM_THREADS=6++++++++++++++++

+++++++++++++++++++++++++++++++++++++++++++++++





-----ompnthreads=6-----


Starting...
Compute time: 45.0159
Saving solution...
Saved solution...
Cleaning up...
Done...
*********************************************************************************************




-----ompnthreads=6-----


Starting...
0.0297773 seconds per iteration
Saving solution...
Saved solution...
Cleaning up...
Done...
*********************************************************************************************




-----ompnthreads=6-----


Starting...
0.0226187 seconds per iteration
Saving solution...
Saved solution...
Cleaning up...
Done...
*********************************************************************************************




-----ompnthreads=6-----


Starting...
0.0376061 seconds per iteration
Saving solution...
Saved solution...
Cleaning up...
Done...
*********************************************************************************************

+++++++++++++++++++++++++++++++++++++++++++++++

++++++++++++++OMP_NUM_THREADS=7++++++++++++++++

+++++++++++++++++++++++++++++++++++++++++++++++





-----ompnthreads=7-----


Starting...
Compute time: 38.7058
Saving solution...
Saved solution...
Cleaning up...
Done...
*********************************************************************************************




-----ompnthreads=7-----


Starting...
0.0256976 seconds per iteration
Saving solution...
Saved solution...
Cleaning up...
Done...
*********************************************************************************************




-----ompnthreads=7-----


Starting...
0.0198385 seconds per iteration
Saving solution...
Saved solution...
Cleaning up...
Done...
*********************************************************************************************




-----ompnthreads=7-----


Starting...
0.0382055 seconds per iteration
Saving solution...
Saved solution...
Cleaning up...
Done...
*********************************************************************************************

+++++++++++++++++++++++++++++++++++++++++++++++

++++++++++++++OMP_NUM_THREADS=8++++++++++++++++

+++++++++++++++++++++++++++++++++++++++++++++++





-----ompnthreads=8-----


Starting...
Compute time: 33.6114
Saving solution...
Saved solution...
Cleaning up...
Done...
*********************************************************************************************




-----ompnthreads=8-----


Starting...
0.0223485 seconds per iteration
Saving solution...
Saved solution...
Cleaning up...
Done...
*********************************************************************************************




-----ompnthreads=8-----


Starting...
0.0180042 seconds per iteration
Saving solution...
Saved solution...
Cleaning up...
Done...
*********************************************************************************************




-----ompnthreads=8-----


Starting...
0.0285434 seconds per iteration
Saving solution...
Saved solution...
Cleaning up...
Done...
*********************************************************************************************

+++++++++++++++++++++++++++++++++++++++++++++++

++++++++++++++OMP_NUM_THREADS=9++++++++++++++++

+++++++++++++++++++++++++++++++++++++++++++++++





-----ompnthreads=9-----


Starting...
Compute time: 31.3171
Saving solution...
Saved solution...
Cleaning up...
Done...
*********************************************************************************************




-----ompnthreads=9-----


Starting...
0.0207838 seconds per iteration
Saving solution...
Saved solution...
Cleaning up...
Done...
*********************************************************************************************




-----ompnthreads=9-----


Starting...
0.0158923 seconds per iteration
Saving solution...
Saved solution...
Cleaning up...
Done...
*********************************************************************************************




-----ompnthreads=9-----


Starting...
0.0299808 seconds per iteration
Saving solution...
Saved solution...
Cleaning up...
Done...
*********************************************************************************************

+++++++++++++++++++++++++++++++++++++++++++++++

++++++++++++++OMP_NUM_THREADS=10++++++++++++++++

+++++++++++++++++++++++++++++++++++++++++++++++





-----ompnthreads=10-----


Starting...
Compute time: 28.3538
Saving solution...
Saved solution...
Cleaning up...
Done...
*********************************************************************************************




-----ompnthreads=10-----


Starting...
0.0182086 seconds per iteration
Saving solution...
Saved solution...
Cleaning up...
Done...
*********************************************************************************************




-----ompnthreads=10-----


Starting...
0.0139885 seconds per iteration
Saving solution...
Saved solution...
Cleaning up...
Done...
*********************************************************************************************




-----ompnthreads=10-----


Starting...
0.0225112 seconds per iteration
Saving solution...
Saved solution...
Cleaning up...
Done...
*********************************************************************************************

+++++++++++++++++++++++++++++++++++++++++++++++

++++++++++++++OMP_NUM_THREADS=11++++++++++++++++

+++++++++++++++++++++++++++++++++++++++++++++++





-----ompnthreads=11-----


Starting...
Compute time: 25.7207
Saving solution...
Saved solution...
Cleaning up...
Done...
*********************************************************************************************




-----ompnthreads=11-----


Starting...
0.0171238 seconds per iteration
Saving solution...
Saved solution...
Cleaning up...
Done...
*********************************************************************************************




-----ompnthreads=11-----


Starting...
0.0137145 seconds per iteration
Saving solution...
Saved solution...
Cleaning up...
Done...
*********************************************************************************************




-----ompnthreads=11-----


Starting...
0.023909 seconds per iteration
Saving solution...
Saved solution...
Cleaning up...
Done...
*********************************************************************************************

+++++++++++++++++++++++++++++++++++++++++++++++

++++++++++++++OMP_NUM_THREADS=12++++++++++++++++

+++++++++++++++++++++++++++++++++++++++++++++++





-----ompnthreads=12-----


Starting...
Compute time: 23.2429
Saving solution...
Saved solution...
Cleaning up...
Done...
*********************************************************************************************




-----ompnthreads=12-----


Starting...
0.0149296 seconds per iteration
Saving solution...
Saved solution...
Cleaning up...
Done...
*********************************************************************************************




-----ompnthreads=12-----


Starting...
0.0116093 seconds per iteration
Saving solution...
Saved solution...
Cleaning up...
Done...
*********************************************************************************************




-----ompnthreads=12-----


Starting...
0.0213527 seconds per iteration
Saving solution...
Saved solution...
Cleaning up...
Done...
*********************************************************************************************

+++++++++++++++++++++++++++++++++++++++++++++++

++++++++++++++OMP_NUM_THREADS=13++++++++++++++++

+++++++++++++++++++++++++++++++++++++++++++++++





-----ompnthreads=13-----


Starting...
Compute time: 21.9592
Saving solution...
Saved solution...
Cleaning up...
Done...
*********************************************************************************************




-----ompnthreads=13-----


Starting...
0.014895 seconds per iteration
Saving solution...
Saved solution...
Cleaning up...
Done...
*********************************************************************************************




-----ompnthreads=13-----


Starting...
0.011472 seconds per iteration
Saving solution...
Saved solution...
Cleaning up...
Done...
*********************************************************************************************




-----ompnthreads=13-----


Starting...
0.0209006 seconds per iteration
Saving solution...
Saved solution...
Cleaning up...
Done...
*********************************************************************************************

+++++++++++++++++++++++++++++++++++++++++++++++

++++++++++++++OMP_NUM_THREADS=14++++++++++++++++

+++++++++++++++++++++++++++++++++++++++++++++++





-----ompnthreads=14-----


Starting...
Compute time: 20.923
Saving solution...
Saved solution...
Cleaning up...
Done...
*********************************************************************************************




-----ompnthreads=14-----


Starting...
0.0132871 seconds per iteration
Saving solution...
Saved solution...
Cleaning up...
Done...
*********************************************************************************************




-----ompnthreads=14-----


Starting...
0.0108784 seconds per iteration
Saving solution...
Saved solution...
Cleaning up...
Done...
*********************************************************************************************




-----ompnthreads=14-----


Starting...
0.01715 seconds per iteration
Saving solution...
Saved solution...
Cleaning up...
Done...
*********************************************************************************************

+++++++++++++++++++++++++++++++++++++++++++++++

++++++++++++++OMP_NUM_THREADS=15++++++++++++++++

+++++++++++++++++++++++++++++++++++++++++++++++





-----ompnthreads=15-----


Starting...
Compute time: 18.8817
Saving solution...
Saved solution...
Cleaning up...
Done...
*********************************************************************************************




-----ompnthreads=15-----


Starting...
0.0133079 seconds per iteration
Saving solution...
Saved solution...
Cleaning up...
Done...
*********************************************************************************************




-----ompnthreads=15-----


Starting...
0.0108707 seconds per iteration
Saving solution...
Saved solution...
Cleaning up...
Done...
*********************************************************************************************




-----ompnthreads=15-----


Starting...
0.0191563 seconds per iteration
Saving solution...
Saved solution...
Cleaning up...
Done...
*********************************************************************************************

+++++++++++++++++++++++++++++++++++++++++++++++

++++++++++++++OMP_NUM_THREADS=16++++++++++++++++

+++++++++++++++++++++++++++++++++++++++++++++++





-----ompnthreads=16-----


Starting...
Compute time: 16.9703
Saving solution...
Saved solution...
Cleaning up...
Done...
*********************************************************************************************




-----ompnthreads=16-----


Starting...
0.0128213 seconds per iteration
Saving solution...
Saved solution...
Cleaning up...
Done...
*********************************************************************************************




-----ompnthreads=16-----


Starting...
0.00922222 seconds per iteration
Saving solution...
Saved solution...
Cleaning up...
Done...
*********************************************************************************************




-----ompnthreads=16-----


Starting...
0.015468 seconds per iteration
Saving solution...
Saved solution...
Cleaning up...
Done...
*********************************************************************************************

+++++++++++++++++++++++++++++++++++++++++++++++

++++++++++++++OMP_NUM_THREADS=17++++++++++++++++

+++++++++++++++++++++++++++++++++++++++++++++++





-----ompnthreads=17-----


Starting...
Compute time: 17.7033
Saving solution...
Saved solution...
Cleaning up...
Done...
*********************************************************************************************




-----ompnthreads=17-----


Starting...
0.0113037 seconds per iteration
Saving solution...
Saved solution...
Cleaning up...
Done...
*********************************************************************************************




-----ompnthreads=17-----


Starting...
0.00895478 seconds per iteration
Saving solution...
Saved solution...
Cleaning up...
Done...
*********************************************************************************************




-----ompnthreads=17-----


Starting...
0.0160245 seconds per iteration
Saving solution...
Saved solution...
Cleaning up...
Done...
*********************************************************************************************

+++++++++++++++++++++++++++++++++++++++++++++++

++++++++++++++OMP_NUM_THREADS=18++++++++++++++++

+++++++++++++++++++++++++++++++++++++++++++++++





-----ompnthreads=18-----


Starting...
Compute time: 16.9283
Saving solution...
Saved solution...
Cleaning up...
Done...
*********************************************************************************************




-----ompnthreads=18-----


Starting...
0.0110361 seconds per iteration
Saving solution...
Saved solution...
Cleaning up...
Done...
*********************************************************************************************




-----ompnthreads=18-----


Starting...
0.00861372 seconds per iteration
Saving solution...
Saved solution...
Cleaning up...
Done...
*********************************************************************************************




-----ompnthreads=18-----


Starting...
0.0133397 seconds per iteration
Saving solution...
Saved solution...
Cleaning up...
Done...
*********************************************************************************************

+++++++++++++++++++++++++++++++++++++++++++++++

++++++++++++++OMP_NUM_THREADS=19++++++++++++++++

+++++++++++++++++++++++++++++++++++++++++++++++





-----ompnthreads=19-----


Starting...
Compute time: 16.573
Saving solution...
Saved solution...
Cleaning up...
Done...
*********************************************************************************************




-----ompnthreads=19-----


Starting...
0.0111729 seconds per iteration
Saving solution...
Saved solution...
Cleaning up...
Done...
*********************************************************************************************




-----ompnthreads=19-----


Starting...
0.0086419 seconds per iteration
Saving solution...
Saved solution...
Cleaning up...
Done...
*********************************************************************************************




-----ompnthreads=19-----


Starting...
0.0154833 seconds per iteration
Saving solution...
Saved solution...
Cleaning up...
Done...
*********************************************************************************************

+++++++++++++++++++++++++++++++++++++++++++++++

++++++++++++++OMP_NUM_THREADS=20++++++++++++++++

+++++++++++++++++++++++++++++++++++++++++++++++





-----ompnthreads=20-----


Starting...
Compute time: 14.9999
Saving solution...
Saved solution...
Cleaning up...
Done...
*********************************************************************************************




-----ompnthreads=20-----


Starting...
0.0101154 seconds per iteration
Saving solution...
Saved solution...
Cleaning up...
Done...
*********************************************************************************************




-----ompnthreads=20-----


Starting...
0.00809726 seconds per iteration
Saving solution...
Saved solution...
Cleaning up...
Done...
*********************************************************************************************




-----ompnthreads=20-----


Starting...
0.0134679 seconds per iteration
Saving solution...
Saved solution...
Cleaning up...
Done...
*********************************************************************************************

+++++++++++++++++++++++++++++++++++++++++++++++

++++++++++++++OMP_NUM_THREADS=21++++++++++++++++

+++++++++++++++++++++++++++++++++++++++++++++++





-----ompnthreads=21-----


Starting...
Compute time: 15.2139
Saving solution...
Saved solution...
Cleaning up...
Done...
*********************************************************************************************




-----ompnthreads=21-----


Starting...
0.0109226 seconds per iteration
Saving solution...
Saved solution...
Cleaning up...
Done...
*********************************************************************************************




-----ompnthreads=21-----


Starting...
0.00773569 seconds per iteration
Saving solution...
Saved solution...
Cleaning up...
Done...
*********************************************************************************************




-----ompnthreads=21-----


Starting...
0.0143881 seconds per iteration
Saving solution...
Saved solution...
Cleaning up...
Done...
*********************************************************************************************

+++++++++++++++++++++++++++++++++++++++++++++++

++++++++++++++OMP_NUM_THREADS=22++++++++++++++++

+++++++++++++++++++++++++++++++++++++++++++++++





-----ompnthreads=22-----


Starting...
Compute time: 13.8474
Saving solution...
Saved solution...
Cleaning up...
Done...
*********************************************************************************************




-----ompnthreads=22-----


Starting...
0.00919869 seconds per iteration
Saving solution...
Saved solution...
Cleaning up...
Done...
*********************************************************************************************




-----ompnthreads=22-----


Starting...
0.00749552 seconds per iteration
Saving solution...
Saved solution...
Cleaning up...
Done...
*********************************************************************************************




-----ompnthreads=22-----


Starting...
0.0126142 seconds per iteration
Saving solution...
Saved solution...
Cleaning up...
Done...
*********************************************************************************************

+++++++++++++++++++++++++++++++++++++++++++++++

++++++++++++++OMP_NUM_THREADS=23++++++++++++++++

+++++++++++++++++++++++++++++++++++++++++++++++





-----ompnthreads=23-----


Starting...
Compute time: 13.844
Saving solution...
Saved solution...
Cleaning up...
Done...
*********************************************************************************************




-----ompnthreads=23-----


Starting...
0.00920382 seconds per iteration
Saving solution...
Saved solution...
Cleaning up...
Done...
*********************************************************************************************




-----ompnthreads=23-----


Starting...
0.00744725 seconds per iteration
Saving solution...
Saved solution...
Cleaning up...
Done...
*********************************************************************************************




-----ompnthreads=23-----


Starting...
0.0129817 seconds per iteration
Saving solution...
Saved solution...
Cleaning up...
Done...
*********************************************************************************************

+++++++++++++++++++++++++++++++++++++++++++++++

++++++++++++++OMP_NUM_THREADS=24++++++++++++++++

+++++++++++++++++++++++++++++++++++++++++++++++





-----ompnthreads=24-----


Starting...
Compute time: 12.0634
Saving solution...
Saved solution...
Cleaning up...
Done...
*********************************************************************************************




-----ompnthreads=24-----


Starting...
0.00851444 seconds per iteration
Saving solution...
Saved solution...
Cleaning up...
Done...
*********************************************************************************************




-----ompnthreads=24-----


Starting...
0.00678064 seconds per iteration
Saving solution...
Saved solution...
Cleaning up...
Done...
*********************************************************************************************




-----ompnthreads=24-----


Starting...
0.0115256 seconds per iteration
Saving solution...
Saved solution...
Cleaning up...
Done...
*********************************************************************************************

+++++++++++++++++++++++++++++++++++++++++++++++

++++++++++++++OMP_NUM_THREADS=25++++++++++++++++

+++++++++++++++++++++++++++++++++++++++++++++++





-----ompnthreads=25-----


Starting...
Compute time: 12.6674
Saving solution...
Saved solution...
Cleaning up...
Done...
*********************************************************************************************




-----ompnthreads=25-----


Starting...
0.00883855 seconds per iteration
Saving solution...
Saved solution...
Cleaning up...
Done...
*********************************************************************************************




-----ompnthreads=25-----


Starting...
0.00689024 seconds per iteration
Saving solution...
Saved solution...
Cleaning up...
Done...
*********************************************************************************************




-----ompnthreads=25-----


Starting...
0.0122082 seconds per iteration
Saving solution...
Saved solution...
Cleaning up...
Done...
*********************************************************************************************

+++++++++++++++++++++++++++++++++++++++++++++++

++++++++++++++OMP_NUM_THREADS=26++++++++++++++++

+++++++++++++++++++++++++++++++++++++++++++++++





-----ompnthreads=26-----


Starting...
Compute time: 12.1308
Saving solution...
Saved solution...
Cleaning up...
Done...
*********************************************************************************************




-----ompnthreads=26-----


Starting...
0.00804286 seconds per iteration
Saving solution...
Saved solution...
Cleaning up...
Done...
*********************************************************************************************




-----ompnthreads=26-----


Starting...
0.00644013 seconds per iteration
Saving solution...
Saved solution...
Cleaning up...
Done...
*********************************************************************************************




-----ompnthreads=26-----


Starting...
0.0119238 seconds per iteration
Saving solution...
Saved solution...
Cleaning up...
Done...
*********************************************************************************************

+++++++++++++++++++++++++++++++++++++++++++++++

++++++++++++++OMP_NUM_THREADS=27++++++++++++++++

+++++++++++++++++++++++++++++++++++++++++++++++





-----ompnthreads=27-----


Starting...
Compute time: 12.7075
Saving solution...
Saved solution...
Cleaning up...
Done...
*********************************************************************************************




-----ompnthreads=27-----


Starting...
0.00845017 seconds per iteration
Saving solution...
Saved solution...
Cleaning up...
Done...
*********************************************************************************************




-----ompnthreads=27-----


Starting...
0.0067207 seconds per iteration
Saving solution...
Saved solution...
Cleaning up...
Done...
*********************************************************************************************




-----ompnthreads=27-----


Starting...
0.0189293 seconds per iteration
Saving solution...
Saved solution...
Cleaning up...
Done...
*********************************************************************************************

+++++++++++++++++++++++++++++++++++++++++++++++

++++++++++++++OMP_NUM_THREADS=28++++++++++++++++

+++++++++++++++++++++++++++++++++++++++++++++++





-----ompnthreads=28-----


Starting...
Compute time: 11.0293
Saving solution...
Saved solution...
Cleaning up...
Done...
*********************************************************************************************




-----ompnthreads=28-----


Starting...
0.00770882 seconds per iteration
Saving solution...
Saved solution...
Cleaning up...
Done...
*********************************************************************************************




-----ompnthreads=28-----


Starting...
0.00630803 seconds per iteration
Saving solution...
Saved solution...
Cleaning up...
Done...
*********************************************************************************************




-----ompnthreads=28-----


Starting...
0.0177428 seconds per iteration
Saving solution...
Saved solution...
Cleaning up...
Done...
*********************************************************************************************

+++++++++++++++++++++++++++++++++++++++++++++++

++++++++++++++OMP_NUM_THREADS=29++++++++++++++++

+++++++++++++++++++++++++++++++++++++++++++++++





-----ompnthreads=29-----


Starting...
Compute time: 16.0676
Saving solution...
Saved solution...
Cleaning up...
Done...
*********************************************************************************************




-----ompnthreads=29-----


Starting...
0.0109352 seconds per iteration
Saving solution...
Saved solution...
Cleaning up...
Done...
*********************************************************************************************




-----ompnthreads=29-----


Starting...
0.00855921 seconds per iteration
Saving solution...
Saved solution...
Cleaning up...
Done...
*********************************************************************************************




-----ompnthreads=29-----


Starting...
0.0170686 seconds per iteration
Saving solution...
Saved solution...
Cleaning up...
Done...
*********************************************************************************************

+++++++++++++++++++++++++++++++++++++++++++++++

++++++++++++++OMP_NUM_THREADS=30++++++++++++++++

+++++++++++++++++++++++++++++++++++++++++++++++





-----ompnthreads=30-----


Starting...
Compute time: 16.1758
Saving solution...
Saved solution...
Cleaning up...
Done...
*********************************************************************************************




-----ompnthreads=30-----


Starting...
0.0106225 seconds per iteration
Saving solution...
Saved solution...
Cleaning up...
Done...
*********************************************************************************************




-----ompnthreads=30-----


Starting...
0.0085998 seconds per iteration
Saving solution...
Saved solution...
Cleaning up...
Done...
*********************************************************************************************




-----ompnthreads=30-----


Starting...
0.0168313 seconds per iteration
Saving solution...
Saved solution...
Cleaning up...
Done...
*********************************************************************************************

+++++++++++++++++++++++++++++++++++++++++++++++

++++++++++++++OMP_NUM_THREADS=31++++++++++++++++

+++++++++++++++++++++++++++++++++++++++++++++++





-----ompnthreads=31-----


Starting...
Compute time: 15.7009
Saving solution...
Saved solution...
Cleaning up...
Done...
*********************************************************************************************




-----ompnthreads=31-----


Starting...
0.0103184 seconds per iteration
Saving solution...
Saved solution...
Cleaning up...
Done...
*********************************************************************************************




-----ompnthreads=31-----


Starting...
0.00839519 seconds per iteration
Saving solution...
Saved solution...
Cleaning up...
Done...
*********************************************************************************************




-----ompnthreads=31-----


Starting...
0.015765 seconds per iteration
Saving solution...
Saved solution...
Cleaning up...
Done...
*********************************************************************************************

+++++++++++++++++++++++++++++++++++++++++++++++

++++++++++++++OMP_NUM_THREADS=32++++++++++++++++

+++++++++++++++++++++++++++++++++++++++++++++++





-----ompnthreads=32-----


Starting...
Compute time: 14.63
Saving solution...
Saved solution...
Cleaning up...
Done...
*********************************************************************************************




-----ompnthreads=32-----


Starting...
0.0102237 seconds per iteration
Saving solution...
Saved solution...
Cleaning up...
Done...
*********************************************************************************************




-----ompnthreads=32-----


Starting...
0.00808648 seconds per iteration
Saving solution...
Saved solution...
Cleaning up...
Done...
*********************************************************************************************




-----ompnthreads=32-----


Starting...
0.0159583 seconds per iteration
Saving solution...
Saved solution...
Cleaning up...
Done...
*********************************************************************************************

+++++++++++++++++++++++++++++++++++++++++++++++

++++++++++++++OMP_NUM_THREADS=33++++++++++++++++

+++++++++++++++++++++++++++++++++++++++++++++++





-----ompnthreads=33-----


Starting...
Compute time: 15.1184
Saving solution...
Saved solution...
Cleaning up...
Done...
*********************************************************************************************




-----ompnthreads=33-----


Starting...
0.00998298 seconds per iteration
Saving solution...
Saved solution...
Cleaning up...
Done...
*********************************************************************************************




-----ompnthreads=33-----


Starting...
0.00803372 seconds per iteration
Saving solution...
Saved solution...
Cleaning up...
Done...
*********************************************************************************************




-----ompnthreads=33-----


Starting...
0.0149564 seconds per iteration
Saving solution...
Saved solution...
Cleaning up...
Done...
*********************************************************************************************

+++++++++++++++++++++++++++++++++++++++++++++++

++++++++++++++OMP_NUM_THREADS=34++++++++++++++++

+++++++++++++++++++++++++++++++++++++++++++++++





-----ompnthreads=34-----


Starting...
Compute time: 14.7311
Saving solution...
Saved solution...
Cleaning up...
Done...
*********************************************************************************************




-----ompnthreads=34-----


Starting...
0.00971255 seconds per iteration
Saving solution...
Saved solution...
Cleaning up...
Done...
*********************************************************************************************




-----ompnthreads=34-----


Starting...
0.00783544 seconds per iteration
Saving solution...
Saved solution...
Cleaning up...
Done...
*********************************************************************************************




-----ompnthreads=34-----


Starting...
0.0149298 seconds per iteration
Saving solution...
Saved solution...
Cleaning up...
Done...
*********************************************************************************************

+++++++++++++++++++++++++++++++++++++++++++++++

++++++++++++++OMP_NUM_THREADS=35++++++++++++++++

+++++++++++++++++++++++++++++++++++++++++++++++





-----ompnthreads=35-----


Starting...
Compute time: 14.2663
Saving solution...
Saved solution...
Cleaning up...
Done...
*********************************************************************************************




-----ompnthreads=35-----


Starting...
0.00935969 seconds per iteration
Saving solution...
Saved solution...
Cleaning up...
Done...
*********************************************************************************************




-----ompnthreads=35-----


Starting...
0.00760832 seconds per iteration
Saving solution...
Saved solution...
Cleaning up...
Done...
*********************************************************************************************




-----ompnthreads=35-----


Starting...
0.0143123 seconds per iteration
Saving solution...
Saved solution...
Cleaning up...
Done...
*********************************************************************************************

+++++++++++++++++++++++++++++++++++++++++++++++

++++++++++++++OMP_NUM_THREADS=36++++++++++++++++

+++++++++++++++++++++++++++++++++++++++++++++++





-----ompnthreads=36-----


Starting...
Compute time: 13.9849
Saving solution...
Saved solution...
Cleaning up...
Done...
*********************************************************************************************




-----ompnthreads=36-----


Starting...
0.00917512 seconds per iteration
Saving solution...
Saved solution...
Cleaning up...
Done...
*********************************************************************************************




-----ompnthreads=36-----


Starting...
0.00746437 seconds per iteration
Saving solution...
Saved solution...
Cleaning up...
Done...
*********************************************************************************************




-----ompnthreads=36-----


Starting...
0.0135962 seconds per iteration
Saving solution...
Saved solution...
Cleaning up...
Done...
*********************************************************************************************

+++++++++++++++++++++++++++++++++++++++++++++++

++++++++++++++OMP_NUM_THREADS=37++++++++++++++++

+++++++++++++++++++++++++++++++++++++++++++++++





-----ompnthreads=37-----


Starting...
Compute time: 13.661
Saving solution...
Saved solution...
Cleaning up...
Done...
*********************************************************************************************




-----ompnthreads=37-----


Starting...
0.00904357 seconds per iteration
Saving solution...
Saved solution...
Cleaning up...
Done...
*********************************************************************************************




-----ompnthreads=37-----


Starting...
0.00726096 seconds per iteration
Saving solution...
Saved solution...
Cleaning up...
Done...
*********************************************************************************************




-----ompnthreads=37-----


Starting...
0.013453 seconds per iteration
Saving solution...
Saved solution...
Cleaning up...
Done...
*********************************************************************************************

+++++++++++++++++++++++++++++++++++++++++++++++

++++++++++++++OMP_NUM_THREADS=38++++++++++++++++

+++++++++++++++++++++++++++++++++++++++++++++++





-----ompnthreads=38-----


Starting...
Compute time: 13.3592
Saving solution...
Saved solution...
Cleaning up...
Done...
*********************************************************************************************




-----ompnthreads=38-----


Starting...
0.00882165 seconds per iteration
Saving solution...
Saved solution...
Cleaning up...
Done...
*********************************************************************************************




-----ompnthreads=38-----


Starting...
0.00721654 seconds per iteration
Saving solution...
Saved solution...
Cleaning up...
Done...
*********************************************************************************************




-----ompnthreads=38-----


Starting...
0.0130425 seconds per iteration
Saving solution...
Saved solution...
Cleaning up...
Done...
*********************************************************************************************

+++++++++++++++++++++++++++++++++++++++++++++++

++++++++++++++OMP_NUM_THREADS=39++++++++++++++++

+++++++++++++++++++++++++++++++++++++++++++++++





-----ompnthreads=39-----


Starting...
Compute time: 13.1676
Saving solution...
Saved solution...
Cleaning up...
Done...
*********************************************************************************************




-----ompnthreads=39-----


Starting...
0.00863495 seconds per iteration
Saving solution...
Saved solution...
Cleaning up...
Done...
*********************************************************************************************




-----ompnthreads=39-----


Starting...
0.00696922 seconds per iteration
Saving solution...
Saved solution...
Cleaning up...
Done...
*********************************************************************************************




-----ompnthreads=39-----


Starting...
0.012371 seconds per iteration
Saving solution...
Saved solution...
Cleaning up...
Done...
*********************************************************************************************

+++++++++++++++++++++++++++++++++++++++++++++++

++++++++++++++OMP_NUM_THREADS=40++++++++++++++++

+++++++++++++++++++++++++++++++++++++++++++++++





-----ompnthreads=40-----


Starting...
Compute time: 12.7595
Saving solution...
Saved solution...
Cleaning up...
Done...
*********************************************************************************************




-----ompnthreads=40-----


Starting...
0.00834958 seconds per iteration
Saving solution...
Saved solution...
Cleaning up...
Done...
*********************************************************************************************




-----ompnthreads=40-----


Starting...
0.00684398 seconds per iteration
Saving solution...
Saved solution...
Cleaning up...
Done...
*********************************************************************************************




-----ompnthreads=40-----


Starting...
0.0126333 seconds per iteration
Saving solution...
Saved solution...
Cleaning up...
Done...
*********************************************************************************************

+++++++++++++++++++++++++++++++++++++++++++++++

++++++++++++++OMP_NUM_THREADS=41++++++++++++++++

+++++++++++++++++++++++++++++++++++++++++++++++





-----ompnthreads=41-----


Starting...
Compute time: 12.5532
Saving solution...
Saved solution...
Cleaning up...
Done...
*********************************************************************************************




-----ompnthreads=41-----


Starting...
0.00833814 seconds per iteration
Saving solution...
Saved solution...
Cleaning up...
Done...
*********************************************************************************************




-----ompnthreads=41-----


Starting...
0.00676213 seconds per iteration
Saving solution...
Saved solution...
Cleaning up...
Done...
*********************************************************************************************




-----ompnthreads=41-----


Starting...
0.0122933 seconds per iteration
Saving solution...
Saved solution...
Cleaning up...
Done...
*********************************************************************************************

+++++++++++++++++++++++++++++++++++++++++++++++

++++++++++++++OMP_NUM_THREADS=42++++++++++++++++

+++++++++++++++++++++++++++++++++++++++++++++++





-----ompnthreads=42-----


Starting...
Compute time: 12.3432
Saving solution...
Saved solution...
Cleaning up...
Done...
*********************************************************************************************




-----ompnthreads=42-----


Starting...
0.00807247 seconds per iteration
Saving solution...
Saved solution...
Cleaning up...
Done...
*********************************************************************************************




-----ompnthreads=42-----


Starting...
0.00654473 seconds per iteration
Saving solution...
Saved solution...
Cleaning up...
Done...
*********************************************************************************************




-----ompnthreads=42-----


Starting...
0.0120658 seconds per iteration
Saving solution...
Saved solution...
Cleaning up...
Done...
*********************************************************************************************

+++++++++++++++++++++++++++++++++++++++++++++++

++++++++++++++OMP_NUM_THREADS=43++++++++++++++++

+++++++++++++++++++++++++++++++++++++++++++++++





-----ompnthreads=43-----


Starting...
Compute time: 12.2652
Saving solution...
Saved solution...
Cleaning up...
Done...
*********************************************************************************************




-----ompnthreads=43-----


Starting...
0.00785967 seconds per iteration
Saving solution...
Saved solution...
Cleaning up...
Done...
*********************************************************************************************




-----ompnthreads=43-----


Starting...
0.00650677 seconds per iteration
Saving solution...
Saved solution...
Cleaning up...
Done...
*********************************************************************************************




-----ompnthreads=43-----


Starting...
0.0127174 seconds per iteration
Saving solution...
Saved solution...
Cleaning up...
Done...
*********************************************************************************************

+++++++++++++++++++++++++++++++++++++++++++++++

++++++++++++++OMP_NUM_THREADS=44++++++++++++++++

+++++++++++++++++++++++++++++++++++++++++++++++





-----ompnthreads=44-----


Starting...
Compute time: 11.5826
Saving solution...
Saved solution...
Cleaning up...
Done...
*********************************************************************************************




-----ompnthreads=44-----


Starting...
0.00768386 seconds per iteration
Saving solution...
Saved solution...
Cleaning up...
Done...
*********************************************************************************************




-----ompnthreads=44-----


Starting...
0.00632381 seconds per iteration
Saving solution...
Saved solution...
Cleaning up...
Done...
*********************************************************************************************




-----ompnthreads=44-----


Starting...
0.0112513 seconds per iteration
Saving solution...
Saved solution...
Cleaning up...
Done...
*********************************************************************************************

+++++++++++++++++++++++++++++++++++++++++++++++

++++++++++++++OMP_NUM_THREADS=45++++++++++++++++

+++++++++++++++++++++++++++++++++++++++++++++++





-----ompnthreads=45-----


Starting...
Compute time: 11.5088
Saving solution...
Saved solution...
Cleaning up...
Done...
*********************************************************************************************




-----ompnthreads=45-----


Starting...
0.00768484 seconds per iteration
Saving solution...
Saved solution...
Cleaning up...
Done...
*********************************************************************************************




-----ompnthreads=45-----


Starting...
0.00620873 seconds per iteration
Saving solution...
Saved solution...
Cleaning up...
Done...
*********************************************************************************************




-----ompnthreads=45-----


Starting...
0.0106674 seconds per iteration
Saving solution...
Saved solution...
Cleaning up...
Done...
*********************************************************************************************

+++++++++++++++++++++++++++++++++++++++++++++++

++++++++++++++OMP_NUM_THREADS=46++++++++++++++++

+++++++++++++++++++++++++++++++++++++++++++++++





-----ompnthreads=46-----


Starting...
Compute time: 11.3312
Saving solution...
Saved solution...
Cleaning up...
Done...
*********************************************************************************************




-----ompnthreads=46-----


Starting...
0.00738541 seconds per iteration
Saving solution...
Saved solution...
Cleaning up...
Done...
*********************************************************************************************




-----ompnthreads=46-----


Starting...
0.00604713 seconds per iteration
Saving solution...
Saved solution...
Cleaning up...
Done...
*********************************************************************************************




-----ompnthreads=46-----


Starting...
0.0106278 seconds per iteration
Saving solution...
Saved solution...
Cleaning up...
Done...
*********************************************************************************************

+++++++++++++++++++++++++++++++++++++++++++++++

++++++++++++++OMP_NUM_THREADS=47++++++++++++++++

+++++++++++++++++++++++++++++++++++++++++++++++





-----ompnthreads=47-----


Starting...
Compute time: 11.1263
Saving solution...
Saved solution...
Cleaning up...
Done...
*********************************************************************************************




-----ompnthreads=47-----


Starting...
0.0073366 seconds per iteration
Saving solution...
Saved solution...
Cleaning up...
Done...
*********************************************************************************************




-----ompnthreads=47-----


Starting...
0.00594329 seconds per iteration
Saving solution...
Saved solution...
Cleaning up...
Done...
*********************************************************************************************




-----ompnthreads=47-----


Starting...
0.0104634 seconds per iteration
Saving solution...
Saved solution...
Cleaning up...
Done...
*********************************************************************************************

+++++++++++++++++++++++++++++++++++++++++++++++

++++++++++++++OMP_NUM_THREADS=48++++++++++++++++

+++++++++++++++++++++++++++++++++++++++++++++++





-----ompnthreads=48-----


Starting...
Compute time: 10.3574
Saving solution...
Saved solution...
Cleaning up...
Done...
*********************************************************************************************




-----ompnthreads=48-----


Starting...
0.00717778 seconds per iteration
Saving solution...
Saved solution...
Cleaning up...
Done...
*********************************************************************************************




-----ompnthreads=48-----


Starting...
0.00584179 seconds per iteration
Saving solution...
Saved solution...
Cleaning up...
Done...
*********************************************************************************************




-----ompnthreads=48-----


Starting...
0.0104561 seconds per iteration
Saving solution...
Saved solution...
Cleaning up...
Done...
*********************************************************************************************

+++++++++++++++++++++++++++++++++++++++++++++++

++++++++++++++OMP_NUM_THREADS=49++++++++++++++++

+++++++++++++++++++++++++++++++++++++++++++++++





-----ompnthreads=49-----


Starting...
Compute time: 11.0985
Saving solution...
Saved solution...
Cleaning up...
Done...
*********************************************************************************************




-----ompnthreads=49-----


Starting...
0.00702212 seconds per iteration
Saving solution...
Saved solution...
Cleaning up...
Done...
*********************************************************************************************




-----ompnthreads=49-----


Starting...
0.00573426 seconds per iteration
Saving solution...
Saved solution...
Cleaning up...
Done...
*********************************************************************************************




-----ompnthreads=49-----


Starting...
0.0102837 seconds per iteration
Saving solution...
Saved solution...
Cleaning up...
Done...
*********************************************************************************************

+++++++++++++++++++++++++++++++++++++++++++++++

++++++++++++++OMP_NUM_THREADS=50++++++++++++++++

+++++++++++++++++++++++++++++++++++++++++++++++





-----ompnthreads=50-----


Starting...
Compute time: 10.5419
Saving solution...
Saved solution...
Cleaning up...
Done...
*********************************************************************************************




-----ompnthreads=50-----


Starting...
0.00693909 seconds per iteration
Saving solution...
Saved solution...
Cleaning up...
Done...
*********************************************************************************************




-----ompnthreads=50-----


Starting...
0.00574218 seconds per iteration
Saving solution...
Saved solution...
Cleaning up...
Done...
*********************************************************************************************




-----ompnthreads=50-----


Starting...
0.0101048 seconds per iteration
Saving solution...
Saved solution...
Cleaning up...
Done...
*********************************************************************************************

+++++++++++++++++++++++++++++++++++++++++++++++

++++++++++++++OMP_NUM_THREADS=51++++++++++++++++

+++++++++++++++++++++++++++++++++++++++++++++++





-----ompnthreads=51-----


Starting...
Compute time: 10.4149
Saving solution...
Saved solution...
Cleaning up...
Done...
*********************************************************************************************




-----ompnthreads=51-----


Starting...
0.00686068 seconds per iteration
Saving solution...
Saved solution...
Cleaning up...
Done...
*********************************************************************************************




-----ompnthreads=51-----


Starting...
0.00559995 seconds per iteration
Saving solution...
Saved solution...
Cleaning up...
Done...
*********************************************************************************************




-----ompnthreads=51-----


Starting...
0.00959243 seconds per iteration
Saving solution...
Saved solution...
Cleaning up...
Done...
*********************************************************************************************

+++++++++++++++++++++++++++++++++++++++++++++++

++++++++++++++OMP_NUM_THREADS=52++++++++++++++++

+++++++++++++++++++++++++++++++++++++++++++++++





-----ompnthreads=52-----


Starting...
Compute time: 10.1061
Saving solution...
Saved solution...
Cleaning up...
Done...
*********************************************************************************************




-----ompnthreads=52-----


Starting...
0.00674371 seconds per iteration
Saving solution...
Saved solution...
Cleaning up...
Done...
*********************************************************************************************




-----ompnthreads=52-----


Starting...
0.00568122 seconds per iteration
Saving solution...
Saved solution...
Cleaning up...
Done...
*********************************************************************************************




-----ompnthreads=52-----


Starting...
0.0094207 seconds per iteration
Saving solution...
Saved solution...
Cleaning up...
Done...
*********************************************************************************************

+++++++++++++++++++++++++++++++++++++++++++++++

++++++++++++++OMP_NUM_THREADS=53++++++++++++++++

+++++++++++++++++++++++++++++++++++++++++++++++





-----ompnthreads=53-----


Starting...
Compute time: 9.90294
Saving solution...
Saved solution...
Cleaning up...
Done...
*********************************************************************************************




-----ompnthreads=53-----


Starting...
0.00669165 seconds per iteration
Saving solution...
Saved solution...
Cleaning up...
Done...
*********************************************************************************************




-----ompnthreads=53-----


Starting...
0.00554716 seconds per iteration
Saving solution...
Saved solution...
Cleaning up...
Done...
*********************************************************************************************




-----ompnthreads=53-----


Starting...
0.00968851 seconds per iteration
Saving solution...
Saved solution...
Cleaning up...
Done...
*********************************************************************************************

+++++++++++++++++++++++++++++++++++++++++++++++

++++++++++++++OMP_NUM_THREADS=54++++++++++++++++

+++++++++++++++++++++++++++++++++++++++++++++++





-----ompnthreads=54-----


Starting...
Compute time: 10.0068
Saving solution...
Saved solution...
Cleaning up...
Done...
*********************************************************************************************




-----ompnthreads=54-----


Starting...
0.0064271 seconds per iteration
Saving solution...
Saved solution...
Cleaning up...
Done...
*********************************************************************************************




-----ompnthreads=54-----


Starting...
0.00536261 seconds per iteration
Saving solution...
Saved solution...
Cleaning up...
Done...
*********************************************************************************************




-----ompnthreads=54-----


Starting...
0.00944001 seconds per iteration
Saving solution...
Saved solution...
Cleaning up...
Done...
*********************************************************************************************

+++++++++++++++++++++++++++++++++++++++++++++++

++++++++++++++OMP_NUM_THREADS=55++++++++++++++++

+++++++++++++++++++++++++++++++++++++++++++++++





-----ompnthreads=55-----


Starting...
Compute time: 9.71962
Saving solution...
Saved solution...
Cleaning up...
Done...
*********************************************************************************************




-----ompnthreads=55-----


Starting...
0.0065608 seconds per iteration
Saving solution...
Saved solution...
Cleaning up...
Done...
*********************************************************************************************




-----ompnthreads=55-----


Starting...
0.00593262 seconds per iteration
Saving solution...
Saved solution...
Cleaning up...
Done...
*********************************************************************************************




-----ompnthreads=55-----


Starting...
0.00930074 seconds per iteration
Saving solution...
Saved solution...
Cleaning up...
Done...
*********************************************************************************************

+++++++++++++++++++++++++++++++++++++++++++++++

++++++++++++++OMP_NUM_THREADS=56++++++++++++++++

+++++++++++++++++++++++++++++++++++++++++++++++





-----ompnthreads=56-----


Starting...
Compute time: 9.88837
Saving solution...
Saved solution...
Cleaning up...
Done...
*********************************************************************************************




-----ompnthreads=56-----


Starting...
0.0062512 seconds per iteration
Saving solution...
Saved solution...
Cleaning up...
Done...
*********************************************************************************************




-----ompnthreads=56-----


Starting...
0.00534084 seconds per iteration
Saving solution...
Saved solution...
Cleaning up...
Done...
*********************************************************************************************




-----ompnthreads=56-----


Starting...
0.00899242 seconds per iteration
Saving solution...
Saved solution...
Cleaning up...
Done...
*********************************************************************************************

