omp threads, kernel time,serial time,speedup
1,478.814386746963,478.814386746963,1
2,207.454286979977,478.814386746963,2.30804768470838
3,184.112847462995,478.814386746963,2.60065711515977
4,108.344490366988,478.814386746963,4.4193699663463
5,107.09424609202,478.814386746963,4.47096276615594
6,75.212299725041,478.814386746963,6.36617133763226
7,76.411004807916,478.814386746963,6.2663014044982
8,57.086702388013,478.814386746963,8.38749422750865
9,59.961639745045,478.814386746963,7.985345110355
10,45.02241909795,478.814386746963,10.6350213147202
11,47.817980564898,478.814386746963,10.0132707632252
12,42.705342918984,478.814386746963,11.2120487512609
13,41.801191515988,478.814386746963,11.4545631208581
14,34.300087854033,478.814386746963,13.9595673569292
15,38.312666893005,478.814386746963,12.4975478236516
16,30.935955596971,478.814386746963,15.4776013059007
17,32.049055414042,478.814386746963,14.9400467677177
18,26.679351642029,478.814386746963,17.9470023549099
19,30.966625986039,478.814386746963,15.4622717684139
20,26.93584778707,478.814386746963,17.7761023351494
21,28.776298682904,478.814386746963,16.6391929699919
22,25.228488631081,478.814386746963,18.979114989753
23,25.963433124009,478.814386746963,18.441874942347
24,23.051125379978,478.814386746963,20.7718442745905
25,24.416493037948,478.814386746963,19.6102849824826
26,23.847595307045,478.814386746963,20.0780993044407
27,37.858575432096,478.814386746963,12.6474485973667
28,35.485643254011,478.814386746963,13.4931860561057
29,34.137141286978,478.814386746963,14.0262004577874
30,33.662594346097,478.814386746963,14.2239300341531
31,31.529910734971,478.814386746963,15.186036864224
32,31.916653107037,478.814386746963,15.0020237128621
33,29.912739900057,478.814386746963,16.0070387516073
34,29.859661136987,478.814386746963,16.0354929866856
35,28.624673746992,478.814386746963,16.7273307978673
36,27.192476861062,478.814386746963,17.6083403212378
37,26.905991291977,478.814386746963,17.7958277601071
38,26.084910430945,478.814386746963,18.355991216245
39,24.742041165009,478.814386746963,19.3522589164599
40,25.266574261012,478.814386746963,18.9505067762908
41,24.586529611959,478.814386746963,19.4746633341074
42,24.131603174959,478.814386746963,19.8417976325676
43,25.434893041966,478.814386746963,18.8250992821927
44,22.502677718992,478.814386746963,21.2781071091308
45,21.334773959941,478.814386746963,22.4429088232199
46,21.255640181946,478.814386746963,22.526462748163
47,20.926896726014,478.814386746963,22.8803340034528
48,20.91220766597,478.814386746963,22.8964055060589
49,20.567481593927,478.814386746963,23.2801660504874
50,20.209621721064,478.814386746963,23.6923972826224
51,19.184863539063,478.814386746963,24.957925073172
52,18.841398696997,478.814386746963,25.4128896929121
53,19.377026349073,478.814386746963,24.710416248666
54,18.880014727009,478.814386746963,25.3609117190989
55,18.601483475068,478.814386746963,25.7406559744941
56,17.984842035919,478.814386746963,26.6232189190588
