PACKAGE_ENERGY:PACKAGE0,PACKAGE_ENERGY:PACKAGE1,DRAM_ENERGY:PACKAGE0,DRAM_ENERGY:PACKAGE1,TOTAL_ENERGY,TOTAL_TIME,POWER
83.011169433000,61.892761230000,43.391647338000,43.201095581000,231.496673582000,3.272367954254,70.742861688597
43.111938476000,38.544433593000,23.241210937000,22.159194946000,127.056777952000,1.669382095337,76.110063901433
25.367370605000,19.470764160000,12.158950805000,11.121383666000,68.118469236000,0.836022138596,81.479264831947
17.642700195000,9.305664062000,6.980804443000,5.673416137000,39.602584837000,0.426630973816,92.826323608861
16.274780273000,7.638122558000,5.880142211000,4.600585937000,34.393630979000,0.346590042114,99.234331053463
13.640869140000,8.874023437000,5.097946166000,4.151504516000,31.764343259000,0.300975084305,105.538115662860
10.753173828000,8.160461425000,3.894439697000,3.204727172000,26.012802122000,0.214092969894,121.502364766249
8.447875976000,7.633911132000,3.080093383000,2.907897949000,22.069778440000,0.168256044388,131.167819380865
