omp threads, kernel time,serial time,speedup
1,0.644512891769,0.644512891769,1
2,0.329031944275,0.644512891769,0.51051258784274
4,0.165171861649,0.644512891769,0.256273945422025
6,0.110072135925,0.644512891769,0.170783451084871
8,0.082592010498,0.644512891769,0.128146405685244
10,0.066754102707,0.644512891769,0.103572951851715
12,0.056059837341,0.644512891769,0.086980164488459
14,0.048200845718,0.644512891769,0.074786472595921
16,0.064079046249,0.644512891769,0.099422443006721
18,0.05736207962,0.644512891769,0.089000670665497
20,0.035138845444,0.644512891769,0.054520004010399
22,0.03261590004,0.644512891769,0.05060550449267
24,0.030347108841,0.644512891769,0.047085340306702
26,0.028765201569,0.644512891769,0.044630917296391
28,0.027261018753,0.644512891769,0.042297088392098
30,0.039103031158,0.644512891769,0.060670673399059
32,0.038717031479,0.644512891769,0.060071771990058
34,0.036518096924,0.644512891769,0.056659994532877
36,0.034695148468,0.644512891769,0.053831581821074
38,0.033017158508,0.644512891769,0.051228080818333
40,0.031539916992,0.644512891769,0.048936052939813
42,0.03119802475,0.644512891769,0.04840558683686
44,0.029108047485,0.644512891769,0.045162863081151
46,0.028198003769,0.644512891769,0.043750876249511
48,0.031611919403,0.644512891769,0.049047768953441
50,0.027271032333,0.644512891769,0.042312625055721
52,0.025444030762,0.644512891769,0.039477923695465
54,0.024717092514,0.644512891769,0.038350035863765
56,0.039329051971,0.644512891769,0.061021358103564
