1000000000 1922880 2539926 1800531 2359436 2181701 2568764 1803298 2349084 13177336 2608830 1936083 2347852 105089327 3079288 2583517
511398170 3770336 5247098 3514438 4835506 4283800 5300011 3514397 4832717 6534972 5390360 3764958 4834082 34748638 5711393 5324048
number of instructions: 1511398100
