264953552 37445 122064138 32251324 41705383 21476852 11278131 12659178 23349632 3613 123749 1693 1139 781 492 2 0 0 0 0 0
264735047 30200 122292336 32201308 41764285 21412029 11193225 12530147 23190552 5 120946 0 3 4 6 1 0 0 0 0 0
264737235 30176 122317293 32189382 41778779 21401857 11183693 12520348 23194831 5 120854 6 1 3 7 0 0 0 0 0 0
264859336 30184 122620756 32113423 41601543 21395907 11182183 12530052 23264122 165 120970 17 9 4 0 1 0 0 0 0 0
264853703 30164 122732813 32093062 41521000 21370313 11177806 12521122 23286572 3 120820 11 8 6 2 0 1 0 0 0 0
264836303 30164 122714463 32094723 41503408 21378789 11176924 12521082 23295919 5 120807 2 4 10 1 1 1 0 0 0 0
264843957 30168 122714505 32089818 41500102 21390538 11175002 12521002 23301808 141 120850 10 4 5 3 1 0 0 0 0 0
253255316 268247 124853668 24154434 32497224 26728839 11407696 14170453 16500762 242536 434193 496982 551099 337433 92602 23834 11302 28153 60183 44131 351545
227260113 0 130400079 5613482 8189647 42024969 12258204 18493446 727501 782315 1176789 1730160 1974697 1232766 334578 83459 29453 34738 62284 61770 2049776
228174813 0 128259855 5714969 9797155 44122696 11947871 18006956 741720 790251 1159438 1670103 1878273 1164366 318898 80387 32597 60159 121659 123030 2184430
227589091 0 130290011 5605487 8176157 42533512 12225111 18464838 731187 791242 1187880 1737619 1963691 1208577 326453 81815 29223 34650 62295 61773 2077570
227846885 0 128373619 5722409 9809929 43607619 11971827 18042145 737117 782629 1154608 1672613 1891652 1181285 324669 81788 33001 60216 121656 123032 2155071
228533177 0 129181398 5616643 8791844 44354506 12041838 18174217 721711 780887 1169570 1708300 1929001 1184599 318849 80270 32736 51109 70267 79437 2245995
226901707 0 129476958 5712389 9195314 41793596 12165503 18330180 750044 799494 1183098 1707666 1910911 1187454 326768 81990 28962 43632 113672 105394 1988682
228175867 0 128263978 5714257 9796312 44104997 11937514 18017742 718439 776390 1155280 1682280 1912688 1179503 317078 79707 32583 60032 107683 79421 2239983
227259188 0 130396027 5614279 8190495 42043828 12267023 18486892 750836 799296 1189732 1731594 1939352 1197300 329535 83190 29299 34603 76169 105379 1994359
228175800 0 128262995 5714580 9796526 44108855 11941280 18014780 722864 780821 1160464 1681390 1900946 1175014 316139 78938 32266 60117 113759 79421 2234645
227259109 0 130397039 5613816 8190219 42040960 12262960 18488296 745244 793198 1181609 1729143 1955902 1206439 330924 83874 29714 34673 70084 105379 1999636
228175794 0 128262912 5714607 9796609 44110470 11942009 18013286 728855 784133 1160351 1679059 1893665 1173429 316777 79241 32366 60015 119253 79421 2229336
227259277 0 130397089 5613941 8190182 42036655 12263487 18490324 738697 788174 1177721 1727351 1965047 1215394 331919 83930 29503 34764 64592 105379 2005128
228175641 0 128262751 5714538 9796637 44115222 11941368 18011906 734042 786856 1161794 1677462 1887175 1169646 316553 79299 32610 60013 121507 82418 2223844
227259368 0 130397485 5613864 8190118 42031422 12263596 18490738 732348 784899 1175393 1726761 1969955 1226069 333787 83717 29441 34722 62347 102382 2010324
228175621 0 128262507 5714621 9796662 44116683 11942303 18012582 737732 789374 1162433 1676440 1883290 1164478 316441 79564 32490 60033 121599 87741 2218648
227259680 0 130398552 5613709 8189947 42028985 12261667 18490886 728781 782038 1174770 1725595 1971255 1235284 336009 83702 29360 34710 62308 97059 2015063
228175284 0 128261515 5714721 9796845 44119781 11944330 18009173 740784 790947 1161610 1675017 1882137 1160051 316662 80060 32679 60132 121651 93280 2213909
227261207 0 130403721 5612988 8188941 42022964 12253064 18498323 729121 785882 1184483 1740627 1972795 1219148 329840 82445 29359 34702 62286 91523 2018995
228174396 0 128258682 5715074 9797370 44121059 11947628 18006299 739261 786210 1153499 1662558 1881359 1178290 323673 81482 32815 60148 121631 97461 2209897
228881480 7 129825179 5566974 8125312 44581032 12131012 18315189 728779 790075 1182617 1723177 1940800 1188067 320040 80331 28767 34517 62224 87389 2169992
226566163 0 128845318 5763944 9862020 41561792 12072297 18191243 742246 790225 1170128 1694682 1902785 1185001 325964 82159 33107 60335 121752 102138 2059027
229011355 0 129940849 5592597 8135253 44565824 12152411 18304617 731696 793221 1182092 1714780 1931192 1185369 319108 79780 28442 34285 62091 82671 2175077
226950393 0 129179928 5835767 9885774 41491437 12126309 18171392 738192 782930 1161886 1694577 1911686 1187930 326667 82783 33262 60342 121754 106792 2050985
230076559 0 130889207 5804458 8220403 44338025 12318820 18232157 732203 789647 1173132 1701500 1922023 1182952 318152 79290 28306 34278 62089 78005 2171912
228495072 0 130533223 6128268 9986612 41233480 12361909 18060252 732957 776483 1151896 1679254 1898303 1183236 325288 82410 33239 60342 121754 106528 2039638
232899620 0 133405314 6367045 8448005 43739267 12766510 18024928 722568 775378 1150504 1672283 1902748 1176820 316230 78835 28280 34278 62089 78263 2150275
231455853 0 133129646 6691783 10184940 40754878 12825120 17825717 728210 764762 1126613 1641797 1867915 1171876 321494 80947 32618 60061 121585 96692 2029199
234328473 0 136680280 7014647 8747083 40588025 13370940 17978857 717471 766867 1148126 1679802 1895220 1161879 313724 79117 28270 34231 62098 88045 1973791
239177769 0 137940689 7825518 10558523 42194190 13631752 17201708 706915 753397 1108363 1588078 1770793 1090625 295886 74100 30824 59626 112398 79423 2154961
239859585 0 141585967 8102961 9172446 39510441 14245983 17563885 722471 749946 1098163 1603503 1828856 1139363 311068 78332 27904 34013 71160 105341 1907782
243912715 0 145203767 8914611 9505380 38619175 14889731 17280537 702816 738353 1096895 1590492 1778208 1100999 301806 75807 27095 33915 62109 61771 1929248
247959899 0 147613435 9836810 11300039 37966949 15367510 16608804 677357 705413 1039526 1509936 1704896 1055129 286798 72333 30174 59289 121362 106905 1897234
253063812 0 153325312 10720059 10218070 36788216 16356778 16600623 676866 700537 1031158 1497429 1693730 1051326 285493 71459 25911 33431 61879 77760 1847775
257322953 0 157117538 11567409 10560995 35900809 17047227 16284203 660478 676808 992011 1447122 1660734 1040108 281933 70325 25476 33171 61714 61699 1833193
262602022 0 160450615 12620917 12284621 35521787 17655869 15515489 626809 651996 968738 1398070 1549014 937640 252276 63744 27609 58493 114331 79324 1824680
263603171 0 164664732 13149563 11205755 31865351 18425579 15886478 634277 644761 955107 1405290 1610032 1002611 272755 68917 25156 33064 68518 105242 1579983
267952639 0 166501444 13629057 11336027 33919317 18725422 15500138 638573 649275 941470 1354329 1531990 961152 263958 65734 24110 32839 61739 61704 1754361
273369697 0 173357215 15089924 11987222 29839905 19995360 15165666 599606 612495 910951 1334562 1506643 923355 247623 62074 23103 32503 61587 61634 1558269
275527408 0 173208825 15119998 11921365 32433677 19945642 14945549 622292 614351 888152 1278259 1446765 908617 250089 62685 22896 32301 61485 61696 1702764
278721179 0 178070335 16124419 12374536 28886461 20843596 14761189 581655 587297 880038 1290269 1449048 877436 236651 60135 22597 32258 61481 61636 1520142
280359899 0 175787984 15840981 13254804 33328039 20342100 14142085 564179 574611 844890 1212278 1362184 849549 229826 57297 25685 57728 108498 79288 1697893
281162618 0 180190720 16576804 12526108 28553159 21235842 14559670 581197 580091 851024 1242345 1410126 875039 238843 60315 22407 32158 73883 73955 1478932
281723752 0 180693765 16689440 12573661 28433952 21322813 14506025 565491 577451 864365 1259309 1405870 860588 236220 59743 22273 32174 61532 83332 1475748
281754521 0 180725280 16694688 12575363 28424053 21325891 14500264 558474 567240 844030 1242237 1428326 895320 239860 59411 22271 32224 61456 71158 1486975
282813277 0 179637000 16533954 12461839 31126304 21124149 14358826 580882 588561 858799 1228510 1366617 836187 227856 57761 21750 31818 61306 61691 1649467
281750220 0 180717311 16694811 12576043 28427973 21325335 14503021 567781 575713 854537 1243277 1403339 882072 243022 60738 22341 32349 61668 61641 1497248
281748094 0 180713935 16694579 12576256 28430680 21333690 14501221 557760 565952 843694 1244504 1428730 883975 237454 59667 22278 32051 61337 61600 1498731
282820154 0 179648906 16534143 12460889 31117861 21116564 14357647 575082 589339 865463 1238206 1370640 837572 227366 56814 21513 31901 61434 61690 1647124
281750058 0 180717595 16694482 12575998 28432224 21329384 14501088 570921 569466 836211 1224522 1414261 899370 246845 61809 22766 32302 61505 61609 1497700
281748008 0 180713199 16694911 12576325 28430650 21331011 14504667 564343 577959 866012 1265146 1411499 848187 229800 58707 22004 32140 61454 61636 1498358
282314824 0 178488468 16332954 12834579 31988088 20856205 14184547 552099 563283 832934 1213753 1384604 869857 234155 58214 26062 50255 70564 79273 1694930
281362361 0 179363578 16484703 13083907 29604903 21066985 14317066 576572 581948 853216 1227073 1367131 836863 227970 57710 21727 39424 111654 65960 1473971
281750127 0 180717094 16694842 12576061 28427994 21325340 14503124 567661 576001 854896 1243721 1403028 881383 242915 60751 22358 32347 61695 83304 1475612
281748130 0 180714054 16694548 12576258 28430576 21333775 14501154 557493 565535 843249 1243745 1429069 885342 237810 59641 22254 32046 61335 79193 1481053
282820117 0 179648822 16534152 12460886 31117922 21116175 14357733 575673 589718 865765 1238613 1370415 836554 227077 56803 21567 31905 61434 61690 1647213
281750283 0 180717925 16694521 12575975 28432021 21329082 14500962 570433 569248 836227 1224602 1414857 899700 247034 61872 22742 32319 61516 61609 1497638
281747772 0 180712864 16694863 12576353 28430856 21331350 14504905 564461 577919 865764 1265092 1411046 848315 229658 58653 21971 32119 61443 61636 1498504
282820887 0 179650418 16534020 12460747 31114530 21113484 14356566 563767 577759 850364 1225533 1387761 870325 234490 57857 21868 32044 61480 61670 1646204
281747107 0 180712123 16694609 12576471 28436223 21335741 14502986 578797 579853 851175 1239779 1400886 865892 236132 59707 22207 31952 61369 61629 1499576
281750413 0 180717600 16694843 12576010 28428568 21326645 14503050 565998 576865 862336 1256057 1404730 864714 237998 60037 22273 32247 61588 61636 1497218
281752140 0 180721093 16694603 12575715 28426140 21328873 14499500 557454 564393 839810 1239135 1432039 898694 240228 59581 22357 32215 61388 61600 1497322
281924988 0 177130714 16123134 13342747 33164262 20594235 14001285 563629 577933 846510 1206409 1328589 809759 220950 55941 25278 57521 117036 79288 1679768
281750546 0 180718394 16694529 12575937 28431693 21328745 14500692 570210 569079 836400 1224947 1415254 899991 247069 61864 22741 32322 65347 79744 1475588
281747653 0 180712670 16694843 12576372 28430947 21331835 14504901 564499 577676 865425 1264634 1410975 848724 229729 58674 21969 32117 61433 84530 1475700
282820679 0 179649969 16534072 12460781 31114726 21112844 14357135 564131 578471 851259 1225881 1386710 869288 234290 57808 21854 32041 61480 64238 1643701
281747223 0 180712413 16694561 12576448 28436176 21335863 14502721 578436 579275 850289 1239146 1401679 867263 236466 59746 22218 31957 61369 61629 1499568
281750268 0 180717349 16694841 12576028 28428587 21326624 14503138 566035 577053 862762 1256690 1404795 863782 237713 60008 22266 32242 61588 61636 1497131
281752605 0 180721920 16694605 12575650 28425839 21328533 14499426 557396 564467 839865 1239412 1432319 898463 240217 59566 22369 32225 61393 61600 1497340
282815354 0 179640457 16534080 12461571 31124659 21121598 14359122 581279 591341 864056 1233305 1363811 830842 226691 57377 21692 31844 61369 61694 1648566
281750361 0 180717642 16694769 12575979 28428628 21325085 14502497 567457 574640 851638 1239876 1405088 886640 244082 60912 22447 32373 61668 61641 1497299
281748182 0 180714010 16694621 12576282 28430551 21334244 14501792 559113 567718 846885 1248329 1427173 876676 235259 59518 22238 32015 61324 61600 1498834
281929659 0 177139043 16123128 13342053 33158125 20587415 14000649 555004 569723 837506 1199868 1344272 833337 225980 56479 25449 57679 108296 79288 1686365
281747378 0 180712736 16694538 12576419 28436220 21335755 14502295 578125 578704 849309 1238751 1402717 868480 236767 59782 22243 32045 74020 72780 1475692
281750182 0 180717185 16694842 12576045 28428472 21326529 14503385 565987 577202 863062 1256892 1404812 863129 237574 60038 22302 32275 61571 83268 1475612
281752897 0 180722375 16694639 12575616 28425595 21328334 14499379 557440 564585 840191 1240233 1432145 898102 240080 59515 22312 32194 61419 72397 1486346
282815113 0 179640096 16534046 12461596 31124955 21122103 14358938 581307 591089 863409 1232424 1363775 831666 226903 57478 21725 31834 61343 61691 1648735
281750111 0 180717196 16694767 12576031 28428414 21324975 14502984 567631 574955 852102 1240293 1404858 885809 243945 60815 22412 32373 61668 61641 1497242
281748346 0 180714308 16694621 12576252 28430618 21334155 14501490 558760 567316 846405 1247761 1427419 878045 235622 59544 22243 32020 61334 61600 1498833
282819967 0 179648577 16534140 12460903 31117362 21116493 14357812 573256 587684 864095 1236723 1371326 842295 228741 57004 21412 31906 61437 61685 1647116
281748696 0 180715191 16694475 12576202 28433800 21331176 14501586 572340 570598 836528 1224133 1412356 896086 246157 61648 22734 32296 61485 61614 1498291
281749505 0 180715912 16694881 12576110 28429357 21329318 14503584 564258 578163 866695 1266311 1411711 849120 230226 58731 22151 32148 61472 61636 1497721
282470475 0 179027449 16418302 12632172 31522752 20965317 14259095 554486 565439 836225 1219374 1393268 875605 235489 58628 25594 40458 64624 79273 1696925
281206419 0 178824015 16399395 13286361 30070081 20957692 14242843 573656 579591 850096 1221765 1359140 831076 226440 57332 22177 49224 117567 64673 1473295
281750326 0 180717535 16694789 12575998 28428353 21325138 14502973 567801 575008 852431 1240809 1404524 884975 243805 60773 22391 32365 61722 83332 1475604
281748469 0 180714555 16694603 12576238 28430745 21333839 14501404 558424 567115 845973 1247260 1427641 879213 235917 59588 22235 32018 61337 80452 1479912
282819778 0 179648241 16534138 12460925 31117420 21116878 14357483 573750 587995 864287 1236907 1371309 841442 228537 56955 21429 31906 61434 61685 1647057
281748952 0 180715645 16694477 12576165 28433454 21330979 14501645 571938 570377 836374 1224071 1412494 896940 246336 61671 22763 32303 61490 61614 1498216
281749064 0 180715136 16694875 12576171 28429693 21329289 14503893 564329 578196 866697 1266392 1411855 848581 230066 58740 22090 32141 61467 61636 1497817
282820870 0 179650586 16533915 12460729 31113249 21112197 14356694 562141 574699 846508 1224224 1393652 875245 235381 58179 21939 32070 61482 61670 1646310
281746995 0 180711659 16694760 12576508 28437320 21337349 14503615 580161 582623 855101 1241566 1395399 860346 234655 59273 22133 31937 61353 61629 1499608
281750634 0 180717983 16694846 12575994 28428578 21326036 14502659 566296 576556 860977 1253741 1404147 868262 239206 60257 22293 32232 61604 61636 1497331
281750339 0 180717910 16694584 12575965 28426906 21329553 14500458 557590 564335 839484 1237932 1431674 898839 240326 59693 22316 32197 61371 61600 1497606
281926721 0 177133826 16123124 13342483 33163330 20593808 14000279 562075 577081 847040 1208660 1330775 809348 220620 55858 25189 57535 115755 79288 1680647
281749252 0 180716171 16694482 12576126 28433074 21330579 14501625 571788 570265 836437 1224082 1412702 897528 246442 61687 22747 32310 66624 78955 1475628
281748840 0 180714700 16694894 12576205 28429891 21329461 14504048 564287 578138 866529 1266391 1411995 848319 230031 58707 22074 32139 61454 83917 1475660
282821025 0 179650901 16533892 12460705 31113337 21112330 14356632 562492 575540 847401 1224236 1392378 874443 235197 58124 21927 32065 61480 65640 1642305
281746962 0 180711590 16694761 12576513 28437422 21337386 14503472 579907 581844 854165 1241386 1396383 861223 234830 59344 22156 31944 61356 61629 1499651
281750321 0 180717442 16694841 12576035 28428343 21325892 14502923 566246 576636 861220 1254277 1404380 867757 239048 60240 22293 32231 61601 61636 1497280
57212844 0 36388362 3373003 2304143 6371723 4310334 2927324 118718 119571 169403 243993 285431 176177 44497 11002 3485 1144 235 99 364200
number of instructions: 106200922646
