264953506 15652790 251781772 258891474 263940874 263953553 263969084 263974742 15263 88328605 126525561 158340993 170720375 173886264 178870612 134416943 2734606 128481249 130067636 133408941 133410069 133410772 133410853 0 9335824 88251399 106689258 118427371 118427490 118427510
264735047 15563717 251256814 258751148 263858707 263859493 263866806 263866806 0 88406322 126778299 158579942 170922221 174062995 179016618 134621745 2718845 128512282 130083016 133625152 133625152 133625152 133625152 0 9435870 88481079 106983698 118739174 118739174 118739174
264737235 15548166 251180827 258751527 263890467 263891180 263898437 263898437 0 88439153 126811101 158602975 170936891 174075244 179025056 134672264 2716752 128512347 130081875 133676441 133676441 133676441 133676441 0 9455575 88551389 107051855 118800542 118800542 118800542
264859336 15551635 251588990 258876718 263969497 263970103 263977336 263977336 0 88431324 127126397 158943804 171365973 174505149 179456256 134386959 2717463 128351452 129921755 133390875 133390875 133390875 133390875 0 9375080 88164176 106586680 118508472 118508472 118508472
264853703 15549085 251625957 258878019 263967158 263967868 263975127 263975127 0 88436892 127247359 159069616 171515444 174652687 179600751 134303147 2715796 128274015 129842989 133307675 133307675 133307675 133307675 0 9362010 88064469 106461446 118438464 118438464 118438464
264836303 15555517 251636558 258865066 263936821 263937532 263944775 263944775 0 88421976 127234915 159061290 171507236 174644348 179592199 134286138 2715672 128275333 129844225 133290709 133290709 133290709 133290709 0 9358921 88042939 106443829 118421718 118421718 118421718
264843957 15531031 251639576 258877193 263934524 263935139 263942362 263942362 0 88417001 127239847 159067498 171515696 174652752 179600519 134279250 2715634 128283898 129852798 133283838 133283838 133283838 133283838 0 9352234 88021976 106430165 118412756 118412756 118412756
253255308 10844205 232826935 239542775 243371697 245366510 247432986 247571831 177 68993261 127270442 151648555 162556641 164751963 168214159 113190340 1900263 109151079 110250072 112493147 112493197 112493201 112493201 0 15040286 76426070 89490957 97887524 97887532 97887532
227260113 80 187933163 194489691 195644877 202285777 209663612 210144737 0 21533904 127339074 134872943 142365657 142365747 142365747 63602257 70 63602214 63602214 63602214 63602214 63602214 63602214 0 28222742 51470764 52539619 52539709 52539709 52539709
228174813 112 189875066 196278004 197459274 204004054 211038019 211502879 0 22026359 125843122 133193614 140494817 140494943 140494943 63774319 98 63774265 63774265 63774265 63774265 63774265 63774265 0 28028268 50673878 51715122 51715248 51715248 51715248
227589091 88 188340297 194885754 196067507 202739332 210037587 210510502 0 21587041 127282793 134805519 142283309 142283408 142283408 63713318 77 63713271 63713271 63713271 63713271 63713271 63713271 0 28164205 51364759 52431339 52431438 52431438 52431438
227846885 104 189466869 195878485 197039508 203568398 210669248 211139973 0 21971850 125903549 133264408 140579735 140579852 140579852 63659719 91 63659670 63659670 63659670 63659670 63659670 63659670 0 28084492 50777154 51820557 51820674 51820674 51820674
228533177 104 189897098 196344860 197511138 204093178 211255213 211719048 0 22047059 126592589 133999685 141361898 141362015 141362015 64122842 91 64122793 64122793 64122793 64122793 64122793 64122793 0 28120249 50960107 52010228 52010345 52010345 52010345
226901707 88 187910444 194424508 195613386 202290466 209451741 209927311 0 21513886 126587631 134065713 141497911 141498010 141498010 63255455 77 63255408 63255408 63255408 63255408 63255408 63255408 0 28131887 51185862 52245896 52245995 52245995 52245995
228175867 112 189871024 196268579 197431349 203932179 211047174 211506919 0 22024803 125847805 133197297 140497565 140497691 140497691 63770324 98 63770270 63770270 63770270 63770270 63770270 63770270 0 28025638 50670794 51711907 51712033 51712033 51712033
227259188 80 187936923 194501425 195683806 202415826 209660016 210140831 0 21535463 127334415 134869402 142363080 142363170 142363170 63606256 70 63606214 63606214 63606214 63606214 63606214 63606214 0 28225377 51473850 52542836 52542926 52542926 52542926
228175800 112 189871681 196271854 197445279 203967764 211047629 211505919 0 22025213 125846594 133196544 140497101 140497227 140497227 63771357 98 63771303 63771303 63771303 63771303 63771303 63771303 0 28026317 50671595 51712742 51712868 51712868 51712868
227259109 80 187936058 194498495 195666176 202360581 209659056 210141836 0 21535006 127335739 134870072 142363395 142363485 142363485 63605101 70 63605059 63605059 63605059 63605059 63605059 63605059 0 28224599 51472955 52541903 52541993 52541993 52541993
228175794 112 189872789 196272710 197452560 203984335 211046130 211505735 0 22025249 125846492 133196480 140497062 140497188 140497188 63771448 98 63771394 63771394 63771394 63771394 63771394 63771394 0 28026409 50671665 51712815 51712941 51712941 51712941
227259277 80 187934792 194495462 195653053 202323498 209658903 210142163 0 21535022 127335715 134870225 142363595 142363685 142363685 63605134 70 63605092 63605092 63605092 63605092 63605092 63605092 0 28224599 51472981 52541930 52542020 52542020 52542020
228175641 112 189873672 196275490 197459350 203996290 211045730 211505415 0 22025283 125846367 133196258 140496834 140496960 140496960 63771542 98 63771488 63771488 63771488 63771488 63771488 63771488 0 28026475 50671738 51712891 51713017 51713017 51713017
227259368 80 187934230 194492357 195646533 202300748 209659238 210142643 0 21534867 127336169 134870572 142363848 142363938 142363938 63604739 70 63604697 63604697 63604697 63604697 63604697 63604697 0 28224349 51472677 52541613 52541703 52541703 52541703
228175621 112 189874181 196275889 197460364 204004944 211044559 211505219 0 22025393 125846068 133196072 140496723 140496849 140496849 63771820 98 63771766 63771766 63771766 63771766 63771766 63771766 0 28026639 50671948 51713110 51713236 51713236 51713236
227259680 80 187933722 194491550 195644561 202281341 209660981 210143501 0 21534470 127337363 134871549 142364594 142364684 142364684 63603719 70 63603677 63603677 63603677 63603677 63603677 63603677 0 28223701 51471893 52540796 52540886 52540886 52540886
228175284 112 189874292 196276838 197460583 204012493 211040433 211504248 0 22025744 125844983 133195129 140495973 140496099 140496099 63772730 98 63772676 63772676 63772676 63772676 63772676 63772676 0 28027236 50672653 51713845 51713971 51713971 51713971
227261207 80 187933429 194491348 195661979 202326669 209672219 210147664 0 21532561 127343127 134876305 142368252 142368342 142368342 63598796 70 63598754 63598754 63598754 63598754 63598754 63598754 0 28220473 51468093 52536834 52536924 52536924 52536924
228174396 112 189874289 196274664 197442354 203960984 211032444 211501894 0 22026778 125841850 133192488 140493915 140494041 140494041 63775404 98 63775350 63775350 63775350 63775350 63775350 63775350 0 28028978 50674717 51715997 51716123 51716123 51716123
228881480 105 189951280 196448080 197631930 204275694 211473349 211939589 0 21806121 127035604 134504452 141923816 141923926 141923926 64175279 84 64175078 64175078 64175165 64175165 64175165 64175165 0 27943066 50956713 52014908 52015016 52015016 52015016
226566163 96 187870332 194332868 195503242 202113257 209247522 209721257 0 21769838 126157567 133576029 140950210 140950318 140950318 63222092 84 63222042 63222042 63222042 63222042 63222042 63222042 0 28323695 51204388 52260680 52260788 52260788 52260788
229011355 96 190110704 196610790 197801893 204443818 211616803 212081453 0 21970735 127154113 134648601 142062864 142062972 142062972 64390722 84 64390670 64390670 64390670 64390670 64390670 64390670 0 28110131 51127342 52233811 52233919 52233919 52233919
226950393 96 188332236 194775345 195929714 202507629 209665504 210139914 0 22259913 126505929 134001562 141360770 141360878 141360878 63865195 84 63865151 63865151 63865151 63865151 63865151 63865151 0 28818936 51713941 52910053 52910161 52910161 52910161
230076559 96 191392143 197856686 199040644 205636089 212778909 213240859 0 23327625 128122336 135826830 143199867 143199975 143199975 66165685 84 66165633 66165633 66165633 66165633 66165633 66165633 0 29488759 52533267 54037438 54037546 54037546 54037546
228495072 96 190193268 196582958 197725397 204235172 211350492 211822717 0 24226751 127908281 135713433 143012261 143012369 143012369 66440914 84 66440870 66440870 66440870 66440870 66440870 66440870 0 30807571 53754988 55514662 55514770 55514770 55514770
232899620 96 194786887 201153714 202312127 208774367 215856682 216314312 0 26924096 130688826 138949481 146213178 146213286 146213286 70867588 84 70867536 70867536 70867536 70867536 70867536 70867536 0 33143221 56257804 58816413 58816521 58816521 58816521
231455853 96 193763124 200056976 201178790 207562725 214581365 215047030 0 27998853 130594968 138992881 146176430 146176538 146176538 71380889 84 71380845 71380845 71380845 71380845 71380845 71380845 0 34623683 57669368 60511851 60511959 60511959 60511959
234328473 80 196438787 202760499 203890113 210356393 217378233 217836511 0 30541270 133757815 142689409 149909577 149909667 149909667 75386017 70 75385975 75385975 75385975 75385975 75385975 75385975 0 37371351 60805101 64507301 64507391 64507391 64507391
239177769 112 203123283 209149899 210278888 216460433 223058218 223487640 0 36036470 135836043 145382150 152254213 152254339 152254339 82115467 98 82115413 82115413 82115413 82115413 82115413 82115413 0 42211207 65206231 70285582 70285708 70285708 70285708
239859585 80 203099559 209237256 210331719 216561789 223405309 223857564 0 37588123 138782656 148809150 155815029 155815119 155815119 84605817 70 84605775 84605775 84605775 84605775 84605775 84605775 0 44523431 68108824 73865299 73865389 73865389 73865389
243912715 80 207969875 213966038 215055011 221198551 227832971 228269141 0 42749033 142468116 153292174 160141272 160141362 160141362 91354013 70 91353971 91353971 91353971 91353971 91353971 91353971 0 49769981 73453821 80727541 80727631 80727631 80727631
247959899 96 213643264 219373495 220410325 226255135 232607365 233023725 0 49013716 145578150 157277339 163817276 163817384 163817384 98905498 84 98905454 98905454 98905454 98905454 98905454 98905454 0 55885583 79478384 88361148 88361256 88361256 88361256
253063812 80 218983714 224673832 225703565 231500280 237816760 238230505 0 54404570 150782116 163416334 169911287 169911377 169911377 106608696 70 106608654 106608654 106608654 106608654 106608654 106608654 0 61603121 85537203 96214924 96215014 96215014 96215014
257322953 80 224108297 229656610 230649258 236246893 242460663 242867028 0 59829052 154653979 168127539 174457605 174457695 174457695 113706367 70 113706325 113706325 113706325 113706325 113706325 113706325 0 67114872 91158900 103427613 103427703 103427703 103427703
262602022 96 231283938 236516259 237488839 242892854 248602464 248971774 0 67654358 158869654 173499987 179469041 179469149 179469149 123330844 84 123330800 123330800 123330800 123330800 123330800 123330800 0 74742351 98830961 113068948 113069056 113069056 113069056
263603171 64 231602380 236939338 237867722 243269317 249276407 249672982 0 69620753 162129801 177240691 183338293 183338365 183338365 126315530 56 126315498 126315498 126315498 126315498 126315498 126315498 0 77597279 102115511 117313865 117313937 117313937 117313937
267952639 80 236906364 242090520 243042203 248305883 254062718 254441803 0 73364233 164309502 179896948 185813677 185813767 185813767 131425516 70 131425474 131425474 131425474 131425474 131425474 131425474 0 80832463 105196646 121387390 121387480 121387480 121387480
273369697 64 243348468 248357699 249257663 254368733 259945643 260305303 0 82054452 171008978 188046057 193765332 193765404 193765404 142585062 56 142585030 142585030 142585030 142585030 142585030 142585030 0 90228559 115001808 133845099 133845171 133845171 133845171
275527408 80 246027255 250960191 251858904 256880229 262320914 262683504 0 83014798 171184336 188273740 193898830 193898920 193898920 144067372 70 144067330 144067330 144067330 144067330 144067330 144067330 0 90629357 115209685 134216110 134216200 134216200 134216200
278721179 64 249794835 254621738 255486252 260445887 265783237 266130877 0 88867435 175867188 193970245 199482074 199482146 199482146 151516676 56 151516644 151516644 151516644 151516644 151516644 151516644 0 97132686 122076622 142893853 142893925 142893925 142893925
280359899 96 252714728 257333845 258197875 262906140 268000920 268330810 0 90244881 174978478 193212164 198481381 198481489 198481489 152981563 84 152981519 152981519 152981519 152981519 152981519 152981519 0 97494472 122329996 142930285 142930393 142930393 142930393
281162618 64 252744596 257490904 258339018 263173353 268440733 268790323 0 91973568 178081962 196677317 202093664 202093736 202093736 155597159 56 155597127 155597127 155597127 155597127 155597127 155597127 0 100268244 125309349 147011178 147011250 147011250 147011250
281723752 64 253414261 258137905 258990594 263841339 269059429 269402339 0 92683199 178595137 197299810 202693959 202694031 202694031 156528554 56 156528522 156528522 156528522 156528522 156528522 156528522 0 100989908 126046424 147959695 147959767 147959767 147959767
281754521 64 253450399 258170741 259010295 263760970 269095360 269438995 0 92719912 178627172 197336520 202728464 202728536 202728536 156573019 56 156572987 156572987 156572987 156572987 156572987 156572987 0 101026074 126081907 148005962 148006034 148006034 148006034
282813277 80 254800251 259488438 260366046 265202446 270280916 270617206 0 92279708 177805340 196342102 201683975 201684065 201684065 156221543 70 156221501 156221501 156221501 156221501 156221501 156221501 0 100022269 124835268 146536829 146536919 146536919 146536919
281750220 64 253446539 258165085 259009204 263811524 269082304 269431209 0 92716615 178619232 197329083 202722222 202722294 202722294 156572916 56 156572884 156572884 156572884 156572884 156572884 156572884 0 101024021 126081475 148004869 148004941 148004941 148004941
281748094 64 253445412 258169870 258999319 263780364 269083894 269428784 0 92715350 178616026 197325679 202719202 202719274 202719274 156572950 56 156572918 156572918 156572918 156572918 156572918 156572918 0 101023247 126081365 148004507 148004579 148004579 148004579
282820154 80 254804305 259489097 260378355 265209505 270297155 270628030 0 92284662 177817032 196353564 201693810 201693900 201693900 156221975 70 156221933 156221933 156221933 156221933 156221933 156221933 0 100025430 124836109 146538695 146538785 146538785 146538785
281750058 64 253448984 258171087 258998556 263737801 269077621 269431616 0 92716971 178619708 197329069 202722030 202722102 202722102 156573158 56 156573126 156573126 156573126 156573126 156573126 156573126 0 101024317 126081686 148005165 148005237 148005237 148005237
281748008 64 253444096 258168743 259021587 263897897 269088532 269427667 0 92714784 178615095 197325266 202719036 202719108 202719108 156572645 56 156572613 156572613 156572613 156572613 156572613 156572613 0 101022789 126081084 148004094 148004166 148004166 148004166
282314824 88 254630037 259247849 260086861 264751891 269934121 270269241 0 92337771 177183617 195702383 200977354 200977453 200977453 155963463 77 155963424 155963424 155963424 155963424 155963424 155963424 0 99859227 124687186 146131246 146131345 146131345 146131345
281362361 72 253427984 258103038 258969040 263783720 268864775 269200400 0 92615294 177834810 196578188 201904045 201904126 201904126 156214636 63 156214599 156214599 156214599 156214599 156214599 156214599 0 100664789 125802607 147443876 147443957 147443957 147443957
281750127 64 253446338 258165016 259009535 263813660 269082055 269431020 0 92716500 178618995 197328902 202722086 202722158 202722158 156572870 56 156572838 156572838 156572838 156572838 156572838 156572838 0 101023933 126081427 148004793 148004865 148004865 148004865
281748130 64 253445592 258169825 258998499 263776529 269083974 269428889 0 92715425 178616166 197325767 202719259 202719331 202719331 156572994 56 156572962 156572962 156572962 156572962 156572962 156572962 0 101023316 126081407 148004569 148004641 148004641 148004641
282820117 80 254804229 259488888 260378741 265212511 270297001 270627931 0 92284614 177816943 196353492 201693757 201693847 201693847 156221946 70 156221904 156221904 156221904 156221904 156221904 156221904 0 100025378 124836082 146538654 146538744 146538744 146538744
281750283 64 253449084 258171056 258998410 263735875 269077810 269431940 0 92717097 178620016 197329415 202722343 202722415 202722415 156573170 56 156573138 156573138 156573138 156573138 156573138 156573138 0 101024398 126081708 148005213 148005285 148005285 148005285
281747772 64 253443822 258168720 259021459 263898059 269088299 269427359 0 92714669 178614787 197324907 202718706 202718778 202718778 156572648 56 156572616 156572616 156572616 156572616 156572616 156572616 0 101022723 126081075 148004061 148004133 148004133 148004133
282820887 80 254803559 259483844 260351197 265098932 270294147 270629972 0 92285408 177818605 196354892 201694869 201694959 201694959 156222138 70 156222096 156222096 156222096 156222096 156222096 156222096 0 100025929 124836306 146539050 146539140 146539140 146539140
281747107 64 253447472 258175401 259025530 263854510 269080160 269426475 0 92714543 178614207 197323987 202717785 202717857 202717857 156572817 56 156572785 156572785 156572785 156572785 156572785 156572785 0 101022739 126081181 148004152 148004224 148004224 148004224
281750413 64 253446622 258168016 259019020 263860360 269087285 269431365 0 92716713 178619496 197329384 202722495 202722567 202722567 156572905 56 156572873 156572873 156572873 156572873 156572873 156572873 0 101024079 126081481 148004894 148004966 148004966 148004966
281752140 64 253448639 258169888 259003887 263740732 269090217 269435297 0 92718384 178623111 197332493 202725002 202725074 202725074 156573253 56 156573221 156573221 156573221 156573221 156573221 156573221 0 101025202 126081903 148005674 148005746 148005746 148005746
281924988 96 254608075 259177957 260043807 264785907 269710227 270034312 0 92234528 176395036 194947919 200156304 200156412 200156412 155604795 84 155604751 155604751 155604751 155604751 155604751 155604751 0 99498678 124407834 145569361 145569469 145569469 145569469
281750546 64 253449240 258171051 258998435 263734670 269078290 269432350 0 92717273 178620473 197329867 202722732 202722804 202722804 156573166 56 156573134 156573134 156573134 156573134 156573134 156573134 0 101024513 126081726 148005269 148005341 148005341 148005341
281747653 64 253443818 258168866 259021150 263897410 269087920 269427195 0 92714615 178614608 197324706 202718525 202718597 202718597 156572659 56 156572627 156572627 156572627 156572627 156572627 156572627 0 101022686 126081076 148004048 148004120 148004120 148004120
282820679 80 254803235 259483468 260351841 265103031 270294036 270629591 0 92285166 177818131 196354514 201694577 201694667 201694667 156222085 70 156222043 156222043 156222043 156222043 156222043 156222043 0 100025767 124836241 146538937 146539027 146539027 146539027
281747223 64 253447827 258175448 259024427 263850067 269080172 269426717 0 92714711 178614528 197324217 202717953 202718025 202718025 156572877 56 156572845 156572845 156572845 156572845 156572845 156572845 0 101022858 126081243 148004248 148004320 148004320 148004320
281750268 64 253446214 258167810 259019124 263861849 269087294 269431144 0 92716601 178619249 197329145 202722290 202722362 202722362 156572888 56 156572856 156572856 156572856 156572856 156572856 156572856 0 101024005 126081454 148004847 148004919 148004919 148004919
281752605 64 253449177 258170292 259004606 263741806 269090971 269436011 0 92718737 178623927 197333278 202725670 202725742 202725742 156573292 56 156573260 156573260 156573260 156573260 156573260 156573260 0 101025435 126081972 148005815 148005887 148005887 148005887
282815354 80 254801209 259489536 260372624 265226989 270286614 270620264 0 92281105 177808689 196345491 201686923 201687013 201687013 156221604 70 156221562 156221562 156221562 156221562 156221562 156221562 0 100023133 124835462 146537304 146537394 146537394 146537394
281750361 64 253447549 258165852 259007181 263796366 269080861 269431516 0 92716781 178619587 197329361 202722434 202722506 202722506 156572960 56 156572928 156572928 156572928 156572928 156572928 156572928 0 101024121 126081524 148004955 148005027 148005027 148005027
281748182 64 253445196 258170190 259002939 263802054 269085279 269428819 0 92715350 178616072 197325786 202719319 202719391 202719391 156572906 56 156572874 156572874 156572874 156572874 156572874 156572874 0 101023239 126081332 148004469 148004541 148004541 148004541
281929659 96 254610244 259175969 260033684 264698144 269717264 270042334 0 92238087 176403297 194955821 200163009 200163117 200163117 155605190 84 155605146 155605146 155605146 155605146 155605146 155605146 0 99500974 124408500 145570770 145570878 145570878 145570878
281747378 64 253448053 258175530 259022909 263845059 269080164 269426984 0 92714858 178614859 197324505 202718184 202718256 202718256 156572910 56 156572878 156572878 156572878 156572878 156572878 156572878 0 101022966 126081283 148004323 148004395 148004395 148004395
281750182 64 253446043 258167594 259019278 263862863 269086823 269430943 0 92716534 178619088 197328990 202722162 202722234 202722234 156572868 56 156572836 156572836 156572836 156572836 156572836 156572836 0 101023943 126081430 148004803 148004875 148004875 148004875
281752897 64 253449383 258170461 259005160 263743985 269091950 269436490 0 92718904 178624356 197333740 202726082 202726154 202726154 156573283 56 156573251 156573251 156573251 156573251 156573251 156573251 0 101025535 126081984 148005860 148005932 148005932 148005932
282815113 80 254801122 259489559 260372047 265223867 270285932 270619947 0 92280975 177808354 196345119 201686586 201686676 201686676 156221627 70 156221585 156221585 156221585 156221585 156221585 156221585 0 100023067 124835464 146537285 146537375 146537375 146537375
281750111 64 253447040 258165209 259007043 263799453 269080658 269431118 0 92716596 178619145 197328936 202722073 202722145 202722145 156572942 56 156572910 156572910 156572910 156572910 156572910 156572910 0 101024009 126081491 148004883 148004955 148004955 148004955
281748346 64 253445500 258170558 259002712 263797867 269085342 269429087 0 92715474 178616368 197326071 202719560 202719632 202719632 156572922 56 156572890 156572890 156572890 156572890 156572890 156572890 0 101023319 126081356 148004521 148004593 148004593 148004593
282819967 80 254804081 259487838 260374061 265195046 270296276 270627866 0 92284517 177816705 196353246 201693538 201693628 201693628 156221935 70 156221893 156221893 156221893 156221893 156221893 156221893 0 100025322 124836067 146538619 146538709 146538709 146538709
281748696 64 253448116 258171653 259001167 263747187 269075397 269429382 0 92715958 178617334 197326781 202720082 202720154 202720154 156573076 56 156573044 156573044 156573044 156573044 156573044 156573044 0 101023679 126081519 148004789 148004861 148004861 148004861
281749505 64 253445166 258168945 259022629 263898084 269090829 269430039 0 92715966 178617803 197327816 202721185 202721257 202721257 156572799 56 156572767 156572767 156572767 156572767 156572767 156572767 0 101023562 126081321 148004578 148004650 148004650 148004650
282470475 88 254640876 259282599 260124081 264810171 270024771 270361716 0 92376603 177494542 196002231 201304840 201304939 201304939 156105159 77 156105120 156105120 156105120 156105120 156105120 156105120 0 100001158 124797374 146353604 146353703 146353703 146353703
281206419 72 253416487 258067640 258930752 263724322 268774272 269107427 0 92576184 177523283 196277823 201576142 201576223 201576223 156072892 63 156072855 156072855 156072855 156072855 156072855 156072855 0 100522678 125692355 147221398 147221479 147221479 147221479
281750326 64 253447099 258165608 259008067 263802287 269081372 269431417 0 92716726 178619465 197329276 202722374 202722446 202722446 156572934 56 156572902 156572902 156572902 156572902 156572902 156572902 0 101024082 126081500 148004917 148004989 148004989 148004989
281748469 64 253445754 258170746 259002295 263794910 269085325 269429315 0 92715596 178616626 197326288 202719734 202719806 202719806 156572951 56 156572919 156572919 156572919 156572919 156572919 156572919 0 101023404 126081390 148004580 148004652 148004652 148004652
282819778 80 254803885 259487786 260374484 265197244 270296259 270627569 0 92284379 177816373 196352928 201693268 201693358 201693358 156221930 70 156221888 156221888 156221888 156221888 156221888 156221888 0 100025233 124836047 146538572 146538662 146538662 146538662
281748952 64 253448310 258171596 259000825 263744630 269075765 269429775 0 92716154 178617784 197327216 202720452 202720524 202720524 156573108 56 156573076 156573076 156573076 156573076 156573076 156573076 0 101023810 126081562 148004875 148004947 148004947 148004947
281749064 64 253444668 258168488 259021892 263898987 269090152 269429347 0 92715631 178617033 197327071 202720549 202720621 202720621 156572739 56 156572707 156572707 156572707 156572707 156572707 156572707 0 101023338 126081244 148004428 148004500 148004500 148004500
282820870 80 254803282 259481371 260342854 265074779 270292944 270630054 0 92285553 177818839 196354961 201694871 201694961 201694961 156222236 70 156222194 156222194 156222194 156222194 156222194 156222194 0 100026050 124836388 146539166 146539256 146539256 146539256
281746995 64 253447612 258177621 259033515 263880225 269081690 269426145 0 92714236 178613657 197323676 202717603 202717675 202717675 156572686 56 156572654 156572654 156572654 156572654 156572654 156572654 0 101022505 126081059 148003961 148004033 148004033 148004033
281750634 64 253447011 258167942 259017826 263851661 269086341 269431716 0 92716876 178619873 197329749 202722808 202722880 202722880 156572901 56 156572869 156572869 156572869 156572869 156572869 156572869 0 101024174 126081489 148004933 148005005 148005005 148005005
281750339 64 253446416 258167665 259000864 263738664 269086984 269432469 0 92717041 178619962 197329456 202722413 202722485 202722485 156573120 56 156573088 156573088 156573088 156573088 156573088 156573088 0 101024343 126081670 148005162 148005234 148005234 148005234
281926721 96 254610071 259180231 260045461 264784706 269713901 270037201 0 92235857 176398128 194950869 200158803 200158911 200158911 155604959 84 155604915 155604915 155604915 155604915 155604915 155604915 0 99499544 124408094 145569903 145570011 145570011 145570011
281749252 64 253448403 258171276 259000410 263743540 269076465 269430230 0 92716369 178618302 197327714 202720879 202720951 202720951 156573099 56 156573067 156573067 156573067 156573067 156573067 156573067 0 101023932 126081576 148004927 148004999 148004999 148004999
281748840 64 253444424 258168434 259021733 263898683 269089933 269429013 0 92715441 178616589 197326677 202720223 202720295 202720295 156572730 56 156572698 156572698 156572698 156572698 156572698 156572698 0 101023227 126081221 148004370 148004442 148004442 148004442
282821025 80 254803640 259481900 260344648 265079793 270293253 270630293 0 92285696 177819165 196355241 201695097 201695187 201695187 156222256 70 156222214 156222214 156222214 156222214 156222214 156222214 0 100026142 124836420 146539228 146539318 146539318 146539318
281746962 64 253447692 258177619 259032268 263875458 269081478 269426103 0 92714210 178613587 197323610 202717548 202717620 202717620 156572677 56 156572645 156572645 156572645 156572645 156572645 156572645 0 101022482 126081045 148003940 148004012 148004012 148004012
281750321 64 253446287 258167061 259017110 263852460 269085860 269431220 0 92716642 178619340 197329232 202722364 202722436 202722436 156572891 56 156572859 156572859 156572859 156572859 156572859 156572859 0 101024038 126081461 148004862 148004934 148004934 148004934
57212844 16 51501299 52459987 52640966 53603416 54660496 54726816 0 18465999 35852412 39539474 40628997 40629015 40629015 31443585 14 31443575 31443575 31443575 31443575 31443575 31443575 0 20006320 24923785 29349410 29349428 29349428 29349428
number of instructions: 106200922646
