42660 725 1255 123
39101 627 174 24
38778 622 174 24
38779 622 174 24
38777 622 174 24
38778 622 174 24
38778 622 174 24
266553 4217 411 57
247726 3980 106 14
209134 3660 106 14
166878 3276 106 14
116814 2732 106 14
54608 1919 597 69
number of instructions: 12472929203
