223465128 20251098 209257389 218901402 222312787 222316817 222317871 222318064 1137031 55841023 94816779 135624033 137898405 139038669 139607689 133178734 9545669 129218530 129781209 133176095 133176352 133176441 133176441 0 9382271 68273636 107219828 110060455 110060493 110060494
222916975 19830829 208508633 218443025 221798282 221798282 221798533 221798665 1118331 56278412 95315710 135548212 137784873 138903204 139462370 132791654 9678910 128630129 129439001 132791652 132791652 132791652 132791652 0 9217787 67559867 106589789 109385617 109385617 109385617
222626854 19877536 208289857 218194359 221518527 221518527 221518774 221518912 1107969 56546137 95616120 135475039 137690978 138798947 139352931 132546184 9842972 128226275 129224753 132546184 132546184 132546184 132546184 0 9133274 67131414 106192339 108962261 108962261 108962261
222627546 19893060 208289869 218194901 221519180 221519180 221519428 221519566 1108005 56545232 95615189 135475527 137691539 138799545 139353548 132546827 9842230 128226898 129225173 132546827 132546827 132546827 132546827 0 9132970 67131776 106193027 108963042 108963042 108963042
222626738 19851787 208288339 218194312 221518440 221518440 221518688 221518820 1107961 56546401 95616548 135475606 137691526 138799486 139353466 132546201 9842628 128225853 129224701 132546201 132546201 132546201 132546201 0 9133212 67131326 106192200 108962100 108962100 108962100
222627605 19866678 208289533 218195050 221519271 221519271 221519519 221519657 1107991 56545547 95615549 135475687 137691668 138799659 139353655 132547106 9842245 128227345 129225549 132547106 132547106 132547106 132547106 0 9133484 67132800 106193754 108963730 108963730 108963730
222625231 19870046 208286806 218192841 221516933 221516933 221517181 221517319 1107946 56546251 95616264 135474983 137690878 138798825 139352798 132546070 9842456 128225593 129224549 132546070 132546070 132546070 132546070 0 9132091 67129488 106191935 108961804 108961804 108961804
300597281 10653442 131030036 271166156 273021408 277362288 298558623 300001962 594246 47152761 68241694 143099741 241261753 242020381 242377714 164596864 5278962 69456030 157382491 159166213 160222591 164325693 164596481 0 71951414 120930068 141880943 145469088 145629084 145638514
391971632 160 41283765 333728256 333861242 343271735 388877150 391971492 0 36521209 36811665 152967985 363590164 363899679 364014249 202972412 140 1438864 191225196 191226566 193522562 202387442 202972362 0 145568017 184383652 184384112 188950625 189251490 189269225
391264896 192 41510150 332959609 333102745 342487871 388161296 391264728 0 36381188 36671198 152341787 362083072 362420830 362548018 202196487 168 1461864 190467707 190467707 192756819 201612687 202196427 0 145001771 183655432 183655984 188203479 188530857 188550159
389304002 272 42138279 330828184 331003352 340313686 386173389 389303764 0 35991685 36280310 150603438 357901251 358316884 358477840 200042184 238 1524896 188364586 188364586 190630223 199461079 200042099 0 143429396 181633665 181634447 186129027 186529955 186553602
387057478 432 42858787 328384054 328595734 337819202 383898247 387057100 0 35546479 35834674 148614213 353112699 353621352 353830656 197581135 378 1603248 185961593 185961593 188199344 197003884 197581000 0 141633494 179323690 179324932 183759040 184244338 184272985
178149773 1058 21847478 149960624 150139732 154309182 176588468 178147654 0 15843650 15985919 65956668 156563946 157027402 157281496 88109424 795 962647 82737136 82737473 83732548 87843162 88108693 0 63091186 79800206 79803359 81768895 82182953 82207518
number of instructions: 12472929203
