1000009544,190651694,167814598,160348547,153288190
1000000000,190673066,167876037,160553062,153291626
1000000000,190713575,167909356,160591870,153314980
1000000000,190445852,168009821,160706639,153509131
1000000000,190362411,168069417,160757971,153564928
1000000000,190338994,168060996,160753752,153546511
1000000000,190320999,168059716,160760890,153546164
1000000030,196075805,165375433,146840461,131708805
1000000000,210204561,159915108,115793362,81626529
1000000000,209692926,159113814,114817294,80864101
1000000000,210076470,159763196,115651098,81508657
1000000000,209821511,159263031,114961168,80977690
1000000000,209573160,159153720,115016268,81064493
1000000000,210323927,159876537,115593620,81428450
1000000000,209693463,159110784,114818896,80859353
1000000000,210203993,159918153,115791810,81631313
1000000000,209693227,159111593,114818419,80860746
1000000000,210204276,159917312,115792065,81629931
1000000000,209693304,159111578,114818825,80860503
1000000000,210204117,159917403,115791736,81630309
1000000000,209693355,159111618,114818848,80860460
1000000000,210204220,159917094,115792025,81629755
1000000000,209693244,159111867,114818524,80860998
1000000000,210204396,159916241,115792736,81628280
1000000000,209693163,159112598,114818091,80862120
1000000000,210204998,159912461,115794897,81622419
1000000000,209692829,159114669,114816787,80865385
1000000000,209568249,159172773,115070601,81057650
1000000000,210320460,159851031,115536186,81432942
1000000000,209478870,159115296,115028265,81047448
1000000000,210054908,159686378,115414081,81414424
1000000000,208745166,158645942,114673738,80970022
1000000000,208990138,159021142,114919372,81334090
1000000000,206801966,157402044,113732891,80763731
1000000000,206948857,157745701,113967799,81179174
1000000000,205335365,156813331,113447497,81136469
1000000000,202110769,154349341,111262527,80238501
1000000000,201525202,154392053,111624372,80769612
1000000000,198735031,152601912,110271288,80469906
1000000000,195569956,150627285,108670428,80317420
1000000000,192428749,148591238,107252433,79868900
1000000000,189494300,146716001,105838956,79572350
1000000000,185470265,144321465,103989204,79593788
1000000000,184681039,144023533,103990727,79678988
1000000000,182168720,142094506,102383959,78947669
1000000000,177952739,139724548,100756615,78998247
1000000000,176942914,138784193,99893654,78471907
1000000000,174258568,137403045,99026826,78704160
1000000000,173204076,136839007,98542929,79077372
1000000000,172570024,136367435,98270980,78629695
1000000000,172182496,136116044,98087483,78585305
1000000000,172163402,136099838,98078606,78577399
1000000000,171910528,135613201,97545065,78067288
1000000000,172164026,136104083,98078959,78582909
1000000000,172164358,136105882,98078776,78585140
1000000000,171909303,135606909,97544592,78059457
1000000000,172164101,136103872,98078760,78582401
1000000000,172164291,136106364,98078926,78585962
1000000000,171995555,135888188,97841040,78579570
1000000000,172285618,136400957,98314224,79063304
1000000000,172164021,136104207,98078976,78583080
1000000000,172164369,136105787,98078808,78584986
1000000000,171909301,135606991,97544554,78059574
1000000000,172164061,136103703,98078764,78582215
1000000000,172164345,136106523,98078942,78586143
1000000000,171909197,135606113,97544392,78058471
1000000000,172164621,136106762,98079216,78586026
1000000000,172163963,136103946,98078909,78582794
1000000000,172163696,136102038,98078611,78580231
1000000000,172117385,136187311,98076454,79063054
1000000000,172164005,136103451,98078756,78581900
1000000000,172164380,136106633,98078943,78586272
1000000000,171909219,135606356,97544438,78058804
1000000000,172164609,136106602,98079166,78585804
1000000000,172163975,136104067,98078909,78582945
1000000000,172163628,136101601,98078591,78579665
1000000000,171910161,135611407,97544973,78065102
1000000000,172163948,136103927,98078745,78582731
1000000000,172164384,136105840,98078938,78585064
1000000000,172116538,136182902,98075962,79057587
1000000000,172164588,136106416,98079149,78585518
1000000000,172164007,136104181,98078917,78583089
1000000000,172163571,136101368,98078598,78579396
1000000000,171910196,135611574,97544959,78065300
1000000000,172164025,136104161,98078846,78583001
1000000000,172164328,136105657,98078897,78584850
1000000000,171909337,135607121,97544557,78059768
1000000000,172164349,136105121,98078918,78583902
1000000000,172164046,136104900,98078800,78584094
1000000000,171946688,135770640,97748229,78390018
1000000000,172334524,136518828,98407081,79253296
1000000000,172163967,136103993,98078803,78582834
1000000000,172164327,136105530,98078902,78584662
1000000000,171909346,135607294,97544541,78060005
1000000000,172164311,136104879,98078908,78583591
1000000000,172164131,136105328,98078836,78584613
1000000000,171909210,135605991,97544341,78058285
1000000000,172164599,136107065,98079258,78586520
1000000000,172163947,136103719,98078954,78582487
1000000000,172164003,136103744,98078725,78582384
1000000000,172117069,136185663,98076262,79061012
1000000000,172164257,136104600,98078877,78583264
1000000000,172164157,136105561,98078867,78584947
1000000000,171909193,135605829,97544325,78058034
1000000000,172164606,136107091,98079254,78586549
1000000000,172163999,136104009,98078981,78582847
200922646,34449064,27034108,19387222,15381740
