1000000000,264953373,134416943,243443249,583242005,393849,79319996,7962420,9624,3949154,72664547,2415144,6123570
1000000000,264735047,134621745,243122798,582997125,392465,79946506,7850483,0,3925962,72767848,2394834,6118782
1000000000,264737235,134672264,243023768,582957645,392180,80076779,7844627,0,3922940,72791057,2393020,6115161
1000000000,264859336,134386959,243323642,583382535,391847,79529358,7840634,0,3923970,72527851,2394597,6202616
1000000000,264853703,134303147,243349492,583511365,391748,79418436,7838630,0,3921560,72463743,2392549,6229823
1000000000,264836303,134286138,243380889,583519809,391913,79383806,7840294,0,3921390,72457279,2392110,6229879
1000000000,264843957,134279250,243412178,583533121,391790,79357596,7838310,0,3921320,72437530,2393072,6232458
1000000000,253255308,113190340,179324800,544791202,273138,54748330,5475471,31,147902813,55274284,1987724,8661646
1000000000,227260113,63602257,28964065,449563283,0,1064,99,0,485360219,16034631,1068586,14821729
1000000000,228174813,63774319,30218469,451252640,0,1486,138,0,481096874,17617961,1040871,14693976
1000000000,227589091,63713318,29002563,449728575,0,1171,111,0,484940009,16244780,1066287,14838471
1000000000,227846885,63659719,30177200,451080045,0,1379,126,0,481529690,17406656,1043054,14675732
1000000000,228533177,64122842,29737808,451165752,0,1379,130,0,481831994,17290596,1049779,14809788
1000000000,226901707,63255455,29446096,449653658,0,1171,107,0,484619028,16362556,1059734,14706645
1000000000,228175867,63770324,30215323,451244405,0,1486,138,0,481111119,17616653,1040740,14692274
1000000000,227259188,63606256,28967210,449571492,0,1064,99,0,485346010,16035937,1068717,14823428
1000000000,228175800,63771357,30216154,451246513,0,1486,138,0,481107439,17616993,1040774,14692718
1000000000,227259109,63605101,28966291,449569175,0,1064,99,0,485350060,16035561,1068679,14822938
1000000000,228175794,63771448,30216227,451246695,0,1486,138,0,481107119,17617023,1040777,14692757
1000000000,227259277,63605134,28966321,449569211,0,1064,99,0,485349977,16035571,1068680,14822951
1000000000,228175641,63771542,30216297,451246917,0,1486,138,0,481106753,17617055,1040780,14692799
1000000000,227259368,63604739,28966011,449568409,0,1064,99,0,485351369,16035443,1068667,14822785
1000000000,228175621,63771820,30216510,451247461,0,1486,138,0,481105809,17617142,1040789,14692910
1000000000,227259680,63603719,28965210,449566297,0,1064,99,0,485355014,16035108,1068634,14822350
1000000000,228175284,63772730,30217227,451249355,0,1486,138,0,481102536,17617443,1040819,14693303
1000000000,227261207,63598796,28961354,449556144,0,1064,99,0,485372551,16033499,1068472,14820257
1000000000,228174396,63775404,30219313,451254882,0,1486,138,0,481093010,17618315,1040907,14694437
1000000000,228881480,64175279,29170247,450428843,0,1336,139,0,483195236,17089038,1057749,14913392
1000000000,226566163,63222092,30020522,450406371,0,1280,118,0,483234132,16562948,1051645,14603391
1000000000,229011355,64390722,29244994,450631407,0,1278,119,0,482919942,17081654,1057011,14922343
1000000000,226950393,63865195,30255755,451006752,0,1272,118,0,482400761,16541682,1049520,14633014
1000000000,230076559,66165685,29858299,452311200,0,1278,119,0,480640160,17022810,1051127,14996753
1000000000,228495072,66440914,31185436,453415477,0,1272,118,0,479075668,16455442,1040896,14748234
1000000000,232899620,70867588,31478441,456763519,0,1278,119,0,474604222,16866714,1035517,15192787
1000000000,231455853,71380889,32962202,458042634,0,1272,118,0,472696938,16290896,1024441,14968665
1000000000,234328473,75386017,33053292,460709673,0,1064,99,0,470207281,15645339,1029657,15320357
1000000000,239177769,82115467,36765058,468456356,0,1486,138,0,457453333,17004973,979572,15500646
1000000000,239859585,84605817,36271460,469413712,0,1064,99,0,458348456,15339477,999070,15713194
1000000000,243912715,91354013,38587393,475808837,0,1064,99,0,449691744,15115371,976660,15992608
1000000000,247959899,98905498,42849885,483820740,0,1272,118,0,437178162,15371656,932517,16192432
1000000000,253063812,106608696,43902679,490216301,0,1064,99,0,430074963,14609689,926092,16641014
1000000000,257322953,113706367,46355134,496932932,0,1064,99,0,420959127,14374379,902560,16938561
1000000000,262602022,123330844,51646237,506681250,0,1272,118,0,405647062,14556210,850973,17283040
1000000000,263603171,126315530,50811218,508472940,0,850,79,0,406134354,12883202,869719,17421144
1000000000,267952639,131425516,52621726,513596847,0,1064,99,0,398139526,13783991,843522,17707763
1000000000,273369697,142585062,56440300,523859459,0,850,79,0,385241439,12342702,815669,18103750
1000000000,275527408,144067372,57047032,525532281,0,1064,99,0,381858009,13367571,801880,18251367
1000000000,278721179,151516676,59616522,532251188,0,850,79,0,373723559,12046508,786050,18496120
1000000000,280359899,152981563,62749265,534117291,0,1272,118,0,367196850,13556844,751036,18684180
1000000000,281162618,155597159,61121993,536045547,0,850,79,0,368437848,11910300,772429,18685530
1000000000,281723752,156528554,61440776,536924121,0,850,79,0,367249752,11878470,769246,18723181
1000000000,281754521,156573019,61453025,536962268,0,850,79,0,367203138,11875384,768938,18723105
1000000000,282813277,156221543,61355126,536952093,0,1064,99,0,366203633,12962977,761420,18781220
1000000000,281750220,156572916,61456162,536966012,0,850,79,0,367192751,11877024,769102,18725073
1000000000,281748094,156572950,61457425,536967674,0,850,79,0,367188392,11877688,769168,18725875
1000000000,282820154,156221975,61350702,536946838,0,1064,99,0,366218426,12960583,761181,18778369
1000000000,281750058,156573158,61456065,536966149,0,850,79,0,367192855,11876944,769093,18724996
1000000000,281748008,156572645,61457684,536967689,0,850,79,0,367187775,11877862,769186,18726062
1000000000,282314824,155963463,62503017,537061807,0,1165,110,0,364785435,13174864,752071,18774292
1000000000,281362361,156214636,62696086,536442855,0,957,87,0,366193577,12171280,759294,18761769
1000000000,281750127,156572870,61456241,536966070,0,850,79,0,367192516,11877072,769106,18725127
1000000000,281748130,156572994,61457386,536967650,0,850,79,0,367188510,11877660,769166,18725845
1000000000,282820117,156221946,61350733,536946852,0,1064,99,0,366218340,12960603,761183,18778391
1000000000,281750283,156573170,61455949,536966007,0,850,79,0,367193251,11876880,769087,18724919
1000000000,281747772,156572648,61457805,536967855,0,850,79,0,367187344,11877928,769192,18726143
1000000000,282820887,156222138,61350151,536946303,0,1064,99,0,366220170,12960269,761149,18778004
1000000000,281747107,156572817,61458092,536968402,0,850,79,0,367186213,11878058,769205,18726311
1000000000,281750413,156572905,61456052,536965854,0,850,79,0,367193141,11876968,769096,18725005
1000000000,281752140,156573253,61454767,536964565,0,850,79,0,367197237,11876244,769024,18724159
1000000000,281924988,155604795,63744427,536540147,0,1272,118,0,363781528,13469952,742347,18811960
1000000000,281750546,156573166,61455761,536965759,0,850,79,0,367193895,11876784,769077,18724803
1000000000,281747653,156572659,61457893,536967977,0,850,79,0,367187045,11877968,769196,18726193
1000000000,282820679,156222085,61350305,536946445,0,1064,99,0,366219684,12960361,761159,18778109
1000000000,281747223,156572877,61457996,536968332,0,850,79,0,367186501,11877998,769199,18726243
1000000000,281750268,156572888,61456139,536965951,0,850,79,0,367192855,11877016,769101,18725062
1000000000,281752605,156573292,61454459,536964209,0,850,79,0,367198255,11876078,769007,18723962
1000000000,282815354,156221604,61353849,536950517,0,1064,99,0,366207956,12962291,761351,18780400
1000000000,281750361,156572960,61456033,536965901,0,850,79,0,367193142,11876952,769095,18724989
1000000000,281748182,156572906,61457403,536967591,0,850,79,0,367188517,11877680,769167,18725863
1000000000,281929659,155605190,63741329,536536567,0,1272,118,0,363791798,13468266,742178,18809960
1000000000,281747378,156572910,61457869,536968200,0,850,79,0,367186908,11877928,769192,18726161
1000000000,281750182,156572868,61456208,536966024,0,850,79,0,367192632,11877054,769105,18725106
1000000000,281752897,156573283,61454289,536963982,0,850,79,0,367198846,11875988,768998,18723854
1000000000,282815113,156221627,61353979,536950708,0,1064,99,0,366207488,12962359,761358,18780482
1000000000,281750111,156572942,61456206,536966093,0,850,79,0,367192580,11877044,769104,18725099
1000000000,281748346,156572922,61457281,536967468,0,850,79,0,367188900,11877616,769161,18725786
1000000000,282819967,156221935,61350820,536946962,0,1064,99,0,366218039,12960651,761187,18778450
1000000000,281748696,156573076,61456962,536967209,0,850,79,0,367189866,11877428,769142,18725571
1000000000,281749505,156572799,61456680,536966556,0,850,79,0,367191081,11877312,769131,18725411
1000000000,282470475,156105159,62008715,537269642,0,1165,110,0,365183930,13057819,756017,18759957
1000000000,281206419,156072892,63190603,536235226,0,957,87,0,365794408,12288445,755360,18776245
1000000000,281750326,156572934,61456080,536965926,0,850,79,0,367193015,11876978,769097,18725020
1000000000,281748469,156572951,61457199,536967382,0,850,79,0,367189172,11877566,769156,18725728
1000000000,282819778,156221930,61350949,536947115,0,1064,99,0,366217612,12960719,761194,18778531
1000000000,281748952,156573108,61456791,536967026,0,850,79,0,367190421,11877334,769133,18725459
1000000000,281749064,156572739,61456963,536966871,0,850,79,0,367190146,11877470,769146,18725599
1000000000,282820870,156222236,61350091,536946323,0,1064,99,0,366220290,12960229,761145,18777959
1000000000,281746995,156572686,61458263,536968465,0,850,79,0,367185766,11878162,769216,18726429
1000000000,281750634,156572901,61455912,536965687,0,850,79,0,367193608,11876894,769088,18724915
1000000000,281750339,156573120,61455952,536965949,0,850,79,0,367193296,11876886,769088,18724925
1000000000,281926721,155604959,63743261,536538817,0,1272,118,0,363785376,13469318,742284,18811207
1000000000,281749252,156573099,61456600,536966773,0,850,79,0,367191080,11877234,769122,18725338
1000000000,281748840,156572730,61457129,536967056,0,850,79,0,367189610,11877556,769155,18725704
1000000000,282821025,156222256,61349971,536946188,0,1064,99,0,366220682,12960163,761139,18777883
1000000000,281746962,156572677,61458290,536968513,0,850,79,0,367185659,11878178,769217,18726446
1000000000,281750321,156572891,61456104,536965914,0,850,79,0,367192965,11876998,769099,18725041
200922646,57212844,31443585,11826360,107964303,0,214,20,0,73875632,2715123,155236,3777525
number,of,instructions:,106200922646
