dataset1,,,,,,,,,,,,
65536,,,,,,,,,,,,
haci3,,,,,,,,,,,pxd,
omp threads,kernel time,total_time, kernel percentage,,serial,kernel time,speedup,,cpu delay,power,cpu energy,cpu edp
1,0.018196821213,0.043687820435,41.651931762695,,0.018196821213,0.018196821213,1,,0.018196821213,69.532364156053,1.26526799906491,0.023023855565514
2,0.03028512001,0.053361177444,56.754970550537,,0.018196821213,0.03028512001,0.6008502263485,,0.03028512001,88.563797297418,2.68216522969362,0.081229695867921
4,0.014267921448,0.037358045578,38.192363739014,,0.018196821213,0.014267921448,1.27536595146806,,0.014267921448,115.823818538867,1.65256514471996,0.023578669672567
8,0.010494947433,0.033642053604,31.195917129517,,0.018196821213,0.010494947433,1.73386492206549,,0.010494947433,121.205485294689,1.27204519675902,0.013350047472386
14,0.009659051895,0.033206939697,29.087451934814,,0.018196821213,0.009659051895,1.88391380549675,,0.009659051895,137.90776866502,1.33205829425908,0.012866420191414
28,0.006862878799,0.029804944992,23.025972366333,,0.018196821213,0.006862878799,2.65148514871798,,0.006862878799,167.615158894825,1.15032252037031,0.007894524037062
42,0.007867097855,0.030696153641,25.628936767578,,0.018196821213,0.007867097855,2.31302845704847,,0.007867097855,165.199333805314,1.29963932462721,0.010224389743048
56,0.022598028183,0.04860496521,46.493251800537,,0.018196821213,0.022598028183,0.805239336177528,,0.022598028183,132.110995566857,2.98544800110402,0.06746523806783
,,,,,,,,,,,,
dungani,,,,,,,,,,,,
WG:,gpu delay,serial,gpu speedup,avg power,gpu energy,gpu edp,,,,,,
16x16,0.288548,0.018196821213,0.06306341133191,106.996996,30.873769201808,8.90856435564329,,,,,,
,,,,,,,,,,,,
,,,,,,,,,,,,
-----------,---------,---------,-----------,---------,--------,----------,---------,,,,,
,,,,,,,,,,,,
dataset2,,,,,,,,,,,,
131072,,,,,,,,,,,,
haci3,,,,,,,,,,,pxd,
omp threads,kernel time,total_time, kernel percentage,,serial,kernel time,speedup,,cpu delay,power,cpu energy,cpu edp
1,0.025497913361,0.071310997009,35.755935668945,,0.025497913361,0.025497913361,1,,0.025497913361,72.093123333891,1.83822421269144,0.046870881713299
2,0.051978111267,0.100805997849,51.562519073486,,0.025497913361,0.051978111267,0.490550978853827,,0.051978111267,80.55292154009,4.18698871869272,0.217631765493884
4,0.026641130447,0.072242021561,36.87760925293,,0.025497913361,0.026641130447,0.957088266645654,,0.026641130447,99.523279279785,2.65141266580596,0.070636630698565
8,0.013652086258,0.05982208252,22.821147918701,,0.025497913361,0.013652086258,1.86769354361927,,0.013652086258,113.693901516072,1.55215895050597,0.021190207878434
14,0.016199827194,0.062681913376,25.844499588013,,0.025497913361,0.016199827194,1.57396205870911,,0.016199827194,127.514910446752,2.06571951389577,0.033464299156385
28,0.010843992233,0.05673289299,19.11411857605,,0.025497913361,0.010843992233,2.35134006121895,,0.010843992233,167.441104361895,1.81573003518533,0.019689762398775
42,0.030954837799,0.07772898674,39.824058532715,,0.025497913361,0.030954837799,0.823713357070917,,0.030954837799,168.986813650201,5.23095940671181,0.161923499967917
56,0.027328014374,0.073667049408,37.096656799316,,0.025497913361,0.027328014374,0.933032053190766,,0.027328014374,161.47113441574,4.41268548229943,0.12058993228822
,,,,,,,,,,,,
dungani,,,,,,,,,,,,
WG:,gpu delay,serial,gpu speedup,avg power,gpu energy,gpu edp,,,,,,
16x16,0.117146,0.025497913361,0.217659274418247,99.193574,11.620130419804,1.36125179815836,,,,,,
,,,,,,,,,,,,
,,,,,,,,,,,,
-----------,---------,---------,-----------,---------,--------,----------,---------,,,,,
,,,,,,,,,,,,
dataset3,,,,,,,,,,,,
196608,,,,,,,,,,,,
haci3,,,,,,,,,,,pxd,
omp threads,kernel time,total_time, kernel percentage,,serial,kernel time,speedup,,cpu delay,power,cpu energy,cpu edp
1,0.056764125824,0.123664140701,45.901847839355,,0.056764125824,0.056764125824,1,,0.056764125824,72.871617278959,4.1364936522212,0.234804446144862
2,0.082663059235,0.153212070465,53.95336151123,,0.056764125824,0.082663059235,0.686692778483158,,0.082663059235,84.323537977031,6.97044161470009,0.576198028090062
4,0.03978395462,0.109886169434,36.204696655273,,0.056764125824,0.03978395462,1.42680953580879,,0.03978395462,92.460373642873,3.6784393091563,0.146342862547899
8,0.023536920547,0.094847917557,24.815433502197,,0.056764125824,0.023536920547,2.41170571615984,,0.023536920547,114.667755651668,2.69892585407612,0.063524403389634
14,0.024270057678,0.095484018326,25.41792678833,,0.056764125824,0.024270057678,2.33885417896863,,0.024270057678,122.460244690236,2.97211720189402,0.072133455915744
28,0.020254135132,0.089902162552,22.529085159302,,0.056764125824,0.020254135132,2.80259440623149,,0.020254135132,160.688058121341,3.25459764328831,0.06591906046745
42,0.014645814896,0.085724830627,17.0846824646,,0.056764125824,0.014645814896,3.87579156414869,,0.014645814896,159.676352228529,2.33859029800753,0.0342505606222
56,0.033538103104,0.103984832764,32.252880096436,,0.056764125824,0.033538103104,1.69252642726922,,0.033538103104,167.369476721568,5.61325476675048,0.188257917116297
,,,,,,,,,,,,
dungani,,,,,,,,,,,,
WG:,gpu delay,serial,gpu speedup,avg power,gpu energy,gpu edp,,,,,,
16x16,0.15559,0.056764125824,0.364831453332476,98.124634,15.26721180406,2.3754254845937,,,,,,
,,,,,,,,,,,,
,,,,,,,,,,,,
-----------,---------,---------,-----------,---------,--------,----------,---------,,,,,
,,,,,,,,,,,,
dataset4,,,,,,,,,,,,
262144,,,,,,,,,,,,
haci3,,,,,,,,,,,pxd,
omp threads,kernel time,total_time, kernel percentage,,serial,kernel time,speedup,,cpu delay,power,cpu energy,cpu edp
1,0.093063116074,0.184051036835,50.563751220703,,0.093063116074,0.093063116074,1,,0.093063116074,83.381068384039,7.75970204539795,0.722142052150525
2,0.105741977692,0.201304912567,52.528263092041,,0.093063116074,0.105741977692,0.880096231461356,,0.105741977692,86.677283215698,9.1654273481975,0.969170414190747
4,0.044759988785,0.140987873077,31.747404098511,,0.093063116074,0.044759988785,2.07915861018239,,0.044759988785,105.857208335535,4.73816745790996,0.212080322277502
8,0.034744977951,0.131359100342,26.450378417969,,0.093063116074,0.034744977951,2.67846237246847,,0.034744977951,122.377348730435,4.2519982833408,0.147735586602366
14,0.032388925552,0.12935090065,25.039583206177,,0.093063116074,0.032388925552,2.87330050280885,,0.032388925552,133.393621741869,4.32047608370904,0.139935578224449
28,0.019649982452,0.115162134171,17.062885284424,,0.093063116074,0.019649982452,4.73604067084182,,0.019649982452,178.351722427957,3.50460821599333,0.068865489945404
42,0.020995855331,0.117422819138,17.880558013916,,0.093063116074,0.020995855331,4.43245176759215,,0.020995855331,155.948806959525,3.27427858996423,0.06874627958828
56,0.039299964905,0.135225057602,29.062635421753,,0.093063116074,0.039299964905,2.36802033536065,,0.039299964905,160.698768863851,6.31545597662605,0.248197198240476
,,,,,,,,,,,,
dungani,,,,,,,,,,,,
WG:,gpu delay,serial,gpu speedup,avg power,gpu energy,gpu edp,,,,,,
16x16,0.142137,0.093063116074,0.654742368799116,114.184919,16.229901831903,2.3068695566812,,,,,,
,,,,,,,,,,,,
,,,,,,,,,,,,
-----------,---------,---------,-----------,---------,--------,----------,---------,,,,,
,,,,,,,,,,,,
dataset5,,,,,,,,,,,,
327680,,,,,,,,,,,,
haci3,,,,,,,,,,,pxd,
omp threads,kernel time,total_time, kernel percentage,,serial,kernel time,speedup,,cpu delay,power,cpu energy,cpu edp
1,0.127750873566,0.242682933807,52.641063690186,,0.127750873566,0.127750873566,1,,0.127750873566,80.517798849672,10.2862191406571,1.31407348091025
2,0.121407985687,0.24237203598,50.091583251953,,0.127750873566,0.121407985687,1.05224440421368,,0.121407985687,90.7587029768,11.018831311978,1.33777411421209
4,0.05407500267,0.176151037216,30.698087692261,,0.127750873566,0.05407500267,2.36247558498734,,0.05407500267,121.201416024519,6.55396689513365,0.354405777353443
8,0.047069072723,0.170668840408,27.579181671143,,0.127750873566,0.047069072723,2.71411494162653,,0.047069072723,155.881324097767,7.33718938011533,0.345354700515072
14,0.038679122925,0.16121506691,23.992250442505,,0.127750873566,0.038679122925,3.30283791113136,,0.038679122925,162.521998767104,6.28620836832951,0.243145026210781
28,0.024204015732,0.145884037018,16.591270446777,,0.127750873566,0.024204015732,5.27808587552276,,0.024204015732,181.072780036641,4.38268841664384,0.106078659384902
42,0.023277997971,0.144844055176,16.071075439453,,0.127750873566,0.023277997971,5.48805244012623,,0.023277997971,161.545706090942,3.76046061860871,0.087535994649999
56,0.04624915123,0.171849966049,26.912515640259,,0.127750873566,0.04624915123,2.76223174195536,,0.04624915123,156.737782205415,7.24898939267304,0.335259606686401
,,,,,,,,,,,,
dungani,,,,,,,,,,,,
WG:,gpu delay,serial,gpu speedup,avg power,gpu energy,gpu edp,,,,,,
16x16,0.135606,0.127750873566,0.942073902083978,110.280748,14.954731113288,2.02795126734853,,,,,,
,,,,,,,,,,,,
,,,,,,,,,,,,
-----------,---------,---------,-----------,---------,--------,----------,---------,,,,,
,,,,,,,,,,,,
dataset6,,,,,,,,,,,,
393216,,,,,,,,,,,,
haci3,,,,,,,,,,,pxd,
omp threads,kernel time,total_time, kernel percentage,,serial,kernel time,speedup,,cpu delay,power,cpu energy,cpu edp
1,0.162080049515,0.30140209198,53.775360107422,,0.162080049515,0.162080049515,1,,0.162080049515,80.845258551312,13.1034035090496,2.12380028956179
2,0.109288930893,0.258383989334,42.297096252441,,0.162080049515,0.109288930893,1.48304177001864,,0.109288930893,136.592626986019,14.9280621711684,1.63147195499123
4,0.06630396843,0.213110923767,31.112421035767,,0.162080049515,0.06630396843,2.44449998021031,,0.06630396843,141.234789587522,9.36442703002875,0.620898674164065
8,0.039700984955,0.185760974884,21.372079849243,,0.162080049515,0.039700984955,4.08251960747859,,0.039700984955,148.667382597959,5.9022415198208,0.234324801779182
14,0.041457891464,0.19159579277,21.638206481934,,0.162080049515,0.041457891464,3.90951019917987,,0.041457891464,146.126235422894,6.05808560820525,0.251155455624594
28,0.026583194733,0.204963922501,12.969695091248,,0.162080049515,0.026583194733,6.09708694319559,,0.026583194733,170.431748664007,4.53062036342101,0.120438363382116
42,0.024859189987,0.170916795731,14.54461479187,,0.162080049515,0.024859189987,6.51992480848165,,0.024859189987,161.904154232752,4.02480612975653,0.10005342024046
56,0.042002916336,0.190104961395,22.094593048096,,0.162080049515,0.042002916336,3.85878085746355,,0.042002916336,162.330043805193,6.81833524876874,0.286389965004833
,,,,,,,,,,,,
dungani,,,,,,,,,,,,
WG:,gpu delay,serial,gpu speedup,avg power,gpu energy,gpu edp,,,,,,
16x16,0.148574,0.162080049515,1.09090452915719,135.053757,20.065476892518,2.98120816382897,,,,,,
,,,,,,,,,,,,
,,,,,,,,,,,,
-----------,---------,---------,-----------,---------,--------,----------,---------,,,,,
,,,,,,,,,,,,
dataset7,,,,,,,,,,,,
524288,,,,,,,,,,,,
haci3,,,,,,,,,,,pxd,
omp threads,kernel time,total_time, kernel percentage,,serial,kernel time,speedup,,cpu delay,power,cpu energy,cpu edp
1,0.231065988541,0.417698144913,55.318893432617,,0.231065988541,0.231065988541,1,,0.231065988541,77.056249385221,17.8050784374579,4.11414805020126
2,0.152735948563,0.350856781006,43.532279968262,,0.231065988541,0.152735948563,1.51284612898902,,0.152735948563,119.70933005083,18.2839180771548,2.79261157096241
4,0.086243867874,0.283269882202,30.445829391479,,0.231065988541,0.086243867874,2.67921643865256,,0.086243867874,144.144753666382,12.4316010899337,1.07214936186252
8,0.052394151688,0.266451120377,19.66370010376,,0.231065988541,0.052394151688,4.41014848216202,,0.052394151688,159.101774463471,8.33600250506906,0.436757779722137
14,0.046241044998,0.244656801224,18.900371551514,,0.231065988541,0.046241044998,4.99698889916943,,0.046241044998,159.848556162392,7.3915642783705,0.34179365640174
28,0.02578496933,0.222804069519,11.57293510437,,0.231065988541,0.02578496933,8.96126675908674,,0.02578496933,170.013165733237,4.38378426412772,0.11303574279987
42,0.022974014282,0.219738960266,10.455139160156,,0.231065988541,0.022974014282,10.0577106684416,,0.022974014282,160.567149426112,3.68887198413553,0.084748197647999
56,0.043075799942,0.23935008049,17.99698638916,,0.231065988541,0.043075799942,5.36417173568737,,0.043075799942,162.635400960032,7.00564999524129,0.301773977658687
,,,,,,,,,,,,
dungani,,,,,,,,,,,,
WG:,gpu delay,serial,gpu speedup,avg power,gpu energy,gpu edp,,,,,,
16x16,0.169,0.231065988541,1.36725437006509,113.771489,19.227381641,3.249427497329,,,,,,
,,,,,,,,,,,,
,,,,,,,,,,,,
-----------,---------,---------,-----------,---------,--------,----------,---------,,,,,
,,,,,,,,,,,,
dataset8,,,,,,,,,,,,
1048576,,,,,,,,,,,,
haci3,,,,,,,,,,,pxd,
omp threads,kernel time,total_time, kernel percentage,,serial,kernel time,speedup,,cpu delay,power,cpu energy,cpu edp
1,0.48531794548,0.858832120895,56.509059906006,,0.48531794548,0.48531794548,1,,0.48531794548,82.949763280632,40.2570086934087,19.5374487502556
2,0.306694984436,0.705176830292,43.491928100586,,0.48531794548,0.306694984436,1.58241239703506,,0.306694984436,141.537742311864,43.4089156754437,13.3132967174638
4,0.192674875259,0.588559150696,32.736705780029,,0.48531794548,0.192674875259,2.51884395839167,,0.192674875259,110.307614341721,21.253505833409,4.0950165852685
8,0.09753203392,0.492796897888,19.791526794434,,0.48531794548,0.09753203392,4.97598507868788,,0.09753203392,164.081556409531,16.0032079253808,1.56082541820705
14,0.076657056808,0.473065853119,16.204309463501,,0.48531794548,0.076657056808,6.33102764035877,,0.076657056808,165.508511782529,12.6873953899209,0.972578389150721
28,0.064499139786,0.458905935287,14.054981231689,,0.48531794548,0.064499139786,7.52440958267387,,0.064499139786,179.07234354675,11.5500121182284,0.74496584614361
42,0.059262037277,0.454163789749,13.048604011536,,0.48531794548,0.059262037277,8.189356420731,,0.059262037277,161.23536465757,9.5551361907076,0.566256837120526
56,0.07426905632,0.467368125916,15.890911102295,,0.48531794548,0.07426905632,6.53459151801971,,0.07426905632,162.432647040586,12.063719411264,0.895961056383841
,,,,,,,,,,,,
dungani,,,,,,,,,,,,
WG:,gpu delay,serial,gpu speedup,avg power,gpu energy,gpu edp,,,,,,
16x16,0.254543,0.48531794548,1.90662459969435,68.213,17.363141659,4.41966616730684,,,,,,
,,,,faulty,mikrodeigma mallon?,,,,,,,
,,,,39.784713,,,,,,,,
-----------,---------,---------,-----------,---------,--------,----------,---------,,,,,
