omp threads,PACKAGE_ENERGY:PACKAGE0,PACKAGE_ENERGY:PACKAGE1,DRAM_ENERGY:PACKAGE0,DRAM_ENERGY:PACKAGE1,TOTAL_ENERGY,TOTAL_TIME,POWER
1,1431.064819335,1415.67803955,138.202880859,130.041748046,3114.98748779,15.105606756988,206.213993115436
2,1433.652160644,1432.502807617,145.958938598,126.913391113,3139.027297972,15.05693969602,208.477111640538
4,1442.009704589,1442.090637207,142.534683227,123.702270507,3150.33729553,15.07049392804,209.040082599313
6,1424.188659667,1421.369079589,139.920715332,120.455001831,3105.933456419,14.830658807012,209.426533024315
8,1457.507873535,1453.899658203,148.100280761,127.065368652,3186.573181151,15.202589463966,209.607263861456
10,1442.494995117,1442.706848144,142.190048217,123.813537597,3151.205429075,15.057778863003,209.274253377264
12,1442.667846679,1439.348388671,144.551422119,120.337860107,3146.905517576,15.046292076993,209.148240740841
14,1403.214538574,1395.173034667,146.580581665,111.203826904,3056.17198181,14.636367299012,208.806729113468
16,1441.017700195,1438.456298828,143.89024353,124.347732543,3147.711975096,15.11241699598,208.286469062708
18,1466.993957519,1465.111572265,146.540679931,129.158782958,3207.804992673,15.36217110703,208.811955701043
20,1426.239318847,1425.690368652,140.0909729,124.401916503,3116.422576902,14.883094792021,209.393450787712
22,1449.310302734,1447.026123046,148.97756958,128.758789062,3174.072784422,15.198460084037,208.841735733198
24,1468.004943847,1465.407897949,151.173324584,130.91052246,3215.49668884,15.320470154984,209.882376735936
26,1467.917236328,1467.847290039,151.907150268,129.080505371,3216.752182006,15.44043119601,208.333053732159
28,1416.886230468,1416.845031738,138.250320434,119.55241394,3091.53399658,14.853571104992,208.134055758555
30,1431.512939453,1433.090820312,139.363113403,125.859802246,3129.826675414,15.034782156989,208.172399355928
32,1444.392333984,1442.087158203,145.659454345,122.928985595,3155.067932127,15.190579685033,207.698981707431
34,1438.475036621,1436.08203125,139.491592407,119.363800048,3133.412460326,15.005888129002,208.812196478391
36,1441.678955078,1439.948608398,144.137924194,124.614974975,3150.380462645,15.019977839955,209.746012691488
38,1423.616882324,1424.492126464,144.378295898,129.221694946,3121.708999632,14.929032757005,209.103231967067
40,1467.740112304,1466.017944335,147.202148437,116.311203002,3197.271408078,15.332012223022,208.535667828204
42,1418.717895507,1418.89855957,134.812850952,121.678619384,3094.107925413,14.86489240895,208.148692926295
44,1456.557312011,1451.573181152,152.771301269,123.054946899,3183.956741331,15.309487869032,207.972779270531
46,1449.857299804,1450.397460937,147.990188598,129.138366699,3177.383316038,15.245122805994,208.419660272506
48,1433.474304199,1432.816711425,140.999374389,128.711471557,3136.00186157,14.932210090978,210.015921451899
50,1465.443725585,1463.503112792,146.345230102,122.984970092,3198.277038571,15.420171624981,207.408653830399
52,1461.047302246,1462.977661132,143.723266601,129.481170654,3197.229400633,15.369958691008,208.018086769714
54,1430.86755371,1426.010131835,144.91720581,117.451248168,3119.246139523,14.993846692028,208.03508289713
56,1380.618713378,1378.133422851,133.674972534,117.334365844,3009.761474607,14.411034887016,208.851168441669
