omp threads,PACKAGE_ENERGY:PACKAGE0,PACKAGE_ENERGY:PACKAGE1,DRAM_ENERGY:PACKAGE0,DRAM_ENERGY:PACKAGE1,TOTAL_ENERGY,TOTAL_TIME,POWER
1,2176.143981933,2137.889709472,310.343551635,237.182281494,4861.559524534,22.550870974024,215.581896155314
2,2209.721374511,2189.51171875,311.769699096,248.434616088,4959.437408445,22.905900098034,216.51353525595
4,2184.483886718,2159.02947998,298.480789184,238.705154418,4880.6993103,22.435902505997,217.539691527697
6,2185.646301269,2157.175964355,312.344299316,229.47819519,4884.64476013,22.504136100004,217.05542209768
8,2256.725585937,2225.993774414,328.47151184,251.334625244,5062.525497435,23.242471100006,217.813565332721
10,2190.027099609,2166.511047363,299.727981567,233.743026733,4890.009155272,22.485961431987,217.469427316365
12,2194.138427734,2177.181640625,310.921722412,249.852905273,4932.094696044,22.520908672013,219.000696991108
14,2209.541137695,2182.815063476,317.439453125,242.12965393,4951.925308226,22.612067195994,218.99480774156
16,2242.872070312,2234.947082519,293.320632934,254.397460937,5025.537246702,23.274024059006,215.929021726573
18,2210.816711425,2190.028808593,309.490554809,247.008468627,4957.344543454,22.864232271037,216.816575544229
20,2176.313598632,2151.114135742,304.312637329,238.362976074,4870.103347777,22.535134517995,216.111572082609
22,2240.446594238,2218.134033203,319.292861938,253.647140502,5031.520629881,22.907816794992,219.642084398937
24,2178.399536132,2152.650512695,304.00843811,231.390396118,4866.448883055,22.562822686043,215.684400430332
26,2217.360046386,2190.017272949,323.735916137,252.042266845,4983.155502317,22.793709169026,218.619772032918
28,2250.824829101,2221.735290527,315.709411621,239.982559204,5028.252090453,23.29430439201,215.857576420175
30,2219.388366699,2192.769165039,300.442016601,242.865478515,4955.465026854,22.930026250018,216.11248817694
32,2209.627990722,2188.164611816,304.099548339,245.968551635,4947.860702512,22.786309761985,217.141816915291
34,2248.474243164,2228.268371582,313.155532836,248.764617919,5038.662765501,23.31977947196,216.068199596809
36,2214.427124023,2194.277648925,303.062728881,244.465301513,4956.232803342,23.009335083014,215.400957283674
38,2112.891540527,2086.651184082,282.359146118,220.002685546,4701.904556273,21.718752090004,216.490548664487
40,2257.321350097,2238.674560546,312.193328857,252.385620117,5060.574859617,23.511432769999,215.238897140897
42,2230.647399902,2206.928527832,316.970565795,258.002227783,5012.548721312,22.962596405006,218.291896652381
44,2186.78930664,2168.129516601,298.466583251,249.044128417,4902.429534909,22.555547736003,217.349168031232
46,2145.067260742,2120.25402832,296.169998168,233.357742309,4794.849029539,22.084273785003,217.115992865248
48,2175.605773925,2137.788269042,298.096862792,218.637161254,4830.128067013,22.413931610994,215.496689775025
50,2218.021057128,2194.490478515,299.750228881,236.691986083,4948.953750607,22.953401970968,215.608725750829
52,2329.010742187,2296.592407226,327.864654541,252.490219116,5205.95802307,24.146083893022,215.602581608464
54,2245.959472656,2221.005737304,304.772964477,237.817520141,5009.555694578,23.25826681999,215.388177173732
56,2229.713745117,2207.010253906,311.719284057,255.98399353,5004.42727661,23.086150600982,216.771837068283
