omp threads,total_ins,total_cyc,ipc,,ipc(dw)
1,12926707340,4913709591,2.630743026733,,0.011744388601315
2,13157902801,3412350027,1.927982568741,,0.017214130156544
4,13661746987,2365896726,1.443611979485,,0.025778784524279
6,14682807034,2376267690,1.029822707176,,0.027584537703116
8,16265127738,2778849672,0.731648445129,,0.026130300654056
10,18327885356,3379298784,0.542357623577,,0.02421239493686
12,20853426250,4253804326,0.408525019884,,0.021885269224249
14,24025206840,5185900376,0.330913841724,,0.020682114946701
Err:522,28149774783,6334182252,0.277756601572,,0.019839757118518
18,32195815261,6578798413,0.271881937981,,0.02184765501333
20,36887313078,7404400116,0.249090492725,,0.022240222331672
22,42993038460,8623587916,0.226614385843,,0.022256769372596
24,50297395836,9433902984,0.222148224711,,0.023801595805814
26,57248914105,10319656934,0.213367685676,,0.024765892028376
28,67807044429,11997132993,0.201854899526,,0.025231863308421
30,70261120677,11465715185,0.204264387488,,0.027356838387054
32,77832768440,13121380570,0.185367226601,,0.026481033333065
34,83068509487,13666320433,0.178774639964,,0.027135435761798
36,87610702348,13758299770,0.176884546876,,0.028427873607141
38,95243289228,15077664378,0.166232794523,,0.028200206930096
40,97385054861,14684036530,0.165800899267,,0.029607302345828
42,106930351568,16204158144,0.15711773932,,0.029459576775689
44,111578787913,16450787915,0.154149547219,,0.030279375764314
46,116996778511,17042393133,0.149240091443,,0.030647517801519
48,119651571504,17023935936,0.146425664425,,0.031376927366578
50,128400652456,17662725875,0.145391657948,,0.032453495713005
52,135858552048,17967757488,0.145408481359,,0.033755542030022
54,143746206149,19528810929,0.136309728026,,0.032860379309669
56,143519122420,16997304911,0.150779277086,,0.03769482110848
