omp threads,kernel1,kernel2,kernel1+kernel2,kernels_niter
1,728.366563000000,99.857559000000,828.224122000000,828.225430965424
2,365.980755000000,54.627318000000,420.608073000000,420.609678983688
4,182.915411000000,28.063056000000,210.978467000000,210.980381965637
8,92.968845000000,14.485200000000,107.454045000000,107.455954074860
14,53.381747000000,8.810315000000,62.192062000000,62.193487882614
28,27.971196000000,7.622406000000,35.593602000000,35.595031023026
42,28.342233000000,7.928772000000,36.271005000000,36.272649049759
56,24.117462000000,7.583928000000,31.701390000000,31.702906131744
