100000000,30259490,17756519,28425450,59063051,1,47712,1831583,9604,1760352,7095862,5551,1770348
100000000,30374482,17867085,28587769,58904837,0,0,1786709,0,1786708,7147051,218,1786708
100000000,30374478,17867083,28587771,58904833,0,0,1786708,0,1786709,7147051,219,1786709
100000000,30374480,17867084,28587771,58904833,0,0,1786709,0,1786708,7147053,218,1786708
100000000,30374480,17867086,28587773,58904832,0,0,1786708,0,1786709,7147051,218,1786709
100000000,30374481,17867083,28587770,58904835,0,0,1786708,0,1786708,7147053,218,1786708
100000000,30374479,17867085,28587770,58904834,0,0,1786709,0,1786709,7147051,218,1786709
100000000,30374480,17867084,28587774,58904831,0,0,1786708,0,1786708,7147053,218,1786708
100000000,30374480,17867085,28587770,58904836,0,0,1786709,0,1786708,7147051,218,1786708
100000000,30374478,17867085,28587773,58904830,0,0,1786708,0,1786709,7147053,218,1786709
100000000,30374481,17867085,28587769,58904837,0,0,1786709,0,1786708,7147051,218,1786708
100000000,30374478,17867085,28587774,58904829,0,0,1786708,0,1786709,7147053,218,1786709
100000000,30374481,17867082,28587769,58904836,0,0,1786709,0,1786708,7147051,219,1786708
100000000,30374480,17867085,28587772,58904833,0,0,1786708,0,1786709,7147051,218,1786709
100000000,30374481,17867083,28587771,58904834,0,0,1786708,0,1786708,7147053,218,1786708
100000000,30374479,17867086,28587770,58904834,0,0,1786709,0,1786709,7147051,218,1786709
100000000,30374479,17867084,28587774,58904831,0,0,1786708,0,1786708,7147053,218,1786708
100000000,30374481,17867085,28587770,58904836,0,0,1786709,0,1786708,7147051,218,1786708
100000000,30374477,17867085,28587773,58904830,0,0,1786708,0,1786709,7147053,218,1786709
100000000,30374482,17867085,28587769,58904837,0,0,1786709,0,1786708,7147051,218,1786708
100000000,30374478,17867085,28587773,58904830,0,0,1786708,0,1786709,7147053,218,1786709
100000000,30374481,17867081,28587769,58904836,0,0,1786709,0,1786708,7147051,219,1786708
100000000,30374479,17867086,28587772,58904833,0,0,1786708,0,1786709,7147051,218,1786709
100000000,30374482,17867083,28587772,58904833,0,0,1786708,0,1786708,7147053,218,1786708
100000000,30374479,17867085,28587770,58904834,0,0,1786709,0,1786709,7147051,218,1786709
100000000,30374477,17867085,28587774,58904831,0,0,1786708,0,1786708,7147053,218,1786708
100000000,30374482,17867085,28587769,58904837,0,0,1786709,0,1786708,7147051,218,1786708
100000000,30374477,17867085,28587774,58904829,0,0,1786708,0,1786709,7147053,218,1786709
100000000,30374482,17867085,28587769,58904837,0,0,1786709,0,1786708,7147051,218,1786708
100000000,30374479,17867085,28587773,58904830,0,0,1786708,0,1786709,7147053,218,1786709
100000000,30374479,17867084,28587768,58904838,0,0,1786709,0,1786708,7147051,218,1786708
100000000,30374481,17867082,28587772,58904832,0,0,1786708,0,1786709,7147051,219,1786709
100000000,30374481,17867084,28587773,58904832,0,0,1786708,0,1786708,7147053,218,1786708
100000000,30374479,17867085,28587770,58904835,0,0,1786709,0,1786708,7147051,218,1786709
100000000,30374478,17867085,28587773,58904831,0,0,1786708,0,1786709,7147053,218,1786708
100000000,30374482,17867085,28587770,58904836,0,0,1786709,0,1786708,7147051,218,1786708
100000000,30374477,17867085,28587773,58904830,0,0,1786708,0,1786709,7147053,218,1786709
100000000,26096292,14257378,21422408,55131780,0,1327432,2355371,0,1359063,5437268,1321,10975790
100000000,20305253,9372326,11730389,50036902,0,3122818,3124783,0,780119,3123354,3938,23398379
100000000,20305348,9372377,11730294,50036575,0,3122852,3124770,0,780129,3123368,3905,23398721
100000000,20305328,9372370,11730309,50036619,0,3122848,3124771,0,780128,3123363,3908,23398677
100000000,20309219,9373797,11724071,50016817,0,3124016,3124889,0,780735,3124249,1795,23419661
100000000,20306996,9372973,11727634,50028139,0,3123346,3124823,0,780387,3123744,3004,23407667
100000000,20308699,9373614,11724926,50019502,0,3123864,3124865,0,780654,3124128,2080,23416812
100000000,20307592,9373205,11726704,50025183,0,3123529,3124835,0,780479,3123873,2688,23410797
100000000,20306827,9372905,11727777,50028691,0,3123289,3124846,0,780369,3123720,3063,23407100
100000000,20306832,9372908,11727771,50028688,0,3123288,3124849,0,780369,3123721,3062,23407107
100000000,20308044,9373357,11725898,50022676,0,3123660,3124866,0,780554,3123988,2421,23413466
100000000,20307676,9373243,11726639,50024914,0,3123558,3124822,0,780489,3123885,2657,23411069
100000000,20306360,9372739,11728593,50031240,0,3123152,3124818,0,780292,3123603,3335,23404392
100000000,20308620,9373575,11724988,50019798,0,3123832,3124882,0,780643,3124116,2112,23416519
100000000,20307036,9372993,11727592,50028006,0,3123360,3124817,0,780392,3123748,2990,23407811
100000000,20306937,9372953,11727692,50028362,0,3123326,3124832,0,780381,3123732,3028,23407434
100000000,20305416,9372406,11730232,50036350,0,3122876,3124762,0,780137,3123376,3879,23398956
100000000,20306396,9372751,11728567,50031101,0,3123164,3124809,0,780296,3123613,3320,23404530
100000000,20303772,9371806,11732895,50044773,0,3122386,3124705,0,779880,3122994,4780,23390021
100000000,20308700,9373609,11724917,50019533,0,3123860,3124871,0,780652,3124127,2085,23416791
100000000,20308025,9373343,11725926,50022764,0,3123650,3124868,0,780552,3123981,2431,23413374
100000000,20309237,9373808,11724054,50016751,0,3124023,3124887,0,780737,3124253,1787,23419728
100000000,20303503,9371678,11733114,50045669,0,3122287,3124748,0,779848,3122960,4876,23389117
100000000,20307424,9373133,11726848,50025724,0,3123470,3124859,0,780461,3123854,2745,23410239
100000000,20306590,9372844,11728402,50030481,0,3123234,3124783,0,780318,3123635,3253,23405164
100000000,20307488,9373160,11726795,50025502,0,3123494,3124848,0,780468,3123860,2723,23410465
100000000,20306236,9372677,11728699,50031664,0,3123104,3124838,0,780277,3123591,3379,23403961
100000000,20308125,9373399,11725842,50022412,0,3123690,3124852,0,780564,3123997,2391,23413726
100000000,20303548,9371701,11733089,50045508,0,3122304,3124739,0,779854,3122969,4858,23389268
100000000,20303179,9371576,11733811,50047745,0,3122200,3124698,0,779787,3122865,5096,23386890
100000000,20304901,9372220,11731102,50039037,0,3122724,3124734,0,780056,3123255,4166,23396093
100000000,20306032,9372637,11729293,50033310,0,3123066,3124767,0,780230,3123514,3554,23402165
100000000,20309747,9373990,11723195,50014063,0,3124174,3124910,0,780820,3124371,1502,23422586
100000000,20305168,9372293,11730454,50037190,0,3122786,3124797,0,780108,3123343,3970,23398091
100000000,20306861,9372980,11728175,50029527,0,3123336,3124739,0,780350,3123680,3145,23406126
100000000,20307402,9373115,11726882,50025787,0,3123462,3124856,0,780458,3123854,2752,23410165
100000000,20308021,9373342,11725927,50022753,0,3123650,3124869,0,780552,3123987,2428,23413380
100000000,20308044,9373364,11725904,50022693,0,3123660,3124867,0,780554,3123986,2422,23413445
100000000,20306376,9372742,11728574,50031186,0,3123156,3124816,0,780294,3123606,3329,23404453
100000000,20308046,9373364,11725903,50022694,0,3123660,3124867,0,780554,3123986,2422,23413444
100000000,20310258,9374170,11722333,50011382,0,3124324,3124935,0,780901,3124492,1215,23425442
100000000,20305806,9372535,11729487,50034099,0,3122982,3124805,0,780204,3123477,3640,23401363
100000000,20306321,9372717,11728628,50031393,0,3123136,3124825,0,780287,3123597,3352,23404238
100000000,20303713,9371772,11732952,50044978,0,3122360,3124716,0,779872,3122990,4799,23389812
100000000,20309401,9373885,11723901,50016204,0,3124082,3124863,0,780756,3124273,1728,23420299
100000000,20308703,9373604,11724921,50019523,0,3123860,3124868,0,780652,3124128,2084,23416800
100000000,20306462,9372780,11728515,50030904,0,3123188,3124802,0,780304,3123619,3299,23404726
100000000,20303027,9371510,11733940,50048240,0,3122148,3124719,0,779771,3122842,5152,23386381
100000000,20304964,9372258,11731036,50038832,0,3122748,3124729,0,780062,3123263,4142,23396311
100000000,20307510,9373164,11726781,50025449,0,3123500,3124844,0,780470,3123863,2716,23410521
100000000,20308167,9373416,11725787,50022291,0,3123702,3124851,0,780568,3124001,2378,23413869
100000000,20308535,9373535,11725070,50020066,0,3123804,3124891,0,780634,3124105,2142,23416234
100000000,20306178,9372703,11729162,50032843,0,3123116,3124748,0,780247,3123529,3504,23402652
100000000,20309071,9373729,11724187,50017315,0,3123962,3124914,0,780718,3124228,1848,23419162
100000000,20305164,9372292,11730454,50037177,0,3122788,3124796,0,780109,3123339,3969,23398105
100000000,20306956,9372960,11727659,50028271,0,3123332,3124829,0,780383,3123737,3018,23407541
100000000,20302643,9371388,11734706,50050478,0,3122044,3124672,0,779704,3122747,5386,23383966
100000000,20306055,9372650,11729282,50033233,0,3123076,3124762,0,780234,3123513,3546,23402237
100000000,20308084,9373382,11725867,50022550,0,3123674,3124859,0,780559,3123992,2406,23413594
100000000,20308021,9373345,11725914,50022783,0,3123648,3124874,0,780551,3123983,2432,23413364
100000000,20304268,9371978,11732058,50042153,0,3122528,3124732,0,779959,3123115,4500,23392807
100000000,20306054,9372645,11729274,50033225,0,3123074,3124763,0,780234,3123515,3544,23402253
100000000,20304569,9372073,11731379,50040154,0,3122606,3124786,0,780017,3123208,4287,23394957
100000000,20306441,9372774,11728530,50030971,0,3123180,3124805,0,780301,3123617,3305,23404662
100000000,20310240,9374161,11722348,50011445,0,3124318,3124938,0,780898,3124489,1222,23425378
100000000,20308081,9373380,11725862,50022555,0,3123672,3124861,0,780559,3123992,2409,23413593
100000000,20307390,9373111,11726883,50025861,0,3123456,3124865,0,780456,3123846,2761,23410100
100000000,20308618,9373572,11724992,50019816,0,3123832,3124883,0,780643,3124113,2115,23416498
100000000,20301495,9370962,11736510,50056282,0,3121696,3124647,0,779526,3122484,6008,23377832
100000000,20310200,9374143,11722393,50011581,0,3124302,3124943,0,780894,3124484,1236,23425232
100000000,20306977,9372963,11727645,50028234,0,3123338,3124829,0,780385,3123736,3015,23407579
100000000,20305908,9372591,11729404,50033704,0,3123024,3124784,0,780217,3123497,3596,23401753
100000000,20306913,9372939,11727704,50028408,0,3123318,3124833,0,780379,3123730,3033,23407394
100000000,20307495,9373159,11726798,50025525,0,3123492,3124851,0,780467,3123862,2723,23410441
100000000,20310303,9374189,11722297,50011239,0,3124340,3124928,0,780906,3124497,1200,23425587
100000000,20304248,9371973,11732072,50042231,0,3122520,3124738,0,779956,3123114,4507,23392729
100000000,20306482,9372798,11728481,50030826,0,3123196,3124801,0,780306,3123622,3288,23404820
100000000,20305194,9372299,11730435,50037114,0,3122794,3124794,0,780111,3123345,3961,23398171
100000000,20304327,9372005,11732004,50041921,0,3122552,3124720,0,779967,3123124,4476,23393042
100000000,20304800,9372176,11731189,50039389,0,3122688,3124751,0,780043,3123241,4204,23395733
100000000,20309709,9373971,11723232,50014209,0,3124158,3124917,0,780814,3124369,1515,23422437
100000000,20306852,9372911,11727750,50028614,0,3123294,3124846,0,780371,3123722,3056,23407187
100000000,20306972,9372972,11727660,50028217,0,3123342,3124823,0,780386,3123737,3012,23407581
100000000,20303714,9371773,11732947,50044954,0,3122360,3124714,0,779872,3122995,4797,23389837
100000000,20308088,9373380,11725866,50022563,0,3123674,3124861,0,780559,3123992,2407,23413582
100000000,20306974,9372966,11727650,50028215,0,3123338,3124827,0,780385,3123738,3013,23407592
100000000,18845272,8387912,9173533,45554280,0,1860180,1860763,0,19033351,1860527,1684,17867914
100000000,16698025,6956674,5390416,38959787,0,0,0,0,45910663,510,0,9738624
100000000,16697918,6956630,5390988,38959542,0,0,0,0,45910392,510,0,9738568
100000000,16698043,6956687,5390176,38959849,0,0,0,0,45910810,507,0,9738658
100000000,16698058,6956689,5390211,38959870,0,0,0,0,45910763,510,0,9738646
100000000,16697958,6956646,5390763,38959634,0,0,0,0,45910504,510,0,9738589
100000000,16697897,6956621,5391093,38959494,0,0,0,0,45910342,510,0,9738561
100000000,16698071,6956694,5390136,38959898,0,0,0,0,45910804,510,0,9738652
100000000,16698014,6956670,5390445,38959766,0,0,0,0,45910655,510,0,9738624
100000000,16698091,6956707,5389939,38959958,0,0,0,0,45910916,507,0,9738680
100000000,16697985,6956658,5390599,38959699,0,0,0,0,45910582,510,0,9738610
100000000,16698067,6956692,5390148,38959890,0,0,0,0,45910800,510,0,9738652
100000000,16697981,6956656,5390615,38959690,0,0,0,0,45910575,510,0,9738610
100000000,16698011,6956669,5390470,38959758,0,0,0,0,45910643,510,0,9738619
100000000,16697829,6956594,5391492,38959337,0,0,0,0,45910144,510,0,9738517
100000000,16697988,6956664,5390498,38959718,0,0,0,0,45910653,507,0,9738624
100000000,16698206,6956749,5389381,38960212,0,0,0,0,45911168,510,0,9738729
100000000,16697918,6956630,5390965,38959542,0,0,0,0,45910408,510,0,9738575
100000000,16697997,6956664,5390558,38959729,0,0,0,0,45910593,510,0,9738610
100000000,16697851,6956601,5391382,38959381,0,0,0,0,45910201,510,0,9738526
100000000,16697882,6956615,5391162,38959460,0,0,0,0,45910314,510,0,9738554
100000000,16697823,6956597,5391471,38959336,0,0,0,0,45910167,507,0,9738519
100000000,16698020,6956671,5390395,38959779,0,0,0,0,45910685,510,0,9738631
100000000,16697868,6956609,5391277,38959424,0,0,0,0,45910252,510,0,9738537
100000000,16697978,6956655,5390672,38959680,0,0,0,0,45910539,510,0,9738599
100000000,16697879,6956615,5391199,38959454,0,0,0,0,45910290,510,0,9738547
100000000,16697880,6956613,5391198,38959453,0,0,0,0,45910292,510,0,9738547
100000000,16698024,6956679,5390327,38959800,0,0,0,0,45910728,507,0,9738638
100000000,16698043,6956683,5390259,38959838,0,0,0,0,45910748,510,0,9738645
100000000,16698043,6956682,5390295,38959832,0,0,0,0,45910725,510,0,9738638
100000000,16698016,6956671,5390401,38959774,0,0,0,0,45910684,510,0,9738631
100000000,16697894,6956619,5391150,38959482,0,0,0,0,45910310,510,0,9738548
100000000,16697983,6956662,5390540,38959707,0,0,0,0,45910627,507,0,9738619
100000000,16698133,6956720,5389785,38960043,0,0,0,0,45910971,510,0,9738691
100000000,16697847,6956600,5391378,38959377,0,0,0,0,45910207,510,0,9738528
100000000,16697966,6956650,5390717,38959654,0,0,0,0,45910524,510,0,9738595
100000000,16698074,6956695,5390094,38959906,0,0,0,0,45910827,510,0,9738663
100000000,16697990,6956660,5390592,38959710,0,0,0,0,45910582,510,0,9738606
100000000,16697875,6956617,5391170,38959453,0,0,0,0,45910317,507,0,9738553
100000000,16697781,6956574,5391748,38959227,0,0,0,0,45910024,510,0,9738491
100000000,16697867,6956607,5391273,38959420,0,0,0,0,45910257,510,0,9738540
100000000,16697926,6956634,5390937,38959561,0,0,0,0,45910419,510,0,9738573
100000000,16698134,6956720,5389778,38960046,0,0,0,0,45910976,510,0,9738690
100000000,16698062,6956690,5390160,38959878,0,0,0,0,45910796,510,0,9738656
100000000,16697863,6956612,5391216,38959427,0,0,0,0,45910301,507,0,9738549
100000000,16697982,6956657,5390635,38959694,0,0,0,0,45910558,510,0,9738603
100000000,16698016,6956671,5390440,38959769,0,0,0,0,45910657,510,0,9738624
100000000,16698085,6956700,5390037,38959933,0,0,0,0,45910854,510,0,9738666
100000000,19464704,6354537,5047695,40797020,0,172,41,0,43818397,635,77,9227643
100000000,33335098,3333346,3333754,50003866,0,0,0,0,33329400,814,407,6665879
100000000,33335098,3333347,3333754,50003867,0,0,0,0,33329398,814,407,6665880
100000000,33335098,3333347,3333754,50003867,0,0,0,0,33329399,814,407,6665879
100000000,33335098,3333347,3333754,50003867,0,0,0,0,33329398,814,407,6665880
100000000,33335090,3333347,3333753,50003858,0,0,0,0,33329409,812,406,6665882
100000000,33335098,3333347,3333754,50003866,0,0,0,0,33329399,814,407,6665880
100000000,33335097,3333347,3333754,50003866,0,0,0,0,33329399,814,407,6665880
100000000,33335096,3333347,3333754,50003866,0,0,0,0,33329399,814,407,6665880
100000000,33335095,3333347,3333754,50003866,0,0,0,0,33329399,814,407,6665880
100000000,33335098,3333347,3333753,50003866,0,0,0,0,33329400,814,407,6665880
100000000,33335098,3333346,3333754,50003867,0,0,0,0,33329399,814,407,6665879
100000000,33335094,3333347,3333753,50003858,0,0,0,0,33329408,812,406,6665881
100000000,33335098,3333347,3333754,50003867,0,0,0,0,33329398,814,407,6665880
100000000,33335096,3333347,3333754,50003867,0,0,0,0,33329400,814,407,6665880
100000000,33335096,3333347,3333754,50003867,0,0,0,0,33329398,814,407,6665880
100000000,33335098,3333347,3333754,50003865,0,0,0,0,33329400,814,407,6665880
100000000,33335097,3333347,3333754,50003867,0,0,0,0,33329398,814,407,6665880
100000000,33335095,3333347,3333754,50003866,0,0,0,0,33329399,814,407,6665880
100000000,33335092,3333347,3333752,50003856,0,0,0,0,33329410,812,406,6665882
100000000,32813354,3438927,3404428,49665477,0,120,14,0,33719867,986,525,6750897
100000000,16715894,6964120,5289105,39001488,0,0,0,0,45959840,510,0,9749057
100000000,16716074,6964196,5288089,39001907,0,0,0,0,45960331,510,0,9749163
100000000,16716014,6964169,5288470,39001765,0,0,0,0,45960138,510,0,9749117
100000000,16715990,6964160,5288555,39001710,0,0,0,0,45960108,510,0,9749117
100000000,16715882,6964115,5289209,39001458,0,0,0,0,45959781,510,0,9749042
100000000,16716050,6964185,5288248,39001850,0,0,0,0,45960249,510,0,9749143
100000000,16716028,6964176,5288345,39001800,0,0,0,0,45960207,510,0,9749138
100000000,16716190,6964244,5287469,39002176,0,0,0,0,45960623,510,0,9749222
100000000,16716016,6964170,5288428,39001770,0,0,0,0,45960168,510,0,9749124
100000000,16715930,6964136,5288895,39001572,0,0,0,0,45959941,510,0,9749082
100000000,16716194,6964245,5287423,39002187,0,0,0,0,45960651,510,0,9749229
100000000,16716052,6964185,5288237,39001853,0,0,0,0,45960255,510,0,9749145
100000000,16716151,6964227,5287683,39002084,0,0,0,0,45960522,510,0,9749201
100000000,16715863,6964107,5289305,39001413,0,0,0,0,45959739,510,0,9749033
100000000,16716062,6964190,5288176,39001878,0,0,0,0,45960284,510,0,9749152
100000000,16716143,6964225,5287707,39002070,0,0,0,0,45960512,510,0,9749201
100000000,16716005,6964165,5288498,39001742,0,0,0,0,45960133,510,0,9749117
100000000,16715942,6964140,5288827,39001599,0,0,0,0,45959975,510,0,9749089
100000000,16716055,6964187,5288224,39001863,0,0,0,0,45960258,510,0,9749145
100000000,16715812,6964086,5289594,39001294,0,0,0,0,45959597,510,0,9749005
100000000,16715839,6964098,5289412,39001361,0,0,0,0,45959691,510,0,9749026
100000000,16715954,6964145,5288785,39001625,0,0,0,0,45959991,510,0,9749089
100000000,16715898,6964120,5289116,39001493,0,0,0,0,45959827,510,0,9749054
100000000,16716022,6964174,5288412,39001784,0,0,0,0,45960170,510,0,9749124
100000000,16715906,6964125,5289044,39001514,0,0,0,0,45959867,510,0,9749065
100000000,16715774,6964071,5289790,39001207,0,0,0,0,45959506,510,0,9748987
100000000,16715990,6964160,5288578,39001712,0,0,0,0,45960090,510,0,9749110
100000000,16716181,6964239,5287532,39002152,0,0,0,0,45960591,510,0,9749215
100000000,16715988,6964160,5288585,39001707,0,0,0,0,45960088,510,0,9749110
100000000,16716181,6964239,5287494,39002156,0,0,0,0,45960618,510,0,9749222
100000000,16715814,6964087,5289555,39001299,0,0,0,0,45959624,510,0,9749012
100000000,16716326,6964299,5286677,39002493,0,0,0,0,45961014,510,0,9749306
100000000,16716141,6964224,5287742,39002065,0,0,0,0,45960489,510,0,9749194
100000000,16715867,6964107,5289271,39001421,0,0,0,0,45959758,510,0,9749040
100000000,16716014,6964170,5288443,39001767,0,0,0,0,45960156,510,0,9749124
100000000,16716163,6964234,5287614,39002113,0,0,0,0,45960555,510,0,9749208
100000000,16715907,6964125,5289054,39001516,0,0,0,0,45959859,510,0,9749061
100000000,16715908,6964125,5289049,39001516,0,0,0,0,45959864,510,0,9749061
100000000,16715892,6964120,5289130,39001484,0,0,0,0,45959822,510,0,9749054
100000000,16715764,6964065,5289857,39001182,0,0,0,0,45959474,510,0,9748977
100000000,16716058,6964189,5288192,39001870,0,0,0,0,45960276,510,0,9749152
100000000,16716015,6964171,5288442,39001768,0,0,0,0,45960156,510,0,9749124
100000000,16716084,6964199,5288040,39001931,0,0,0,0,45960353,510,0,9749166
100000000,16715887,6964116,5289159,39001467,0,0,0,0,45959813,510,0,9749051
100000000,16716088,6964201,5288017,39001940,0,0,0,0,45960364,510,0,9749169
100000000,16716072,6964195,5288109,39001901,0,0,0,0,45960321,510,0,9749159
100000000,16716137,6964220,5287757,39002053,0,0,0,0,45960486,510,0,9749194
100000000,16716151,6964229,5287679,39002087,0,0,0,0,45960523,510,0,9749201
100000000,30759486,3896323,3635983,48299117,0,108,10,0,35287137,813,345,7143775
100000000,33335097,3333347,3333754,50003866,0,0,0,0,33329399,814,407,6665880
100000000,33335097,3333347,3333754,50003866,0,0,0,0,33329399,814,407,6665880
100000000,33335095,3333347,3333754,50003866,0,0,0,0,33329399,814,407,6665880
100000000,33335097,3333347,3333753,50003866,0,0,0,0,33329400,814,407,6665880
100000000,33335098,3333346,3333754,50003866,0,0,0,0,33329400,814,407,6665879
100000000,33335094,3333347,3333753,50003858,0,0,0,0,33329408,812,406,6665881
100000000,33335098,3333347,3333754,50003867,0,0,0,0,33329398,814,407,6665880
100000000,33335097,3333347,3333754,50003867,0,0,0,0,33329399,814,407,6665880
100000000,33335095,3333347,3333754,50003867,0,0,0,0,33329399,814,407,6665880
100000000,33335098,3333347,3333754,50003866,0,0,0,0,33329399,814,407,6665880
100000000,33335097,3333347,3333754,50003866,0,0,0,0,33329399,814,407,6665880
100000000,33335096,3333347,3333754,50003866,0,0,0,0,33329399,814,407,6665880
100000000,33335091,3333347,3333752,50003857,0,0,0,0,33329409,812,406,6665882
100000000,33335098,3333346,3333754,50003865,0,0,0,0,33329400,814,407,6665880
100000000,33335098,3333347,3333754,50003867,0,0,0,0,33329399,814,407,6665879
100000000,33335098,3333347,3333754,50003868,0,0,0,0,33329398,814,407,6665879
100000000,33335098,3333347,3333754,50003867,0,0,0,0,33329398,814,407,6665880
100000000,33335096,3333347,3333754,50003867,0,0,0,0,33329400,814,407,6665880
100000000,33335096,3333347,3333754,50003867,0,0,0,0,33329398,814,407,6665880
100000000,21546685,5908875,4655412,42229082,0,120,14,0,42329632,777,248,8851419
100000000,16735214,6972171,5179640,39046569,0,0,0,0,46012957,510,0,9760324
100000000,16735221,6972168,5179677,39046570,0,0,0,0,46012923,513,0,9760317
100000000,16735359,6972230,5178827,39046903,0,0,0,0,46013352,510,0,9760408
100000000,16735092,6972119,5180366,39046278,0,0,0,0,46012599,510,0,9760247
100000000,16735239,6972181,5179469,39046627,0,0,0,0,46013049,510,0,9760345
100000000,16735202,6972165,5179711,39046539,0,0,0,0,46012923,510,0,9760317
100000000,16735554,6972307,5177819,39047344,0,0,0,0,46013818,513,0,9760506
100000000,16735337,6972220,5178946,39046852,0,0,0,0,46013298,510,0,9760394
100000000,16735058,6972105,5180521,39046202,0,0,0,0,46012532,510,0,9760235
100000000,16735526,6972301,5177858,39047295,0,0,0,0,46013826,510,0,9760511
100000000,16735418,6972254,5178499,39047041,0,0,0,0,46013509,510,0,9760441
100000000,16735557,6972308,5177789,39047353,0,0,0,0,46013837,513,0,9760508
100000000,16735334,6972220,5178950,39046846,0,0,0,0,46013296,510,0,9760398
100000000,16735394,6972245,5178645,39046984,0,0,0,0,46013436,510,0,9760425
100000000,16735286,6972201,5179200,39046740,0,0,0,0,46013177,510,0,9760373
100000000,16735442,6972264,5178363,39047094,0,0,0,0,46013578,510,0,9760455
100000000,16735079,6972109,5180481,39046239,0,0,0,0,46012532,513,0,9760235
100000000,16735228,6972175,5179570,39046599,0,0,0,0,46012990,510,0,9760331
100000000,16734982,6972074,5180980,39046021,0,0,0,0,46012305,510,0,9760184
100000000,16735010,6972085,5180789,39046092,0,0,0,0,46012403,510,0,9760206
100000000,16735322,6972215,5179027,39046818,0,0,0,0,46013256,510,0,9760389
100000000,16735497,6972283,5178132,39047211,0,0,0,0,46013669,513,0,9760475
100000000,16735171,6972153,5179866,39046470,0,0,0,0,46012851,510,0,9760303
100000000,16735197,6972163,5179727,39046525,0,0,0,0,46012921,510,0,9760317
100000000,16735078,6972113,5180438,39046249,0,0,0,0,46012563,510,0,9760240
100000000,16735105,6972119,5180322,39046297,0,0,0,0,46012616,513,0,9760252
100000000,16735540,6972306,5177793,39047328,0,0,0,0,46013854,510,0,9760515
100000000,16735356,6972229,5178846,39046896,0,0,0,0,46013343,510,0,9760405
100000000,16735261,6972190,5179396,39046675,0,0,0,0,46013071,510,0,9760348
100000000,16735287,6972200,5179235,39046735,0,0,0,0,46013154,510,0,9760366
100000000,16735521,6972293,5177951,39047271,0,0,0,0,46013768,513,0,9760497
100000000,16735286,6972200,5179255,39046733,0,0,0,0,46013141,510,0,9760361
100000000,16735322,6972215,5179036,39046818,0,0,0,0,46013249,510,0,9760387
100000000,16735454,6972270,5178261,39047127,0,0,0,0,46013633,510,0,9760469
100000000,16735166,6972150,5179935,39046453,0,0,0,0,46012811,510,0,9760291
100000000,16735209,6972163,5179745,39046541,0,0,0,0,46012891,513,0,9760310
100000000,16735302,6972206,5179130,39046774,0,0,0,0,46013206,510,0,9760380
100000000,16735234,6972179,5179542,39046611,0,0,0,0,46013005,510,0,9760332
100000000,16734937,6972055,5181224,39045919,0,0,0,0,46012185,510,0,9760162
100000000,16735299,6972206,5179127,39046768,0,0,0,0,46013215,510,0,9760380
100000000,16735365,6972227,5178891,39046901,0,0,0,0,46013301,513,0,9760394
100000000,16735442,6972265,5178357,39047098,0,0,0,0,46013578,510,0,9760457
100000000,16735082,6972116,5180360,39046260,0,0,0,0,46012616,510,0,9760254
100000000,16735454,6972269,5178302,39047125,0,0,0,0,46013604,510,0,9760459
100000000,16735336,6972221,5178941,39046852,0,0,0,0,46013298,510,0,9760399
100000000,16735339,6972217,5179034,39046842,0,0,0,0,46013231,513,0,9760380
100000000,16735406,6972250,5178534,39047015,0,0,0,0,46013500,510,0,9760441
100000000,26350751,4864662,4109567,45394008,0,108,10,0,38666279,732,237,7967931
100000000,33335095,3333347,3333754,50003868,0,0,0,0,33329399,814,407,6665880
100000000,33335097,3333347,3333754,50003866,0,0,0,0,33329399,814,407,6665880
100000000,33335097,3333347,3333754,50003866,0,0,0,0,33329399,814,407,6665880
100000000,33335097,3333347,3333754,50003866,0,0,0,0,33329399,814,407,6665880
100000000,33335090,3333347,3333753,50003856,0,0,0,0,33329409,812,406,6665882
100000000,33335098,3333347,3333753,50003866,0,0,0,0,33329400,814,407,6665880
100000000,33335098,3333346,3333754,50003867,0,0,0,0,33329399,814,407,6665879
100000000,33335098,3333347,3333754,50003867,0,0,0,0,33329399,814,407,6665879
100000000,33335098,3333347,3333754,50003867,0,0,0,0,33329398,814,407,6665880
100000000,33335097,3333347,3333754,50003867,0,0,0,0,33329399,814,407,6665880
100000000,33335095,3333347,3333754,50003867,0,0,0,0,33329399,814,407,6665880
100000000,33335094,3333347,3333753,50003856,0,0,0,0,33329409,812,406,6665882
100000000,33335097,3333347,3333754,50003867,0,0,0,0,33329398,814,407,6665880
100000000,33335095,3333347,3333754,50003866,0,0,0,0,33329399,814,407,6665880
100000000,33335096,3333347,3333753,50003866,0,0,0,0,33329400,814,407,6665880
100000000,33335098,3333346,3333754,50003865,0,0,0,0,33329400,814,407,6665880
100000000,33335098,3333347,3333754,50003867,0,0,0,0,33329399,814,407,6665879
100000000,33335098,3333347,3333754,50003868,0,0,0,0,33329398,814,407,6665879
100000000,33335094,3333347,3333753,50003857,0,0,0,0,33329408,812,406,6665882
100000000,25966940,4945336,4116583,45161074,0,120,14,0,38982138,860,357,8033976
100000000,16754318,6980130,5071398,39091142,0,0,0,0,46065484,510,0,9771466
100000000,16754301,6980118,5071571,39091089,0,0,0,0,46065385,513,0,9771442
100000000,16754498,6980205,5070366,39091562,0,0,0,0,46065988,510,0,9771574
100000000,16754445,6980178,5070740,39091425,0,0,0,0,46065790,513,0,9771532
100000000,16754215,6980087,5071967,39090903,0,0,0,0,46065210,510,0,9771410
100000000,16754610,6980253,5069743,39091824,0,0,0,0,46066287,510,0,9771636
100000000,16754548,6980219,5070147,39091663,0,0,0,0,46066083,513,0,9771594
100000000,16754481,6980199,5070482,39091522,0,0,0,0,46065927,510,0,9771559
100000000,16754470,6980188,5070605,39091482,0,0,0,0,46065855,513,0,9771545
100000000,16754318,6980130,5071356,39091144,0,0,0,0,46065516,510,0,9771474
100000000,16754750,6980311,5068935,39092152,0,0,0,0,46066682,510,0,9771721
100000000,16754709,6980287,5069275,39092038,0,0,0,0,46066496,513,0,9771678
100000000,16754810,6980335,5068582,39092291,0,0,0,0,46066857,510,0,9771760
100000000,16754349,6980138,5071311,39091199,0,0,0,0,46065507,513,0,9771470
100000000,16754370,6980151,5071071,39091266,0,0,0,0,46065650,510,0,9771503
100000000,16754655,6980272,5069479,39091930,0,0,0,0,46066417,510,0,9771664
100000000,16754121,6980042,5072580,39090668,0,0,0,0,46064897,513,0,9771342
100000000,16754300,6980123,5071507,39091098,0,0,0,0,46065431,510,0,9771454
100000000,16754198,6980075,5072120,39090852,0,0,0,0,46065124,513,0,9771391
100000000,16754134,6980053,5072434,39090710,0,0,0,0,46064986,510,0,9771360
100000000,16754222,6980090,5071948,39090917,0,0,0,0,46065217,510,0,9771408
100000000,16754757,6980308,5068952,39092154,0,0,0,0,46066663,513,0,9771718
100000000,16754390,6980160,5070998,39091310,0,0,0,0,46065677,510,0,9771505
100000000,16754541,6980218,5070198,39091649,0,0,0,0,46066053,513,0,9771587
100000000,16754262,6980106,5071694,39091011,0,0,0,0,46065345,510,0,9771440
100000000,16754182,6980074,5072159,39090825,0,0,0,0,46065119,510,0,9771387
100000000,16754649,6980264,5069568,39091905,0,0,0,0,46066360,513,0,9771654
100000000,16754666,6980274,5069424,39091950,0,0,0,0,46066446,510,0,9771670
100000000,16754409,6980163,5070958,39091341,0,0,0,0,46065681,513,0,9771507
100000000,16754435,6980180,5070733,39091417,0,0,0,0,46065805,510,0,9771535
100000000,16754597,6980245,5069815,39091789,0,0,0,0,46066257,510,0,9771629
100000000,16754420,6980168,5070883,39091368,0,0,0,0,46065719,513,0,9771517
100000000,16754667,6980275,5069413,39091955,0,0,0,0,46066451,510,0,9771671
100000000,16754565,6980228,5070048,39091707,0,0,0,0,46066130,513,0,9771602
100000000,16754514,6980211,5070270,39091599,0,0,0,0,46066035,510,0,9771586
100000000,16754254,6980104,5071746,39090993,0,0,0,0,46065320,510,0,9771431
100000000,16754429,6980172,5070847,39091389,0,0,0,0,46065732,513,0,9771519
100000000,16754519,6980214,5070239,39091612,0,0,0,0,46066052,510,0,9771587
100000000,16754048,6980011,5072991,39090497,0,0,0,0,46064699,513,0,9771300
100000000,16754393,6980163,5070970,39091318,0,0,0,0,46065692,510,0,9771510
100000000,16754491,6980201,5070391,39091544,0,0,0,0,46065982,510,0,9771573
100000000,16754656,6980267,5069562,39091920,0,0,0,0,46066355,513,0,9771650
100000000,16754371,6980151,5071103,39091261,0,0,0,0,46065630,510,0,9771496
100000000,16754511,6980206,5070351,39091582,0,0,0,0,46065981,513,0,9771573
100000000,16754528,6980217,5070216,39091629,0,0,0,0,46066058,510,0,9771587
100000000,16754522,6980216,5070194,39091624,0,0,0,0,46066078,510,0,9771594
100000000,16754433,6980172,5070824,39091393,0,0,0,0,46065748,513,0,9771522
100000000,22865238,5636543,4428749,43113883,0,108,10,0,41372741,668,151,8627156
100000000,33335096,3333347,3333754,50003866,0,0,0,0,33329399,814,407,6665880
100000000,33335095,3333347,3333754,50003866,0,0,0,0,33329399,814,407,6665880
100000000,33335098,3333347,3333753,50003866,0,0,0,0,33329400,814,407,6665880
100000000,33335098,3333346,3333754,50003867,0,0,0,0,33329399,814,407,6665879
100000000,33335098,3333347,3333754,50003867,0,0,0,0,33329399,814,407,6665879
100000000,33335098,3333347,3333754,50003867,0,0,0,0,33329398,814,407,6665880
100000000,33335092,3333347,3333753,50003858,0,0,0,0,33329409,812,406,6665882
100000000,33335096,3333347,3333754,50003867,0,0,0,0,33329398,814,407,6665880
100000000,33335098,3333347,3333754,50003865,0,0,0,0,33329400,814,407,6665880
100000000,33335097,3333347,3333754,50003867,0,0,0,0,33329398,814,407,6665880
100000000,33335095,3333347,3333754,50003866,0,0,0,0,33329399,814,407,6665880
100000000,33335096,3333347,3333753,50003866,0,0,0,0,33329400,814,407,6665880
100000000,33335098,3333346,3333754,50003865,0,0,0,0,33329400,814,407,6665880
100000000,33335094,3333347,3333753,50003858,0,0,0,0,33329408,812,406,6665881
100000000,33335098,3333347,3333754,50003867,0,0,0,0,33329399,814,407,6665879
100000000,33335098,3333347,3333754,50003867,0,0,0,0,33329398,814,407,6665880
100000000,33335095,3333347,3333754,50003868,0,0,0,0,33329399,814,407,6665880
100000000,33335097,3333347,3333754,50003866,0,0,0,0,33329399,814,407,6665880
100000000,33335097,3333347,3333754,50003866,0,0,0,0,33329399,814,407,6665880
100000000,29464987,4178680,3726378,47470445,0,120,14,0,36310144,922,442,7382061
100000000,16772231,6987588,4969949,39132925,0,0,0,0,46114708,513,0,9781905
100000000,16772340,6987640,4969269,39133194,0,0,0,0,46115045,510,0,9781982
100000000,16772521,6987709,4968288,39133603,0,0,0,0,46115516,513,0,9782080
100000000,16772160,6987564,4970313,39132770,0,0,0,0,46114537,510,0,9781870
100000000,16772384,6987653,4969085,39133284,0,0,0,0,46115122,513,0,9781996
100000000,16772482,6987693,4968502,39133512,0,0,0,0,46115414,513,0,9782059
100000000,16772406,6987666,4968898,39133349,0,0,0,0,46115226,510,0,9782017
100000000,16772467,6987688,4968612,39133476,0,0,0,0,46115354,513,0,9782045
100000000,16772592,6987745,4967828,39133782,0,0,0,0,46115751,510,0,9782129
100000000,16772559,6987725,4968115,39133690,0,0,0,0,46115588,513,0,9782094
100000000,16772715,6987790,4967198,39134054,0,0,0,0,46116044,513,0,9782191
100000000,16772630,6987760,4967643,39133869,0,0,0,0,46115834,510,0,9782144
100000000,16772757,6987808,4966966,39134154,0,0,0,0,46116152,513,0,9782215
100000000,16772342,6987640,4969245,39133198,0,0,0,0,46115063,510,0,9781984
100000000,16772601,6987743,4967877,39133788,0,0,0,0,46115704,513,0,9782118
100000000,16772474,6987695,4968498,39133507,0,0,0,0,46115426,510,0,9782059
100000000,16772265,6987603,4969750,39133005,0,0,0,0,46114802,513,0,9781930
100000000,16772144,6987553,4970468,39132722,0,0,0,0,46114445,513,0,9781852
100000000,16772127,6987551,4970434,39132701,0,0,0,0,46114492,510,0,9781863
100000000,16772133,6987547,4970524,39132693,0,0,0,0,46114423,513,0,9781847
100000000,16772067,6987526,4970801,39132559,0,0,0,0,46114307,510,0,9781823
100000000,16772864,6987852,4966395,39134399,0,0,0,0,46116424,513,0,9782269
100000000,16772241,6987593,4969901,39132949,0,0,0,0,46114725,513,0,9781912
100000000,16772758,6987814,4966885,39134171,0,0,0,0,46116207,510,0,9782227
100000000,16772603,6987744,4967853,39133793,0,0,0,0,46115719,513,0,9782122
100000000,16771779,6987405,4972446,39131883,0,0,0,0,46113508,510,0,9781653
100000000,16772458,6987683,4968658,39133456,0,0,0,0,46115334,513,0,9782039
100000000,16772735,6987799,4967083,39134103,0,0,0,0,46116096,513,0,9782205
100000000,16772328,6987634,4969346,39133164,0,0,0,0,46115011,510,0,9781969
100000000,16772670,6987773,4967471,39133952,0,0,0,0,46115901,513,0,9782163
100000000,16772264,6987606,4969679,39133015,0,0,0,0,46114856,510,0,9781940
100000000,16772297,6987617,4969603,39133078,0,0,0,0,46114866,513,0,9781940
100000000,16773017,6987921,4965400,39134776,0,0,0,0,46116933,510,0,9782381
100000000,16772335,6987632,4969371,39133166,0,0,0,0,46114984,513,0,9781966
100000000,16772509,6987704,4968383,39133574,0,0,0,0,46115462,513,0,9782068
100000000,16772341,6987640,4969253,39133197,0,0,0,0,46115058,510,0,9781982
100000000,16772274,6987608,4969699,39133028,0,0,0,0,46114827,513,0,9781933
100000000,16772539,6987722,4968151,39133657,0,0,0,0,46115588,510,0,9782094
100000000,16772032,6987505,4971099,39132458,0,0,0,0,46114144,513,0,9781786
100000000,16772421,6987668,4968880,39133369,0,0,0,0,46115221,513,0,9782017
100000000,16772354,6987646,4969151,39133229,0,0,0,0,46115114,510,0,9781996
100000000,16772637,6987757,4967661,39133871,0,0,0,0,46115813,513,0,9782142
100000000,16772330,6987635,4969349,39133168,0,0,0,0,46115004,510,0,9781969
100000000,16772560,6987727,4968074,39133698,0,0,0,0,46115614,513,0,9782101
100000000,16772323,6987631,4969375,39133149,0,0,0,0,46114998,510,0,9781968
100000000,16772361,6987643,4969196,39133231,0,0,0,0,46115074,513,0,9781986
100000000,16772452,6987682,4968709,39133444,0,0,0,0,46115300,513,0,9782034
100000000,20240587,6223038,4623166,41410743,0,108,10,0,43439807,621,87,9129928
100000000,33335098,3333347,3333754,50003867,0,0,0,0,33329399,814,407,6665879
100000000,33335093,3333347,3333753,50003858,0,0,0,0,33329408,812,406,6665882
100000000,33335095,3333347,3333754,50003867,0,0,0,0,33329399,814,407,6665880
100000000,33335098,3333347,3333754,50003866,0,0,0,0,33329399,814,407,6665880
100000000,33335097,3333347,3333754,50003866,0,0,0,0,33329399,814,407,6665880
100000000,33335096,3333347,3333754,50003866,0,0,0,0,33329399,814,407,6665880
100000000,33335095,3333347,3333754,50003866,0,0,0,0,33329399,814,407,6665880
100000000,33335098,3333347,3333753,50003866,0,0,0,0,33329400,814,407,6665880
100000000,33335094,3333346,3333753,50003857,0,0,0,0,33329409,812,406,6665881
100000000,33335098,3333347,3333754,50003868,0,0,0,0,33329398,814,407,6665879
100000000,33335098,3333347,3333754,50003867,0,0,0,0,33329398,814,407,6665880
100000000,33335096,3333347,3333754,50003867,0,0,0,0,33329400,814,407,6665880
100000000,33335096,3333347,3333754,50003867,0,0,0,0,33329398,814,407,6665880
100000000,33335098,3333347,3333754,50003865,0,0,0,0,33329400,814,407,6665880
100000000,33335092,3333347,3333753,50003857,0,0,0,0,33329408,812,406,6665882
100000000,33335095,3333347,3333754,50003866,0,0,0,0,33329399,814,407,6665880
100000000,33335097,3333347,3333753,50003866,0,0,0,0,33329400,814,407,6665880
100000000,33335098,3333346,3333754,50003866,0,0,0,0,33329400,814,407,6665879
100000000,33335098,3333347,3333754,50003867,0,0,0,0,33329398,814,407,6665880
100000000,32102442,3597517,3459393,49203461,0,120,14,0,34278297,971,507,6886761
100000000,16788411,6994330,4878287,39170677,0,0,0,0,46159182,513,0,9791341
100000000,16788571,6994402,4877289,39171065,0,0,0,0,46159689,510,0,9791447
100000000,16788544,6994386,4877513,39170990,0,0,0,0,46159560,513,0,9791424
100000000,16788662,6994435,4876848,39171264,0,0,0,0,46159886,513,0,9791489
100000000,16788576,6994399,4877320,39171065,0,0,0,0,46159657,513,0,9791445
100000000,16788419,6994339,4878169,39170709,0,0,0,0,46159257,510,0,9791355
100000000,16788704,6994453,4876610,39171363,0,0,0,0,46159998,513,0,9791516
100000000,16788824,6994503,4875925,39171644,0,0,0,0,46160332,513,0,9791586
100000000,16788607,6994412,4877150,39171137,0,0,0,0,46159740,513,0,9791460
100000000,16788702,6994456,4876548,39171370,0,0,0,0,46160049,510,0,9791523
100000000,16788772,6994481,4876219,39171521,0,0,0,0,46160189,513,0,9791558
100000000,16788998,6994575,4874939,39172049,0,0,0,0,46160813,513,0,9791686
100000000,16788981,6994569,4875017,39172012,0,0,0,0,46160776,513,0,9791682
100000000,16788463,6994356,4877916,39170812,0,0,0,0,46159379,510,0,9791383
100000000,16788935,6994550,4875303,39171903,0,0,0,0,46160632,513,0,9791649
100000000,16788494,6994364,4877814,39170868,0,0,0,0,46159415,513,0,9791390
100000000,16788489,6994363,4877797,39170863,0,0,0,0,46159431,513,0,9791396
100000000,16788200,6994248,4879401,39170201,0,0,0,0,46158658,510,0,9791230
100000000,16788447,6994345,4878049,39170762,0,0,0,0,46159307,513,0,9791369
100000000,16788134,6994215,4879851,39170034,0,0,0,0,46158422,513,0,9791180
100000000,16788184,6994236,4879548,39170148,0,0,0,0,46158578,513,0,9791213
100000000,16788998,6994580,4874887,39172061,0,0,0,0,46160849,510,0,9791693
100000000,16788501,6994368,4877743,39170890,0,0,0,0,46159453,513,0,9791401
100000000,16789077,6994608,4874482,39172233,0,0,0,0,46161036,513,0,9791736
100000000,16788741,6994468,4876408,39171449,0,0,0,0,46160095,513,0,9791535
100000000,16788170,6994235,4879565,39170130,0,0,0,0,46158582,510,0,9791213
100000000,16788525,6994378,4877638,39170944,0,0,0,0,46159497,513,0,9791408
100000000,16788945,6994553,4875218,39171926,0,0,0,0,46160682,513,0,9791661
100000000,16788472,6994357,4877933,39170824,0,0,0,0,46159352,513,0,9791378
100000000,16788907,6994541,4875378,39171847,0,0,0,0,46160619,510,0,9791646
100000000,16788372,6994314,4878486,39170589,0,0,0,0,46159089,513,0,9791323
100000000,16788702,6994452,4876632,39171357,0,0,0,0,46159988,513,0,9791510
100000000,16788986,6994570,4875002,39172022,0,0,0,0,46160780,513,0,9791683
100000000,16788564,6994399,4877322,39171049,0,0,0,0,46159673,510,0,9791446
100000000,16788741,6994468,4876398,39171449,0,0,0,0,46160103,513,0,9791537
100000000,16788606,6994412,4877159,39171133,0,0,0,0,46159736,513,0,9791459
100000000,16788413,6994332,4878273,39170685,0,0,0,0,46159187,513,0,9791342
100000000,16788761,6994481,4876222,39171507,0,0,0,0,46160203,510,0,9791558
100000000,16788058,6994183,4880240,39169856,0,0,0,0,46158247,513,0,9791144
100000000,16788402,6994328,4878339,39170660,0,0,0,0,46159153,513,0,9791335
100000000,16788881,6994526,4875593,39171776,0,0,0,0,46160497,513,0,9791621
100000000,16788734,6994469,4876366,39171445,0,0,0,0,46160135,510,0,9791544
100000000,16788532,6994381,4877568,39170960,0,0,0,0,46159541,513,0,9791418
100000000,16788651,6994431,4876924,39171240,0,0,0,0,46159842,513,0,9791481
100000000,16788525,6994378,4877623,39170945,0,0,0,0,46159508,513,0,9791411
100000000,16788608,6994417,4877063,39171151,0,0,0,0,46159802,510,0,9791474
100000000,16788740,6994468,4876432,39171446,0,0,0,0,46160079,513,0,9791530
100000000,18385533,6641533,4725912,40217443,0,108,10,0,44922693,589,41,9490080
100000000,33335098,3333347,3333754,50003867,0,0,0,0,33329398,814,407,6665880
100000000,33335090,3333347,3333753,50003858,0,0,0,0,33329409,812,406,6665882
100000000,33335098,3333347,3333754,50003866,0,0,0,0,33329399,814,407,6665880
100000000,33335097,3333347,3333754,50003866,0,0,0,0,33329399,814,407,6665880
100000000,33335096,3333347,3333754,50003866,0,0,0,0,33329399,814,407,6665880
100000000,33335095,3333347,3333754,50003866,0,0,0,0,33329399,814,407,6665880
100000000,33335098,3333347,3333753,50003866,0,0,0,0,33329400,814,407,6665880
100000000,33335098,3333346,3333754,50003867,0,0,0,0,33329399,814,407,6665879
100000000,33335094,3333347,3333753,50003858,0,0,0,0,33329408,812,406,6665881
100000000,33335098,3333347,3333754,50003867,0,0,0,0,33329398,814,407,6665880
100000000,33335096,3333347,3333754,50003867,0,0,0,0,33329400,814,407,6665880
100000000,33335096,3333347,3333754,50003867,0,0,0,0,33329398,814,407,6665880
100000000,33335098,3333347,3333754,50003865,0,0,0,0,33329400,814,407,6665880
100000000,33335097,3333347,3333754,50003867,0,0,0,0,33329398,814,407,6665880
100000000,33335095,3333347,3333754,50003866,0,0,0,0,33329399,814,407,6665880
100000000,33335092,3333347,3333752,50003856,0,0,0,0,33329410,812,406,6665882
100000000,33335098,3333346,3333754,50003866,0,0,0,0,33329400,814,407,6665879
100000000,33335098,3333347,3333754,50003867,0,0,0,0,33329398,814,407,6665880
100000000,33335098,3333347,3333754,50003867,0,0,0,0,33329399,814,407,6665879
100000000,33335098,3333347,3333754,50003867,0,0,0,0,33329398,814,407,6665880
100000000,17437037,6850929,4752625,39624758,0,120,14,0,45697272,705,146,9667358
100000000,16802834,7000345,4796462,39204346,0,0,0,0,46198913,510,0,9799769
100000000,16802865,7000353,4796335,39204406,0,0,0,0,46198963,513,0,9799783
100000000,16802793,7000323,4796793,39204237,0,0,0,0,46198730,513,0,9799727
100000000,16803083,7000444,4795109,39204915,0,0,0,0,46199554,513,0,9799909
100000000,16802527,7000212,4798285,39203615,0,0,0,0,46198010,513,0,9799577
100000000,16803229,7000504,4794297,39205256,0,0,0,0,46199945,513,0,9799989
100000000,16803005,7000412,4795593,39204728,0,0,0,0,46199313,513,0,9799853
100000000,16802819,7000334,4796593,39204301,0,0,0,0,46198838,513,0,9799755
100000000,16803055,7000432,4795306,39204846,0,0,0,0,46199454,513,0,9799881
100000000,16802853,7000348,4796405,39204378,0,0,0,0,46198928,513,0,9799776
100000000,16803410,7000585,4793227,39205689,0,0,0,0,46200476,510,0,9800098
100000000,16803301,7000534,4793876,39205423,0,0,0,0,46200153,513,0,9800035
100000000,16802745,7000303,4797041,39204126,0,0,0,0,46198614,513,0,9799706
100000000,16803034,7000424,4795407,39204800,0,0,0,0,46199406,513,0,9799874
100000000,16802625,7000254,4797720,39203846,0,0,0,0,46198285,513,0,9799636
100000000,16802909,7000371,4796101,39204508,0,0,0,0,46199074,513,0,9799804
100000000,16802442,7000177,4798786,39203416,0,0,0,0,46197761,513,0,9799524
100000000,16802543,7000218,4798172,39203653,0,0,0,0,46198071,513,0,9799591
100000000,16802169,7000063,4800325,39202779,0,0,0,0,46197017,513,0,9799366
100000000,16802366,7000150,4799086,39203256,0,0,0,0,46197645,510,0,9799503
100000000,16803315,7000541,4793827,39205456,0,0,0,0,46200169,513,0,9800035
100000000,16802691,7000280,4797352,39203998,0,0,0,0,46198465,513,0,9799672
100000000,16803177,7000483,4794573,39205133,0,0,0,0,46199817,513,0,9799964
100000000,16802997,7000409,4795610,39204717,0,0,0,0,46199307,513,0,9799853
100000000,16802529,7000212,4798280,39203617,0,0,0,0,46198012,513,0,9799578
100000000,16802655,7000266,4797559,39203916,0,0,0,0,46198360,513,0,9799652
100000000,16803147,7000470,4794747,39205062,0,0,0,0,46199734,513,0,9799944
100000000,16802493,7000198,4798470,39203537,0,0,0,0,46197921,513,0,9799559
100000000,16803129,7000463,4794901,39205019,0,0,0,0,46199644,513,0,9799923
100000000,16802606,7000250,4797731,39203816,0,0,0,0,46198302,510,0,9799641
100000000,16803021,7000419,4795467,39204770,0,0,0,0,46199381,513,0,9799869
100000000,16803117,7000457,4794946,39204992,0,0,0,0,46199629,513,0,9799920
100000000,16802903,7000369,4796140,39204496,0,0,0,0,46199051,513,0,9799800
100000000,16802923,7000378,4796027,39204540,0,0,0,0,46199109,513,0,9799811
100000000,16802764,7000311,4796955,39204169,0,0,0,0,46198650,513,0,9799713
100000000,16802882,7000359,4796261,39204443,0,0,0,0,46198997,513,0,9799786
100000000,16803045,7000428,4795362,39204823,0,0,0,0,46199424,513,0,9799878
100000000,16802246,7000095,4799850,39202964,0,0,0,0,46197254,513,0,9799419
100000000,16802721,7000298,4797109,39204081,0,0,0,0,46198599,510,0,9799701
100000000,16803344,7000553,4793659,39205522,0,0,0,0,46200252,513,0,9800054
100000000,16802974,7000398,4795741,39204659,0,0,0,0,46199248,513,0,9799839
100000000,16802757,7000308,4796952,39204154,0,0,0,0,46198662,513,0,9799719
100000000,16802949,7000389,4795879,39204603,0,0,0,0,46199179,513,0,9799826
100000000,16802831,7000338,4796562,39204325,0,0,0,0,46198845,513,0,9799755
100000000,16802839,7000343,4796500,39204347,0,0,0,0,46198878,513,0,9799762
100000000,16802973,7000397,4795754,39204653,0,0,0,0,46199241,513,0,9799839
100000000,17204599,6911651,4758978,39467525,0,108,10,0,45887162,565,11,9723835
100000000,33335097,3333347,3333753,50003866,0,0,0,0,33329400,814,407,6665880
100000000,33335098,3333346,3333754,50003866,0,0,0,0,33329400,814,407,6665879
100000000,33335098,3333347,3333754,50003867,0,0,0,0,33329398,814,407,6665880
100000000,33335098,3333347,3333754,50003867,0,0,0,0,33329399,814,407,6665879
100000000,33335098,3333347,3333754,50003867,0,0,0,0,33329398,814,407,6665880
100000000,33335090,3333347,3333753,50003858,0,0,0,0,33329409,812,406,6665882
100000000,33335098,3333347,3333754,50003866,0,0,0,0,33329399,814,407,6665880
100000000,33335097,3333347,3333754,50003866,0,0,0,0,33329399,814,407,6665880
100000000,33335096,3333347,3333754,50003866,0,0,0,0,33329399,814,407,6665880
100000000,33335095,3333347,3333754,50003866,0,0,0,0,33329399,814,407,6665880
100000000,33335098,3333347,3333753,50003866,0,0,0,0,33329400,814,407,6665880
100000000,33335098,3333346,3333754,50003867,0,0,0,0,33329399,814,407,6665879
100000000,33335094,3333347,3333753,50003858,0,0,0,0,33329408,812,406,6665881
100000000,33335098,3333347,3333754,50003867,0,0,0,0,33329398,814,407,6665880
100000000,33335096,3333347,3333754,50003867,0,0,0,0,33329400,814,407,6665880
100000000,33335096,3333347,3333754,50003867,0,0,0,0,33329398,814,407,6665880
100000000,33335098,3333347,3333754,50003865,0,0,0,0,33329400,814,407,6665880
100000000,33335097,3333347,3333754,50003867,0,0,0,0,33329398,814,407,6665880
100000000,33335095,3333347,3333754,50003866,0,0,0,0,33329399,814,407,6665880
100000000,33335092,3333347,3333752,50003856,0,0,0,0,33329410,812,406,6665882
100000000,18641604,6590663,4585595,40429832,0,120,14,0,44797823,726,176,9447394
100000000,16815104,7005453,4727017,39232962,0,0,0,0,46232593,513,0,9806915
100000000,16815130,7005463,4726847,39233024,0,0,0,0,46232684,513,0,9806932
100000000,16815093,7005448,4727060,39232937,0,0,0,0,46232578,513,0,9806912
100000000,16815237,7005508,4726259,39233273,0,0,0,0,46232963,513,0,9806992
100000000,16814721,7005293,4729195,39232068,0,0,0,0,46231536,513,0,9806688
100000000,16815405,7005578,4725283,39233666,0,0,0,0,46233443,513,0,9807095
100000000,16815280,7005521,4726092,39233360,0,0,0,0,46233027,516,0,9807005
100000000,16815177,7005483,4726587,39233133,0,0,0,0,46232807,513,0,9806960
100000000,16815213,7005498,4726387,39233217,0,0,0,0,46232903,513,0,9806980
100000000,16814973,7005398,4727754,39232657,0,0,0,0,46232238,513,0,9806838
100000000,16815730,7005714,4723448,39234426,0,0,0,0,46234330,513,0,9807283
100000000,16815428,7005587,4725182,39233716,0,0,0,0,46233487,513,0,9807102
100000000,16815172,7005482,4726629,39233124,0,0,0,0,46232780,513,0,9806954
100000000,16815194,7005489,4726480,39233170,0,0,0,0,46232865,513,0,9806972
100000000,16814720,7005293,4729214,39232066,0,0,0,0,46231522,513,0,9806685
100000000,16815094,7005448,4727055,39232940,0,0,0,0,46232582,513,0,9806910
100000000,16814809,7005329,4728671,39232274,0,0,0,0,46231795,513,0,9806747
100000000,16814730,7005298,4729115,39232093,0,0,0,0,46231580,513,0,9806699
100000000,16814360,7005142,4731247,39231224,0,0,0,0,46230541,513,0,9806475
100000000,16814481,7005193,4730536,39231509,0,0,0,0,46230889,513,0,9806553
100000000,16815621,7005668,4724070,39234169,0,0,0,0,46234029,513,0,9807219
100000000,16814997,7005408,4727605,39232713,0,0,0,0,46232313,513,0,9806856
100000000,16815153,7005473,4726754,39233076,0,0,0,0,46232719,513,0,9806938
100000000,16815255,7005516,4726139,39233317,0,0,0,0,46233024,513,0,9807007
100000000,16814715,7005290,4729196,39232054,0,0,0,0,46231545,513,0,9806692
100000000,16814868,7005354,4728354,39232413,0,0,0,0,46231944,513,0,9806776
100000000,16815282,7005528,4725989,39233378,0,0,0,0,46233099,513,0,9807021
100000000,16814665,7005268,4729507,39231939,0,0,0,0,46231384,513,0,9806657
100000000,16815350,7005557,4725628,39233536,0,0,0,0,46233267,513,0,9807056
100000000,16814916,7005373,4728049,39232523,0,0,0,0,46232104,513,0,9806811
100000000,16815321,7005543,4725777,39233469,0,0,0,0,46233199,513,0,9807042
100000000,16815354,7005558,4725616,39233547,0,0,0,0,46233268,513,0,9807056
100000000,16815240,7005509,4726208,39233283,0,0,0,0,46232996,513,0,9807000
100000000,16815019,7005417,4727521,39232761,0,0,0,0,46232345,513,0,9806860
100000000,16814893,7005364,4728180,39232472,0,0,0,0,46232038,513,0,9806797
100000000,16815007,7005412,4727566,39232734,0,0,0,0,46232330,513,0,9806857
100000000,16815160,7005476,4726698,39233093,0,0,0,0,46232749,513,0,9806947
100000000,16814711,7005290,4729239,39232047,0,0,0,0,46231516,513,0,9806685
100000000,16814833,7005339,4728519,39232332,0,0,0,0,46231874,513,0,9806762
100000000,16815452,7005598,4725034,39233773,0,0,0,0,46233561,513,0,9807119
100000000,16815208,7005496,4726437,39233207,0,0,0,0,46232871,513,0,9806972
100000000,16815073,7005439,4727198,39232887,0,0,0,0,46232507,513,0,9806895
100000000,16815154,7005473,4726715,39233080,0,0,0,0,46232748,513,0,9806944
100000000,16815141,7005468,4726798,39233049,0,0,0,0,46232703,513,0,9806937
100000000,16815045,7005428,4727335,39232825,0,0,0,0,46232443,513,0,9806884
100000000,16815135,7005466,4726833,39233036,0,0,0,0,46232684,513,0,9806934
100000000,16815483,7005610,4724871,39233845,0,0,0,0,46233638,513,0,9807133
100000000,33118662,3381615,3352324,49862793,0,108,10,0,33498032,857,403,6706947
100000000,33335098,3333347,3333754,50003867,0,0,0,0,33329398,814,407,6665880
100000000,33335096,3333347,3333754,50003867,0,0,0,0,33329400,814,407,6665880
100000000,33335096,3333347,3333754,50003867,0,0,0,0,33329398,814,407,6665880
100000000,33335093,3333347,3333753,50003856,0,0,0,0,33329409,812,406,6665882
100000000,33335097,3333347,3333754,50003866,0,0,0,0,33329399,814,407,6665880
100000000,33335095,3333347,3333754,50003866,0,0,0,0,33329399,814,407,6665880
100000000,33335097,3333347,3333753,50003866,0,0,0,0,33329400,814,407,6665880
100000000,33335098,3333346,3333754,50003866,0,0,0,0,33329400,814,407,6665879
100000000,33335098,3333347,3333754,50003867,0,0,0,0,33329398,814,407,6665880
100000000,33335098,3333347,3333754,50003867,0,0,0,0,33329399,814,407,6665879
100000000,33335093,3333347,3333753,50003858,0,0,0,0,33329408,812,406,6665882
100000000,33335095,3333347,3333754,50003867,0,0,0,0,33329399,814,407,6665880
100000000,33335098,3333347,3333754,50003866,0,0,0,0,33329399,814,407,6665880
100000000,33335097,3333347,3333754,50003866,0,0,0,0,33329399,814,407,6665880
100000000,33335096,3333347,3333754,50003866,0,0,0,0,33329399,814,407,6665880
100000000,33335095,3333347,3333754,50003866,0,0,0,0,33329399,814,407,6665880
100000000,33335098,3333347,3333753,50003866,0,0,0,0,33329400,814,407,6665880
100000000,33335094,3333346,3333753,50003857,0,0,0,0,33329409,812,406,6665881
100000000,33335098,3333347,3333754,50003868,0,0,0,0,33329398,814,407,6665879
100000000,19268072,6457146,4482655,40853377,0,120,14,0,44340201,738,191,9335224
100000000,16825634,7009841,4667331,39257535,0,0,0,0,46261561,513,0,9813060
100000000,16825602,7009826,4667511,39257458,0,0,0,0,46261477,513,0,9813041
100000000,16825567,7009812,4667714,39257374,0,0,0,0,46261379,513,0,9813020
100000000,16825668,7009850,4667239,39257600,0,0,0,0,46261583,516,0,9813062
100000000,16825309,7009704,4669189,39256772,0,0,0,0,46260660,513,0,9812866
100000000,16825737,7009883,4666724,39257774,0,0,0,0,46261864,513,0,9813125
100000000,16825917,7009958,4665742,39258193,0,0,0,0,46262331,513,0,9813221
100000000,16825708,7009872,4666927,39257708,0,0,0,0,46261753,513,0,9813099
100000000,16825754,7009889,4666673,39257808,0,0,0,0,46261881,513,0,9813125
100000000,16825423,7009753,4668528,39257043,0,0,0,0,46260980,513,0,9812936
100000000,16826105,7010036,4664657,39258632,0,0,0,0,46262863,513,0,9813335
100000000,16826038,7010003,4665110,39258461,0,0,0,0,46262628,516,0,9813285
100000000,16825617,7009833,4667444,39257493,0,0,0,0,46261505,513,0,9813045
100000000,16825802,7009910,4666385,39257926,0,0,0,0,46262019,513,0,9813157
100000000,16825144,7009636,4670130,39256387,0,0,0,0,46260202,513,0,9812768
100000000,16825542,7009803,4667854,39257321,0,0,0,0,46261306,513,0,9813006
100000000,16825367,7009728,4668859,39256907,0,0,0,0,46260820,513,0,9812901
100000000,16825282,7009693,4669309,39256712,0,0,0,0,46260609,513,0,9812857
100000000,16824841,7009509,4671836,39255682,0,0,0,0,46259374,513,0,9812595
100000000,16824972,7009560,4671154,39255975,0,0,0,0,46259693,516,0,9812662
100000000,16826161,7010059,4664358,39258763,0,0,0,0,46263002,513,0,9813364
100000000,16825509,7009788,4668045,39257242,0,0,0,0,46261215,513,0,9812985
100000000,16825457,7009767,4668342,39257118,0,0,0,0,46261073,513,0,9812954
100000000,16825749,7009888,4666696,39257801,0,0,0,0,46261868,513,0,9813122
100000000,16825293,7009699,4669246,39256739,0,0,0,0,46260637,513,0,9812865
100000000,16825369,7009728,4668854,39256912,0,0,0,0,46260820,513,0,9812901
100000000,16825738,7009884,4666750,39257777,0,0,0,0,46261842,513,0,9813118
100000000,16825151,7009634,4670159,39256391,0,0,0,0,46260173,516,0,9812761
100000000,16825929,7009964,4665639,39258223,0,0,0,0,46262388,513,0,9813237
100000000,16825401,7009742,4668684,39256987,0,0,0,0,46260901,513,0,9812915
100000000,16825842,7009928,4666160,39258019,0,0,0,0,46262127,513,0,9813181
100000000,16825808,7009912,4666348,39257939,0,0,0,0,46262040,513,0,9813160
100000000,16825933,7009964,4665635,39258229,0,0,0,0,46262389,513,0,9813234
100000000,16825569,7009813,4667716,39257381,0,0,0,0,46261374,513,0,9813016
100000000,16825269,7009688,4669389,39256681,0,0,0,0,46260567,513,0,9812850
100000000,16825627,7009832,4667454,39257504,0,0,0,0,46261483,516,0,9813043
100000000,16825686,7009862,4667038,39257653,0,0,0,0,46261707,513,0,9813089
100000000,16825209,7009663,4669754,39256541,0,0,0,0,46260384,513,0,9812808
100000000,16825345,7009719,4668975,39256859,0,0,0,0,46260763,513,0,9812890
100000000,16825913,7009957,4665780,39258181,0,0,0,0,46262310,513,0,9813216
100000000,16825549,7009804,4667796,39257337,0,0,0,0,46261341,513,0,9813013
100000000,16825541,7009802,4667878,39257315,0,0,0,0,46261295,513,0,9812999
100000000,16825605,7009828,4667477,39257465,0,0,0,0,46261497,513,0,9813048
100000000,16825608,7009825,4667580,39257460,0,0,0,0,46261417,516,0,9813027
100000000,16825457,7009765,4668330,39257120,0,0,0,0,46261080,513,0,9812957
100000000,16825565,7009812,4667733,39257370,0,0,0,0,46261368,513,0,9813016
100000000,16826001,7009993,4665254,39258389,0,0,0,0,46262571,513,0,9813273
100000000,32994871,3409238,3361843,49782363,0,108,10,0,33595301,854,400,6730611
100000000,33335098,3333346,3333754,50003865,0,0,0,0,33329400,814,407,6665880
100000000,33335098,3333347,3333754,50003867,0,0,0,0,33329399,814,407,6665879
100000000,33335098,3333347,3333754,50003868,0,0,0,0,33329398,814,407,6665879
100000000,33335094,3333347,3333753,50003857,0,0,0,0,33329408,812,406,6665882
100000000,33335095,3333347,3333754,50003868,0,0,0,0,33329399,814,407,6665880
100000000,33335097,3333347,3333754,50003866,0,0,0,0,33329399,814,407,6665880
100000000,33335097,3333347,3333754,50003866,0,0,0,0,33329399,814,407,6665880
100000000,33335097,3333347,3333754,50003866,0,0,0,0,33329399,814,407,6665880
100000000,33335095,3333347,3333754,50003866,0,0,0,0,33329399,814,407,6665880
100000000,33335093,3333347,3333752,50003856,0,0,0,0,33329410,812,406,6665882
100000000,33335098,3333346,3333754,50003867,0,0,0,0,33329399,814,407,6665879
100000000,33335098,3333347,3333754,50003867,0,0,0,0,33329399,814,407,6665879
100000000,33335098,3333347,3333754,50003867,0,0,0,0,33329398,814,407,6665880
100000000,33335097,3333347,3333754,50003867,0,0,0,0,33329399,814,407,6665880
100000000,33335095,3333347,3333754,50003867,0,0,0,0,33329399,814,407,6665880
100000000,33335098,3333347,3333754,50003866,0,0,0,0,33329399,814,407,6665880
100000000,33335093,3333347,3333753,50003857,0,0,0,0,33329408,812,406,6665882
100000000,33335095,3333347,3333754,50003866,0,0,0,0,33329399,814,407,6665880
100000000,33335096,3333347,3333753,50003866,0,0,0,0,33329400,814,407,6665880
100000000,19399544,6432724,4429609,40951731,0,120,14,0,44264054,741,194,9316041
100000000,16834564,7013561,4616756,39278368,0,0,0,0,46286100,513,0,9818263
100000000,16834561,7013559,4616760,39278360,0,0,0,0,46286104,513,0,9818263
100000000,16834516,7013537,4617047,39278247,0,0,0,0,46285955,516,0,9818235
100000000,16834617,7013582,4616456,39278491,0,0,0,0,46286248,513,0,9818292
100000000,16834221,7013418,4618663,39277569,0,0,0,0,46285183,513,0,9818072
100000000,16834663,7013603,4616196,39278601,0,0,0,0,46286370,513,0,9818320
100000000,16834919,7013708,4614723,39279196,0,0,0,0,46287095,513,0,9818473
100000000,16834669,7013601,4616209,39278604,0,0,0,0,46286352,516,0,9818319
100000000,16834639,7013592,4616304,39278544,0,0,0,0,46286327,513,0,9818312
100000000,16834324,7013460,4618080,39277810,0,0,0,0,46285467,513,0,9818130
100000000,16835094,7013782,4613759,39279603,0,0,0,0,46287554,513,0,9818571
100000000,16834942,7013718,4614561,39279252,0,0,0,0,46287180,513,0,9818494
100000000,16834551,7013551,4616911,39278325,0,0,0,0,46286006,516,0,9818242
100000000,16834738,7013633,4615746,39278775,0,0,0,0,46286598,513,0,9818368
100000000,16834106,7013371,4619314,39277304,0,0,0,0,46284865,513,0,9818004
100000000,16834480,7013525,4617211,39278171,0,0,0,0,46285887,513,0,9818218
100000000,16834316,7013452,4618211,39277779,0,0,0,0,46285382,516,0,9818112
100000000,16834229,7013422,4618645,39277586,0,0,0,0,46285189,513,0,9818067
100000000,16833801,7013243,4621060,39276589,0,0,0,0,46284016,513,0,9817822
100000000,16833945,7013303,4620236,39276925,0,0,0,0,46284418,513,0,9817908
100000000,16835157,7013808,4613360,39279753,0,0,0,0,46287757,513,0,9818617
100000000,16834540,7013546,4616943,39278300,0,0,0,0,46285999,516,0,9818242
100000000,16834470,7013523,4617288,39278151,0,0,0,0,46285840,513,0,9818208
100000000,16834596,7013574,4616527,39278444,0,0,0,0,46286225,513,0,9818291
100000000,16834122,7013377,4619264,39277339,0,0,0,0,46284880,513,0,9818004
100000000,16834368,7013478,4617843,39277910,0,0,0,0,46285582,513,0,9818152
100000000,16834708,7013616,4615978,39278692,0,0,0,0,46286470,516,0,9818344
100000000,16834053,7013348,4619655,39277175,0,0,0,0,46284693,513,0,9817964
100000000,16834893,7013698,4614863,39279138,0,0,0,0,46287027,513,0,9818459
100000000,16834437,7013508,4617437,39278074,0,0,0,0,46285778,513,0,9818198
100000000,16834768,7013641,4615663,39278832,0,0,0,0,46286618,516,0,9818371
100000000,16834737,7013634,4615732,39278775,0,0,0,0,46286606,513,0,9818374
100000000,16834853,7013682,4615119,39279044,0,0,0,0,46286893,513,0,9818431
100000000,16834453,7013513,4617369,39278107,0,0,0,0,46285811,513,0,9818200
100000000,16834173,7013399,4618920,39277462,0,0,0,0,46285059,513,0,9818046
100000000,16834648,7013591,4616334,39278550,0,0,0,0,46286295,516,0,9818305
100000000,16834666,7013603,4616159,39278608,0,0,0,0,46286394,513,0,9818326
100000000,16834208,7013412,4618753,39277536,0,0,0,0,46285138,513,0,9818060
100000000,16834269,7013438,4618431,39277680,0,0,0,0,46285288,513,0,9818088
100000000,16834872,7013685,4615057,39279077,0,0,0,0,46286912,516,0,9818438
100000000,16834321,7013460,4618089,39277802,0,0,0,0,46285466,513,0,9818130
100000000,16834377,7013483,4617792,39277935,0,0,0,0,46285602,513,0,9818158
100000000,16834593,7013572,4616587,39278434,0,0,0,0,46286186,513,0,9818280
100000000,16834526,7013545,4616949,39278282,0,0,0,0,46286010,513,0,9818246
100000000,16834343,7013464,4618052,39277839,0,0,0,0,46285464,516,0,9818129
100000000,16834509,7013538,4617066,39278241,0,0,0,0,46285951,513,0,9818229
100000000,16834845,7013678,4615117,39279025,0,0,0,0,46286907,513,0,9818438
100000000,33290827,3343390,3337441,49975157,0,108,10,0,33363789,859,407,6674261
100000000,33335095,3333347,3333754,50003866,0,0,0,0,33329399,814,407,6665880
100000000,33335096,3333347,3333753,50003866,0,0,0,0,33329400,814,407,6665880
100000000,33335098,3333346,3333754,50003865,0,0,0,0,33329400,814,407,6665880
100000000,33335098,3333347,3333754,50003867,0,0,0,0,33329399,814,407,6665879
100000000,33335098,3333347,3333754,50003868,0,0,0,0,33329398,814,407,6665879
100000000,33335094,3333347,3333753,50003857,0,0,0,0,33329408,812,406,6665882
100000000,33335095,3333347,3333754,50003868,0,0,0,0,33329399,814,407,6665880
100000000,33335097,3333347,3333754,50003866,0,0,0,0,33329399,814,407,6665880
100000000,33335097,3333347,3333754,50003866,0,0,0,0,33329399,814,407,6665880
100000000,33335097,3333347,3333754,50003866,0,0,0,0,33329399,814,407,6665880
100000000,33335095,3333347,3333754,50003866,0,0,0,0,33329399,814,407,6665880
100000000,33335093,3333347,3333752,50003856,0,0,0,0,33329410,812,406,6665882
100000000,33335098,3333346,3333754,50003867,0,0,0,0,33329399,814,407,6665879
100000000,33335098,3333347,3333754,50003867,0,0,0,0,33329399,814,407,6665879
100000000,33335098,3333347,3333754,50003867,0,0,0,0,33329398,814,407,6665880
100000000,33335097,3333347,3333754,50003867,0,0,0,0,33329399,814,407,6665880
100000000,33335095,3333347,3333754,50003867,0,0,0,0,33329399,814,407,6665880
100000000,33335098,3333347,3333754,50003866,0,0,0,0,33329399,814,407,6665880
100000000,33335093,3333347,3333753,50003857,0,0,0,0,33329408,812,406,6665882
100000000,19110451,6501431,4415137,40774948,0,120,14,0,44514430,736,187,9376390
100000000,16842285,7016778,4573006,39296384,0,0,0,0,46307331,513,0,9822766
100000000,16842352,7016802,4572643,39296532,0,0,0,0,46307503,516,0,9822806
100000000,16842357,7016807,4572577,39296550,0,0,0,0,46307547,513,0,9822813
100000000,16842349,7016804,4572631,39296535,0,0,0,0,46307515,513,0,9822806
100000000,16841993,7016657,4574640,39295703,0,0,0,0,46306545,513,0,9822599
100000000,16842412,7016826,4572356,39296666,0,0,0,0,46307631,516,0,9822831
100000000,16842543,7016886,4571502,39296990,0,0,0,0,46308070,513,0,9822925
100000000,16842458,7016850,4572015,39296787,0,0,0,0,46307816,513,0,9822869
100000000,16842401,7016821,4572403,39296641,0,0,0,0,46307613,516,0,9822827
100000000,16842026,7016671,4574427,39295785,0,0,0,0,46306651,513,0,9822624
100000000,16842872,7017021,4569654,39297754,0,0,0,0,46308965,513,0,9823114
100000000,16842492,7016860,4571874,39296853,0,0,0,0,46307874,516,0,9822883
100000000,16842333,7016798,4572726,39296497,0,0,0,0,46307470,513,0,9822794
100000000,16842345,7016804,4572623,39296526,0,0,0,0,46307527,513,0,9822811
100000000,16841848,7016595,4575480,39295364,0,0,0,0,46306131,513,0,9822512
100000000,16842300,7016779,4572959,39296408,0,0,0,0,46307346,516,0,9822771
100000000,16841970,7016647,4574770,39295649,0,0,0,0,46306482,513,0,9822586
100000000,16841889,7016613,4575222,39295461,0,0,0,0,46306263,513,0,9822541
100000000,16841584,7016481,4577054,39294734,0,0,0,0,46305350,516,0,9822346
100000000,16841781,7016568,4575823,39295211,0,0,0,0,46305974,513,0,9822479
100000000,16842861,7017018,4569701,39297729,0,0,0,0,46308945,513,0,9823112
100000000,16842153,7016723,4573748,39296077,0,0,0,0,46306974,513,0,9822688
100000000,16842323,7016789,4572841,39296460,0,0,0,0,46307399,516,0,9822784
100000000,16842374,7016815,4572462,39296593,0,0,0,0,46307606,513,0,9822826
100000000,16841721,7016543,4576174,39295069,0,0,0,0,46305801,513,0,9822443
100000000,16842172,7016726,4573729,39296106,0,0,0,0,46306962,516,0,9822687
100000000,16842396,7016824,4572328,39296647,0,0,0,0,46307671,513,0,9822841
100000000,16841898,7016617,4575175,39295481,0,0,0,0,46306286,513,0,9822545
100000000,16842580,7016896,4571400,39297060,0,0,0,0,46308097,516,0,9822927
100000000,16842241,7016759,4573219,39296282,0,0,0,0,46307236,513,0,9822750
100000000,16842423,7016837,4572215,39296708,0,0,0,0,46307716,513,0,9822848
100000000,16842419,7016833,4572202,39296697,0,0,0,0,46307735,513,0,9822853
100000000,16842580,7016896,4571394,39297060,0,0,0,0,46308101,516,0,9822929
100000000,16842251,7016764,4573163,39296307,0,0,0,0,46307262,513,0,9822755
100000000,16841959,7016642,4574833,39295623,0,0,0,0,46306451,513,0,9822580
100000000,16842484,7016856,4571926,39296836,0,0,0,0,46307846,516,0,9822876
100000000,16842297,7016783,4572907,39296413,0,0,0,0,46307387,513,0,9822780
100000000,16841735,7016549,4576103,39295104,0,0,0,0,46305831,513,0,9822449
100000000,16842180,7016730,4573674,39296125,0,0,0,0,46306991,516,0,9822694
100000000,16842546,7016887,4571493,39296996,0,0,0,0,46308073,513,0,9822925
100000000,16842110,7016704,4573979,39295974,0,0,0,0,46306868,513,0,9822666
100000000,16842057,7016683,4574268,39295853,0,0,0,0,46306726,513,0,9822640
100000000,16842351,7016801,4572697,39296525,0,0,0,0,46307465,516,0,9822797
100000000,16842197,7016742,4573467,39296182,0,0,0,0,46307116,513,0,9822722
100000000,16842074,7016689,4574193,39295889,0,0,0,0,46306760,513,0,9822645
100000000,16842268,7016766,4573143,39296334,0,0,0,0,46307257,516,0,9822750
100000000,17456008,6880030,4525788,39695289,0,108,10,0,45824885,571,17,9705408
100000000,33335093,3333347,3333753,50003857,0,0,0,0,33329408,812,406,6665882
100000000,33335095,3333347,3333754,50003866,0,0,0,0,33329399,814,407,6665880
100000000,33335096,3333347,3333753,50003866,0,0,0,0,33329400,814,407,6665880
100000000,33335098,3333346,3333754,50003865,0,0,0,0,33329400,814,407,6665880
100000000,33335098,3333347,3333754,50003867,0,0,0,0,33329399,814,407,6665879
100000000,33335098,3333347,3333754,50003868,0,0,0,0,33329398,814,407,6665879
100000000,33335098,3333347,3333754,50003867,0,0,0,0,33329398,814,407,6665880
100000000,33335091,3333347,3333753,50003858,0,0,0,0,33329409,812,406,6665882
100000000,33335097,3333347,3333754,50003866,0,0,0,0,33329399,814,407,6665880
100000000,33335097,3333347,3333754,50003866,0,0,0,0,33329399,814,407,6665880
100000000,33335097,3333347,3333754,50003866,0,0,0,0,33329399,814,407,6665880
100000000,33335095,3333347,3333754,50003866,0,0,0,0,33329399,814,407,6665880
100000000,33335097,3333347,3333753,50003866,0,0,0,0,33329400,814,407,6665880
100000000,33335098,3333346,3333754,50003866,0,0,0,0,33329400,814,407,6665879
100000000,33335094,3333347,3333753,50003858,0,0,0,0,33329408,812,406,6665881
100000000,33335098,3333347,3333754,50003867,0,0,0,0,33329398,814,407,6665880
100000000,33335097,3333347,3333754,50003867,0,0,0,0,33329399,814,407,6665880
100000000,33335095,3333347,3333754,50003867,0,0,0,0,33329399,814,407,6665880
100000000,33335098,3333347,3333754,50003866,0,0,0,0,33329399,814,407,6665880
100000000,33335097,3333347,3333754,50003866,0,0,0,0,33329399,814,407,6665880
100000000,18458527,6650752,4431621,40361497,0,120,14,0,45047975,723,170,9505678
100000000,16848893,7019530,4535526,39311804,0,0,0,0,46325529,513,0,9826628
100000000,16849036,7019586,4534799,39312124,0,0,0,0,46325863,516,0,9826698
100000000,16848856,7019516,4535761,39311715,0,0,0,0,46325411,513,0,9826600
100000000,16848968,7019563,4535115,39311979,0,0,0,0,46325723,513,0,9826670
100000000,16848557,7019386,4537492,39311007,0,0,0,0,46324562,516,0,9826423
100000000,16849065,7019603,4534562,39312205,0,0,0,0,46325994,513,0,9826726
100000000,16848993,7019573,4534978,39312037,0,0,0,0,46325791,513,0,9826681
100000000,16849107,7019616,4534412,39312289,0,0,0,0,46326045,516,0,9826738
100000000,16849042,7019593,4534682,39312152,0,0,0,0,46325940,513,0,9826713
100000000,16848534,7019377,4537629,39310954,0,0,0,0,46324491,516,0,9826410
100000000,16849459,7019767,4532342,39313123,0,0,0,0,46327070,513,0,9826952
100000000,16849041,7019593,4534699,39312149,0,0,0,0,46325927,513,0,9826712
100000000,16848868,7019516,4535755,39311732,0,0,0,0,46325398,516,0,9826599
100000000,16848857,7019517,4535740,39311721,0,0,0,0,46325420,513,0,9826606
100000000,16848397,7019324,4538331,39310645,0,0,0,0,46324171,513,0,9826340
100000000,16848848,7019507,4535874,39311685,0,0,0,0,46325338,516,0,9826587
100000000,16848425,7019337,4538185,39310712,0,0,0,0,46324237,513,0,9826353
100000000,16848573,7019398,4537372,39311055,0,0,0,0,46324626,513,0,9826434
100000000,16848100,7019196,4540093,39309942,0,0,0,0,46323296,516,0,9826153
100000000,16848513,7019373,4537701,39310915,0,0,0,0,46324468,513,0,9826403
100000000,16849428,7019754,4532482,39313055,0,0,0,0,46327007,513,0,9826943
100000000,16848701,7019446,4536703,39311341,0,0,0,0,46324938,516,0,9826502
100000000,16848953,7019557,4535194,39311944,0,0,0,0,46325689,513,0,9826660
100000000,16848854,7019511,4535849,39311700,0,0,0,0,46325346,516,0,9826589
100000000,16848347,7019303,4538614,39310529,0,0,0,0,46324034,513,0,9826310
100000000,16848729,7019464,4536451,39311424,0,0,0,0,46325079,513,0,9826533
100000000,16849058,7019595,4534707,39312173,0,0,0,0,46325899,516,0,9826705
100000000,16848695,7019448,4536654,39311341,0,0,0,0,46324983,513,0,9826509
100000000,16849041,7019593,4534687,39312149,0,0,0,0,46325935,513,0,9826716
100000000,16848832,7019501,4535969,39311647,0,0,0,0,46325293,516,0,9826575
100000000,16848861,7019518,4535704,39311730,0,0,0,0,46325442,513,0,9826611
100000000,16848991,7019573,4534998,39312033,0,0,0,0,46325776,513,0,9826680
100000000,16849290,7019691,4533332,39312716,0,0,0,0,46326584,516,0,9826852
100000000,16848847,7019513,4535825,39311697,0,0,0,0,46325372,513,0,9826593
100000000,16848786,7019481,4536206,39311540,0,0,0,0,46325185,516,0,9826553
100000000,16849045,7019594,4534672,39312158,0,0,0,0,46325940,513,0,9826717
100000000,16848832,7019507,4535900,39311661,0,0,0,0,46325340,513,0,9826586
100000000,16848377,7019311,4538504,39310587,0,0,0,0,46324073,516,0,9826320
100000000,16848897,7019534,4535509,39311817,0,0,0,0,46325533,513,0,9826628
100000000,16848986,7019570,4535026,39312019,0,0,0,0,46325765,513,0,9826677
100000000,16848643,7019423,4537035,39311207,0,0,0,0,46324775,516,0,9826467
100000000,16848488,7019361,4537831,39310857,0,0,0,0,46324409,513,0,9826390
100000000,16848866,7019520,4535671,39311740,0,0,0,0,46325462,513,0,9826614
100000000,16848678,7019437,4536833,39311290,0,0,0,0,46324873,516,0,9826488
100000000,16848739,7019467,4536439,39311441,0,0,0,0,46325077,513,0,9826530
100000000,16848748,7019466,4536397,39311454,0,0,0,0,46325096,516,0,9826537
100000000,18427562,6666861,4419486,40336075,0,108,10,0,45081450,587,40,9524054
100000000,33335097,3333347,3333754,50003866,0,0,0,0,33329399,814,407,6665880
100000000,33335097,3333347,3333754,50003866,0,0,0,0,33329399,814,407,6665880
100000000,33335095,3333347,3333754,50003866,0,0,0,0,33329399,814,407,6665880
100000000,33335097,3333347,3333753,50003866,0,0,0,0,33329400,814,407,6665880
100000000,33335098,3333346,3333754,50003866,0,0,0,0,33329400,814,407,6665879
100000000,33335098,3333347,3333754,50003867,0,0,0,0,33329398,814,407,6665880
100000000,33335094,3333347,3333753,50003858,0,0,0,0,33329408,812,406,6665881
100000000,33335097,3333347,3333754,50003867,0,0,0,0,33329399,814,407,6665880
100000000,33335095,3333347,3333754,50003867,0,0,0,0,33329399,814,407,6665880
100000000,33335098,3333347,3333754,50003866,0,0,0,0,33329399,814,407,6665880
100000000,33335097,3333347,3333754,50003866,0,0,0,0,33329399,814,407,6665880
100000000,33335096,3333347,3333754,50003866,0,0,0,0,33329399,814,407,6665880
100000000,33335095,3333347,3333754,50003866,0,0,0,0,33329399,814,407,6665880
100000000,33335094,3333346,3333752,50003856,0,0,0,0,33329410,812,406,6665882
100000000,33335098,3333347,3333754,50003867,0,0,0,0,33329399,814,407,6665879
100000000,33335098,3333347,3333754,50003868,0,0,0,0,33329398,814,407,6665879
100000000,33335098,3333347,3333754,50003867,0,0,0,0,33329398,814,407,6665880
100000000,33335096,3333347,3333754,50003867,0,0,0,0,33329400,814,407,6665880
100000000,33335096,3333347,3333754,50003867,0,0,0,0,33329398,814,407,6665880
100000000,33335098,3333347,3333754,50003865,0,0,0,0,33329400,814,407,6665880
100000000,17498827,6868861,4470754,39748370,0,120,14,0,45824010,705,146,9693943
100000000,16854665,7021937,4502817,39325275,0,0,0,0,46341400,513,0,9829995
100000000,16854728,7021957,4502532,39325404,0,0,0,0,46341527,516,0,9830021
100000000,16854597,7021908,4503221,39325113,0,0,0,0,46341202,513,0,9829951
100000000,16854772,7021976,4502289,39325508,0,0,0,0,46341641,516,0,9830046
100000000,16854258,7021768,4505151,39324324,0,0,0,0,46340260,513,0,9829752
100000000,16854823,7021996,4502017,39325623,0,0,0,0,46341772,516,0,9830072
100000000,16854765,7021978,4502228,39325507,0,0,0,0,46341694,513,0,9830058
100000000,16854964,7022062,4501152,39325972,0,0,0,0,46342200,513,0,9830163
100000000,16854717,7021952,4502590,39325377,0,0,0,0,46341501,516,0,9830016
100000000,16854388,7021822,4504416,39324628,0,0,0,0,46340616,513,0,9829827
59003572,9945040,4143269,2655769,23203744,0,0,0,0,27343598,303,0,5800158
