30259705,6623,11992472,27851,14383777,3772003,25689,33735,9575,2876,1737,1488,1039,381,459,0,0,0,0,0,0
30374482,0,11988675,0,14581912,3803895,0,0,0,0,0,0,0,0,0,0,0,0,0,0,0
30374478,0,11988674,0,14581909,3803895,0,0,0,0,0,0,0,0,0,0,0,0,0,0,0
30374480,0,11988673,0,14581894,3803913,0,0,0,0,0,0,0,0,0,0,0,0,0,0,0
30374480,0,11988673,0,14581918,3803889,0,0,0,0,0,0,0,0,0,0,0,0,0,0,0
30374481,0,11988676,0,14581912,3803893,0,0,0,0,0,0,0,0,0,0,0,0,0,0,0
30374479,0,11988673,0,14581915,3803891,0,0,0,0,0,0,0,0,0,0,0,0,0,0,0
30374480,0,11988672,0,14581895,3803913,0,0,0,0,0,0,0,0,0,0,0,0,0,0,0
30374480,0,11988674,0,14581915,3803891,0,0,0,0,0,0,0,0,0,0,0,0,0,0,0
30374478,0,11988672,0,14581915,3803891,0,0,0,0,0,0,0,0,0,0,0,0,0,0,0
30374481,0,11988675,0,14581915,3803891,0,0,0,0,0,0,0,0,0,0,0,0,0,0,0
30374478,0,11988670,0,14581895,3803913,0,0,0,0,0,0,0,0,0,0,0,0,0,0,0
30374481,0,11988678,0,14581912,3803891,0,0,0,0,0,0,0,0,0,0,0,0,0,0,0
30374480,0,11988673,0,14581916,3803891,0,0,0,0,0,0,0,0,0,0,0,0,0,0,0
30374481,0,11988676,0,14581914,3803891,0,0,0,0,0,0,0,0,0,0,0,0,0,0,0
30374479,0,11988670,0,14581896,3803913,0,0,0,0,0,0,0,0,0,0,0,0,0,0,0
30374479,0,11988674,0,14581914,3803891,0,0,0,0,0,0,0,0,0,0,0,0,0,0,0
30374481,0,11988675,0,14581916,3803890,0,0,0,0,0,0,0,0,0,0,0,0,0,0,0
30374477,0,11988671,0,14581915,3803891,0,0,0,0,0,0,0,0,0,0,0,0,0,0,0
30374482,0,11988673,0,14581897,3803912,0,0,0,0,0,0,0,0,0,0,0,0,0,0,0
30374478,0,11988673,0,14581915,3803890,0,0,0,0,0,0,0,0,0,0,0,0,0,0,0
30374481,0,11988678,0,14581913,3803890,0,0,0,0,0,0,0,0,0,0,0,0,0,0,0
30374479,0,11988673,0,14581916,3803890,0,0,0,0,0,0,0,0,0,0,0,0,0,0,0
30374482,0,11988673,0,14581897,3803912,0,0,0,0,0,0,0,0,0,0,0,0,0,0,0
30374479,0,11988673,0,14581916,3803890,0,0,0,0,0,0,0,0,0,0,0,0,0,0,0
30374477,0,11988672,0,14581914,3803891,0,0,0,0,0,0,0,0,0,0,0,0,0,0,0
30374482,0,11988676,0,14581916,3803890,0,0,0,0,0,0,0,0,0,0,0,0,0,0,0
30374477,0,11988669,0,14581896,3803912,0,0,0,0,0,0,0,0,0,0,0,0,0,0,0
30374482,0,11988675,0,14581913,3803894,0,0,0,0,0,0,0,0,0,0,0,0,0,0,0
30374479,0,11988674,0,14581917,3803888,0,0,0,0,0,0,0,0,0,0,0,0,0,0,0
30374479,0,11988675,0,14581911,3803893,0,0,0,0,0,0,0,0,0,0,0,0,0,0,0
30374481,0,11988673,0,14581897,3803911,0,0,0,0,0,0,0,0,0,0,0,0,0,0,0
30374481,0,11988674,0,14581908,3803899,0,0,0,0,0,0,0,0,0,0,0,0,0,0,0
30374479,0,11988674,0,14581918,3803887,0,0,0,0,0,0,0,0,0,0,0,0,0,0,0
30374478,0,11988672,0,14581912,3803894,0,0,0,0,0,0,0,0,0,0,0,0,0,0,0
30374482,0,11988674,0,14581902,3803906,0,0,0,0,0,0,0,0,0,0,0,0,0,0,0
30374477,0,11988670,0,14581903,3803904,0,0,0,0,0,0,0,0,0,0,0,0,0,0,0
26096292,20976,11210522,664856,9048625,4512572,52478,102403,192529,284119,7046,1,48,1,105,11,0,0,0,0,0
20305253,48742,10158018,1565188,1561399,5469426,124245,238925,451169,670879,16664,92,138,138,138,92,0,0,0,0,0
20305348,48743,10157984,1565201,1561413,5469330,124172,238032,452088,671313,16612,0,46,230,92,92,0,0,0,0,0
20305328,48742,10157999,1565179,1561415,5469650,123752,238565,452095,670782,16554,89,138,184,46,138,0,0,0,0,0
20309219,48789,10157050,1563744,1562002,5473579,123663,238854,452968,672292,16002,0,92,92,0,0,92,0,0,0,0
20306996,48762,10157584,1564583,1561662,5471474,124374,238695,451411,671714,16277,92,51,41,184,92,0,0,0,0,0
20308699,48783,10157174,1563946,1561925,5473766,124179,238888,452975,670511,16230,0,0,46,138,138,0,0,0,0,0
20307592,48769,10157444,1564366,1561756,5471703,123714,239261,453316,670580,16269,0,138,138,46,46,46,0,0,0,0
20306827,48761,10157636,1564550,1561640,5471699,124213,238112,453290,670017,16449,46,138,0,230,0,46,0,0,0,0
20306832,48762,10157646,1564544,1561640,5471220,123974,238525,452504,671138,16419,46,46,138,92,138,0,0,0,0,0
20308044,48775,10157340,1564144,1561826,5472568,123943,238756,452768,671236,16320,46,46,46,92,138,0,0,0,0,0
20307676,48770,10157419,1564381,1561767,5472245,123586,239275,451849,671673,16297,0,46,138,184,46,0,0,0,0,0
20306360,48755,10157753,1564763,1561569,5470917,123537,238889,452208,670981,16482,46,63,75,184,138,0,0,0,0,0
20308620,48782,10157202,1563944,1561910,5473383,123954,239024,452935,671150,16014,0,46,92,138,0,46,0,0,0,0
20307036,48762,10157572,1564585,1561668,5471491,123973,238224,452187,671771,16343,0,92,138,138,92,0,0,0,0,0
20306937,48762,10157612,1564564,1561655,5471343,124129,239154,451203,671657,16444,46,46,184,109,29,0,0,0,0,0
20305416,48743,10157972,1565203,1561424,5469300,123346,238850,452805,670581,16643,43,46,276,92,46,46,0,0,0,0
20306396,48756,10157729,1564781,1561572,5470923,124370,238235,452264,670799,16507,46,92,5,179,138,0,0,0,0,0
20303772,48723,10158372,1565818,1561177,5467321,124055,238630,452023,670069,16894,138,46,184,322,0,0,0,0,0,0
20308700,48783,10157175,1563959,1561921,5473637,124515,238517,452390,671276,16251,0,0,46,138,92,0,0,0,0,0
20308025,48775,10157343,1564154,1561818,5473225,123733,238317,452357,671800,16135,0,27,203,0,92,46,0,0,0,0
20309237,48789,10157041,1563750,1562004,5474170,124169,239609,452173,671078,16178,0,0,0,92,184,0,0,0,0,0
20303503,48721,10158457,1565785,1561136,5467272,123730,237961,452546,670410,16841,184,46,184,184,46,0,0,0,0,0
20307424,48768,10157495,1564338,1561732,5471787,124095,239099,452574,670927,16241,46,0,184,46,49,43,0,0,0,0
20306590,48757,10157684,1564795,1561603,5470945,123442,238467,453245,670627,16519,0,138,138,138,92,0,0,0,0,0
20307488,48769,10157475,1564349,1561741,5472038,123381,238974,453078,671001,16268,46,46,92,138,92,0,0,0,0,0
20306236,48754,10157789,1564755,1561548,5470375,123548,238990,452695,670794,16528,0,138,92,92,138,0,0,0,0,0
20308125,48776,10157309,1564163,1561836,5472825,124100,238842,452774,670769,16363,92,92,92,0,46,46,0,0,0,0
20303548,48722,10158446,1565785,1561143,5467408,123602,238743,452648,669368,16947,46,276,184,138,92,0,0,0,0,0
20303179,48716,10158524,1566026,1561085,5466382,123975,238301,451309,671293,16832,46,184,322,184,0,0,0,0,0,0
20304901,48737,10158088,1565418,1561345,5469061,123868,238758,452795,669595,16684,114,208,46,138,0,46,0,0,0,0
20306032,48750,10157815,1565006,1561519,5470246,123855,238419,452711,670781,16427,135,46,9,221,92,0,0,0,0,0
20309747,48795,10156920,1563533,1562082,5475090,123245,238631,453343,671775,16103,0,46,46,46,0,92,0,0,0,0
20305168,48742,10158040,1565183,1561383,5469285,123587,238263,453561,669978,16548,46,51,271,184,46,0,0,0,0,0
20306861,48758,10157609,1564807,1561649,5471032,123682,238686,452113,671666,16353,92,138,95,89,92,0,0,0,0,0
20307402,48768,10157487,1564356,1561725,5471959,123213,239268,453640,670247,16371,92,0,92,46,138,0,0,0,0,0
20308021,48775,10157339,1564154,1561820,5472782,123613,239239,452889,670799,16289,0,46,138,46,0,92,0,0,0,0
20308044,48776,10157341,1564145,1561825,5472517,124113,238935,453273,670513,16238,0,6,224,46,92,0,0,0,0,0
20306376,48755,10157746,1564768,1561571,5470777,123639,238962,452482,670712,16504,0,138,92,138,46,46,0,0,0,0
20308046,48775,10157340,1564148,1561825,5472440,123858,238987,453017,671093,16195,92,0,46,138,92,0,0,0,0,0
20310258,48801,10156799,1563321,1562160,5475420,123492,239222,452539,672263,16057,0,0,0,0,138,46,0,0,0,0
20305806,48749,10157886,1564982,1561482,5469884,124146,238421,452195,671160,16349,46,92,184,138,92,0,0,0,0,0
20306321,48755,10157763,1564767,1561560,5470838,123678,238945,452795,670134,16626,92,52,178,92,0,46,0,0,0,0
20303713,48723,10158390,1565824,1561163,5467820,124012,238316,450607,671421,16752,90,149,216,230,0,0,0,0,0,0
20309401,48790,10156995,1563764,1562030,5474233,124324,238861,452825,671296,16053,0,92,0,46,0,92,0,0,0,0
20308703,48782,10157167,1563971,1561919,5473163,123343,238825,453821,671198,16238,0,46,46,46,138,0,0,0,0,0
20306462,48756,10157718,1564782,1561584,5471158,124281,239017,451414,670900,16392,46,92,92,138,92,0,0,0,0,0
20303027,48716,10158564,1566005,1561063,5466849,123457,238194,451875,670584,16984,46,230,230,138,92,0,0,0,0,0
20304964,48737,10158082,1565409,1561359,5468800,123826,238867,452402,670224,16663,89,184,184,138,0,0,0,0,0,0
20307510,48769,10157466,1564360,1561742,5471824,124424,238606,451854,671853,16198,0,46,92,184,92,0,0,0,0,0
20308167,48776,10157304,1564165,1561842,5472459,123737,239163,452739,671403,16211,0,138,0,92,138,0,0,0,0,0
20308535,48781,10157218,1563937,1561899,5473434,123444,239145,452696,671589,16070,0,0,138,46,138,0,0,0,0,0
20306178,48751,10157778,1565021,1561539,5470116,124288,238923,452119,670532,16559,0,184,184,92,92,0,0,0,0,0
20309071,48788,10157095,1563726,1561979,5473798,124169,239186,452407,671547,16100,49,89,46,0,0,92,0,0,0,0
20305164,48741,10158047,1565165,1561388,5468769,124158,238855,452035,670917,16491,92,92,138,184,92,0,0,0,0,0
20306956,48763,10157604,1564564,1561658,5471038,124421,239602,451433,670953,16460,46,92,92,184,46,0,0,0,0,0
20302643,48710,10158645,1566235,1561004,5466643,123257,238250,452635,669585,16897,138,322,92,184,46,0,0,0,0,0
20306055,48750,10157810,1565004,1561522,5469727,123952,238676,452105,671531,16426,138,92,138,92,46,46,0,0,0,0
20308084,48775,10157327,1564151,1561831,5472758,123819,238589,453958,670261,16247,0,92,46,92,138,0,0,0,0,0
20308021,48775,10157348,1564149,1561819,5472718,123225,239455,452011,671846,16307,11,35,54,176,92,0,0,0,0,0
20304268,48730,10158258,1565609,1561251,5467876,123866,239050,451858,670294,16832,138,46,184,230,46,0,0,0,0,0
20306054,48750,10157811,1565003,1561522,5469659,124042,239039,451802,671449,16425,46,92,322,46,46,0,0,0,0,0
20304569,48735,10158192,1565372,1561296,5467847,123883,238881,451436,671660,16669,95,135,92,230,46,0,0,0,0,0
20306441,48756,10157723,1564782,1561579,5470654,124408,239647,451194,670662,16530,0,138,138,138,46,46,0,0,0,0
20310240,48801,10156805,1563319,1562158,5475113,123014,239140,453251,672710,15745,0,0,0,46,138,0,0,0,0,0
20308081,48775,10157326,1564151,1561830,5472230,124417,239015,453320,670266,16383,0,46,46,230,46,0,0,0,0,0
20307390,48768,10157508,1564344,1561723,5471790,123416,238901,451756,672503,16313,0,46,138,92,92,0,0,0,0,0
20308618,48782,10157199,1563948,1561910,5473666,123853,238461,452644,671767,16066,0,46,46,92,138,0,0,0,0,0
20301495,48697,10158935,1566633,1560833,5464758,123813,238269,452568,669159,16956,138,322,184,230,0,0,0,0,0,0
20310200,48801,10156815,1563319,1562150,5475569,123907,239236,451604,672618,15997,0,0,46,0,46,92,0,0,0,0
20306977,48762,10157597,1564579,1561658,5470978,123360,238357,453916,670801,16509,46,92,92,92,138,0,0,0,0,0
20305908,48749,10157856,1564977,1561502,5470518,123972,239245,451723,670255,16576,75,51,179,184,46,0,0,0,0,0
20306913,48762,10157615,1564560,1561651,5471361,124007,237987,452564,671591,16358,89,0,184,138,0,46,0,0,0,0
20307495,48769,10157473,1564366,1561737,5472154,123865,238659,452278,671437,16343,3,89,138,92,92,0,0,0,0,0
20310303,48801,10156786,1563328,1562167,5475355,123798,239054,453143,671713,15974,46,0,0,92,0,46,0,0,0,0
20304248,48730,10158264,1565608,1561248,5468068,124003,237615,451789,671611,16622,46,230,92,276,46,0,0,0,0,0
20306482,48756,10157717,1564775,1561588,5470596,124087,239216,451583,671293,16457,46,46,138,92,92,0,0,0,0,0
20305194,48742,10158040,1565181,1561388,5468794,123911,238378,453245,670383,16580,0,92,230,138,92,0,0,0,0,0
20304327,48730,10158234,1565616,1561260,5467982,124164,237747,453738,669335,16831,0,276,276,0,138,0,0,0,0,0
20304800,48736,10158119,1565409,1561330,5468636,124080,238358,452491,670376,16759,92,147,83,46,138,0,0,0,0,0
20309709,48795,10156933,1563534,1562075,5474690,123483,239419,452577,671897,16076,0,0,0,46,184,0,0,0,0,0
20306852,48761,10157634,1564554,1561642,5471640,124420,238495,451937,670843,16512,46,92,92,92,46,46,0,0,0,0
20306972,48762,10157590,1564573,1561659,5471158,124272,238738,451978,671345,16437,46,138,92,46,138,0,0,0,0,0
20303714,48723,10158387,1565823,1561164,5467535,123223,238878,451263,671251,16777,184,184,46,184,92,0,0,0,0,0
20308088,48776,10157329,1564157,1561828,5473090,123729,238524,452221,671824,16242,46,0,92,92,138,0,0,0,0,0
20306974,48762,10157593,1564574,1561661,5471270,124196,238029,453409,670655,16365,46,138,92,46,138,0,0,0,0,0
18845272,171433,6564054,1457627,1526247,8090957,74022,142099,269382,400007,9739,0,27,2252,136628,82,72,144,288,54,158
16698025,347300,1219368,1304450,1478186,11999209,0,0,0,0,0,0,0,340,348640,0,0,0,0,522,10
16697918,347815,1219362,1304443,1478175,11999140,0,0,0,0,0,0,0,340,348632,0,0,0,0,0,11
16698043,347822,1219360,1304453,1478188,11999242,0,0,0,0,0,0,0,338,348633,0,0,0,0,0,7
16698058,347830,1219370,1304453,1478189,11999236,0,0,0,0,0,0,0,340,348640,0,0,0,0,0,0
16697958,347829,1219365,1304446,1478178,11999168,0,0,0,0,0,0,0,340,348632,0,0,0,0,0,0
16697897,347828,1219358,1304440,1478175,11999118,0,0,0,0,0,0,0,340,348638,0,0,0,0,0,0
16698071,347830,1219373,1304455,1478188,11999249,0,0,0,0,0,0,0,340,348636,0,0,0,0,0,0
16698014,347829,1219368,1304450,1478184,11999206,0,0,0,0,0,0,0,340,348637,0,0,0,0,0,0
16698091,347829,1219364,1304457,1478192,11999278,0,0,0,0,0,0,0,338,348633,0,0,0,0,0,0
16697985,347830,1219365,1304448,1478182,11999184,0,0,0,0,0,0,0,340,348636,0,0,0,0,0,0
16698067,347833,1219371,1304453,1478189,11999241,0,0,0,0,0,0,0,340,348640,0,0,0,0,0,0
16697981,347825,1219367,1304448,1478181,11999186,0,0,0,0,0,0,0,340,348634,0,0,0,0,0,0
16698011,347830,1219368,1304450,1478183,11999204,0,0,0,0,0,0,0,340,348636,0,0,0,0,0,0
16697829,347824,1219354,1304436,1478168,11999073,0,0,0,0,0,0,0,340,348634,0,0,0,0,0,0
16697988,347830,1219356,1304448,1478183,11999202,0,0,0,0,0,0,0,338,348631,0,0,0,0,0,0
16698206,347833,1219382,1304465,1478201,11999344,0,0,0,0,0,0,0,340,348641,0,0,0,0,0,0
16697918,347829,1219360,1304442,1478176,11999135,0,0,0,0,0,0,0,340,348636,0,0,0,0,0,0
16697997,347830,1219366,1304449,1478183,11999193,0,0,0,0,0,0,0,340,348636,0,0,0,0,0,0
16697851,347824,1219357,1304437,1478169,11999090,0,0,0,0,0,0,0,340,348634,0,0,0,0,0,0
16697882,347826,1219359,1304440,1478172,11999113,0,0,0,0,0,0,0,340,348632,0,0,0,0,0,0
16697823,347825,1219344,1304436,1478169,11999082,0,0,0,0,0,0,0,338,348629,0,0,0,0,0,0
16698020,347829,1219368,1304450,1478184,11999212,0,0,0,0,0,0,0,340,348637,0,0,0,0,0,0
16697868,347830,1219356,1304438,1478172,11999097,0,0,0,0,0,0,0,340,348635,0,0,0,0,0,0
16697978,347825,1219367,1304448,1478180,11999184,0,0,0,0,0,0,0,340,348634,0,0,0,0,0,0
16697879,347829,1219357,1304439,1478173,11999105,0,0,0,0,0,0,0,340,348636,0,0,0,0,0,0
16697880,347826,1219358,1304440,1478172,11999112,0,0,0,0,0,0,0,340,348632,0,0,0,0,0,0
16698024,347828,1219359,1304451,1478186,11999229,0,0,0,0,0,0,0,338,348633,0,0,0,0,0,0
16698043,347830,1219370,1304452,1478187,11999227,0,0,0,0,0,0,0,340,348637,0,0,0,0,0,0
16698043,347829,1219370,1304453,1478186,11999227,0,0,0,0,0,0,0,340,348638,0,0,0,0,0,0
16698016,347829,1219368,1304450,1478184,11999208,0,0,0,0,0,0,0,340,348637,0,0,0,0,0,0
16697894,347830,1219359,1304440,1478174,11999117,0,0,0,0,0,0,0,340,348634,0,0,0,0,0,0
16697983,347828,1219355,1304448,1478183,11999198,0,0,0,0,0,0,0,338,348633,0,0,0,0,0,0
16698133,347830,1219378,1304460,1478194,11999294,0,0,0,0,0,0,0,340,348637,0,0,0,0,0,0
16697847,347829,1219354,1304436,1478170,11999082,0,0,0,0,0,0,0,340,348636,0,0,0,0,0,0
16697966,347825,1219366,1304447,1478179,11999175,0,0,0,0,0,0,0,340,348634,0,0,0,0,0,0
16698074,347834,1219371,1304454,1478190,11999246,0,0,0,0,0,0,0,340,348639,0,0,0,0,0,0
16697990,347825,1219367,1304449,1478181,11999193,0,0,0,0,0,0,0,340,348635,0,0,0,0,0,0
16697875,347829,1219347,1304439,1478174,11999118,0,0,0,0,0,0,0,338,348630,0,0,0,0,0,0
16697781,347825,1219350,1304432,1478164,11999037,0,0,0,0,0,0,0,340,348633,0,0,0,0,0,0
16697867,347825,1219358,1304438,1478171,11999102,0,0,0,0,0,0,0,340,348633,0,0,0,0,0,0
16697926,347826,1219363,1304444,1478175,11999145,0,0,0,0,0,0,0,340,348633,0,0,0,0,0,0
16698134,347833,1219376,1304459,1478195,11999291,0,0,0,0,0,0,0,340,348640,0,0,0,0,0,0
16698062,347829,1219372,1304454,1478188,11999241,0,0,0,0,0,0,0,340,348638,0,0,0,0,0,0
16697863,347830,1219345,1304438,1478173,11999109,0,0,0,0,0,0,0,338,348630,0,0,0,0,0,0
16697982,347824,1219367,1304448,1478181,11999187,0,0,0,0,0,0,0,340,348635,0,0,0,0,0,0
16698016,347830,1219368,1304451,1478184,11999207,0,0,0,0,0,0,0,340,348636,0,0,0,0,0,0
16698085,347833,1219372,1304454,1478191,11999255,0,0,0,0,0,0,0,340,348640,0,0,0,0,0,0
19464704,359271,1033252,1600087,1786152,14187153,54,5,17,0,0,0,0,2742,357298,0,0,0,0,0,138673
33335098,416616,2849,3125445,3333347,25204956,0,0,0,0,0,0,0,407,418221,0,0,0,0,0,833257
33335098,416618,2849,3125446,3333347,25204951,0,0,0,0,0,0,0,407,418218,0,0,0,0,0,833262
33335098,416618,2849,3125445,3333347,25204950,0,0,0,0,0,0,0,407,418221,0,0,0,0,0,833261
33335098,416618,2849,3125445,3333347,25204950,0,0,0,0,0,0,0,407,418221,0,0,0,0,0,833261
33335090,416617,2842,3125443,3333347,25204958,0,0,0,0,0,0,0,406,418216,0,0,0,0,0,833261
33335098,416617,2849,3125446,3333347,25204954,0,0,0,0,0,0,0,407,418220,0,0,0,0,0,833258
33335097,416618,2849,3125445,3333347,25204950,0,0,0,0,0,0,0,407,418219,0,0,0,0,0,833262
33335096,416618,2849,3125445,3333346,25204949,0,0,0,0,0,0,0,407,418221,0,0,0,0,0,833261
33335095,416616,2849,3125445,3333347,25204953,0,0,0,0,0,0,0,407,418220,0,0,0,0,0,833258
33335098,416618,2849,3125446,3333347,25204951,0,0,0,0,0,0,0,407,418219,0,0,0,0,0,833261
33335098,416618,2849,3125445,3333347,25204950,0,0,0,0,0,0,0,407,418221,0,0,0,0,0,833261
33335094,416618,2842,3125444,3333347,25204959,0,0,0,0,0,0,0,406,418216,0,0,0,0,0,833262
33335098,416618,2849,3125445,3333347,25204950,0,0,0,0,0,0,0,407,418221,0,0,0,0,0,833261
33335096,416616,2849,3125446,3333347,25204954,0,0,0,0,0,0,0,407,418219,0,0,0,0,0,833258
33335096,416618,2849,3125444,3333347,25204950,0,0,0,0,0,0,0,407,418220,0,0,0,0,0,833261
33335098,416618,2849,3125445,3333347,25204950,0,0,0,0,0,0,0,407,418220,0,0,0,0,0,833262
33335097,416617,2849,3125445,3333347,25204952,0,0,0,0,0,0,0,407,418221,0,0,0,0,0,833259
33335095,416617,2849,3125446,3333346,25204951,0,0,0,0,0,0,0,407,418220,0,0,0,0,0,833259
33335092,416618,2842,3125444,3333347,25204958,0,0,0,0,0,0,0,406,418215,0,0,0,0,0,833262
32813354,403094,71218,3067125,3326491,24710935,11,0,0,0,0,0,37,3444,411102,27,0,0,0,0,819870
16715894,0,1220672,1305847,1479767,12012058,0,0,0,0,0,0,0,340,349010,9,72,144,288,576,347111
16716074,0,1220685,1305861,1479783,12012187,0,0,0,0,0,0,0,340,349012,0,0,0,0,0,348206
16716014,0,1220680,1305856,1479778,12012142,0,0,0,0,0,0,0,340,349013,0,0,0,0,0,348205
16715990,0,1220680,1305855,1479775,12012129,0,0,0,0,0,0,0,340,349010,0,0,0,0,0,348201
16715882,0,1220671,1305846,1479766,12012049,0,0,0,0,0,0,0,340,349008,0,0,0,0,0,348202
16716050,0,1220683,1305859,1479781,12012169,0,0,0,0,0,0,0,340,349013,0,0,0,0,0,348205
16716028,0,1220681,1305857,1479779,12012154,0,0,0,0,0,0,0,340,349012,0,0,0,0,0,348205
16716190,0,1220693,1305870,1479794,12012267,0,0,0,0,0,0,0,340,349016,0,0,0,0,0,348210
16716016,0,1220680,1305856,1479778,12012144,0,0,0,0,0,0,0,340,349014,0,0,0,0,0,348204
16715930,0,1220675,1305850,1479770,12012085,0,0,0,0,0,0,0,340,349008,0,0,0,0,0,348202
16716194,0,1220693,1305870,1479794,12012271,0,0,0,0,0,0,0,340,349017,0,0,0,0,0,348209
16716052,0,1220684,1305860,1479780,12012175,0,0,0,0,0,0,0,340,349012,0,0,0,0,0,348201
16716151,0,1220690,1305867,1479791,12012240,0,0,0,0,0,0,0,340,349013,0,0,0,0,0,348210
16715863,0,1220670,1305844,1479764,12012035,0,0,0,0,0,0,0,340,349009,0,0,0,0,0,348201
16716062,0,1220684,1305860,1479782,12012178,0,0,0,0,0,0,0,340,349013,0,0,0,0,0,348205
16716143,0,1220691,1305867,1479789,12012237,0,0,0,0,0,0,0,340,349013,0,0,0,0,0,348206
16716005,0,1220679,1305855,1479777,12012137,0,0,0,0,0,0,0,340,349013,0,0,0,0,0,348204
16715942,0,1220676,1305851,1479771,12012093,0,0,0,0,0,0,0,340,349009,0,0,0,0,0,348202
16716055,0,1220683,1305859,1479782,12012173,0,0,0,0,0,0,0,340,349013,0,0,0,0,0,348205
16715812,0,1220665,1305841,1479760,12011997,0,0,0,0,0,0,0,340,349008,0,0,0,0,0,348201
16715839,0,1220668,1305842,1479762,12012017,0,0,0,0,0,0,0,340,349008,0,0,0,0,0,348202
16715954,0,1220677,1305852,1479772,12012102,0,0,0,0,0,0,0,340,349010,0,0,0,0,0,348201
16715898,0,1220671,1305847,1479768,12012059,0,0,0,0,0,0,0,340,349012,0,0,0,0,0,348201
16716022,0,1220682,1305857,1479778,12012150,0,0,0,0,0,0,0,340,349009,0,0,0,0,0,348206
16715906,0,1220672,1305848,1479768,12012067,0,0,0,0,0,0,0,340,349011,0,0,0,0,0,348200
16715774,0,1220663,1305837,1479757,12011969,0,0,0,0,0,0,0,340,349006,0,0,0,0,0,348202
16715990,0,1220678,1305854,1479776,12012124,0,0,0,0,0,0,0,340,349013,0,0,0,0,0,348205
16716181,0,1220694,1305870,1479792,12012267,0,0,0,0,0,0,0,340,349013,0,0,0,0,0,348205
16715988,0,1220678,1305854,1479776,12012122,0,0,0,0,0,0,0,340,349012,0,0,0,0,0,348206
16716181,0,1220693,1305870,1479792,12012266,0,0,0,0,0,0,0,340,349015,0,0,0,0,0,348205
16715814,0,1220666,1305840,1479760,12012000,0,0,0,0,0,0,0,340,349007,0,0,0,0,0,348201
16716326,0,1220702,1305880,1479806,12012364,0,0,0,0,0,0,0,340,349020,0,0,0,0,0,348214
16716141,0,1220690,1305867,1479789,12012237,0,0,0,0,0,0,0,340,349014,0,0,0,0,0,348204
16715867,0,1220670,1305844,1479765,12012038,0,0,0,0,0,0,0,340,349008,0,0,0,0,0,348202
16716014,0,1220680,1305856,1479778,12012142,0,0,0,0,0,0,0,340,349013,0,0,0,0,0,348205
16716163,0,1220693,1305869,1479790,12012253,0,0,0,0,0,0,0,340,349013,0,0,0,0,0,348205
16715907,0,1220673,1305848,1479768,12012067,0,0,0,0,0,0,0,340,349009,0,0,0,0,0,348202
16715908,0,1220671,1305847,1479769,12012064,0,0,0,0,0,0,0,340,349012,0,0,0,0,0,348205
16715892,0,1220672,1305847,1479767,12012056,0,0,0,0,0,0,0,340,349009,0,0,0,0,0,348201
16715764,0,1220663,1305837,1479755,12011967,0,0,0,0,0,0,0,340,349004,0,0,0,0,0,348198
16716058,0,1220684,1305860,1479782,12012174,0,0,0,0,0,0,0,340,349014,0,0,0,0,0,348204
16716015,0,1220680,1305856,1479778,12012143,0,0,0,0,0,0,0,340,349012,0,0,0,0,0,348206
16716084,0,1220685,1305862,1479784,12012195,0,0,0,0,0,0,0,340,349013,0,0,0,0,0,348205
16715887,0,1220672,1305846,1479766,12012053,0,0,0,0,0,0,0,340,349009,0,0,0,0,0,348201
16716088,0,1220686,1305862,1479784,12012198,0,0,0,0,0,0,0,340,349012,0,0,0,0,0,348206
16716072,0,1220685,1305861,1479783,12012184,0,0,0,0,0,0,0,340,349014,0,0,0,0,0,348205
16716137,0,1220688,1305865,1479790,12012229,0,0,0,0,0,0,0,340,349016,0,0,0,0,0,348209
16716151,0,1220692,1305868,1479789,12012244,0,0,0,0,0,0,0,340,349012,0,0,0,0,0,348206
30759486,0,207574,2836272,3045564,23152505,24,0,0,0,0,0,0,2880,404499,0,0,0,0,0,1110168
33335097,0,2849,3125445,3333347,25204949,0,0,0,0,0,0,0,407,418221,0,0,0,0,0,1249879
33335097,0,2849,3125445,3333347,25204953,0,0,0,0,0,0,0,407,418220,0,0,0,0,0,1249876
33335095,0,2849,3125446,3333346,25204951,0,0,0,0,0,0,0,407,418219,0,0,0,0,0,1249877
33335097,0,2849,3125445,3333347,25204949,0,0,0,0,0,0,0,407,418220,0,0,0,0,0,1249880
33335098,0,2849,3125445,3333347,25204950,0,0,0,0,0,0,0,407,418221,0,0,0,0,0,1249879
33335094,0,2842,3125444,3333347,25204959,0,0,0,0,0,0,0,406,418216,0,0,0,0,0,1249880
33335098,0,2849,3125446,3333347,25204956,0,0,0,0,0,0,0,407,418220,0,0,0,0,0,1249873
33335097,0,2849,3125445,3333347,25204950,0,0,0,0,0,0,0,407,418220,0,0,0,0,0,1249879
33335095,0,2849,3125444,3333347,25204948,0,0,0,0,0,0,0,407,418220,0,0,0,0,0,1249880
33335098,0,2849,3125445,3333347,25204952,0,0,0,0,0,0,0,407,418221,0,0,0,0,0,1249877
33335097,0,2849,3125446,3333347,25204953,0,0,0,0,0,0,0,407,418219,0,0,0,0,0,1249876
33335096,0,2849,3125445,3333346,25204950,0,0,0,0,0,0,0,407,418220,0,0,0,0,0,1249879
33335091,0,2842,3125444,3333347,25204956,0,0,0,0,0,0,0,406,418216,0,0,0,0,0,1249880
33335098,0,2849,3125445,3333347,25204950,0,0,0,0,0,0,0,407,418221,0,0,0,0,0,1249879
33335098,0,2849,3125446,3333347,25204956,0,0,0,0,0,0,0,407,418220,0,0,0,0,0,1249873
33335098,0,2849,3125445,3333347,25204951,0,0,0,0,0,0,0,407,418219,0,0,0,0,0,1249880
33335098,0,2849,3125445,3333347,25204950,0,0,0,0,0,0,0,407,418221,0,0,0,0,0,1249879
33335096,0,2849,3125445,3333347,25204949,0,0,0,0,0,0,0,407,418220,0,0,0,0,0,1249879
33335096,0,2849,3125445,3333347,25204954,0,0,0,0,0,0,0,407,418220,0,0,0,0,0,1249874
21546685,0,898772,1833142,2069584,15766071,11,0,0,0,0,0,37,3397,364401,36,72,144,288,522,610208
16735214,0,1222082,1307357,1481477,12025947,0,0,0,0,0,0,0,340,349410,0,0,0,0,54,348547
16735221,0,1222091,1307356,1481477,12025933,0,0,0,0,0,0,0,342,349417,0,0,0,0,0,348605
16735359,0,1222090,1307367,1481491,12026045,0,0,0,0,0,0,0,340,349416,0,0,0,0,0,348610
16735092,0,1222072,1307347,1481467,12025856,0,0,0,0,0,0,0,340,349409,0,0,0,0,0,348601
16735239,0,1222082,1307358,1481480,12025961,0,0,0,0,0,0,0,340,349413,0,0,0,0,0,348605
16735202,0,1222081,1307356,1481476,12025938,0,0,0,0,0,0,0,340,349409,0,0,0,0,0,348602
16735554,0,1222115,1307382,1481507,12026170,0,0,0,0,0,0,0,342,349425,0,0,0,0,0,348613
16735337,0,1222090,1307366,1481488,12026035,0,0,0,0,0,0,0,340,349413,0,0,0,0,0,348605
16735058,0,1222069,1307344,1481464,12025831,0,0,0,0,0,0,0,340,349408,0,0,0,0,0,348602
16735526,0,1222104,1307381,1481505,12026169,0,0,0,0,0,0,0,340,349419,0,0,0,0,0,348608
16735418,0,1222095,1307372,1481496,12026090,0,0,0,0,0,0,0,340,349415,0,0,0,0,0,348610
16735557,0,1222115,1307382,1481507,12026172,0,0,0,0,0,0,0,342,349426,0,0,0,0,0,348613
16735334,0,1222090,1307366,1481488,12026032,0,0,0,0,0,0,0,340,349413,0,0,0,0,0,348605
16735394,0,1222093,1307370,1481494,12026071,0,0,0,0,0,0,0,340,349416,0,0,0,0,0,348610
16735286,0,1222086,1307362,1481484,12025996,0,0,0,0,0,0,0,340,349413,0,0,0,0,0,348605
16735442,0,1222097,1307374,1481498,12026107,0,0,0,0,0,0,0,340,349417,0,0,0,0,0,348609
16735079,0,1222081,1307345,1481464,12025832,0,0,0,0,0,0,0,342,349413,0,0,0,0,0,348602
16735228,0,1222081,1307357,1481480,12025952,0,0,0,0,0,0,0,340,349413,0,0,0,0,0,348605
16734982,0,1222065,1307339,1481456,12025780,0,0,0,0,0,0,0,340,349405,0,0,0,0,0,348597
16735010,0,1222065,1307340,1481460,12025795,0,0,0,0,0,0,0,340,349408,0,0,0,0,0,348602
16735322,0,1222089,1307365,1481487,12026023,0,0,0,0,0,0,0,340,349414,0,0,0,0,0,348604
16735497,0,1222112,1307378,1481501,12026133,0,0,0,0,0,0,0,342,349421,0,0,0,0,0,348610
16735171,0,1222076,1307352,1481475,12025910,0,0,0,0,0,0,0,340,349413,0,0,0,0,0,348605
16735197,0,1222081,1307356,1481475,12025934,0,0,0,0,0,0,0,340,349410,0,0,0,0,0,348601
16735078,0,1222070,1307346,1481466,12025845,0,0,0,0,0,0,0,340,349409,0,0,0,0,0,348602
16735105,0,1222082,1307346,1481467,12025847,0,0,0,0,0,0,0,342,349416,0,0,0,0,0,348605
16735540,0,1222105,1307382,1481506,12026181,0,0,0,0,0,0,0,340,349417,0,0,0,0,0,348609
16735356,0,1222091,1307368,1481490,12026047,0,0,0,0,0,0,0,340,349414,0,0,0,0,0,348606
16735261,0,1222084,1307360,1481482,12025977,0,0,0,0,0,0,0,340,349413,0,0,0,0,0,348605
16735287,0,1222085,1307361,1481485,12025992,0,0,0,0,0,0,0,340,349415,0,0,0,0,0,348609
16735521,0,1222114,1307380,1481503,12026151,0,0,0,0,0,0,0,342,349421,0,0,0,0,0,348610
16735286,0,1222086,1307362,1481484,12025996,0,0,0,0,0,0,0,340,349414,0,0,0,0,0,348604
16735322,0,1222089,1307365,1481487,12026022,0,0,0,0,0,0,0,340,349413,0,0,0,0,0,348606
16735454,0,1222098,1307375,1481499,12026116,0,0,0,0,0,0,0,340,349417,0,0,0,0,0,348609
16735166,0,1222076,1307352,1481474,12025907,0,0,0,0,0,0,0,340,349412,0,0,0,0,0,348605
16735209,0,1222092,1307356,1481475,12025928,0,0,0,0,0,0,0,342,349414,0,0,0,0,0,348602
16735302,0,1222085,1307362,1481487,12026003,0,0,0,0,0,0,0,340,349416,0,0,0,0,0,348609
16735234,0,1222083,1307359,1481478,12025962,0,0,0,0,0,0,0,340,349411,0,0,0,0,0,348601
16734937,0,1222060,1307334,1481454,12025741,0,0,0,0,0,0,0,340,349406,0,0,0,0,0,348602
16735299,0,1222087,1307363,1481485,12026006,0,0,0,0,0,0,0,340,349413,0,0,0,0,0,348605
16735365,0,1222103,1307368,1481489,12026039,0,0,0,0,0,0,0,342,349419,0,0,0,0,0,348605
16735442,0,1222097,1307374,1481498,12026107,0,0,0,0,0,0,0,340,349416,0,0,0,0,0,348610
16735082,0,1222071,1307346,1481466,12025849,0,0,0,0,0,0,0,340,349410,0,0,0,0,0,348600
16735454,0,1222098,1307375,1481499,12026116,0,0,0,0,0,0,0,340,349416,0,0,0,0,0,348610
16735336,0,1222088,1307365,1481489,12026029,0,0,0,0,0,0,0,340,349416,0,0,0,0,0,348609
16735339,0,1222101,1307366,1481487,12026020,0,0,0,0,0,0,0,342,349418,0,0,0,0,0,348605
16735406,0,1222094,1307371,1481495,12026080,0,0,0,0,0,0,0,340,349416,0,0,0,0,0,348610
26350751,0,531827,2353316,2553660,19652090,24,0,0,0,0,0,0,2862,386273,0,0,0,0,0,870699
33335095,0,2849,3125444,3333347,25204948,0,0,0,0,0,0,0,407,418220,0,0,0,0,0,1249880
33335097,0,2849,3125446,3333347,25204955,0,0,0,0,0,0,0,407,418220,0,0,0,0,0,1249873
33335097,0,2849,3125445,3333347,25204950,0,0,0,0,0,0,0,407,418219,0,0,0,0,0,1249880
33335097,0,2849,3125445,3333347,25204949,0,0,0,0,0,0,0,407,418221,0,0,0,0,0,1249879
33335090,0,2842,3125444,3333346,25204956,0,0,0,0,0,0,0,406,418217,0,0,0,0,0,1249879
33335098,0,2849,3125445,3333347,25204956,0,0,0,0,0,0,0,407,418220,0,0,0,0,0,1249874
33335098,0,2849,3125446,3333347,25204951,0,0,0,0,0,0,0,407,418219,0,0,0,0,0,1249879
33335098,0,2849,3125445,3333347,25204950,0,0,0,0,0,0,0,407,418220,0,0,0,0,0,1249880
33335098,0,2849,3125445,3333347,25204950,0,0,0,0,0,0,0,407,418221,0,0,0,0,0,1249879
33335097,0,2849,3125445,3333347,25204955,0,0,0,0,0,0,0,407,418220,0,0,0,0,0,1249874
33335095,0,2849,3125445,3333347,25204949,0,0,0,0,0,0,0,407,418219,0,0,0,0,0,1249879
33335094,0,2842,3125444,3333347,25204959,0,0,0,0,0,0,0,406,418217,0,0,0,0,0,1249879
33335097,0,2849,3125445,3333347,25204949,0,0,0,0,0,0,0,407,418220,0,0,0,0,0,1249880
33335095,0,2849,3125445,3333346,25204953,0,0,0,0,0,0,0,407,418221,0,0,0,0,0,1249874
33335096,0,2849,3125446,3333347,25204950,0,0,0,0,0,0,0,407,418218,0,0,0,0,0,1249879
33335098,0,2849,3125445,3333347,25204950,0,0,0,0,0,0,0,407,418221,0,0,0,0,0,1249879
33335098,0,2849,3125445,3333347,25204950,0,0,0,0,0,0,0,407,418220,0,0,0,0,0,1249880
33335098,0,2849,3125445,3333347,25204956,0,0,0,0,0,0,0,407,418221,0,0,0,0,0,1249873
33335094,0,2842,3125445,3333347,25204959,0,0,0,0,0,0,0,406,418216,0,0,0,0,0,1249879
25966940,0,575368,2317000,2562507,19274758,11,0,0,0,0,0,37,3416,382868,36,72,144,288,117,850318
16754318,0,1223472,1308848,1483170,12039671,0,0,0,0,0,0,0,340,349811,0,0,0,0,459,348547
16754301,0,1223483,1308847,1483166,12039648,0,0,0,0,0,0,0,342,349814,0,0,0,0,0,349001
16754498,0,1223487,1308863,1483185,12039805,0,0,0,0,0,0,0,340,349813,0,0,0,0,0,349005
16754445,0,1223493,1308858,1483179,12039750,0,0,0,0,0,0,0,342,349817,0,0,0,0,0,349006
16754215,0,1223467,1308841,1483160,12039604,0,0,0,0,0,0,0,340,349807,0,0,0,0,0,348996
16754610,0,1223495,1308872,1483195,12039883,0,0,0,0,0,0,0,340,349815,0,0,0,0,0,349010
16754548,0,1223500,1308866,1483188,12039825,0,0,0,0,0,0,0,342,349821,0,0,0,0,0,349006
16754481,0,1223485,1308861,1483184,12039789,0,0,0,0,0,0,0,340,349814,0,0,0,0,0,349008
16754470,0,1223495,1308860,1483181,12039769,0,0,0,0,0,0,0,342,349817,0,0,0,0,0,349006
16754318,0,1223474,1308849,1483169,12039676,0,0,0,0,0,0,0,340,349809,0,0,0,0,0,349001
16754750,0,1223506,1308883,1483207,12039987,0,0,0,0,0,0,0,340,349818,0,0,0,0,0,349009
16754709,0,1223512,1308879,1483202,12039942,0,0,0,0,0,0,0,342,349822,0,0,0,0,0,349010
16754810,0,1223510,1308887,1483213,12040027,0,0,0,0,0,0,0,340,349820,0,0,0,0,0,349013
16754349,0,1223485,1308850,1483171,12039679,0,0,0,0,0,0,0,342,349817,0,0,0,0,0,349005
16754370,0,1223478,1308853,1483174,12039715,0,0,0,0,0,0,0,340,349808,0,0,0,0,0,349002
16754655,0,1223498,1308875,1483199,12039917,0,0,0,0,0,0,0,340,349817,0,0,0,0,0,349009
16754121,0,1223470,1308833,1483150,12039519,0,0,0,0,0,0,0,342,349810,0,0,0,0,0,348997
16754300,0,1223473,1308848,1483167,12039661,0,0,0,0,0,0,0,340,349809,0,0,0,0,0,349002
16754198,0,1223474,1308838,1483158,12039572,0,0,0,0,0,0,0,342,349813,0,0,0,0,0,349001
16754134,0,1223461,1308835,1483152,12039544,0,0,0,0,0,0,0,340,349805,0,0,0,0,0,348997
16754222,0,1223466,1308841,1483161,12039604,0,0,0,0,0,0,0,340,349808,0,0,0,0,0,349002
16754757,0,1223517,1308883,1483206,12039977,0,0,0,0,0,0,0,342,349823,0,0,0,0,0,349009
16754390,0,1223478,1308854,1483176,12039725,0,0,0,0,0,0,0,340,349812,0,0,0,0,0,349005
16754541,0,1223501,1308866,1483187,12039821,0,0,0,0,0,0,0,342,349818,0,0,0,0,0,349006
16754262,0,1223469,1308844,1483165,12039634,0,0,0,0,0,0,0,340,349810,0,0,0,0,0,349000
16754182,0,1223463,1308838,1483157,12039575,0,0,0,0,0,0,0,340,349807,0,0,0,0,0,349002
16754649,0,1223508,1308874,1483197,12039897,0,0,0,0,0,0,0,342,349821,0,0,0,0,0,349010
16754666,0,1223499,1308876,1483200,12039925,0,0,0,0,0,0,0,340,349818,0,0,0,0,0,349008
16754409,0,1223492,1308856,1483175,12039728,0,0,0,0,0,0,0,342,349814,0,0,0,0,0,349002
16754435,0,1223482,1308858,1483180,12039757,0,0,0,0,0,0,0,340,349813,0,0,0,0,0,349005
16754597,0,1223493,1308870,1483194,12039875,0,0,0,0,0,0,0,340,349816,0,0,0,0,0,349009
16754420,0,1223491,1308856,1483177,12039731,0,0,0,0,0,0,0,342,349817,0,0,0,0,0,349006
16754667,0,1223499,1308876,1483200,12039926,0,0,0,0,0,0,0,340,349817,0,0,0,0,0,349009
16754565,0,1223503,1308868,1483189,12039840,0,0,0,0,0,0,0,342,349818,0,0,0,0,0,349005
16754514,0,1223488,1308864,1483187,12039816,0,0,0,0,0,0,0,340,349813,0,0,0,0,0,349006
16754254,0,1223469,1308844,1483163,12039628,0,0,0,0,0,0,0,340,349809,0,0,0,0,0,349001
16754429,0,1223492,1308857,1483178,12039738,0,0,0,0,0,0,0,342,349817,0,0,0,0,0,349005
16754519,0,1223488,1308864,1483187,12039821,0,0,0,0,0,0,0,340,349813,0,0,0,0,0,349006
16754048,0,1223464,1308827,1483144,12039465,0,0,0,0,0,0,0,342,349809,0,0,0,0,0,348997
16754393,0,1223478,1308855,1483176,12039726,0,0,0,0,0,0,0,340,349813,0,0,0,0,0,349005
16754491,0,1223487,1308862,1483184,12039800,0,0,0,0,0,0,0,340,349812,0,0,0,0,0,349006
16754656,0,1223508,1308875,1483198,12039902,0,0,0,0,0,0,0,342,349822,0,0,0,0,0,349009
16754371,0,1223479,1308853,1483173,12039715,0,0,0,0,0,0,0,340,349810,0,0,0,0,0,349001
16754511,0,1223497,1308863,1483185,12039797,0,0,0,0,0,0,0,342,349820,0,0,0,0,0,349007
16754528,0,1223489,1308865,1483188,12039825,0,0,0,0,0,0,0,340,349814,0,0,0,0,0,349007
16754522,0,1223489,1308865,1483187,12039823,0,0,0,0,0,0,0,340,349812,0,0,0,0,0,349006
16754433,0,1223492,1308857,1483178,12039741,0,0,0,0,0,0,0,342,349817,0,0,0,0,0,349006
22865238,0,789634,1971181,2164536,16883942,24,0,0,0,0,0,0,2848,372031,0,0,0,0,0,681042
33335096,0,2849,3125445,3333346,25204950,0,0,0,0,0,0,0,407,418220,0,0,0,0,0,1249879
33335095,0,2849,3125445,3333347,25204947,0,0,0,0,0,0,0,407,418220,0,0,0,0,0,1249880
33335098,0,2849,3125445,3333347,25204950,0,0,0,0,0,0,0,407,418221,0,0,0,0,0,1249879
33335098,0,2849,3125446,3333347,25204956,0,0,0,0,0,0,0,407,418219,0,0,0,0,0,1249874
33335098,0,2849,3125445,3333347,25204951,0,0,0,0,0,0,0,407,418220,0,0,0,0,0,1249879
33335098,0,2849,3125445,3333347,25204950,0,0,0,0,0,0,0,407,418221,0,0,0,0,0,1249879
33335092,0,2842,3125444,3333347,25204957,0,0,0,0,0,0,0,406,418216,0,0,0,0,0,1249880
33335096,0,2849,3125445,3333347,25204955,0,0,0,0,0,0,0,407,418220,0,0,0,0,0,1249873
33335098,0,2849,3125445,3333347,25204951,0,0,0,0,0,0,0,407,418219,0,0,0,0,0,1249880
33335097,0,2849,3125445,3333347,25204949,0,0,0,0,0,0,0,407,418221,0,0,0,0,0,1249879
33335095,0,2849,3125445,3333346,25204948,0,0,0,0,0,0,0,407,418220,0,0,0,0,0,1249880
33335096,0,2849,3125446,3333347,25204954,0,0,0,0,0,0,0,407,418220,0,0,0,0,0,1249873
33335098,0,2849,3125445,3333347,25204951,0,0,0,0,0,0,0,407,418220,0,0,0,0,0,1249879
33335094,0,2842,3125444,3333347,25204959,0,0,0,0,0,0,0,406,418216,0,0,0,0,0,1249880
33335098,0,2849,3125445,3333347,25204950,0,0,0,0,0,0,0,407,418221,0,0,0,0,0,1249879
33335098,0,2849,3125445,3333347,25204956,0,0,0,0,0,0,0,407,418220,0,0,0,0,0,1249874
33335095,0,2849,3125445,3333347,25204949,0,0,0,0,0,0,0,407,418219,0,0,0,0,0,1249879
33335097,0,2849,3125445,3333347,25204949,0,0,0,0,0,0,0,407,418220,0,0,0,0,0,1249880
33335097,0,2849,3125445,3333347,25204949,0,0,0,0,0,0,0,407,418221,0,0,0,0,0,1249879
29464987,0,318467,2700114,2952742,22051928,11,0,0,0,0,0,37,3429,397369,36,72,144,81,0,1040557
16772231,0,1224791,1310248,1484753,12052538,0,0,0,0,0,0,0,342,350186,0,0,0,207,576,348590
16772340,0,1224788,1310257,1484765,12052627,0,0,0,0,0,0,0,340,350186,0,0,0,0,0,349377
16772521,0,1224811,1310270,1484779,12052745,0,0,0,0,0,0,0,342,350192,0,0,0,0,0,349382
16772160,0,1224775,1310243,1484749,12052498,0,0,0,0,0,0,0,340,350182,0,0,0,0,0,349373
16772384,0,1224800,1310259,1484768,12052641,0,0,0,0,0,0,0,342,350193,0,0,0,0,0,349381
16772482,0,1224810,1310268,1484775,12052719,0,0,0,0,0,0,0,342,350190,0,0,0,0,0,349378
16772406,0,1224791,1310261,1484772,12052673,0,0,0,0,0,0,0,340,350188,0,0,0,0,0,349381
16772467,0,1224807,1310266,1484774,12052703,0,0,0,0,0,0,0,342,350194,0,0,0,0,0,349381
16772592,0,1224807,1310277,1484787,12052811,0,0,0,0,0,0,0,340,350188,0,0,0,0,0,349382
16772559,0,1224814,1310274,1484783,12052771,0,0,0,0,0,0,0,342,350194,0,0,0,0,0,349381
16772715,0,1224826,1310285,1484796,12052883,0,0,0,0,0,0,0,342,350198,0,0,0,0,0,349385
16772630,0,1224808,1310279,1484791,12052834,0,0,0,0,0,0,0,340,350192,0,0,0,0,0,349386
16772757,0,1224829,1310289,1484800,12052914,0,0,0,0,0,0,0,342,350198,0,0,0,0,0,349385
16772342,0,1224788,1310257,1484765,12052630,0,0,0,0,0,0,0,340,350185,0,0,0,0,0,349377
16772601,0,1224818,1310277,1484786,12052802,0,0,0,0,0,0,0,342,350194,0,0,0,0,0,349382
16772474,0,1224797,1310267,1484777,12052724,0,0,0,0,0,0,0,340,350188,0,0,0,0,0,349381
16772265,0,1224792,1310250,1484757,12052557,0,0,0,0,0,0,0,342,350190,0,0,0,0,0,349377
16772144,0,1224784,1310241,1484746,12052472,0,0,0,0,0,0,0,342,350185,0,0,0,0,0,349374
16772127,0,1224772,1310240,1484746,12052475,0,0,0,0,0,0,0,340,350181,0,0,0,0,0,349373
16772133,0,1224783,1310240,1484745,12052464,0,0,0,0,0,0,0,342,350186,0,0,0,0,0,349373
16772067,0,1224768,1310236,1484740,12052435,0,0,0,0,0,0,0,340,350178,0,0,0,0,0,349370
16772864,0,1224837,1310297,1484810,12052989,0,0,0,0,0,0,0,342,350200,0,0,0,0,0,349389
16772241,0,1224790,1310248,1484755,12052539,0,0,0,0,0,0,0,342,350190,0,0,0,0,0,349377
16772758,0,1224819,1310290,1484802,12052929,0,0,0,0,0,0,0,340,350192,0,0,0,0,0,349386
16772603,0,1224818,1310277,1484786,12052804,0,0,0,0,0,0,0,342,350195,0,0,0,0,0,349381
16771779,0,1224745,1310212,1484716,12052221,0,0,0,0,0,0,0,340,350176,0,0,0,0,0,349369
16772458,0,1224808,1310266,1484773,12052702,0,0,0,0,0,0,0,342,350189,0,0,0,0,0,349378
16772735,0,1224827,1310287,1484798,12052897,0,0,0,0,0,0,0,342,350199,0,0,0,0,0,349385
16772328,0,1224787,1310256,1484764,12052619,0,0,0,0,0,0,0,340,350185,0,0,0,0,0,349377
16772670,0,1224822,1310282,1484793,12052849,0,0,0,0,0,0,0,342,350196,0,0,0,0,0,349386
16772264,0,1224781,1310250,1484759,12052572,0,0,0,0,0,0,0,340,350186,0,0,0,0,0,349376
16772297,0,1224795,1310253,1484759,12052581,0,0,0,0,0,0,0,342,350189,0,0,0,0,0,349378
16773017,0,1224838,1310310,1484824,12053119,0,0,0,0,0,0,0,340,350196,0,0,0,0,0,349390
16772335,0,1224798,1310256,1484763,12052609,0,0,0,0,0,0,0,342,350191,0,0,0,0,0,349376
16772509,0,1224810,1310269,1484779,12052734,0,0,0,0,0,0,0,342,350193,0,0,0,0,0,349382
16772341,0,1224788,1310257,1484765,12052629,0,0,0,0,0,0,0,340,350184,0,0,0,0,0,349378
16772274,0,1224793,1310251,1484757,12052564,0,0,0,0,0,0,0,342,350191,0,0,0,0,0,349376
16772539,0,1224802,1310272,1484783,12052772,0,0,0,0,0,0,0,340,350188,0,0,0,0,0,349382
16772032,0,1224776,1310233,1484735,12052393,0,0,0,0,0,0,0,342,350183,0,0,0,0,0,349370
16772421,0,1224804,1310262,1484771,12052669,0,0,0,0,0,0,0,342,350193,0,0,0,0,0,349380
16772354,0,1224789,1310258,1484766,12052639,0,0,0,0,0,0,0,340,350184,0,0,0,0,0,349378
16772637,0,1224819,1310279,1484790,12052824,0,0,0,0,0,0,0,342,350197,0,0,0,0,0,349386
16772330,0,1224787,1310256,1484764,12052621,0,0,0,0,0,0,0,340,350186,0,0,0,0,0,349376
16772560,0,1224814,1310274,1484783,12052772,0,0,0,0,0,0,0,342,350193,0,0,0,0,0,349382
16772323,0,1224787,1310255,1484763,12052616,0,0,0,0,0,0,0,340,350185,0,0,0,0,0,349377
16772361,0,1224800,1310258,1484765,12052629,0,0,0,0,0,0,0,342,350190,0,0,0,0,0,349377
16772452,0,1224805,1310265,1484774,12052691,0,0,0,0,0,0,0,342,350193,0,0,0,0,0,349382
20240587,0,984983,1683168,1871327,14798848,24,0,0,0,0,0,0,2838,361445,0,0,0,0,0,537954
33335098,0,2849,3125445,3333347,25204950,0,0,0,0,0,0,0,407,418221,0,0,0,0,0,1249879
33335093,0,2842,3125444,3333347,25204958,0,0,0,0,0,0,0,406,418216,0,0,0,0,0,1249880
33335095,0,2849,3125445,3333347,25204954,0,0,0,0,0,0,0,407,418220,0,0,0,0,0,1249873
33335098,0,2849,3125445,3333347,25204951,0,0,0,0,0,0,0,407,418219,0,0,0,0,0,1249880
33335097,0,2849,3125445,3333347,25204949,0,0,0,0,0,0,0,407,418221,0,0,0,0,0,1249879
33335096,0,2849,3125445,3333346,25204949,0,0,0,0,0,0,0,407,418221,0,0,0,0,0,1249879
33335095,0,2849,3125446,3333347,25204953,0,0,0,0,0,0,0,407,418219,0,0,0,0,0,1249874
33335098,0,2849,3125445,3333347,25204951,0,0,0,0,0,0,0,407,418220,0,0,0,0,0,1249879
33335094,0,2842,3125444,3333347,25204959,0,0,0,0,0,0,0,406,418216,0,0,0,0,0,1249880
33335098,0,2849,3125445,3333347,25204950,0,0,0,0,0,0,0,407,418221,0,0,0,0,0,1249879
33335098,0,2849,3125446,3333347,25204956,0,0,0,0,0,0,0,407,418219,0,0,0,0,0,1249874
33335096,0,2849,3125445,3333347,25204949,0,0,0,0,0,0,0,407,418220,0,0,0,0,0,1249879
33335096,0,2849,3125444,3333347,25204949,0,0,0,0,0,0,0,407,418221,0,0,0,0,0,1249879
33335098,0,2849,3125445,3333347,25204950,0,0,0,0,0,0,0,407,418220,0,0,0,0,0,1249880
33335092,0,2842,3125445,3333347,25204963,0,0,0,0,0,0,0,406,418216,0,0,0,0,0,1249873
33335095,0,2849,3125445,3333346,25204949,0,0,0,0,0,0,0,407,418219,0,0,0,0,0,1249880
33335097,0,2849,3125445,3333347,25204949,0,0,0,0,0,0,0,407,418221,0,0,0,0,0,1249879
33335098,0,2849,3125445,3333347,25204950,0,0,0,0,0,0,0,407,418220,0,0,0,0,0,1249880
33335098,0,2849,3125446,3333347,25204956,0,0,0,0,0,0,0,407,418220,0,0,0,0,0,1249873
32102442,0,124060,2989127,3247083,24146213,11,0,0,0,0,0,37,3440,408223,36,54,0,0,0,1184158
16788411,0,1225969,1311512,1486187,12064162,0,0,0,0,0,0,0,342,350525,0,18,144,288,576,348688
16788571,0,1225972,1311525,1486201,12064297,0,0,0,0,0,0,0,340,350523,0,0,0,0,0,349713
16788544,0,1225979,1311522,1486199,12064257,0,0,0,0,0,0,0,342,350528,0,0,0,0,0,349717
16788662,0,1225989,1311531,1486208,12064345,0,0,0,0,0,0,0,342,350529,0,0,0,0,0,349718
16788576,0,1225982,1311525,1486201,12064284,0,0,0,0,0,0,0,342,350529,0,0,0,0,0,349713
16788419,0,1225961,1311513,1486188,12064185,0,0,0,0,0,0,0,340,350519,0,0,0,0,0,349713
16788704,0,1225990,1311534,1486213,12064371,0,0,0,0,0,0,0,342,350532,0,0,0,0,0,349722
16788824,0,1226001,1311545,1486222,12064465,0,0,0,0,0,0,0,342,350532,0,0,0,0,0,349717
16788607,0,1225985,1311527,1486204,12064304,0,0,0,0,0,0,0,342,350528,0,0,0,0,0,349717
16788702,0,1225979,1311534,1486214,12064385,0,0,0,0,0,0,0,340,350528,0,0,0,0,0,349722
16788772,0,1225997,1311541,1486218,12064427,0,0,0,0,0,0,0,342,350530,0,0,0,0,0,349717
16788998,0,1226013,1311557,1486238,12064585,0,0,0,0,0,0,0,342,350538,0,0,0,0,0,349725
16788981,0,1226011,1311556,1486237,12064572,0,0,0,0,0,0,0,342,350537,0,0,0,0,0,349726
16788463,0,1225963,1311516,1486193,12064217,0,0,0,0,0,0,0,340,350521,0,0,0,0,0,349713
16788935,0,1226009,1311554,1486232,12064543,0,0,0,0,0,0,0,342,350534,0,0,0,0,0,349721
16788494,0,1225977,1311518,1486193,12064224,0,0,0,0,0,0,0,342,350526,0,0,0,0,0,349714
16788489,0,1225976,1311518,1486193,12064221,0,0,0,0,0,0,0,342,350526,0,0,0,0,0,349713
16788200,0,1225943,1311496,1486170,12064026,0,0,0,0,0,0,0,340,350516,0,0,0,0,0,349709
16788447,0,1225973,1311514,1486189,12064190,0,0,0,0,0,0,0,342,350525,0,0,0,0,0,349714
16788134,0,1225950,1311490,1486162,12063966,0,0,0,0,0,0,0,342,350519,0,0,0,0,0,349705
16788184,0,1225953,1311494,1486166,12063999,0,0,0,0,0,0,0,342,350521,0,0,0,0,0,349709
16788998,0,1226002,1311558,1486240,12064600,0,0,0,0,0,0,0,340,350532,0,0,0,0,0,349726
16788501,0,1225977,1311519,1486194,12064230,0,0,0,0,0,0,0,342,350526,0,0,0,0,0,349713
16789077,0,1226019,1311564,1486245,12064644,0,0,0,0,0,0,0,342,350538,0,0,0,0,0,349725
16788741,0,1225993,1311537,1486216,12064398,0,0,0,0,0,0,0,342,350533,0,0,0,0,0,349722
16788170,0,1225943,1311494,1486166,12064009,0,0,0,0,0,0,0,340,350513,0,0,0,0,0,349705
16788525,0,1225979,1311521,1486196,12064247,0,0,0,0,0,0,0,342,350527,0,0,0,0,0,349713
16788945,0,1226008,1311553,1486234,12064546,0,0,0,0,0,0,0,342,350536,0,0,0,0,0,349726
16788472,0,1225974,1311517,1486192,12064208,0,0,0,0,0,0,0,342,350525,0,0,0,0,0,349714
16788907,0,1225997,1311551,1486231,12064537,0,0,0,0,0,0,0,340,350531,0,0,0,0,0,349720
16788372,0,1225966,1311508,1486184,12064134,0,0,0,0,0,0,0,342,350524,0,0,0,0,0,349714
16788702,0,1225992,1311535,1486211,12064375,0,0,0,0,0,0,0,342,350529,0,0,0,0,0,349718
16788986,0,1226011,1311556,1486238,12064576,0,0,0,0,0,0,0,342,350539,0,0,0,0,0,349724
16788564,0,1225972,1311525,1486201,12064291,0,0,0,0,0,0,0,340,350521,0,0,0,0,0,349714
16788741,0,1225993,1311537,1486216,12064399,0,0,0,0,0,0,0,342,350532,0,0,0,0,0,349722
16788606,0,1225984,1311527,1486203,12064303,0,0,0,0,0,0,0,342,350531,0,0,0,0,0,349716
16788413,0,1225972,1311513,1486186,12064168,0,0,0,0,0,0,0,342,350522,0,0,0,0,0,349710
16788761,0,1225984,1311539,1486219,12064430,0,0,0,0,0,0,0,340,350527,0,0,0,0,0,349722
16788058,0,1225944,1311484,1486155,12063910,0,0,0,0,0,0,0,342,350519,0,0,0,0,0,349704
16788402,0,1225969,1311511,1486186,12064157,0,0,0,0,0,0,0,342,350525,0,0,0,0,0,349712
16788881,0,1226004,1311548,1486228,12064502,0,0,0,0,0,0,0,342,350533,0,0,0,0,0,349724
16788734,0,1225984,1311538,1486216,12064414,0,0,0,0,0,0,0,340,350526,0,0,0,0,0,349716
16788532,0,1225978,1311521,1486197,12064247,0,0,0,0,0,0,0,342,350529,0,0,0,0,0,349718
16788651,0,1225988,1311531,1486207,12064339,0,0,0,0,0,0,0,342,350529,0,0,0,0,0,349715
16788525,0,1225978,1311521,1486197,12064245,0,0,0,0,0,0,0,342,350526,0,0,0,0,0,349716
16788608,0,1225974,1311527,1486205,12064320,0,0,0,0,0,0,0,340,350525,0,0,0,0,0,349717
16788740,0,1225995,1311538,1486215,12064403,0,0,0,0,0,0,0,342,350529,0,0,0,0,0,349718
18385533,0,1123969,1479409,1663949,13324666,24,0,0,0,0,0,0,2832,354073,0,0,0,0,0,436611
33335098,0,2849,3125445,3333347,25204951,0,0,0,0,0,0,0,407,418220,0,0,0,0,0,1249879
33335090,0,2842,3125443,3333347,25204956,0,0,0,0,0,0,0,406,418216,0,0,0,0,0,1249880
33335098,0,2849,3125445,3333347,25204950,0,0,0,0,0,0,0,407,418221,0,0,0,0,0,1249879
33335097,0,2849,3125446,3333347,25204955,0,0,0,0,0,0,0,407,418219,0,0,0,0,0,1249874
33335096,0,2849,3125445,3333346,25204950,0,0,0,0,0,0,0,407,418220,0,0,0,0,0,1249879
33335095,0,2849,3125445,3333347,25204947,0,0,0,0,0,0,0,407,418220,0,0,0,0,0,1249880
33335098,0,2849,3125445,3333347,25204950,0,0,0,0,0,0,0,407,418221,0,0,0,0,0,1249879
33335098,0,2849,3125446,3333347,25204956,0,0,0,0,0,0,0,407,418220,0,0,0,0,0,1249873
33335094,0,2842,3125444,3333347,25204960,0,0,0,0,0,0,0,406,418215,0,0,0,0,0,1249880
33335098,0,2849,3125445,3333347,25204950,0,0,0,0,0,0,0,407,418221,0,0,0,0,0,1249879
33335096,0,2849,3125445,3333347,25204948,0,0,0,0,0,0,0,407,418220,0,0,0,0,0,1249880
33335096,0,2849,3125445,3333347,25204955,0,0,0,0,0,0,0,407,418220,0,0,0,0,0,1249873
33335098,0,2849,3125445,3333347,25204951,0,0,0,0,0,0,0,407,418219,0,0,0,0,0,1249880
33335097,0,2849,3125445,3333347,25204949,0,0,0,0,0,0,0,407,418221,0,0,0,0,0,1249879
33335095,0,2849,3125445,3333346,25204948,0,0,0,0,0,0,0,407,418221,0,0,0,0,0,1249879
33335092,0,2842,3125445,3333347,25204963,0,0,0,0,0,0,0,406,418215,0,0,0,0,0,1249874
33335098,0,2849,3125445,3333347,25204951,0,0,0,0,0,0,0,407,418220,0,0,0,0,0,1249879
33335098,0,2849,3125445,3333347,25204950,0,0,0,0,0,0,0,407,418220,0,0,0,0,0,1249880
33335098,0,2849,3125445,3333347,25204950,0,0,0,0,0,0,0,407,418221,0,0,0,0,0,1249879
33335098,0,2849,3125446,3333347,25204956,0,0,0,0,0,0,0,407,418219,0,0,0,0,0,1249874
17437037,0,1210116,1381001,1609622,12498440,11,0,0,0,0,0,37,3383,348454,36,72,144,288,576,384857
16802834,0,1227011,1312639,1487465,12074545,0,0,0,0,0,0,0,340,350822,0,0,0,0,0,350012
16802865,0,1227024,1312641,1487466,12074553,0,0,0,0,0,0,0,342,350825,0,0,0,0,0,350014
16802793,0,1227020,1312636,1487459,12074504,0,0,0,0,0,0,0,342,350822,0,0,0,0,0,350010
16803083,0,1227039,1312658,1487485,12074710,0,0,0,0,0,0,0,342,350833,0,0,0,0,0,350016
16802527,0,1226999,1312614,1487437,12074307,0,0,0,0,0,0,0,342,350818,0,0,0,0,0,350010
16803229,0,1227050,1312669,1487499,12074814,0,0,0,0,0,0,0,342,350833,0,0,0,0,0,350022
16803005,0,1227036,1312653,1487477,12074657,0,0,0,0,0,0,0,342,350827,0,0,0,0,0,350013
16802819,0,1227020,1312637,1487462,12074520,0,0,0,0,0,0,0,342,350825,0,0,0,0,0,350013
16803055,0,1227038,1312656,1487483,12074689,0,0,0,0,0,0,0,342,350829,0,0,0,0,0,350018
16802853,0,1227023,1312640,1487465,12074544,0,0,0,0,0,0,0,342,350826,0,0,0,0,0,350013
16803410,0,1227053,1312684,1487516,12074959,0,0,0,0,0,0,0,340,350833,0,0,0,0,0,350025
16803301,0,1227056,1312675,1487505,12074868,0,0,0,0,0,0,0,342,350833,0,0,0,0,0,350022
16802745,0,1227014,1312631,1487456,12074463,0,0,0,0,0,0,0,342,350826,0,0,0,0,0,350013
16803034,0,1227037,1312655,1487480,12074676,0,0,0,0,0,0,0,342,350830,0,0,0,0,0,350014
16802625,0,1227007,1312622,1487445,12074383,0,0,0,0,0,0,0,342,350817,0,0,0,0,0,350009
16802909,0,1227027,1312645,1487469,12074585,0,0,0,0,0,0,0,342,350828,0,0,0,0,0,350013
16802442,0,1226994,1312608,1487429,12074247,0,0,0,0,0,0,0,342,350817,0,0,0,0,0,350005
16802543,0,1226999,1312615,1487438,12074319,0,0,0,0,0,0,0,342,350820,0,0,0,0,0,350010
16802169,0,1226974,1312587,1487404,12074055,0,0,0,0,0,0,0,342,350810,0,0,0,0,0,349997
16802366,0,1226977,1312603,1487423,12074211,0,0,0,0,0,0,0,340,350811,0,0,0,0,0,350001
16803315,0,1227056,1312676,1487507,12074873,0,0,0,0,0,0,0,342,350835,0,0,0,0,0,350026
16802691,0,1227012,1312627,1487450,12074429,0,0,0,0,0,0,0,342,350822,0,0,0,0,0,350009
16803177,0,1227046,1312665,1487494,12074775,0,0,0,0,0,0,0,342,350834,0,0,0,0,0,350021
16802997,0,1227035,1312652,1487477,12074652,0,0,0,0,0,0,0,342,350825,0,0,0,0,0,350014
16802529,0,1226999,1312615,1487436,12074312,0,0,0,0,0,0,0,342,350819,0,0,0,0,0,350006
16802655,0,1227009,1312625,1487448,12074401,0,0,0,0,0,0,0,342,350822,0,0,0,0,0,350008
16803147,0,1227044,1312662,1487491,12074754,0,0,0,0,0,0,0,342,350832,0,0,0,0,0,350022
16802493,0,1226997,1312612,1487433,12074286,0,0,0,0,0,0,0,342,350817,0,0,0,0,0,350006
16803129,0,1227044,1312662,1487489,12074744,0,0,0,0,0,0,0,342,350831,0,0,0,0,0,350017
16802606,0,1226994,1312621,1487445,12074381,0,0,0,0,0,0,0,340,350816,0,0,0,0,0,350009
16803021,0,1227035,1312653,1487480,12074664,0,0,0,0,0,0,0,342,350829,0,0,0,0,0,350018
16803117,0,1227043,1312661,1487488,12074736,0,0,0,0,0,0,0,342,350830,0,0,0,0,0,350017
16802903,0,1227027,1312644,1487469,12074581,0,0,0,0,0,0,0,342,350827,0,0,0,0,0,350013
16802923,0,1227027,1312645,1487472,12074591,0,0,0,0,0,0,0,342,350828,0,0,0,0,0,350018
16802764,0,1227017,1312634,1487457,12074483,0,0,0,0,0,0,0,342,350822,0,0,0,0,0,350009
16802882,0,1227026,1312642,1487467,12074566,0,0,0,0,0,0,0,342,350826,0,0,0,0,0,350013
16803045,0,1227037,1312655,1487482,12074682,0,0,0,0,0,0,0,342,350829,0,0,0,0,0,350018
16802246,0,1226978,1312592,1487412,12074107,0,0,0,0,0,0,0,342,350814,0,0,0,0,0,350001
16802721,0,1227004,1312631,1487454,12074465,0,0,0,0,0,0,0,340,350818,0,0,0,0,0,350009
16803344,0,1227058,1312678,1487509,12074895,0,0,0,0,0,0,0,342,350836,0,0,0,0,0,350026
16802974,0,1227033,1312650,1487475,12074634,0,0,0,0,0,0,0,342,350827,0,0,0,0,0,350013
16802757,0,1227015,1312632,1487457,12074473,0,0,0,0,0,0,0,342,350825,0,0,0,0,0,350013
16802949,0,1227031,1312648,1487473,12074616,0,0,0,0,0,0,0,342,350825,0,0,0,0,0,350014
16802831,0,1227021,1312638,1487463,12074528,0,0,0,0,0,0,0,342,350826,0,0,0,0,0,350013
16802839,0,1227022,1312639,1487464,12074533,0,0,0,0,0,0,0,342,350826,0,0,0,0,0,350013
16802973,0,1227032,1312650,1487475,12074633,0,0,0,0,0,0,0,342,350827,0,0,0,0,0,350014
17204599,0,1213288,1349512,1531799,12385777,24,0,0,0,0,0,0,2826,349468,0,0,0,0,0,371905
33335097,0,2849,3125445,3333347,25204949,0,0,0,0,0,0,0,407,418220,0,0,0,0,0,1249880
33335098,0,2849,3125445,3333347,25204950,0,0,0,0,0,0,0,407,418221,0,0,0,0,0,1249879
33335098,0,2849,3125446,3333347,25204956,0,0,0,0,0,0,0,407,418220,0,0,0,0,0,1249873
33335098,0,2849,3125445,3333347,25204951,0,0,0,0,0,0,0,407,418219,0,0,0,0,0,1249880
33335098,0,2849,3125445,3333347,25204950,0,0,0,0,0,0,0,407,418221,0,0,0,0,0,1249879
33335090,0,2842,3125443,3333347,25204956,0,0,0,0,0,0,0,406,418216,0,0,0,0,0,1249880
33335098,0,2849,3125446,3333347,25204956,0,0,0,0,0,0,0,407,418220,0,0,0,0,0,1249873
33335097,0,2849,3125445,3333347,25204950,0,0,0,0,0,0,0,407,418219,0,0,0,0,0,1249880
33335096,0,2849,3125445,3333346,25204949,0,0,0,0,0,0,0,407,418221,0,0,0,0,0,1249879
33335095,0,2849,3125445,3333347,25204947,0,0,0,0,0,0,0,407,418221,0,0,0,0,0,1249879
33335098,0,2849,3125446,3333347,25204956,0,0,0,0,0,0,0,407,418219,0,0,0,0,0,1249874
33335098,0,2849,3125445,3333347,25204951,0,0,0,0,0,0,0,407,418220,0,0,0,0,0,1249879
33335094,0,2842,3125444,3333347,25204959,0,0,0,0,0,0,0,406,418216,0,0,0,0,0,1249880
33335098,0,2849,3125445,3333347,25204950,0,0,0,0,0,0,0,407,418221,0,0,0,0,0,1249879
33335096,0,2849,3125445,3333347,25204954,0,0,0,0,0,0,0,407,418220,0,0,0,0,0,1249874
33335096,0,2849,3125445,3333347,25204950,0,0,0,0,0,0,0,407,418219,0,0,0,0,0,1249879
33335098,0,2849,3125445,3333347,25204950,0,0,0,0,0,0,0,407,418221,0,0,0,0,0,1249879
33335097,0,2849,3125445,3333347,25204949,0,0,0,0,0,0,0,407,418220,0,0,0,0,0,1249880
33335095,0,2849,3125446,3333346,25204954,0,0,0,0,0,0,0,407,418220,0,0,0,0,0,1249873
33335092,0,2842,3125444,3333347,25204958,0,0,0,0,0,0,0,406,418215,0,0,0,0,0,1249880
18641604,0,1122511,1512745,1743866,13454331,11,0,0,0,0,0,37,3387,353545,36,72,144,288,576,450055
16815104,0,1227916,1313597,1488550,12083349,0,0,0,0,0,0,0,342,351081,0,0,0,0,0,350269
16815130,0,1227918,1313599,1488552,12083368,0,0,0,0,0,0,0,342,351082,0,0,0,0,0,350269
16815093,0,1227915,1313596,1488549,12083340,0,0,0,0,0,0,0,342,351081,0,0,0,0,0,350270
16815237,0,1227927,1313608,1488561,12083448,0,0,0,0,0,0,0,342,351082,0,0,0,0,0,350269
16814721,0,1227888,1313567,1488516,12083073,0,0,0,0,0,0,0,342,351074,0,0,0,0,0,350261
16815405,0,1227939,1313621,1488576,12083568,0,0,0,0,0,0,0,342,351085,0,0,0,0,0,350274
16815280,0,1227939,1313610,1488564,12083459,0,0,0,0,0,0,0,344,351090,0,0,0,0,0,350274
16815177,0,1227922,1313603,1488556,12083403,0,0,0,0,0,0,0,342,351082,0,0,0,0,0,350269
16815213,0,1227925,1313606,1488559,12083430,0,0,0,0,0,0,0,342,351082,0,0,0,0,0,350269
16814973,0,1227907,1313587,1488538,12083256,0,0,0,0,0,0,0,342,351077,0,0,0,0,0,350266
16815730,0,1227962,1313646,1488605,12083800,0,0,0,0,0,0,0,342,351094,0,0,0,0,0,350281
16815428,0,1227939,1313622,1488579,12083579,0,0,0,0,0,0,0,342,351090,0,0,0,0,0,350277
16815172,0,1227921,1313603,1488556,12083399,0,0,0,0,0,0,0,342,351081,0,0,0,0,0,350270
16815194,0,1227924,1313604,1488557,12083416,0,0,0,0,0,0,0,342,351082,0,0,0,0,0,350269
16814720,0,1227888,1313567,1488516,12083072,0,0,0,0,0,0,0,342,351074,0,0,0,0,0,350261
16815094,0,1227917,1313597,1488548,12083346,0,0,0,0,0,0,0,342,351078,0,0,0,0,0,350266
16814809,0,1227893,1313573,1488525,12083134,0,0,0,0,0,0,0,342,351077,0,0,0,0,0,350265
16814730,0,1227891,1313569,1488515,12083085,0,0,0,0,0,0,0,342,351071,0,0,0,0,0,350257
16814360,0,1227862,1313539,1488484,12082814,0,0,0,0,0,0,0,342,351065,0,0,0,0,0,350254
16814481,0,1227870,1313548,1488495,12082900,0,0,0,0,0,0,0,342,351068,0,0,0,0,0,350258
16815621,0,1227955,1313638,1488595,12083724,0,0,0,0,0,0,0,342,351091,0,0,0,0,0,350276
16814997,0,1227909,1313589,1488540,12083273,0,0,0,0,0,0,0,342,351078,0,0,0,0,0,350266
16815153,0,1227920,1313601,1488554,12083385,0,0,0,0,0,0,0,342,351081,0,0,0,0,0,350270
16815255,0,1227926,1313609,1488564,12083456,0,0,0,0,0,0,0,342,351085,0,0,0,0,0,350273
16814715,0,1227888,1313566,1488515,12083069,0,0,0,0,0,0,0,342,351074,0,0,0,0,0,350261
16814868,0,1227900,1313579,1488529,12083183,0,0,0,0,0,0,0,342,351073,0,0,0,0,0,350262
16815282,0,1227929,1313611,1488565,12083476,0,0,0,0,0,0,0,342,351086,0,0,0,0,0,350273
16814665,0,1227885,1313563,1488511,12083036,0,0,0,0,0,0,0,342,351071,0,0,0,0,0,350257
16815350,0,1227935,1313617,1488571,12083526,0,0,0,0,0,0,0,342,351085,0,0,0,0,0,350274
16814916,0,1227902,1313582,1488533,12083215,0,0,0,0,0,0,0,342,351077,0,0,0,0,0,350265
16815321,0,1227932,1313614,1488569,12083505,0,0,0,0,0,0,0,342,351086,0,0,0,0,0,350273
16815354,0,1227935,1313617,1488572,12083529,0,0,0,0,0,0,0,342,351085,0,0,0,0,0,350274
16815240,0,1227926,1313608,1488561,12083450,0,0,0,0,0,0,0,342,351084,0,0,0,0,0,350269
16815019,0,1227910,1313590,1488543,12083285,0,0,0,0,0,0,0,342,351080,0,0,0,0,0,350269
16814893,0,1227902,1313581,1488530,12083202,0,0,0,0,0,0,0,342,351074,0,0,0,0,0,350262
16815007,0,1227908,1313589,1488542,12083276,0,0,0,0,0,0,0,342,351080,0,0,0,0,0,350270
16815160,0,1227920,1313602,1488555,12083390,0,0,0,0,0,0,0,342,351083,0,0,0,0,0,350268
16814711,0,1227890,1313567,1488514,12083070,0,0,0,0,0,0,0,342,351070,0,0,0,0,0,350258
16814833,0,1227895,1313575,1488526,12083153,0,0,0,0,0,0,0,342,351076,0,0,0,0,0,350266
16815452,0,1227943,1313625,1488580,12083602,0,0,0,0,0,0,0,342,351087,0,0,0,0,0,350273
16815208,0,1227922,1313605,1488560,12083421,0,0,0,0,0,0,0,342,351085,0,0,0,0,0,350273
16815073,0,1227916,1313595,1488546,12083331,0,0,0,0,0,0,0,342,351077,0,0,0,0,0,350266
16815154,0,1227920,1313601,1488554,12083386,0,0,0,0,0,0,0,342,351082,0,0,0,0,0,350269
16815141,0,1227919,1313600,1488553,12083376,0,0,0,0,0,0,0,342,351082,0,0,0,0,0,350269
16815045,0,1227911,1313592,1488545,12083304,0,0,0,0,0,0,0,342,351081,0,0,0,0,0,350270
16815135,0,1227920,1313601,1488552,12083376,0,0,0,0,0,0,0,342,351079,0,0,0,0,0,350265
16815483,0,1227944,1313626,1488583,12083622,0,0,0,0,0,0,0,342,351089,0,0,0,0,0,350277
33118662,0,34862,3094539,3308663,25025209,24,0,0,0,0,0,0,2890,414343,0,0,0,0,0,1238132
33335098,0,2849,3125446,3333347,25204956,0,0,0,0,0,0,0,407,418220,0,0,0,0,0,1249873
33335096,0,2849,3125445,3333347,25204949,0,0,0,0,0,0,0,407,418220,0,0,0,0,0,1249879
33335096,0,2849,3125444,3333347,25204949,0,0,0,0,0,0,0,407,418220,0,0,0,0,0,1249880
33335093,0,2842,3125444,3333347,25204958,0,0,0,0,0,0,0,406,418217,0,0,0,0,0,1249879
33335097,0,2849,3125446,3333347,25204955,0,0,0,0,0,0,0,407,418219,0,0,0,0,0,1249874
33335095,0,2849,3125445,3333346,25204949,0,0,0,0,0,0,0,407,418220,0,0,0,0,0,1249879
33335097,0,2849,3125445,3333347,25204949,0,0,0,0,0,0,0,407,418220,0,0,0,0,0,1249880
33335098,0,2849,3125445,3333347,25204950,0,0,0,0,0,0,0,407,418221,0,0,0,0,0,1249879
33335098,0,2849,3125446,3333347,25204956,0,0,0,0,0,0,0,407,418220,0,0,0,0,0,1249873
33335098,0,2849,3125445,3333347,25204951,0,0,0,0,0,0,0,407,418219,0,0,0,0,0,1249880
33335093,0,2842,3125444,3333347,25204958,0,0,0,0,0,0,0,406,418217,0,0,0,0,0,1249879
33335095,0,2849,3125444,3333347,25204948,0,0,0,0,0,0,0,407,418220,0,0,0,0,0,1249880
33335098,0,2849,3125446,3333347,25204956,0,0,0,0,0,0,0,407,418220,0,0,0,0,0,1249873
33335097,0,2849,3125445,3333347,25204950,0,0,0,0,0,0,0,407,418219,0,0,0,0,0,1249880
33335096,0,2849,3125445,3333346,25204949,0,0,0,0,0,0,0,407,418221,0,0,0,0,0,1249879
33335095,0,2849,3125445,3333347,25204947,0,0,0,0,0,0,0,407,418221,0,0,0,0,0,1249879
33335098,0,2849,3125446,3333347,25204956,0,0,0,0,0,0,0,407,418219,0,0,0,0,0,1249874
33335094,0,2842,3125444,3333347,25204960,0,0,0,0,0,0,0,406,418216,0,0,0,0,0,1249879
33335098,0,2849,3125445,3333347,25204950,0,0,0,0,0,0,0,407,418220,0,0,0,0,0,1249880
19268072,0,1077377,1581170,1813616,13951246,11,0,0,0,0,0,37,3390,356242,36,72,144,288,576,483867
16825634,0,1228683,1314419,1489483,12090916,0,0,0,0,0,0,0,342,351302,0,0,0,0,0,350489
16825602,0,1228683,1314418,1489478,12090898,0,0,0,0,0,0,0,342,351297,0,0,0,0,0,350486
16825567,0,1228680,1314415,1489476,12090870,0,0,0,0,0,0,0,342,351299,0,0,0,0,0,350485
16825668,0,1228697,1314422,1489484,12090926,0,0,0,0,0,0,0,344,351306,0,0,0,0,0,350489
16825309,0,1228660,1314394,1489453,12090685,0,0,0,0,0,0,0,342,351293,0,0,0,0,0,350482
16825737,0,1228692,1314428,1489491,12090993,0,0,0,0,0,0,0,342,351301,0,0,0,0,0,350490
16825917,0,1228705,1314442,1489507,12091122,0,0,0,0,0,0,0,342,351307,0,0,0,0,0,350492
16825708,0,1228689,1314426,1489489,12090971,0,0,0,0,0,0,0,342,351301,0,0,0,0,0,350490
16825754,0,1228694,1314429,1489492,12091005,0,0,0,0,0,0,0,342,351302,0,0,0,0,0,350490
16825423,0,1228668,1314403,1489464,12090764,0,0,0,0,0,0,0,342,351297,0,0,0,0,0,350485
16826105,0,1228718,1314457,1489524,12091257,0,0,0,0,0,0,0,342,351310,0,0,0,0,0,350497
16826038,0,1228725,1314451,1489515,12091197,0,0,0,0,0,0,0,344,351312,0,0,0,0,0,350494
16825617,0,1228683,1314418,1489481,12090904,0,0,0,0,0,0,0,342,351300,0,0,0,0,0,350489
16825802,0,1228697,1314433,1489497,12091041,0,0,0,0,0,0,0,342,351303,0,0,0,0,0,350489
16825144,0,1228648,1314382,1489438,12090566,0,0,0,0,0,0,0,342,351290,0,0,0,0,0,350478
16825542,0,1228677,1314412,1489475,12090847,0,0,0,0,0,0,0,342,351300,0,0,0,0,0,350489
16825367,0,1228665,1314399,1489458,12090728,0,0,0,0,0,0,0,342,351294,0,0,0,0,0,350481
16825282,0,1228658,1314392,1489451,12090664,0,0,0,0,0,0,0,342,351293,0,0,0,0,0,350482
16824841,0,1228627,1314358,1489412,12090351,0,0,0,0,0,0,0,342,351281,0,0,0,0,0,350470
16824972,0,1228647,1314368,1489421,12090428,0,0,0,0,0,0,0,344,351291,0,0,0,0,0,350473
16826161,0,1228723,1314461,1489529,12091298,0,0,0,0,0,0,0,342,351311,0,0,0,0,0,350497
16825509,0,1228675,1314410,1489471,12090828,0,0,0,0,0,0,0,342,351297,0,0,0,0,0,350486
16825457,0,1228671,1314406,1489466,12090790,0,0,0,0,0,0,0,342,351297,0,0,0,0,0,350485
16825749,0,1228693,1314429,1489492,12091002,0,0,0,0,0,0,0,342,351302,0,0,0,0,0,350489
16825293,0,1228659,1314393,1489452,12090672,0,0,0,0,0,0,0,342,351293,0,0,0,0,0,350482
16825369,0,1228665,1314399,1489459,12090729,0,0,0,0,0,0,0,342,351294,0,0,0,0,0,350481
16825738,0,1228692,1314428,1489491,12090993,0,0,0,0,0,0,0,342,351303,0,0,0,0,0,350489
16825151,0,1228660,1314382,1489437,12090556,0,0,0,0,0,0,0,344,351294,0,0,0,0,0,350478
16825929,0,1228706,1314443,1489508,12091131,0,0,0,0,0,0,0,342,351305,0,0,0,0,0,350494
16825401,0,1228666,1314401,1489462,12090748,0,0,0,0,0,0,0,342,351298,0,0,0,0,0,350484
16825842,0,1228700,1314437,1489500,12091070,0,0,0,0,0,0,0,342,351303,0,0,0,0,0,350490
16825808,0,1228697,1314433,1489498,12091041,0,0,0,0,0,0,0,342,351303,0,0,0,0,0,350494
16825933,0,1228706,1314443,1489508,12091135,0,0,0,0,0,0,0,342,351306,0,0,0,0,0,350493
16825569,0,1228680,1314415,1489476,12090872,0,0,0,0,0,0,0,342,351299,0,0,0,0,0,350485
16825269,0,1228657,1314391,1489450,12090655,0,0,0,0,0,0,0,342,351292,0,0,0,0,0,350482
16825627,0,1228694,1314419,1489480,12090899,0,0,0,0,0,0,0,344,351306,0,0,0,0,0,350485
16825686,0,1228689,1314424,1489486,12090956,0,0,0,0,0,0,0,342,351300,0,0,0,0,0,350489
16825209,0,1228652,1314386,1489445,12090610,0,0,0,0,0,0,0,342,351292,0,0,0,0,0,350482
16825345,0,1228663,1314397,1489457,12090711,0,0,0,0,0,0,0,342,351294,0,0,0,0,0,350481
16825913,0,1228705,1314442,1489506,12091119,0,0,0,0,0,0,0,342,351306,0,0,0,0,0,350493
16825549,0,1228678,1314413,1489475,12090858,0,0,0,0,0,0,0,342,351297,0,0,0,0,0,350486
16825541,0,1228678,1314413,1489473,12090852,0,0,0,0,0,0,0,342,351297,0,0,0,0,0,350486
16825605,0,1228681,1314417,1489480,12090894,0,0,0,0,0,0,0,342,351303,0,0,0,0,0,350488
16825608,0,1228694,1314418,1489478,12090886,0,0,0,0,0,0,0,344,351302,0,0,0,0,0,350486
16825457,0,1228670,1314405,1489467,12090790,0,0,0,0,0,0,0,342,351297,0,0,0,0,0,350486
16825565,0,1228680,1314415,1489475,12090870,0,0,0,0,0,0,0,342,351298,0,0,0,0,0,350485
16826001,0,1228712,1314449,1489514,12091184,0,0,0,0,0,0,0,342,351307,0,0,0,0,0,350493
32994871,0,44063,3080957,3294836,24926875,24,0,0,0,0,0,0,2889,413842,0,0,0,0,0,1231385
33335098,0,2849,3125446,3333347,25204956,0,0,0,0,0,0,0,407,418219,0,0,0,0,0,1249874
33335098,0,2849,3125445,3333347,25204951,0,0,0,0,0,0,0,407,418220,0,0,0,0,0,1249879
33335098,0,2849,3125445,3333347,25204950,0,0,0,0,0,0,0,407,418220,0,0,0,0,0,1249880
33335094,0,2842,3125444,3333347,25204959,0,0,0,0,0,0,0,406,418217,0,0,0,0,0,1249879
33335095,0,2849,3125445,3333347,25204954,0,0,0,0,0,0,0,407,418219,0,0,0,0,0,1249874
33335097,0,2849,3125445,3333347,25204950,0,0,0,0,0,0,0,407,418220,0,0,0,0,0,1249879
33335097,0,2849,3125445,3333347,25204949,0,0,0,0,0,0,0,407,418221,0,0,0,0,0,1249879
33335097,0,2849,3125445,3333347,25204949,0,0,0,0,0,0,0,407,418220,0,0,0,0,0,1249880
33335095,0,2849,3125446,3333346,25204954,0,0,0,0,0,0,0,407,418220,0,0,0,0,0,1249873
33335093,0,2842,3125444,3333347,25204959,0,0,0,0,0,0,0,406,418215,0,0,0,0,0,1249880
33335098,0,2849,3125445,3333347,25204950,0,0,0,0,0,0,0,407,418221,0,0,0,0,0,1249879
33335098,0,2849,3125445,3333347,25204950,0,0,0,0,0,0,0,407,418220,0,0,0,0,0,1249880
33335098,0,2849,3125445,3333347,25204956,0,0,0,0,0,0,0,407,418221,0,0,0,0,0,1249873
33335097,0,2849,3125446,3333347,25204950,0,0,0,0,0,0,0,407,418219,0,0,0,0,0,1249879
33335095,0,2849,3125444,3333347,25204948,0,0,0,0,0,0,0,407,418220,0,0,0,0,0,1249880
33335098,0,2849,3125445,3333347,25204950,0,0,0,0,0,0,0,407,418221,0,0,0,0,0,1249879
33335093,0,2842,3125444,3333347,25204961,0,0,0,0,0,0,0,406,418216,0,0,0,0,0,1249877
33335095,0,2849,3125446,3333346,25204951,0,0,0,0,0,0,0,407,418220,0,0,0,0,0,1249876
33335096,0,2849,3125445,3333347,25204949,0,0,0,0,0,0,0,407,418219,0,0,0,0,0,1249880
19399544,0,1068736,1595352,1828123,14055101,11,0,0,0,0,0,37,3391,356904,36,72,144,288,576,490773
16834564,0,1229336,1315118,1490273,12097336,0,0,0,0,0,0,0,342,351486,0,0,0,0,0,350673
16834561,0,1229334,1315117,1490272,12097336,0,0,0,0,0,0,0,342,351486,0,0,0,0,0,350674
16834516,0,1229343,1315113,1490267,12097287,0,0,0,0,0,0,0,344,351489,0,0,0,0,0,350673
16834617,0,1229338,1315121,1490278,12097371,0,0,0,0,0,0,0,342,351490,0,0,0,0,0,350677
16834221,0,1229311,1315091,1490242,12097092,0,0,0,0,0,0,0,342,351477,0,0,0,0,0,350666
16834663,0,1229342,1315125,1490282,12097406,0,0,0,0,0,0,0,342,351490,0,0,0,0,0,350676
16834919,0,1229362,1315146,1490303,12097596,0,0,0,0,0,0,0,342,351492,0,0,0,0,0,350678
16834669,0,1229354,1315125,1490281,12097395,0,0,0,0,0,0,0,344,351492,0,0,0,0,0,350678
16834639,0,1229340,1315123,1490279,12097391,0,0,0,0,0,0,0,342,351489,0,0,0,0,0,350675
16834324,0,1229319,1315099,1490251,12097166,0,0,0,0,0,0,0,342,351479,0,0,0,0,0,350668
16835094,0,1229374,1315159,1490320,12097717,0,0,0,0,0,0,0,342,351497,0,0,0,0,0,350685
16834942,0,1229363,1315147,1490306,12097608,0,0,0,0,0,0,0,342,351494,0,0,0,0,0,350682
16834551,0,1229345,1315116,1490270,12097313,0,0,0,0,0,0,0,344,351490,0,0,0,0,0,350673
16834738,0,1229348,1315131,1490288,12097462,0,0,0,0,0,0,0,342,351490,0,0,0,0,0,350677
16834106,0,1229301,1315081,1490233,12097006,0,0,0,0,0,0,0,342,351477,0,0,0,0,0,350666
16834480,0,1229329,1315111,1490265,12097274,0,0,0,0,0,0,0,342,351486,0,0,0,0,0,350673
16834316,0,1229329,1315098,1490249,12097147,0,0,0,0,0,0,0,344,351484,0,0,0,0,0,350665
16834229,0,1229310,1315091,1490243,12097093,0,0,0,0,0,0,0,342,351480,0,0,0,0,0,350670
16833801,0,1229280,1315058,1490205,12096789,0,0,0,0,0,0,0,342,351469,0,0,0,0,0,350658
16833945,0,1229290,1315069,1490218,12096891,0,0,0,0,0,0,0,342,351474,0,0,0,0,0,350661
16835157,0,1229379,1315164,1490325,12097764,0,0,0,0,0,0,0,342,351498,0,0,0,0,0,350685
16834540,0,1229344,1315115,1490269,12097304,0,0,0,0,0,0,0,344,351490,0,0,0,0,0,350674
16834470,0,1229330,1315111,1490264,12097271,0,0,0,0,0,0,0,342,351483,0,0,0,0,0,350669
16834596,0,1229336,1315119,1490276,12097357,0,0,0,0,0,0,0,342,351489,0,0,0,0,0,350677
16834122,0,1229305,1315084,1490233,12097022,0,0,0,0,0,0,0,342,351474,0,0,0,0,0,350662
16834368,0,1229320,1315102,1490255,12097197,0,0,0,0,0,0,0,342,351483,0,0,0,0,0,350669
16834708,0,1229357,1315128,1490284,12097425,0,0,0,0,0,0,0,344,351493,0,0,0,0,0,350677
16834053,0,1229297,1315077,1490228,12096966,0,0,0,0,0,0,0,342,351477,0,0,0,0,0,350666
16834893,0,1229360,1315144,1490301,12097577,0,0,0,0,0,0,0,342,351491,0,0,0,0,0,350678
16834437,0,1229326,1315107,1490262,12097243,0,0,0,0,0,0,0,342,351484,0,0,0,0,0,350673
16834768,0,1229361,1315133,1490289,12097469,0,0,0,0,0,0,0,344,351495,0,0,0,0,0,350677
16834737,0,1229348,1315131,1490288,12097461,0,0,0,0,0,0,0,342,351489,0,0,0,0,0,350678
16834853,0,1229356,1315140,1490299,12097541,0,0,0,0,0,0,0,342,351494,0,0,0,0,0,350681
16834453,0,1229328,1315109,1490262,12097261,0,0,0,0,0,0,0,342,351482,0,0,0,0,0,350669
16834173,0,1229307,1315087,1490238,12097056,0,0,0,0,0,0,0,342,351477,0,0,0,0,0,350666
16834648,0,1229351,1315123,1490279,12097379,0,0,0,0,0,0,0,344,351494,0,0,0,0,0,350678
16834666,0,1229344,1315126,1490281,12097414,0,0,0,0,0,0,0,342,351487,0,0,0,0,0,350672
16834208,0,1229309,1315090,1490241,12097081,0,0,0,0,0,0,0,342,351479,0,0,0,0,0,350666
16834269,0,1229314,1315094,1490247,12097123,0,0,0,0,0,0,0,342,351479,0,0,0,0,0,350670
16834872,0,1229368,1315141,1490299,12097540,0,0,0,0,0,0,0,344,351499,0,0,0,0,0,350681
16834321,0,1229318,1315099,1490250,12097167,0,0,0,0,0,0,0,342,351480,0,0,0,0,0,350665
16834377,0,1229321,1315102,1490257,12097198,0,0,0,0,0,0,0,342,351483,0,0,0,0,0,350674
16834593,0,1229338,1315120,1490275,12097359,0,0,0,0,0,0,0,342,351486,0,0,0,0,0,350673
16834526,0,1229332,1315114,1490270,12097309,0,0,0,0,0,0,0,342,351486,0,0,0,0,0,350673
16834343,0,1229330,1315100,1490251,12097162,0,0,0,0,0,0,0,344,351486,0,0,0,0,0,350670
16834509,0,1229333,1315114,1490267,12097301,0,0,0,0,0,0,0,342,351482,0,0,0,0,0,350670
16834845,0,1237950,1311257,1490021,12093378,0,0,0,0,0,0,0,1422,350414,0,0,0,0,0,350403
33290827,0,13506,3117301,3328165,25166119,24,0,0,0,0,0,0,1810,416121,0,0,0,0,0,1247781
33335095,0,2849,3125445,3333346,25204953,0,0,0,0,0,0,0,407,418221,0,0,0,0,0,1249874
33335096,0,2849,3125446,3333347,25204950,0,0,0,0,0,0,0,407,418218,0,0,0,0,0,1249879
33335098,0,2849,3125445,3333347,25204950,0,0,0,0,0,0,0,407,418221,0,0,0,0,0,1249879
33335098,0,2849,3125445,3333347,25204950,0,0,0,0,0,0,0,407,418220,0,0,0,0,0,1249880
33335098,0,2849,3125445,3333347,25204956,0,0,0,0,0,0,0,407,418221,0,0,0,0,0,1249873
33335094,0,2842,3125445,3333347,25204959,0,0,0,0,0,0,0,406,418216,0,0,0,0,0,1249879
33335095,0,2849,3125444,3333347,25204949,0,0,0,0,0,0,0,407,418219,0,0,0,0,0,1249880
33335097,0,2849,3125445,3333347,25204949,0,0,0,0,0,0,0,407,418221,0,0,0,0,0,1249879
33335097,0,2849,3125445,3333347,25204952,0,0,0,0,0,0,0,407,418220,0,0,0,0,0,1249877
33335097,0,2849,3125446,3333347,25204952,0,0,0,0,0,0,0,407,418220,0,0,0,0,0,1249876
33335095,0,2849,3125445,3333346,25204949,0,0,0,0,0,0,0,407,418219,0,0,0,0,0,1249880
33335093,0,2842,3125444,3333347,25204958,0,0,0,0,0,0,0,406,418217,0,0,0,0,0,1249879
33335098,0,2849,3125445,3333347,25204950,0,0,0,0,0,0,0,407,418221,0,0,0,0,0,1249879
33335098,0,2849,3125446,3333347,25204956,0,0,0,0,0,0,0,407,418219,0,0,0,0,0,1249874
33335098,0,2849,3125445,3333347,25204951,0,0,0,0,0,0,0,407,418220,0,0,0,0,0,1249879
33335097,0,2849,3125445,3333347,25204949,0,0,0,0,0,0,0,407,418220,0,0,0,0,0,1249880
33335095,0,2849,3125444,3333347,25204950,0,0,0,0,0,0,0,407,418221,0,0,0,0,0,1249877
33335098,0,2849,3125446,3333347,25204954,0,0,0,0,0,0,0,407,418219,0,0,0,0,0,1249876
33335093,0,2842,3125444,3333347,25204959,0,0,0,0,0,0,0,406,418216,0,0,0,0,0,1249879
19110451,0,1091198,1563426,1795679,13824947,11,0,0,0,0,0,37,3390,355848,36,72,144,288,576,474799
16842285,0,1229899,1315721,1490956,12102888,0,0,0,0,0,0,0,342,351646,0,0,0,0,0,350833
16842352,0,1229913,1315725,1490961,12102917,0,0,0,0,0,0,0,344,351654,0,0,0,0,0,350838
16842357,0,1229905,1315727,1490962,12102941,0,0,0,0,0,0,0,342,351646,0,0,0,0,0,350834
16842349,0,1229902,1315725,1490963,12102931,0,0,0,0,0,0,0,342,351649,0,0,0,0,0,350837
16841993,0,1229877,1315698,1490930,12102675,0,0,0,0,0,0,0,342,351642,0,0,0,0,0,350829
16842412,0,1229918,1315730,1490966,12102962,0,0,0,0,0,0,0,344,351654,0,0,0,0,0,350838
16842543,0,1229918,1315742,1490979,12103075,0,0,0,0,0,0,0,342,351650,0,0,0,0,0,350837
16842458,0,1229911,1315734,1490971,12103011,0,0,0,0,0,0,0,342,351652,0,0,0,0,0,350837
16842401,0,1229918,1315729,1490965,12102954,0,0,0,0,0,0,0,344,351653,0,0,0,0,0,350838
16842026,0,1229879,1315700,1490934,12102701,0,0,0,0,0,0,0,342,351640,0,0,0,0,0,350830
16842872,0,1229940,1315766,1491009,12103304,0,0,0,0,0,0,0,342,351663,0,0,0,0,0,350848
16842492,0,1229925,1315737,1490972,12103022,0,0,0,0,0,0,0,344,351654,0,0,0,0,0,350838
16842333,0,1229902,1315725,1490960,12102923,0,0,0,0,0,0,0,342,351647,0,0,0,0,0,350834
16842345,0,1229903,1315725,1490962,12102928,0,0,0,0,0,0,0,342,351648,0,0,0,0,0,350837
16841848,0,1229866,1315687,1490918,12102572,0,0,0,0,0,0,0,342,351638,0,0,0,0,0,350825
16842300,0,1229911,1315721,1490956,12102883,0,0,0,0,0,0,0,344,351651,0,0,0,0,0,350834
16841970,0,1229875,1315696,1490928,12102659,0,0,0,0,0,0,0,342,351641,0,0,0,0,0,350829
16841889,0,1229870,1315690,1490921,12102602,0,0,0,0,0,0,0,342,351639,0,0,0,0,0,350825
16841584,0,1229857,1315665,1490893,12102366,0,0,0,0,0,0,0,344,351637,0,0,0,0,0,350822
16841781,0,1229861,1315681,1490912,12102522,0,0,0,0,0,0,0,342,351637,0,0,0,0,0,350826
16842861,0,1229941,1315766,1491007,12103302,0,0,0,0,0,0,0,342,351658,0,0,0,0,0,350845
16842153,0,1229888,1315710,1490945,12102789,0,0,0,0,0,0,0,342,351646,0,0,0,0,0,350833
16842323,0,1229912,1315724,1490958,12102901,0,0,0,0,0,0,0,344,351650,0,0,0,0,0,350834
16842374,0,1229905,1315727,1490964,12102949,0,0,0,0,0,0,0,342,351650,0,0,0,0,0,350837
16841721,0,1229858,1315677,1490906,12102483,0,0,0,0,0,0,0,342,351634,0,0,0,0,0,350821
16842172,0,1229900,1315711,1490945,12102788,0,0,0,0,0,0,0,344,351650,0,0,0,0,0,350834
16842396,0,1229906,1315729,1490967,12102965,0,0,0,0,0,0,0,342,351649,0,0,0,0,0,350838
16841898,0,1229871,1315691,1490921,12102610,0,0,0,0,0,0,0,342,351639,0,0,0,0,0,350824
16842580,0,1229930,1315743,1490981,12103082,0,0,0,0,0,0,0,344,351658,0,0,0,0,0,350842
16842241,0,1229895,1315717,1490953,12102855,0,0,0,0,0,0,0,342,351645,0,0,0,0,0,350834
16842423,0,1229909,1315732,1490968,12102985,0,0,0,0,0,0,0,342,351650,0,0,0,0,0,350837
16842419,0,1229908,1315731,1490968,12102983,0,0,0,0,0,0,0,342,351650,0,0,0,0,0,350837
16842580,0,1229930,1315743,1490981,12103082,0,0,0,0,0,0,0,344,351658,0,0,0,0,0,350842
16842251,0,1229896,1315718,1490953,12102863,0,0,0,0,0,0,0,342,351646,0,0,0,0,0,350833
16841959,0,1229876,1315696,1490927,12102654,0,0,0,0,0,0,0,342,351639,0,0,0,0,0,350825
16842484,0,1229922,1315735,1490973,12103011,0,0,0,0,0,0,0,344,351657,0,0,0,0,0,350842
16842297,0,1229900,1315722,1490957,12102897,0,0,0,0,0,0,0,342,351645,0,0,0,0,0,350834
16841735,0,1229859,1315678,1490907,12102493,0,0,0,0,0,0,0,342,351635,0,0,0,0,0,350821
16842180,0,1229901,1315712,1490946,12102794,0,0,0,0,0,0,0,344,351650,0,0,0,0,0,350833
16842546,0,1229916,1315741,1490980,12103072,0,0,0,0,0,0,0,342,351653,0,0,0,0,0,350842
16842110,0,1229887,1315707,1490940,12102763,0,0,0,0,0,0,0,342,351642,0,0,0,0,0,350829
16842057,0,1229882,1315703,1490936,12102723,0,0,0,0,0,0,0,342,351642,0,0,0,0,0,350829
16842351,0,1229913,1315725,1490961,12102916,0,0,0,0,0,0,0,344,351654,0,0,0,0,0,350838
16842197,0,1229891,1315714,1490949,12102822,0,0,0,0,0,0,0,342,351645,0,0,0,0,0,350834
16842074,0,1229884,1315704,1490937,12102736,0,0,0,0,0,0,0,342,351643,0,0,0,0,0,350828
16842268,0,1229908,1315719,1490953,12102860,0,0,0,0,0,0,0,344,351650,0,0,0,0,0,350834
17456008,0,1200237,1375888,1558995,12582590,24,0,0,0,0,0,0,2828,351131,0,0,0,0,0,384315
33335093,0,2842,3125444,3333347,25204959,0,0,0,0,0,0,0,406,418215,0,0,0,0,0,1249880
33335095,0,2849,3125445,3333346,25204948,0,0,0,0,0,0,0,407,418221,0,0,0,0,0,1249879
33335096,0,2849,3125445,3333347,25204948,0,0,0,0,0,0,0,407,418220,0,0,0,0,0,1249880
33335098,0,2849,3125446,3333347,25204956,0,0,0,0,0,0,0,407,418220,0,0,0,0,0,1249873
33335098,0,2849,3125445,3333347,25204951,0,0,0,0,0,0,0,407,418219,0,0,0,0,0,1249880
33335098,0,2849,3125445,3333347,25204950,0,0,0,0,0,0,0,407,418221,0,0,0,0,0,1249879
33335098,0,2849,3125445,3333347,25204950,0,0,0,0,0,0,0,407,418221,0,0,0,0,0,1249879
33335091,0,2842,3125444,3333347,25204963,0,0,0,0,0,0,0,406,418215,0,0,0,0,0,1249874
33335097,0,2849,3125445,3333347,25204950,0,0,0,0,0,0,0,407,418220,0,0,0,0,0,1249879
33335097,0,2849,3125445,3333347,25204949,0,0,0,0,0,0,0,407,418220,0,0,0,0,0,1249880
33335097,0,2849,3125445,3333347,25204949,0,0,0,0,0,0,0,407,418221,0,0,0,0,0,1249879
33335095,0,2849,3125446,3333346,25204954,0,0,0,0,0,0,0,407,418219,0,0,0,0,0,1249874
33335097,0,2849,3125445,3333347,25204950,0,0,0,0,0,0,0,407,418220,0,0,0,0,0,1249879
33335098,0,2849,3125445,3333347,25204950,0,0,0,0,0,0,0,407,418221,0,0,0,0,0,1249879
33335094,0,2842,3125444,3333347,25204959,0,0,0,0,0,0,0,406,418216,0,0,0,0,0,1249880
33335098,0,2849,3125445,3333347,25204956,0,0,0,0,0,0,0,407,418221,0,0,0,0,0,1249873
33335097,0,2849,3125446,3333347,25204950,0,0,0,0,0,0,0,407,418218,0,0,0,0,0,1249880
33335095,0,2849,3125444,3333347,25204948,0,0,0,0,0,0,0,407,418221,0,0,0,0,0,1249879
33335098,0,2849,3125445,3333347,25204950,0,0,0,0,0,0,0,407,418220,0,0,0,0,0,1249880
33335097,0,2849,3125446,3333347,25204955,0,0,0,0,0,0,0,407,418220,0,0,0,0,0,1249873
18458527,0,1140554,1491707,1722719,13306615,11,0,0,0,0,0,37,3387,353312,36,72,144,288,576,439069
16848893,0,1230381,1316237,1491541,12107640,0,0,0,0,0,0,0,342,351782,0,0,0,0,0,350970
16849036,0,1230400,1316247,1491553,12107721,0,0,0,0,0,0,0,344,351794,0,0,0,0,0,350977
16848856,0,1230379,1316235,1491537,12107611,0,0,0,0,0,0,0,342,351783,0,0,0,0,0,350969
16848968,0,1230386,1316243,1491548,12107690,0,0,0,0,0,0,0,342,351785,0,0,0,0,0,350974
16848557,0,1230366,1316210,1491510,12107379,0,0,0,0,0,0,0,344,351783,0,0,0,0,0,350965
16849065,0,1230392,1316250,1491557,12107758,0,0,0,0,0,0,0,342,351789,0,0,0,0,0,350977
16848993,0,1230388,1316245,1491550,12107709,0,0,0,0,0,0,0,342,351785,0,0,0,0,0,350974
16849107,0,1230406,1316253,1491559,12107773,0,0,0,0,0,0,0,344,351794,0,0,0,0,0,350978
16849042,0,1230392,1316249,1491554,12107745,0,0,0,0,0,0,0,342,351787,0,0,0,0,0,350973
16848534,0,1230364,1316208,1491508,12107363,0,0,0,0,0,0,0,344,351782,0,0,0,0,0,350965
16849459,0,1230421,1316281,1491592,12108040,0,0,0,0,0,0,0,342,351797,0,0,0,0,0,350986
16849041,0,1230392,1316249,1491554,12107744,0,0,0,0,0,0,0,342,351787,0,0,0,0,0,350973
16848868,0,1230388,1316234,1491538,12107601,0,0,0,0,0,0,0,344,351790,0,0,0,0,0,350973
16848857,0,1230379,1316235,1491538,12107611,0,0,0,0,0,0,0,342,351782,0,0,0,0,0,350970
16848397,0,1230342,1316197,1491498,12107276,0,0,0,0,0,0,0,342,351776,0,0,0,0,0,350966
16848848,0,1230388,1316233,1491536,12107591,0,0,0,0,0,0,0,344,351787,0,0,0,0,0,350969
16848425,0,1230347,1316201,1491499,12107301,0,0,0,0,0,0,0,342,351774,0,0,0,0,0,350961
16848573,0,1230357,1316212,1491513,12107405,0,0,0,0,0,0,0,342,351778,0,0,0,0,0,350966
16848100,0,1230332,1316174,1491470,12107049,0,0,0,0,0,0,0,344,351774,0,0,0,0,0,350957
16848513,0,1230352,1316207,1491508,12107361,0,0,0,0,0,0,0,342,351778,0,0,0,0,0,350965
16849428,0,1230420,1316279,1491589,12108023,0,0,0,0,0,0,0,342,351793,0,0,0,0,0,350982
16848701,0,1230376,1316221,1491523,12107481,0,0,0,0,0,0,0,344,351786,0,0,0,0,0,350970
16848953,0,1230385,1316242,1491546,12107679,0,0,0,0,0,0,0,342,351787,0,0,0,0,0,350972
16848854,0,1230389,1316234,1491536,12107595,0,0,0,0,0,0,0,344,351786,0,0,0,0,0,350970
16848347,0,1230340,1316194,1491493,12107243,0,0,0,0,0,0,0,342,351773,0,0,0,0,0,350962
16848729,0,1230368,1316224,1491527,12107517,0,0,0,0,0,0,0,342,351782,0,0,0,0,0,350969
16849058,0,1230404,1316250,1491554,12107741,0,0,0,0,0,0,0,344,351792,0,0,0,0,0,350973
16848695,0,1230365,1316221,1491524,12107493,0,0,0,0,0,0,0,342,351780,0,0,0,0,0,350970
16849041,0,1230390,1316248,1491555,12107739,0,0,0,0,0,0,0,342,351790,0,0,0,0,0,350977
16848832,0,1230387,1316232,1491534,12107579,0,0,0,0,0,0,0,344,351787,0,0,0,0,0,350969
16848861,0,1230378,1316235,1491538,12107615,0,0,0,0,0,0,0,342,351783,0,0,0,0,0,350970
16848991,0,1230387,1316244,1491551,12107702,0,0,0,0,0,0,0,342,351787,0,0,0,0,0,350978
16849290,0,1230421,1316268,1491574,12107910,0,0,0,0,0,0,0,344,351796,0,0,0,0,0,350977
16848847,0,1230376,1316233,1491538,12107600,0,0,0,0,0,0,0,342,351785,0,0,0,0,0,350973
16848786,0,1230383,1316228,1491530,12107545,0,0,0,0,0,0,0,344,351786,0,0,0,0,0,350970
16849045,0,1230391,1316249,1491555,12107745,0,0,0,0,0,0,0,342,351790,0,0,0,0,0,350973
16848832,0,1230376,1316232,1491536,12107591,0,0,0,0,0,0,0,342,351782,0,0,0,0,0,350973
16848377,0,1230353,1316196,1491494,12107250,0,0,0,0,0,0,0,344,351778,0,0,0,0,0,350962
16848897,0,1230380,1316237,1491542,12107637,0,0,0,0,0,0,0,342,351785,0,0,0,0,0,350974
16848986,0,1230387,1316244,1491550,12107704,0,0,0,0,0,0,0,342,351786,0,0,0,0,0,350973
16848643,0,1230374,1316218,1491517,12107442,0,0,0,0,0,0,0,344,351783,0,0,0,0,0,350965
16848488,0,1230349,1316205,1491506,12107343,0,0,0,0,0,0,0,342,351777,0,0,0,0,0,350966
16848866,0,1230380,1316235,1491538,12107619,0,0,0,0,0,0,0,342,351783,0,0,0,0,0,350969
16848678,0,1230374,1316219,1491521,12107465,0,0,0,0,0,0,0,344,351786,0,0,0,0,0,350969
16848739,0,1230369,1316225,1491528,12107524,0,0,0,0,0,0,0,342,351781,0,0,0,0,0,350970
16848748,0,1230380,1316225,1491527,12107516,0,0,0,0,0,0,0,344,351786,0,0,0,0,0,350970
18427562,0,1128827,1482306,1667388,13353963,24,0,0,0,0,0,0,2831,355148,0,0,0,0,0,437075
33335097,0,2849,3125445,3333347,25204949,0,0,0,0,0,0,0,407,418221,0,0,0,0,0,1249879
33335097,0,2849,3125445,3333347,25204949,0,0,0,0,0,0,0,407,418220,0,0,0,0,0,1249880
33335095,0,2849,3125446,3333346,25204954,0,0,0,0,0,0,0,407,418220,0,0,0,0,0,1249873
33335097,0,2849,3125445,3333347,25204950,0,0,0,0,0,0,0,407,418219,0,0,0,0,0,1249880
33335098,0,2849,3125445,3333347,25204950,0,0,0,0,0,0,0,407,418221,0,0,0,0,0,1249879
33335098,0,2849,3125445,3333347,25204950,0,0,0,0,0,0,0,407,418220,0,0,0,0,0,1249880
33335094,0,2842,3125444,3333347,25204965,0,0,0,0,0,0,0,406,418217,0,0,0,0,0,1249873
33335097,0,2849,3125446,3333347,25204950,0,0,0,0,0,0,0,407,418219,0,0,0,0,0,1249879
33335095,0,2849,3125444,3333347,25204948,0,0,0,0,0,0,0,407,418220,0,0,0,0,0,1249880
33335098,0,2849,3125445,3333347,25204950,0,0,0,0,0,0,0,407,418221,0,0,0,0,0,1249879
33335097,0,2849,3125446,3333347,25204955,0,0,0,0,0,0,0,407,418219,0,0,0,0,0,1249874
33335096,0,2849,3125445,3333346,25204950,0,0,0,0,0,0,0,407,418220,0,0,0,0,0,1249879
33335095,0,2849,3125445,3333347,25204947,0,0,0,0,0,0,0,407,418220,0,0,0,0,0,1249880
33335094,0,2842,3125444,3333347,25204959,0,0,0,0,0,0,0,406,418217,0,0,0,0,0,1249879
33335098,0,2849,3125445,3333347,25204956,0,0,0,0,0,0,0,407,418221,0,0,0,0,0,1249873
33335098,0,2849,3125446,3333347,25204951,0,0,0,0,0,0,0,407,418218,0,0,0,0,0,1249880
33335098,0,2849,3125445,3333347,25204950,0,0,0,0,0,0,0,407,418221,0,0,0,0,0,1249879
33335096,0,2849,3125445,3333347,25204948,0,0,0,0,0,0,0,407,418220,0,0,0,0,0,1249880
33335096,0,2849,3125445,3333347,25204955,0,0,0,0,0,0,0,407,418220,0,0,0,0,0,1249873
33335098,0,2849,3125445,3333347,25204951,0,0,0,0,0,0,0,407,418219,0,0,0,0,0,1249880
17498827,0,1212823,1386215,1615375,12543779,11,0,0,0,0,0,37,3383,349535,36,72,144,288,576,386553
16854665,0,1230801,1316688,1492053,12111782,0,0,0,0,0,0,0,342,351907,0,0,0,0,0,351092
16854728,0,1230816,1316692,1492056,12111816,0,0,0,0,0,0,0,344,351910,0,0,0,0,0,351094
16854597,0,1230797,1316683,1492046,12111737,0,0,0,0,0,0,0,342,351902,0,0,0,0,0,351090
16854772,0,1230818,1316695,1492061,12111843,0,0,0,0,0,0,0,344,351914,0,0,0,0,0,351097
16854258,0,1230773,1316657,1492016,12111494,0,0,0,0,0,0,0,342,351895,0,0,0,0,0,351081
16854823,0,1230822,1316699,1492065,12111882,0,0,0,0,0,0,0,344,351913,0,0,0,0,0,351098
16854765,0,1230809,1316696,1492061,12111858,0,0,0,0,0,0,0,342,351905,0,0,0,0,0,351094
16854964,0,1230823,1316712,1492079,12112000,0,0,0,0,0,0,0,342,351912,0,0,0,0,0,351096
16854717,0,1230816,1316691,1492055,12111807,0,0,0,0,0,0,0,344,351910,0,0,0,0,0,351094
16854388,0,1230779,1316666,1492029,12111582,0,0,0,0,0,0,0,342,351900,0,0,0,0,0,351090
9945040,0,726232,776907,880380,7146518,0,0,0,0,0,0,0,202,207641,0,0,0,0,0,207160
