PACKAGE_ENERGY:PACKAGE0,PACKAGE_ENERGY:PACKAGE1,DRAM_ENERGY:PACKAGE0,DRAM_ENERGY:PACKAGE1,TOTAL_ENERGY,TOTAL_TIME,POWER
51.242797851000,38.340942382000,27.703979492000,26.591690063000,143.879409788000,2.018786000000,71.270263310722
33.789306640000,29.837829589000,18.731506347000,17.224731445000,99.583374021000,1.302974000000,76.427752219922
19.112670898000,13.845275878000,9.862655639000,8.055969238000,50.876571653000,0.609193000000,83.514701667616
12.897583007000,6.492919921000,5.595642089000,4.073394775000,29.059539792000,0.307036000000,94.645382925781
11.794494628000,5.091247558000,4.767150878000,3.301803588000,24.954696652000,0.248630000000,100.368807674054
10.882446289000,4.222412109000,4.378173828000,2.805847167000,22.288879393000,0.212332000000,104.971833699113
10.099670410000,7.645080566000,4.309204101000,2.645996093000,24.699951170000,0.200622000000,123.116862407911
10.790893554000,8.756408691000,4.613174438000,2.899993896000,27.060470579000,0.219208000000,123.446546563082
