PACKAGE_ENERGY:PACKAGE0,PACKAGE_ENERGY:PACKAGE1,DRAM_ENERGY:PACKAGE0,DRAM_ENERGY:PACKAGE1,TOTAL_ENERGY,TOTAL_TIME,POWER
15.517089843000,11.522583007000,8.314193725000,8.055389404000,43.409255979000,0.608521000000,71.335674494389
7.516723632000,5.596069335000,3.988327026000,3.619522094000,20.720642087000,0.271856000000,76.219182534136
4.543273925000,2.503723144000,2.183975219000,1.726684570000,10.957656858000,0.131225000000,83.502814692322
3.029479980000,1.327209472000,1.329223632000,0.922195434000,6.608108518000,0.069573000000,94.980933954264
2.734985351000,1.059692382000,1.139236450000,0.749328613000,5.683242796000,0.056279000000,100.983364949626
2.738586425000,1.652160644000,1.184722900000,0.750503540000,6.325973509000,0.055786000000,113.397151776431
3.087585449000,2.243774414000,1.279052734000,0.842102050000,7.452514647000,0.063915000000,116.600401267308
3.191650390000,2.644470214000,1.351608276000,0.898117065000,8.085845945000,0.066954000000,120.767182617917
