PATCH CORRUPTED .csv FILES:

ilp_phases:
-------------------------------------------



itypes_phases:
-------------------------------------------



memfootprint_phases:
-------------------------------------------



memstackdist_phases:
-------------------------------------------



ppm_phases:
-------------------------------------------



reg_phases:
-------------------------------------------



stride_phases:
-------------------------------------------

----------------------------------------------------------------------------

