1000000000,1778830807,784545232,1228694824,1241306407,275634815,452801449,647602746,776810235,920282148,1019865732,1099231612
1000000000,1780825585,790047727,1234025946,1245668533,277686377,457342886,653986097,784014422,928296361,1027427078,1106790319
1000000000,1780851825,790060826,1234044041,1245686571,277685298,457344974,653991230,784026182,928311955,1027442706,1106809092
1000000000,1780830417,790044445,1234022954,1245665250,277687209,457342639,653983009,784010308,928291126,1027421417,1106786079
1000000000,1780816522,790038866,1234012829,1245655376,277685884,457342290,653980899,784005339,928284804,1027415231,1106777280
1000000000,1780862609,790070822,1234057236,1245699860,277685754,457346535,653997014,784036072,928324556,1027455205,1106822696
1000000000,1780830804,790041358,1234019147,1245661347,277685803,457340500,653979987,784006569,928288327,1027418308,1106783150
1000000000,1780815207,790041652,1234016730,1245659382,277687355,457344315,653983901,784008824,928287149,1027418097,1106779953
1000000000,1780863185,790066207,1234052184,1245694611,277684435,457343610,653992869,784031148,928320201,1027450614,1106818454
699709436,1245863610,552274913,863020186,871211049,194257619,319799370,457187534,548182945,649039454,718494386,774124356
