rm: cannot remove 'particle_filter': No such file or directory
make: *** [clean] Error 1
Analysis type: all
Measuring ALL characteristics...
interval size: full
Returning data for full execution...
All done reading config
interval_size: -1, mode: 1
=>> PBS: job killed: walltime 3614 exceeded limit 3600
