/home/users/amarkou/tools/average/average pdata-double.csv 100 2 &> power-avg-double.txt
----------------------------------------------------------------------------------------

For 2 steps
average power (/kernel execution):	 137.865986 (Watts)
