sample points,,power,,power average
1,1,68.916,,127.494193
2,1,68.916,,127.494193
3,1,69.0681,,127.494193
4,1,69.111,,127.494193
5,1,69.111,,127.494193
6,1,69.111,,127.494193
7,1,69.111,,127.494193
8,1,69.111,,127.494193
9,1,69.111,,127.494193
10,1,69.111,,127.494193
11,1,69.111,,127.494193
12,1,69.111,,127.494193
13,1,69.111,,127.494193
14,1,69.111,,127.494193
15,1,69.111,,127.494193
16,1,69.111,,127.494193
17,1,69.111,,127.494193
18,1,69.111,,127.494193
19,1,69.111,,127.494193
20,1,69.111,,127.494193
21,1,69.111,,127.494193
22,1,69.111,,127.494193
23,1,97.0429,,127.494193
24,1,98.513,,127.494193
25,1,98.513,,127.494193
26,1,114.45263,,127.494193
27,1,123.814,,127.494193
28,1,123.814,,127.494193
29,1,125.02424,,127.494193
30,1,127.718,,127.494193
31,1,127.718,,127.494193
32,1,127.718,,127.494193
33,1,128.38526,,127.494193
34,1,128.392,,127.494193
35,1,128.392,,127.494193
36,1,128.51997,,127.494193
37,1,128.583,,127.494193
38,1,128.583,,127.494193
39,1,128.6166,,127.494193
40,1,128.679,,127.494193
41,1,128.679,,127.494193
42,1,128.67668,,127.494193
43,1,128.563,,127.494193
44,1,128.563,,127.494193
45,1,128.563,,127.494193
46,1,128.6442,,127.494193
47,1,128.679,,127.494193
48,1,128.679,,127.494193
49,1,128.71415,,127.494193
50,1,128.774,,127.494193
51,1,128.774,,127.494193
52,1,128.7664,,127.494193
53,1,128.679,,127.494193
54,1,128.679,,127.494193
55,1,128.679,,127.494193
56,1,128.8965,,127.494193
57,1,128.969,,127.494193
58,1,128.969,,127.494193
59,1,128.92784,,127.494193
60,1,128.871,,127.494193
61,1,128.871,,127.494193
62,1,128.871,,127.494193
63,1,128.871,,127.494193
64,1,128.871,,127.494193
65,1,128.871,,127.494193
66,1,128.7942,,127.494193
67,1,128.775,,127.494193
68,1,128.775,,127.494193
69,1,128.91324,,127.494193
70,1,129.063,,127.494193
71,1,129.063,,127.494193
72,1,129.04796,,127.494193
73,1,128.969,,127.494193
74,1,128.969,,127.494193
75,1,128.969,,127.494193
76,1,128.969,,127.494193
77,1,128.969,,127.494193
78,1,128.969,,127.494193
79,1,128.969,,127.494193
80,1,128.969,,127.494193
81,1,128.969,,127.494193
82,1,128.988,,127.494193
83,1,129.064,,127.494193
84,1,129.064,,127.494193
85,1,129.064,,127.494193
86,1,128.89416,,127.494193
87,1,128.871,,127.494193
88,1,128.871,,127.494193
89,1,128.871,,127.494193
90,1,128.871,,127.494193
91,1,128.871,,127.494193
92,1,128.87146,,127.494193
93,1,128.873,,127.494193
94,1,128.873,,127.494193
95,1,128.873,,127.494193
96,1,128.87118,,127.494193
97,1,128.871,,127.494193
98,1,128.871,,127.494193
99,1,128.92784,,127.494193
100,1,128.969,,127.494193
101,1,128.969,,127.494193
102,1,128.99344,,127.494193
103,1,129.063,,127.494193
104,1,129.063,,127.494193
105,1,129.063,,127.494193
106,1,128.88252,,127.494193
107,1,128.871,,127.494193
108,1,128.871,,127.494193
109,1,128.98995,,127.494193
110,1,129.066,,127.494193
111,1,129.066,,127.494193
112,1,129.06544,,127.494193
113,1,129.064,,127.494193
114,1,129.064,,127.494193
115,1,129.064,,127.494193
116,1,128.96992,,127.494193
117,1,128.966,,127.494193
118,1,128.966,,127.494193
119,1,129.0297,,127.494193
120,1,129.064,,127.494193
121,1,129.064,,127.494193
122,1,129.06464,,127.494193
123,1,129.066,,127.494193
124,1,129.066,,127.494193
125,1,129.06406,,127.494193
126,1,128.969,,127.494193
127,1,128.969,,127.494193
128,1,128.969,,127.494193
129,1,129.03787,,127.494193
130,1,129.066,,127.494193
131,1,129.066,,127.494193
132,1,129.05742,,127.494193
133,1,129.044,,127.494193
134,1,129.044,,127.494193
135,1,129.04532,,127.494193
136,1,129.066,,127.494193
137,1,129.066,,127.494193
138,1,129.066,,127.494193
139,1,129.066,,127.494193
140,1,129.066,,127.494193
141,1,129.066,,127.494193
142,1,129.066,,127.494193
143,1,129.066,,127.494193
144,1,129.066,,127.494193
145,1,129.07455,,127.494193
146,1,129.161,,127.494193
147,1,129.161,,127.494193
148,1,129.161,,127.494193
149,1,129.07208,,127.494193
150,1,129.044,,127.494193
151,1,129.044,,127.494193
152,1,129.1151,,127.494193
153,1,129.202,,127.494193
154,1,129.202,,127.494193
155,1,122.95485,,127.494193
156,1,81.147,,127.494193
157,1,81.147,,127.494193
158,1,81.147,,127.494193
159,1,73.35075,,127.494193
160,1,71.522,,127.494193
161,1,71.522,,127.494193
162,1,70.7184,,127.494193
163,1,69.882,,127.494193
164,1,69.882,,127.494193
165,1,69.8269,,127.494193
166,1,69.592,,127.494193
167,1,69.592,,127.494193
168,1,69.592,,127.494193
169,1,69.59896,,127.494193
170,1,69.31173,,127.494193
171,1,69.111,,127.494193
172,1,69.111,,127.494193
173,1,69.111,,127.494193
174,1,69.111,,127.494193
175,1,69.15132,,127.494193
176,1,69.303,,127.494193
177,1,69.303,,127.494193
178,1,69.303,,127.494193
179,1,69.303,,127.494193
180,1,69.303,,127.494193
181,1,69.303,,127.494193
182,1,69.303,,127.494193
183,1,69.303,,127.494193
184,1,69.303,,127.494193
185,1,69.303,,127.494193
186,1,69.303,,127.494193
187,1,69.303,,127.494193
188,1,69.303,,127.494193
189,1,69.303,,127.494193
190,1,69.303,,127.494193
191,1,69.303,,127.494193
192,1,69.303,,127.494193
193,1,69.303,,127.494193
194,1,69.303,,127.494193
195,1,69.303,,127.494193
196,1,69.303,,127.494193
197,1,69.303,,127.494193
198,1,69.303,,127.494193
199,1,69.303,,127.494193
200,1,69.303,,127.494193
201,1,69.303,,127.494193
202,1,69.303,,127.494193
203,1,69.303,,127.494193
204,1,69.303,,127.494193
205,1,84.0978,,127.494193
206,1,106.29,,127.494193
207,1,106.29,,127.494193
208,1,107.96096,,127.494193
209,1,127.177,,127.494193
210,1,127.177,,127.494193
211,1,127.177,,127.494193
212,1,129.52675,,127.494193
213,1,130.31,,127.494193
214,1,130.31,,127.494193
215,1,130.64067,,127.494193
216,1,131.079,,127.494193
217,1,131.079,,127.494193
218,1,131.079,,127.494193
219,1,131.079,,127.494193
220,1,131.079,,127.494193
221,1,131.079,,127.494193
222,1,131.06557,,127.494193
223,1,131.062,,127.494193
224,1,131.062,,127.494193
225,1,131.1607,,127.494193
226,1,131.272,,127.494193
227,1,131.272,,127.494193
228,1,131.272,,127.494193
229,1,131.272,,127.494193
230,1,131.272,,127.494193
231,1,131.272,,127.494193
232,1,131.33745,,127.494193
233,1,131.349,,127.494193
234,1,131.349,,127.494193
235,1,131.29662,,127.494193
236,1,131.252,,127.494193
237,1,131.252,,127.494193
238,1,131.27774,,127.494193
239,1,131.369,,127.494193
240,1,131.369,,127.494193
241,1,131.369,,127.494193
242,1,131.34625,,127.494193
243,1,131.344,,127.494193
244,1,131.344,,127.494193
245,1,131.35875,,127.494193
246,1,131.369,,127.494193
247,1,131.369,,127.494193
248,1,131.36816,,127.494193
249,1,131.366,,127.494193
250,1,131.366,,127.494193
251,1,131.366,,127.494193
252,1,131.45912,,127.494193
253,1,131.463,,127.494193
254,1,131.463,,127.494193
255,1,131.4019,,127.494193
256,1,131.369,,127.494193
257,1,131.369,,127.494193
258,1,131.42642,,127.494193
259,1,131.543,,127.494193
260,1,131.543,,127.494193
261,1,131.54197,,127.494193
262,1,131.44,,127.494193
263,1,131.44,,127.494193
264,1,131.44,,127.494193
265,1,131.509,,127.494193
266,1,131.54,,127.494193
267,1,131.54,,127.494193
268,1,131.50411,,127.494193
269,1,131.443,,127.494193
270,1,131.443,,127.494193
271,1,131.4488,,127.494193
272,1,131.559,,127.494193
273,1,131.559,,127.494193
274,1,131.559,,127.494193
275,1,131.47432,,127.494193
276,1,131.443,,127.494193
277,1,131.443,,127.494193
278,1,131.45243,,127.494193
279,1,131.466,,127.494193
280,1,131.466,,127.494193
281,1,131.47266,,127.494193
282,1,131.54,,127.494193
283,1,131.54,,127.494193
284,1,131.54,,127.494193
285,1,131.48302,,127.494193
286,1,131.466,,127.494193
287,1,131.466,,127.494193
288,1,131.54402,,127.494193
289,1,131.632,,127.494193
290,1,131.632,,127.494193
291,1,131.6212,,127.494193
292,1,131.56,,127.494193
293,1,131.56,,127.494193
294,1,131.56,,127.494193
295,1,131.56,,127.494193
296,1,131.56,,127.494193
297,1,131.56,,127.494193
298,1,131.56,,127.494193
299,1,131.56,,127.494193
300,1,131.56,,127.494193
301,1,131.5558,,127.494193
302,1,131.54,,127.494193
303,1,131.54,,127.494193
304,1,131.54,,127.494193
305,1,131.70704,,127.494193
306,1,131.732,,127.494193
307,1,131.732,,127.494193
308,1,131.62168,,127.494193
309,1,131.535,,127.494193
310,1,131.535,,127.494193
311,1,131.55731,,127.494193
312,1,131.632,,127.494193
313,1,131.632,,127.494193
314,1,131.632,,127.494193
315,1,131.46274,,127.494193
316,1,131.446,,127.494193
317,1,131.446,,127.494193
318,1,131.458,,127.494193
319,1,131.466,,127.494193
320,1,131.466,,127.494193
321,1,131.48756,,127.494193
322,1,131.543,,127.494193
323,1,131.543,,127.494193
324,1,131.543,,127.494193
325,1,131.62755,,127.494193
326,1,131.632,,127.494193
327,1,131.632,,127.494193
328,1,131.57404,,127.494193
329,1,131.54,,127.494193
330,1,131.54,,127.494193
331,1,131.60208,,127.494193
332,1,131.734,,127.494193
333,1,131.734,,127.494193
334,1,131.7325,,127.494193
335,1,131.659,,127.494193
336,1,131.659,,127.494193
337,1,131.659,,127.494193
338,1,131.6415,,127.494193
339,1,131.634,,127.494193
340,1,131.634,,127.494193
341,1,131.60664,,127.494193
342,1,131.562,,127.494193
343,1,131.562,,127.494193
344,1,131.57232,,127.494193
345,1,131.734,,127.494193
346,1,131.734,,127.494193
347,1,131.734,,127.494193
348,1,131.74658,,127.494193
349,1,131.751,,127.494193
350,1,131.751,,127.494193
351,1,131.75182,,127.494193
352,1,131.753,,127.494193
353,1,131.753,,127.494193
354,1,131.753,,127.494193
355,1,131.753,,127.494193
356,1,131.753,,127.494193
357,1,131.753,,127.494193
358,1,131.64536,,127.494193
359,1,131.615,,127.494193
360,1,131.615,,127.494193
361,1,131.63468,,127.494193
362,1,131.656,,127.494193
363,1,131.656,,127.494193
364,1,131.656,,127.494193
365,1,131.656,,127.494193
366,1,131.656,,127.494193
367,1,131.656,,127.494193
368,1,131.73748,,127.494193
369,1,131.753,,127.494193
370,1,131.753,,127.494193
371,1,131.69008,,127.494193
372,1,131.632,,127.494193
373,1,131.632,,127.494193
374,1,131.6187,,127.494193
375,1,131.562,,127.494193
376,1,131.562,,127.494193
377,1,131.562,,127.494193
378,1,131.562,,127.494193
379,1,131.562,,127.494193
380,1,131.562,,127.494193
381,1,131.70726,,127.494193
382,1,131.831,,127.494193
383,1,131.831,,127.494193
384,1,131.78921,,127.494193
385,1,131.632,,127.494193
386,1,131.632,,127.494193
387,1,131.632,,127.494193
388,1,131.7193,,127.494193
389,1,131.729,,127.494193
390,1,131.729,,127.494193
391,1,131.78526,,127.494193
392,1,131.826,,127.494193
393,1,131.826,,127.494193
394,1,131.80683,,127.494193
395,1,131.755,,127.494193
396,1,131.755,,127.494193
397,1,131.755,,127.494193
398,1,131.73484,,127.494193
399,1,131.734,,127.494193
400,1,131.734,,127.494193
401,1,131.86904,,127.494193
402,1,131.945,,127.494193
403,1,131.945,,127.494193
404,1,131.90811,,127.494193
405,1,131.826,,127.494193
406,1,131.826,,127.494193
407,1,131.826,,127.494193
408,1,131.72997,,127.494193
409,1,131.729,,127.494193
410,1,131.729,,127.494193
411,1,131.66401,,127.494193
412,1,131.632,,127.494193
413,1,131.632,,127.494193
414,1,131.67435,,127.494193
415,1,131.753,,127.494193
416,1,131.753,,127.494193
417,1,131.75262,,127.494193
418,1,131.734,,127.494193
419,1,131.734,,127.494193
420,1,131.734,,127.494193
421,1,131.8168,,127.494193
422,1,131.849,,127.494193
423,1,131.849,,127.494193
424,1,131.8106,,127.494193
425,1,131.753,,127.494193
426,1,131.753,,127.494193
427,1,131.7508,,127.494193
428,1,131.731,,127.494193
429,1,131.731,,127.494193
430,1,131.731,,127.494193
431,1,131.74838,,127.494193
432,1,131.753,,127.494193
433,1,131.753,,127.494193
434,1,131.753,,127.494193
435,1,131.753,,127.494193
436,1,131.753,,127.494193
437,1,131.78195,,127.494193
438,1,131.946,,127.494193
439,1,131.946,,127.494193
440,1,131.946,,127.494193
441,1,131.86632,,127.494193
442,1,131.85,,127.494193
443,1,131.85,,127.494193
444,1,131.80053,,127.494193
445,1,131.753,,127.494193
446,1,131.753,,127.494193
447,1,131.7684,,127.494193
448,1,131.83,,127.494193
449,1,131.83,,127.494193
450,1,131.83,,127.494193
451,1,131.83,,127.494193
452,1,131.83,,127.494193
453,1,131.83,,127.494193
454,1,131.77243,,127.494193
455,1,131.729,,127.494193
456,1,131.729,,127.494193
457,1,131.75228,,127.494193
458,1,131.826,,127.494193
459,1,131.826,,127.494193
460,1,131.826,,127.494193
461,1,131.84832,,127.494193
462,1,131.85,,127.494193
463,1,131.85,,127.494193
464,1,131.7198,,127.494193
465,1,131.64,,127.494193
466,1,131.64,,127.494193
467,1,131.6955,,127.494193
468,1,131.825,,127.494193
469,1,131.825,,127.494193
470,1,131.38522,,127.494193
471,1,87.847,,127.494193
472,1,87.847,,127.494193
473,1,87.847,,127.494193
474,1,77.4487,,127.494193
475,1,72.777,,127.494193
476,1,72.777,,127.494193
477,1,71.9436,,127.494193
478,1,70.462,,127.494193
479,1,70.462,,127.494193
480,1,70.44268,,127.494193
481,1,69.979,,127.494193
482,1,69.979,,127.494193
483,1,69.979,,127.494193
484,1,69.89877,,127.494193
485,1,69.866,,127.494193
486,1,69.866,,127.494193
487,1,69.87256,,127.494193
488,1,69.882,,127.494193
489,1,69.882,,127.494193
490,1,69.87432,,127.494193
491,1,69.786,,127.494193
492,1,69.786,,127.494193
493,1,69.786,,127.494193
494,1,69.786,,127.494193
495,1,69.786,,127.494193
496,1,69.786,,127.494193
497,1,69.73071,,127.494193
498,1,69.689,,127.494193
499,1,69.689,,127.494193
500,1,69.67542,,127.494193
501,1,69.495,,127.494193
502,1,69.50179,,127.494193
503,1,69.592,,127.494193
504,1,69.592,,127.494193
505,1,69.592,,127.494193
506,1,69.67154,,127.494193
507,1,69.689,,127.494193
508,1,69.689,,127.494193
509,1,69.689,,127.494193
510,1,69.689,,127.494193
511,1,69.689,,127.494193
512,1,69.689,,127.494193
513,1,69.689,,127.494193
514,1,69.689,,127.494193
515,1,69.689,,127.494193
516,1,69.69612,,127.494193
517,1,69.697,,127.494193
518,1,69.697,,127.494193
519,1,69.69228,,127.494193
520,1,69.689,,127.494193
521,1,69.689,,127.494193
522,1,69.689,,127.494193
523,1,69.689,,127.494193
524,1,69.689,,127.494193
525,1,69.689,,127.494193
526,1,69.689,,127.494193
527,1,69.689,,127.494193
528,1,69.689,,127.494193
529,1,69.689,,127.494193
530,1,69.689,,127.494193
531,1,69.689,,127.494193
532,1,69.689,,127.494193
533,1,69.689,,127.494193
534,1,69.689,,127.494193
535,1,69.689,,127.494193
536,1,69.689,,127.494193
537,1,69.689,,127.494193
538,1,69.689,,127.494193
539,1,69.689,,127.494193
540,1,69.689,,127.494193
541,1,69.689,,127.494193
542,1,88.13732,,127.494193
543,1,108.123,,127.494193
544,1,108.123,,127.494193
545,1,111.42168,,127.494193
546,1,127.527,,127.494193
547,1,127.527,,127.494193
548,1,127.527,,127.494193
549,1,128.01855,,127.494193
550,1,128.092,,127.494193
551,1,128.092,,127.494193
552,1,125.9315,,127.494193
553,1,124.367,,127.494193
554,1,124.367,,127.494193
555,1,124.22147,,127.494193
556,1,123.828,,127.494193
557,1,123.828,,127.494193
558,1,123.828,,127.494193
559,1,123.1611,,127.494193
560,1,123.126,,127.494193
561,1,123.126,,127.494193
562,1,122.81316,,127.494193
563,1,122.652,,127.494193
564,1,122.652,,127.494193
565,1,122.65956,,127.494193
566,1,122.673,,127.494193
567,1,122.673,,127.494193
568,1,122.67296,,127.494193
569,1,122.672,,127.494193
570,1,122.672,,127.494193
571,1,122.672,,127.494193
572,1,122.68952,,127.494193
573,1,122.696,,127.494193
574,1,122.696,,127.494193
575,1,122.9312,,127.494193
576,1,123.256,,127.494193
577,1,123.256,,127.494193
578,1,123.31078,,127.494193
579,1,123.754,,127.494193
580,1,123.754,,127.494193
581,1,123.754,,127.494193
582,1,123.59521,,127.494193
583,1,123.553,,127.494193
584,1,123.553,,127.494193
585,1,123.39316,,127.494193
586,1,123.22,,127.494193
587,1,123.22,,127.494193
588,1,123.2192,,127.494193
589,1,123.215,,127.494193
590,1,123.215,,127.494193
591,1,123.215,,127.494193
592,1,123.6995,,127.494193
593,1,123.785,,127.494193
594,1,123.785,,127.494193
595,1,123.785,,127.494193
596,1,123.785,,127.494193
597,1,123.785,,127.494193
598,1,123.80804,,127.494193
599,1,123.881,,127.494193
600,1,123.881,,127.494193
601,1,123.881,,127.494193
602,1,124.09444,,127.494193
603,1,124.113,,127.494193
604,1,124.113,,127.494193
605,1,123.86624,,127.494193
606,1,123.715,,127.494193
607,1,123.715,,127.494193
608,1,123.50389,,127.494193
609,1,123.034,,127.494193
610,1,123.034,,127.494193
611,1,123.034,,127.494193
612,1,122.845,,127.494193
613,1,122.845,,127.494193
614,1,122.845,,127.494193
615,1,122.79325,,127.494193
616,1,122.77,,127.494193
617,1,122.77,,127.494193
618,1,122.7696,,127.494193
619,1,122.769,,127.494193
620,1,122.769,,127.494193
621,1,122.80356,,127.494193
622,1,123.153,,127.494193
623,1,123.153,,127.494193
624,1,123.153,,127.494193
625,1,123.4572,,127.494193
626,1,123.543,,127.494193
627,1,123.543,,127.494193
628,1,123.74096,,127.494193
629,1,123.947,,127.494193
630,1,123.947,,127.494193
631,1,123.92828,,127.494193
632,1,123.843,,127.494193
633,1,123.843,,127.494193
634,1,123.843,,127.494193
635,1,123.39236,,127.494193
636,1,123.319,,127.494193
637,1,123.319,,127.494193
638,1,123.26235,,127.494193
639,1,123.216,,127.494193
640,1,123.216,,127.494193
641,1,123.28368,,127.494193
642,1,123.498,,127.494193
643,1,123.498,,127.494193
644,1,123.498,,127.494193
645,1,123.78723,,127.494193
646,1,123.809,,127.494193
647,1,123.809,,127.494193
648,1,123.5223,,127.494193
649,1,123.339,,127.494193
650,1,123.339,,127.494193
651,1,123.2484,,127.494193
652,1,123.037,,127.494193
653,1,123.037,,127.494193
654,1,123.037,,127.494193
655,1,122.94295,,127.494193
656,1,122.942,,127.494193
657,1,122.942,,127.494193
658,1,122.82572,,127.494193
659,1,122.771,,127.494193
660,1,122.771,,127.494193
661,1,122.84472,,127.494193
662,1,122.965,,127.494193
663,1,122.965,,127.494193
664,1,123.02584,,127.494193
665,1,123.641,,127.494193
666,1,123.641,,127.494193
667,1,123.641,,127.494193
668,1,124.02788,,127.494193
669,1,124.137,,127.494193
670,1,124.137,,127.494193
671,1,124.09094,,127.494193
672,1,124.039,,127.494193
673,1,124.039,,127.494193
674,1,124.023,,127.494193
675,1,123.939,,127.494193
676,1,123.939,,127.494193
677,1,123.939,,127.494193
678,1,123.8574,,127.494193
679,1,123.843,,127.494193
680,1,123.843,,127.494193
681,1,123.6151,,127.494193
682,1,123.413,,127.494193
683,1,123.413,,127.494193
684,1,123.43439,,127.494193
685,1,123.506,,127.494193
686,1,123.506,,127.494193
687,1,123.506,,127.494193
688,1,123.85376,,127.494193
689,1,123.884,,127.494193
690,1,123.884,,127.494193
691,1,124.06008,,127.494193
692,1,124.168,,127.494193
693,1,124.168,,127.494193
694,1,124.21152,,127.494193
695,1,124.304,,127.494193
696,1,124.304,,127.494193
697,1,124.30496,,127.494193
698,1,124.4,,127.494193
699,1,124.4,,127.494193
700,1,124.4,,127.494193
701,1,124.2663,,127.494193
702,1,124.209,,127.494193
703,1,124.209,,127.494193
704,1,124.20159,,127.494193
705,1,124.19,,127.494193
706,1,124.19,,127.494193
707,1,124.18232,,127.494193
708,1,124.094,,127.494193
709,1,124.094,,127.494193
710,1,124.094,,127.494193
711,1,124.09785,,127.494193
712,1,124.099,,127.494193
713,1,124.099,,127.494193
714,1,123.8805,,127.494193
715,1,123.624,,127.494193
716,1,123.624,,127.494193
717,1,123.60512,,127.494193
718,1,123.506,,127.494193
719,1,123.506,,127.494193
720,1,123.506,,127.494193
721,1,123.3462,,127.494193
722,1,123.318,,127.494193
723,1,123.318,,127.494193
724,1,123.16626,,127.494193
725,1,123.037,,127.494193
726,1,123.037,,127.494193
727,1,123.01396,,127.494193
728,1,122.941,,127.494193
729,1,122.941,,127.494193
730,1,122.941,,127.494193
731,1,122.96053,,127.494193
732,1,122.962,,127.494193
733,1,122.962,,127.494193
734,1,122.97688,,127.494193
735,1,122.986,,127.494193
736,1,122.986,,127.494193
737,1,123.03932,,127.494193
738,1,123.158,,127.494193
739,1,123.158,,127.494193
740,1,123.158,,127.494193
741,1,123.447,,127.494193
742,1,123.447,,127.494193
743,1,123.447,,127.494193
744,1,123.77889,,127.494193
745,1,123.928,,127.494193
746,1,123.928,,127.494193
747,1,124.0059,,127.494193
748,1,124.133,,127.494193
749,1,124.133,,127.494193
750,1,124.11756,,127.494193
751,1,123.94,,127.494193
752,1,123.94,,127.494193
753,1,123.94,,127.494193
754,1,123.71439,,127.494193
755,1,123.647,,127.494193
756,1,123.647,,127.494193
757,1,123.5798,,127.494193
758,1,123.507,,127.494193
759,1,123.507,,127.494193
760,1,123.52356,,127.494193
761,1,123.599,,127.494193
762,1,123.599,,127.494193
763,1,123.599,,127.494193
764,1,124.13231,,127.494193
765,1,124.212,,127.494193
766,1,124.212,,127.494193
767,1,124.14704,,127.494193
768,1,124.096,,127.494193
769,1,124.096,,127.494193
770,1,123.973,,127.494193
771,1,123.604,,127.494193
772,1,123.604,,127.494193
773,1,123.604,,127.494193
774,1,123.33798,,127.494193
775,1,123.321,,127.494193
776,1,123.321,,127.494193
777,1,123.20256,,127.494193
778,1,123.133,,127.494193
779,1,123.133,,127.494193
780,1,123.10386,,127.494193
781,1,123.039,,127.494193
782,1,123.039,,127.494193
783,1,123.039,,127.494193
784,1,123.058,,127.494193
785,1,123.058,,127.494193
786,1,123.058,,127.494193
787,1,123.058,,127.494193
788,1,123.058,,127.494193
789,1,123.058,,127.494193
790,1,123.03136,,127.494193
791,1,122.986,,127.494193
792,1,122.986,,127.494193
793,1,122.99251,,127.494193
794,1,123.079,,127.494193
795,1,123.079,,127.494193
796,1,123.079,,127.494193
797,1,123.28844,,127.494193
798,1,123.351,,127.494193
799,1,123.351,,127.494193
800,1,123.43932,,127.494193
801,1,123.543,,127.494193
802,1,123.543,,127.494193
803,1,123.64665,,127.494193
804,1,124.234,,127.494193
805,1,124.234,,127.494193
806,1,124.234,,127.494193
807,1,124.15084,,127.494193
808,1,124.135,,127.494193
809,1,124.135,,127.494193
810,1,124.135,,127.494193
811,1,124.135,,127.494193
812,1,124.135,,127.494193
813,1,124.0921,,127.494193
814,1,123.94,,127.494193
815,1,123.94,,127.494193
816,1,123.94,,127.494193
817,1,123.5401,,127.494193
818,1,123.51,,127.494193
819,1,123.51,,127.494193
820,1,123.50752,,127.494193
821,1,123.506,,127.494193
822,1,123.506,,127.494193
823,1,123.56771,,127.494193
824,1,123.693,,127.494193
825,1,123.693,,127.494193
826,1,123.70638,,127.494193
827,1,124.362,,127.494193
828,1,124.362,,127.494193
829,1,124.362,,127.494193
830,1,124.45856,,127.494193
831,1,124.498,,127.494193
832,1,124.498,,127.494193
833,1,124.4232,,127.494193
834,1,124.311,,127.494193
835,1,124.311,,127.494193
836,1,124.2898,,127.494193
837,1,124.099,,127.494193
838,1,124.099,,127.494193
839,1,124.099,,127.494193
840,1,123.78458,,127.494193
841,1,123.701,,127.494193
842,1,123.701,,127.494193
843,1,123.42836,,127.494193
844,1,123.133,,127.494193
845,1,123.133,,127.494193
846,1,123.13317,,127.494193
847,1,123.134,,127.494193
848,1,123.134,,127.494193
849,1,123.134,,127.494193
850,1,123.14168,,127.494193
851,1,123.142,,127.494193
852,1,123.142,,127.494193
853,1,123.7582,,127.494193
854,1,124.09,,127.494193
855,1,124.09,,127.494193
856,1,124.1572,,127.494193
857,1,124.282,,127.494193
858,1,124.282,,127.494193
859,1,124.2731,,127.494193
860,1,124.104,,127.494193
861,1,124.104,,127.494193
862,1,124.104,,127.494193
863,1,86.38192,,127.494193
864,1,81.238,,127.494193
865,1,81.238,,127.494193
866,1,75.703,,127.494193
867,1,72.013,,127.494193
868,1,72.013,,127.494193
869,1,71.5792,,127.494193
870,1,70.567,,127.494193
871,1,70.567,,127.494193
872,1,70.56411,,127.494193
873,1,70.278,,127.494193
874,1,70.278,,127.494193
875,1,70.278,,127.494193
876,1,70.13784,,127.494193
877,1,70.086,,127.494193
878,1,70.086,,127.494193
879,1,70.086,,127.494193
880,1,70.086,,127.494193
881,1,70.086,,127.494193
882,1,70.086,,127.494193
883,1,70.086,,127.494193
884,0.29,70.086,,127.494193
