omp threads, kernel time,serial time,speedup
1,201.753301830031,201.753301830031,1
2,100.893413348007,201.753301830031,1.99966771997427
3,71.779464002,201.753301830031,2.81073848398213
4,51.250949907,201.753301830031,3.9365768282565
5,43.356387221022,201.753301830031,4.65336977459708
6,36.840724898037,201.753301830031,5.47636623297771
7,32.074986955966,201.753301830031,6.29005093928821
8,27.907186373952,201.753301830031,7.2294390099585
9,25.026361515047,201.753301830031,8.06163140050253
10,22.156907739001,201.753301830031,9.10566150324764
11,21.656818863004,201.753301830031,9.31592507220361
12,18.779158371966,201.753301830031,10.743468787782
13,18.915739689022,201.753301830031,10.6658954472249
14,17.963965140982,201.753301830031,11.2310005194656
15,16.487663418986,201.753301830031,12.2366218125066
16,15.543143351097,201.753301830031,12.9802123851474
17,15.917954692966,201.753301830031,12.6745744488885
18,14.703063232941,201.753301830031,13.7218550062425
19,15.44078519498,201.753301830031,13.0662592143063
20,13.388684939011,201.753301830031,15.0689408817274
21,12.863357875962,201.753301830031,15.6843418161483
22,13.072521149996,201.753301830031,15.4333888249317
23,12.870815388975,201.753301830031,15.6752541103845
24,12.516688680975,201.753301830031,16.1187441001621
25,11.868720837985,201.753301830031,16.9987401830477
26,10.741264314973,201.753301830031,18.78301249405
27,10.834949292941,201.753301830031,18.6206041556165
28,10.328362933942,201.753301830031,19.5339090154366
29,14.447455603979,201.753301830031,13.9646251464836
30,14.22393257299,201.753301830031,14.1840732719124
31,13.82196666603,201.753301830031,14.5965698445704
32,13.680003548041,201.753301830031,14.7480445543395
33,13.452598689939,201.753301830031,14.9973478344314
34,13.292227254948,201.753301830031,15.1782916406977
35,12.696779045044,201.753301830031,15.8901167858617
36,12.438529564999,201.753301830031,16.2200283221377
37,12.266097428976,201.753301830031,16.4480433159965
38,12.176743577002,201.753301830031,16.5687402838209
39,11.872477476019,201.753301830031,16.9933615151133
40,11.486058821902,201.753301830031,17.5650590823478
41,11.499636225984,201.753301830031,17.5443203476436
42,11.100886542001,201.753301830031,18.1745215633619
43,10.970514297951,201.753301830031,18.3905053446504
44,11.051432903972,201.753301830031,18.2558500407236
45,10.580441177008,201.753301830031,19.0685150510032
46,10.404454311007,201.753301830031,19.3910507749161
47,11.015718020964,201.753301830031,18.3150386970758
48,10.152752347058,201.753301830031,19.8717840181036
49,10.019306713948,201.753301830031,20.1364533086074
50,9.663387462031,201.753301830031,20.8781136659119
51,9.529885674012,201.753301830031,21.1705899452931
52,9.584781136946,201.753301830031,21.0493384196685
53,9.108966195956,201.753301830031,22.1488693107239
54,9.200138696004,201.753301830031,21.9293761209992
55,9.470130188973,201.753301830031,21.3041740508438
56,8.99772453995,201.753301830031,22.42270264379
