40399,694,1189,115
37426,629,362,48
34248,552,196,29
34245,556,196,29
266551,4219,478,65
196625,3080,19,4
196625,3080,19,4
196625,3080,19,4
196625,3080,19,4
196625,3080,19,4
196625,3080,19,4
196625,3080,19,4
196625,3080,19,4
196625,3080,19,4
196625,3080,19,4
196625,3080,19,4
196625,3080,19,4
196625,3080,19,4
196625,3080,19,4
196625,3080,19,4
196625,3080,19,4
196625,3080,19,4
196625,3080,19,4
196625,3080,19,4
196625,3080,19,4
196625,3080,19,4
196625,3080,19,4
196625,3080,19,4
196625,3080,19,4
196625,3080,19,4
196625,3080,19,4
196625,3080,19,4
196625,3080,19,4
196625,3080,19,4
196625,3080,19,4
196625,3080,19,4
196625,3080,19,4
196625,3080,19,4
196625,3080,19,4
196625,3080,19,4
196625,3080,19,4
196625,3080,19,4
196625,3080,19,4
196625,3080,19,4
196625,3080,19,4
196625,3080,19,4
196625,3080,19,4
196625,3080,19,4
196625,3080,19,4
196625,3080,19,4
196625,3080,19,4
196625,3080,19,4
196625,3080,19,4
196625,3080,19,4
196625,3080,19,4
196625,3080,19,4
196625,3080,19,4
196625,3080,19,4
196625,3080,19,4
196625,3080,19,4
196625,3080,19,4
196625,3080,19,4
196625,3080,19,4
196625,3080,19,4
196625,3080,19,4
196625,3080,19,4
196625,3080,19,4
196625,3080,19,4
196625,3080,19,4
196625,3080,19,4
196625,3080,19,4
196625,3080,19,4
196625,3080,19,4
196625,3080,19,4
196625,3080,19,4
196625,3080,19,4
196625,3080,19,4
196625,3080,19,4
196625,3080,19,4
196625,3080,19,4
196625,3080,19,4
196625,3080,19,4
196625,3080,19,4
196625,3080,19,4
196625,3080,19,4
196625,3080,19,4
196625,3080,19,4
196625,3080,19,4
196625,3080,19,4
196625,3080,19,4
196625,3080,19,4
196625,3080,19,4
196625,3080,19,4
196625,3080,19,4
196625,3080,19,4
196625,3080,19,4
196625,3080,19,4
196625,3080,19,4
196625,3080,19,4
196625,3080,19,4
196625,3080,19,4
196625,3080,19,4
196625,3080,19,4
196625,3080,19,4
196625,3080,19,4
196625,3080,19,4
196625,3080,19,4
196625,3080,19,4
196625,3080,19,4
196625,3080,19,4
196625,3080,19,4
196625,3080,19,4
196625,3080,19,4
196625,3080,19,4
196625,3080,19,4
196625,3080,19,4
196625,3080,19,4
196625,3080,19,4
196625,3080,19,4
196625,3080,19,4
196625,3080,19,4
196625,3080,19,4
196625,3080,19,4
196625,3080,19,4
196625,3080,19,4
196625,3080,19,4
196625,3080,19,4
196625,3080,19,4
196625,3080,19,4
196625,3080,19,4
196625,3080,19,4
196625,3080,19,4
196625,3080,19,4
196625,3080,19,4
196625,3080,19,4
196625,3080,19,4
196625,3080,19,4
196625,3080,19,4
196625,3080,19,4
196625,3080,19,4
196625,3080,19,4
196625,3080,19,4
196625,3080,19,4
196625,3080,19,4
196625,3080,19,4
196625,3080,19,4
196625,3080,19,4
196625,3080,19,4
196625,3080,19,4
196625,3080,19,4
196625,3080,19,4
196625,3080,19,4
196625,3080,19,4
196625,3080,19,4
196625,3080,19,4
196625,3080,19,4
196625,3080,19,4
196625,3080,19,4
196625,3080,19,4
196625,3080,19,4
196625,3080,19,4
196625,3080,19,4
196625,3080,19,4
196625,3080,19,4
196625,3080,19,4
196625,3080,19,4
196625,3080,19,4
196625,3080,19,4
196625,3080,19,4
196625,3080,19,4
196625,3080,19,4
196625,3080,19,4
196625,3080,19,4
196625,3080,19,4
196625,3080,19,4
196625,3080,19,4
196625,3080,19,4
196625,3080,19,4
196625,3080,19,4
196625,3080,19,4
196625,3080,19,4
196625,3080,19,4
196625,3080,19,4
196625,3080,19,4
196625,3080,19,4
196625,3080,19,4
196625,3080,19,4
196625,3080,19,4
196625,3080,19,4
196625,3080,19,4
196625,3080,19,4
196625,3080,19,4
196625,3080,19,4
196625,3080,19,4
196625,3080,19,4
196625,3080,19,4
196625,3080,19,4
196625,3080,19,4
196625,3080,19,4
196625,3080,19,4
196625,3080,19,4
196625,3080,19,4
196625,3080,19,4
196625,3080,19,4
196625,3080,19,4
196625,3080,19,4
196625,3080,19,4
196625,3080,19,4
196625,3080,19,4
196625,3080,19,4
196625,3080,19,4
196625,3080,19,4
196625,3080,19,4
196625,3080,19,4
196625,3080,19,4
196625,3080,19,4
196625,3080,19,4
196625,3080,19,4
196625,3080,19,4
196625,3080,19,4
196625,3080,19,4
196625,3080,19,4
196625,3080,19,4
196625,3080,19,4
196625,3080,19,4
196625,3080,19,4
196625,3080,19,4
196625,3080,19,4
196625,3080,19,4
196625,3080,19,4
196625,3080,19,4
196625,3080,19,4
196625,3080,19,4
196625,3080,19,4
196625,3080,19,4
196625,3080,19,4
196625,3080,19,4
196625,3080,19,4
196625,3080,19,4
196625,3080,19,4
196625,3080,19,4
196625,3080,19,4
196625,3080,19,4
196625,3080,19,4
196625,3080,19,4
196625,3080,19,4
196625,3080,19,4
196625,3080,19,4
196625,3080,19,4
196625,3080,19,4
196625,3080,19,4
196625,3080,19,4
196625,3080,19,4
196625,3080,19,4
196625,3080,19,4
196625,3080,19,4
196625,3080,19,4
196625,3080,19,4
196625,3080,19,4
196625,3080,19,4
196625,3080,19,4
196625,3080,19,4
196625,3080,19,4
196625,3080,19,4
196625,3080,19,4
196625,3080,19,4
196625,3080,19,4
196625,3080,19,4
196625,3080,19,4
196625,3080,19,4
196625,3080,19,4
196625,3080,19,4
196625,3080,19,4
196625,3080,19,4
196625,3080,19,4
196625,3080,19,4
196625,3080,19,4
196625,3080,19,4
196625,3080,19,4
196625,3080,19,4
196625,3080,19,4
196625,3080,19,4
196625,3080,19,4
196625,3080,19,4
196625,3080,19,4
196625,3080,19,4
196625,3080,19,4
196625,3080,19,4
196625,3080,19,4
196625,3080,19,4
196625,3080,19,4
196625,3080,19,4
196625,3080,19,4
196625,3080,19,4
196625,3080,19,4
196625,3080,19,4
196625,3080,19,4
196625,3080,19,4
196625,3080,19,4
196625,3080,19,4
196625,3080,19,4
196625,3080,19,4
196625,3080,19,4
196625,3080,19,4
196625,3080,19,4
196625,3080,19,4
196625,3080,19,4
196625,3080,19,4
196625,3080,19,4
196625,3080,19,4
196625,3080,19,4
196625,3080,19,4
196625,3080,19,4
196625,3080,19,4
196625,3080,19,4
196625,3080,19,4
196625,3080,19,4
196625,3080,19,4
196625,3080,19,4
196625,3080,19,4
196625,3080,19,4
196625,3080,19,4
196625,3080,19,4
196625,3080,19,4
196625,3080,19,4
196625,3080,19,4
196625,3080,19,4
196625,3080,19,4
196625,3080,19,4
196625,3080,19,4
196625,3080,19,4
196625,3080,19,4
196625,3080,19,4
196625,3080,19,4
196625,3080,19,4
196625,3080,19,4
196625,3080,19,4
196625,3080,19,4
196625,3080,19,4
196625,3080,19,4
196625,3080,19,4
196625,3080,19,4
196625,3080,19,4
196625,3080,19,4
196625,3080,19,4
196625,3080,19,4
196625,3080,19,4
196625,3080,19,4
196625,3080,19,4
196625,3080,19,4
196625,3080,19,4
196625,3080,19,4
196625,3080,19,4
196625,3080,19,4
196625,3080,19,4
196625,3080,19,4
196625,3080,19,4
196625,3080,19,4
196625,3080,19,4
196625,3080,19,4
196625,3080,19,4
196625,3080,19,4
196625,3080,19,4
196625,3080,19,4
196625,3080,19,4
196625,3080,19,4
196625,3080,19,4
196625,3080,19,4
196625,3080,19,4
196625,3080,19,4
196625,3080,19,4
196625,3080,19,4
196625,3080,19,4
196625,3080,19,4
196625,3080,19,4
196625,3080,19,4
196625,3080,19,4
196625,3080,19,4
196625,3080,19,4
196625,3080,19,4
196625,3080,19,4
196625,3080,19,4
196625,3080,19,4
196625,3080,19,4
196625,3080,19,4
196625,3080,19,4
196625,3080,19,4
196625,3080,19,4
196625,3080,19,4
196625,3080,19,4
196625,3080,19,4
196625,3080,19,4
196625,3080,19,4
196625,3080,19,4
196625,3080,19,4
196625,3080,19,4
196625,3080,19,4
196625,3080,19,4
196625,3080,19,4
196625,3080,19,4
196625,3080,19,4
196625,3080,19,4
196625,3080,19,4
196625,3080,19,4
196625,3080,19,4
196625,3080,19,4
196625,3080,19,4
196625,3080,19,4
196625,3080,19,4
196625,3080,19,4
196625,3080,19,4
196625,3080,19,4
196625,3080,19,4
196625,3080,19,4
196625,3080,19,4
196625,3080,19,4
196625,3080,19,4
196625,3080,19,4
196625,3080,19,4
196625,3080,19,4
196625,3080,19,4
196625,3080,19,4
196625,3080,19,4
196625,3080,19,4
196625,3080,19,4
196625,3080,19,4
196625,3080,19,4
196625,3080,19,4
196625,3080,19,4
196625,3080,19,4
196625,3080,19,4
196625,3080,19,4
196625,3080,19,4
196625,3080,19,4
196625,3080,19,4
196625,3080,19,4
196625,3080,19,4
196625,3080,19,4
196625,3080,19,4
196625,3080,19,4
196625,3080,19,4
196625,3080,19,4
196625,3080,19,4
196625,3080,19,4
196625,3080,19,4
196625,3080,19,4
196625,3080,19,4
196625,3080,19,4
196625,3080,19,4
196625,3080,19,4
196625,3080,19,4
196625,3080,19,4
196625,3080,19,4
196625,3080,19,4
196625,3080,19,4
196625,3080,19,4
196625,3080,19,4
196625,3080,19,4
196625,3080,19,4
196625,3080,19,4
196625,3080,19,4
196625,3080,19,4
196625,3080,19,4
196625,3080,19,4
196625,3080,19,4
196625,3080,19,4
196625,3080,19,4
196625,3080,19,4
196625,3080,19,4
196625,3080,19,4
196625,3080,19,4
196625,3080,19,4
196625,3080,19,4
196625,3080,19,4
196625,3080,19,4
196625,3080,19,4
196625,3080,19,4
196625,3080,19,4
196625,3080,19,4
196625,3080,19,4
196625,3080,19,4
196625,3080,19,4
196625,3080,19,4
196625,3080,19,4
196625,3080,19,4
196625,3080,19,4
196625,3080,19,4
196625,3080,19,4
196625,3080,19,4
196625,3080,19,4
196625,3080,19,4
196625,3080,19,4
196625,3080,19,4
196625,3080,19,4
196625,3080,19,4
196625,3080,19,4
196625,3080,19,4
196625,3080,19,4
196625,3080,19,4
196625,3080,19,4
196625,3080,19,4
196625,3080,19,4
196625,3080,19,4
196625,3080,19,4
196625,3080,19,4
196625,3080,19,4
196625,3080,19,4
196625,3080,19,4
196625,3080,19,4
196625,3080,19,4
196625,3080,19,4
196625,3080,19,4
196625,3080,19,4
196625,3080,19,4
196625,3080,19,4
196625,3080,19,4
196625,3080,19,4
196625,3080,19,4
196625,3080,19,4
196625,3080,19,4
196625,3080,19,4
196625,3080,19,4
196625,3080,19,4
196625,3080,19,4
196625,3080,19,4
196625,3080,19,4
196625,3080,19,4
196625,3080,19,4
196625,3080,19,4
196625,3080,19,4
196625,3080,19,4
196625,3080,19,4
196625,3080,19,4
196625,3080,19,4
196625,3080,19,4
196625,3080,19,4
196625,3080,19,4
196625,3080,19,4
196625,3080,19,4
196625,3080,19,4
196625,3080,19,4
196625,3080,19,4
196625,3080,19,4
196625,3080,19,4
196625,3080,19,4
196625,3080,19,4
196625,3080,19,4
196625,3080,19,4
196625,3080,19,4
196625,3080,19,4
196625,3080,19,4
196625,3080,19,4
196625,3080,19,4
196625,3080,19,4
196625,3080,19,4
196625,3080,19,4
196625,3080,19,4
196625,3080,19,4
196625,3080,19,4
196625,3080,19,4
196625,3080,19,4
196625,3080,19,4
196625,3080,19,4
196625,3080,19,4
196625,3080,19,4
196625,3080,19,4
196625,3080,19,4
196625,3080,19,4
196625,3080,19,4
196625,3080,19,4
196625,3080,19,4
196625,3080,19,4
196625,3080,19,4
196625,3080,19,4
196625,3080,19,4
196625,3080,19,4
196625,3080,19,4
196625,3080,19,4
196625,3080,19,4
196625,3080,19,4
196625,3080,19,4
196625,3080,19,4
196625,3080,19,4
196625,3080,19,4
196625,3080,19,4
196625,3080,19,4
196625,3080,19,4
196625,3080,19,4
196625,3080,19,4
196625,3080,19,4
196625,3080,19,4
196625,3080,19,4
196625,3080,19,4
196625,3080,19,4
196625,3080,19,4
196625,3080,19,4
196625,3080,19,4
196625,3080,19,4
196625,3080,19,4
196625,3080,19,4
196625,3080,19,4
196625,3080,19,4
196625,3080,19,4
196625,3080,19,4
196625,3080,19,4
196625,3080,19,4
196625,3080,19,4
196625,3080,19,4
196625,3080,19,4
196625,3080,19,4
196625,3080,19,4
196625,3080,19,4
196625,3080,19,4
196625,3080,19,4
196625,3080,19,4
196625,3080,19,4
196625,3080,19,4
196625,3080,19,4
196625,3080,19,4
196625,3080,19,4
196625,3080,19,4
196625,3080,19,4
196625,3080,19,4
196625,3080,19,4
196625,3080,19,4
196625,3080,19,4
196625,3080,19,4
196625,3080,19,4
196625,3080,19,4
196625,3080,19,4
196625,3080,19,4
196625,3080,19,4
196625,3080,19,4
196625,3080,19,4
196625,3080,19,4
196625,3080,19,4
196625,3080,19,4
196625,3080,19,4
196625,3080,19,4
196625,3080,19,4
196625,3080,19,4
196625,3080,19,4
196625,3080,19,4
196625,3080,19,4
196625,3080,19,4
196625,3080,19,4
196625,3080,19,4
196625,3080,19,4
196625,3080,19,4
196625,3080,19,4
196625,3080,19,4
196625,3080,19,4
196625,3080,19,4
196625,3080,19,4
196625,3080,19,4
196625,3080,19,4
196625,3080,19,4
196625,3080,19,4
196625,3080,19,4
196625,3080,19,4
196625,3080,19,4
196625,3080,19,4
196625,3080,19,4
196625,3080,19,4
196625,3080,19,4
196625,3080,19,4
196625,3080,19,4
196625,3080,19,4
196625,3080,19,4
196625,3080,19,4
196625,3080,19,4
196625,3080,19,4
196625,3080,19,4
196625,3080,19,4
196625,3080,19,4
196625,3080,19,4
196625,3080,19,4
196625,3080,19,4
196625,3080,19,4
196625,3080,19,4
196625,3080,19,4
196625,3080,19,4
196625,3080,19,4
196625,3080,19,4
196625,3080,19,4
196625,3080,19,4
196625,3080,19,4
196625,3080,19,4
196625,3080,19,4
196625,3080,19,4
196625,3080,19,4
196625,3080,19,4
196625,3080,19,4
196625,3080,19,4
196625,3080,19,4
196625,3080,19,4
196625,3080,19,4
196625,3080,19,4
196625,3080,19,4
196625,3080,19,4
196625,3080,19,4
196625,3080,19,4
196625,3080,19,4
196625,3080,19,4
196625,3080,19,4
196625,3080,19,4
196625,3080,19,4
196625,3080,19,4
196625,3080,19,4
196625,3080,19,4
196625,3080,19,4
196625,3080,19,4
196625,3080,19,4
196625,3080,19,4
196625,3080,19,4
196625,3080,19,4
196625,3080,19,4
196625,3080,19,4
196625,3080,19,4
196625,3080,19,4
196625,3080,19,4
196625,3080,19,4
196625,3080,19,4
196625,3080,19,4
196625,3080,19,4
196625,3080,19,4
196625,3080,19,4
196625,3080,19,4
196625,3080,19,4
196625,3080,19,4
196625,3080,19,4
196625,3080,19,4
196625,3080,19,4
196625,3080,19,4
196625,3080,19,4
196625,3080,19,4
196625,3080,19,4
196625,3080,19,4
196625,3080,19,4
196625,3080,19,4
196625,3080,19,4
196625,3080,19,4
196625,3080,19,4
196625,3080,19,4
196625,3080,19,4
196625,3080,19,4
196625,3080,19,4
196625,3080,19,4
196625,3080,19,4
196625,3080,19,4
196625,3080,19,4
196625,3080,19,4
196625,3080,19,4
196625,3080,19,4
196625,3080,19,4
196625,3080,19,4
196625,3080,19,4
196625,3080,19,4
196625,3080,19,4
196625,3080,19,4
196625,3080,19,4
196625,3080,19,4
196625,3080,19,4
196625,3080,19,4
196625,3080,19,4
196625,3080,19,4
196625,3080,19,4
327872,5162,256,37
196616,3077,11,1
196616,3077,11,1
196616,3077,11,1
196616,3077,11,1
196616,3077,11,1
196616,3077,11,1
196616,3077,11,1
196616,3077,11,1
196616,3077,11,1
196616,3077,11,1
196616,3077,11,1
196616,3077,11,1
196616,3077,11,1
196616,3077,11,1
196616,3077,11,1
196616,3077,11,1
196616,3077,11,1
196616,3077,11,1
196616,3077,11,1
196616,3077,11,1
196616,3077,11,1
196616,3077,11,1
196616,3077,11,1
196616,3077,11,1
196616,3077,11,1
196616,3077,11,1
196616,3077,11,1
196616,3077,11,1
196616,3077,11,1
196616,3077,11,1
196616,3077,11,1
196616,3077,11,1
196616,3077,11,1
196616,3077,11,1
196616,3077,11,1
196616,3077,11,1
196616,3077,11,1
196616,3077,11,1
196616,3077,11,1
196616,3077,11,1
196616,3077,11,1
196616,3077,11,1
196616,3077,11,1
196616,3077,11,1
196616,3077,11,1
196616,3077,11,1
196616,3077,11,1
196616,3077,11,1
196616,3077,11,1
196616,3077,11,1
196616,3077,11,1
196616,3077,11,1
196616,3077,11,1
196616,3077,11,1
196616,3077,11,1
196616,3077,11,1
196616,3077,11,1
196616,3077,11,1
196616,3077,11,1
196616,3077,11,1
196616,3077,11,1
196616,3077,11,1
196616,3077,11,1
196616,3077,11,1
196616,3077,11,1
196616,3077,11,1
196616,3077,11,1
196616,3077,11,1
196616,3077,11,1
196616,3077,11,1
196616,3077,11,1
196616,3077,11,1
196616,3077,11,1
196616,3077,11,1
196616,3077,11,1
196616,3077,11,1
196616,3077,11,1
196616,3077,11,1
196616,3077,11,1
196616,3077,11,1
196616,3077,11,1
196616,3077,11,1
196616,3077,11,1
196616,3077,11,1
196616,3077,11,1
196616,3077,11,1
196616,3077,11,1
196616,3077,11,1
196616,3077,11,1
196616,3077,11,1
196616,3077,11,1
196616,3077,11,1
196616,3077,11,1
196616,3077,11,1
196616,3077,11,1
196616,3077,11,1
196616,3077,11,1
196616,3077,11,1
196616,3077,11,1
196616,3077,11,1
196616,3077,11,1
196616,3077,11,1
196616,3077,11,1
196616,3077,11,1
196616,3077,11,1
196616,3077,11,1
196616,3077,11,1
196616,3077,11,1
196616,3077,11,1
196616,3077,11,1
196616,3077,11,1
196616,3077,11,1
196616,3077,11,1
196616,3077,11,1
196616,3077,11,1
196616,3077,11,1
196616,3077,11,1
196616,3077,11,1
196616,3077,11,1
196616,3077,11,1
196616,3077,11,1
196616,3077,11,1
196616,3077,11,1
196616,3077,11,1
196616,3077,11,1
196616,3077,11,1
196616,3077,11,1
196616,3077,11,1
196616,3077,11,1
196616,3077,11,1
196616,3077,11,1
196616,3077,11,1
196616,3077,11,1
196616,3077,11,1
196616,3077,11,1
196616,3077,11,1
196616,3077,11,1
196616,3077,11,1
196616,3077,11,1
196616,3077,11,1
196616,3077,11,1
196616,3077,11,1
196616,3077,11,1
196616,3077,11,1
196616,3077,11,1
196616,3077,11,1
196616,3077,11,1
196616,3077,11,1
196616,3077,11,1
196616,3077,11,1
196616,3077,11,1
196616,3077,11,1
196616,3077,11,1
196616,3077,11,1
196616,3077,11,1
196616,3077,11,1
196616,3077,11,1
196616,3077,11,1
196616,3077,11,1
196616,3077,11,1
196616,3077,11,1
196616,3077,11,1
196616,3077,11,1
196616,3077,11,1
196616,3077,11,1
196616,3077,11,1
196616,3077,11,1
196616,3077,11,1
196616,3077,11,1
196616,3077,11,1
196616,3077,11,1
196616,3077,11,1
196616,3077,11,1
196616,3077,11,1
196616,3077,11,1
196616,3077,11,1
196616,3077,11,1
196616,3077,11,1
196616,3077,11,1
196616,3077,11,1
196616,3077,11,1
196616,3077,11,1
196616,3077,11,1
196616,3077,11,1
196616,3077,11,1
196616,3077,11,1
196616,3077,11,1
196616,3077,11,1
196616,3077,11,1
196616,3077,11,1
196616,3077,11,1
196616,3077,11,1
196616,3077,11,1
196616,3077,11,1
196616,3077,11,1
number,of,instructions:,962952550332
