215283761,6753,85739230,30432685,36825351,17006221,12706845,32489813,3941,1059,337,218,561,6,70741,0,0,0,0,0,0
215146751,4,85754069,30389544,36835373,17029177,12659004,32404337,19,42,0,0,0,0,75182,0,0,0,0,0,0
211005343,0,86685187,28944087,37092299,17787931,11001312,29411752,0,0,0,0,0,0,82775,0,0,0,0,0,0
211004406,0,86684614,28944060,37091770,17788585,11000763,29411841,0,0,0,0,0,0,82773,0,0,0,0,0,0
364659467,196660,146802311,25583918,82544959,99605177,1643949,4394884,221,1456389,0,0,0,0,12461,0,0,1088669,58469,1271400,0
391689555,0,157287977,25013427,90514507,114158481,26,0,0,1713643,0,0,0,0,0,0,0,1277081,949,1723464,0
391739907,0,157358319,25012340,90263331,114386024,26,0,0,1713438,0,0,0,0,0,0,0,1287414,949,1718066,0
391751917,0,157374503,25010857,90203369,114442092,26,0,0,1713466,0,0,0,0,0,0,0,1289835,949,1716820,0
391751909,0,157374974,25011333,90203434,114441133,26,0,0,1713404,0,0,0,0,0,0,0,1289800,985,1716820,0
391751917,0,157374504,25010852,90203369,114442096,26,0,0,1713466,0,0,0,0,0,0,0,1289835,949,1716820,0
391751917,0,157374501,25010854,90203371,114442092,26,0,0,1713468,0,0,0,0,0,0,0,1289836,949,1716820,0
391683640,0,157306704,25011845,90399740,114248580,26,0,0,1713404,0,0,0,0,0,0,0,1289800,986,1712555,0
391649882,0,157272469,25010854,90496716,114155124,26,0,0,1713466,0,0,0,0,0,0,0,1289835,949,1710443,0
391653833,0,157275002,25011593,90499087,114153436,28,0,0,1713422,0,0,0,0,0,0,0,1288530,949,1711786,0
391689556,0,157287977,25013429,90514506,114158484,26,0,0,1713642,0,0,0,0,0,0,0,1277081,949,1723462,0
391689562,0,157287977,25013428,90514511,114158482,26,0,0,1713644,0,0,0,0,0,0,0,1277081,949,1723464,0
391724838,0,157337411,25012964,90338515,114317491,26,0,0,1713480,0,0,0,0,0,0,0,1284332,949,1719670,0
391751916,0,157374502,25010855,90203368,114442095,26,0,0,1713466,0,0,0,0,0,0,0,1289835,949,1716820,0
391751916,0,157374663,25010854,90203379,114441934,26,0,0,1713466,0,0,0,0,0,0,0,1289825,949,1716820,0
391751910,0,157374814,25011332,90203424,114441294,26,0,0,1713405,0,0,0,0,0,0,0,1289810,985,1716820,0
391751916,0,157374502,25010850,90203371,114442092,26,0,0,1713467,0,0,0,0,0,0,0,1289837,949,1716822,0
391708292,0,157331363,25011848,90328851,114317921,26,0,0,1713404,0,0,0,0,0,0,0,1289799,986,1714094,0
391649888,0,157272466,25010854,90496720,114155129,26,0,0,1713466,0,0,0,0,0,0,0,1289835,949,1710443,0
391649881,0,157272469,25010854,90496715,114155124,26,0,0,1713466,0,0,0,0,0,0,0,1289835,949,1710443,0
391683922,0,157286764,25013546,90512581,114155980,28,0,0,1713556,0,0,0,0,0,0,0,1278858,949,1721660,0
391689557,0,157287974,25013429,90514508,114158487,26,0,0,1713642,0,0,0,0,0,0,0,1277081,949,1723461,0
391709770,0,157316506,25013585,90413698,114248955,26,0,0,1713524,0,0,0,0,0,0,0,1281250,949,1721277,0
391751918,0,157374501,25010854,90203371,114442096,26,0,0,1713466,0,0,0,0,0,0,0,1289835,949,1716820,0
391751917,0,157374502,25010855,90203368,114442096,26,0,0,1713466,0,0,0,0,0,0,0,1289835,949,1716820,0
391751906,0,157374976,25011332,90203432,114441130,26,0,0,1713405,0,0,0,0,0,0,0,1289800,985,1716820,0
391751919,0,157374500,25010852,90203373,114442093,26,0,0,1713467,0,0,0,0,0,0,0,1289837,949,1716822,0
391732949,0,157356021,25011848,90257967,114387263,26,0,0,1713404,0,0,0,0,0,0,0,1289799,986,1715635,0
391649881,0,157272466,25010852,90496715,114155129,26,0,0,1713466,0,0,0,0,0,0,0,1289835,949,1710443,0
391649887,0,157272467,25010854,90496720,114155127,26,0,0,1713466,0,0,0,0,0,0,0,1289835,949,1710443,0
391674334,0,157283016,25012925,90508280,114155172,28,0,0,1713512,0,0,0,0,0,0,0,1281940,949,1718512,0
391689556,0,157287978,25013426,90514507,114158481,26,0,0,1713644,0,0,0,0,0,0,0,1277081,949,1723464,0
391694702,0,157295598,25014209,90488882,114180423,26,0,0,1713566,0,0,0,0,0,0,0,1278168,949,1722881,0
391751917,0,157374498,25010854,90203371,114442098,26,0,0,1713466,0,0,0,0,0,0,0,1289835,949,1716820,0
391751913,0,157374503,25010855,90203367,114442092,26,0,0,1713466,0,0,0,0,0,0,0,1289835,949,1716820,0
391751912,0,157374978,25011332,90203434,114441132,26,0,0,1713405,0,0,0,0,0,0,0,1289800,985,1716820,0
391751917,0,157374498,25010852,90203372,114442094,26,0,0,1713467,0,0,0,0,0,0,0,1289837,949,1716822,0
391751918,0,157374501,25010854,90203371,114442096,26,0,0,1713466,0,0,0,0,0,0,0,1289835,949,1716820,0
391655571,0,157278643,25011848,90480428,114169638,26,0,0,1713404,0,0,0,0,0,0,0,1289799,986,1710799,0
391649882,0,157272466,25010852,90496716,114155129,26,0,0,1713466,0,0,0,0,0,0,0,1289835,949,1710443,0
391664746,0,157279268,25012301,90503982,114154359,28,0,0,1713470,0,0,0,0,0,0,0,1285022,949,1715367,0
391689562,0,157287976,25013428,90514512,114158482,26,0,0,1713644,0,0,0,0,0,0,0,1277081,949,1723464,0
391689558,0,157287976,25013429,90514507,114158487,26,0,0,1713642,0,0,0,0,0,0,0,1277081,949,1723461,0
391741989,0,157361216,25012256,90252925,114395501,26,0,0,1713432,0,0,0,0,0,0,0,1287840,949,1717844,0
391751917,0,157374497,25010853,90203372,114442098,26,0,0,1713467,0,0,0,0,0,0,0,1289835,949,1716820,0
391751909,0,157374979,25011334,90203433,114441124,26,0,0,1713405,0,0,0,0,0,0,0,1289802,985,1716821,0
391751917,0,157374504,25010852,90203369,114442095,26,0,0,1713466,0,0,0,0,0,0,0,1289835,949,1716821,0
391751917,0,157374498,25010854,90203371,114442098,26,0,0,1713466,0,0,0,0,0,0,0,1289835,949,1716820,0
391680229,0,157303297,25011848,90409545,114238984,26,0,0,1713404,0,0,0,0,0,0,0,1289799,986,1712340,0
391649882,0,157272469,25010854,90496716,114155124,26,0,0,1713466,0,0,0,0,0,0,0,1289835,949,1710443,0
391655161,0,157275519,25011677,90499685,114153549,28,0,0,1713428,0,0,0,0,0,0,0,1288104,949,1712222,0
391689558,0,157287975,25013429,90514508,114158487,26,0,0,1713642,0,0,0,0,0,0,0,1277081,949,1723461,0
391689558,0,157287979,25013429,90514506,114158480,26,0,0,1713644,0,0,0,0,0,0,0,1277081,949,1723464,0
391726923,0,157340305,25012879,90328113,114326971,26,0,0,1713474,0,0,0,0,0,0,0,1284758,949,1719448,0
391751914,0,157374501,25010851,90203368,114442097,26,0,0,1713467,0,0,0,0,0,0,0,1289835,949,1716820,0
391751912,0,157374975,25011333,90203437,114441127,26,0,0,1713405,0,0,0,0,0,0,0,1289802,985,1716822,0
391751916,0,157374502,25010855,90203368,114442095,26,0,0,1713466,0,0,0,0,0,0,0,1289835,949,1716820,0
391751916,0,157374503,25010852,90203369,114442096,26,0,0,1713466,0,0,0,0,0,0,0,1289835,949,1716820,0
391704885,0,157327949,25011847,90338664,114308329,26,0,0,1713404,0,0,0,0,0,0,0,1289799,986,1713881,0
391649884,0,157272469,25010855,90496714,114155127,26,0,0,1713466,0,0,0,0,0,0,0,1289835,949,1710443,0
391649881,0,157272469,25010854,90496715,114155124,26,0,0,1713466,0,0,0,0,0,0,0,1289835,949,1710443,0
391685248,0,157287280,25013631,90513176,114156095,28,0,0,1713562,0,0,0,0,0,0,0,1278432,949,1722095,0
391689558,0,157287978,25013428,90514507,114158485,26,0,0,1713643,0,0,0,0,0,0,0,1277081,949,1723461,0
391711854,0,157319397,25013501,90403297,114258436,26,0,0,1713517,0,0,0,0,0,0,0,1281676,949,1721055,0
391751918,0,157374500,25010851,90203373,114442095,26,0,0,1713468,0,0,0,0,0,0,0,1289836,949,1716820,0
391751915,0,157374501,25010852,90203368,114442095,26,0,0,1713466,0,0,0,0,0,0,0,1289836,949,1716822,0
391751908,0,157374977,25011336,90203432,114441128,26,0,0,1713404,0,0,0,0,0,0,0,1289800,985,1716820,0
391751919,0,157374501,25010854,90203371,114442097,26,0,0,1713466,0,0,0,0,0,0,0,1289835,949,1716820,0
391729539,0,157352606,25011845,90267777,114377674,26,0,0,1713404,0,0,0,0,0,0,0,1289799,986,1715422,0
391649884,0,157272468,25010854,90496717,114155126,26,0,0,1713466,0,0,0,0,0,0,0,1289835,949,1710443,0
391649883,0,157272469,25010855,90496715,114155125,26,0,0,1713466,0,0,0,0,0,0,0,1289835,949,1710443,0
391675657,0,157283535,25013007,90508873,114155281,28,0,0,1713520,0,0,0,0,0,0,0,1281514,949,1718950,0
391689562,0,157287976,25013431,90514512,114158484,26,0,0,1713642,0,0,0,0,0,0,0,1277081,949,1723461,0
391696784,0,157298492,25014122,90478477,114189905,26,0,0,1713560,0,0,0,0,0,0,0,1278594,949,1722659,0
391751917,0,157374497,25010851,90203373,114442094,26,0,0,1713468,0,0,0,0,0,0,0,1289837,949,1716822,0
391751918,0,157374502,25010854,90203370,114442096,26,0,0,1713466,0,0,0,0,0,0,0,1289835,949,1716820,0
391751910,0,157374974,25011333,90203434,114441134,26,0,0,1713404,0,0,0,0,0,0,0,1289800,985,1716820,0
391751914,0,157374504,25010855,90203367,114442092,26,0,0,1713466,0,0,0,0,0,0,0,1289835,949,1716820,0
391751918,0,157374501,25010854,90203371,114442096,26,0,0,1713466,0,0,0,0,0,0,0,1289835,949,1716820,0
391652160,0,157275226,25011845,90490239,114160049,26,0,0,1713404,0,0,0,0,0,0,0,1289799,986,1710586,0
391649882,0,157272472,25010855,90496712,114155124,26,0,0,1713466,0,0,0,0,0,0,0,1289835,949,1710443,0
391666076,0,157279787,25012388,90504579,114154471,28,0,0,1713476,0,0,0,0,0,0,0,1284596,949,1715802,0
391689558,0,157287975,25013426,90514509,114158484,26,0,0,1713644,0,0,0,0,0,0,0,1277081,949,1723464,0
391689559,0,157287978,25013431,90514508,114158483,26,0,0,1713642,0,0,0,0,0,0,0,1277081,949,1723461,0
391744073,0,157364106,25012166,90242525,114404981,26,0,0,1713428,0,0,0,0,0,0,0,1288268,949,1717624,0
391751917,0,157374497,25010854,90203372,114442098,26,0,0,1713466,0,0,0,0,0,0,0,1289835,949,1716820,0
391751909,0,157374979,25011333,90203432,114441130,26,0,0,1713404,0,0,0,0,0,0,0,1289800,985,1716820,0
391751917,0,157374505,25010855,90203368,114442093,26,0,0,1713466,0,0,0,0,0,0,0,1289835,949,1716820,0
391751917,0,157374498,25010854,90203371,114442098,26,0,0,1713466,0,0,0,0,0,0,0,1289835,949,1716820,0
391676815,0,157299884,25011845,90419353,114229391,26,0,0,1713404,0,0,0,0,0,0,0,1289799,986,1712127,0
391649886,0,157272465,25010854,90496719,114155129,26,0,0,1713466,0,0,0,0,0,0,0,1289835,949,1710443,0
391656485,0,157276040,25011765,90500276,114153658,28,0,0,1713434,0,0,0,0,0,0,0,1287678,949,1712657,0
391689559,0,157287980,25013429,90514508,114158483,26,0,0,1713642,0,0,0,0,0,0,0,1277081,949,1723461,0
391689561,0,157287974,25013428,90514511,114158484,26,0,0,1713644,0,0,0,0,0,0,0,1277081,949,1723464,0
391729005,0,157343200,25012792,90317708,114336446,26,0,0,1713470,0,0,0,0,0,0,0,1285186,949,1719228,0
391751914,0,157374501,25010852,90203368,114442097,26,0,0,1713466,0,0,0,0,0,0,0,1289835,949,1716820,0
391751912,0,157374976,25011335,90203435,114441131,26,0,0,1713404,0,0,0,0,0,0,0,1289800,985,1716820,0
391751915,0,157374500,25010852,90203369,114442098,26,0,0,1713466,0,0,0,0,0,0,0,1289835,949,1716820,0
391751917,0,157374505,25010855,90203368,114442093,26,0,0,1713466,0,0,0,0,0,0,0,1289835,949,1716820,0
391701474,0,157324538,25011847,90348471,114298735,26,0,0,1713404,0,0,0,0,0,0,0,1289799,986,1713668,0
391649881,0,157272467,25010852,90496715,114155128,26,0,0,1713466,0,0,0,0,0,0,0,1289835,949,1710443,0
391649884,0,157272471,25010857,90496714,114155123,26,0,0,1713466,0,0,0,0,0,0,0,1289835,949,1710443,0
391686576,0,157287796,25013715,90513775,114156209,28,0,0,1713568,0,0,0,0,0,0,0,1278006,949,1722530,0
391689557,0,157287976,25013426,90514507,114158484,26,0,0,1713644,0,0,0,0,0,0,0,1277081,949,1723464,0
391713940,0,157322292,25013415,90392894,114267916,26,0,0,1713512,0,0,0,0,0,0,0,1282104,949,1720832,0
391751916,0,157374502,25010855,90203370,114442093,26,0,0,1713466,0,0,0,0,0,0,0,1289835,949,1716820,0
391751915,0,157374501,25010852,90203368,114442098,26,0,0,1713466,0,0,0,0,0,0,0,1289835,949,1716820,0
391751912,0,157374976,25011335,90203435,114441131,26,0,0,1713404,0,0,0,0,0,0,0,1289800,985,1716820,0
391751915,0,157374502,25010855,90203368,114442094,26,0,0,1713466,0,0,0,0,0,0,0,1289835,949,1716820,0
391726128,0,157349195,25011845,90277584,114368080,26,0,0,1713404,0,0,0,0,0,0,0,1289799,986,1715209,0
391649884,0,157272468,25010854,90496717,114155126,26,0,0,1713466,0,0,0,0,0,0,0,1289835,949,1710443,0
391649881,0,157272467,25010852,90496715,114155128,26,0,0,1713466,0,0,0,0,0,0,0,1289835,949,1710443,0
391676988,0,157284055,25013097,90509470,114155390,28,0,0,1713526,0,0,0,0,0,0,0,1281088,949,1719385,0
391689559,0,157287976,25013429,90514508,114158487,26,0,0,1713642,0,0,0,0,0,0,0,1277081,949,1723461,0
391698871,0,157301378,25014033,90468083,114199385,26,0,0,1713556,0,0,0,0,0,0,0,1279022,949,1722439,0
391751915,0,157374504,25010855,90203367,114442093,26,0,0,1713466,0,0,0,0,0,0,0,1289835,949,1716820,0
391751918,0,157374502,25010854,90203370,114442096,26,0,0,1713466,0,0,0,0,0,0,0,1289835,949,1716820,0
391751910,0,157374974,25011333,90203434,114441134,26,0,0,1713404,0,0,0,0,0,0,0,1289800,985,1716820,0
391751917,0,157374503,25010854,90203369,114442095,26,0,0,1713466,0,0,0,0,0,0,0,1289835,949,1716820,0
391750780,0,157373853,25011846,90206697,114437419,26,0,0,1713404,0,0,0,0,0,0,0,1289799,986,1716750,0
391649884,0,157272464,25010854,90496718,114155129,26,0,0,1713466,0,0,0,0,0,0,0,1289835,949,1710443,0
391649885,0,157272470,25010854,90496717,114155125,26,0,0,1713466,0,0,0,0,0,0,0,1289835,949,1710443,0
391667398,0,157280305,25012474,90505169,114154584,28,0,0,1713482,0,0,0,0,0,0,0,1284170,949,1716237,0
391689559,0,157287979,25013426,90514509,114158481,26,0,0,1713644,0,0,0,0,0,0,0,1277081,949,1723464,0
391689562,0,157287973,25013428,90514511,114158486,26,0,0,1713644,0,0,0,0,0,0,0,1277081,949,1723464,0
391746158,0,157366997,25012083,90232124,114414466,26,0,0,1713420,0,0,0,0,0,0,0,1288694,949,1717399,0
391751914,0,157374502,25010855,90203368,114442093,26,0,0,1713466,0,0,0,0,0,0,0,1289835,949,1716820,0
391751909,0,157374979,25011333,90203432,114441130,26,0,0,1713404,0,0,0,0,0,0,0,1289800,985,1716820,0
391751921,0,157374499,25010854,90203372,114442100,26,0,0,1713466,0,0,0,0,0,0,0,1289835,949,1716820,0
391751913,0,157374504,25010855,90203367,114442091,26,0,0,1713466,0,0,0,0,0,0,0,1289835,949,1716820,0
391673404,0,157296473,25011845,90429160,114219797,26,0,0,1713404,0,0,0,0,0,0,0,1289799,986,1711914,0
391649886,0,157272465,25010854,90496719,114155129,26,0,0,1713466,0,0,0,0,0,0,0,1289835,949,1710443,0
391657811,0,157276561,25011850,90500870,114153769,28,0,0,1713440,0,0,0,0,0,0,0,1287252,949,1713092,0
391689561,0,157287974,25013428,90514511,114158484,26,0,0,1713644,0,0,0,0,0,0,0,1277081,949,1723464,0
391689556,0,157287977,25013429,90514506,114158485,26,0,0,1713642,0,0,0,0,0,0,0,1277081,949,1723461,0
391731092,0,157346089,25012704,90307310,114345932,26,0,0,1713464,0,0,0,0,0,0,0,1285612,949,1719006,0
391751915,0,157374505,25010855,90203367,114442092,26,0,0,1713466,0,0,0,0,0,0,0,1289835,949,1716820,0
391751912,0,157374976,25011335,90203435,114441131,26,0,0,1713404,0,0,0,0,0,0,0,1289800,985,1716820,0
391751915,0,157374500,25010852,90203369,114442098,26,0,0,1713466,0,0,0,0,0,0,0,1289835,949,1716820,0
391751921,0,157374500,25010854,90203372,114442099,26,0,0,1713466,0,0,0,0,0,0,0,1289835,949,1716820,0
391698059,0,157321132,25011848,90358274,114289135,26,0,0,1713404,0,0,0,0,0,0,0,1289799,986,1713455,0
391649881,0,157272467,25010852,90496715,114155128,26,0,0,1713466,0,0,0,0,0,0,0,1289835,949,1710443,0
391649886,0,157272465,25010854,90496719,114155129,26,0,0,1713466,0,0,0,0,0,0,0,1289835,949,1710443,0
391687899,0,157288320,25013803,90514363,114156317,28,0,0,1713574,0,0,0,0,0,0,0,1277580,949,1722965,0
391689561,0,157287977,25013428,90514511,114158481,26,0,0,1713644,0,0,0,0,0,0,0,1277081,949,1723464,0
391716022,0,157325184,25013328,90382490,114277399,26,0,0,1713506,0,0,0,0,0,0,0,1282530,949,1720610,0
391751916,0,157374498,25010852,90203371,114442099,26,0,0,1713466,0,0,0,0,0,0,0,1289835,949,1716820,0
391751915,0,157374505,25010855,90203367,114442092,26,0,0,1713466,0,0,0,0,0,0,0,1289835,949,1716820,0
391751912,0,157374976,25011335,90203435,114441131,26,0,0,1713404,0,0,0,0,0,0,0,1289800,985,1716820,0
391751914,0,157374499,25010852,90203369,114442098,26,0,0,1713466,0,0,0,0,0,0,0,1289835,949,1716820,0
391722718,0,157345787,25011848,90287390,114358482,26,0,0,1713404,0,0,0,0,0,0,0,1289799,986,1714996,0
391649884,0,157272468,25010854,90496717,114155126,26,0,0,1713466,0,0,0,0,0,0,0,1289835,949,1710443,0
391649881,0,157272467,25010852,90496715,114155128,26,0,0,1713466,0,0,0,0,0,0,0,1289835,949,1710443,0
391678316,0,157284571,25013181,90510068,114155505,28,0,0,1713532,0,0,0,0,0,0,0,1280662,949,1719820,0
391689560,0,157287974,25013428,90514510,114158488,26,0,0,1713643,0,0,0,0,0,0,0,1277081,949,1723461,0
391700953,0,157304275,25013950,90457676,114208863,26,0,0,1713549,0,0,0,0,0,0,0,1279448,949,1722217,0
391751917,0,157374504,25010853,90203368,114442096,26,0,0,1713466,0,0,0,0,0,0,0,1289835,949,1716820,0
391751916,0,157374502,25010856,90203369,114442093,26,0,0,1713466,0,0,0,0,0,0,0,1289835,949,1716820,0
391751910,0,157374974,25011333,90203434,114441134,26,0,0,1713404,0,0,0,0,0,0,0,1289800,985,1716820,0
391751917,0,157374503,25010854,90203369,114442095,26,0,0,1713466,0,0,0,0,0,0,0,1289835,949,1716820,0
391747372,0,157370437,25011845,90216509,114427829,26,0,0,1713404,0,0,0,0,0,0,0,1289799,986,1716537,0
391649881,0,157272469,25010855,90496713,114155125,26,0,0,1713466,0,0,0,0,0,0,0,1289835,949,1710443,0
391649885,0,157272470,25010853,90496717,114155125,26,0,0,1713467,0,0,0,0,0,0,0,1289835,949,1710443,0
391668725,0,157280825,25012559,90505763,114154697,28,0,0,1713488,0,0,0,0,0,0,0,1283744,949,1716672,0
391689559,0,157287974,25013429,90514511,114158482,26,0,0,1713643,0,0,0,0,0,0,0,1277081,949,1723464,0
391689557,0,157287977,25013426,90514507,114158483,26,0,0,1713644,0,0,0,0,0,0,0,1277081,949,1723464,0
391748247,0,157369889,25011998,90221725,114423949,26,0,0,1713414,0,0,0,0,0,0,0,1289120,949,1717177,0
391751916,0,157374503,25010852,90203369,114442096,26,0,0,1713466,0,0,0,0,0,0,0,1289835,949,1716820,0
391751907,0,157374978,25011336,90203431,114441127,26,0,0,1713404,0,0,0,0,0,0,0,1289800,985,1716820,0
391751921,0,157374499,25010854,90203372,114442100,26,0,0,1713466,0,0,0,0,0,0,0,1289835,949,1716820,0
391751916,0,157374503,25010854,90203369,114442094,26,0,0,1713466,0,0,0,0,0,0,0,1289835,949,1716820,0
391669995,0,157293059,25011845,90438971,114210204,26,0,0,1713404,0,0,0,0,0,0,0,1289799,986,1711701,0
391649881,0,157272469,25010854,90496712,114155126,26,0,0,1713467,0,0,0,0,0,0,0,1289835,949,1710443,0
391659139,0,157277078,25011938,90501468,114153880,28,0,0,1713445,0,0,0,0,0,0,0,1286826,949,1713527,0
391689557,0,157287975,25013426,90514507,114158485,26,0,0,1713644,0,0,0,0,0,0,0,1277081,949,1723464,0
391689561,0,157287978,25013431,90514510,114158483,26,0,0,1713642,0,0,0,0,0,0,0,1277081,949,1723461,0
391733174,0,157348981,25012617,90296906,114355415,26,0,0,1713458,0,0,0,0,0,0,0,1286038,949,1718784,0
391751920,0,157374501,25010854,90203371,114442098,26,0,0,1713466,0,0,0,0,0,0,0,1289835,949,1716820,0
391751908,0,157374976,25011333,90203433,114441131,26,0,0,1713404,0,0,0,0,0,0,0,1289800,985,1716820,0
391751914,0,157374504,25010855,90203367,114442092,26,0,0,1713466,0,0,0,0,0,0,0,1289835,949,1716820,0
391751921,0,157374500,25010854,90203372,114442099,26,0,0,1713466,0,0,0,0,0,0,0,1289835,949,1716820,0
391694648,0,157317717,25011845,90368083,114279546,26,0,0,1713404,0,0,0,0,0,0,0,1289799,986,1713242,0
391649881,0,157272471,25010854,90496711,114155125,26,0,0,1713467,0,0,0,0,0,0,0,1289835,949,1710443,0
391649886,0,157272464,25010852,90496721,114155126,26,0,0,1713467,0,0,0,0,0,0,0,1289837,949,1710444,0
391689227,0,157288841,25013893,90514959,114156428,28,0,0,1713578,0,0,0,0,0,0,0,1277152,949,1723399,0
391689559,0,157287973,25013426,90514510,114158486,26,0,0,1713644,0,0,0,0,0,0,0,1277081,949,1723464,0
391718107,0,157328079,25013243,90372088,114286878,26,0,0,1713500,0,0,0,0,0,0,0,1282956,949,1720388,0
391751916,0,157374498,25010852,90203371,114442099,26,0,0,1713466,0,0,0,0,0,0,0,1289835,949,1716820,0
391751919,0,157374501,25010854,90203371,114442097,26,0,0,1713466,0,0,0,0,0,0,0,1289835,949,1716820,0
391751908,0,157374980,25011336,90203431,114441126,26,0,0,1713404,0,0,0,0,0,0,0,1289800,985,1716820,0
391751914,0,157374499,25010852,90203369,114442098,26,0,0,1713466,0,0,0,0,0,0,0,1289835,949,1716820,0
391719308,0,157342375,25011846,90297200,114348889,26,0,0,1713404,0,0,0,0,0,0,0,1289799,986,1714783,0
391649884,0,157272464,25010850,90496717,114155129,26,0,0,1713468,0,0,0,0,0,0,0,1289837,949,1710444,0
391649880,0,157272471,25010855,90496712,114155123,26,0,0,1713466,0,0,0,0,0,0,0,1289835,949,1710443,0
391679644,0,157285088,25013269,90510665,114155621,28,0,0,1713536,0,0,0,0,0,0,0,1280234,949,1720254,0
391689555,0,157287977,25013426,90514506,114158482,26,0,0,1713644,0,0,0,0,0,0,0,1277081,949,1723464,0
391703041,0,157307167,25013867,90447276,114218348,26,0,0,1713542,0,0,0,0,0,0,0,1279874,949,1721992,0
391751917,0,157374504,25010853,90203368,114442096,26,0,0,1713466,0,0,0,0,0,0,0,1289835,949,1716820,0
391751917,0,157374498,25010853,90203371,114442099,26,0,0,1713466,0,0,0,0,0,0,0,1289835,949,1716820,0
391751908,0,157374978,25011333,90203432,114441130,26,0,0,1713404,0,0,0,0,0,0,0,1289800,985,1716820,0
391751918,0,157374503,25010857,90203369,114442093,26,0,0,1713466,0,0,0,0,0,0,0,1289835,949,1716820,0
391743961,0,157367026,25011844,90226315,114418236,26,0,0,1713405,0,0,0,0,0,0,0,1289799,986,1716324,0
391649882,0,157272468,25010850,90496717,114155124,26,0,0,1713467,0,0,0,0,0,0,0,1289837,949,1710444,0
391649884,0,157272470,25010857,90496714,114155124,26,0,0,1713466,0,0,0,0,0,0,0,1289835,949,1710443,0
391670051,0,157281339,25012643,90506362,114154811,28,0,0,1713494,0,0,0,0,0,0,0,1283316,949,1717109,0
391689562,0,157287978,25013431,90514510,114158484,26,0,0,1713642,0,0,0,0,0,0,0,1277081,949,1723461,0
391689558,0,157287975,25013426,90514509,114158484,26,0,0,1713644,0,0,0,0,0,0,0,1277081,949,1723464,0
391750328,0,157372785,25011914,90211318,114433427,26,0,0,1713408,0,0,0,0,0,0,0,1289546,949,1716955,0
391751916,0,157374503,25010852,90203369,114442096,26,0,0,1713466,0,0,0,0,0,0,0,1289835,949,1716820,0
391751911,0,157374975,25011335,90203435,114441131,26,0,0,1713404,0,0,0,0,0,0,0,1289800,985,1716820,0
391751917,0,157374502,25010855,90203368,114442096,26,0,0,1713466,0,0,0,0,0,0,0,1289835,949,1716820,0
391751916,0,157374502,25010851,90203371,114442095,26,0,0,1713467,0,0,0,0,0,0,0,1289835,949,1716820,0
391666584,0,157289648,25011845,90448776,114200608,26,0,0,1713405,0,0,0,0,0,0,0,1289801,986,1711489,0
391649882,0,157272469,25010852,90496716,114155126,26,0,0,1713466,0,0,0,0,0,0,0,1289835,949,1710443,0
391660466,0,157277595,25012027,90502061,114153997,28,0,0,1713450,0,0,0,0,0,0,0,1286398,949,1713961,0
391689558,0,157287979,25013429,90514506,114158480,26,0,0,1713644,0,0,0,0,0,0,0,1277081,949,1723464,0
391689558,0,157287974,25013428,90514509,114158487,26,0,0,1713643,0,0,0,0,0,0,0,1277081,949,1723461,0
391735259,0,157351876,25012533,90286504,114364894,26,0,0,1713451,0,0,0,0,0,0,0,1286464,949,1718562,0
391751920,0,157374501,25010854,90203371,114442098,26,0,0,1713466,0,0,0,0,0,0,0,1289835,949,1716820,0
391751908,0,157374976,25011333,90203433,114441131,26,0,0,1713404,0,0,0,0,0,0,0,1289800,985,1716820,0
391751918,0,157374502,25010853,90203370,114442096,26,0,0,1713467,0,0,0,0,0,0,0,1289835,949,1716820,0
391751917,0,157374501,25010853,90203371,114442091,26,0,0,1713467,0,0,0,0,0,0,0,1289837,949,1716822,0
391691237,0,157314306,25011845,90377888,114269955,26,0,0,1713404,0,0,0,0,0,0,0,1289799,986,1713028,0
391649885,0,157272467,25010854,90496719,114155126,26,0,0,1713466,0,0,0,0,0,0,0,1289835,949,1710443,0
391650876,0,157273852,25011403,90497758,114153182,28,0,0,1713408,0,0,0,0,0,0,0,1289480,949,1710816,0
391689561,0,157287973,25013427,90514511,114158486,26,0,0,1713644,0,0,0,0,0,0,0,1277081,949,1723464,0
391689555,0,157287978,25013429,90514506,114158483,26,0,0,1713642,0,0,0,0,0,0,0,1277081,949,1723461,0
391720196,0,157330964,25013155,90361692,114296368,26,0,0,1713494,0,0,0,0,0,0,0,1283382,949,1720166,0
391751914,0,157374504,25010855,90203367,114442092,26,0,0,1713466,0,0,0,0,0,0,0,1289835,949,1716820,0
391751919,0,157374501,25010854,90203371,114442097,26,0,0,1713466,0,0,0,0,0,0,0,1289835,949,1716820,0
391751908,0,157374975,25011332,90203433,114441132,26,0,0,1713405,0,0,0,0,0,0,0,1289800,985,1716820,0
391751914,0,157374503,25010853,90203369,114442088,26,0,0,1713467,0,0,0,0,0,0,0,1289837,949,1716822,0
391715897,0,157338964,25011846,90307005,114339298,26,0,0,1713404,0,0,0,0,0,0,0,1289799,986,1714569,0
391649884,0,157272465,25010853,90496717,114155130,26,0,0,1713466,0,0,0,0,0,0,0,1289835,949,1710443,0
391649884,0,157272467,25010854,90496718,114155126,26,0,0,1713466,0,0,0,0,0,0,0,1289835,949,1710443,0
391680963,0,157285611,25013355,90511251,114155730,28,0,0,1713542,0,0,0,0,0,0,0,1279808,949,1720689,0
391689561,0,157287976,25013428,90514511,114158482,26,0,0,1713644,0,0,0,0,0,0,0,1277081,949,1723464,0
391705122,0,157310059,25013777,90436872,114227833,26,0,0,1713536,0,0,0,0,0,0,0,1280300,949,1721770,0
391751918,0,157374505,25010856,90203368,114442093,26,0,0,1713466,0,0,0,0,0,0,0,1289835,949,1716820,0
391751917,0,157374498,25010853,90203371,114442099,26,0,0,1713466,0,0,0,0,0,0,0,1289835,949,1716820,0
391751908,0,157374977,25011332,90203432,114441131,26,0,0,1713405,0,0,0,0,0,0,0,1289800,985,1716820,0
391751918,0,157374497,25010852,90203374,114442094,26,0,0,1713467,0,0,0,0,0,0,0,1289837,949,1716822,0
391740550,0,157363621,25011848,90236118,114408638,26,0,0,1713404,0,0,0,0,0,0,0,1289799,986,1716110,0
391649882,0,157272469,25010852,90496716,114155126,26,0,0,1713466,0,0,0,0,0,0,0,1289835,949,1710443,0
391649885,0,157272466,25010854,90496717,114155129,26,0,0,1713466,0,0,0,0,0,0,0,1289835,949,1710443,0
391671379,0,157281862,25012733,90506956,114154917,28,0,0,1713500,0,0,0,0,0,0,0,1282890,949,1717544,0
391689558,0,157287975,25013429,90514508,114158487,26,0,0,1713642,0,0,0,0,0,0,0,1277081,949,1723461,0
391690057,0,157289154,25014400,90512057,114159296,26,0,0,1713580,0,0,0,0,0,0,0,1277218,949,1723377,0
391751914,0,157374499,25010852,90203369,114442098,26,0,0,1713466,0,0,0,0,0,0,0,1289835,949,1716820,0
391751917,0,157374505,25010855,90203368,114442093,26,0,0,1713466,0,0,0,0,0,0,0,1289835,949,1716820,0
391751911,0,157374974,25011332,90203437,114441130,26,0,0,1713406,0,0,0,0,0,0,0,1289801,985,1716820,0
391751915,0,157374501,25010852,90203368,114442095,26,0,0,1713466,0,0,0,0,0,0,0,1289836,949,1716822,0
391751918,0,157374504,25010857,90203369,114442092,26,0,0,1713466,0,0,0,0,0,0,0,1289835,949,1716820,0
391663173,0,157286237,25011845,90458583,114191019,26,0,0,1713404,0,0,0,0,0,0,0,1289799,986,1711274,0
391649882,0,157272469,25010852,90496716,114155126,26,0,0,1713466,0,0,0,0,0,0,0,1289835,949,1710443,0
391661793,0,157278111,25012111,90502657,114154112,28,0,0,1713457,0,0,0,0,0,0,0,1285972,949,1714396,0
391689557,0,157287978,25013427,90514508,114158481,26,0,0,1713643,0,0,0,0,0,0,0,1277081,949,1723464,0
391689561,0,157287974,25013428,90514511,114158484,26,0,0,1713644,0,0,0,0,0,0,0,1277081,949,1723464,0
391737345,0,157354771,25012450,90276100,114374378,26,0,0,1713444,0,0,0,0,0,0,0,1286890,949,1718337,0
391751916,0,157374502,25010854,90203368,114442095,26,0,0,1713467,0,0,0,0,0,0,0,1289835,949,1716820,0
391751908,0,157374975,25011331,90203435,114441127,26,0,0,1713405,0,0,0,0,0,0,0,1289802,985,1716822,0
391751918,0,157374502,25010854,90203370,114442096,26,0,0,1713466,0,0,0,0,0,0,0,1289835,949,1716820,0
391751915,0,157374501,25010852,90203369,114442097,26,0,0,1713466,0,0,0,0,0,0,0,1289835,949,1716820,0
391687828,0,157310896,25011848,90387695,114260359,26,0,0,1713404,0,0,0,0,0,0,0,1289799,986,1712815,0
391649885,0,157272467,25010854,90496719,114155126,26,0,0,1713466,0,0,0,0,0,0,0,1289835,949,1710443,0
391652202,0,157274366,25011486,90498355,114153299,28,0,0,1713414,0,0,0,0,0,0,0,1289054,949,1711251,0
391689562,0,157287975,25013428,90514513,114158482,26,0,0,1713644,0,0,0,0,0,0,0,1277081,949,1723464,0
391689557,0,157287976,25013429,90514506,114158487,26,0,0,1713642,0,0,0,0,0,0,0,1277081,949,1723461,0
391722278,0,157333861,25013071,90351286,114305845,26,0,0,1713488,0,0,0,0,0,0,0,1283808,949,1719944,0
391751917,0,157374502,25010851,90203371,114442095,26,0,0,1713467,0,0,0,0,0,0,0,1289836,949,1716820,0
391751916,0,157374502,25010855,90203369,114442090,26,0,0,1713467,0,0,0,0,0,0,0,1289836,949,1716822,0
391751908,0,157374975,25011333,90203433,114441132,26,0,0,1713404,0,0,0,0,0,0,0,1289800,985,1716820,0
391751919,0,157374503,25010854,90203370,114442096,26,0,0,1713466,0,0,0,0,0,0,0,1289835,949,1716820,0
391712481,0,157335554,25011847,90316809,114329700,26,0,0,1713404,0,0,0,0,0,0,0,1289799,986,1714356,0
391649884,0,157272465,25010853,90496717,114155130,26,0,0,1713466,0,0,0,0,0,0,0,1289835,949,1710443,0
391649884,0,157272467,25010854,90496718,114155126,26,0,0,1713466,0,0,0,0,0,0,0,1289835,949,1710443,0
391682292,0,157286130,25013442,90511848,114155841,28,0,0,1713548,0,0,0,0,0,0,0,1279382,949,1721124,0
391689558,0,157287974,25013426,90514509,114158485,26,0,0,1713644,0,0,0,0,0,0,0,1277081,949,1723464,0
391707207,0,157312953,25013692,90426470,114237313,26,0,0,1713530,0,0,0,0,0,0,0,1280726,949,1721548,0
391751921,0,157374498,25010851,90203374,114442096,26,0,0,1713468,0,0,0,0,0,0,0,1289837,949,1716822,0
391751916,0,157374503,25010854,90203369,114442094,26,0,0,1713466,0,0,0,0,0,0,0,1289835,949,1716820,0
391751906,0,157374979,25011334,90203430,114441128,26,0,0,1713404,0,0,0,0,0,0,0,1289800,985,1716820,0
391751918,0,157374497,25010854,90203372,114442099,26,0,0,1713466,0,0,0,0,0,0,0,1289835,949,1716820,0
391737138,0,157360208,25011845,90245926,114399047,26,0,0,1713404,0,0,0,0,0,0,0,1289799,986,1715897,0
391649883,0,157272471,25010855,90496715,114155123,26,0,0,1713466,0,0,0,0,0,0,0,1289835,949,1710443,0
391649885,0,157272466,25010854,90496717,114155129,26,0,0,1713466,0,0,0,0,0,0,0,1289835,949,1710443,0
391672705,0,157282378,25012818,90507551,114155032,28,0,0,1713506,0,0,0,0,0,0,0,1282464,949,1717979,0
391689559,0,157287979,25013426,90514509,114158481,26,0,0,1713644,0,0,0,0,0,0,0,1277081,949,1723464,0
391692141,0,157292045,25014317,90501654,114168781,26,0,0,1713573,0,0,0,0,0,0,0,1277644,949,1723152,0
391751914,0,157374498,25010850,90203371,114442094,26,0,0,1713467,0,0,0,0,0,0,0,1289837,949,1716822,0
391751922,0,157374500,25010854,90203372,114442100,26,0,0,1713466,0,0,0,0,0,0,0,1289835,949,1716820,0
391751906,0,157374980,25011336,90203431,114441124,26,0,0,1713404,0,0,0,0,0,0,0,1289800,985,1716820,0
391751915,0,157374501,25010852,90203368,114442098,26,0,0,1713466,0,0,0,0,0,0,0,1289835,949,1716820,0
391751919,0,157374498,25010854,90203372,114442099,26,0,0,1713466,0,0,0,0,0,0,0,1289835,949,1716820,0
391659759,0,157282829,25011845,90468388,114181421,26,0,0,1713404,0,0,0,0,0,0,0,1289799,986,1711061,0
391649884,0,157272472,25010855,90496715,114155123,26,0,0,1713466,0,0,0,0,0,0,0,1289835,949,1710443,0
391663117,0,157278630,25012194,90503251,114154221,28,0,0,1713464,0,0,0,0,0,0,0,1285546,949,1714834,0
391689561,0,157287976,25013431,90514511,114158484,26,0,0,1713642,0,0,0,0,0,0,0,1277081,949,1723461,0
391689557,0,157287975,25013426,90514507,114158485,26,0,0,1713644,0,0,0,0,0,0,0,1277081,949,1723464,0
391739432,0,157357663,25012362,90265702,114383855,26,0,0,1713440,0,0,0,0,0,0,0,1287318,949,1718117,0
391751914,0,157374499,25010852,90203369,114442098,26,0,0,1713466,0,0,0,0,0,0,0,1289835,949,1716820,0
391751912,0,157374979,25011334,90203433,114441131,26,0,0,1713404,0,0,0,0,0,0,0,1289800,985,1716820,0
391751916,0,157374502,25010856,90203369,114442093,26,0,0,1713466,0,0,0,0,0,0,0,1289835,949,1716820,0
391751915,0,157374501,25010852,90203369,114442097,26,0,0,1713466,0,0,0,0,0,0,0,1289835,949,1716820,0
391684419,0,157307483,25011847,90397506,114250766,26,0,0,1713404,0,0,0,0,0,0,0,1289799,986,1712602,0
391649883,0,157272469,25010855,90496715,114155125,26,0,0,1713466,0,0,0,0,0,0,0,1289835,949,1710443,0
391653531,0,157274884,25011573,90498952,114153411,28,0,0,1713420,0,0,0,0,0,0,0,1288628,949,1711686,0
391689558,0,157287975,25013426,90514509,114158484,26,0,0,1713644,0,0,0,0,0,0,0,1277081,949,1723464,0
391689560,0,157287978,25013430,90514509,114158483,26,0,0,1713643,0,0,0,0,0,0,0,1277081,949,1723461,0
391724361,0,157336751,25012982,90340885,114315325,26,0,0,1713483,0,0,0,0,0,0,0,1284236,949,1719724,0
391751917,0,157374503,25010854,90203369,114442095,26,0,0,1713466,0,0,0,0,0,0,0,1289835,949,1716820,0
391751915,0,157374499,25010852,90203370,114442098,26,0,0,1713466,0,0,0,0,0,0,0,1289835,949,1716820,0
391751909,0,157374978,25011336,90203432,114441128,26,0,0,1713404,0,0,0,0,0,0,0,1289800,985,1716820,0
391751919,0,157374503,25010854,90203370,114442096,26,0,0,1713466,0,0,0,0,0,0,0,1289835,949,1716820,0
391709073,0,157332137,25011845,90326621,114320112,26,0,0,1713404,0,0,0,0,0,0,0,1289799,986,1714143,0
391649882,0,157272469,25010854,90496716,114155124,26,0,0,1713466,0,0,0,0,0,0,0,1289835,949,1710443,0
391649883,0,157272469,25010855,90496714,114155126,26,0,0,1713466,0,0,0,0,0,0,0,1289835,949,1710443,0
391683618,0,157286644,25013523,90512445,114155959,28,0,0,1713555,0,0,0,0,0,0,0,1278956,949,1721559,0
391689562,0,157287975,25013429,90514512,114158483,26,0,0,1713643,0,0,0,0,0,0,0,1277081,949,1723464,0
391709288,0,157315848,25013605,90416065,114246787,26,0,0,1713526,0,0,0,0,0,0,0,1281154,949,1721328,0
391751921,0,157374499,25010854,90203372,114442100,26,0,0,1713466,0,0,0,0,0,0,0,1289835,949,1716820,0
391751916,0,157374503,25010854,90203369,114442094,26,0,0,1713466,0,0,0,0,0,0,0,1289835,949,1716820,0
391751910,0,157374974,25011333,90203434,114441134,26,0,0,1713404,0,0,0,0,0,0,0,1289800,985,1716820,0
391751914,0,157374502,25010855,90203368,114442093,26,0,0,1713466,0,0,0,0,0,0,0,1289835,949,1716820,0
391733727,0,157356797,25011845,90255733,114389453,26,0,0,1713404,0,0,0,0,0,0,0,1289799,986,1715684,0
391649888,0,157272466,25010854,90496720,114155129,26,0,0,1713466,0,0,0,0,0,0,0,1289835,949,1710443,0
391649880,0,157272471,25010855,90496712,114155123,26,0,0,1713466,0,0,0,0,0,0,0,1289835,949,1710443,0
391674029,0,157282898,25012903,90508144,114155143,28,0,0,1713512,0,0,0,0,0,0,0,1282038,949,1718414,0
391689562,0,157287975,25013428,90514512,114158483,26,0,0,1713644,0,0,0,0,0,0,0,1277081,949,1723464,0
391694226,0,157294935,25014225,90491255,114178264,26,0,0,1713568,0,0,0,0,0,0,0,1278072,949,1722932,0
391751913,0,157374503,25010855,90203367,114442092,26,0,0,1713466,0,0,0,0,0,0,0,1289835,949,1716820,0
391751922,0,157374500,25010854,90203372,114442100,26,0,0,1713466,0,0,0,0,0,0,0,1289835,949,1716820,0
391751906,0,157374976,25011333,90203432,114441130,26,0,0,1713404,0,0,0,0,0,0,0,1289800,985,1716820,0
391751915,0,157374505,25010855,90203367,114442092,26,0,0,1713466,0,0,0,0,0,0,0,1289835,949,1716820,0
391751919,0,157374498,25010854,90203372,114442099,26,0,0,1713466,0,0,0,0,0,0,0,1289835,949,1716820,0
391656348,0,157279418,25011845,90478195,114171827,26,0,0,1713404,0,0,0,0,0,0,0,1289799,986,1710848,0
391649887,0,157272467,25010854,90496720,114155127,26,0,0,1713466,0,0,0,0,0,0,0,1289835,949,1710443,0
391664443,0,157279153,25012282,90503843,114154329,28,0,0,1713470,0,0,0,0,0,0,0,1285120,949,1715269,0
391689558,0,157287976,25013429,90514507,114158487,26,0,0,1713642,0,0,0,0,0,0,0,1277081,949,1723461,0
391689560,0,157287977,25013428,90514510,114158481,26,0,0,1713644,0,0,0,0,0,0,0,1277081,949,1723464,0
391741514,0,157360554,25012275,90255299,114393338,26,0,0,1713434,0,0,0,0,0,0,0,1287744,949,1717895,0
391751914,0,157374499,25010852,90203369,114442098,26,0,0,1713466,0,0,0,0,0,0,0,1289835,949,1716820,0
391751912,0,157374979,25011334,90203433,114441131,26,0,0,1713404,0,0,0,0,0,0,0,1289800,985,1716820,0
391751917,0,157374498,25010853,90203371,114442099,26,0,0,1713466,0,0,0,0,0,0,0,1289835,949,1716820,0
391751914,0,157374505,25010855,90203367,114442091,26,0,0,1713466,0,0,0,0,0,0,0,1289835,949,1716820,0
391681008,0,157304072,25011847,90407313,114241172,26,0,0,1713404,0,0,0,0,0,0,0,1289799,986,1712389,0
391649882,0,157272466,25010852,90496716,114155129,26,0,0,1713466,0,0,0,0,0,0,0,1289835,949,1710443,0
391654858,0,157275404,25011661,90499546,114153521,28,0,0,1713426,0,0,0,0,0,0,0,1288202,949,1712121,0
391689559,0,157287978,25013427,90514509,114158481,26,0,0,1713644,0,0,0,0,0,0,0,1277081,949,1723464,0
391689561,0,157287973,25013427,90514511,114158486,26,0,0,1713644,0,0,0,0,0,0,0,1277081,949,1723464,0
391726444,0,157339647,25012896,90330481,114324808,26,0,0,1713476,0,0,0,0,0,0,0,1284662,949,1719499,0
391751917,0,157374503,25010857,90203369,114442092,26,0,0,1713466,0,0,0,0,0,0,0,1289835,949,1716820,0
391751909,0,157374974,25011333,90203434,114441133,26,0,0,1713404,0,0,0,0,0,0,0,1289800,985,1716820,0
391751917,0,157374504,25010852,90203369,114442096,26,0,0,1713466,0,0,0,0,0,0,0,1289835,949,1716820,0
391751917,0,157374502,25010857,90203369,114442093,26,0,0,1713466,0,0,0,0,0,0,0,1289835,949,1716820,0
391705662,0,157328726,25011845,90336428,114310518,26,0,0,1713404,0,0,0,0,0,0,0,1289799,986,1713930,0
391649882,0,157272469,25010854,90496716,114155124,26,0,0,1713466,0,0,0,0,0,0,0,1289835,949,1710443,0
391649882,0,157272465,25010852,90496716,114155130,26,0,0,1713466,0,0,0,0,0,0,0,1289835,949,1710443,0
391684947,0,157287164,25013611,90513041,114156065,28,0,0,1713562,0,0,0,0,0,0,0,1278530,949,1721997,0
391689557,0,157287978,25013429,90514506,114158485,26,0,0,1713642,0,0,0,0,0,0,0,1277081,949,1723461,0
391711381,0,157318737,25013519,90405670,114256274,26,0,0,1713520,0,0,0,0,0,0,0,1281580,949,1721106,0
391751916,0,157374502,25010855,90203368,114442095,26,0,0,1713466,0,0,0,0,0,0,0,1289835,949,1716820,0
391751916,0,157374503,25010854,90203369,114442094,26,0,0,1713466,0,0,0,0,0,0,0,1289835,949,1716820,0
391751910,0,157374974,25011333,90203434,114441134,26,0,0,1713404,0,0,0,0,0,0,0,1289800,985,1716820,0
391751916,0,157374503,25010852,90203369,114442096,26,0,0,1713466,0,0,0,0,0,0,0,1289835,949,1716820,0
391730314,0,157353385,25011848,90265539,114379856,26,0,0,1713404,0,0,0,0,0,0,0,1289799,986,1715471,0
391649888,0,157272466,25010854,90496720,114155129,26,0,0,1713466,0,0,0,0,0,0,0,1289835,949,1710443,0
391649881,0,157272469,25010853,90496715,114155124,26,0,0,1713467,0,0,0,0,0,0,0,1289835,949,1710443,0
391675357,0,157283414,25012989,90508740,114155259,28,0,0,1713517,0,0,0,0,0,0,0,1281612,949,1718849,0
391689561,0,157287977,25013428,90514511,114158481,26,0,0,1713644,0,0,0,0,0,0,0,1277081,949,1723464,0
391696309,0,157297830,25014141,90480850,114187743,26,0,0,1713562,0,0,0,0,0,0,0,1278498,949,1722710,0
391751918,0,157374501,25010854,90203371,114442096,26,0,0,1713466,0,0,0,0,0,0,0,1289835,949,1716820,0
391751917,0,157374502,25010855,90203368,114442096,26,0,0,1713466,0,0,0,0,0,0,0,1289835,949,1716820,0
391751906,0,157374976,25011333,90203432,114441130,26,0,0,1713404,0,0,0,0,0,0,0,1289800,985,1716820,0
391751919,0,157374501,25010854,90203371,114442097,26,0,0,1713466,0,0,0,0,0,0,0,1289835,949,1716820,0
391751915,0,157374502,25010855,90203368,114442094,26,0,0,1713466,0,0,0,0,0,0,0,1289835,949,1716820,0
391652937,0,157276007,25011845,90488002,114162233,26,0,0,1713404,0,0,0,0,0,0,0,1289799,986,1710635,0
391649887,0,157272467,25010853,90496719,114155128,26,0,0,1713467,0,0,0,0,0,0,0,1289835,949,1710443,0
391665770,0,157279669,25012367,90504441,114154443,28,0,0,1713475,0,0,0,0,0,0,0,1284694,949,1715704,0
391689558,0,157287979,25013429,90514506,114158484,26,0,0,1713643,0,0,0,0,0,0,0,1277081,949,1723461,0
391689560,0,157287974,25013429,90514510,114158484,26,0,0,1713643,0,0,0,0,0,0,0,1277081,949,1723464,0
391743599,0,157363445,25012187,90244898,114402823,26,0,0,1713428,0,0,0,0,0,0,0,1288170,949,1717673,0
391751913,0,157374503,25010855,90203367,114442092,26,0,0,1713466,0,0,0,0,0,0,0,1289835,949,1716820,0
391751912,0,157374979,25011334,90203433,114441131,26,0,0,1713404,0,0,0,0,0,0,0,1289800,985,1716820,0
391751917,0,157374498,25010853,90203371,114442099,26,0,0,1713466,0,0,0,0,0,0,0,1289835,949,1716820,0
391751918,0,157374501,25010854,90203371,114442096,26,0,0,1713466,0,0,0,0,0,0,0,1289835,949,1716820,0
391677593,0,157300665,25011848,90417116,114231573,26,0,0,1713404,0,0,0,0,0,0,0,1289799,986,1712176,0
391649882,0,157272466,25010851,90496715,114155130,26,0,0,1713467,0,0,0,0,0,0,0,1289835,949,1710443,0
391656184,0,157275923,25011744,90500143,114153629,28,0,0,1713433,0,0,0,0,0,0,0,1287776,949,1712559,0
391689560,0,157287974,25013431,90514510,114158486,26,0,0,1713642,0,0,0,0,0,0,0,1277081,949,1723461,0
391689556,0,157287977,25013426,90514506,114158483,26,0,0,1713644,0,0,0,0,0,0,0,1277081,949,1723464,0
391728533,0,157342539,25012811,90320082,114334291,26,0,0,1713470,0,0,0,0,0,0,0,1285088,949,1719277,0
391751917,0,157374497,25010854,90203372,114442098,26,0,0,1713466,0,0,0,0,0,0,0,1289835,949,1716820,0
391751909,0,157374980,25011336,90203431,114441127,26,0,0,1713404,0,0,0,0,0,0,0,1289800,985,1716820,0
391751917,0,157374504,25010852,90203369,114442096,26,0,0,1713466,0,0,0,0,0,0,0,1289835,949,1716820,0
391751917,0,157374498,25010854,90203371,114442098,26,0,0,1713466,0,0,0,0,0,0,0,1289835,949,1716820,0
391702248,0,157325317,25011845,90346234,114300920,26,0,0,1713404,0,0,0,0,0,0,0,1289799,986,1713717,0
391649885,0,157272470,25010854,90496715,114155126,26,0,0,1713467,0,0,0,0,0,0,0,1289835,949,1710443,0
391649882,0,157272465,25010852,90496716,114155126,26,0,0,1713467,0,0,0,0,0,0,0,1289837,949,1710444,0
391686272,0,157287684,25013699,90513634,114156179,28,0,0,1713566,0,0,0,0,0,0,0,1278102,949,1722431,0
391689561,0,157287978,25013431,90514510,114158483,26,0,0,1713642,0,0,0,0,0,0,0,1277081,949,1723461,0
391713463,0,157321629,25013432,90395266,114265757,26,0,0,1713514,0,0,0,0,0,0,0,1282006,949,1720884,0
391751914,0,157374501,25010852,90203368,114442097,26,0,0,1713466,0,0,0,0,0,0,0,1289835,949,1716820,0
391751919,0,157374498,25010854,90203372,114442099,26,0,0,1713466,0,0,0,0,0,0,0,1289835,949,1716820,0
391751909,0,157374980,25011336,90203431,114441127,26,0,0,1713404,0,0,0,0,0,0,0,1289800,985,1716820,0
391751916,0,157374503,25010852,90203369,114442096,26,0,0,1713466,0,0,0,0,0,0,0,1289835,949,1716820,0
391726907,0,157349971,25011846,90275352,114370264,26,0,0,1713405,0,0,0,0,0,0,0,1289799,986,1715258,0
391649884,0,157272468,25010853,90496714,114155126,26,0,0,1713467,0,0,0,0,0,0,0,1289837,949,1710444,0
391649881,0,157272469,25010854,90496715,114155124,26,0,0,1713466,0,0,0,0,0,0,0,1289835,949,1710443,0
391676685,0,157283935,25013077,90509336,114155370,28,0,0,1713523,0,0,0,0,0,0,0,1281184,949,1719283,0
391689559,0,157287973,25013427,90514510,114158486,26,0,0,1713643,0,0,0,0,0,0,0,1277081,949,1723464,0
391698394,0,157300725,25014056,90470448,114197222,26,0,0,1713556,0,0,0,0,0,0,0,1278924,949,1722488,0
391751918,0,157374501,25010854,90203371,114442096,26,0,0,1713466,0,0,0,0,0,0,0,1289835,949,1716820,0
391751915,0,157374501,25010852,90203368,114442098,26,0,0,1713466,0,0,0,0,0,0,0,1289835,949,1716820,0
391751908,0,157374977,25011336,90203432,114441128,26,0,0,1713404,0,0,0,0,0,0,0,1289800,985,1716820,0
391751919,0,157374501,25010854,90203371,114442097,26,0,0,1713466,0,0,0,0,0,0,0,1289835,949,1716820,0
391751561,0,157374628,25011526,90204444,114439938,26,0,0,1713424,0,0,0,0,0,0,0,1289790,986,1716799,0
391649884,0,157272467,25011170,90496738,114154796,26,0,0,1713448,0,0,0,0,0,0,0,1289846,949,1710444,0
391649883,0,157272469,25010855,90496715,114155125,26,0,0,1713466,0,0,0,0,0,0,0,1289835,949,1710443,0
391667099,0,157280186,25012454,90505037,114154561,28,0,0,1713480,0,0,0,0,0,0,0,1284266,949,1716138,0
391689555,0,157287977,25013426,90514507,114158481,26,0,0,1713644,0,0,0,0,0,0,0,1277081,949,1723464,0
391689561,0,157287976,25013431,90514511,114158484,26,0,0,1713642,0,0,0,0,0,0,0,1277081,949,1723461,0
391745683,0,157366340,25012103,90234492,114412304,26,0,0,1713422,0,0,0,0,0,0,0,1288596,949,1717451,0
391751918,0,157374502,25010854,90203370,114442096,26,0,0,1713466,0,0,0,0,0,0,0,1289835,949,1716820,0
391751910,0,157374974,25011333,90203434,114441134,26,0,0,1713404,0,0,0,0,0,0,0,1289800,985,1716820,0
391751914,0,157374504,25010855,90203367,114442092,26,0,0,1713466,0,0,0,0,0,0,0,1289835,949,1716820,0
391751918,0,157374500,25010851,90203373,114442094,26,0,0,1713468,0,0,0,0,0,0,0,1289837,949,1716820,0
391674182,0,157297248,25011845,90426925,114221985,26,0,0,1713404,0,0,0,0,0,0,0,1289799,986,1711964,0
391649882,0,157272472,25010855,90496712,114155124,26,0,0,1713466,0,0,0,0,0,0,0,1289835,949,1710443,0
391657510,0,157276437,25011830,90500739,114153748,28,0,0,1713438,0,0,0,0,0,0,0,1287348,949,1712993,0
391689562,0,157287978,25013431,90514510,114158484,26,0,0,1713642,0,0,0,0,0,0,0,1277081,949,1723461,0
391689558,0,157287979,25013429,90514506,114158480,26,0,0,1713644,0,0,0,0,0,0,0,1277081,949,1723464,0
391730614,0,157345431,25012724,90309678,114343773,26,0,0,1713464,0,0,0,0,0,0,0,1285514,949,1719055,0
391751917,0,157374497,25010854,90203372,114442098,26,0,0,1713466,0,0,0,0,0,0,0,1289835,949,1716820,0
391751909,0,157374979,25011333,90203432,114441130,26,0,0,1713404,0,0,0,0,0,0,0,1289800,985,1716820,0
391751917,0,157374505,25010855,90203368,114442093,26,0,0,1713466,0,0,0,0,0,0,0,1289835,949,1716820,0
391751917,0,157374497,25010851,90203373,114442094,26,0,0,1713468,0,0,0,0,0,0,0,1289837,949,1716822,0
391698837,0,157321906,25011845,90356039,114291329,26,0,0,1713404,0,0,0,0,0,0,0,1289799,986,1713503,0
391649886,0,157272465,25010854,90496719,114155129,26,0,0,1713466,0,0,0,0,0,0,0,1289835,949,1710443,0
391649881,0,157272471,25010855,90496712,114155124,26,0,0,1713466,0,0,0,0,0,0,0,1289835,949,1710443,0
391687600,0,157288203,25013786,90514230,114156290,28,0,0,1713572,0,0,0,0,0,0,0,1277676,949,1722866,0
391689558,0,157287973,25013426,90514510,114158485,26,0,0,1713644,0,0,0,0,0,0,0,1277081,949,1723464,0
391715549,0,157324526,25013350,90384863,114275238,26,0,0,1713506,0,0,0,0,0,0,0,1282432,949,1720659,0
391751914,0,157374501,25010852,90203368,114442097,26,0,0,1713466,0,0,0,0,0,0,0,1289835,949,1716820,0
391751919,0,157374498,25010854,90203372,114442099,26,0,0,1713466,0,0,0,0,0,0,0,1289835,949,1716820,0
391751908,0,157374978,25011332,90203432,114441130,26,0,0,1713405,0,0,0,0,0,0,0,1289800,985,1716820,0
391751917,0,157374504,25010853,90203370,114442089,26,0,0,1713467,0,0,0,0,0,0,0,1289837,949,1716822,0
391723496,0,157346560,25011847,90285157,114360673,26,0,0,1713404,0,0,0,0,0,0,0,1289799,986,1715044,0
391649881,0,157272467,25010852,90496715,114155128,26,0,0,1713466,0,0,0,0,0,0,0,1289835,949,1710443,0
391649884,0,157272471,25010857,90496714,114155123,26,0,0,1713466,0,0,0,0,0,0,0,1289835,949,1710443,0
391678013,0,157284450,25013160,90509933,114155484,28,0,0,1713530,0,0,0,0,0,0,0,1280758,949,1719721,0
391689555,0,157287978,25013429,90514506,114158483,26,0,0,1713642,0,0,0,0,0,0,0,1277081,949,1723461,0
391700483,0,157303615,25013970,90460049,114206708,26,0,0,1713550,0,0,0,0,0,0,0,1279350,949,1722266,0
391751916,0,157374502,25010855,90203370,114442093,26,0,0,1713466,0,0,0,0,0,0,0,1289835,949,1716820,0
391751915,0,157374501,25010852,90203368,114442098,26,0,0,1713466,0,0,0,0,0,0,0,1289835,949,1716820,0
391751912,0,157374975,25011332,90203437,114441131,26,0,0,1713405,0,0,0,0,0,0,0,1289801,985,1716820,0
391751915,0,157374502,25010855,90203368,114442090,26,0,0,1713467,0,0,0,0,0,0,0,1289836,949,1716822,0
391748150,0,157371217,25011845,90214270,114430018,26,0,0,1713404,0,0,0,0,0,0,0,1289799,986,1716585,0
391649884,0,157272468,25010854,90496717,114155126,26,0,0,1713466,0,0,0,0,0,0,0,1289835,949,1710443,0
391649881,0,157272467,25010852,90496715,114155128,26,0,0,1713466,0,0,0,0,0,0,0,1289835,949,1710443,0
391668423,0,157280707,25012542,90505629,114154669,28,0,0,1713486,0,0,0,0,0,0,0,1283840,949,1716573,0
391689562,0,157287976,25013428,90514512,114158482,26,0,0,1713644,0,0,0,0,0,0,0,1277081,949,1723464,0
391689558,0,157287976,25013429,90514507,114158487,26,0,0,1713642,0,0,0,0,0,0,0,1277081,949,1723461,0
391747768,0,157369233,25012018,90224092,114421783,26,0,0,1713416,0,0,0,0,0,0,0,1289022,949,1717229,0
391751918,0,157374502,25010853,90203370,114442096,26,0,0,1713467,0,0,0,0,0,0,0,1289835,949,1716820,0
391751910,0,157374973,25011331,90203436,114441130,26,0,0,1713405,0,0,0,0,0,0,0,1289802,985,1716822,0
391751917,0,157374503,25010854,90203369,114442095,26,0,0,1713466,0,0,0,0,0,0,0,1289835,949,1716820,0
391751915,0,157374502,25010855,90203369,114442093,26,0,0,1713466,0,0,0,0,0,0,0,1289835,949,1716820,0
391670771,0,157293837,25011845,90436732,114212393,26,0,0,1713404,0,0,0,0,0,0,0,1289799,986,1711749,0
391649885,0,157272470,25010854,90496717,114155125,26,0,0,1713466,0,0,0,0,0,0,0,1289835,949,1710443,0
391658836,0,157276958,25011918,90501331,114153858,28,0,0,1713444,0,0,0,0,0,0,0,1286922,949,1713428,0
391689559,0,157287976,25013428,90514508,114158487,26,0,0,1713643,0,0,0,0,0,0,0,1277081,949,1723461,0
391689559,0,157287978,25013428,90514509,114158481,26,0,0,1713643,0,0,0,0,0,0,0,1277081,949,1723464,0
391732701,0,157348321,25012640,90299277,114353257,26,0,0,1713458,0,0,0,0,0,0,0,1285940,949,1718833,0
391751914,0,157374502,25010854,90203368,114442093,26,0,0,1713467,0,0,0,0,0,0,0,1289835,949,1716820,0
391751909,0,157374978,25011331,90203434,114441126,26,0,0,1713405,0,0,0,0,0,0,0,1289802,985,1716822,0
391751921,0,157374499,25010854,90203372,114442100,26,0,0,1713466,0,0,0,0,0,0,0,1289835,949,1716820,0
391751913,0,157374504,25010855,90203367,114442091,26,0,0,1713466,0,0,0,0,0,0,0,1289835,949,1716820,0
391695426,0,157318495,25011845,90365846,114281735,26,0,0,1713404,0,0,0,0,0,0,0,1289799,986,1713290,0
391649886,0,157272465,25010854,90496719,114155129,26,0,0,1713466,0,0,0,0,0,0,0,1289835,949,1710443,0
391649884,0,157272469,25010854,90496717,114155125,26,0,0,1713466,0,0,0,0,0,0,0,1289835,949,1710443,0
391688924,0,157288720,25013869,90514824,114156405,28,0,0,1713578,0,0,0,0,0,0,0,1277250,949,1723301,0
391689560,0,157287974,25013428,90514510,114158484,26,0,0,1713644,0,0,0,0,0,0,0,1277081,949,1723464,0
391717630,0,157327417,25013263,90374458,114284722,26,0,0,1713500,0,0,0,0,0,0,0,1282858,949,1720437,0
391751915,0,157374505,25010854,90203367,114442092,26,0,0,1713467,0,0,0,0,0,0,0,1289835,949,1716820,0
391751919,0,157374497,25010852,90203374,114442095,26,0,0,1713467,0,0,0,0,0,0,0,1289837,949,1716822,0
391751908,0,157374978,25011333,90203432,114441130,26,0,0,1713404,0,0,0,0,0,0,0,1289800,985,1716820,0
391751921,0,157374500,25010854,90203372,114442099,26,0,0,1713466,0,0,0,0,0,0,0,1289835,949,1716820,0
391720081,0,157343154,25011848,90294960,114351073,26,0,0,1713404,0,0,0,0,0,0,0,1289799,986,1714831,0
391649881,0,157272467,25010852,90496715,114155128,26,0,0,1713466,0,0,0,0,0,0,0,1289835,949,1710443,0
391649886,0,157272465,25010854,90496719,114155129,26,0,0,1713466,0,0,0,0,0,0,0,1289835,949,1710443,0
391679334,0,157284976,25013248,90510520,114155589,28,0,0,1713536,0,0,0,0,0,0,0,1280332,949,1720156,0
391689562,0,157287976,25013431,90514512,114158484,26,0,0,1713642,0,0,0,0,0,0,0,1277081,949,1723461,0
391702564,0,157306508,25013882,90449644,114216190,26,0,0,1713545,0,0,0,0,0,0,0,1279776,949,1722044,0
391751916,0,157374497,25010850,90203373,114442095,26,0,0,1713467,0,0,0,0,0,0,0,1289837,949,1716822,0
391751915,0,157374505,25010855,90203367,114442092,26,0,0,1713466,0,0,0,0,0,0,0,1289835,949,1716820,0
391751912,0,157374976,25011335,90203435,114441131,26,0,0,1713404,0,0,0,0,0,0,0,1289800,985,1716820,0
391751914,0,157374499,25010852,90203369,114442098,26,0,0,1713466,0,0,0,0,0,0,0,1289835,949,1716820,0
391744740,0,157367809,25011848,90224076,114420420,26,0,0,1713404,0,0,0,0,0,0,0,1289799,986,1716372,0
391649884,0,157272468,25010854,90496717,114155126,26,0,0,1713466,0,0,0,0,0,0,0,1289835,949,1710443,0
391649881,0,157272467,25010852,90496715,114155128,26,0,0,1713466,0,0,0,0,0,0,0,1289835,949,1710443,0
391669752,0,157281226,25012629,90506226,114154780,28,0,0,1713492,0,0,0,0,0,0,0,1283414,949,1717008,0
391689559,0,157287975,25013426,90514509,114158485,26,0,0,1713644,0,0,0,0,0,0,0,1277081,949,1723464,0
391689559,0,157287977,25013428,90514509,114158481,26,0,0,1713644,0,0,0,0,0,0,0,1277081,949,1723464,0
391749854,0,157372124,25011929,90213692,114431268,26,0,0,1713410,0,0,0,0,0,0,0,1289450,949,1717006,0
391751917,0,157374498,25010853,90203371,114442099,26,0,0,1713466,0,0,0,0,0,0,0,1289835,949,1716820,0
391751909,0,157374978,25011336,90203432,114441128,26,0,0,1713404,0,0,0,0,0,0,0,1289800,985,1716820,0
391751917,0,157374503,25010854,90203369,114442095,26,0,0,1713466,0,0,0,0,0,0,0,1289835,949,1716820,0
391751915,0,157374499,25010852,90203370,114442098,26,0,0,1713466,0,0,0,0,0,0,0,1289835,949,1716820,0
391667360,0,157290429,25011848,90446538,114202794,26,0,0,1713404,0,0,0,0,0,0,0,1289799,986,1711536,0
391649885,0,157272470,25010854,90496717,114155125,26,0,0,1713466,0,0,0,0,0,0,0,1289835,949,1710443,0
391660162,0,157277474,25012003,90501926,114153973,28,0,0,1713450,0,0,0,0,0,0,0,1286496,949,1713863,0
391689559,0,157287979,25013426,90514509,114158481,26,0,0,1713644,0,0,0,0,0,0,0,1277081,949,1723464,0
391689560,0,157287974,25013431,90514510,114158486,26,0,0,1713642,0,0,0,0,0,0,0,1277081,949,1723461,0
391734785,0,157351216,25012551,90288875,114362733,26,0,0,1713454,0,0,0,0,0,0,0,1286368,949,1718613,0
391751916,0,157374503,25010852,90203369,114442096,26,0,0,1713466,0,0,0,0,0,0,0,1289835,949,1716820,0
391751907,0,157374978,25011336,90203431,114441127,26,0,0,1713404,0,0,0,0,0,0,0,1289800,985,1716820,0
391751921,0,157374499,25010854,90203372,114442100,26,0,0,1713466,0,0,0,0,0,0,0,1289835,949,1716820,0
391751916,0,157374503,25010854,90203369,114442094,26,0,0,1713466,0,0,0,0,0,0,0,1289835,949,1716820,0
391692017,0,157315081,25011845,90375657,114272142,26,0,0,1713404,0,0,0,0,0,0,0,1289799,986,1713077,0
391649881,0,157272469,25010855,90496713,114155125,26,0,0,1713466,0,0,0,0,0,0,0,1289835,949,1710443,0
391650574,0,157273730,25011379,90497626,114153158,28,0,0,1713408,0,0,0,0,0,0,0,1289578,949,1710718,0
391689562,0,157287976,25013431,90514511,114158485,26,0,0,1713642,0,0,0,0,0,0,0,1277081,949,1723461,0
391689557,0,157287976,25013426,90514507,114158484,26,0,0,1713644,0,0,0,0,0,0,0,1277081,949,1723464,0
391719716,0,157330308,25013175,90364060,114294199,26,0,0,1713496,0,0,0,0,0,0,0,1283286,949,1720217,0
391751920,0,157374501,25010854,90203371,114442098,26,0,0,1713466,0,0,0,0,0,0,0,1289835,949,1716820,0
391751916,0,157374503,25010852,90203369,114442096,26,0,0,1713466,0,0,0,0,0,0,0,1289835,949,1716820,0
391751906,0,157374977,25011336,90203431,114441127,26,0,0,1713404,0,0,0,0,0,0,0,1289800,985,1716820,0
391751921,0,157374500,25010854,90203372,114442099,26,0,0,1713466,0,0,0,0,0,0,0,1289835,949,1716820,0
391716670,0,157339739,25011845,90304769,114341484,26,0,0,1713404,0,0,0,0,0,0,0,1289799,986,1714618,0
391649881,0,157272471,25010855,90496713,114155123,26,0,0,1713466,0,0,0,0,0,0,0,1289835,949,1710443,0
391649886,0,157272465,25010854,90496719,114155129,26,0,0,1713466,0,0,0,0,0,0,0,1289835,949,1710443,0
391680664,0,157285490,25013332,90511120,114155706,28,0,0,1713542,0,0,0,0,0,0,0,1279906,949,1720591,0
391689559,0,157287977,25013428,90514510,114158484,26,0,0,1713643,0,0,0,0,0,0,0,1277081,949,1723461,0
391704648,0,157309403,25013799,90439241,114225663,26,0,0,1713539,0,0,0,0,0,0,0,1280204,949,1721824,0
391751916,0,157374498,25010852,90203371,114442099,26,0,0,1713466,0,0,0,0,0,0,0,1289835,949,1716820,0
391751919,0,157374501,25010854,90203371,114442097,26,0,0,1713466,0,0,0,0,0,0,0,1289835,949,1716820,0
391751908,0,157374980,25011336,90203431,114441126,26,0,0,1713404,0,0,0,0,0,0,0,1289800,985,1716820,0
391751914,0,157374499,25010852,90203369,114442098,26,0,0,1713466,0,0,0,0,0,0,0,1289835,949,1716820,0
391741330,0,157364397,25011846,90233886,114410827,26,0,0,1713404,0,0,0,0,0,0,0,1289799,986,1716159,0
391649884,0,157272465,25010853,90496717,114155130,26,0,0,1713466,0,0,0,0,0,0,0,1289835,949,1710443,0
391649880,0,157272471,25010855,90496712,114155123,26,0,0,1713466,0,0,0,0,0,0,0,1289835,949,1710443,0
391671079,0,157281741,25012708,90506825,114154894,28,0,0,1713500,0,0,0,0,0,0,0,1282988,949,1717446,0
391689557,0,157287979,25013432,90514505,114158482,26,0,0,1713642,0,0,0,0,0,0,0,1277081,949,1723461,0
391689582,0,157288489,25013983,90514402,114157573,26,0,0,1713638,0,0,0,0,0,0,0,1277094,949,1723428,0
391751917,0,157374504,25011289,90203397,114441659,26,0,0,1713410,0,0,0,0,0,0,0,1289863,949,1716820,0
391751917,0,157374498,25010853,90203371,114442099,26,0,0,1713466,0,0,0,0,0,0,0,1289835,949,1716820,0
391751908,0,157374978,25011333,90203432,114441130,26,0,0,1713404,0,0,0,0,0,0,0,1289800,985,1716820,0
391751918,0,157374503,25010857,90203369,114442093,26,0,0,1713466,0,0,0,0,0,0,0,1289835,949,1716820,0
391751915,0,157374499,25010852,90203370,114442098,26,0,0,1713466,0,0,0,0,0,0,0,1289835,949,1716820,0
391663950,0,157287018,25011845,90456348,114193201,26,0,0,1713404,0,0,0,0,0,0,0,1289799,986,1711323,0
391649884,0,157272470,25010857,90496714,114155124,26,0,0,1713466,0,0,0,0,0,0,0,1289835,949,1710443,0
391661487,0,157277995,25012088,90502519,114154084,28,0,0,1713456,0,0,0,0,0,0,0,1286070,949,1714298,0
391689562,0,157287974,25013428,90514512,114158484,26,0,0,1713644,0,0,0,0,0,0,0,1277081,949,1723464,0
391689556,0,157287977,25013429,90514506,114158485,26,0,0,1713642,0,0,0,0,0,0,0,1277081,949,1723461,0
391736872,0,157354108,25012466,90278476,114372214,26,0,0,1713448,0,0,0,0,0,0,0,1286794,949,1718391,0
391751916,0,157374503,25010852,90203369,114442096,26,0,0,1713466,0,0,0,0,0,0,0,1289835,949,1716820,0
391751911,0,157374975,25011335,90203435,114441131,26,0,0,1713404,0,0,0,0,0,0,0,1289800,985,1716820,0
391751917,0,157374502,25010855,90203368,114442096,26,0,0,1713466,0,0,0,0,0,0,0,1289835,949,1716820,0
391751916,0,157374503,25010854,90203369,114442094,26,0,0,1713466,0,0,0,0,0,0,0,1289835,949,1716820,0
391688606,0,157311670,25011845,90385464,114262548,26,0,0,1713404,0,0,0,0,0,0,0,1289799,986,1712864,0
391649882,0,157272469,25010852,90496716,114155126,26,0,0,1713466,0,0,0,0,0,0,0,1289835,949,1710443,0
391651902,0,157274248,25011469,90498220,114153269,28,0,0,1713414,0,0,0,0,0,0,0,1289152,949,1711153,0
391689558,0,157287976,25013429,90514507,114158487,26,0,0,1713642,0,0,0,0,0,0,0,1277081,949,1723461,0
391689560,0,157287977,25013428,90514510,114158481,26,0,0,1713644,0,0,0,0,0,0,0,1277081,949,1723464,0
391721799,0,157333200,25013088,90353657,114303682,26,0,0,1713490,0,0,0,0,0,0,0,1283712,949,1719995,0
391751920,0,157374501,25010854,90203371,114442098,26,0,0,1713466,0,0,0,0,0,0,0,1289835,949,1716820,0
391751916,0,157374503,25010852,90203369,114442096,26,0,0,1713466,0,0,0,0,0,0,0,1289835,949,1716820,0
391751910,0,157374975,25011335,90203434,114441131,26,0,0,1713404,0,0,0,0,0,0,0,1289800,985,1716820,0
391751917,0,157374502,25010855,90203369,114442095,26,0,0,1713466,0,0,0,0,0,0,0,1289835,949,1716820,0
391713259,0,157336328,25011845,90314576,114331890,26,0,0,1713404,0,0,0,0,0,0,0,1289799,986,1714405,0
391649885,0,157272467,25010854,90496719,114155126,26,0,0,1713466,0,0,0,0,0,0,0,1289835,949,1710443,0
391649882,0,157272469,25010855,90496713,114155126,26,0,0,1713466,0,0,0,0,0,0,0,1289835,949,1710443,0
391681990,0,157286010,25013418,90511715,114155816,28,0,0,1713548,0,0,0,0,0,0,0,1279480,949,1721026,0
391689561,0,157287973,25013427,90514511,114158486,26,0,0,1713644,0,0,0,0,0,0,0,1277081,949,1723464,0
391706733,0,157312292,25013711,90428842,114235152,26,0,0,1713532,0,0,0,0,0,0,0,1280630,949,1721599,0
391751914,0,157374504,25010855,90203367,114442092,26,0,0,1713466,0,0,0,0,0,0,0,1289835,949,1716820,0
391751919,0,157374501,25010854,90203371,114442097,26,0,0,1713466,0,0,0,0,0,0,0,1289835,949,1716820,0
391751908,0,157374975,25011333,90203433,114441132,26,0,0,1713404,0,0,0,0,0,0,0,1289800,985,1716820,0
391751914,0,157374504,25010855,90203367,114442092,26,0,0,1713466,0,0,0,0,0,0,0,1289835,949,1716820,0
391737919,0,157360986,25011846,90243693,114401233,26,0,0,1713404,0,0,0,0,0,0,0,1289799,986,1715946,0
391649884,0,157272465,25010853,90496717,114155130,26,0,0,1713466,0,0,0,0,0,0,0,1289835,949,1710443,0
391649884,0,157272467,25010853,90496718,114155126,26,0,0,1713467,0,0,0,0,0,0,0,1289835,949,1710443,0
391672402,0,157282260,25012797,90507415,114155005,28,0,0,1713505,0,0,0,0,0,0,0,1282562,949,1717881,0
391689557,0,157287978,25013429,90514506,114158485,26,0,0,1713642,0,0,0,0,0,0,0,1277081,949,1723461,0
391691665,0,157291385,25014332,90504027,114166616,26,0,0,1713576,0,0,0,0,0,0,0,1277548,949,1723206,0
391751918,0,157374505,25010856,90203368,114442093,26,0,0,1713466,0,0,0,0,0,0,0,1289835,949,1716820,0
391751917,0,157374498,25010853,90203371,114442099,26,0,0,1713466,0,0,0,0,0,0,0,1289835,949,1716820,0
391751908,0,157374978,25011333,90203432,114441130,26,0,0,1713404,0,0,0,0,0,0,0,1289800,985,1716820,0
391751918,0,157374497,25010854,90203372,114442099,26,0,0,1713466,0,0,0,0,0,0,0,1289835,949,1716820,0
391751915,0,157374505,25010855,90203367,114442092,26,0,0,1713466,0,0,0,0,0,0,0,1289835,949,1716820,0
391660539,0,157283607,25011845,90466155,114183607,26,0,0,1713404,0,0,0,0,0,0,0,1289799,986,1711110,0
391649885,0,157272466,25010853,90496716,114155130,26,0,0,1713467,0,0,0,0,0,0,0,1289835,949,1710443,0
391662814,0,157278512,25012176,90503116,114154195,28,0,0,1713461,0,0,0,0,0,0,0,1285644,949,1714733,0
391689561,0,157287977,25013428,90514511,114158481,26,0,0,1713644,0,0,0,0,0,0,0,1277081,949,1723464,0
391689558,0,157287979,25013429,90514506,114158483,26,0,0,1713643,0,0,0,0,0,0,0,1277081,949,1723462,0
391738953,0,157356999,25012379,90268072,114381699,26,0,0,1713441,0,0,0,0,0,0,0,1287220,949,1718168,0
391751917,0,157374505,25010855,90203368,114442093,26,0,0,1713466,0,0,0,0,0,0,0,1289835,949,1716820,0
391751911,0,157374975,25011335,90203435,114441131,26,0,0,1713404,0,0,0,0,0,0,0,1289800,985,1716820,0
391751915,0,157374501,25010852,90203368,114442098,26,0,0,1713466,0,0,0,0,0,0,0,1289835,949,1716820,0
391751918,0,157374504,25010857,90203369,114442092,26,0,0,1713466,0,0,0,0,0,0,0,1289835,949,1716820,0
391685195,0,157308259,25011845,90395271,114252954,26,0,0,1713404,0,0,0,0,0,0,0,1289799,986,1712651,0
391649882,0,157272468,25010851,90496714,114155129,26,0,0,1713467,0,0,0,0,0,0,0,1289835,949,1710443,0
391653228,0,157274767,25011555,90498816,114153380,28,0,0,1713419,0,0,0,0,0,0,0,1288726,949,1711588,0
391689559,0,157287977,25013428,90514509,114158481,26,0,0,1713644,0,0,0,0,0,0,0,1277081,949,1723464,0
391689560,0,157287974,25013429,90514510,114158488,26,0,0,1713642,0,0,0,0,0,0,0,1277081,949,1723461,0
391723887,0,157336094,25013002,90343257,114313164,26,0,0,1713484,0,0,0,0,0,0,0,1284138,949,1719773,0
391751916,0,157374502,25010855,90203368,114442095,26,0,0,1713466,0,0,0,0,0,0,0,1289835,949,1716820,0
391751916,0,157374503,25010852,90203369,114442096,26,0,0,1713466,0,0,0,0,0,0,0,1289835,949,1716820,0
391751910,0,157374975,25011335,90203434,114441131,26,0,0,1713404,0,0,0,0,0,0,0,1289800,985,1716820,0
391751915,0,157374501,25010852,90203369,114442097,26,0,0,1713466,0,0,0,0,0,0,0,1289835,949,1716820,0
391709850,0,157332918,25011848,90324383,114322294,26,0,0,1713404,0,0,0,0,0,0,0,1289799,986,1714192,0
391649885,0,157272466,25010851,90496719,114155126,26,0,0,1713468,0,0,0,0,0,0,0,1289837,949,1710443,0
391649882,0,157272468,25010852,90496716,114155126,26,0,0,1713466,0,0,0,0,0,0,0,1289835,949,1710444,0
391683318,0,157286528,25013510,90512309,114155930,28,0,0,1713552,0,0,0,0,0,0,0,1279052,949,1721460,0
391689556,0,157287977,25013426,90514506,114158483,26,0,0,1713644,0,0,0,0,0,0,0,1277081,949,1723464,0
391708821,0,157315183,25013626,90418443,114244635,26,0,0,1713526,0,0,0,0,0,0,0,1281056,949,1721377,0
391751917,0,157374503,25010854,90203369,114442095,26,0,0,1713466,0,0,0,0,0,0,0,1289835,949,1716820,0
391751916,0,157374502,25010855,90203369,114442094,26,0,0,1713466,0,0,0,0,0,0,0,1289835,949,1716820,0
391751908,0,157374975,25011333,90203433,114441132,26,0,0,1713404,0,0,0,0,0,0,0,1289800,985,1716820,0
391751919,0,157374503,25010854,90203370,114442096,26,0,0,1713466,0,0,0,0,0,0,0,1289835,949,1716820,0
391734506,0,157357570,25011844,90253501,114391642,26,0,0,1713405,0,0,0,0,0,0,0,1289799,986,1715733,0
391649881,0,157272470,25010853,90496713,114155122,26,0,0,1713467,0,0,0,0,0,0,0,1289837,949,1710444,0
391649884,0,157272467,25010854,90496718,114155126,26,0,0,1713466,0,0,0,0,0,0,0,1289835,949,1710443,0
391673727,0,157282780,25012884,90508008,114155119,28,0,0,1713510,0,0,0,0,0,0,0,1282134,949,1718315,0
391689561,0,157287978,25013430,90514510,114158483,26,0,0,1713643,0,0,0,0,0,0,0,1277081,949,1723461,0
391693747,0,157294277,25014246,90493623,114176099,26,0,0,1713569,0,0,0,0,0,0,0,1277974,949,1722984,0
391751921,0,157374499,25010854,90203372,114442100,26,0,0,1713466,0,0,0,0,0,0,0,1289835,949,1716820,0
391751916,0,157374503,25010854,90203369,114442094,26,0,0,1713466,0,0,0,0,0,0,0,1289835,949,1716820,0
391751906,0,157374979,25011334,90203430,114441128,26,0,0,1713404,0,0,0,0,0,0,0,1289800,985,1716820,0
391751918,0,157374497,25010854,90203372,114442099,26,0,0,1713466,0,0,0,0,0,0,0,1289835,949,1716820,0
391751919,0,157374503,25010851,90203372,114442095,26,0,0,1713467,0,0,0,0,0,0,0,1289836,949,1716820,0
391657124,0,157280197,25011846,90475957,114174009,26,0,0,1713405,0,0,0,0,0,0,0,1289800,986,1710898,0
391649885,0,157272466,25010854,90496717,114155129,26,0,0,1713466,0,0,0,0,0,0,0,1289835,949,1710443,0
391664143,0,157279032,25012262,90503712,114154309,28,0,0,1713467,0,0,0,0,0,0,0,1285216,949,1715168,0
391689558,0,157287974,25013429,90514509,114158484,26,0,0,1713643,0,0,0,0,0,0,0,1277081,949,1723463,0
391689559,0,157287979,25013426,90514509,114158481,26,0,0,1713644,0,0,0,0,0,0,0,1277081,949,1723464,0
391741037,0,157359894,25012297,90257667,114391180,26,0,0,1713434,0,0,0,0,0,0,0,1287646,949,1717944,0
391751922,0,157374500,25010854,90203372,114442100,26,0,0,1713466,0,0,0,0,0,0,0,1289835,949,1716820,0
391751906,0,157374980,25011336,90203431,114441124,26,0,0,1713404,0,0,0,0,0,0,0,1289800,985,1716820,0
391751915,0,157374501,25010852,90203368,114442098,26,0,0,1713466,0,0,0,0,0,0,0,1289835,949,1716820,0
391751919,0,157374497,25010851,90203374,114442095,26,0,0,1713468,0,0,0,0,0,0,0,1289837,949,1716822,0
391681781,0,157304851,25011845,90405074,114243359,26,0,0,1713404,0,0,0,0,0,0,0,1289799,986,1712437,0
391649884,0,157272472,25010855,90496715,114155123,26,0,0,1713466,0,0,0,0,0,0,0,1289835,949,1710443,0
391654558,0,157275281,25011641,90499414,114153501,28,0,0,1713424,0,0,0,0,0,0,0,1288298,949,1712022,0
391689555,0,157287977,25013426,90514507,114158481,26,0,0,1713644,0,0,0,0,0,0,0,1277081,949,1723464,0
391689562,0,157287976,25013431,90514511,114158485,26,0,0,1713642,0,0,0,0,0,0,0,1277081,949,1723461,0
391725970,0,157338989,25012918,90332851,114322644,26,0,0,1713478,0,0,0,0,0,0,0,1284564,949,1719551,0
391751914,0,157374499,25010852,90203369,114442098,26,0,0,1713466,0,0,0,0,0,0,0,1289835,949,1716820,0
391751912,0,157374979,25011334,90203433,114441131,26,0,0,1713404,0,0,0,0,0,0,0,1289800,985,1716820,0
391751916,0,157374502,25010855,90203369,114442093,26,0,0,1713467,0,0,0,0,0,0,0,1289835,949,1716820,0
391751915,0,157374500,25010850,90203371,114442093,26,0,0,1713467,0,0,0,0,0,0,0,1289837,949,1716822,0
391706441,0,157329505,25011847,90334192,114312704,26,0,0,1713404,0,0,0,0,0,0,0,1289799,986,1713978,0
391649883,0,157272469,25010855,90496715,114155125,26,0,0,1713466,0,0,0,0,0,0,0,1289835,949,1710443,0
391649882,0,157272468,25010852,90496716,114155127,26,0,0,1713466,0,0,0,0,0,0,0,1289835,949,1710443,0
391684641,0,157287046,25013595,90512901,114156043,28,0,0,1713558,0,0,0,0,0,0,0,1278626,949,1721895,0
391689562,0,157287977,25013428,90514511,114158482,26,0,0,1713644,0,0,0,0,0,0,0,1277081,949,1723464,0
391710903,0,157318076,25013539,90408039,114254117,26,0,0,1713520,0,0,0,0,0,0,0,1281482,949,1721155,0
391751917,0,157374503,25010854,90203369,114442095,26,0,0,1713466,0,0,0,0,0,0,0,1289835,949,1716820,0
391751915,0,157374499,25010852,90203370,114442098,26,0,0,1713466,0,0,0,0,0,0,0,1289835,949,1716820,0
391751909,0,157374978,25011335,90203432,114441128,26,0,0,1713405,0,0,0,0,0,0,0,1289800,985,1716820,0
391751919,0,157374502,25010852,90203372,114442092,26,0,0,1713467,0,0,0,0,0,0,0,1289837,949,1716822,0
391731095,0,157354159,25011845,90263307,114382050,26,0,0,1713404,0,0,0,0,0,0,0,1289799,986,1715519,0
391649882,0,157272469,25010854,90496716,114155124,26,0,0,1713466,0,0,0,0,0,0,0,1289835,949,1710443,0
391649883,0,157272469,25010855,90496714,114155126,26,0,0,1713466,0,0,0,0,0,0,0,1289835,949,1710443,0
391675056,0,157283299,25012971,90508605,114155230,28,0,0,1713516,0,0,0,0,0,0,0,1281708,949,1718750,0
391689557,0,157287973,25013426,90514509,114158485,26,0,0,1713644,0,0,0,0,0,0,0,1277081,949,1723464,0
391695833,0,157297174,25014163,90483220,114185580,26,0,0,1713562,0,0,0,0,0,0,0,1278400,949,1722759,0
391751921,0,157374499,25010854,90203372,114442100,26,0,0,1713466,0,0,0,0,0,0,0,1289835,949,1716820,0
391751916,0,157374503,25010853,90203369,114442094,26,0,0,1713467,0,0,0,0,0,0,0,1289835,949,1716820,0
391751910,0,157374973,25011331,90203436,114441131,26,0,0,1713405,0,0,0,0,0,0,0,1289802,985,1716821,0
391751914,0,157374502,25010855,90203368,114442092,26,0,0,1713466,0,0,0,0,0,0,0,1289835,949,1716821,0
391751919,0,157374504,25010854,90203370,114442095,26,0,0,1713466,0,0,0,0,0,0,0,1289835,949,1716820,0
391653718,0,157276781,25011845,90485769,114164425,26,0,0,1713404,0,0,0,0,0,0,0,1289799,986,1710683,0
391649880,0,157272471,25010855,90496712,114155123,26,0,0,1713466,0,0,0,0,0,0,0,1289835,949,1710443,0
391665470,0,157279548,25012347,90504308,114154421,28,0,0,1713474,0,0,0,0,0,0,0,1284790,949,1715605,0
391689556,0,157287979,25013429,90514506,114158483,26,0,0,1713642,0,0,0,0,0,0,0,1277081,949,1723461,0
391689562,0,157287974,25013428,90514512,114158484,26,0,0,1713644,0,0,0,0,0,0,0,1277081,949,1723464,0
391743120,0,157362789,25012210,90247264,114400660,26,0,0,1713428,0,0,0,0,0,0,0,1288072,949,1717722,0
391751922,0,157374500,25010853,90203372,114442100,26,0,0,1713467,0,0,0,0,0,0,0,1289835,949,1716820,0
391751906,0,157374975,25011331,90203434,114441126,26,0,0,1713405,0,0,0,0,0,0,0,1289802,985,1716822,0
391751915,0,157374505,25010855,90203367,114442092,26,0,0,1713466,0,0,0,0,0,0,0,1289835,949,1716820,0
391751919,0,157374498,25010854,90203372,114442099,26,0,0,1713466,0,0,0,0,0,0,0,1289835,949,1716820,0
391678370,0,157301440,25011845,90414881,114233765,26,0,0,1713404,0,0,0,0,0,0,0,1289799,986,1712224,0
391649887,0,157272467,25010854,90496720,114155127,26,0,0,1713466,0,0,0,0,0,0,0,1289835,949,1710443,0
391655877,0,157275805,25011727,90500001,114153608,28,0,0,1713430,0,0,0,0,0,0,0,1287872,949,1712457,0
391689562,0,157287976,25013428,90514512,114158482,26,0,0,1713644,0,0,0,0,0,0,0,1277081,949,1723464,0
391689558,0,157287976,25013428,90514507,114158487,26,0,0,1713643,0,0,0,0,0,0,0,1277081,949,1723461,0
391728056,0,157341882,25012834,90322451,114332124,26,0,0,1713471,0,0,0,0,0,0,0,1284990,949,1719329,0
391751914,0,157374499,25010851,90203369,114442098,26,0,0,1713467,0,0,0,0,0,0,0,1289835,949,1716820,0
391751912,0,157374978,25011332,90203435,114441127,26,0,0,1713405,0,0,0,0,0,0,0,1289802,985,1716822,0
391751917,0,157374498,25010853,90203371,114442099,26,0,0,1713466,0,0,0,0,0,0,0,1289835,949,1716820,0
391751914,0,157374505,25010855,90203367,114442091,26,0,0,1713466,0,0,0,0,0,0,0,1289835,949,1716820,0
391703030,0,157326094,25011847,90343999,114303110,26,0,0,1713404,0,0,0,0,0,0,0,1289799,986,1713765,0
391649882,0,157272466,25010852,90496716,114155129,26,0,0,1713466,0,0,0,0,0,0,0,1289835,949,1710443,0
391649883,0,157272471,25010855,90496715,114155123,26,0,0,1713466,0,0,0,0,0,0,0,1289835,949,1710443,0
391685971,0,157287560,25013676,90513502,114156157,28,0,0,1713566,0,0,0,0,0,0,0,1278200,949,1722333,0
391689559,0,157287979,25013430,90514508,114158483,26,0,0,1713642,0,0,0,0,0,0,0,1277081,949,1723461,0
391712987,0,157320971,25013453,90397634,114263599,26,0,0,1713514,0,0,0,0,0,0,0,1281908,949,1720933,0
391751917,0,157374502,25010854,90203371,114442092,26,0,0,1713467,0,0,0,0,0,0,0,1289836,949,1716820,0
391751915,0,157374499,25010852,90203370,114442094,26,0,0,1713467,0,0,0,0,0,0,0,1289836,949,1716822,0
391751911,0,157374979,25011333,90203433,114441131,26,0,0,1713404,0,0,0,0,0,0,0,1289800,985,1716820,0
391751917,0,157374502,25010857,90203369,114442093,26,0,0,1713466,0,0,0,0,0,0,0,1289835,949,1716820,0
391727684,0,157350748,25011845,90273114,114372456,26,0,0,1713404,0,0,0,0,0,0,0,1289799,986,1715306,0
391649882,0,157272469,25010854,90496716,114155124,26,0,0,1713466,0,0,0,0,0,0,0,1289835,949,1710443,0
391649882,0,157272465,25010852,90496716,114155130,26,0,0,1713466,0,0,0,0,0,0,0,1289835,949,1710443,0
391676383,0,157283819,25013059,90509198,114155341,28,0,0,1713522,0,0,0,0,0,0,0,1281282,949,1719185,0
391689558,0,157287978,25013426,90514509,114158481,26,0,0,1713644,0,0,0,0,0,0,0,1277081,949,1723464,0
391697922,0,157300061,25014076,90472822,114195068,26,0,0,1713557,0,0,0,0,0,0,0,1278826,949,1722537,0
391751916,0,157374501,25010853,90203370,114442091,26,0,0,1713467,0,0,0,0,0,0,0,1289837,949,1716822,0
391751916,0,157374503,25010854,90203369,114442094,26,0,0,1713466,0,0,0,0,0,0,0,1289835,949,1716820,0
391751910,0,157374974,25011333,90203434,114441134,26,0,0,1713404,0,0,0,0,0,0,0,1289800,985,1716820,0
391751916,0,157374503,25010852,90203369,114442096,26,0,0,1713466,0,0,0,0,0,0,0,1289835,949,1716820,0
391751917,0,157374581,25010857,90203374,114442014,26,0,0,1713466,0,0,0,0,0,0,0,1289825,954,1716820,0
391650307,0,157273292,25011845,90495571,114154909,26,0,0,1713404,0,0,0,0,0,0,0,1289809,981,1710470,0
391649881,0,157272469,25010854,90496715,114155124,26,0,0,1713466,0,0,0,0,0,0,0,1289835,949,1710443,0
391666792,0,157280070,25012433,90504897,114154531,28,0,0,1713480,0,0,0,0,0,0,0,1284364,949,1716040,0
391689562,0,157287976,25013431,90514512,114158484,26,0,0,1713642,0,0,0,0,0,0,0,1277081,949,1723461,0
391689557,0,157287975,25013426,90514507,114158485,26,0,0,1713644,0,0,0,0,0,0,0,1277081,949,1723464,0
391745212,0,157365679,25012121,90236870,114410141,26,0,0,1713424,0,0,0,0,0,0,0,1288500,949,1717502,0
391751917,0,157374502,25010855,90203368,114442096,26,0,0,1713466,0,0,0,0,0,0,0,1289835,949,1716820,0
391751906,0,157374976,25011333,90203432,114441130,26,0,0,1713404,0,0,0,0,0,0,0,1289800,985,1716820,0
391751919,0,157374501,25010854,90203371,114442097,26,0,0,1713466,0,0,0,0,0,0,0,1289835,949,1716820,0
391751915,0,157374502,25010855,90203368,114442094,26,0,0,1713466,0,0,0,0,0,0,0,1289835,949,1716820,0
391674959,0,157298029,25011845,90424688,114224171,26,0,0,1713404,0,0,0,0,0,0,0,1289799,986,1712011,0
391649887,0,157272467,25010854,90496720,114155127,26,0,0,1713466,0,0,0,0,0,0,0,1289835,949,1710443,0
391657207,0,157276324,25011813,90500598,114153720,28,0,0,1713437,0,0,0,0,0,0,0,1287446,949,1712892,0
391689558,0,157287975,25013427,90514509,114158484,26,0,0,1713643,0,0,0,0,0,0,0,1277081,949,1723464,0
391689559,0,157287977,25013428,90514509,114158481,26,0,0,1713644,0,0,0,0,0,0,0,1277081,949,1723464,0
391730141,0,157344769,25012743,90312052,114341612,26,0,0,1713466,0,0,0,0,0,0,0,1285418,949,1719106,0
391751918,0,157374502,25010854,90203370,114442096,26,0,0,1713466,0,0,0,0,0,0,0,1289835,949,1716820,0
391751907,0,157374980,25011335,90203430,114441127,26,0,0,1713404,0,0,0,0,0,0,0,1289800,985,1716820,0
391751917,0,157374498,25010853,90203371,114442099,26,0,0,1713466,0,0,0,0,0,0,0,1289835,949,1716820,0
391751918,0,157374501,25010854,90203371,114442096,26,0,0,1713466,0,0,0,0,0,0,0,1289835,949,1716820,0
391699615,0,157322687,25011848,90353802,114293511,26,0,0,1713404,0,0,0,0,0,0,0,1289799,986,1713552,0
391649882,0,157272466,25010852,90496716,114155129,26,0,0,1713466,0,0,0,0,0,0,0,1289835,949,1710443,0
391649885,0,157272466,25010854,90496719,114155127,26,0,0,1713466,0,0,0,0,0,0,0,1289835,949,1710443,0
391687295,0,157288085,25013762,90514093,114156264,28,0,0,1713572,0,0,0,0,0,0,0,1277774,949,1722768,0
391689561,0,157287975,25013431,90514510,114158486,26,0,0,1713642,0,0,0,0,0,0,0,1277081,949,1723461,0
391715070,0,157323865,25013364,90387232,114273075,26,0,0,1713510,0,0,0,0,0,0,0,1282336,949,1720713,0
391751917,0,157374497,25010854,90203372,114442098,26,0,0,1713466,0,0,0,0,0,0,0,1289835,949,1716820,0
391751915,0,157374505,25010855,90203367,114442092,26,0,0,1713466,0,0,0,0,0,0,0,1289835,949,1716820,0
391751911,0,157374979,25011333,90203433,114441131,26,0,0,1713404,0,0,0,0,0,0,0,1289800,985,1716820,0
391751917,0,157374498,25010854,90203371,114442098,26,0,0,1713466,0,0,0,0,0,0,0,1289835,949,1716820,0
391724270,0,157347339,25011845,90282920,114362858,26,0,0,1713404,0,0,0,0,0,0,0,1289799,986,1715093,0
391649885,0,157272471,25010857,90496715,114155123,26,0,0,1713466,0,0,0,0,0,0,0,1289835,949,1710443,0
391649882,0,157272465,25010852,90496716,114155130,26,0,0,1713466,0,0,0,0,0,0,0,1289835,949,1710443,0
391677711,0,157284335,25013143,90509797,114155455,28,0,0,1713528,0,0,0,0,0,0,0,1280856,949,1719620,0
391689557,0,157287976,25013426,90514507,114158484,26,0,0,1713644,0,0,0,0,0,0,0,1277081,949,1723464,0
391700006,0,157302957,25013990,90462420,114204541,26,0,0,1713552,0,0,0,0,0,0,0,1279254,949,1722317,0
391751914,0,157374501,25010852,90203368,114442097,26,0,0,1713466,0,0,0,0,0,0,0,1289835,949,1716820,0
391751919,0,157374498,25010854,90203372,114442099,26,0,0,1713466,0,0,0,0,0,0,0,1289835,949,1716820,0
391751909,0,157374980,25011336,90203431,114441127,26,0,0,1713404,0,0,0,0,0,0,0,1289800,985,1716820,0
391751916,0,157374503,25010852,90203369,114442096,26,0,0,1713466,0,0,0,0,0,0,0,1289835,949,1716820,0
391748929,0,157371993,25011847,90212038,114432202,26,0,0,1713404,0,0,0,0,0,0,0,1289799,986,1716634,0
391649884,0,157272469,25010855,90496714,114155127,26,0,0,1713466,0,0,0,0,0,0,0,1289835,949,1710443,0
391649881,0,157272469,25010854,90496715,114155124,26,0,0,1713466,0,0,0,0,0,0,0,1289835,949,1710443,0
391668122,0,157280584,25012517,90505497,114154648,28,0,0,1713486,0,0,0,0,0,0,0,1283938,949,1716475,0
391689560,0,157287977,25013428,90514510,114158481,26,0,0,1713644,0,0,0,0,0,0,0,1277081,949,1723464,0
391689557,0,157287980,25013432,90514505,114158481,26,0,0,1713642,0,0,0,0,0,0,0,1277081,949,1723461,0
391747295,0,157368570,25012034,90226467,114419625,26,0,0,1713418,0,0,0,0,0,0,0,1288926,949,1717280,0
391751915,0,157374501,25010852,90203368,114442098,26,0,0,1713466,0,0,0,0,0,0,0,1289835,949,1716820,0
391751908,0,157374977,25011336,90203432,114441128,26,0,0,1713404,0,0,0,0,0,0,0,1289800,985,1716820,0
362991859,131086,140312938,35603214,90632611,91453167,77,50,47,1821136,0,0,0,0,0,0,0,1353864,966,1682702,1
310796800,0,109272268,54662333,89916161,51439943,0,0,0,2017388,0,0,0,0,0,0,0,1497517,1069,1990121,0
310797312,0,109271272,54661820,89912555,51445507,0,0,0,2017451,0,0,0,0,0,0,0,1497551,1035,1990121,0
310618538,0,109261125,54840593,90569554,50452311,0,0,0,2017389,0,0,0,0,0,0,0,1497516,1070,1978980,0
310637957,0,109272160,54861154,90637308,50372685,0,0,0,2017610,0,0,0,0,0,0,0,1484009,1035,1991996,0
310692834,0,109279396,54821745,90492790,50601415,0,0,0,2017696,0,0,0,0,0,0,0,1478847,1035,1999910,0
310797312,0,109271272,54661821,89912558,51445507,0,0,0,2017451,0,0,0,0,0,0,0,1497549,1035,1990119,0
310796800,0,109272268,54662332,89916162,51439944,0,0,0,2017387,0,0,0,0,0,0,0,1497517,1069,1990121,0
310703130,0,109266407,54756007,90258301,50922174,0,0,0,2017388,0,0,0,0,0,0,0,1497516,1070,1984267,0
310612035,0,109262856,54855786,90621718,50377452,0,0,0,2017438,0,0,0,0,0,0,0,1494583,1035,1981167,0
310664172,0,109280396,54865966,90654293,50368386,0,0,0,2017843,0,0,0,0,0,0,0,1473555,1035,2002698,0
310767306,0,109274287,54707557,90077899,51203908,0,0,0,2017476,0,0,0,0,0,0,0,1492269,1035,1992875,0
310796801,0,109272268,54662332,89916162,51439943,0,0,0,2017389,0,0,0,0,0,0,0,1497517,1069,1990121,0
310787716,0,109271700,54671415,89947037,51392041,0,0,0,2017387,0,0,0,0,0,0,0,1497514,1070,1989552,0
310605346,0,109259275,54853786,90618929,50379196,0,0,0,2017451,0,0,0,0,0,0,0,1497551,1035,1978123,0
310644943,0,109274667,54862602,90641504,50371404,0,0,0,2017657,0,0,0,0,0,0,0,1481161,1035,1994913,0
310708637,0,109278308,54797512,90404741,50729280,0,0,0,2017649,0,0,0,0,0,0,0,1481695,1035,1998417,0
310797312,0,109271273,54661820,89912555,51445506,0,0,0,2017451,0,0,0,0,0,0,0,1497551,1035,1990121,0
310796801,0,109272266,54662332,89916162,51439945,0,0,0,2017389,0,0,0,0,0,0,0,1497517,1069,1990121,0
310680341,0,109264990,54778792,90342148,50795598,0,0,0,2017388,0,0,0,0,0,0,0,1497514,1070,1982841,0
310619017,0,109265361,54857234,90625922,50376163,0,0,0,2017483,0,0,0,0,0,0,0,1491735,1035,1984084,0
310664174,0,109280395,54865967,90654295,50368386,0,0,0,2017843,0,0,0,0,0,0,0,1473555,1035,2002698,0
310783110,0,109273208,54683323,89989845,51331770,0,0,0,2017430,0,0,0,0,0,0,0,1495117,1035,1991382,0
310796800,0,109272267,54662332,89916161,51439944,0,0,0,2017389,0,0,0,0,0,0,0,1497517,1069,1990121,0
310764929,0,109270275,54694200,90030879,51265471,0,0,0,2017389,0,0,0,0,0,0,0,1497516,1070,1988129,0
310605347,0,109259275,54853788,90618934,50379192,0,0,0,2017451,0,0,0,0,0,0,0,1497550,1035,1978122,0
310651924,0,109277174,54864048,90645709,50370115,0,0,0,2017701,0,0,0,0,0,0,0,1478312,1035,1997830,0
310724441,0,109277230,54773277,90316689,50857140,0,0,0,2017603,0,0,0,0,0,0,0,1484543,1035,1996924,0
310796801,0,109272266,54662332,89916162,51439945,0,0,0,2017389,0,0,0,0,0,0,0,1497517,1069,1990121,0
310797312,0,109271273,54661820,89912555,51445506,0,0,0,2017451,0,0,0,0,0,0,0,1497551,1035,1990121,0
310657554,0,109263557,54801582,90426000,50669023,0,0,0,2017388,0,0,0,0,0,0,0,1497516,1070,1981418,0
310626002,0,109267876,54858678,90630115,50374883,0,0,0,2017530,0,0,0,0,0,0,0,1488885,1035,1987000,0
310665775,0,109281244,54863237,90643543,50382507,0,0,0,2017774,0,0,0,0,0,0,0,1473969,1035,2002466,0
310797311,0,109271271,54661820,89912555,51445507,0,0,0,2017451,0,0,0,0,0,0,0,1497551,1035,1990121,0
310796801,0,109272268,54662331,89916162,51439944,0,0,0,2017389,0,0,0,0,0,0,0,1497517,1069,1990121,0
310742142,0,109268849,54716990,90114734,51138889,0,0,0,2017389,0,0,0,0,0,0,0,1497516,1070,1986705,0
310605346,0,109259275,54853786,90618929,50379196,0,0,0,2017451,0,0,0,0,0,0,0,1497551,1035,1978123,0
310658907,0,109279686,54865493,90649900,50368835,0,0,0,2017749,0,0,0,0,0,0,0,1475463,1035,2000746,0
310740248,0,109276140,54749047,90228649,50985000,0,0,0,2017555,0,0,0,0,0,0,0,1487391,1035,1995431,0
310796801,0,109272267,54662332,89916161,51439945,0,0,0,2017389,0,0,0,0,0,0,0,1497517,1069,1990121,0
310797311,0,109271271,54661820,89912556,51445506,0,0,0,2017451,0,0,0,0,0,0,0,1497551,1035,1990121,0
310634767,0,109262141,54824367,90509846,50542444,0,0,0,2017389,0,0,0,0,0,0,0,1497516,1070,1979994,0
310632983,0,109270379,54860125,90634317,50373597,0,0,0,2017576,0,0,0,0,0,0,0,1486037,1035,1989917,0
310681580,0,109280163,54839003,90555491,50510369,0,0,0,2017729,0,0,0,0,0,0,0,1476817,1035,2000973,0
310797313,0,109271272,54661821,89912556,51445507,0,0,0,2017450,0,0,0,0,0,0,0,1497551,1035,1990121,0
310796800,0,109272267,54662332,89916161,51439944,0,0,0,2017389,0,0,0,0,0,0,0,1497517,1069,1990121,0
310719353,0,109267427,54739775,90198582,51012313,0,0,0,2017389,0,0,0,0,0,0,0,1497516,1070,1985281,0
310607063,0,109261071,54854758,90618738,50378359,0,0,0,2017403,0,0,0,0,0,0,0,1496611,1035,1979088,0
310664175,0,109280394,54865967,90654295,50368387,0,0,0,2017844,0,0,0,0,0,0,0,1473555,1035,2002698,0
310756050,0,109275061,54724812,90140596,51112860,0,0,0,2017509,0,0,0,0,0,0,0,1490239,1035,1993938,0
310796801,0,109272267,54662333,89916162,51439944,0,0,0,2017388,0,0,0,0,0,0,0,1497517,1069,1990121,0
310797311,0,109271272,54661820,89912555,51445506,0,0,0,2017451,0,0,0,0,0,0,0,1497551,1035,1990121,0
310611980,0,109260710,54847157,90593704,50415865,0,0,0,2017388,0,0,0,0,0,0,0,1497516,1070,1978570,0
310639966,0,109272889,54861569,90638511,50372316,0,0,0,2017623,0,0,0,0,0,0,0,1483189,1035,1992834,0
310697385,0,109279077,54814769,90467440,50638232,0,0,0,2017683,0,0,0,0,0,0,0,1479667,1035,1999482,0
310797312,0,109271271,54661821,89912556,51445506,0,0,0,2017451,0,0,0,0,0,0,0,1497551,1035,1990121,0
310796801,0,109272270,54662332,89916164,51439945,0,0,0,2017387,0,0,0,0,0,0,0,1497515,1069,1990119,0
310696567,0,109266001,54762565,90282438,50885731,0,0,0,2017389,0,0,0,0,0,0,0,1497516,1070,1983857,0
310614045,0,109263577,54856204,90622933,50377078,0,0,0,2017450,0,0,0,0,0,0,0,1493763,1035,1982005,0
310664174,0,109280394,54865966,90654286,50368392,0,0,0,2017845,0,0,0,0,0,0,0,1473555,1035,2002701,0
310771856,0,109273975,54700580,90052552,51240719,0,0,0,2017462,0,0,0,0,0,0,0,1493089,1035,1992444,0
310796802,0,109272268,54662332,89916161,51439945,0,0,0,2017389,0,0,0,0,0,0,0,1497517,1069,1990121,0
310781156,0,109271292,54677975,89971178,51355597,0,0,0,2017388,0,0,0,0,0,0,0,1497514,1070,1989142,0
310605347,0,109259274,54853788,90618931,50379195,0,0,0,2017450,0,0,0,0,0,0,0,1497551,1035,1978123,0
310646948,0,109275389,54863015,90642707,50371036,0,0,0,2017671,0,0,0,0,0,0,0,1480341,1035,1995754,0
310713190,0,109277999,54790538,90379394,50766088,0,0,0,2017635,0,0,0,0,0,0,0,1482515,1035,1997986,0
310796799,0,109272268,54662330,89916161,51439944,0,0,0,2017389,0,0,0,0,0,0,0,1497517,1069,1990121,0
310797313,0,109271271,54661821,89912556,51445507,0,0,0,2017451,0,0,0,0,0,0,0,1497551,1035,1990121,0
310673779,0,109264580,54785351,90366286,50759158,0,0,0,2017389,0,0,0,0,0,0,0,1497514,1070,1982431,0
310621031,0,109266079,54857652,90627134,50375795,0,0,0,2017496,0,0,0,0,0,0,0,1490915,1035,1984925,0
310664171,0,109280398,54865965,90654291,50368386,0,0,0,2017843,0,0,0,0,0,0,0,1473555,1035,2002698,0
310787660,0,109272896,54676346,89964500,51368579,0,0,0,2017416,0,0,0,0,0,0,0,1495937,1035,1990951,0
310796801,0,109272266,54662332,89916162,51439945,0,0,0,2017389,0,0,0,0,0,0,0,1497517,1069,1990121,0
310758370,0,109269864,54700763,90055020,51229029,0,0,0,2017389,0,0,0,0,0,0,0,1497516,1070,1987719,0
310605346,0,109259270,54853789,90618937,50379191,0,0,0,2017450,0,0,0,0,0,0,0,1497551,1035,1978123,0
310653934,0,109277899,54864462,90646913,50369748,0,0,0,2017716,0,0,0,0,0,0,0,1477491,1035,1998670,0
310728993,0,109276918,54766302,90291343,50893951,0,0,0,2017588,0,0,0,0,0,0,0,1485363,1035,1996493,0
310796800,0,109272265,54662332,89916162,51439945,0,0,0,2017389,0,0,0,0,0,0,0,1497517,1069,1990121,0
310797312,0,109271273,54661820,89912555,51445506,0,0,0,2017451,0,0,0,0,0,0,0,1497551,1035,1990121,0
310650993,0,109263153,54808140,90450137,50632580,0,0,0,2017389,0,0,0,0,0,0,0,1497516,1070,1981008,0
310628011,0,109268595,54859094,90631322,50374515,0,0,0,2017544,0,0,0,0,0,0,0,1488065,1035,1987841,0
310670328,0,109280931,54856262,90618197,50419319,0,0,0,2017760,0,0,0,0,0,0,0,1474789,1035,2002035,0
310797311,0,109271271,54661820,89912556,51445506,0,0,0,2017451,0,0,0,0,0,0,0,1497551,1035,1990121,0
310796802,0,109272268,54662332,89916161,51439945,0,0,0,2017389,0,0,0,0,0,0,0,1497517,1069,1990121,0
310735581,0,109268442,54723550,90138874,51102445,0,0,0,2017389,0,0,0,0,0,0,0,1497516,1070,1986295,0
310605347,0,109259273,54853787,90618931,50379196,0,0,0,2017451,0,0,0,0,0,0,0,1497551,1035,1978123,0
310660914,0,109280410,54865906,90651103,50368467,0,0,0,2017763,0,0,0,0,0,0,0,1474643,1035,2001587,0
310744798,0,109275829,54742072,90203302,51021808,0,0,0,2017541,0,0,0,0,0,0,0,1488211,1035,1995000,0
310796800,0,109272268,54662331,89916161,51439944,0,0,0,2017389,0,0,0,0,0,0,0,1497517,1069,1990121,0
310797313,0,109271271,54661821,89912556,51445507,0,0,0,2017451,0,0,0,0,0,0,0,1497551,1035,1990121,0
310628204,0,109261730,54830926,90533985,50506004,0,0,0,2017389,0,0,0,0,0,0,0,1497516,1070,1979584,0
310634996,0,109271097,54860542,90635528,50373229,0,0,0,2017590,0,0,0,0,0,0,0,1485217,1035,1990758,0
310686129,0,109279852,54832025,90530143,50547180,0,0,0,2017715,0,0,0,0,0,0,0,1477637,1035,2000542,0
310797312,0,109271274,54661821,89912555,51445505,0,0,0,2017450,0,0,0,0,0,0,0,1497551,1035,1990121,0
310796800,0,109272265,54662332,89916162,51439945,0,0,0,2017389,0,0,0,0,0,0,0,1497517,1069,1990121,0
310712796,0,109267017,54746338,90222724,50975871,0,0,0,2017389,0,0,0,0,0,0,0,1497516,1070,1984871,0
310609073,0,109261791,54855175,90619944,50377991,0,0,0,2017417,0,0,0,0,0,0,0,1495791,1035,1979929,0
310664172,0,109280395,54865966,90654294,50368386,0,0,0,2017843,0,0,0,0,0,0,0,1473555,1035,2002698,0
310760602,0,109274746,54717836,90115249,51149670,0,0,0,2017496,0,0,0,0,0,0,0,1491061,1035,1993509,0
310796801,0,109272268,54662333,89916164,51439946,0,0,0,2017387,0,0,0,0,0,0,0,1497515,1069,1990119,0
310797312,0,109271273,54661820,89912555,51445506,0,0,0,2017451,0,0,0,0,0,0,0,1497551,1035,1990121,0
310605418,0,109260305,54853715,90617841,50379422,0,0,0,2017389,0,0,0,0,0,0,0,1497516,1070,1978160,0
310641978,0,109273607,54861987,90639720,50371948,0,0,0,2017637,0,0,0,0,0,0,0,1482369,1035,1993675,0
310701936,0,109278765,54807793,90442092,50675044,0,0,0,2017669,0,0,0,0,0,0,0,1480487,1035,1999051,0
310797311,0,109271271,54661820,89912556,51445506,0,0,0,2017451,0,0,0,0,0,0,0,1497551,1035,1990121,0
310796802,0,109272269,54662332,89916165,51439945,0,0,0,2017388,0,0,0,0,0,0,0,1497515,1069,1990119,0
310690005,0,109265595,54769126,90306576,50849287,0,0,0,2017388,0,0,0,0,0,0,0,1497516,1070,1983447,0
310616054,0,109264298,54856619,90624139,50376710,0,0,0,2017464,0,0,0,0,0,0,0,1492943,1035,1982846,0
310664176,0,109280395,54865968,90654296,50368386,0,0,0,2017843,0,0,0,0,0,0,0,1473555,1035,2002698,0
310776405,0,109273665,54693602,90027195,51277533,0,0,0,2017450,0,0,0,0,0,0,0,1493909,1035,1992016,0
310796800,0,109272268,54662331,89916161,51439944,0,0,0,2017389,0,0,0,0,0,0,0,1497517,1069,1990121,0
310774596,0,109270881,54684535,89995316,51319160,0,0,0,2017388,0,0,0,0,0,0,0,1497514,1070,1988732,0
310605346,0,109259274,54853788,90618932,50379193,0,0,0,2017450,0,0,0,0,0,0,0,1497551,1035,1978123,0
310648961,0,109276110,54863434,90643924,50370662,0,0,0,2017683,0,0,0,0,0,0,0,1479521,1035,1996592,0
310717738,0,109277685,54783558,90354040,50802904,0,0,0,2017623,0,0,0,0,0,0,0,1483335,1035,1997558,0
310796802,0,109272267,54662332,89916162,51439945,0,0,0,2017389,0,0,0,0,0,0,0,1497517,1069,1990121,0
310797311,0,109271272,54661820,89912555,51445506,0,0,0,2017451,0,0,0,0,0,0,0,1497551,1035,1990121,0
310667221,0,109264168,54791913,90390425,50722718,0,0,0,2017389,0,0,0,0,0,0,0,1497516,1070,1982022,0
310623037,0,109266806,54858067,90628347,50375419,0,0,0,2017508,0,0,0,0,0,0,0,1490093,1035,1985762,0
310664175,0,109280395,54865967,90654295,50368386,0,0,0,2017844,0,0,0,0,0,0,0,1473555,1035,2002698,0
310792211,0,109272585,54669369,89939143,51405396,0,0,0,2017403,0,0,0,0,0,0,0,1496757,1035,1990523,0
310796800,0,109272263,54662332,89916165,51439945,0,0,0,2017388,0,0,0,0,0,0,0,1497517,1069,1990121,0
310751809,0,109269454,54707324,90079166,51192581,0,0,0,2017389,0,0,0,0,0,0,0,1497516,1070,1987309,0
310605345,0,109259274,54853786,90618929,50379196,0,0,0,2017451,0,0,0,0,0,0,0,1497551,1035,1978123,0
310655944,0,109278624,54864880,90648124,50369374,0,0,0,2017728,0,0,0,0,0,0,0,1476671,1035,1999508,0
310733546,0,109276600,54759326,90265992,50930769,0,0,0,2017576,0,0,0,0,0,0,0,1486183,1035,1996065,0
310796799,0,109272268,54662332,89916161,51439942,0,0,0,2017389,0,0,0,0,0,0,0,1497517,1069,1990121,0
310797313,0,109271271,54661820,89912556,51445508,0,0,0,2017451,0,0,0,0,0,0,0,1497551,1035,1990121,0
310644431,0,109262745,54814700,90474276,50596137,0,0,0,2017389,0,0,0,0,0,0,0,1497516,1070,1980598,0
310630021,0,109269317,54859511,90632537,50374141,0,0,0,2017556,0,0,0,0,0,0,0,1487245,1035,1988679,0
310674876,0,109280621,54849283,90592841,50456132,0,0,0,2017748,0,0,0,0,0,0,0,1475609,1035,2001607,0
310797313,0,109271271,54661821,89912556,51445507,0,0,0,2017451,0,0,0,0,0,0,0,1497551,1035,1990121,0
310796800,0,109272268,54662331,89916161,51439944,0,0,0,2017389,0,0,0,0,0,0,0,1497517,1069,1990121,0
310729021,0,109268031,54730110,90163014,51066006,0,0,0,2017389,0,0,0,0,0,0,0,1497516,1070,1985885,0
310605346,0,109259273,54853787,90618930,50379196,0,0,0,2017451,0,0,0,0,0,0,0,1497551,1035,1978123,0
310662928,0,109281127,54866325,90652314,50368099,0,0,0,2017777,0,0,0,0,0,0,0,1473823,1035,2002428,0
310749346,0,109275519,54735093,90177954,51058618,0,0,0,2017527,0,0,0,0,0,0,0,1489031,1035,1994569,0
310796802,0,109272267,54662332,89916162,51439945,0,0,0,2017389,0,0,0,0,0,0,0,1497517,1069,1990121,0
310797311,0,109271272,54661820,89912555,51445506,0,0,0,2017451,0,0,0,0,0,0,0,1497551,1035,1990121,0
310621646,0,109261320,54837488,90558127,50469562,0,0,0,2017389,0,0,0,0,0,0,0,1497516,1070,1979174,0
310637004,0,109271821,54860957,90636732,50372859,0,0,0,2017604,0,0,0,0,0,0,0,1484397,1035,1991599,0
310690681,0,109279540,54825050,90504795,50583990,0,0,0,2017702,0,0,0,0,0,0,0,1478458,1035,2000111,0
310797313,0,109271273,54661821,89912556,51445508,0,0,0,2017449,0,0,0,0,0,0,0,1497550,1035,1990121,0
310796799,0,109272262,54662332,89916165,51439945,0,0,0,2017388,0,0,0,0,0,0,0,1497517,1069,1990121,0
310706234,0,109266606,54752899,90246870,50939423,0,0,0,2017389,0,0,0,0,0,0,0,1497516,1070,1984461,0
310611083,0,109262514,54855589,90621146,50377626,0,0,0,2017432,0,0,0,0,0,0,0,1494971,1035,1980770,0
310664172,0,109280398,54865966,90654289,50368388,0,0,0,2017843,0,0,0,0,0,0,0,1473555,1035,2002698,0
310765155,0,109274433,54710861,90089903,51186482,0,0,0,2017482,0,0,0,0,0,0,0,1491881,1035,1993078,0
310796800,0,109272269,54662332,89916165,51439943,0,0,0,2017388,0,0,0,0,0,0,0,1497515,1069,1990119,0
310790822,0,109271894,54668310,89935605,51409291,0,0,0,2017388,0,0,0,0,0,0,0,1497516,1070,1989748,0
310605347,0,109259275,54853786,90618930,50379196,0,0,0,2017451,0,0,0,0,0,0,0,1497551,1035,1978123,0
310643986,0,109274325,54862402,90640928,50371580,0,0,0,2017651,0,0,0,0,0,0,0,1481549,1035,1994516,0
310706486,0,109278459,54800816,90416743,50711851,0,0,0,2017655,0,0,0,0,0,0,0,1481307,1035,1998620,0
310797312,0,109271271,54661821,89912556,51445506,0,0,0,2017451,0,0,0,0,0,0,0,1497551,1035,1990121,0
310796801,0,109272269,54662331,89916164,51439945,0,0,0,2017389,0,0,0,0,0,0,0,1497515,1069,1990119,0
310683445,0,109265183,54775686,90330718,50812848,0,0,0,2017387,0,0,0,0,0,0,0,1497516,1070,1983037,0
310618068,0,109265017,54857037,90625349,50376342,0,0,0,2017478,0,0,0,0,0,0,0,1492123,1035,1983687,0
310664171,0,109280396,54865966,90654292,50368386,0,0,0,2017843,0,0,0,0,0,0,0,1473555,1035,2002698,0
310780957,0,109273353,54686626,90001850,51314343,0,0,0,2017436,0,0,0,0,0,0,0,1494729,1035,1991585,0
310796802,0,109272267,54662332,89916162,51439945,0,0,0,2017389,0,0,0,0,0,0,0,1497517,1069,1990121,0
310768036,0,109270470,54691097,90019453,51282718,0,0,0,2017389,0,0,0,0,0,0,0,1497516,1070,1988323,0
310605345,0,109259276,54853787,90618935,50379192,0,0,0,2017449,0,0,0,0,0,0,0,1497549,1035,1978122,0
310650972,0,109276831,54863850,90645131,50370294,0,0,0,2017697,0,0,0,0,0,0,0,1478701,1035,1997433,0
310722289,0,109277378,54776582,90328691,50839712,0,0,0,2017609,0,0,0,0,0,0,0,1484155,1035,1997127,0
310796800,0,109272267,54662331,89916161,51439945,0,0,0,2017389,0,0,0,0,0,0,0,1497517,1069,1990121,0
310797311,0,109271265,54661821,89912559,51445509,0,0,0,2017450,0,0,0,0,0,0,0,1497551,1035,1990121,0
310660660,0,109263758,54798474,90414569,50686272,0,0,0,2017389,0,0,0,0,0,0,0,1497516,1070,1981612,0
310625049,0,109267530,54858483,90629548,50375054,0,0,0,2017523,0,0,0,0,0,0,0,1489273,1035,1986603,0
310664038,0,109281212,54865966,90653543,50368214,0,0,0,2017843,0,0,0,0,0,0,0,1473556,1035,2002669,0
310796898,0,109271454,54662393,89914551,51442379,0,0,0,2017389,0,0,0,0,0,0,0,1497576,1035,1990121,0
310796800,0,109272268,54662332,89916161,51439943,0,0,0,2017389,0,0,0,0,0,0,0,1497517,1069,1990121,0
310745246,0,109269044,54713883,90103305,51156140,0,0,0,2017389,0,0,0,0,0,0,0,1497516,1070,1986899,0
310605347,0,109259274,54853787,90618930,50379196,0,0,0,2017451,0,0,0,0,0,0,0,1497551,1035,1978123,0
310657953,0,109279347,54865293,90649324,50369011,0,0,0,2017743,0,0,0,0,0,0,0,1475851,1035,2000349,0
310738095,0,109276289,54752351,90240651,50967571,0,0,0,2017561,0,0,0,0,0,0,0,1487003,1035,1995634,0
310796799,0,109272266,54662331,89916162,51439944,0,0,0,2017389,0,0,0,0,0,0,0,1497517,1069,1990121,0
310797313,0,109271273,54661821,89912555,51445506,0,0,0,2017451,0,0,0,0,0,0,0,1497551,1035,1990121,0
310637871,0,109262333,54821260,90498417,50559698,0,0,0,2017389,0,0,0,0,0,0,0,1497516,1070,1980188,0
310632034,0,109270036,54859929,90633746,50373773,0,0,0,2017570,0,0,0,0,0,0,0,1486425,1035,1989520,0
310679426,0,109280309,54842306,90567494,50492943,0,0,0,2017734,0,0,0,0,0,0,0,1476429,1035,2001176,0
310797311,0,109271272,54661820,89912555,51445506,0,0,0,2017451,0,0,0,0,0,0,0,1497551,1035,1990121,0
310796801,0,109272267,54662332,89916161,51439945,0,0,0,2017389,0,0,0,0,0,0,0,1497517,1069,1990121,0
310722462,0,109267622,54736672,90187155,51029563,0,0,0,2017389,0,0,0,0,0,0,0,1497516,1070,1985475,0
310606109,0,109260728,54854561,90618163,50378535,0,0,0,2017397,0,0,0,0,0,0,0,1496999,1035,1978691,0
310664173,0,109280395,54865966,90654295,50368386,0,0,0,2017843,0,0,0,0,0,0,0,1473555,1035,2002698,0
310753899,0,109275210,54728117,90152598,51095432,0,0,0,2017515,0,0,0,0,0,0,0,1489851,1035,1994141,0
310796799,0,109272267,54662331,89916161,51439944,0,0,0,2017389,0,0,0,0,0,0,0,1497517,1069,1990121,0
310797312,0,109271265,54661821,89912559,51445510,0,0,0,2017450,0,0,0,0,0,0,0,1497551,1035,1990121,0
310615085,0,109260910,54844049,90582273,50433114,0,0,0,2017389,0,0,0,0,0,0,0,1497516,1070,1978764,0
310639016,0,109272547,54861373,90637938,50372492,0,0,0,2017617,0,0,0,0,0,0,0,1483577,1035,1992437,0
310695231,0,109279224,54818073,90479441,50620805,0,0,0,2017689,0,0,0,0,0,0,0,1479279,1035,1999685,0
310797312,0,109271272,54661820,89912559,51445508,0,0,0,2017450,0,0,0,0,0,0,0,1497549,1035,1990119,0
310796800,0,109272269,54662333,89916161,51439942,0,0,0,2017388,0,0,0,0,0,0,0,1497517,1069,1990121,0
310699672,0,109266196,54759458,90271009,50902983,0,0,0,2017389,0,0,0,0,0,0,0,1497516,1070,1984051,0
310613093,0,109263238,54856006,90622357,50377254,0,0,0,2017444,0,0,0,0,0,0,0,1494151,1035,1981608,0
296017067,0,104098397,52159106,85973374,48545562,0,0,0,1922054,0,0,0,0,0,0,0,1406962,966,1910646,0
