-------------------------

Test1: 10 frames

-------------------------

OMP_NUM_THREADS= 1

Num of threads: 1
Detecting cells in frame 0
Cells detected: 36

Detection runtime
-----------------
GICOV computation: 0.55118 seconds
   GICOV dilation: 0.19223 seconds
            Total: 0.75640 seconds

Tracking cells across 10 frames
Processing frame 1 / 10Processing frame 2 / 10Processing frame 3 / 10Processing frame 4 / 10Processing frame 5 / 10Processing frame 6 / 10Processing frame 7 / 10Processing frame 8 / 10Processing frame 9 / 10Processing frame 10 / 10

Tracking runtime (average per frame):
------------------------------------
MGVF computation: 3.37482 seconds
 Snake evolution: 0.00486 seconds
           Total: 3.38224 seconds

Total application run time: 34.57878 seconds
.......................

OMP_NUM_THREADS= 2

Num of threads: 2
Detecting cells in frame 0
Cells detected: 36

Detection runtime
-----------------
GICOV computation: 0.30208 seconds
   GICOV dilation: 0.09654 seconds
            Total: 0.41364 seconds

Tracking cells across 10 frames
Processing frame 1 / 10Processing frame 2 / 10Processing frame 3 / 10Processing frame 4 / 10Processing frame 5 / 10Processing frame 6 / 10Processing frame 7 / 10Processing frame 8 / 10Processing frame 9 / 10Processing frame 10 / 10

Tracking runtime (average per frame):
------------------------------------
MGVF computation: 3.39622 seconds
 Snake evolution: 0.00513 seconds
           Total: 1.84828 seconds

Total application run time: 18.89648 seconds
.......................

OMP_NUM_THREADS= 4

Num of threads: 4
Detecting cells in frame 0
Cells detected: 36

Detection runtime
-----------------
GICOV computation: 0.16063 seconds
   GICOV dilation: 0.05022 seconds
            Total: 0.22479 seconds

Tracking cells across 10 frames
Processing frame 1 / 10Processing frame 2 / 10Processing frame 3 / 10Processing frame 4 / 10Processing frame 5 / 10Processing frame 6 / 10Processing frame 7 / 10Processing frame 8 / 10Processing frame 9 / 10Processing frame 10 / 10

Tracking runtime (average per frame):
------------------------------------
MGVF computation: 3.37396 seconds
 Snake evolution: 0.00510 seconds
           Total: 0.93905 seconds

Total application run time: 9.61534 seconds
.......................

OMP_NUM_THREADS= 8

Num of threads: 8
Detecting cells in frame 0
Cells detected: 36

Detection runtime
-----------------
GICOV computation: 0.07417 seconds
   GICOV dilation: 0.02557 seconds
            Total: 0.11391 seconds

Tracking cells across 10 frames
Processing frame 1 / 10Processing frame 2 / 10Processing frame 3 / 10Processing frame 4 / 10Processing frame 5 / 10Processing frame 6 / 10Processing frame 7 / 10Processing frame 8 / 10Processing frame 9 / 10Processing frame 10 / 10

Tracking runtime (average per frame):
------------------------------------
MGVF computation: 3.37655 seconds
 Snake evolution: 0.00502 seconds
           Total: 0.54784 seconds

Total application run time: 5.59228 seconds
.......................

OMP_NUM_THREADS= 14

Num of threads: 14
Detecting cells in frame 0
Cells detected: 36

Detection runtime
-----------------
GICOV computation: 0.05490 seconds
   GICOV dilation: 0.01479 seconds
            Total: 0.08473 seconds

Tracking cells across 10 frames
Processing frame 1 / 10Processing frame 2 / 10Processing frame 3 / 10Processing frame 4 / 10Processing frame 5 / 10Processing frame 6 / 10Processing frame 7 / 10Processing frame 8 / 10Processing frame 9 / 10Processing frame 10 / 10

Tracking runtime (average per frame):
------------------------------------
MGVF computation: 3.38162 seconds
 Snake evolution: 0.00505 seconds
           Total: 0.33648 seconds

Total application run time: 3.44954 seconds
.......................

OMP_NUM_THREADS= 28

Num of threads: 28
Detecting cells in frame 0
Cells detected: 36

Detection runtime
-----------------
GICOV computation: 0.03560 seconds
   GICOV dilation: 0.01156 seconds
            Total: 0.06116 seconds

Tracking cells across 10 frames
Processing frame 1 / 10Processing frame 2 / 10Processing frame 3 / 10Processing frame 4 / 10Processing frame 5 / 10Processing frame 6 / 10Processing frame 7 / 10Processing frame 8 / 10Processing frame 9 / 10Processing frame 10 / 10

Tracking runtime (average per frame):
------------------------------------
MGVF computation: 3.52819 seconds
 Snake evolution: 0.00511 seconds
           Total: 0.24087 seconds

Total application run time: 2.46988 seconds
.......................

OMP_NUM_THREADS= 42

Num of threads: 42
Detecting cells in frame 0
Cells detected: 36

Detection runtime
-----------------
GICOV computation: 0.02485 seconds
   GICOV dilation: 0.00923 seconds
            Total: 0.04842 seconds

Tracking cells across 10 frames
Processing frame 1 / 10Processing frame 2 / 10Processing frame 3 / 10Processing frame 4 / 10Processing frame 5 / 10Processing frame 6 / 10Processing frame 7 / 10Processing frame 8 / 10Processing frame 9 / 10Processing frame 10 / 10

Tracking runtime (average per frame):
------------------------------------
MGVF computation: 4.19725 seconds
 Snake evolution: 0.00540 seconds
           Total: 0.16858 seconds

Total application run time: 1.73422 seconds
.......................

OMP_NUM_THREADS= 56

Num of threads: 56
Detecting cells in frame 0
Cells detected: 36

Detection runtime
-----------------
GICOV computation: 0.04004 seconds
   GICOV dilation: 0.01458 seconds
            Total: 0.06937 seconds

Tracking cells across 10 frames
Processing frame 1 / 10Processing frame 2 / 10Processing frame 3 / 10Processing frame 4 / 10Processing frame 5 / 10Processing frame 6 / 10Processing frame 7 / 10Processing frame 8 / 10Processing frame 9 / 10Processing frame 10 / 10

Tracking runtime (average per frame):
------------------------------------
MGVF computation: 4.34371 seconds
 Snake evolution: 0.00544 seconds
           Total: 0.17616 seconds

Total application run time: 1.83098 seconds
-------------------------

Test1: 10 frames

-------------------------

OMP_NUM_THREADS= 1

Num of threads: 1
Detecting cells in frame 0
Cells detected: 36

Detection runtime
-----------------
GICOV computation: 0.53379 seconds
   GICOV dilation: 0.19103 seconds
            Total: 0.73781 seconds

Tracking cells across 50 frames
Processing frame 1 / 50Processing frame 2 / 50Processing frame 3 / 50Processing frame 4 / 50Processing frame 5 / 50Processing frame 6 / 50Processing frame 7 / 50Processing frame 8 / 50Processing frame 9 / 50Processing frame 10 / 50Processing frame 11 / 50Processing frame 12 / 50Processing frame 13 / 50Processing frame 14 / 50Processing frame 15 / 50Processing frame 16 / 50Processing frame 17 / 50Processing frame 18 / 50Processing frame 19 / 50Processing frame 20 / 50Processing frame 21 / 50Processing frame 22 / 50Processing frame 23 / 50Processing frame 24 / 50Processing frame 25 / 50Processing frame 26 / 50Processing frame 27 / 50Processing frame 28 / 50Processing frame 29 / 50Processing frame 30 / 50Processing frame 31 / 50Processing frame 32 / 50Processing frame 33 / 50Processing frame 34 / 50Processing frame 35 / 50Processing frame 36 / 50Processing frame 37 / 50Processing frame 38 / 50Processing frame 39 / 50Processing frame 40 / 50Processing frame 41 / 50Processing frame 42 / 50Processing frame 43 / 50Processing frame 44 / 50Processing frame 45 / 50Processing frame 46 / 50Processing frame 47 / 50Processing frame 48 / 50Processing frame 49 / 50Processing frame 50 / 50

Tracking runtime (average per frame):
------------------------------------
MGVF computation: 3.38343 seconds
 Snake evolution: 0.00469 seconds
           Total: 3.39076 seconds

Total application run time: 170.27559 seconds
.......................

OMP_NUM_THREADS= 2

Num of threads: 2
Detecting cells in frame 0
Cells detected: 36

Detection runtime
-----------------
GICOV computation: 0.27563 seconds
   GICOV dilation: 0.09721 seconds
            Total: 0.38824 seconds

Tracking cells across 50 frames
Processing frame 1 / 50Processing frame 2 / 50Processing frame 3 / 50Processing frame 4 / 50Processing frame 5 / 50Processing frame 6 / 50Processing frame 7 / 50Processing frame 8 / 50Processing frame 9 / 50Processing frame 10 / 50Processing frame 11 / 50Processing frame 12 / 50Processing frame 13 / 50Processing frame 14 / 50Processing frame 15 / 50Processing frame 16 / 50Processing frame 17 / 50Processing frame 18 / 50Processing frame 19 / 50Processing frame 20 / 50Processing frame 21 / 50Processing frame 22 / 50Processing frame 23 / 50Processing frame 24 / 50Processing frame 25 / 50Processing frame 26 / 50Processing frame 27 / 50Processing frame 28 / 50Processing frame 29 / 50Processing frame 30 / 50Processing frame 31 / 50Processing frame 32 / 50Processing frame 33 / 50Processing frame 34 / 50Processing frame 35 / 50Processing frame 36 / 50Processing frame 37 / 50Processing frame 38 / 50Processing frame 39 / 50Processing frame 40 / 50Processing frame 41 / 50Processing frame 42 / 50Processing frame 43 / 50Processing frame 44 / 50Processing frame 45 / 50Processing frame 46 / 50Processing frame 47 / 50Processing frame 48 / 50Processing frame 49 / 50Processing frame 50 / 50

Tracking runtime (average per frame):
------------------------------------
MGVF computation: 3.40617 seconds
 Snake evolution: 0.00494 seconds
           Total: 1.83074 seconds

Total application run time: 91.92544 seconds
.......................

OMP_NUM_THREADS= 4

Num of threads: 4
Detecting cells in frame 0
Cells detected: 36

Detection runtime
-----------------
GICOV computation: 0.13596 seconds
   GICOV dilation: 0.05011 seconds
            Total: 0.20155 seconds

Tracking cells across 50 frames
Processing frame 1 / 50Processing frame 2 / 50Processing frame 3 / 50Processing frame 4 / 50Processing frame 5 / 50Processing frame 6 / 50Processing frame 7 / 50Processing frame 8 / 50Processing frame 9 / 50Processing frame 10 / 50Processing frame 11 / 50Processing frame 12 / 50Processing frame 13 / 50Processing frame 14 / 50Processing frame 15 / 50Processing frame 16 / 50Processing frame 17 / 50Processing frame 18 / 50Processing frame 19 / 50Processing frame 20 / 50Processing frame 21 / 50Processing frame 22 / 50Processing frame 23 / 50Processing frame 24 / 50Processing frame 25 / 50Processing frame 26 / 50Processing frame 27 / 50Processing frame 28 / 50Processing frame 29 / 50Processing frame 30 / 50Processing frame 31 / 50Processing frame 32 / 50Processing frame 33 / 50Processing frame 34 / 50Processing frame 35 / 50Processing frame 36 / 50Processing frame 37 / 50Processing frame 38 / 50Processing frame 39 / 50Processing frame 40 / 50Processing frame 41 / 50Processing frame 42 / 50Processing frame 43 / 50Processing frame 44 / 50Processing frame 45 / 50Processing frame 46 / 50Processing frame 47 / 50Processing frame 48 / 50Processing frame 49 / 50Processing frame 50 / 50

Tracking runtime (average per frame):
------------------------------------
MGVF computation: 3.38080 seconds
 Snake evolution: 0.00487 seconds
           Total: 0.94177 seconds

Total application run time: 47.29014 seconds
.......................

OMP_NUM_THREADS= 8

Num of threads: 8
Detecting cells in frame 0
Cells detected: 36

Detection runtime
-----------------
GICOV computation: 0.09544 seconds
   GICOV dilation: 0.02566 seconds
            Total: 0.13542 seconds

Tracking cells across 50 frames
Processing frame 1 / 50Processing frame 2 / 50Processing frame 3 / 50Processing frame 4 / 50Processing frame 5 / 50Processing frame 6 / 50Processing frame 7 / 50Processing frame 8 / 50Processing frame 9 / 50Processing frame 10 / 50Processing frame 11 / 50Processing frame 12 / 50Processing frame 13 / 50Processing frame 14 / 50Processing frame 15 / 50Processing frame 16 / 50Processing frame 17 / 50Processing frame 18 / 50Processing frame 19 / 50Processing frame 20 / 50Processing frame 21 / 50Processing frame 22 / 50Processing frame 23 / 50Processing frame 24 / 50Processing frame 25 / 50Processing frame 26 / 50Processing frame 27 / 50Processing frame 28 / 50Processing frame 29 / 50Processing frame 30 / 50Processing frame 31 / 50Processing frame 32 / 50Processing frame 33 / 50Processing frame 34 / 50Processing frame 35 / 50Processing frame 36 / 50Processing frame 37 / 50Processing frame 38 / 50Processing frame 39 / 50Processing frame 40 / 50Processing frame 41 / 50Processing frame 42 / 50Processing frame 43 / 50Processing frame 44 / 50Processing frame 45 / 50Processing frame 46 / 50Processing frame 47 / 50Processing frame 48 / 50Processing frame 49 / 50Processing frame 50 / 50

Tracking runtime (average per frame):
------------------------------------
MGVF computation: 3.36553 seconds
 Snake evolution: 0.00479 seconds
           Total: 0.53983 seconds

Total application run time: 27.12700 seconds
.......................

OMP_NUM_THREADS= 14

Num of threads: 14
Detecting cells in frame 0
Cells detected: 36

Detection runtime
-----------------
GICOV computation: 0.06041 seconds
   GICOV dilation: 0.01475 seconds
            Total: 0.09031 seconds

Tracking cells across 50 frames
Processing frame 1 / 50Processing frame 2 / 50Processing frame 3 / 50Processing frame 4 / 50Processing frame 5 / 50Processing frame 6 / 50Processing frame 7 / 50Processing frame 8 / 50Processing frame 9 / 50Processing frame 10 / 50Processing frame 11 / 50Processing frame 12 / 50Processing frame 13 / 50Processing frame 14 / 50Processing frame 15 / 50Processing frame 16 / 50Processing frame 17 / 50Processing frame 18 / 50Processing frame 19 / 50Processing frame 20 / 50Processing frame 21 / 50Processing frame 22 / 50Processing frame 23 / 50Processing frame 24 / 50Processing frame 25 / 50Processing frame 26 / 50Processing frame 27 / 50Processing frame 28 / 50Processing frame 29 / 50Processing frame 30 / 50Processing frame 31 / 50Processing frame 32 / 50Processing frame 33 / 50Processing frame 34 / 50Processing frame 35 / 50Processing frame 36 / 50Processing frame 37 / 50Processing frame 38 / 50Processing frame 39 / 50Processing frame 40 / 50Processing frame 41 / 50Processing frame 42 / 50Processing frame 43 / 50Processing frame 44 / 50Processing frame 45 / 50Processing frame 46 / 50Processing frame 47 / 50Processing frame 48 / 50Processing frame 49 / 50Processing frame 50 / 50

Tracking runtime (average per frame):
------------------------------------
MGVF computation: 3.36964 seconds
 Snake evolution: 0.00478 seconds
           Total: 0.32920 seconds

Total application run time: 16.55056 seconds
.......................

OMP_NUM_THREADS= 28

Num of threads: 28
Detecting cells in frame 0
Cells detected: 36

Detection runtime
-----------------
GICOV computation: 0.03531 seconds
   GICOV dilation: 0.01156 seconds
            Total: 0.06099 seconds

Tracking cells across 50 frames
Processing frame 1 / 50Processing frame 2 / 50Processing frame 3 / 50Processing frame 4 / 50Processing frame 5 / 50Processing frame 6 / 50Processing frame 7 / 50Processing frame 8 / 50Processing frame 9 / 50Processing frame 10 / 50Processing frame 11 / 50Processing frame 12 / 50Processing frame 13 / 50Processing frame 14 / 50Processing frame 15 / 50Processing frame 16 / 50Processing frame 17 / 50Processing frame 18 / 50Processing frame 19 / 50Processing frame 20 / 50Processing frame 21 / 50Processing frame 22 / 50Processing frame 23 / 50Processing frame 24 / 50Processing frame 25 / 50Processing frame 26 / 50Processing frame 27 / 50Processing frame 28 / 50Processing frame 29 / 50Processing frame 30 / 50Processing frame 31 / 50Processing frame 32 / 50Processing frame 33 / 50Processing frame 34 / 50Processing frame 35 / 50Processing frame 36 / 50Processing frame 37 / 50Processing frame 38 / 50Processing frame 39 / 50Processing frame 40 / 50Processing frame 41 / 50Processing frame 42 / 50Processing frame 43 / 50Processing frame 44 / 50Processing frame 45 / 50Processing frame 46 / 50Processing frame 47 / 50Processing frame 48 / 50Processing frame 49 / 50Processing frame 50 / 50

Tracking runtime (average per frame):
------------------------------------
MGVF computation: 3.48783 seconds
 Snake evolution: 0.00488 seconds
           Total: 0.23330 seconds

Total application run time: 11.72583 seconds
.......................

OMP_NUM_THREADS= 42

Num of threads: 42
Detecting cells in frame 0
Cells detected: 36

Detection runtime
-----------------
GICOV computation: 0.03086 seconds
   GICOV dilation: 0.01071 seconds
            Total: 0.05631 seconds

Tracking cells across 50 frames
Processing frame 1 / 50Processing frame 2 / 50Processing frame 3 / 50Processing frame 4 / 50Processing frame 5 / 50Processing frame 6 / 50Processing frame 7 / 50Processing frame 8 / 50Processing frame 9 / 50Processing frame 10 / 50Processing frame 11 / 50Processing frame 12 / 50Processing frame 13 / 50Processing frame 14 / 50Processing frame 15 / 50Processing frame 16 / 50Processing frame 17 / 50Processing frame 18 / 50Processing frame 19 / 50Processing frame 20 / 50Processing frame 21 / 50Processing frame 22 / 50Processing frame 23 / 50Processing frame 24 / 50Processing frame 25 / 50Processing frame 26 / 50Processing frame 27 / 50Processing frame 28 / 50Processing frame 29 / 50Processing frame 30 / 50Processing frame 31 / 50Processing frame 32 / 50Processing frame 33 / 50Processing frame 34 / 50Processing frame 35 / 50Processing frame 36 / 50Processing frame 37 / 50Processing frame 38 / 50Processing frame 39 / 50Processing frame 40 / 50Processing frame 41 / 50Processing frame 42 / 50Processing frame 43 / 50Processing frame 44 / 50Processing frame 45 / 50Processing frame 46 / 50Processing frame 47 / 50Processing frame 48 / 50Processing frame 49 / 50Processing frame 50 / 50

Tracking runtime (average per frame):
------------------------------------
MGVF computation: 4.16419 seconds
 Snake evolution: 0.00509 seconds
           Total: 0.16553 seconds

Total application run time: 8.33285 seconds
.......................

OMP_NUM_THREADS= 56

Num of threads: 56
Detecting cells in frame 0
Cells detected: 36

Detection runtime
-----------------
GICOV computation: 0.02980 seconds
   GICOV dilation: 0.00730 seconds
            Total: 0.05210 seconds

Tracking cells across 50 frames
Processing frame 1 / 50Processing frame 2 / 50Processing frame 3 / 50Processing frame 4 / 50Processing frame 5 / 50Processing frame 6 / 50Processing frame 7 / 50Processing frame 8 / 50Processing frame 9 / 50Processing frame 10 / 50Processing frame 11 / 50Processing frame 12 / 50Processing frame 13 / 50Processing frame 14 / 50Processing frame 15 / 50Processing frame 16 / 50Processing frame 17 / 50Processing frame 18 / 50Processing frame 19 / 50Processing frame 20 / 50Processing frame 21 / 50Processing frame 22 / 50Processing frame 23 / 50Processing frame 24 / 50Processing frame 25 / 50Processing frame 26 / 50Processing frame 27 / 50Processing frame 28 / 50Processing frame 29 / 50Processing frame 30 / 50Processing frame 31 / 50Processing frame 32 / 50Processing frame 33 / 50Processing frame 34 / 50Processing frame 35 / 50Processing frame 36 / 50Processing frame 37 / 50Processing frame 38 / 50Processing frame 39 / 50Processing frame 40 / 50Processing frame 41 / 50Processing frame 42 / 50Processing frame 43 / 50Processing frame 44 / 50Processing frame 45 / 50Processing frame 46 / 50Processing frame 47 / 50Processing frame 48 / 50Processing frame 49 / 50Processing frame 50 / 50

Tracking runtime (average per frame):
------------------------------------
MGVF computation: 4.34887 seconds
 Snake evolution: 0.00520 seconds
           Total: 0.16774 seconds

Total application run time: 8.43898 seconds
-------------------------

Test1: 10 frames

-------------------------

OMP_NUM_THREADS= 1

Num of threads: 1
Detecting cells in frame 0
Cells detected: 36

Detection runtime
-----------------
GICOV computation: 0.53477 seconds
   GICOV dilation: 0.19346 seconds
            Total: 0.74119 seconds

Tracking cells across 100 frames
Processing frame 1 / 100Processing frame 2 / 100Processing frame 3 / 100Processing frame 4 / 100Processing frame 5 / 100Processing frame 6 / 100Processing frame 7 / 100Processing frame 8 / 100Processing frame 9 / 100Processing frame 10 / 100Processing frame 11 / 100Processing frame 12 / 100Processing frame 13 / 100Processing frame 14 / 100Processing frame 15 / 100Processing frame 16 / 100Processing frame 17 / 100Processing frame 18 / 100Processing frame 19 / 100Processing frame 20 / 100Processing frame 21 / 100Processing frame 22 / 100Processing frame 23 / 100Processing frame 24 / 100Processing frame 25 / 100Processing frame 26 / 100Processing frame 27 / 100Processing frame 28 / 100Processing frame 29 / 100Processing frame 30 / 100Processing frame 31 / 100Processing frame 32 / 100Processing frame 33 / 100Processing frame 34 / 100Processing frame 35 / 100Processing frame 36 / 100Processing frame 37 / 100Processing frame 38 / 100Processing frame 39 / 100Processing frame 40 / 100Processing frame 41 / 100Processing frame 42 / 100Processing frame 43 / 100Processing frame 44 / 100Processing frame 45 / 100Processing frame 46 / 100Processing frame 47 / 100Processing frame 48 / 100Processing frame 49 / 100Processing frame 50 / 100Processing frame 51 / 100Processing frame 52 / 100Processing frame 53 / 100Processing frame 54 / 100Processing frame 55 / 100Processing frame 56 / 100Processing frame 57 / 100Processing frame 58 / 100Processing frame 59 / 100Processing frame 60 / 100Processing frame 61 / 100Processing frame 62 / 100Processing frame 63 / 100Processing frame 64 / 100Processing frame 65 / 100Processing frame 66 / 100Processing frame 67 / 100Processing frame 68 / 100Processing frame 69 / 100Processing frame 70 / 100Processing frame 71 / 100Processing frame 72 / 100Processing frame 73 / 100Processing frame 74 / 100Processing frame 75 / 100Processing frame 76 / 100Processing frame 77 / 100Processing frame 78 / 100Processing frame 79 / 100Processing frame 80 / 100Processing frame 81 / 100Processing frame 82 / 100Processing frame 83 / 100Processing frame 84 / 100Processing frame 85 / 100Processing frame 86 / 100Processing frame 87 / 100Processing frame 88 / 100Processing frame 89 / 100Processing frame 90 / 100Processing frame 91 / 100Processing frame 92 / 100Processing frame 93 / 100Processing frame 94 / 100Processing frame 95 / 100Processing frame 96 / 100Processing frame 97 / 100Processing frame 98 / 100Processing frame 99 / 100Processing frame 100 / 100

Tracking runtime (average per frame):
------------------------------------
MGVF computation: 3.39329 seconds
 Snake evolution: 0.00454 seconds
           Total: 3.40048 seconds

Total application run time: 340.78918 seconds
.......................

OMP_NUM_THREADS= 2

Num of threads: 2
Detecting cells in frame 0
Cells detected: 36

Detection runtime
-----------------
GICOV computation: 0.40935 seconds
   GICOV dilation: 0.09663 seconds
            Total: 0.52132 seconds

Tracking cells across 100 frames
Processing frame 1 / 100Processing frame 2 / 100Processing frame 3 / 100Processing frame 4 / 100Processing frame 5 / 100Processing frame 6 / 100Processing frame 7 / 100Processing frame 8 / 100Processing frame 9 / 100Processing frame 10 / 100Processing frame 11 / 100Processing frame 12 / 100Processing frame 13 / 100Processing frame 14 / 100Processing frame 15 / 100Processing frame 16 / 100Processing frame 17 / 100Processing frame 18 / 100Processing frame 19 / 100Processing frame 20 / 100Processing frame 21 / 100Processing frame 22 / 100Processing frame 23 / 100Processing frame 24 / 100Processing frame 25 / 100Processing frame 26 / 100Processing frame 27 / 100Processing frame 28 / 100Processing frame 29 / 100Processing frame 30 / 100Processing frame 31 / 100Processing frame 32 / 100Processing frame 33 / 100Processing frame 34 / 100Processing frame 35 / 100Processing frame 36 / 100Processing frame 37 / 100Processing frame 38 / 100Processing frame 39 / 100Processing frame 40 / 100Processing frame 41 / 100Processing frame 42 / 100Processing frame 43 / 100Processing frame 44 / 100Processing frame 45 / 100Processing frame 46 / 100Processing frame 47 / 100Processing frame 48 / 100Processing frame 49 / 100Processing frame 50 / 100Processing frame 51 / 100Processing frame 52 / 100Processing frame 53 / 100Processing frame 54 / 100Processing frame 55 / 100Processing frame 56 / 100Processing frame 57 / 100Processing frame 58 / 100Processing frame 59 / 100Processing frame 60 / 100Processing frame 61 / 100Processing frame 62 / 100Processing frame 63 / 100Processing frame 64 / 100Processing frame 65 / 100Processing frame 66 / 100Processing frame 67 / 100Processing frame 68 / 100Processing frame 69 / 100Processing frame 70 / 100Processing frame 71 / 100Processing frame 72 / 100Processing frame 73 / 100Processing frame 74 / 100Processing frame 75 / 100Processing frame 76 / 100Processing frame 77 / 100Processing frame 78 / 100Processing frame 79 / 100Processing frame 80 / 100Processing frame 81 / 100Processing frame 82 / 100Processing frame 83 / 100Processing frame 84 / 100Processing frame 85 / 100Processing frame 86 / 100Processing frame 87 / 100Processing frame 88 / 100Processing frame 89 / 100Processing frame 90 / 100Processing frame 91 / 100Processing frame 92 / 100Processing frame 93 / 100Processing frame 94 / 100Processing frame 95 / 100Processing frame 96 / 100Processing frame 97 / 100Processing frame 98 / 100Processing frame 99 / 100Processing frame 100 / 100

Tracking runtime (average per frame):
------------------------------------
MGVF computation: 3.41297 seconds
 Snake evolution: 0.00475 seconds
           Total: 1.84908 seconds

Total application run time: 185.42981 seconds
.......................

OMP_NUM_THREADS= 4

Num of threads: 4
Detecting cells in frame 0
Cells detected: 36

Detection runtime
-----------------
GICOV computation: 0.14024 seconds
   GICOV dilation: 0.05014 seconds
            Total: 0.20592 seconds

Tracking cells across 100 frames
Processing frame 1 / 100Processing frame 2 / 100Processing frame 3 / 100Processing frame 4 / 100Processing frame 5 / 100Processing frame 6 / 100Processing frame 7 / 100Processing frame 8 / 100Processing frame 9 / 100Processing frame 10 / 100Processing frame 11 / 100Processing frame 12 / 100Processing frame 13 / 100Processing frame 14 / 100Processing frame 15 / 100Processing frame 16 / 100Processing frame 17 / 100Processing frame 18 / 100Processing frame 19 / 100Processing frame 20 / 100Processing frame 21 / 100Processing frame 22 / 100Processing frame 23 / 100Processing frame 24 / 100Processing frame 25 / 100Processing frame 26 / 100Processing frame 27 / 100Processing frame 28 / 100Processing frame 29 / 100Processing frame 30 / 100Processing frame 31 / 100Processing frame 32 / 100Processing frame 33 / 100Processing frame 34 / 100Processing frame 35 / 100Processing frame 36 / 100Processing frame 37 / 100Processing frame 38 / 100Processing frame 39 / 100Processing frame 40 / 100Processing frame 41 / 100Processing frame 42 / 100Processing frame 43 / 100Processing frame 44 / 100Processing frame 45 / 100Processing frame 46 / 100Processing frame 47 / 100Processing frame 48 / 100Processing frame 49 / 100Processing frame 50 / 100Processing frame 51 / 100Processing frame 52 / 100Processing frame 53 / 100Processing frame 54 / 100Processing frame 55 / 100Processing frame 56 / 100Processing frame 57 / 100Processing frame 58 / 100Processing frame 59 / 100Processing frame 60 / 100Processing frame 61 / 100Processing frame 62 / 100Processing frame 63 / 100Processing frame 64 / 100Processing frame 65 / 100Processing frame 66 / 100Processing frame 67 / 100Processing frame 68 / 100Processing frame 69 / 100Processing frame 70 / 100Processing frame 71 / 100Processing frame 72 / 100Processing frame 73 / 100Processing frame 74 / 100Processing frame 75 / 100Processing frame 76 / 100Processing frame 77 / 100Processing frame 78 / 100Processing frame 79 / 100Processing frame 80 / 100Processing frame 81 / 100Processing frame 82 / 100Processing frame 83 / 100Processing frame 84 / 100Processing frame 85 / 100Processing frame 86 / 100Processing frame 87 / 100Processing frame 88 / 100Processing frame 89 / 100Processing frame 90 / 100Processing frame 91 / 100Processing frame 92 / 100Processing frame 93 / 100Processing frame 94 / 100Processing frame 95 / 100Processing frame 96 / 100Processing frame 97 / 100Processing frame 98 / 100Processing frame 99 / 100Processing frame 100 / 100

Tracking runtime (average per frame):
------------------------------------
MGVF computation: 3.39343 seconds
 Snake evolution: 0.00469 seconds
           Total: 0.94973 seconds

Total application run time: 95.17918 seconds
.......................

OMP_NUM_THREADS= 8

Num of threads: 8
Detecting cells in frame 0
Cells detected: 36

Detection runtime
-----------------
GICOV computation: 0.10067 seconds
   GICOV dilation: 0.02567 seconds
            Total: 0.14158 seconds

Tracking cells across 100 frames
Processing frame 1 / 100Processing frame 2 / 100Processing frame 3 / 100Processing frame 4 / 100Processing frame 5 / 100Processing frame 6 / 100Processing frame 7 / 100Processing frame 8 / 100Processing frame 9 / 100Processing frame 10 / 100Processing frame 11 / 100Processing frame 12 / 100Processing frame 13 / 100Processing frame 14 / 100Processing frame 15 / 100Processing frame 16 / 100Processing frame 17 / 100Processing frame 18 / 100Processing frame 19 / 100Processing frame 20 / 100Processing frame 21 / 100Processing frame 22 / 100Processing frame 23 / 100Processing frame 24 / 100Processing frame 25 / 100Processing frame 26 / 100Processing frame 27 / 100Processing frame 28 / 100Processing frame 29 / 100Processing frame 30 / 100Processing frame 31 / 100Processing frame 32 / 100Processing frame 33 / 100Processing frame 34 / 100Processing frame 35 / 100Processing frame 36 / 100Processing frame 37 / 100Processing frame 38 / 100Processing frame 39 / 100Processing frame 40 / 100Processing frame 41 / 100Processing frame 42 / 100Processing frame 43 / 100Processing frame 44 / 100Processing frame 45 / 100Processing frame 46 / 100Processing frame 47 / 100Processing frame 48 / 100Processing frame 49 / 100Processing frame 50 / 100Processing frame 51 / 100Processing frame 52 / 100Processing frame 53 / 100Processing frame 54 / 100Processing frame 55 / 100Processing frame 56 / 100Processing frame 57 / 100Processing frame 58 / 100Processing frame 59 / 100Processing frame 60 / 100Processing frame 61 / 100Processing frame 62 / 100Processing frame 63 / 100Processing frame 64 / 100Processing frame 65 / 100Processing frame 66 / 100Processing frame 67 / 100Processing frame 68 / 100Processing frame 69 / 100Processing frame 70 / 100Processing frame 71 / 100Processing frame 72 / 100Processing frame 73 / 100Processing frame 74 / 100Processing frame 75 / 100Processing frame 76 / 100Processing frame 77 / 100Processing frame 78 / 100Processing frame 79 / 100Processing frame 80 / 100Processing frame 81 / 100Processing frame 82 / 100Processing frame 83 / 100Processing frame 84 / 100Processing frame 85 / 100Processing frame 86 / 100Processing frame 87 / 100Processing frame 88 / 100Processing frame 89 / 100Processing frame 90 / 100Processing frame 91 / 100Processing frame 92 / 100Processing frame 93 / 100Processing frame 94 / 100Processing frame 95 / 100Processing frame 96 / 100Processing frame 97 / 100Processing frame 98 / 100Processing frame 99 / 100Processing frame 100 / 100

Tracking runtime (average per frame):
------------------------------------
MGVF computation: 3.37533 seconds
 Snake evolution: 0.00463 seconds
           Total: 0.54454 seconds

Total application run time: 54.59553 seconds
.......................

OMP_NUM_THREADS= 14

Num of threads: 14
Detecting cells in frame 0
Cells detected: 36

Detection runtime
-----------------
GICOV computation: 0.05597 seconds
   GICOV dilation: 0.01476 seconds
            Total: 0.08489 seconds

Tracking cells across 100 frames
Processing frame 1 / 100Processing frame 2 / 100Processing frame 3 / 100Processing frame 4 / 100Processing frame 5 / 100Processing frame 6 / 100Processing frame 7 / 100Processing frame 8 / 100Processing frame 9 / 100Processing frame 10 / 100Processing frame 11 / 100Processing frame 12 / 100Processing frame 13 / 100Processing frame 14 / 100Processing frame 15 / 100Processing frame 16 / 100Processing frame 17 / 100Processing frame 18 / 100Processing frame 19 / 100Processing frame 20 / 100Processing frame 21 / 100Processing frame 22 / 100Processing frame 23 / 100Processing frame 24 / 100Processing frame 25 / 100Processing frame 26 / 100Processing frame 27 / 100Processing frame 28 / 100Processing frame 29 / 100Processing frame 30 / 100Processing frame 31 / 100Processing frame 32 / 100Processing frame 33 / 100Processing frame 34 / 100Processing frame 35 / 100Processing frame 36 / 100Processing frame 37 / 100Processing frame 38 / 100Processing frame 39 / 100Processing frame 40 / 100Processing frame 41 / 100Processing frame 42 / 100Processing frame 43 / 100Processing frame 44 / 100Processing frame 45 / 100Processing frame 46 / 100Processing frame 47 / 100Processing frame 48 / 100Processing frame 49 / 100Processing frame 50 / 100Processing frame 51 / 100Processing frame 52 / 100Processing frame 53 / 100Processing frame 54 / 100Processing frame 55 / 100Processing frame 56 / 100Processing frame 57 / 100Processing frame 58 / 100Processing frame 59 / 100Processing frame 60 / 100Processing frame 61 / 100Processing frame 62 / 100Processing frame 63 / 100Processing frame 64 / 100Processing frame 65 / 100Processing frame 66 / 100Processing frame 67 / 100Processing frame 68 / 100Processing frame 69 / 100Processing frame 70 / 100Processing frame 71 / 100Processing frame 72 / 100Processing frame 73 / 100Processing frame 74 / 100Processing frame 75 / 100Processing frame 76 / 100Processing frame 77 / 100Processing frame 78 / 100Processing frame 79 / 100Processing frame 80 / 100Processing frame 81 / 100Processing frame 82 / 100Processing frame 83 / 100Processing frame 84 / 100Processing frame 85 / 100Processing frame 86 / 100Processing frame 87 / 100Processing frame 88 / 100Processing frame 89 / 100Processing frame 90 / 100Processing frame 91 / 100Processing frame 92 / 100Processing frame 93 / 100Processing frame 94 / 100Processing frame 95 / 100Processing frame 96 / 100Processing frame 97 / 100Processing frame 98 / 100Processing frame 99 / 100Processing frame 100 / 100

Tracking runtime (average per frame):
------------------------------------
MGVF computation: 3.38381 seconds
 Snake evolution: 0.00460 seconds
           Total: 0.33360 seconds

Total application run time: 33.44442 seconds
.......................

OMP_NUM_THREADS= 28

Num of threads: 28
Detecting cells in frame 0
Cells detected: 36

Detection runtime
-----------------
GICOV computation: 0.02160 seconds
   GICOV dilation: 0.00749 seconds
            Total: 0.04476 seconds

Tracking cells across 100 frames
Processing frame 1 / 100Processing frame 2 / 100Processing frame 3 / 100Processing frame 4 / 100Processing frame 5 / 100Processing frame 6 / 100Processing frame 7 / 100Processing frame 8 / 100Processing frame 9 / 100Processing frame 10 / 100Processing frame 11 / 100Processing frame 12 / 100Processing frame 13 / 100Processing frame 14 / 100Processing frame 15 / 100Processing frame 16 / 100Processing frame 17 / 100Processing frame 18 / 100Processing frame 19 / 100Processing frame 20 / 100Processing frame 21 / 100Processing frame 22 / 100Processing frame 23 / 100Processing frame 24 / 100Processing frame 25 / 100Processing frame 26 / 100Processing frame 27 / 100Processing frame 28 / 100Processing frame 29 / 100Processing frame 30 / 100Processing frame 31 / 100Processing frame 32 / 100Processing frame 33 / 100Processing frame 34 / 100Processing frame 35 / 100Processing frame 36 / 100Processing frame 37 / 100Processing frame 38 / 100Processing frame 39 / 100Processing frame 40 / 100Processing frame 41 / 100Processing frame 42 / 100Processing frame 43 / 100Processing frame 44 / 100Processing frame 45 / 100Processing frame 46 / 100Processing frame 47 / 100Processing frame 48 / 100Processing frame 49 / 100Processing frame 50 / 100Processing frame 51 / 100Processing frame 52 / 100Processing frame 53 / 100Processing frame 54 / 100Processing frame 55 / 100Processing frame 56 / 100Processing frame 57 / 100Processing frame 58 / 100Processing frame 59 / 100Processing frame 60 / 100Processing frame 61 / 100Processing frame 62 / 100Processing frame 63 / 100Processing frame 64 / 100Processing frame 65 / 100Processing frame 66 / 100Processing frame 67 / 100Processing frame 68 / 100Processing frame 69 / 100Processing frame 70 / 100Processing frame 71 / 100Processing frame 72 / 100Processing frame 73 / 100Processing frame 74 / 100Processing frame 75 / 100Processing frame 76 / 100Processing frame 77 / 100Processing frame 78 / 100Processing frame 79 / 100Processing frame 80 / 100Processing frame 81 / 100Processing frame 82 / 100Processing frame 83 / 100Processing frame 84 / 100Processing frame 85 / 100Processing frame 86 / 100Processing frame 87 / 100Processing frame 88 / 100Processing frame 89 / 100Processing frame 90 / 100Processing frame 91 / 100Processing frame 92 / 100Processing frame 93 / 100Processing frame 94 / 100Processing frame 95 / 100Processing frame 96 / 100Processing frame 97 / 100Processing frame 98 / 100Processing frame 99 / 100Processing frame 100 / 100

Tracking runtime (average per frame):
------------------------------------
MGVF computation: 3.52425 seconds
 Snake evolution: 0.00472 seconds
           Total: 0.24005 seconds

Total application run time: 24.04954 seconds
.......................

OMP_NUM_THREADS= 42

Num of threads: 42
Detecting cells in frame 0
Cells detected: 36

Detection runtime
-----------------
GICOV computation: 0.03209 seconds
   GICOV dilation: 0.00925 seconds
            Total: 0.05608 seconds

Tracking cells across 100 frames
Processing frame 1 / 100Processing frame 2 / 100Processing frame 3 / 100Processing frame 4 / 100Processing frame 5 / 100Processing frame 6 / 100Processing frame 7 / 100Processing frame 8 / 100Processing frame 9 / 100Processing frame 10 / 100Processing frame 11 / 100Processing frame 12 / 100Processing frame 13 / 100Processing frame 14 / 100Processing frame 15 / 100Processing frame 16 / 100Processing frame 17 / 100Processing frame 18 / 100Processing frame 19 / 100Processing frame 20 / 100Processing frame 21 / 100Processing frame 22 / 100Processing frame 23 / 100Processing frame 24 / 100Processing frame 25 / 100Processing frame 26 / 100Processing frame 27 / 100Processing frame 28 / 100Processing frame 29 / 100Processing frame 30 / 100Processing frame 31 / 100Processing frame 32 / 100Processing frame 33 / 100Processing frame 34 / 100Processing frame 35 / 100Processing frame 36 / 100Processing frame 37 / 100Processing frame 38 / 100Processing frame 39 / 100Processing frame 40 / 100Processing frame 41 / 100Processing frame 42 / 100Processing frame 43 / 100Processing frame 44 / 100Processing frame 45 / 100Processing frame 46 / 100Processing frame 47 / 100Processing frame 48 / 100Processing frame 49 / 100Processing frame 50 / 100Processing frame 51 / 100Processing frame 52 / 100Processing frame 53 / 100Processing frame 54 / 100Processing frame 55 / 100Processing frame 56 / 100Processing frame 57 / 100Processing frame 58 / 100Processing frame 59 / 100Processing frame 60 / 100Processing frame 61 / 100Processing frame 62 / 100Processing frame 63 / 100Processing frame 64 / 100Processing frame 65 / 100Processing frame 66 / 100Processing frame 67 / 100Processing frame 68 / 100Processing frame 69 / 100Processing frame 70 / 100Processing frame 71 / 100Processing frame 72 / 100Processing frame 73 / 100Processing frame 74 / 100Processing frame 75 / 100Processing frame 76 / 100Processing frame 77 / 100Processing frame 78 / 100Processing frame 79 / 100Processing frame 80 / 100Processing frame 81 / 100Processing frame 82 / 100Processing frame 83 / 100Processing frame 84 / 100Processing frame 85 / 100Processing frame 86 / 100Processing frame 87 / 100Processing frame 88 / 100Processing frame 89 / 100Processing frame 90 / 100Processing frame 91 / 100Processing frame 92 / 100Processing frame 93 / 100Processing frame 94 / 100Processing frame 95 / 100Processing frame 96 / 100Processing frame 97 / 100Processing frame 98 / 100Processing frame 99 / 100Processing frame 100 / 100

Tracking runtime (average per frame):
------------------------------------
MGVF computation: 4.20694 seconds
 Snake evolution: 0.00493 seconds
           Total: 0.16919 seconds

Total application run time: 16.97521 seconds
.......................

OMP_NUM_THREADS= 56

Num of threads: 56
Detecting cells in frame 0
Cells detected: 36

Detection runtime
-----------------
GICOV computation: 0.03515 seconds
   GICOV dilation: 0.01452 seconds
            Total: 0.06446 seconds

Tracking cells across 100 frames
Processing frame 1 / 100Processing frame 2 / 100Processing frame 3 / 100Processing frame 4 / 100Processing frame 5 / 100Processing frame 6 / 100Processing frame 7 / 100Processing frame 8 / 100Processing frame 9 / 100Processing frame 10 / 100Processing frame 11 / 100Processing frame 12 / 100Processing frame 13 / 100Processing frame 14 / 100Processing frame 15 / 100Processing frame 16 / 100Processing frame 17 / 100Processing frame 18 / 100Processing frame 19 / 100Processing frame 20 / 100Processing frame 21 / 100Processing frame 22 / 100Processing frame 23 / 100Processing frame 24 / 100Processing frame 25 / 100Processing frame 26 / 100Processing frame 27 / 100Processing frame 28 / 100Processing frame 29 / 100Processing frame 30 / 100Processing frame 31 / 100Processing frame 32 / 100Processing frame 33 / 100Processing frame 34 / 100Processing frame 35 / 100Processing frame 36 / 100Processing frame 37 / 100Processing frame 38 / 100Processing frame 39 / 100Processing frame 40 / 100Processing frame 41 / 100Processing frame 42 / 100Processing frame 43 / 100Processing frame 44 / 100Processing frame 45 / 100Processing frame 46 / 100Processing frame 47 / 100Processing frame 48 / 100Processing frame 49 / 100Processing frame 50 / 100Processing frame 51 / 100Processing frame 52 / 100Processing frame 53 / 100Processing frame 54 / 100Processing frame 55 / 100Processing frame 56 / 100Processing frame 57 / 100Processing frame 58 / 100Processing frame 59 / 100Processing frame 60 / 100Processing frame 61 / 100Processing frame 62 / 100Processing frame 63 / 100Processing frame 64 / 100Processing frame 65 / 100Processing frame 66 / 100Processing frame 67 / 100Processing frame 68 / 100Processing frame 69 / 100Processing frame 70 / 100Processing frame 71 / 100Processing frame 72 / 100Processing frame 73 / 100Processing frame 74 / 100Processing frame 75 / 100Processing frame 76 / 100Processing frame 77 / 100Processing frame 78 / 100Processing frame 79 / 100Processing frame 80 / 100Processing frame 81 / 100Processing frame 82 / 100Processing frame 83 / 100Processing frame 84 / 100Processing frame 85 / 100Processing frame 86 / 100Processing frame 87 / 100Processing frame 88 / 100Processing frame 89 / 100Processing frame 90 / 100Processing frame 91 / 100Processing frame 92 / 100Processing frame 93 / 100Processing frame 94 / 100Processing frame 95 / 100Processing frame 96 / 100Processing frame 97 / 100Processing frame 98 / 100Processing frame 99 / 100Processing frame 100 / 100

Tracking runtime (average per frame):
------------------------------------
MGVF computation: 4.33029 seconds
 Snake evolution: 0.00497 seconds
           Total: 0.17364 seconds

Total application run time: 17.42874 seconds
-------------------------

Test1: 10 frames

-------------------------

OMP_NUM_THREADS= 1

Num of threads: 1
Detecting cells in frame 0
Cells detected: 36

Detection runtime
-----------------
GICOV computation: 0.53458 seconds
   GICOV dilation: 0.19302 seconds
            Total: 0.74062 seconds

Tracking cells across 200 frames
Processing frame 1 / 200Processing frame 2 / 200Processing frame 3 / 200Processing frame 4 / 200Processing frame 5 / 200Processing frame 6 / 200Processing frame 7 / 200Processing frame 8 / 200Processing frame 9 / 200Processing frame 10 / 200Processing frame 11 / 200Processing frame 12 / 200Processing frame 13 / 200Processing frame 14 / 200Processing frame 15 / 200Processing frame 16 / 200Processing frame 17 / 200Processing frame 18 / 200Processing frame 19 / 200Processing frame 20 / 200Processing frame 21 / 200Processing frame 22 / 200Processing frame 23 / 200Processing frame 24 / 200Processing frame 25 / 200Processing frame 26 / 200Processing frame 27 / 200Processing frame 28 / 200Processing frame 29 / 200Processing frame 30 / 200Processing frame 31 / 200Processing frame 32 / 200Processing frame 33 / 200Processing frame 34 / 200Processing frame 35 / 200Processing frame 36 / 200Processing frame 37 / 200Processing frame 38 / 200Processing frame 39 / 200Processing frame 40 / 200Processing frame 41 / 200Processing frame 42 / 200Processing frame 43 / 200Processing frame 44 / 200Processing frame 45 / 200Processing frame 46 / 200Processing frame 47 / 200Processing frame 48 / 200Processing frame 49 / 200Processing frame 50 / 200Processing frame 51 / 200Processing frame 52 / 200Processing frame 53 / 200Processing frame 54 / 200Processing frame 55 / 200Processing frame 56 / 200Processing frame 57 / 200Processing frame 58 / 200Processing frame 59 / 200Processing frame 60 / 200Processing frame 61 / 200Processing frame 62 / 200Processing frame 63 / 200Processing frame 64 / 200Processing frame 65 / 200Processing frame 66 / 200Processing frame 67 / 200Processing frame 68 / 200Processing frame 69 / 200Processing frame 70 / 200Processing frame 71 / 200Processing frame 72 / 200Processing frame 73 / 200Processing frame 74 / 200Processing frame 75 / 200Processing frame 76 / 200Processing frame 77 / 200Processing frame 78 / 200Processing frame 79 / 200Processing frame 80 / 200Processing frame 81 / 200Processing frame 82 / 200Processing frame 83 / 200Processing frame 84 / 200Processing frame 85 / 200Processing frame 86 / 200Processing frame 87 / 200Processing frame 88 / 200Processing frame 89 / 200Processing frame 90 / 200Processing frame 91 / 200Processing frame 92 / 200Processing frame 93 / 200Processing frame 94 / 200Processing frame 95 / 200Processing frame 96 / 200Processing frame 97 / 200Processing frame 98 / 200Processing frame 99 / 200Processing frame 100 / 200Processing frame 101 / 200Processing frame 102 / 200Processing frame 103 / 200Processing frame 104 / 200Processing frame 105 / 200Processing frame 106 / 200Processing frame 107 / 200Processing frame 108 / 200Processing frame 109 / 200Processing frame 110 / 200Processing frame 111 / 200Processing frame 112 / 200Processing frame 113 / 200Processing frame 114 / 200Processing frame 115 / 200Processing frame 116 / 200Processing frame 117 / 200Processing frame 118 / 200Processing frame 119 / 200Processing frame 120 / 200Processing frame 121 / 200Processing frame 122 / 200Processing frame 123 / 200Processing frame 124 / 200Processing frame 125 / 200Processing frame 126 / 200Processing frame 127 / 200Processing frame 128 / 200Processing frame 129 / 200Processing frame 130 / 200Processing frame 131 / 200Processing frame 132 / 200Processing frame 133 / 200Processing frame 134 / 200Processing frame 135 / 200Processing frame 136 / 200Processing frame 137 / 200Processing frame 138 / 200Processing frame 139 / 200Processing frame 140 / 200Processing frame 141 / 200Processing frame 142 / 200Processing frame 143 / 200Processing frame 144 / 200Processing frame 145 / 200Processing frame 146 / 200Processing frame 147 / 200Processing frame 148 / 200Processing frame 149 / 200Processing frame 150 / 200Processing frame 151 / 200Processing frame 152 / 200Processing frame 153 / 200Processing frame 154 / 200Processing frame 155 / 200Processing frame 156 / 200Processing frame 157 / 200Processing frame 158 / 200Processing frame 159 / 200Processing frame 160 / 200Processing frame 161 / 200Processing frame 162 / 200Processing frame 163 / 200Processing frame 164 / 200Processing frame 165 / 200Processing frame 166 / 200Processing frame 167 / 200Processing frame 168 / 200Processing frame 169 / 200Processing frame 170 / 200Processing frame 171 / 200Processing frame 172 / 200Processing frame 173 / 200Processing frame 174 / 200Processing frame 175 / 200Processing frame 176 / 200Processing frame 177 / 200Processing frame 178 / 200Processing frame 179 / 200Processing frame 180 / 200Processing frame 181 / 200Processing frame 182 / 200Processing frame 183 / 200Processing frame 184 / 200Processing frame 185 / 200Processing frame 186 / 200Processing frame 187 / 200Processing frame 188 / 200Processing frame 189 / 200Processing frame 190 / 200Processing frame 191 / 200Processing frame 192 / 200Processing frame 193 / 200Processing frame 194 / 200Processing frame 195 / 200Processing frame 196 / 200Processing frame 197 / 200Processing frame 198 / 200Processing frame 199 / 200Processing frame 200 / 200

Tracking runtime (average per frame):
------------------------------------
MGVF computation: 3.41195 seconds
 Snake evolution: 0.00436 seconds
           Total: 3.41899 seconds

Total application run time: 684.53918 seconds
.......................

OMP_NUM_THREADS= 2

Num of threads: 2
Detecting cells in frame 0
Cells detected: 36

Detection runtime
-----------------
GICOV computation: 0.33221 seconds
   GICOV dilation: 0.09660 seconds
            Total: 0.44429 seconds

Tracking cells across 200 frames
Processing frame 1 / 200Processing frame 2 / 200Processing frame 3 / 200Processing frame 4 / 200Processing frame 5 / 200Processing frame 6 / 200Processing frame 7 / 200Processing frame 8 / 200Processing frame 9 / 200Processing frame 10 / 200Processing frame 11 / 200Processing frame 12 / 200Processing frame 13 / 200Processing frame 14 / 200Processing frame 15 / 200Processing frame 16 / 200Processing frame 17 / 200Processing frame 18 / 200Processing frame 19 / 200Processing frame 20 / 200Processing frame 21 / 200Processing frame 22 / 200Processing frame 23 / 200Processing frame 24 / 200Processing frame 25 / 200Processing frame 26 / 200Processing frame 27 / 200Processing frame 28 / 200Processing frame 29 / 200Processing frame 30 / 200Processing frame 31 / 200Processing frame 32 / 200Processing frame 33 / 200Processing frame 34 / 200Processing frame 35 / 200Processing frame 36 / 200Processing frame 37 / 200Processing frame 38 / 200Processing frame 39 / 200Processing frame 40 / 200Processing frame 41 / 200Processing frame 42 / 200Processing frame 43 / 200Processing frame 44 / 200Processing frame 45 / 200Processing frame 46 / 200Processing frame 47 / 200Processing frame 48 / 200Processing frame 49 / 200Processing frame 50 / 200Processing frame 51 / 200Processing frame 52 / 200Processing frame 53 / 200Processing frame 54 / 200Processing frame 55 / 200Processing frame 56 / 200Processing frame 57 / 200Processing frame 58 / 200Processing frame 59 / 200Processing frame 60 / 200Processing frame 61 / 200Processing frame 62 / 200Processing frame 63 / 200Processing frame 64 / 200Processing frame 65 / 200Processing frame 66 / 200Processing frame 67 / 200Processing frame 68 / 200Processing frame 69 / 200Processing frame 70 / 200Processing frame 71 / 200Processing frame 72 / 200Processing frame 73 / 200Processing frame 74 / 200Processing frame 75 / 200Processing frame 76 / 200Processing frame 77 / 200Processing frame 78 / 200Processing frame 79 / 200Processing frame 80 / 200Processing frame 81 / 200Processing frame 82 / 200Processing frame 83 / 200Processing frame 84 / 200Processing frame 85 / 200Processing frame 86 / 200Processing frame 87 / 200Processing frame 88 / 200Processing frame 89 / 200Processing frame 90 / 200Processing frame 91 / 200Processing frame 92 / 200Processing frame 93 / 200Processing frame 94 / 200Processing frame 95 / 200Processing frame 96 / 200Processing frame 97 / 200Processing frame 98 / 200Processing frame 99 / 200Processing frame 100 / 200Processing frame 101 / 200Processing frame 102 / 200Processing frame 103 / 200Processing frame 104 / 200Processing frame 105 / 200Processing frame 106 / 200Processing frame 107 / 200Processing frame 108 / 200Processing frame 109 / 200Processing frame 110 / 200Processing frame 111 / 200Processing frame 112 / 200Processing frame 113 / 200Processing frame 114 / 200Processing frame 115 / 200Processing frame 116 / 200Processing frame 117 / 200Processing frame 118 / 200Processing frame 119 / 200Processing frame 120 / 200Processing frame 121 / 200Processing frame 122 / 200Processing frame 123 / 200Processing frame 124 / 200Processing frame 125 / 200Processing frame 126 / 200Processing frame 127 / 200Processing frame 128 / 200Processing frame 129 / 200Processing frame 130 / 200Processing frame 131 / 200Processing frame 132 / 200Processing frame 133 / 200Processing frame 134 / 200Processing frame 135 / 200Processing frame 136 / 200Processing frame 137 / 200Processing frame 138 / 200Processing frame 139 / 200Processing frame 140 / 200Processing frame 141 / 200Processing frame 142 / 200Processing frame 143 / 200Processing frame 144 / 200Processing frame 145 / 200Processing frame 146 / 200Processing frame 147 / 200Processing frame 148 / 200Processing frame 149 / 200Processing frame 150 / 200Processing frame 151 / 200Processing frame 152 / 200Processing frame 153 / 200Processing frame 154 / 200Processing frame 155 / 200Processing frame 156 / 200Processing frame 157 / 200Processing frame 158 / 200Processing frame 159 / 200Processing frame 160 / 200Processing frame 161 / 200Processing frame 162 / 200Processing frame 163 / 200Processing frame 164 / 200Processing frame 165 / 200Processing frame 166 / 200Processing frame 167 / 200Processing frame 168 / 200Processing frame 169 / 200Processing frame 170 / 200Processing frame 171 / 200Processing frame 172 / 200Processing frame 173 / 200Processing frame 174 / 200Processing frame 175 / 200Processing frame 176 / 200Processing frame 177 / 200Processing frame 178 / 200Processing frame 179 / 200Processing frame 180 / 200Processing frame 181 / 200Processing frame 182 / 200Processing frame 183 / 200Processing frame 184 / 200Processing frame 185 / 200Processing frame 186 / 200Processing frame 187 / 200Processing frame 188 / 200Processing frame 189 / 200Processing frame 190 / 200Processing frame 191 / 200Processing frame 192 / 200Processing frame 193 / 200Processing frame 194 / 200Processing frame 195 / 200Processing frame 196 / 200Processing frame 197 / 200Processing frame 198 / 200Processing frame 199 / 200Processing frame 200 / 200

Tracking runtime (average per frame):
------------------------------------
MGVF computation: 3.43197 seconds
 Snake evolution: 0.00455 seconds
           Total: 1.84721 seconds

Total application run time: 369.88727 seconds
.......................

OMP_NUM_THREADS= 4

Num of threads: 4
Detecting cells in frame 0
Cells detected: 36

Detection runtime
-----------------
GICOV computation: 0.13857 seconds
   GICOV dilation: 0.05019 seconds
            Total: 0.20414 seconds

Tracking cells across 200 frames
Processing frame 1 / 200Processing frame 2 / 200Processing frame 3 / 200Processing frame 4 / 200Processing frame 5 / 200Processing frame 6 / 200Processing frame 7 / 200Processing frame 8 / 200Processing frame 9 / 200Processing frame 10 / 200Processing frame 11 / 200Processing frame 12 / 200Processing frame 13 / 200Processing frame 14 / 200Processing frame 15 / 200Processing frame 16 / 200Processing frame 17 / 200Processing frame 18 / 200Processing frame 19 / 200Processing frame 20 / 200Processing frame 21 / 200Processing frame 22 / 200Processing frame 23 / 200Processing frame 24 / 200Processing frame 25 / 200Processing frame 26 / 200Processing frame 27 / 200Processing frame 28 / 200Processing frame 29 / 200Processing frame 30 / 200Processing frame 31 / 200Processing frame 32 / 200Processing frame 33 / 200Processing frame 34 / 200Processing frame 35 / 200Processing frame 36 / 200Processing frame 37 / 200Processing frame 38 / 200Processing frame 39 / 200Processing frame 40 / 200Processing frame 41 / 200Processing frame 42 / 200Processing frame 43 / 200Processing frame 44 / 200Processing frame 45 / 200Processing frame 46 / 200Processing frame 47 / 200Processing frame 48 / 200Processing frame 49 / 200Processing frame 50 / 200Processing frame 51 / 200Processing frame 52 / 200Processing frame 53 / 200Processing frame 54 / 200Processing frame 55 / 200Processing frame 56 / 200Processing frame 57 / 200Processing frame 58 / 200Processing frame 59 / 200Processing frame 60 / 200Processing frame 61 / 200Processing frame 62 / 200Processing frame 63 / 200Processing frame 64 / 200Processing frame 65 / 200Processing frame 66 / 200Processing frame 67 / 200Processing frame 68 / 200Processing frame 69 / 200Processing frame 70 / 200Processing frame 71 / 200Processing frame 72 / 200Processing frame 73 / 200Processing frame 74 / 200Processing frame 75 / 200Processing frame 76 / 200Processing frame 77 / 200Processing frame 78 / 200Processing frame 79 / 200Processing frame 80 / 200Processing frame 81 / 200Processing frame 82 / 200Processing frame 83 / 200Processing frame 84 / 200Processing frame 85 / 200Processing frame 86 / 200Processing frame 87 / 200Processing frame 88 / 200Processing frame 89 / 200Processing frame 90 / 200Processing frame 91 / 200Processing frame 92 / 200Processing frame 93 / 200Processing frame 94 / 200Processing frame 95 / 200Processing frame 96 / 200Processing frame 97 / 200Processing frame 98 / 200Processing frame 99 / 200Processing frame 100 / 200Processing frame 101 / 200Processing frame 102 / 200Processing frame 103 / 200Processing frame 104 / 200Processing frame 105 / 200Processing frame 106 / 200Processing frame 107 / 200Processing frame 108 / 200Processing frame 109 / 200Processing frame 110 / 200Processing frame 111 / 200Processing frame 112 / 200Processing frame 113 / 200Processing frame 114 / 200Processing frame 115 / 200Processing frame 116 / 200Processing frame 117 / 200Processing frame 118 / 200Processing frame 119 / 200Processing frame 120 / 200Processing frame 121 / 200Processing frame 122 / 200Processing frame 123 / 200Processing frame 124 / 200Processing frame 125 / 200Processing frame 126 / 200Processing frame 127 / 200Processing frame 128 / 200Processing frame 129 / 200Processing frame 130 / 200Processing frame 131 / 200Processing frame 132 / 200Processing frame 133 / 200Processing frame 134 / 200Processing frame 135 / 200Processing frame 136 / 200Processing frame 137 / 200Processing frame 138 / 200Processing frame 139 / 200Processing frame 140 / 200Processing frame 141 / 200Processing frame 142 / 200Processing frame 143 / 200Processing frame 144 / 200Processing frame 145 / 200Processing frame 146 / 200Processing frame 147 / 200Processing frame 148 / 200Processing frame 149 / 200Processing frame 150 / 200Processing frame 151 / 200Processing frame 152 / 200Processing frame 153 / 200Processing frame 154 / 200Processing frame 155 / 200Processing frame 156 / 200Processing frame 157 / 200Processing frame 158 / 200Processing frame 159 / 200Processing frame 160 / 200Processing frame 161 / 200Processing frame 162 / 200Processing frame 163 / 200Processing frame 164 / 200Processing frame 165 / 200Processing frame 166 / 200Processing frame 167 / 200Processing frame 168 / 200Processing frame 169 / 200Processing frame 170 / 200Processing frame 171 / 200Processing frame 172 / 200Processing frame 173 / 200Processing frame 174 / 200Processing frame 175 / 200Processing frame 176 / 200Processing frame 177 / 200Processing frame 178 / 200Processing frame 179 / 200Processing frame 180 / 200Processing frame 181 / 200Processing frame 182 / 200Processing frame 183 / 200Processing frame 184 / 200Processing frame 185 / 200Processing frame 186 / 200Processing frame 187 / 200Processing frame 188 / 200Processing frame 189 / 200Processing frame 190 / 200Processing frame 191 / 200Processing frame 192 / 200Processing frame 193 / 200Processing frame 194 / 200Processing frame 195 / 200Processing frame 196 / 200Processing frame 197 / 200Processing frame 198 / 200Processing frame 199 / 200Processing frame 200 / 200

Tracking runtime (average per frame):
------------------------------------
MGVF computation: 3.41461 seconds
 Snake evolution: 0.00451 seconds
           Total: 0.94528 seconds

Total application run time: 189.25983 seconds
.......................

OMP_NUM_THREADS= 8

Num of threads: 8
Detecting cells in frame 0
Cells detected: 36

Detection runtime
-----------------
GICOV computation: 0.09413 seconds
   GICOV dilation: 0.02564 seconds
            Total: 0.13519 seconds

Tracking cells across 200 frames
Processing frame 1 / 200Processing frame 2 / 200Processing frame 3 / 200Processing frame 4 / 200Processing frame 5 / 200Processing frame 6 / 200Processing frame 7 / 200Processing frame 8 / 200Processing frame 9 / 200Processing frame 10 / 200Processing frame 11 / 200Processing frame 12 / 200Processing frame 13 / 200Processing frame 14 / 200Processing frame 15 / 200Processing frame 16 / 200Processing frame 17 / 200Processing frame 18 / 200Processing frame 19 / 200Processing frame 20 / 200Processing frame 21 / 200Processing frame 22 / 200Processing frame 23 / 200Processing frame 24 / 200Processing frame 25 / 200Processing frame 26 / 200Processing frame 27 / 200Processing frame 28 / 200Processing frame 29 / 200Processing frame 30 / 200Processing frame 31 / 200Processing frame 32 / 200Processing frame 33 / 200Processing frame 34 / 200Processing frame 35 / 200Processing frame 36 / 200Processing frame 37 / 200Processing frame 38 / 200Processing frame 39 / 200Processing frame 40 / 200Processing frame 41 / 200Processing frame 42 / 200Processing frame 43 / 200Processing frame 44 / 200Processing frame 45 / 200Processing frame 46 / 200Processing frame 47 / 200Processing frame 48 / 200Processing frame 49 / 200Processing frame 50 / 200Processing frame 51 / 200Processing frame 52 / 200Processing frame 53 / 200Processing frame 54 / 200Processing frame 55 / 200Processing frame 56 / 200Processing frame 57 / 200Processing frame 58 / 200Processing frame 59 / 200Processing frame 60 / 200Processing frame 61 / 200Processing frame 62 / 200Processing frame 63 / 200Processing frame 64 / 200Processing frame 65 / 200Processing frame 66 / 200Processing frame 67 / 200Processing frame 68 / 200Processing frame 69 / 200Processing frame 70 / 200Processing frame 71 / 200Processing frame 72 / 200Processing frame 73 / 200Processing frame 74 / 200Processing frame 75 / 200Processing frame 76 / 200Processing frame 77 / 200Processing frame 78 / 200Processing frame 79 / 200Processing frame 80 / 200Processing frame 81 / 200Processing frame 82 / 200Processing frame 83 / 200Processing frame 84 / 200Processing frame 85 / 200Processing frame 86 / 200Processing frame 87 / 200Processing frame 88 / 200Processing frame 89 / 200Processing frame 90 / 200Processing frame 91 / 200Processing frame 92 / 200Processing frame 93 / 200Processing frame 94 / 200Processing frame 95 / 200Processing frame 96 / 200Processing frame 97 / 200Processing frame 98 / 200Processing frame 99 / 200Processing frame 100 / 200Processing frame 101 / 200Processing frame 102 / 200Processing frame 103 / 200Processing frame 104 / 200Processing frame 105 / 200Processing frame 106 / 200Processing frame 107 / 200Processing frame 108 / 200Processing frame 109 / 200Processing frame 110 / 200Processing frame 111 / 200Processing frame 112 / 200Processing frame 113 / 200Processing frame 114 / 200Processing frame 115 / 200Processing frame 116 / 200Processing frame 117 / 200Processing frame 118 / 200Processing frame 119 / 200Processing frame 120 / 200Processing frame 121 / 200Processing frame 122 / 200Processing frame 123 / 200Processing frame 124 / 200Processing frame 125 / 200Processing frame 126 / 200Processing frame 127 / 200Processing frame 128 / 200Processing frame 129 / 200Processing frame 130 / 200Processing frame 131 / 200Processing frame 132 / 200Processing frame 133 / 200Processing frame 134 / 200Processing frame 135 / 200Processing frame 136 / 200Processing frame 137 / 200Processing frame 138 / 200Processing frame 139 / 200Processing frame 140 / 200Processing frame 141 / 200Processing frame 142 / 200Processing frame 143 / 200Processing frame 144 / 200Processing frame 145 / 200Processing frame 146 / 200Processing frame 147 / 200Processing frame 148 / 200Processing frame 149 / 200Processing frame 150 / 200Processing frame 151 / 200Processing frame 152 / 200Processing frame 153 / 200Processing frame 154 / 200Processing frame 155 / 200Processing frame 156 / 200Processing frame 157 / 200Processing frame 158 / 200Processing frame 159 / 200Processing frame 160 / 200Processing frame 161 / 200Processing frame 162 / 200Processing frame 163 / 200Processing frame 164 / 200Processing frame 165 / 200Processing frame 166 / 200Processing frame 167 / 200Processing frame 168 / 200Processing frame 169 / 200Processing frame 170 / 200Processing frame 171 / 200Processing frame 172 / 200Processing frame 173 / 200Processing frame 174 / 200Processing frame 175 / 200Processing frame 176 / 200Processing frame 177 / 200Processing frame 178 / 200Processing frame 179 / 200Processing frame 180 / 200Processing frame 181 / 200Processing frame 182 / 200Processing frame 183 / 200Processing frame 184 / 200Processing frame 185 / 200Processing frame 186 / 200Processing frame 187 / 200Processing frame 188 / 200Processing frame 189 / 200Processing frame 190 / 200Processing frame 191 / 200Processing frame 192 / 200Processing frame 193 / 200Processing frame 194 / 200Processing frame 195 / 200Processing frame 196 / 200Processing frame 197 / 200Processing frame 198 / 200Processing frame 199 / 200Processing frame 200 / 200

Tracking runtime (average per frame):
------------------------------------
MGVF computation: 3.40533 seconds
 Snake evolution: 0.00446 seconds
           Total: 0.53992 seconds

Total application run time: 108.11864 seconds
.......................

OMP_NUM_THREADS= 14

Num of threads: 14
Detecting cells in frame 0
Cells detected: 36

Detection runtime
-----------------
GICOV computation: 0.05915 seconds
   GICOV dilation: 0.01478 seconds
            Total: 0.08916 seconds

Tracking cells across 200 frames
Processing frame 1 / 200Processing frame 2 / 200Processing frame 3 / 200Processing frame 4 / 200Processing frame 5 / 200Processing frame 6 / 200Processing frame 7 / 200Processing frame 8 / 200Processing frame 9 / 200Processing frame 10 / 200Processing frame 11 / 200Processing frame 12 / 200Processing frame 13 / 200Processing frame 14 / 200Processing frame 15 / 200Processing frame 16 / 200Processing frame 17 / 200Processing frame 18 / 200Processing frame 19 / 200Processing frame 20 / 200Processing frame 21 / 200Processing frame 22 / 200Processing frame 23 / 200Processing frame 24 / 200Processing frame 25 / 200Processing frame 26 / 200Processing frame 27 / 200Processing frame 28 / 200Processing frame 29 / 200Processing frame 30 / 200Processing frame 31 / 200Processing frame 32 / 200Processing frame 33 / 200Processing frame 34 / 200Processing frame 35 / 200Processing frame 36 / 200Processing frame 37 / 200Processing frame 38 / 200Processing frame 39 / 200Processing frame 40 / 200Processing frame 41 / 200Processing frame 42 / 200Processing frame 43 / 200Processing frame 44 / 200Processing frame 45 / 200Processing frame 46 / 200Processing frame 47 / 200Processing frame 48 / 200Processing frame 49 / 200Processing frame 50 / 200Processing frame 51 / 200Processing frame 52 / 200Processing frame 53 / 200Processing frame 54 / 200Processing frame 55 / 200Processing frame 56 / 200Processing frame 57 / 200Processing frame 58 / 200Processing frame 59 / 200Processing frame 60 / 200Processing frame 61 / 200Processing frame 62 / 200Processing frame 63 / 200Processing frame 64 / 200Processing frame 65 / 200Processing frame 66 / 200Processing frame 67 / 200Processing frame 68 / 200Processing frame 69 / 200Processing frame 70 / 200Processing frame 71 / 200Processing frame 72 / 200Processing frame 73 / 200Processing frame 74 / 200Processing frame 75 / 200Processing frame 76 / 200Processing frame 77 / 200Processing frame 78 / 200Processing frame 79 / 200Processing frame 80 / 200Processing frame 81 / 200Processing frame 82 / 200Processing frame 83 / 200Processing frame 84 / 200Processing frame 85 / 200Processing frame 86 / 200Processing frame 87 / 200Processing frame 88 / 200Processing frame 89 / 200Processing frame 90 / 200Processing frame 91 / 200Processing frame 92 / 200Processing frame 93 / 200Processing frame 94 / 200Processing frame 95 / 200Processing frame 96 / 200Processing frame 97 / 200Processing frame 98 / 200Processing frame 99 / 200Processing frame 100 / 200Processing frame 101 / 200Processing frame 102 / 200Processing frame 103 / 200Processing frame 104 / 200Processing frame 105 / 200Processing frame 106 / 200Processing frame 107 / 200Processing frame 108 / 200Processing frame 109 / 200Processing frame 110 / 200Processing frame 111 / 200Processing frame 112 / 200Processing frame 113 / 200Processing frame 114 / 200Processing frame 115 / 200Processing frame 116 / 200Processing frame 117 / 200Processing frame 118 / 200Processing frame 119 / 200Processing frame 120 / 200Processing frame 121 / 200Processing frame 122 / 200Processing frame 123 / 200Processing frame 124 / 200Processing frame 125 / 200Processing frame 126 / 200Processing frame 127 / 200Processing frame 128 / 200Processing frame 129 / 200Processing frame 130 / 200Processing frame 131 / 200Processing frame 132 / 200Processing frame 133 / 200Processing frame 134 / 200Processing frame 135 / 200Processing frame 136 / 200Processing frame 137 / 200Processing frame 138 / 200Processing frame 139 / 200Processing frame 140 / 200Processing frame 141 / 200Processing frame 142 / 200Processing frame 143 / 200Processing frame 144 / 200Processing frame 145 / 200Processing frame 146 / 200Processing frame 147 / 200Processing frame 148 / 200Processing frame 149 / 200Processing frame 150 / 200Processing frame 151 / 200Processing frame 152 / 200Processing frame 153 / 200Processing frame 154 / 200Processing frame 155 / 200Processing frame 156 / 200Processing frame 157 / 200Processing frame 158 / 200Processing frame 159 / 200Processing frame 160 / 200Processing frame 161 / 200Processing frame 162 / 200Processing frame 163 / 200Processing frame 164 / 200Processing frame 165 / 200Processing frame 166 / 200Processing frame 167 / 200Processing frame 168 / 200Processing frame 169 / 200Processing frame 170 / 200Processing frame 171 / 200Processing frame 172 / 200Processing frame 173 / 200Processing frame 174 / 200Processing frame 175 / 200Processing frame 176 / 200Processing frame 177 / 200Processing frame 178 / 200Processing frame 179 / 200Processing frame 180 / 200Processing frame 181 / 200Processing frame 182 / 200Processing frame 183 / 200Processing frame 184 / 200Processing frame 185 / 200Processing frame 186 / 200Processing frame 187 / 200Processing frame 188 / 200Processing frame 189 / 200Processing frame 190 / 200Processing frame 191 / 200Processing frame 192 / 200Processing frame 193 / 200Processing frame 194 / 200Processing frame 195 / 200Processing frame 196 / 200Processing frame 197 / 200Processing frame 198 / 200Processing frame 199 / 200Processing frame 200 / 200

Tracking runtime (average per frame):
------------------------------------
MGVF computation: 3.39546 seconds
 Snake evolution: 0.00438 seconds
           Total: 0.33340 seconds

Total application run time: 66.76984 seconds
.......................

OMP_NUM_THREADS= 28

Num of threads: 28
Detecting cells in frame 0
Cells detected: 36

Detection runtime
-----------------
GICOV computation: 0.03517 seconds
   GICOV dilation: 0.01154 seconds
            Total: 0.06240 seconds

Tracking cells across 200 frames
Processing frame 1 / 200Processing frame 2 / 200Processing frame 3 / 200Processing frame 4 / 200Processing frame 5 / 200Processing frame 6 / 200Processing frame 7 / 200Processing frame 8 / 200Processing frame 9 / 200Processing frame 10 / 200Processing frame 11 / 200Processing frame 12 / 200Processing frame 13 / 200Processing frame 14 / 200Processing frame 15 / 200Processing frame 16 / 200Processing frame 17 / 200Processing frame 18 / 200Processing frame 19 / 200Processing frame 20 / 200Processing frame 21 / 200Processing frame 22 / 200Processing frame 23 / 200Processing frame 24 / 200Processing frame 25 / 200Processing frame 26 / 200Processing frame 27 / 200Processing frame 28 / 200Processing frame 29 / 200Processing frame 30 / 200Processing frame 31 / 200Processing frame 32 / 200Processing frame 33 / 200Processing frame 34 / 200Processing frame 35 / 200Processing frame 36 / 200Processing frame 37 / 200Processing frame 38 / 200Processing frame 39 / 200Processing frame 40 / 200Processing frame 41 / 200Processing frame 42 / 200Processing frame 43 / 200Processing frame 44 / 200Processing frame 45 / 200Processing frame 46 / 200Processing frame 47 / 200Processing frame 48 / 200Processing frame 49 / 200Processing frame 50 / 200Processing frame 51 / 200Processing frame 52 / 200Processing frame 53 / 200Processing frame 54 / 200Processing frame 55 / 200Processing frame 56 / 200Processing frame 57 / 200Processing frame 58 / 200Processing frame 59 / 200Processing frame 60 / 200Processing frame 61 / 200Processing frame 62 / 200Processing frame 63 / 200Processing frame 64 / 200Processing frame 65 / 200Processing frame 66 / 200Processing frame 67 / 200Processing frame 68 / 200Processing frame 69 / 200Processing frame 70 / 200Processing frame 71 / 200Processing frame 72 / 200Processing frame 73 / 200Processing frame 74 / 200Processing frame 75 / 200Processing frame 76 / 200Processing frame 77 / 200Processing frame 78 / 200Processing frame 79 / 200Processing frame 80 / 200Processing frame 81 / 200Processing frame 82 / 200Processing frame 83 / 200Processing frame 84 / 200Processing frame 85 / 200Processing frame 86 / 200Processing frame 87 / 200Processing frame 88 / 200Processing frame 89 / 200Processing frame 90 / 200Processing frame 91 / 200Processing frame 92 / 200Processing frame 93 / 200Processing frame 94 / 200Processing frame 95 / 200Processing frame 96 / 200Processing frame 97 / 200Processing frame 98 / 200Processing frame 99 / 200Processing frame 100 / 200Processing frame 101 / 200Processing frame 102 / 200Processing frame 103 / 200Processing frame 104 / 200Processing frame 105 / 200Processing frame 106 / 200Processing frame 107 / 200Processing frame 108 / 200Processing frame 109 / 200Processing frame 110 / 200Processing frame 111 / 200Processing frame 112 / 200Processing frame 113 / 200Processing frame 114 / 200Processing frame 115 / 200Processing frame 116 / 200Processing frame 117 / 200Processing frame 118 / 200Processing frame 119 / 200Processing frame 120 / 200Processing frame 121 / 200Processing frame 122 / 200Processing frame 123 / 200Processing frame 124 / 200Processing frame 125 / 200Processing frame 126 / 200Processing frame 127 / 200Processing frame 128 / 200Processing frame 129 / 200Processing frame 130 / 200Processing frame 131 / 200Processing frame 132 / 200Processing frame 133 / 200Processing frame 134 / 200Processing frame 135 / 200Processing frame 136 / 200Processing frame 137 / 200Processing frame 138 / 200Processing frame 139 / 200Processing frame 140 / 200Processing frame 141 / 200Processing frame 142 / 200Processing frame 143 / 200Processing frame 144 / 200Processing frame 145 / 200Processing frame 146 / 200Processing frame 147 / 200Processing frame 148 / 200Processing frame 149 / 200Processing frame 150 / 200Processing frame 151 / 200Processing frame 152 / 200Processing frame 153 / 200Processing frame 154 / 200Processing frame 155 / 200Processing frame 156 / 200Processing frame 157 / 200Processing frame 158 / 200Processing frame 159 / 200Processing frame 160 / 200Processing frame 161 / 200Processing frame 162 / 200Processing frame 163 / 200Processing frame 164 / 200Processing frame 165 / 200Processing frame 166 / 200Processing frame 167 / 200Processing frame 168 / 200Processing frame 169 / 200Processing frame 170 / 200Processing frame 171 / 200Processing frame 172 / 200Processing frame 173 / 200Processing frame 174 / 200Processing frame 175 / 200Processing frame 176 / 200Processing frame 177 / 200Processing frame 178 / 200Processing frame 179 / 200Processing frame 180 / 200Processing frame 181 / 200Processing frame 182 / 200Processing frame 183 / 200Processing frame 184 / 200Processing frame 185 / 200Processing frame 186 / 200Processing frame 187 / 200Processing frame 188 / 200Processing frame 189 / 200Processing frame 190 / 200Processing frame 191 / 200Processing frame 192 / 200Processing frame 193 / 200Processing frame 194 / 200Processing frame 195 / 200Processing frame 196 / 200Processing frame 197 / 200Processing frame 198 / 200Processing frame 199 / 200Processing frame 200 / 200

Tracking runtime (average per frame):
------------------------------------
MGVF computation: 3.48692 seconds
 Snake evolution: 0.00450 seconds
           Total: 0.23789 seconds

Total application run time: 47.64033 seconds
.......................

OMP_NUM_THREADS= 42

Num of threads: 42
Detecting cells in frame 0
Cells detected: 36

Detection runtime
-----------------
GICOV computation: 0.02952 seconds
   GICOV dilation: 0.01066 seconds
            Total: 0.05494 seconds

Tracking cells across 200 frames
Processing frame 1 / 200Processing frame 2 / 200Processing frame 3 / 200Processing frame 4 / 200Processing frame 5 / 200Processing frame 6 / 200Processing frame 7 / 200Processing frame 8 / 200Processing frame 9 / 200Processing frame 10 / 200Processing frame 11 / 200Processing frame 12 / 200Processing frame 13 / 200Processing frame 14 / 200Processing frame 15 / 200Processing frame 16 / 200Processing frame 17 / 200Processing frame 18 / 200Processing frame 19 / 200Processing frame 20 / 200Processing frame 21 / 200Processing frame 22 / 200Processing frame 23 / 200Processing frame 24 / 200Processing frame 25 / 200Processing frame 26 / 200Processing frame 27 / 200Processing frame 28 / 200Processing frame 29 / 200Processing frame 30 / 200Processing frame 31 / 200Processing frame 32 / 200Processing frame 33 / 200Processing frame 34 / 200Processing frame 35 / 200Processing frame 36 / 200Processing frame 37 / 200Processing frame 38 / 200Processing frame 39 / 200Processing frame 40 / 200Processing frame 41 / 200Processing frame 42 / 200Processing frame 43 / 200Processing frame 44 / 200Processing frame 45 / 200Processing frame 46 / 200Processing frame 47 / 200Processing frame 48 / 200Processing frame 49 / 200Processing frame 50 / 200Processing frame 51 / 200Processing frame 52 / 200Processing frame 53 / 200Processing frame 54 / 200Processing frame 55 / 200Processing frame 56 / 200Processing frame 57 / 200Processing frame 58 / 200Processing frame 59 / 200Processing frame 60 / 200Processing frame 61 / 200Processing frame 62 / 200Processing frame 63 / 200Processing frame 64 / 200Processing frame 65 / 200Processing frame 66 / 200Processing frame 67 / 200Processing frame 68 / 200Processing frame 69 / 200Processing frame 70 / 200Processing frame 71 / 200Processing frame 72 / 200Processing frame 73 / 200Processing frame 74 / 200Processing frame 75 / 200Processing frame 76 / 200Processing frame 77 / 200Processing frame 78 / 200Processing frame 79 / 200Processing frame 80 / 200Processing frame 81 / 200Processing frame 82 / 200Processing frame 83 / 200Processing frame 84 / 200Processing frame 85 / 200Processing frame 86 / 200Processing frame 87 / 200Processing frame 88 / 200Processing frame 89 / 200Processing frame 90 / 200Processing frame 91 / 200Processing frame 92 / 200Processing frame 93 / 200Processing frame 94 / 200Processing frame 95 / 200Processing frame 96 / 200Processing frame 97 / 200Processing frame 98 / 200Processing frame 99 / 200Processing frame 100 / 200Processing frame 101 / 200Processing frame 102 / 200Processing frame 103 / 200Processing frame 104 / 200Processing frame 105 / 200Processing frame 106 / 200Processing frame 107 / 200Processing frame 108 / 200Processing frame 109 / 200Processing frame 110 / 200Processing frame 111 / 200Processing frame 112 / 200Processing frame 113 / 200Processing frame 114 / 200Processing frame 115 / 200Processing frame 116 / 200Processing frame 117 / 200Processing frame 118 / 200Processing frame 119 / 200Processing frame 120 / 200Processing frame 121 / 200Processing frame 122 / 200Processing frame 123 / 200Processing frame 124 / 200Processing frame 125 / 200Processing frame 126 / 200Processing frame 127 / 200Processing frame 128 / 200Processing frame 129 / 200Processing frame 130 / 200Processing frame 131 / 200Processing frame 132 / 200Processing frame 133 / 200Processing frame 134 / 200Processing frame 135 / 200Processing frame 136 / 200Processing frame 137 / 200Processing frame 138 / 200Processing frame 139 / 200Processing frame 140 / 200Processing frame 141 / 200Processing frame 142 / 200Processing frame 143 / 200Processing frame 144 / 200Processing frame 145 / 200Processing frame 146 / 200Processing frame 147 / 200Processing frame 148 / 200Processing frame 149 / 200Processing frame 150 / 200Processing frame 151 / 200Processing frame 152 / 200Processing frame 153 / 200Processing frame 154 / 200Processing frame 155 / 200Processing frame 156 / 200Processing frame 157 / 200Processing frame 158 / 200Processing frame 159 / 200Processing frame 160 / 200Processing frame 161 / 200Processing frame 162 / 200Processing frame 163 / 200Processing frame 164 / 200Processing frame 165 / 200Processing frame 166 / 200Processing frame 167 / 200Processing frame 168 / 200Processing frame 169 / 200Processing frame 170 / 200Processing frame 171 / 200Processing frame 172 / 200Processing frame 173 / 200Processing frame 174 / 200Processing frame 175 / 200Processing frame 176 / 200Processing frame 177 / 200Processing frame 178 / 200Processing frame 179 / 200Processing frame 180 / 200Processing frame 181 / 200Processing frame 182 / 200Processing frame 183 / 200Processing frame 184 / 200Processing frame 185 / 200Processing frame 186 / 200Processing frame 187 / 200Processing frame 188 / 200Processing frame 189 / 200Processing frame 190 / 200Processing frame 191 / 200Processing frame 192 / 200Processing frame 193 / 200Processing frame 194 / 200Processing frame 195 / 200Processing frame 196 / 200Processing frame 197 / 200Processing frame 198 / 200Processing frame 199 / 200Processing frame 200 / 200

Tracking runtime (average per frame):
------------------------------------
MGVF computation: 4.24277 seconds
 Snake evolution: 0.00472 seconds
           Total: 0.16971 seconds

Total application run time: 33.99668 seconds
.......................

OMP_NUM_THREADS= 56

Num of threads: 56
Detecting cells in frame 0
Cells detected: 36

Detection runtime
-----------------
GICOV computation: 0.03205 seconds
   GICOV dilation: 0.02068 seconds
            Total: 0.06799 seconds

Tracking cells across 200 frames
Processing frame 1 / 200Processing frame 2 / 200Processing frame 3 / 200Processing frame 4 / 200Processing frame 5 / 200Processing frame 6 / 200Processing frame 7 / 200Processing frame 8 / 200Processing frame 9 / 200Processing frame 10 / 200Processing frame 11 / 200Processing frame 12 / 200Processing frame 13 / 200Processing frame 14 / 200Processing frame 15 / 200Processing frame 16 / 200Processing frame 17 / 200Processing frame 18 / 200Processing frame 19 / 200Processing frame 20 / 200Processing frame 21 / 200Processing frame 22 / 200Processing frame 23 / 200Processing frame 24 / 200Processing frame 25 / 200Processing frame 26 / 200Processing frame 27 / 200Processing frame 28 / 200Processing frame 29 / 200Processing frame 30 / 200Processing frame 31 / 200Processing frame 32 / 200Processing frame 33 / 200Processing frame 34 / 200Processing frame 35 / 200Processing frame 36 / 200Processing frame 37 / 200Processing frame 38 / 200Processing frame 39 / 200Processing frame 40 / 200Processing frame 41 / 200Processing frame 42 / 200Processing frame 43 / 200Processing frame 44 / 200Processing frame 45 / 200Processing frame 46 / 200Processing frame 47 / 200Processing frame 48 / 200Processing frame 49 / 200Processing frame 50 / 200Processing frame 51 / 200Processing frame 52 / 200Processing frame 53 / 200Processing frame 54 / 200Processing frame 55 / 200Processing frame 56 / 200Processing frame 57 / 200Processing frame 58 / 200Processing frame 59 / 200Processing frame 60 / 200Processing frame 61 / 200Processing frame 62 / 200Processing frame 63 / 200Processing frame 64 / 200Processing frame 65 / 200Processing frame 66 / 200Processing frame 67 / 200Processing frame 68 / 200Processing frame 69 / 200Processing frame 70 / 200Processing frame 71 / 200Processing frame 72 / 200Processing frame 73 / 200Processing frame 74 / 200Processing frame 75 / 200Processing frame 76 / 200Processing frame 77 / 200Processing frame 78 / 200Processing frame 79 / 200Processing frame 80 / 200Processing frame 81 / 200Processing frame 82 / 200Processing frame 83 / 200Processing frame 84 / 200Processing frame 85 / 200Processing frame 86 / 200Processing frame 87 / 200Processing frame 88 / 200Processing frame 89 / 200Processing frame 90 / 200Processing frame 91 / 200Processing frame 92 / 200Processing frame 93 / 200Processing frame 94 / 200Processing frame 95 / 200Processing frame 96 / 200Processing frame 97 / 200Processing frame 98 / 200Processing frame 99 / 200Processing frame 100 / 200Processing frame 101 / 200Processing frame 102 / 200Processing frame 103 / 200Processing frame 104 / 200Processing frame 105 / 200Processing frame 106 / 200Processing frame 107 / 200Processing frame 108 / 200Processing frame 109 / 200Processing frame 110 / 200Processing frame 111 / 200Processing frame 112 / 200Processing frame 113 / 200Processing frame 114 / 200Processing frame 115 / 200Processing frame 116 / 200Processing frame 117 / 200Processing frame 118 / 200Processing frame 119 / 200Processing frame 120 / 200Processing frame 121 / 200Processing frame 122 / 200Processing frame 123 / 200Processing frame 124 / 200Processing frame 125 / 200Processing frame 126 / 200Processing frame 127 / 200Processing frame 128 / 200Processing frame 129 / 200Processing frame 130 / 200Processing frame 131 / 200Processing frame 132 / 200Processing frame 133 / 200Processing frame 134 / 200Processing frame 135 / 200Processing frame 136 / 200Processing frame 137 / 200Processing frame 138 / 200Processing frame 139 / 200Processing frame 140 / 200Processing frame 141 / 200Processing frame 142 / 200Processing frame 143 / 200Processing frame 144 / 200Processing frame 145 / 200Processing frame 146 / 200Processing frame 147 / 200Processing frame 148 / 200Processing frame 149 / 200Processing frame 150 / 200Processing frame 151 / 200Processing frame 152 / 200Processing frame 153 / 200Processing frame 154 / 200Processing frame 155 / 200Processing frame 156 / 200Processing frame 157 / 200Processing frame 158 / 200Processing frame 159 / 200Processing frame 160 / 200Processing frame 161 / 200Processing frame 162 / 200Processing frame 163 / 200Processing frame 164 / 200Processing frame 165 / 200Processing frame 166 / 200Processing frame 167 / 200Processing frame 168 / 200Processing frame 169 / 200Processing frame 170 / 200Processing frame 171 / 200Processing frame 172 / 200Processing frame 173 / 200Processing frame 174 / 200Processing frame 175 / 200Processing frame 176 / 200Processing frame 177 / 200Processing frame 178 / 200Processing frame 179 / 200Processing frame 180 / 200Processing frame 181 / 200Processing frame 182 / 200Processing frame 183 / 200Processing frame 184 / 200Processing frame 185 / 200Processing frame 186 / 200Processing frame 187 / 200Processing frame 188 / 200Processing frame 189 / 200Processing frame 190 / 200Processing frame 191 / 200Processing frame 192 / 200Processing frame 193 / 200Processing frame 194 / 200Processing frame 195 / 200Processing frame 196 / 200Processing frame 197 / 200Processing frame 198 / 200Processing frame 199 / 200Processing frame 200 / 200

Tracking runtime (average per frame):
------------------------------------
MGVF computation: 4.35523 seconds
 Snake evolution: 0.00475 seconds
           Total: 0.17092 seconds

Total application run time: 34.25246 seconds
-------------------------

Test1: 10 frames

-------------------------

OMP_NUM_THREADS= 1

Num of threads: 1
Detecting cells in frame 0
Cells detected: 36

Detection runtime
-----------------
GICOV computation: 0.53869 seconds
   GICOV dilation: 0.19237 seconds
            Total: 0.74397 seconds

Tracking cells across 300 frames
Processing frame 1 / 300Processing frame 2 / 300Processing frame 3 / 300Processing frame 4 / 300Processing frame 5 / 300Processing frame 6 / 300Processing frame 7 / 300Processing frame 8 / 300Processing frame 9 / 300Processing frame 10 / 300Processing frame 11 / 300Processing frame 12 / 300Processing frame 13 / 300Processing frame 14 / 300Processing frame 15 / 300Processing frame 16 / 300Processing frame 17 / 300Processing frame 18 / 300Processing frame 19 / 300Processing frame 20 / 300Processing frame 21 / 300Processing frame 22 / 300Processing frame 23 / 300Processing frame 24 / 300Processing frame 25 / 300Processing frame 26 / 300Processing frame 27 / 300Processing frame 28 / 300Processing frame 29 / 300Processing frame 30 / 300Processing frame 31 / 300Processing frame 32 / 300Processing frame 33 / 300Processing frame 34 / 300Processing frame 35 / 300Processing frame 36 / 300Processing frame 37 / 300Processing frame 38 / 300Processing frame 39 / 300Processing frame 40 / 300Processing frame 41 / 300Processing frame 42 / 300Processing frame 43 / 300Processing frame 44 / 300Processing frame 45 / 300Processing frame 46 / 300Processing frame 47 / 300Processing frame 48 / 300Processing frame 49 / 300Processing frame 50 / 300Processing frame 51 / 300Processing frame 52 / 300Processing frame 53 / 300Processing frame 54 / 300Processing frame 55 / 300Processing frame 56 / 300Processing frame 57 / 300Processing frame 58 / 300Processing frame 59 / 300Processing frame 60 / 300Processing frame 61 / 300Processing frame 62 / 300Processing frame 63 / 300Processing frame 64 / 300Processing frame 65 / 300Processing frame 66 / 300Processing frame 67 / 300Processing frame 68 / 300Processing frame 69 / 300Processing frame 70 / 300Processing frame 71 / 300Processing frame 72 / 300Processing frame 73 / 300Processing frame 74 / 300Processing frame 75 / 300Processing frame 76 / 300Processing frame 77 / 300Processing frame 78 / 300Processing frame 79 / 300Processing frame 80 / 300Processing frame 81 / 300Processing frame 82 / 300Processing frame 83 / 300Processing frame 84 / 300Processing frame 85 / 300Processing frame 86 / 300Processing frame 87 / 300Processing frame 88 / 300Processing frame 89 / 300Processing frame 90 / 300Processing frame 91 / 300Processing frame 92 / 300Processing frame 93 / 300Processing frame 94 / 300Processing frame 95 / 300Processing frame 96 / 300Processing frame 97 / 300Processing frame 98 / 300Processing frame 99 / 300Processing frame 100 / 300Processing frame 101 / 300Processing frame 102 / 300Processing frame 103 / 300Processing frame 104 / 300Processing frame 105 / 300Processing frame 106 / 300Processing frame 107 / 300Processing frame 108 / 300Processing frame 109 / 300Processing frame 110 / 300Processing frame 111 / 300Processing frame 112 / 300Processing frame 113 / 300Processing frame 114 / 300Processing frame 115 / 300Processing frame 116 / 300Processing frame 117 / 300Processing frame 118 / 300Processing frame 119 / 300Processing frame 120 / 300Processing frame 121 / 300Processing frame 122 / 300Processing frame 123 / 300Processing frame 124 / 300Processing frame 125 / 300Processing frame 126 / 300Processing frame 127 / 300Processing frame 128 / 300Processing frame 129 / 300Processing frame 130 / 300Processing frame 131 / 300Processing frame 132 / 300Processing frame 133 / 300Processing frame 134 / 300Processing frame 135 / 300Processing frame 136 / 300Processing frame 137 / 300Processing frame 138 / 300Processing frame 139 / 300Processing frame 140 / 300Processing frame 141 / 300Processing frame 142 / 300Processing frame 143 / 300Processing frame 144 / 300Processing frame 145 / 300Processing frame 146 / 300Processing frame 147 / 300Processing frame 148 / 300Processing frame 149 / 300Processing frame 150 / 300Processing frame 151 / 300Processing frame 152 / 300Processing frame 153 / 300Processing frame 154 / 300Processing frame 155 / 300Processing frame 156 / 300Processing frame 157 / 300Processing frame 158 / 300Processing frame 159 / 300Processing frame 160 / 300Processing frame 161 / 300Processing frame 162 / 300Processing frame 163 / 300Processing frame 164 / 300Processing frame 165 / 300Processing frame 166 / 300Processing frame 167 / 300Processing frame 168 / 300Processing frame 169 / 300Processing frame 170 / 300Processing frame 171 / 300Processing frame 172 / 300Processing frame 173 / 300Processing frame 174 / 300Processing frame 175 / 300Processing frame 176 / 300Processing frame 177 / 300Processing frame 178 / 300Processing frame 179 / 300Processing frame 180 / 300Processing frame 181 / 300Processing frame 182 / 300Processing frame 183 / 300Processing frame 184 / 300Processing frame 185 / 300Processing frame 186 / 300Processing frame 187 / 300Processing frame 188 / 300Processing frame 189 / 300Processing frame 190 / 300Processing frame 191 / 300Processing frame 192 / 300Processing frame 193 / 300Processing frame 194 / 300Processing frame 195 / 300Processing frame 196 / 300Processing frame 197 / 300Processing frame 198 / 300Processing frame 199 / 300Processing frame 200 / 300Processing frame 201 / 300Processing frame 202 / 300Processing frame 203 / 300Processing frame 204 / 300Processing frame 205 / 300Processing frame 206 / 300Processing frame 207 / 300Processing frame 208 / 300Processing frame 209 / 300Processing frame 210 / 300Processing frame 211 / 300Processing frame 212 / 300Processing frame 213 / 300Processing frame 214 / 300Processing frame 215 / 300Processing frame 216 / 300Processing frame 217 / 300Processing frame 218 / 300Processing frame 219 / 300Processing frame 220 / 300Processing frame 221 / 300Processing frame 222 / 300Processing frame 223 / 300Processing frame 224 / 300Processing frame 225 / 300Processing frame 226 / 300Processing frame 227 / 300Processing frame 228 / 300Processing frame 229 / 300Processing frame 230 / 300Processing frame 231 / 300Processing frame 232 / 300Processing frame 233 / 300Processing frame 234 / 300Processing frame 235 / 300Processing frame 236 / 300Processing frame 237 / 300Processing frame 238 / 300Processing frame 239 / 300Processing frame 240 / 300Processing frame 241 / 300Processing frame 242 / 300Processing frame 243 / 300Processing frame 244 / 300Processing frame 245 / 300Processing frame 246 / 300Processing frame 247 / 300Processing frame 248 / 300Processing frame 249 / 300Processing frame 250 / 300Processing frame 251 / 300Processing frame 252 / 300Processing frame 253 / 300Processing frame 254 / 300Processing frame 255 / 300Processing frame 256 / 300Processing frame 257 / 300Processing frame 258 / 300Processing frame 259 / 300Processing frame 260 / 300Processing frame 261 / 300Processing frame 262 / 300Processing frame 263 / 300Processing frame 264 / 300