omp threads,setup var time,read commands time,read image time,resize time,mem alloc time,extract time,kernel time,compress time,save time,free time,total time
1,0.000001000000,0.000010000000,0.020192000000,0.000802000000,0.000024000000,0.005728000000,68.605664000000,0.007797000000,0.041695000000,0.000344000000,68.682257000000
2,0.000001000000,0.000008000000,0.020173000000,0.000619000000,0.000020000000,0.005608000000,40.617051000000,0.007833000000,0.041735000000,0.000545000000,40.693593000000
4,0.000001000000,0.000006000000,0.019195000000,0.000617000000,0.000018000000,0.005603000000,22.400875000000,0.007824000000,0.041116000000,0.000476000000,22.475731000000
8,0.000001000000,0.000007000000,0.020090000000,0.000618000000,0.000020000000,0.006413000000,14.492401000000,0.007814000000,0.038781000000,0.000356000000,14.566501000000
14,0.000002000000,0.000008000000,0.019110000000,0.000619000000,0.000018000000,0.005596000000,11.721017000000,0.007813000000,0.041885000000,0.000342000000,11.796410000000
28,0.000001000000,0.000007000000,0.018954000000,0.000640000000,0.000018000000,0.005597000000,10.076384000000,0.007825000000,0.041525000000,0.000329000000,10.151280000000
42,0.000002000000,0.000007000000,0.019009000000,0.000632000000,0.000018000000,0.005654000000,12.428495000000,0.007889000000,0.042130000000,0.000344000000,12.504180000000
56,0.000002000000,0.000003000000,0.019009000000,0.000662000000,0.000023000000,0.005588000000,14.992387000000,0.008534000000,0.041056000000,0.000356000000,15.067620000000
