3.246765136000,2.804931640000,1.158859252000,0.556640625000,7.767196653000,0.093152999878,83.381068384039
3.587402343000,3.734069824000,1.221038818000,0.645111083000,9.187622068000,0.105998039246,86.677283215698
1.874328613000,2.082824707000,0.600234985000,0.286956787000,4.844345092000,0.045763015747,105.857208335535
1.503967285000,1.412353515000,0.422256469000,0.178451538000,3.517028807000,0.028739213943,122.377348730435
1.806213378000,1.639099121000,0.451843261000,0.193603515000,4.090759275000,0.030666828156,133.393621741869
1.516418457000,1.438171386000,0.291580200000,0.119857788000,3.366027831000,0.018872976303,178.351722427957
1.934448242000,2.344970703000,0.369277954000,0.191314697000,4.840011596000,0.031035900116,155.948806959525
2.668945312000,2.374389648000,0.433700561000,0.218276977000,5.695312498000,0.035440921783,160.698768863851
