Results for given ./../../data/gaussian :
 matrix1024.txt  matrix16.txt  matrix208.txt  matrix3.txt  matrix4.txt

-------------------------------------
 matrix1024.txt:
- - - - - - - - - - - - - - - - - - -

WG size of kernel 1 = 128, WG size of kernel 2= 8 X 8
Read file from ./../../data/gaussian/matrix1024.txt 

Time total (including memory transfers)	2.543612 sec
Time for CUDA kernels:	0.104303 sec
-------------------------------------


matrix16.txt:
- - - - - - - - - - - - - - - 

WG size of kernel 1 = 128, WG size of kernel 2= 8 X 8
Read file from ./../../data/gaussian/matrix16.txt 

Time total (including memory transfers)	2.823339 sec
Time for CUDA kernels:	0.257437 sec
-------------------------------------


matrix208.txt:
- - - - - - - - - - - - - - - 

WG size of kernel 1 = 128, WG size of kernel 2= 8 X 8
Read file from ./../../data/gaussian/matrix208.txt 

Time total (including memory transfers)	2.565080 sec
Time for CUDA kernels:	0.100437 sec
-------------------------------------


matrix3.txt:
- - - - - - - - - - - - - - - 

WG size of kernel 1 = 128, WG size of kernel 2= 8 X 8
Read file from ./../../data/gaussian/matrix3.txt 

Time total (including memory transfers)	2.525787 sec
Time for CUDA kernels:	0.090123 sec
-------------------------------------


matrix4.txt:
- - - - - - - - - - - - - - - 

WG size of kernel 1 = 128, WG size of kernel 2= 8 X 8
Read file from ./../../data/gaussian/matrix4.txt 

Time total (including memory transfers)	2.665078 sec
Time for CUDA kernels:	0.101865 sec
-------------------------------------


