Results for given ./../../data/gaussian :
 matrix1024.txt  matrix16.txt  matrix208.txt  matrix3.txt  matrix4.txt

-------------------------------------
 matrix1024.txt:
- - - - - - - - - - - - - - - - - - -

WG size of kernel 1 = 128, WG size of kernel 2= 4 X 4
Read file from ./../../data/gaussian/matrix1024.txt 

Time total (including memory transfers)	2.553079 sec
Time for CUDA kernels:	0.102302 sec
-------------------------------------


matrix16.txt:
- - - - - - - - - - - - - - - 

WG size of kernel 1 = 128, WG size of kernel 2= 4 X 4
Read file from ./../../data/gaussian/matrix16.txt 

Time total (including memory transfers)	2.554994 sec
Time for CUDA kernels:	0.096419 sec
-------------------------------------


matrix208.txt:
- - - - - - - - - - - - - - - 

WG size of kernel 1 = 128, WG size of kernel 2= 4 X 4
Read file from ./../../data/gaussian/matrix208.txt 

Time total (including memory transfers)	2.566144 sec
Time for CUDA kernels:	0.100562 sec
-------------------------------------


matrix3.txt:
- - - - - - - - - - - - - - - 

WG size of kernel 1 = 128, WG size of kernel 2= 4 X 4
Read file from ./../../data/gaussian/matrix3.txt 

Time total (including memory transfers)	2.668157 sec
Time for CUDA kernels:	0.094562 sec
-------------------------------------


matrix4.txt:
- - - - - - - - - - - - - - - 

WG size of kernel 1 = 128, WG size of kernel 2= 4 X 4
Read file from ./../../data/gaussian/matrix4.txt 

Time total (including memory transfers)	2.554311 sec
Time for CUDA kernels:	0.094607 sec
-------------------------------------


