Results for given ./../../data/gaussian :
 matrix1024.txt  matrix16.txt  matrix208.txt  matrix3.txt  matrix4.txt

-------------------------------------
 matrix1024.txt:
- - - - - - - - - - - - - - - - - - -

WG size of kernel 1 = 192, WG size of kernel 2= 8 X 8
Read file from ./../../data/gaussian/matrix1024.txt 

Time total (including memory transfers)	0.918686 sec
Time for CUDA kernels:	0.228269 sec
-------------------------------------


matrix16.txt:
- - - - - - - - - - - - - - - 

WG size of kernel 1 = 192, WG size of kernel 2= 8 X 8
Read file from ./../../data/gaussian/matrix16.txt 

Time total (including memory transfers)	0.833440 sec
Time for CUDA kernels:	0.149917 sec
-------------------------------------


matrix208.txt:
- - - - - - - - - - - - - - - 

WG size of kernel 1 = 192, WG size of kernel 2= 8 X 8
Read file from ./../../data/gaussian/matrix208.txt 

Time total (including memory transfers)	0.835682 sec
Time for CUDA kernels:	0.150363 sec
-------------------------------------


matrix3.txt:
- - - - - - - - - - - - - - - 

WG size of kernel 1 = 192, WG size of kernel 2= 8 X 8
Read file from ./../../data/gaussian/matrix3.txt 

Time total (including memory transfers)	0.814138 sec
Time for CUDA kernels:	0.135902 sec
-------------------------------------


matrix4.txt:
- - - - - - - - - - - - - - - 

WG size of kernel 1 = 192, WG size of kernel 2= 8 X 8
Read file from ./../../data/gaussian/matrix4.txt 

Time total (including memory transfers)	0.821189 sec
Time for CUDA kernels:	0.136029 sec
-------------------------------------


