Results for given ./../../data/gaussian :
 matrix1024.txt  matrix16.txt  matrix208.txt  matrix3.txt  matrix4.txt

-------------------------------------
 matrix1024.txt:
- - - - - - - - - - - - - - - - - - -

WG size of kernel 1 = 256, WG size of kernel 2= 16 X 16
Read file from ./../../data/gaussian/matrix1024.txt 

Time total (including memory transfers)	2.659024 sec
Time for CUDA kernels:	0.109820 sec
-------------------------------------


matrix16.txt:
- - - - - - - - - - - - - - - 

WG size of kernel 1 = 256, WG size of kernel 2= 16 X 16
Read file from ./../../data/gaussian/matrix16.txt 

Time total (including memory transfers)	2.618093 sec
Time for CUDA kernels:	0.104166 sec
-------------------------------------


matrix208.txt:
- - - - - - - - - - - - - - - 

WG size of kernel 1 = 256, WG size of kernel 2= 16 X 16
Read file from ./../../data/gaussian/matrix208.txt 

Time total (including memory transfers)	2.574987 sec
Time for CUDA kernels:	0.095061 sec
-------------------------------------


matrix3.txt:
- - - - - - - - - - - - - - - 

WG size of kernel 1 = 256, WG size of kernel 2= 16 X 16
Read file from ./../../data/gaussian/matrix3.txt 

Time total (including memory transfers)	2.614154 sec
Time for CUDA kernels:	0.106944 sec
-------------------------------------


matrix4.txt:
- - - - - - - - - - - - - - - 

WG size of kernel 1 = 256, WG size of kernel 2= 16 X 16
Read file from ./../../data/gaussian/matrix4.txt 

Time total (including memory transfers)	2.547516 sec
Time for CUDA kernels:	0.097901 sec
-------------------------------------


