Results for given ./../../data/gaussian :
 matrix1024.txt  matrix16.txt  matrix208.txt  matrix3.txt  matrix4.txt

-------------------------------------
 matrix1024.txt:
- - - - - - - - - - - - - - - - - - -

WG size of kernel 1 = 256, WG size of kernel 2= 4 X 4
Read file from ./../../data/gaussian/matrix1024.txt 

Time total (including memory transfers)	0.955674 sec
Time for CUDA kernels:	0.118487 sec
-------------------------------------


matrix16.txt:
- - - - - - - - - - - - - - - 

WG size of kernel 1 = 256, WG size of kernel 2= 4 X 4
Read file from ./../../data/gaussian/matrix16.txt 

Time total (including memory transfers)	1.147388 sec
Time for CUDA kernels:	0.271422 sec
-------------------------------------


matrix208.txt:
- - - - - - - - - - - - - - - 

WG size of kernel 1 = 256, WG size of kernel 2= 4 X 4
Read file from ./../../data/gaussian/matrix208.txt 

Time total (including memory transfers)	1.011125 sec
Time for CUDA kernels:	0.241051 sec
-------------------------------------


matrix3.txt:
- - - - - - - - - - - - - - - 

WG size of kernel 1 = 256, WG size of kernel 2= 4 X 4
Read file from ./../../data/gaussian/matrix3.txt 

Time total (including memory transfers)	1.173686 sec
Time for CUDA kernels:	0.274216 sec
-------------------------------------


matrix4.txt:
- - - - - - - - - - - - - - - 

WG size of kernel 1 = 256, WG size of kernel 2= 4 X 4
Read file from ./../../data/gaussian/matrix4.txt 

Time total (including memory transfers)	1.083323 sec
Time for CUDA kernels:	0.268019 sec
-------------------------------------


