10000000000 62906276 45563330 55056265 45501469 95239766 53644147 71883748 49447222 198291106 69166085 89974910 57761561 1003014835 113915111 88569993
10000000000 63023241 45720858 55258477 45663271 95486888 53843453 72154676 49627392 198420426 69426483 90320305 57976516 1002263876 114335376 88917888
10000000000 63088965 45735229 55281363 45690101 95537624 53855579 72179706 49653057 198536601 69455762 90352141 58005509 1002867885 114409800 88886783
10000000000 62968637 45607682 55175859 45602612 95355738 53751331 72040716 49557753 198264534 69320999 90177589 57893565 1001995982 114189884 88711481
10000000000 63316717 45884771 55507286 45867771 95905185 54081984 72479160 49849743 199054989 69738920 90728130 58237056 1004417903 114852429 89304916
10000000000 62791282 45514654 55057038 45497424 95144754 53646346 71891331 49446903 197975954 69172207 89989771 57765047 1000592106 113918891 88593401
6684757354 41398056 30012484 36298176 29998420 62741953 35371971 47394588 32601557 131132394 45604685 59323671 38084325 664643571 75101634 58407185
number of instructions: 66684757192
