10000000000 19049983447 7451787544 12793361147 14012555874 1878555446 4101582112 6132332883 8889959092 10330836059 10818233410 11283431198
10000000000 19054399737 7454529379 12800876924 14023537651 1875945984 4102213607 6133435984 8895602110 10334409322 10820890774 11286598789
10000000000 19055279466 7452841544 12802106751 14024675984 1875409468 4102424460 6133687536 8896571023 10334932308 10821228300 11286736987
10000000000 19053561288 7454550987 12801380787 14023510997 1876619401 4102881169 6134226125 8895056330 10334167639 10820701147 11286369183
10000000000 19058670415 7450165881 12802957811 14026544198 1873018445 4101242718 6132296439 8899386719 10336360910 10822254235 11287547009
10000000000 19051127868 7457845817 12799439645 14021284697 1878246265 4103042361 6134421809 8892694880 10332946451 10819885505 11285905820
6684757354 12726898813 4993793286 8552385879 9367123865 1261382094 2744855560 4103165205 5937149067 6903573081 7230246652 7542568263
number of instructions: 66684757192
