omp_threads, total_ins, total_cyc, ipc,,ipc(dw)
1,99243138,62725132,1.582190990448,,0.007063352584324
2,100023712,33243634,1.504403948784,,0.013432178581061
4,103704509,19850401,1.306075692177,,0.023322781138563
6,107270353,15485872,1.154496908188,,0.030924025748391
8,148810742,28572804,0.651015639305,,0.023250559155582
10,162783039,28590944,0.569351732731,,0.025417488682281
12,177191570,33740536,0.437632769346,,0.023444612576482
14,159403595,36045595,0.31587690115,,0.019742306708054
16,183828617,42106354,0.272863537073,,0.019490252439098
18,221700381,50294418,0.244891747832,,0.019678801010283
20,271444518,67465971,0.201171427965,,0.017961734871178
22,314169506,69259225,0.206188157201,,0.020250622750977
24,370129555,79698755,0.193504467607,,0.020732621040585
26,425876623,83541265,0.196069210768,,0.022758033698761
28,519518977,92264014,0.201099529862,,0.025137440338564
30,530029025,92478922,0.191044986248,,0.025586381775344
32,579771202,96914190,0.186947345734,,0.026706762906886
34,681727503,113952313,0.175957888365,,0.026707894491607
36,676251173,116350352,0.161449924111,,0.025947308271941
38,733848310,122109005,0.158152118325,,0.026829376971712
40,885570442,140322274,0.15777438879,,0.028173998044062
42,899700586,136787502,0.15660379827,,0.029363212387739
44,1186285537,153169012,0.17602147162,,0.034575646253388
46,1308219524,159402727,0.178413227201,,0.036638430483958
48,930600134,145322984,0.133409753442,,0.028587803316292
50,1160228278,145554206,0.159422159195,,0.035585303023024
52,1224162928,155293899,0.151593819261,,0.035191421598788
54,1151331834,156952897,0.13584305346,,0.032747877593674
56,1452033449,158933698,0.163144558668,,0.040786140790833
