rm -f srad
g++ -m64 -g -fopenmp -O2 -I/home/users/amarkou/local/include srad.cpp -o srad /home/users/amarkou/local/lib/libpapi.a 
20 ITERATIONS:

OMP_NUM_THREADS=1 

Randomizing the input matrix
Start the SRAD main loop
PAPI measurements:(rapl)> > > > > > > > > > > >
Counting Energy Consumption:
PACKAGE_ENERGY_CNT:PACKAGE0 (J) 0.001360055000
PACKAGE_ENERGY_CNT:PACKAGE1 (J) 0.001014051000
DRAM_ENERGY_CNT:PACKAGE0 (J)    0.002843715000
DRAM_ENERGY_CNT:PACKAGE1 (J)    0.002831227000


Energy in total:
PACKAGE_ENERGY:PACKAGE0 (J) 83.011169433000
PACKAGE_ENERGY:PACKAGE1 (J) 61.892761230000
DRAM_ENERGY:PACKAGE0    (J) 43.391647338000
DRAM_ENERGY:PACKAGE1    (J) 43.201095581000

Total time:  3.272367954254 (s)
Power (W) 70.742861688597
====================================================


Computation took: 3.2723679543 (sec)
Computation Done
------------------------------------------------------------------------------

OMP_NUM_THREADS=2 

Randomizing the input matrix
Start the SRAD main loop
PAPI measurements:(rapl)> > > > > > > > > > > >
Counting Energy Consumption:
PACKAGE_ENERGY_CNT:PACKAGE0 (J) 0.000706346000
PACKAGE_ENERGY_CNT:PACKAGE1 (J) 0.000631512000
DRAM_ENERGY_CNT:PACKAGE0 (J)    0.001523136000
DRAM_ENERGY_CNT:PACKAGE1 (J)    0.001452225000


Energy in total:
PACKAGE_ENERGY:PACKAGE0 (J) 43.111938476000
PACKAGE_ENERGY:PACKAGE1 (J) 38.544433593000
DRAM_ENERGY:PACKAGE0    (J) 23.241210937000
DRAM_ENERGY:PACKAGE1    (J) 22.159194946000

Total time:  1.669382095337 (s)
Power (W) 76.110063901433
====================================================


Computation took: 1.6693820953 (sec)
Computation Done
-----------------------------------------------------------------------------------

OMP_NUM_THREADS=4 

Randomizing the input matrix
Start the SRAD main loop
PAPI measurements:(rapl)> > > > > > > > > > > >
Counting Energy Consumption:
PACKAGE_ENERGY_CNT:PACKAGE0 (J) 0.000415619000
PACKAGE_ENERGY_CNT:PACKAGE1 (J) 0.000319009000
DRAM_ENERGY_CNT:PACKAGE0 (J)    0.000796849000
DRAM_ENERGY_CNT:PACKAGE1 (J)    0.000728851000


Energy in total:
PACKAGE_ENERGY:PACKAGE0 (J) 25.367370605000
PACKAGE_ENERGY:PACKAGE1 (J) 19.470764160000
DRAM_ENERGY:PACKAGE0    (J) 12.158950805000
DRAM_ENERGY:PACKAGE1    (J) 11.121383666000

Total time:  0.836022138596 (s)
Power (W) 81.479264831947
====================================================


Computation took: 0.8360221386 (sec)
Computation Done
-----------------------------------------------------------------------------------

OMP_NUM_THREADS=8 

Randomizing the input matrix
Start the SRAD main loop
PAPI measurements:(rapl)> > > > > > > > > > > >
Counting Energy Consumption:
PACKAGE_ENERGY_CNT:PACKAGE0 (J) 0.000289058000
PACKAGE_ENERGY_CNT:PACKAGE1 (J) 0.000152464000
DRAM_ENERGY_CNT:PACKAGE0 (J)    0.000457494000
DRAM_ENERGY_CNT:PACKAGE1 (J)    0.000371813000


Energy in total:
PACKAGE_ENERGY:PACKAGE0 (J) 17.642700195000
PACKAGE_ENERGY:PACKAGE1 (J) 9.305664062000
DRAM_ENERGY:PACKAGE0    (J) 6.980804443000
DRAM_ENERGY:PACKAGE1    (J) 5.673416137000

Total time:  0.426630973816 (s)
Power (W) 92.826323608861
====================================================


Computation took: 0.4266309738 (sec)
Computation Done
-----------------------------------------------------------------------------------

OMP_NUM_THREADS=10 

Randomizing the input matrix
Start the SRAD main loop
PAPI measurements:(rapl)> > > > > > > > > > > >
Counting Energy Consumption:
PACKAGE_ENERGY_CNT:PACKAGE0 (J) 0.000266646000
PACKAGE_ENERGY_CNT:PACKAGE1 (J) 0.000125143000
DRAM_ENERGY_CNT:PACKAGE0 (J)    0.000385361000
DRAM_ENERGY_CNT:PACKAGE1 (J)    0.000301504000


Energy in total:
PACKAGE_ENERGY:PACKAGE0 (J) 16.274780273000
PACKAGE_ENERGY:PACKAGE1 (J) 7.638122558000
DRAM_ENERGY:PACKAGE0    (J) 5.880142211000
DRAM_ENERGY:PACKAGE1    (J) 4.600585937000

Total time:  0.346590042114 (s)
Power (W) 99.234331053463
====================================================


Computation took: 0.3465900421 (sec)
Computation Done
-----------------------------------------------------------------------------------

OMP_NUM_THREADS=20 

Randomizing the input matrix
Start the SRAD main loop
PAPI measurements:(rapl)> > > > > > > > > > > >
Counting Energy Consumption:
PACKAGE_ENERGY_CNT:PACKAGE0 (J) 0.000223492000
PACKAGE_ENERGY_CNT:PACKAGE1 (J) 0.000145392000
DRAM_ENERGY_CNT:PACKAGE0 (J)    0.000334099000
DRAM_ENERGY_CNT:PACKAGE1 (J)    0.000272073000


Energy in total:
PACKAGE_ENERGY:PACKAGE0 (J) 13.640869140000
PACKAGE_ENERGY:PACKAGE1 (J) 8.874023437000
DRAM_ENERGY:PACKAGE0    (J) 5.097946166000
DRAM_ENERGY:PACKAGE1    (J) 4.151504516000

Total time:  0.300975084305 (s)
Power (W) 105.538115662860
====================================================


Computation took: 0.3009750843 (sec)
Computation Done
-----------------------------------------------------------------------------------

OMP_NUM_THREADS=30 

Randomizing the input matrix
Start the SRAD main loop
PAPI measurements:(rapl)> > > > > > > > > > > >
Counting Energy Consumption:
PACKAGE_ENERGY_CNT:PACKAGE0 (J) 0.000176180000
PACKAGE_ENERGY_CNT:PACKAGE1 (J) 0.000133701000
DRAM_ENERGY_CNT:PACKAGE0 (J)    0.000255226000
DRAM_ENERGY_CNT:PACKAGE1 (J)    0.000210025000


Energy in total:
PACKAGE_ENERGY:PACKAGE0 (J) 10.753173828000
PACKAGE_ENERGY:PACKAGE1 (J) 8.160461425000
DRAM_ENERGY:PACKAGE0    (J) 3.894439697000
DRAM_ENERGY:PACKAGE1    (J) 3.204727172000

Total time:  0.214092969894 (s)
Power (W) 121.502364766249
====================================================


Computation took: 0.2140929699 (sec)
Computation Done
-----------------------------------------------------------------------------------

OMP_NUM_THREADS=40 

Randomizing the input matrix
Start the SRAD main loop
PAPI measurements:(rapl)> > > > > > > > > > > >
Counting Energy Consumption:
PACKAGE_ENERGY_CNT:PACKAGE0 (J) 0.000138410000
PACKAGE_ENERGY_CNT:PACKAGE1 (J) 0.000125074000
DRAM_ENERGY_CNT:PACKAGE0 (J)    0.000201857000
DRAM_ENERGY_CNT:PACKAGE1 (J)    0.000190572000


Energy in total:
PACKAGE_ENERGY:PACKAGE0 (J) 8.447875976000
PACKAGE_ENERGY:PACKAGE1 (J) 7.633911132000
DRAM_ENERGY:PACKAGE0    (J) 3.080093383000
DRAM_ENERGY:PACKAGE1    (J) 2.907897949000

Total time:  0.168256044388 (s)
Power (W) 131.167819380865
====================================================


Computation took: 0.1682560444 (sec)
Computation Done
-----------------------------------------------------------------------------------

OMP_NUM_THREADS=1 

Randomizing the input matrix
Start the SRAD main loop
PAPI measurements:(rapl)> > > > > > > > > > > >
Counting Energy Consumption:
PACKAGE_ENERGY_CNT:PACKAGE0 (J) 0.005569327000
PACKAGE_ENERGY_CNT:PACKAGE1 (J) 0.004154500000
DRAM_ENERGY_CNT:PACKAGE0 (J)    0.011669798000
DRAM_ENERGY_CNT:PACKAGE1 (J)    0.011612369000


Energy in total:
PACKAGE_ENERGY:PACKAGE0 (J) 339.950134277000
PACKAGE_ENERGY:PACKAGE1 (J) 253.570556640000
DRAM_ENERGY:PACKAGE0    (J) 178.066986083000
DRAM_ENERGY:PACKAGE1    (J) 177.190689086000

Total time: 13.406697273254 (s)
Power (W) 70.768985585940
====================================================


Computation took: 13.4066970348 (sec)
Computation Done
-----------------------------------------------------------------------------------

OMP_NUM_THREADS=2 

Randomizing the input matrix
Start the SRAD main loop
PAPI measurements:(rapl)> > > > > > > > > > > >
Counting Energy Consumption:
PACKAGE_ENERGY_CNT:PACKAGE0 (J) 0.002770237000
PACKAGE_ENERGY_CNT:PACKAGE1 (J) 0.002550035000
DRAM_ENERGY_CNT:PACKAGE0 (J)    0.005916006000
DRAM_ENERGY_CNT:PACKAGE1 (J)    0.005856055000


Energy in total:
PACKAGE_ENERGY:PACKAGE0 (J) 169.081848144000
PACKAGE_ENERGY:PACKAGE1 (J) 155.641784667000
DRAM_ENERGY:PACKAGE0    (J) 90.271087646000
DRAM_ENERGY:PACKAGE1    (J) 89.356307983000

Total time:  6.617866992950 (s)
Power (W) 76.210511480096
====================================================


Computation took: 6.6178669930 (sec)
Computation Done
---------------------------------------------------------------------------------------

OMP_NUM_THREADS=4 

Randomizing the input matrix
Start the SRAD main loop
PAPI measurements:(rapl)> > > > > > > > > > > >
Counting Energy Consumption:
PACKAGE_ENERGY_CNT:PACKAGE0 (J) 0.001613539000
PACKAGE_ENERGY_CNT:PACKAGE1 (J) 0.001364161000
DRAM_ENERGY_CNT:PACKAGE0 (J)    0.003248415000
DRAM_ENERGY_CNT:PACKAGE1 (J)    0.002910825000


Energy in total:
PACKAGE_ENERGY:PACKAGE0 (J) 98.482604980000
PACKAGE_ENERGY:PACKAGE1 (J) 83.261779785000
DRAM_ENERGY:PACKAGE0    (J) 49.566879272000
DRAM_ENERGY:PACKAGE1    (J) 44.415664672000

Total time:  3.357835054398 (s)
Power (W) 82.114494679509
====================================================


Computation took: 3.3578350544 (sec)
Computation Done
---------------------------------------------------------------------------------------

OMP_NUM_THREADS=8 

Randomizing the input matrix
Start the SRAD main loop
PAPI measurements:(rapl)> > > > > > > > > > > >
Counting Energy Consumption:
PACKAGE_ENERGY_CNT:PACKAGE0 (J) 0.001085552000
PACKAGE_ENERGY_CNT:PACKAGE1 (J) 0.000743371000
DRAM_ENERGY_CNT:PACKAGE0 (J)    0.001879682000
DRAM_ENERGY_CNT:PACKAGE1 (J)    0.001499629000


Energy in total:
PACKAGE_ENERGY:PACKAGE0 (J) 66.256835937000
PACKAGE_ENERGY:PACKAGE1 (J) 45.371765136000
DRAM_ENERGY:PACKAGE0    (J) 28.681671142000
DRAM_ENERGY:PACKAGE1    (J) 22.882522583000

Total time:  1.721565008163 (s)
Power (W) 94.793280546572
====================================================


Computation took: 1.7215650082 (sec)
Computation Done
---------------------------------------------------------------------------------------

OMP_NUM_THREADS=10 

Randomizing the input matrix
Start the SRAD main loop
PAPI measurements:(rapl)> > > > > > > > > > > >
Counting Energy Consumption:
PACKAGE_ENERGY_CNT:PACKAGE0 (J) 0.000978306000
PACKAGE_ENERGY_CNT:PACKAGE1 (J) 0.000628089000
DRAM_ENERGY_CNT:PACKAGE0 (J)    0.001626402000
DRAM_ENERGY_CNT:PACKAGE1 (J)    0.001230524000


Energy in total:
PACKAGE_ENERGY:PACKAGE0 (J) 59.742858886000
PACKAGE_ENERGY:PACKAGE1 (J) 38.335510253000
DRAM_ENERGY:PACKAGE0    (J) 24.816925048000
DRAM_ENERGY:PACKAGE1    (J) 18.776306152000

Total time:  1.420562028885 (s)
Power (W) 99.729260291583
====================================================


Computation took: 1.4205620289 (sec)
Computation Done
---------------------------------------------------------------------------------------

OMP_NUM_THREADS=20 

Randomizing the input matrix
Start the SRAD main loop
PAPI measurements:(rapl)> > > > > > > > > > > >
Counting Energy Consumption:
PACKAGE_ENERGY_CNT:PACKAGE0 (J) 0.000958289000
PACKAGE_ENERGY_CNT:PACKAGE1 (J) 0.000472677000
DRAM_ENERGY_CNT:PACKAGE0 (J)    0.001439616000
DRAM_ENERGY_CNT:PACKAGE1 (J)    0.001051572000


Energy in total:
PACKAGE_ENERGY:PACKAGE0 (J) 58.489318847000
PACKAGE_ENERGY:PACKAGE1 (J) 28.849914550000
DRAM_ENERGY:PACKAGE0    (J) 21.966796875000
DRAM_ENERGY:PACKAGE1    (J) 16.045715332000

Total time:  1.216753959656 (s)
Power (W) 103.021440455771
====================================================


Computation took: 1.2167539597 (sec)
Computation Done
---------------------------------------------------------------------------------------

OMP_NUM_THREADS=30 

Randomizing the input matrix
Start the SRAD main loop
PAPI measurements:(rapl)> > > > > > > > > > > >
Counting Energy Consumption:
PACKAGE_ENERGY_CNT:PACKAGE0 (J) 0.000679361000
PACKAGE_ENERGY_CNT:PACKAGE1 (J) 0.000513619000
DRAM_ENERGY_CNT:PACKAGE0 (J)    0.001017251000
DRAM_ENERGY_CNT:PACKAGE1 (J)    0.000850380000


Energy in total:
PACKAGE_ENERGY:PACKAGE0 (J) 41.464904785000
PACKAGE_ENERGY:PACKAGE1 (J) 31.348815917000
DRAM_ENERGY:PACKAGE0    (J) 15.522018432000
DRAM_ENERGY:PACKAGE1    (J) 12.975769042000

Total time:  0.840627908707 (s)
Power (W) 120.518849215786
====================================================


Computation took: 0.8406279087 (sec)
Computation Done
---------------------------------------------------------------------------------------

OMP_NUM_THREADS=40 

Randomizing the input matrix
Start the SRAD main loop
PAPI measurements:(rapl)> > > > > > > > > > > >
Counting Energy Consumption:
PACKAGE_ENERGY_CNT:PACKAGE0 (J) 0.000534678000
PACKAGE_ENERGY_CNT:PACKAGE1 (J) 0.000480527000
DRAM_ENERGY_CNT:PACKAGE0 (J)    0.000791765000
DRAM_ENERGY_CNT:PACKAGE1 (J)    0.000738033000


Energy in total:
PACKAGE_ENERGY:PACKAGE0 (J) 32.634155273000
PACKAGE_ENERGY:PACKAGE1 (J) 29.329040527000
DRAM_ENERGY:PACKAGE0    (J) 12.081375122000
DRAM_ENERGY:PACKAGE1    (J) 11.261489868000

Total time:  0.643301963806 (s)
Power (W) 132.606560510525
====================================================


Computation took: 0.6433019638 (sec)
Computation Done
---------------------------------------------------------------------------------------

OMP_NUM_THREADS=1 

Randomizing the input matrix
Start the SRAD main loop
PAPI measurements:(rapl)> > > > > > > > > > > >
Counting Energy Consumption:
PACKAGE_ENERGY_CNT:PACKAGE0 (J) 0.022169213000
PACKAGE_ENERGY_CNT:PACKAGE1 (J) 0.016577582000
DRAM_ENERGY_CNT:PACKAGE0 (J)    0.046461078000
DRAM_ENERGY_CNT:PACKAGE1 (J)    0.046251373000


Energy in total:
PACKAGE_ENERGY:PACKAGE0 (J) 1353.101379394000
PACKAGE_ENERGY:PACKAGE1 (J) 1011.815307617000
DRAM_ENERGY:PACKAGE0    (J) 708.939788818000
DRAM_ENERGY:PACKAGE1    (J) 705.739944458000

Total time: 53.401378631592 (s)
Power (W) 70.777131923164
====================================================


Computation took: 53.4013800621 (sec)
Computation Done
-----------------------------------------------------------------------------------

OMP_NUM_THREADS=2 

Randomizing the input matrix
Start the SRAD main loop
PAPI measurements:(rapl)> > > > > > > > > > > >
Counting Energy Consumption:
PACKAGE_ENERGY_CNT:PACKAGE0 (J) 0.011284294000
PACKAGE_ENERGY_CNT:PACKAGE1 (J) 0.010473579000
DRAM_ENERGY_CNT:PACKAGE0 (J)    0.023950762000
DRAM_ENERGY_CNT:PACKAGE1 (J)    0.024261944000


Energy in total:
PACKAGE_ENERGY:PACKAGE0 (J) 688.738647460000
PACKAGE_ENERGY:PACKAGE1 (J) 639.256530761000
DRAM_ENERGY:PACKAGE0    (J) 365.459625244000
DRAM_ENERGY:PACKAGE1    (J) 370.207885742000

Total time: 27.166887283325 (s)
Power (W) 75.962426894363
====================================================


Computation took: 27.1668870449 (sec)
Computation Done
---------------------------------------------------------------------------------------

OMP_NUM_THREADS=4 

Randomizing the input matrix
Start the SRAD main loop
PAPI measurements:(rapl)> > > > > > > > > > > >
Counting Energy Consumption:
PACKAGE_ENERGY_CNT:PACKAGE0 (J) 0.006410391000
PACKAGE_ENERGY_CNT:PACKAGE1 (J) 0.005583531000
DRAM_ENERGY_CNT:PACKAGE0 (J)    0.012879004000
DRAM_ENERGY_CNT:PACKAGE1 (J)    0.012030057000


Energy in total:
PACKAGE_ENERGY:PACKAGE0 (J) 391.259216308000
PACKAGE_ENERGY:PACKAGE1 (J) 340.791687011000
DRAM_ENERGY:PACKAGE0    (J) 196.518005371000
DRAM_ENERGY:PACKAGE1    (J) 183.564102172000

Total time: 13.530646324158 (s)
Power (W) 82.193635412404
====================================================


Computation took: 13.5306460857 (sec)
Computation Done
---------------------------------------------------------------------------------------

OMP_NUM_THREADS=8 

Randomizing the input matrix
Start the SRAD main loop
PAPI measurements:(rapl)> > > > > > > > > > > >
Counting Energy Consumption:
PACKAGE_ENERGY_CNT:PACKAGE0 (J) 0.004073830000
PACKAGE_ENERGY_CNT:PACKAGE1 (J) 0.003286595000
DRAM_ENERGY_CNT:PACKAGE0 (J)    0.007524003000
DRAM_ENERGY_CNT:PACKAGE1 (J)    0.006125451000


Energy in total:
PACKAGE_ENERGY:PACKAGE0 (J) 248.646850585000
PACKAGE_ENERGY:PACKAGE1 (J) 200.597839355000
DRAM_ENERGY:PACKAGE0    (J) 114.807174682000
DRAM_ENERGY:PACKAGE1    (J) 93.466964721000

Total time:  6.911325931549 (s)
Power (W) 95.136423293472
====================================================


Computation took: 6.9113259315 (sec)
Computation Done
---------------------------------------------------------------------------------------

OMP_NUM_THREADS=10 

Randomizing the input matrix
Start the SRAD main loop
PAPI measurements:(rapl)> > > > > > > > > > > >
Counting Energy Consumption:
PACKAGE_ENERGY_CNT:PACKAGE0 (J) 0.003577883000
PACKAGE_ENERGY_CNT:PACKAGE1 (J) 0.002827981000
DRAM_ENERGY_CNT:PACKAGE0 (J)    0.006442151000
DRAM_ENERGY_CNT:PACKAGE1 (J)    0.004967121000


Energy in total:
PACKAGE_ENERGY:PACKAGE0 (J) 218.343933105000
PACKAGE_ENERGY:PACKAGE1 (J) 172.606262207000
DRAM_ENERGY:PACKAGE0    (J) 98.286575317000
DRAM_ENERGY:PACKAGE1    (J) 75.792251586000

Total time:  5.649324893951 (s)
Power (W) 100.017087496590
====================================================


Computation took: 5.6493248940 (sec)
Computation Done
---------------------------------------------------------------------------------------

OMP_NUM_THREADS=20 

Randomizing the input matrix
Start the SRAD main loop
PAPI measurements:(rapl)> > > > > > > > > > > >
Counting Energy Consumption:
PACKAGE_ENERGY_CNT:PACKAGE0 (J) 0.003284493000
PACKAGE_ENERGY_CNT:PACKAGE1 (J) 0.002363451000
DRAM_ENERGY_CNT:PACKAGE0 (J)    0.005220933000
DRAM_ENERGY_CNT:PACKAGE1 (J)    0.004282631000


Energy in total:
PACKAGE_ENERGY:PACKAGE0 (J) 200.469543457000
PACKAGE_ENERGY:PACKAGE1 (J) 144.253601074000
DRAM_ENERGY:PACKAGE0    (J) 79.665115356000
DRAM_ENERGY:PACKAGE1    (J) 65.347763061000

Total time:  4.561904907227 (s)
Power (W) 107.353404533313
====================================================


Computation took: 4.5619049072 (sec)
Computation Done
---------------------------------------------------------------------------------------

OMP_NUM_THREADS=30 

Randomizing the input matrix
Start the SRAD main loop
PAPI measurements:(rapl)> > > > > > > > > > > >
Counting Energy Consumption:
PACKAGE_ENERGY_CNT:PACKAGE0 (J) 0.002643317000
PACKAGE_ENERGY_CNT:PACKAGE1 (J) 0.002107315000
DRAM_ENERGY_CNT:PACKAGE0 (J)    0.004142765000
DRAM_ENERGY_CNT:PACKAGE1 (J)    0.003394018000


Energy in total:
PACKAGE_ENERGY:PACKAGE0 (J) 161.335266113000
PACKAGE_ENERGY:PACKAGE1 (J) 128.620300292000
DRAM_ENERGY:PACKAGE0    (J) 63.213577270000
DRAM_ENERGY:PACKAGE1    (J) 51.788604736000

Total time:  3.381259202957 (s)
Power (W) 119.765366718066
====================================================


Computation took: 3.3812592030 (sec)
Computation Done
---------------------------------------------------------------------------------------

OMP_NUM_THREADS=40 

Randomizing the input matrix
Start the SRAD main loop
PAPI measurements:(rapl)> > > > > > > > > > > >
Counting Energy Consumption:
PACKAGE_ENERGY_CNT:PACKAGE0 (J) 0.002160061000
PACKAGE_ENERGY_CNT:PACKAGE1 (J) 0.001955047000
DRAM_ENERGY_CNT:PACKAGE0 (J)    0.003271793000
DRAM_ENERGY_CNT:PACKAGE1 (J)    0.002913076000


Energy in total:
PACKAGE_ENERGY:PACKAGE0 (J) 131.839660644000
PACKAGE_ENERGY:PACKAGE1 (J) 119.326599121000
DRAM_ENERGY:PACKAGE0    (J) 49.923599243000
DRAM_ENERGY:PACKAGE1    (J) 44.450012207000

Total time:  2.587002038956 (s)
Power (W) 133.567684142408
====================================================


Computation took: 2.5870020390 (sec)
Computation Done
---------------------------------------------------------------------------------------

OMP_NUM_THREADS=1 

Randomizing the input matrix
Start the SRAD main loop
PAPI measurements:(rapl)> > > > > > > > > > > >
Counting Energy Consumption:
PACKAGE_ENERGY_CNT:PACKAGE0 (J) 0.089286318000
PACKAGE_ENERGY_CNT:PACKAGE1 (J) 0.066684623000
DRAM_ENERGY_CNT:PACKAGE0 (J)    0.186553814000
DRAM_ENERGY_CNT:PACKAGE1 (J)    0.186074363000


Energy in total:
PACKAGE_ENERGY:PACKAGE0 (J) 5449.604370117000
PACKAGE_ENERGY:PACKAGE1 (J) 4070.106384277000
DRAM_ENERGY:PACKAGE0    (J) 2846.585296630000
DRAM_ENERGY:PACKAGE1    (J) 2839.269454956000

Total time: 214.914230346680 (s)
Power (W) 70.751785405051
====================================================


Computation took: 214.9142329693 (sec)
Computation Done
-----------------------------------------------------------------------------------

OMP_NUM_THREADS=2 

Randomizing the input matrix
Start the SRAD main loop
PAPI measurements:(rapl)> > > > > > > > > > > >
Counting Energy Consumption:
PACKAGE_ENERGY_CNT:PACKAGE0 (J) 0.045713320000
PACKAGE_ENERGY_CNT:PACKAGE1 (J) 0.042371441000
DRAM_ENERGY_CNT:PACKAGE0 (J)    0.096949689000
DRAM_ENERGY_CNT:PACKAGE1 (J)    0.097395354000


Energy in total:
PACKAGE_ENERGY:PACKAGE0 (J) 2790.119628906000
PACKAGE_ENERGY:PACKAGE1 (J) 2586.147521972000
DRAM_ENERGY:PACKAGE0    (J) 1479.334854125000
DRAM_ENERGY:PACKAGE1    (J) 1486.135162353000

Total time: 109.531913757324 (s)
Power (W) 76.158051851789
====================================================


Computation took: 109.5319151878 (sec)
Computation Done
---------------------------------------------------------------------------------------

OMP_NUM_THREADS=4 

Randomizing the input matrix
Start the SRAD main loop
PAPI measurements:(rapl)> > > > > > > > > > > >
Counting Energy Consumption:
PACKAGE_ENERGY_CNT:PACKAGE0 (J) 0.025806103000
PACKAGE_ENERGY_CNT:PACKAGE1 (J) 0.023011101000
DRAM_ENERGY_CNT:PACKAGE0 (J)    0.050643310000
DRAM_ENERGY_CNT:PACKAGE1 (J)    0.050704510000


Energy in total:
PACKAGE_ENERGY:PACKAGE0 (J) 1575.105834960000
PACKAGE_ENERGY:PACKAGE1 (J) 1404.486145019000
DRAM_ENERGY:PACKAGE0    (J) 772.755584716000
DRAM_ENERGY:PACKAGE1    (J) 773.689422607000

Total time: 55.130310058594 (s)
Power (W) 82.097071148187
====================================================


Computation took: 55.1303081512 (sec)
Computation Done
---------------------------------------------------------------------------------------

OMP_NUM_THREADS=8 

Randomizing the input matrix
Start the SRAD main loop
PAPI measurements:(rapl)> > > > > > > > > > > >
Counting Energy Consumption:
PACKAGE_ENERGY_CNT:PACKAGE0 (J) 0.016068045000
PACKAGE_ENERGY_CNT:PACKAGE1 (J) 0.013776217000
DRAM_ENERGY_CNT:PACKAGE0 (J)    0.028559857000
DRAM_ENERGY_CNT:PACKAGE1 (J)    0.026134313000


Energy in total:
PACKAGE_ENERGY:PACKAGE0 (J) 980.715637207000
PACKAGE_ENERGY:PACKAGE1 (J) 840.833557128000
DRAM_ENERGY:PACKAGE0    (J) 435.788833618000
DRAM_ENERGY:PACKAGE1    (J) 398.777969360000

Total time: 27.851711273193 (s)
Power (W) 95.366348274242
====================================================


Computation took: 27.8517110348 (sec)
Computation Done
---------------------------------------------------------------------------------------

OMP_NUM_THREADS=10 

Randomizing the input matrix
Start the SRAD main loop
PAPI measurements:(rapl)> > > > > > > > > > > >
Counting Energy Consumption:
PACKAGE_ENERGY_CNT:PACKAGE0 (J) 0.014021968000
PACKAGE_ENERGY_CNT:PACKAGE1 (J) 0.012437588000
DRAM_ENERGY_CNT:PACKAGE0 (J)    0.024663407000
DRAM_ENERGY_CNT:PACKAGE1 (J)    0.021214158000


Energy in total:
PACKAGE_ENERGY:PACKAGE0 (J) 855.833007812000
PACKAGE_ENERGY:PACKAGE1 (J) 759.130126953000
DRAM_ENERGY:PACKAGE0    (J) 376.333724975000
DRAM_ENERGY:PACKAGE1    (J) 323.702362060000

Total time: 22.646070480347 (s)
Power (W) 102.225206081959
====================================================


Computation took: 22.6460700035 (sec)
Computation Done
---------------------------------------------------------------------------------------

OMP_NUM_THREADS=20 

Randomizing the input matrix
Start the SRAD main loop
PAPI measurements:(rapl)> > > > > > > > > > > >
Counting Energy Consumption:
PACKAGE_ENERGY_CNT:PACKAGE0 (J) 0.010629184000
PACKAGE_ENERGY_CNT:PACKAGE1 (J) 0.009115538000
DRAM_ENERGY_CNT:PACKAGE0 (J)    0.016176758000
DRAM_ENERGY_CNT:PACKAGE1 (J)    0.013308090000


Energy in total:
PACKAGE_ENERGY:PACKAGE0 (J) 648.753906250000
PACKAGE_ENERGY:PACKAGE1 (J) 556.368286132000
DRAM_ENERGY:PACKAGE0    (J) 246.837738037000
DRAM_ENERGY:PACKAGE1    (J) 203.065338134000

Total time: 13.154351234436 (s)
Power (W) 125.815803383781
====================================================


Computation took: 13.1543509960 (sec)
Computation Done
---------------------------------------------------------------------------------------

OMP_NUM_THREADS=30 

Randomizing the input matrix
Start the SRAD main loop
PAPI measurements:(rapl)> > > > > > > > > > > >
Counting Energy Consumption:
PACKAGE_ENERGY_CNT:PACKAGE0 (J) 0.010202650000
PACKAGE_ENERGY_CNT:PACKAGE1 (J) 0.009012063000
DRAM_ENERGY_CNT:PACKAGE0 (J)    0.015772660000
DRAM_ENERGY_CNT:PACKAGE1 (J)    0.013399239000


Energy in total:
PACKAGE_ENERGY:PACKAGE0 (J) 622.720336914000
PACKAGE_ENERGY:PACKAGE1 (J) 550.052673339000
DRAM_ENERGY:PACKAGE0    (J) 240.671691894000
DRAM_ENERGY:PACKAGE1    (J) 204.456161499000

Total time: 12.928354263306 (s)
Power (W) 125.143605341792
====================================================


Computation took: 12.9283537865 (sec)
Computation Done
---------------------------------------------------------------------------------------

OMP_NUM_THREADS=40 

Randomizing the input matrix
Start the SRAD main loop
PAPI measurements:(rapl)> > > > > > > > > > > >
Counting Energy Consumption:
PACKAGE_ENERGY_CNT:PACKAGE0 (J) 0.008551871000
PACKAGE_ENERGY_CNT:PACKAGE1 (J) 0.007784168000
DRAM_ENERGY_CNT:PACKAGE0 (J)    0.012356821000
DRAM_ENERGY_CNT:PACKAGE1 (J)    0.011557632000


Energy in total:
PACKAGE_ENERGY:PACKAGE0 (J) 521.964782714000
PACKAGE_ENERGY:PACKAGE1 (J) 475.107910156000
DRAM_ENERGY:PACKAGE0    (J) 188.550125122000
DRAM_ENERGY:PACKAGE1    (J) 176.355468750000

Total time: 10.000746726990 (s)
Power (W) 136.187659174122
====================================================


Computation took: 10.0007469654 (sec)
Computation Done
---------------------------------------------------------------------------------------

OMP_NUM_THREADS=1 

Randomizing the input matrix
Start the SRAD main loop
PAPI measurements:(rapl)> > > > > > > > > > > >
Counting Energy Consumption:
PACKAGE_ENERGY_CNT:PACKAGE0 (J) 0.039261953000
PACKAGE_ENERGY_CNT:PACKAGE1 (J) 0.029386148000
DRAM_ENERGY_CNT:PACKAGE0 (J)    0.081418675000
DRAM_ENERGY_CNT:PACKAGE1 (J)    0.082039689000


Energy in total:
PACKAGE_ENERGY:PACKAGE0 (J) 2396.331359863000
PACKAGE_ENERGY:PACKAGE1 (J) 1793.588134765000
DRAM_ENERGY:PACKAGE0    (J) 1242.337234497000
DRAM_ENERGY:PACKAGE1    (J) 1251.826309204000

Total time: 94.708900451660 (s)
Power (W) 70.575025224167
====================================================


Computation took: 94.7089021206 (sec)
Computation Done
-----------------------------------------------------------------------------------

OMP_NUM_THREADS=2 

Randomizing the input matrix
Start the SRAD main loop
PAPI measurements:(rapl)> > > > > > > > > > > >
Counting Energy Consumption:
PACKAGE_ENERGY_CNT:PACKAGE0 (J) 0.019993489000
PACKAGE_ENERGY_CNT:PACKAGE1 (J) 0.018559266000
DRAM_ENERGY_CNT:PACKAGE0 (J)    0.041933640000
DRAM_ENERGY_CNT:PACKAGE1 (J)    0.042799344000


Energy in total:
PACKAGE_ENERGY:PACKAGE0 (J) 1220.305725097000
PACKAGE_ENERGY:PACKAGE1 (J) 1132.741210937000
DRAM_ENERGY:PACKAGE0    (J) 639.856567382000
DRAM_ENERGY:PACKAGE1    (J) 653.052856445000

Total time: 48.071380615234 (s)
Power (W) 75.844635897675
====================================================


Computation took: 48.0713801384 (sec)
Computation Done
---------------------------------------------------------------------------------------

OMP_NUM_THREADS=4 

Randomizing the input matrix
Start the SRAD main loop
PAPI measurements:(rapl)> > > > > > > > > > > >
Counting Energy Consumption:
PACKAGE_ENERGY_CNT:PACKAGE0 (J) 0.011263046000
PACKAGE_ENERGY_CNT:PACKAGE1 (J) 0.010020773000
DRAM_ENERGY_CNT:PACKAGE0 (J)    0.021856180000
DRAM_ENERGY_CNT:PACKAGE1 (J)    0.021918243000


Energy in total:
PACKAGE_ENERGY:PACKAGE0 (J) 687.441772460000
PACKAGE_ENERGY:PACKAGE1 (J) 611.619445800000
DRAM_ENERGY:PACKAGE0    (J) 333.498840332000
DRAM_ENERGY:PACKAGE1    (J) 334.445846557000

Total time: 24.089405059814 (s)
Power (W) 81.654399528128
====================================================


Computation took: 24.0894060135 (sec)
Computation Done
---------------------------------------------------------------------------------------

OMP_NUM_THREADS=8 

Randomizing the input matrix
Start the SRAD main loop
PAPI measurements:(rapl)> > > > > > > > > > > >
Counting Energy Consumption:
PACKAGE_ENERGY_CNT:PACKAGE0 (J) 0.006844835000
PACKAGE_ENERGY_CNT:PACKAGE1 (J) 0.005966305000
DRAM_ENERGY_CNT:PACKAGE0 (J)    0.011771799000
DRAM_ENERGY_CNT:PACKAGE1 (J)    0.011550169000


Energy in total:
PACKAGE_ENERGY:PACKAGE0 (J) 417.775573730000
PACKAGE_ENERGY:PACKAGE1 (J) 364.154357910000
DRAM_ENERGY:PACKAGE0    (J) 179.623397827000
DRAM_ENERGY:PACKAGE1    (J) 176.241592407000

Total time: 12.165891647339 (s)
Power (W) 93.523348296701
====================================================


Computation took: 12.1658921242 (sec)
Computation Done
---------------------------------------------------------------------------------------

OMP_NUM_THREADS=10 

Randomizing the input matrix
Start the SRAD main loop
PAPI measurements:(rapl)> > > > > > > > > > > >
Counting Energy Consumption:
PACKAGE_ENERGY_CNT:PACKAGE0 (J) 0.006008216000
PACKAGE_ENERGY_CNT:PACKAGE1 (J) 0.005252573000
DRAM_ENERGY_CNT:PACKAGE0 (J)    0.009861821000
DRAM_ENERGY_CNT:PACKAGE1 (J)    0.009413503000


Energy in total:
PACKAGE_ENERGY:PACKAGE0 (J) 366.712402343000
PACKAGE_ENERGY:PACKAGE1 (J) 320.591613769000
DRAM_ENERGY:PACKAGE0    (J) 150.479446411000
DRAM_ENERGY:PACKAGE1    (J) 143.638656616000

Total time:  9.805446624756 (s)
Power (W) 100.089486659506
====================================================


Computation took: 9.8054461479 (sec)
Computation Done
---------------------------------------------------------------------------------------

OMP_NUM_THREADS=20 

Randomizing the input matrix
Start the SRAD main loop
PAPI measurements:(rapl)> > > > > > > > > > > >
Counting Energy Consumption:
PACKAGE_ENERGY_CNT:PACKAGE0 (J) 0.004598689000
PACKAGE_ENERGY_CNT:PACKAGE1 (J) 0.004014401000
DRAM_ENERGY_CNT:PACKAGE0 (J)    0.006659257000
DRAM_ENERGY_CNT:PACKAGE1 (J)    0.006122484000


Energy in total:
PACKAGE_ENERGY:PACKAGE0 (J) 280.681701660000
PACKAGE_ENERGY:PACKAGE1 (J) 245.019592285000
DRAM_ENERGY:PACKAGE0    (J) 101.612197875000
DRAM_ENERGY:PACKAGE1    (J) 93.421691894000

Total time:  5.952371120453 (s)
Power (W) 121.083710865656
====================================================


Computation took: 5.9523711205 (sec)
Computation Done
---------------------------------------------------------------------------------------

OMP_NUM_THREADS=30 

Randomizing the input matrix
Start the SRAD main loop
PAPI measurements:(rapl)> > > > > > > > > > > >
Counting Energy Consumption:
PACKAGE_ENERGY_CNT:PACKAGE0 (J) 0.004465798000
PACKAGE_ENERGY_CNT:PACKAGE1 (J) 0.003703276000
DRAM_ENERGY_CNT:PACKAGE0 (J)    0.006473767000
DRAM_ENERGY_CNT:PACKAGE1 (J)    0.005653025000


Energy in total:
PACKAGE_ENERGY:PACKAGE0 (J) 272.570678710000
PACKAGE_ENERGY:PACKAGE1 (J) 226.030029296000
DRAM_ENERGY:PACKAGE0    (J) 98.781845092000
DRAM_ENERGY:PACKAGE1    (J) 86.258316040000

Total time:  5.548185348511 (s)
Power (W) 123.218823127729
====================================================


Computation took: 5.5481851101 (sec)
Computation Done
---------------------------------------------------------------------------------------

OMP_NUM_THREADS=40 

Randomizing the input matrix
Start the SRAD main loop
PAPI measurements:(rapl)> > > > > > > > > > > >
Counting Energy Consumption:
PACKAGE_ENERGY_CNT:PACKAGE0 (J) 0.003780733000
PACKAGE_ENERGY_CNT:PACKAGE1 (J) 0.003417055000
DRAM_ENERGY_CNT:PACKAGE0 (J)    0.005341496000
DRAM_ENERGY_CNT:PACKAGE1 (J)    0.004851036000


Energy in total:
PACKAGE_ENERGY:PACKAGE0 (J) 230.757629394000
PACKAGE_ENERGY:PACKAGE1 (J) 208.560485839000
DRAM_ENERGY:PACKAGE0    (J) 81.504760742000
DRAM_ENERGY:PACKAGE1    (J) 74.020935058000

Total time:  4.411618232727 (s)
Power (W) 134.835740459187
====================================================


Computation took: 4.4116179943 (sec)
Computation Done
---------------------------------------------------------------------------------------









====================================================================





2 ITERATIONS:

OMP_NUM_THREADS=1 

Randomizing the input matrix
Start the SRAD main loop
PAPI measurements:(rapl)> > > > > > > > > > > >
Counting Energy Consumption:
PACKAGE_ENERGY_CNT:PACKAGE0 (J) 0.000149853000
PACKAGE_ENERGY_CNT:PACKAGE1 (J) 0.000114832000
DRAM_ENERGY_CNT:PACKAGE0 (J)    0.000304863000
DRAM_ENERGY_CNT:PACKAGE1 (J)    0.000310215000


Energy in total:
PACKAGE_ENERGY:PACKAGE0 (J) 9.146301269000
PACKAGE_ENERGY:PACKAGE1 (J) 7.008789062000
DRAM_ENERGY:PACKAGE0    (J) 4.651840209000
DRAM_ENERGY:PACKAGE1    (J) 4.733505249000

Total time:  0.354321002960 (s)
Power (W) 72.082759914372
====================================================


Computation took: 0.3543210030 (sec)
Computation Done
------------------------------------------------------------------------------

OMP_NUM_THREADS=2 

Randomizing the input matrix
Start the SRAD main loop
PAPI measurements:(rapl)> > > > > > > > > > > >
Counting Energy Consumption:
PACKAGE_ENERGY_CNT:PACKAGE0 (J) 0.000083226000
PACKAGE_ENERGY_CNT:PACKAGE1 (J) 0.000057089000
DRAM_ENERGY_CNT:PACKAGE0 (J)    0.000161764000
DRAM_ENERGY_CNT:PACKAGE1 (J)    0.000158440000


Energy in total:
PACKAGE_ENERGY:PACKAGE0 (J) 5.079711914000
PACKAGE_ENERGY:PACKAGE1 (J) 3.484436035000
DRAM_ENERGY:PACKAGE0    (J) 2.468322753000
DRAM_ENERGY:PACKAGE1    (J) 2.417602539000

Total time:  0.181117057800 (s)
Power (W) 74.261769732537
====================================================


Computation took: 0.1811170578 (sec)
Computation Done
-----------------------------------------------------------------------------------

OMP_NUM_THREADS=4 

Randomizing the input matrix
Start the SRAD main loop
PAPI measurements:(rapl)> > > > > > > > > > > >
Counting Energy Consumption:
PACKAGE_ENERGY_CNT:PACKAGE0 (J) 0.000047721000
PACKAGE_ENERGY_CNT:PACKAGE1 (J) 0.000028692000
DRAM_ENERGY_CNT:PACKAGE0 (J)    0.000084573000
DRAM_ENERGY_CNT:PACKAGE1 (J)    0.000078878000


Energy in total:
PACKAGE_ENERGY:PACKAGE0 (J) 2.912658691000
PACKAGE_ENERGY:PACKAGE1 (J) 1.751220703000
DRAM_ENERGY:PACKAGE0    (J) 1.290481567000
DRAM_ENERGY:PACKAGE1    (J) 1.203582763000

Total time:  0.090423107147 (s)
Power (W) 79.160559173732
====================================================


Computation took: 0.0904231071 (sec)
Computation Done
-----------------------------------------------------------------------------------

OMP_NUM_THREADS=8 

Randomizing the input matrix
Start the SRAD main loop
PAPI measurements:(rapl)> > > > > > > > > > > >
Counting Energy Consumption:
PACKAGE_ENERGY_CNT:PACKAGE0 (J) 0.000032172000
PACKAGE_ENERGY_CNT:PACKAGE1 (J) 0.000014575000
DRAM_ENERGY_CNT:PACKAGE0 (J)    0.000048019000
DRAM_ENERGY_CNT:PACKAGE1 (J)    0.000040388000


Energy in total:
PACKAGE_ENERGY:PACKAGE0 (J) 1.963623046000
PACKAGE_ENERGY:PACKAGE1 (J) 0.889587402000
DRAM_ENERGY:PACKAGE0    (J) 0.732711791000
DRAM_ENERGY:PACKAGE1    (J) 0.616271972000

Total time:  0.046333789825 (s)
Power (W) 90.693945538053
====================================================


Computation took: 0.0463337898 (sec)
Computation Done
-----------------------------------------------------------------------------------

OMP_NUM_THREADS=10 

Randomizing the input matrix
Start the SRAD main loop
PAPI measurements:(rapl)> > > > > > > > > > > >
Counting Energy Consumption:
PACKAGE_ENERGY_CNT:PACKAGE0 (J) 0.000029692000
PACKAGE_ENERGY_CNT:PACKAGE1 (J) 0.000012010000
DRAM_ENERGY_CNT:PACKAGE0 (J)    0.000041238000
DRAM_ENERGY_CNT:PACKAGE1 (J)    0.000032499000


Energy in total:
PACKAGE_ENERGY:PACKAGE0 (J) 1.812255859000
PACKAGE_ENERGY:PACKAGE1 (J) 0.733032226000
DRAM_ENERGY:PACKAGE0    (J) 0.629241943000
DRAM_ENERGY:PACKAGE1    (J) 0.495895385000

Total time:  0.037930011749 (s)
Power (W) 96.768370051213
====================================================


Computation took: 0.0379300117 (sec)
Computation Done
-----------------------------------------------------------------------------------

OMP_NUM_THREADS=20 

Randomizing the input matrix
Start the SRAD main loop
PAPI measurements:(rapl)> > > > > > > > > > > >
Counting Energy Consumption:
PACKAGE_ENERGY_CNT:PACKAGE0 (J) 0.000024652000
PACKAGE_ENERGY_CNT:PACKAGE1 (J) 0.000015179000
DRAM_ENERGY_CNT:PACKAGE0 (J)    0.000034631000
DRAM_ENERGY_CNT:PACKAGE1 (J)    0.000029014000


Energy in total:
PACKAGE_ENERGY:PACKAGE0 (J) 1.504638671000
PACKAGE_ENERGY:PACKAGE1 (J) 0.926452636000
DRAM_ENERGY:PACKAGE0    (J) 0.528427124000
DRAM_ENERGY:PACKAGE1    (J) 0.442718505000

Total time:  0.032403945923 (s)
Power (W) 104.994525793253
====================================================


Computation took: 0.0324039459 (sec)
Computation Done
-----------------------------------------------------------------------------------

OMP_NUM_THREADS=30 

Randomizing the input matrix
Start the SRAD main loop
PAPI measurements:(rapl)> > > > > > > > > > > >
Counting Energy Consumption:
PACKAGE_ENERGY_CNT:PACKAGE0 (J) 0.000022347000
PACKAGE_ENERGY_CNT:PACKAGE1 (J) 0.000016826000
DRAM_ENERGY_CNT:PACKAGE0 (J)    0.000031224000
DRAM_ENERGY_CNT:PACKAGE1 (J)    0.000027693000


Energy in total:
PACKAGE_ENERGY:PACKAGE0 (J) 1.363952636000
PACKAGE_ENERGY:PACKAGE1 (J) 1.026977539000
DRAM_ENERGY:PACKAGE0    (J) 0.476440429000
DRAM_ENERGY:PACKAGE1    (J) 0.422561645000

Total time:  0.028975009918 (s)
Power (W) 113.543783359744
====================================================


Computation took: 0.0289750099 (sec)
Computation Done
-----------------------------------------------------------------------------------

OMP_NUM_THREADS=40 

Randomizing the input matrix
Start the SRAD main loop
PAPI measurements:(rapl)> > > > > > > > > > > >
Counting Energy Consumption:
PACKAGE_ENERGY_CNT:PACKAGE0 (J) 0.000021546000
PACKAGE_ENERGY_CNT:PACKAGE1 (J) 0.000019314000
DRAM_ENERGY_CNT:PACKAGE0 (J)    0.000030528000
DRAM_ENERGY_CNT:PACKAGE1 (J)    0.000030407000


Energy in total:
PACKAGE_ENERGY:PACKAGE0 (J) 1.315063476000
PACKAGE_ENERGY:PACKAGE1 (J) 1.178833007000
DRAM_ENERGY:PACKAGE0    (J) 0.465820312000
DRAM_ENERGY:PACKAGE1    (J) 0.463973999000

Total time:  0.028399944305 (s)
Power (W) 120.552729159635
====================================================


Computation took: 0.0283999443 (sec)
Computation Done
-----------------------------------------------------------------------------------

OMP_NUM_THREADS=1 

Randomizing the input matrix
Start the SRAD main loop
PAPI measurements:(rapl)> > > > > > > > > > > >
Counting Energy Consumption:
PACKAGE_ENERGY_CNT:PACKAGE0 (J) 0.000588323000
PACKAGE_ENERGY_CNT:PACKAGE1 (J) 0.000439299000
DRAM_ENERGY_CNT:PACKAGE0 (J)    0.001219791000
DRAM_ENERGY_CNT:PACKAGE1 (J)    0.001224952000


Energy in total:
PACKAGE_ENERGY:PACKAGE0 (J) 35.908386230000
PACKAGE_ENERGY:PACKAGE1 (J) 26.832397460000
DRAM_ENERGY:PACKAGE0    (J) 18.612533569000
DRAM_ENERGY:PACKAGE1    (J) 18.704833984000

Total time:  1.415461063385 (s)
Power (W) 70.689440939983
====================================================


Computation took: 1.4154610634 (sec)
Computation Done
-----------------------------------------------------------------------------------

OMP_NUM_THREADS=2 

Randomizing the input matrix
Start the SRAD main loop
PAPI measurements:(rapl)> > > > > > > > > > > >
Counting Energy Consumption:
PACKAGE_ENERGY_CNT:PACKAGE0 (J) 0.000308870000
PACKAGE_ENERGY_CNT:PACKAGE1 (J) 0.000267488000
DRAM_ENERGY_CNT:PACKAGE0 (J)    0.000641177000
DRAM_ENERGY_CNT:PACKAGE1 (J)    0.000639104000


Energy in total:
PACKAGE_ENERGY:PACKAGE0 (J) 18.851928710000
PACKAGE_ENERGY:PACKAGE1 (J) 16.326171875000
DRAM_ENERGY:PACKAGE0    (J) 9.783584594000
DRAM_ENERGY:PACKAGE1    (J) 9.751953125000

Total time:  0.723680019379 (s)
Power (W) 75.604738059476
====================================================


Computation took: 0.7236800194 (sec)
Computation Done
---------------------------------------------------------------------------------------

OMP_NUM_THREADS=4 

Randomizing the input matrix
Start the SRAD main loop
PAPI measurements:(rapl)> > > > > > > > > > > >
Counting Energy Consumption:
PACKAGE_ENERGY_CNT:PACKAGE0 (J) 0.000184704000
PACKAGE_ENERGY_CNT:PACKAGE1 (J) 0.000133183000
DRAM_ENERGY_CNT:PACKAGE0 (J)    0.000344183000
DRAM_ENERGY_CNT:PACKAGE1 (J)    0.000322904000


Energy in total:
PACKAGE_ENERGY:PACKAGE0 (J) 11.273437500000
PACKAGE_ENERGY:PACKAGE1 (J) 8.128845214000
DRAM_ENERGY:PACKAGE0    (J) 5.251815795000
DRAM_ENERGY:PACKAGE1    (J) 4.927124023000

Total time:  0.366386890411 (s)
Power (W) 80.737666401727
====================================================


Computation took: 0.3663868904 (sec)
Computation Done
---------------------------------------------------------------------------------------

OMP_NUM_THREADS=8 

Randomizing the input matrix
Start the SRAD main loop
PAPI measurements:(rapl)> > > > > > > > > > > >
Counting Energy Consumption:
PACKAGE_ENERGY_CNT:PACKAGE0 (J) 0.000127993000
PACKAGE_ENERGY_CNT:PACKAGE1 (J) 0.000061519000
DRAM_ENERGY_CNT:PACKAGE0 (J)    0.000192600000
DRAM_ENERGY_CNT:PACKAGE1 (J)    0.000159383000


Energy in total:
PACKAGE_ENERGY:PACKAGE0 (J) 7.812072753000
PACKAGE_ENERGY:PACKAGE1 (J) 3.754821777000
DRAM_ENERGY:PACKAGE0    (J) 2.938842773000
DRAM_ENERGY:PACKAGE1    (J) 2.431991577000

Total time:  0.184365034103 (s)
Power (W) 91.870613982590
====================================================


Computation took: 0.1843650341 (sec)
Computation Done
---------------------------------------------------------------------------------------

OMP_NUM_THREADS=10 

Randomizing the input matrix
Start the SRAD main loop
PAPI measurements:(rapl)> > > > > > > > > > > >
Counting Energy Consumption:
PACKAGE_ENERGY_CNT:PACKAGE0 (J) 0.000116354000
PACKAGE_ENERGY_CNT:PACKAGE1 (J) 0.000046011000
DRAM_ENERGY_CNT:PACKAGE0 (J)    0.000161541000
DRAM_ENERGY_CNT:PACKAGE1 (J)    0.000126858000


Energy in total:
PACKAGE_ENERGY:PACKAGE0 (J) 7.165283203000
PACKAGE_ENERGY:PACKAGE1 (J) 2.808288574000
DRAM_ENERGY:PACKAGE0    (J) 2.464920043000
DRAM_ENERGY:PACKAGE1    (J) 1.935699462000

Total time:  0.147941112518 (s)
Power (W) 97.161573529609
====================================================


Computation took: 0.1479411125 (sec)
Computation Done
---------------------------------------------------------------------------------------

OMP_NUM_THREADS=20 

Randomizing the input matrix
Start the SRAD main loop
PAPI measurements:(rapl)> > > > > > > > > > > >
Counting Energy Consumption:
PACKAGE_ENERGY_CNT:PACKAGE0 (J) 0.000106139000
PACKAGE_ENERGY_CNT:PACKAGE1 (J) 0.000040266000
DRAM_ENERGY_CNT:PACKAGE0 (J)    0.000144645000
DRAM_ENERGY_CNT:PACKAGE1 (J)    0.000112138000


Energy in total:
PACKAGE_ENERGY:PACKAGE0 (J) 6.478210449000
PACKAGE_ENERGY:PACKAGE1 (J) 2.457641601000
DRAM_ENERGY:PACKAGE0    (J) 2.207107543000
DRAM_ENERGY:PACKAGE1    (J) 1.711090087000

Total time:  0.129266023636 (s)
Power (W) 99.438733539211
====================================================


Computation took: 0.1292660236 (sec)
Computation Done
---------------------------------------------------------------------------------------

OMP_NUM_THREADS=30 

Randomizing the input matrix
Start the SRAD main loop
PAPI measurements:(rapl)> > > > > > > > > > > >
Counting Energy Consumption:
PACKAGE_ENERGY_CNT:PACKAGE0 (J) 0.000073915000
PACKAGE_ENERGY_CNT:PACKAGE1 (J) 0.000053510000
DRAM_ENERGY_CNT:PACKAGE0 (J)    0.000103560000
DRAM_ENERGY_CNT:PACKAGE1 (J)    0.000089055000


Energy in total:
PACKAGE_ENERGY:PACKAGE0 (J) 4.511413574000
PACKAGE_ENERGY:PACKAGE1 (J) 3.265991210000
DRAM_ENERGY:PACKAGE0    (J) 1.580200195000
DRAM_ENERGY:PACKAGE1    (J) 1.358871459000

Total time:  0.089474916458 (s)
Power (W) 119.770734214821
====================================================


Computation took: 0.0894749165 (sec)
Computation Done
---------------------------------------------------------------------------------------

OMP_NUM_THREADS=40 

Randomizing the input matrix
Start the SRAD main loop
PAPI measurements:(rapl)> > > > > > > > > > > >
Counting Energy Consumption:
PACKAGE_ENERGY_CNT:PACKAGE0 (J) 0.000104754000
PACKAGE_ENERGY_CNT:PACKAGE1 (J) 0.000063521000
DRAM_ENERGY_CNT:PACKAGE0 (J)    0.000151573000
DRAM_ENERGY_CNT:PACKAGE1 (J)    0.000119263000


Energy in total:
PACKAGE_ENERGY:PACKAGE0 (J) 6.393676757000
PACKAGE_ENERGY:PACKAGE1 (J) 3.877014160000
DRAM_ENERGY:PACKAGE0    (J) 2.312820434000
DRAM_ENERGY:PACKAGE1    (J) 1.819808959000

Total time:  0.135524988174 (s)
Power (W) 106.277967657603
====================================================


Computation took: 0.1355249882 (sec)
Computation Done
---------------------------------------------------------------------------------------

OMP_NUM_THREADS=1 

Randomizing the input matrix
Start the SRAD main loop
PAPI measurements:(rapl)> > > > > > > > > > > >
Counting Energy Consumption:
PACKAGE_ENERGY_CNT:PACKAGE0 (J) 0.002354161000
PACKAGE_ENERGY_CNT:PACKAGE1 (J) 0.001758891000
DRAM_ENERGY_CNT:PACKAGE0 (J)    0.004895835000
DRAM_ENERGY_CNT:PACKAGE1 (J)    0.004916717000


Energy in total:
PACKAGE_ENERGY:PACKAGE0 (J) 143.686584472000
PACKAGE_ENERGY:PACKAGE1 (J) 107.354187011000
DRAM_ENERGY:PACKAGE0    (J) 74.704513549000
DRAM_ENERGY:PACKAGE1    (J) 75.023147583000

Total time:  5.670310974121 (s)
Power (W) 70.678386854633
====================================================


Computation took: 5.6703109741 (sec)
Computation Done
-----------------------------------------------------------------------------------

OMP_NUM_THREADS=2 

Randomizing the input matrix
Start the SRAD main loop
PAPI measurements:(rapl)> > > > > > > > > > > >
Counting Energy Consumption:
PACKAGE_ENERGY_CNT:PACKAGE0 (J) 0.001198004000
PACKAGE_ENERGY_CNT:PACKAGE1 (J) 0.001099452000
DRAM_ENERGY_CNT:PACKAGE0 (J)    0.002501265000
DRAM_ENERGY_CNT:PACKAGE1 (J)    0.002546299000


Energy in total:
PACKAGE_ENERGY:PACKAGE0 (J) 73.120361328000
PACKAGE_ENERGY:PACKAGE1 (J) 67.105224609000
DRAM_ENERGY:PACKAGE0    (J) 38.166275024000
DRAM_ENERGY:PACKAGE1    (J) 38.853439331000

Total time:  2.864924907684 (s)
Power (W) 75.829317448881
====================================================


Computation took: 2.8649249077 (sec)
Computation Done
---------------------------------------------------------------------------------------

OMP_NUM_THREADS=4 

Randomizing the input matrix
Start the SRAD main loop
PAPI measurements:(rapl)> > > > > > > > > > > >
Counting Energy Consumption:
PACKAGE_ENERGY_CNT:PACKAGE0 (J) 0.000700085000
PACKAGE_ENERGY_CNT:PACKAGE1 (J) 0.000584231000
DRAM_ENERGY_CNT:PACKAGE0 (J)    0.001342451000
DRAM_ENERGY_CNT:PACKAGE1 (J)    0.001294900000


Energy in total:
PACKAGE_ENERGY:PACKAGE0 (J) 42.729797363000
PACKAGE_ENERGY:PACKAGE1 (J) 35.658630371000
DRAM_ENERGY:PACKAGE0    (J) 20.484176635000
DRAM_ENERGY:PACKAGE1    (J) 19.758605957000

Total time:  1.452481985092 (s)
Power (W) 81.674823883253
====================================================


Computation took: 1.4524819851 (sec)
Computation Done
---------------------------------------------------------------------------------------

OMP_NUM_THREADS=8 

Randomizing the input matrix
Start the SRAD main loop
PAPI measurements:(rapl)> > > > > > > > > > > >
Counting Energy Consumption:
PACKAGE_ENERGY_CNT:PACKAGE0 (J) 0.000485842000
PACKAGE_ENERGY_CNT:PACKAGE1 (J) 0.000291319000
DRAM_ENERGY_CNT:PACKAGE0 (J)    0.000768415000
DRAM_ENERGY_CNT:PACKAGE1 (J)    0.000655213000


Energy in total:
PACKAGE_ENERGY:PACKAGE0 (J) 29.653442382000
PACKAGE_ENERGY:PACKAGE1 (J) 17.780700683000
DRAM_ENERGY:PACKAGE0    (J) 11.725082397000
DRAM_ENERGY:PACKAGE1    (J) 9.997756958000

Total time:  0.741955995560 (s)
Power (W) 93.209008127000
====================================================


Computation took: 0.7419559956 (sec)
Computation Done
---------------------------------------------------------------------------------------

OMP_NUM_THREADS=10 

Randomizing the input matrix
Start the SRAD main loop
PAPI measurements:(rapl)> > > > > > > > > > > >
Counting Energy Consumption:
PACKAGE_ENERGY_CNT:PACKAGE0 (J) 0.000445808000
PACKAGE_ENERGY_CNT:PACKAGE1 (J) 0.000223618000
DRAM_ENERGY_CNT:PACKAGE0 (J)    0.000641520000
DRAM_ENERGY_CNT:PACKAGE1 (J)    0.000522630000


Energy in total:
PACKAGE_ENERGY:PACKAGE0 (J) 27.209960937000
PACKAGE_ENERGY:PACKAGE1 (J) 13.675415039000
DRAM_ENERGY:PACKAGE0    (J) 9.788818359000
DRAM_ENERGY:PACKAGE1    (J) 7.987976074000

Total time:  0.598204851151 (s)
Power (W) 98.063682192106
====================================================


Computation took: 0.5982048512 (sec)
Computation Done
---------------------------------------------------------------------------------------

OMP_NUM_THREADS=20 

Randomizing the input matrix
Start the SRAD main loop
PAPI measurements:(rapl)> > > > > > > > > > > >
Counting Energy Consumption:
PACKAGE_ENERGY_CNT:PACKAGE0 (J) 0.000412042000
PACKAGE_ENERGY_CNT:PACKAGE1 (J) 0.000173895000
DRAM_ENERGY_CNT:PACKAGE0 (J)    0.000565762000
DRAM_ENERGY_CNT:PACKAGE1 (J)    0.000440750000


Energy in total:
PACKAGE_ENERGY:PACKAGE0 (J) 25.149047851000
PACKAGE_ENERGY:PACKAGE1 (J) 10.613708496000
DRAM_ENERGY:PACKAGE0    (J) 8.632843017000
DRAM_ENERGY:PACKAGE1    (J) 6.725311279000

Total time:  0.504758834839 (s)
Power (W) 101.277891766509
====================================================


Computation took: 0.5047588348 (sec)
Computation Done
---------------------------------------------------------------------------------------

OMP_NUM_THREADS=30 

Randomizing the input matrix
Start the SRAD main loop
PAPI measurements:(rapl)> > > > > > > > > > > >
Counting Energy Consumption:
PACKAGE_ENERGY_CNT:PACKAGE0 (J) 0.000302959000
PACKAGE_ENERGY_CNT:PACKAGE1 (J) 0.000209806000
DRAM_ENERGY_CNT:PACKAGE0 (J)    0.000431748000
DRAM_ENERGY_CNT:PACKAGE1 (J)    0.000370036000


Energy in total:
PACKAGE_ENERGY:PACKAGE0 (J) 18.458068847000
PACKAGE_ENERGY:PACKAGE1 (J) 12.780822753000
DRAM_ENERGY:PACKAGE0    (J) 6.575103759000
DRAM_ENERGY:PACKAGE1    (J) 5.646301269000

Total time:  0.378484010696 (s)
Power (W) 114.827298907642
====================================================


Computation took: 0.3784840107 (sec)
Computation Done
---------------------------------------------------------------------------------------

OMP_NUM_THREADS=40 

Randomizing the input matrix
Start the SRAD main loop
PAPI measurements:(rapl)> > > > > > > > > > > >
Counting Energy Consumption:
PACKAGE_ENERGY_CNT:PACKAGE0 (J) 0.000249658000
PACKAGE_ENERGY_CNT:PACKAGE1 (J) 0.000220002000
DRAM_ENERGY_CNT:PACKAGE0 (J)    0.000359284000
DRAM_ENERGY_CNT:PACKAGE1 (J)    0.000327236000


Energy in total:
PACKAGE_ENERGY:PACKAGE0 (J) 15.302612304000
PACKAGE_ENERGY:PACKAGE1 (J) 13.448303222000
DRAM_ENERGY:PACKAGE0    (J) 5.482238769000
DRAM_ENERGY:PACKAGE1    (J) 4.993225097000

Total time:  0.311327934265 (s)
Power (W) 125.996979630468
====================================================


Computation took: 0.3113279343 (sec)
Computation Done
---------------------------------------------------------------------------------------

OMP_NUM_THREADS=1 

Randomizing the input matrix
Start the SRAD main loop
PAPI measurements:(rapl)> > > > > > > > > > > >
Counting Energy Consumption:
PACKAGE_ENERGY_CNT:PACKAGE0 (J) 0.009957132000
PACKAGE_ENERGY_CNT:PACKAGE1 (J) 0.007446154000
DRAM_ENERGY_CNT:PACKAGE0 (J)    0.020636522000
DRAM_ENERGY_CNT:PACKAGE1 (J)    0.020787888000


Energy in total:
PACKAGE_ENERGY:PACKAGE0 (J) 607.735107421000
PACKAGE_ENERGY:PACKAGE1 (J) 454.477172851000
DRAM_ENERGY:PACKAGE0    (J) 314.888336181000
DRAM_ENERGY:PACKAGE1    (J) 317.197998046000

Total time: 24.015531539917 (s)
Power (W) 70.550119271058
====================================================


Computation took: 24.0155308247 (sec)
Computation Done
-----------------------------------------------------------------------------------

OMP_NUM_THREADS=2 

Randomizing the input matrix
Start the SRAD main loop
PAPI measurements:(rapl)> > > > > > > > > > > >
Counting Energy Consumption:
PACKAGE_ENERGY_CNT:PACKAGE0 (J) 0.004976174000
PACKAGE_ENERGY_CNT:PACKAGE1 (J) 0.004618753000
DRAM_ENERGY_CNT:PACKAGE0 (J)    0.010421598000
DRAM_ENERGY_CNT:PACKAGE1 (J)    0.010659052000


Energy in total:
PACKAGE_ENERGY:PACKAGE0 (J) 303.721557617000
PACKAGE_ENERGY:PACKAGE1 (J) 281.906311035000
DRAM_ENERGY:PACKAGE0    (J) 159.020965576000
DRAM_ENERGY:PACKAGE1    (J) 162.644226074000

Total time: 11.966289520264 (s)
Power (W) 75.820751183196
====================================================


Computation took: 11.9662899971 (sec)
Computation Done
---------------------------------------------------------------------------------------

OMP_NUM_THREADS=4 

Randomizing the input matrix
Start the SRAD main loop
PAPI measurements:(rapl)> > > > > > > > > > > >
Counting Energy Consumption:
PACKAGE_ENERGY_CNT:PACKAGE0 (J) 0.002827363000
PACKAGE_ENERGY_CNT:PACKAGE1 (J) 0.002488503000
DRAM_ENERGY_CNT:PACKAGE0 (J)    0.005479925000
DRAM_ENERGY_CNT:PACKAGE1 (J)    0.005470218000


Energy in total:
PACKAGE_ENERGY:PACKAGE0 (J) 172.568542480000
PACKAGE_ENERGY:PACKAGE1 (J) 151.886169433000
DRAM_ENERGY:PACKAGE0    (J) 83.617019653000
DRAM_ENERGY:PACKAGE1    (J) 83.468902587000

Total time:  6.029386043549 (s)
Power (W) 81.524160271500
====================================================


Computation took: 6.0293860435 (sec)
Computation Done
---------------------------------------------------------------------------------------

OMP_NUM_THREADS=8 

Randomizing the input matrix
Start the SRAD main loop
PAPI measurements:(rapl)> > > > > > > > > > > >
Counting Energy Consumption:
PACKAGE_ENERGY_CNT:PACKAGE0 (J) 0.001788646000
PACKAGE_ENERGY_CNT:PACKAGE1 (J) 0.001432965000
DRAM_ENERGY_CNT:PACKAGE0 (J)    0.003026500000
DRAM_ENERGY_CNT:PACKAGE1 (J)    0.002828452000


Energy in total:
PACKAGE_ENERGY:PACKAGE0 (J) 109.170288085000
PACKAGE_ENERGY:PACKAGE1 (J) 87.461242675000
DRAM_ENERGY:PACKAGE0    (J) 46.180725097000
DRAM_ENERGY:PACKAGE1    (J) 43.158752441000

Total time:  3.056985855103 (s)
Power (W) 93.546722769644
====================================================


Computation took: 3.0569858551 (sec)
Computation Done
---------------------------------------------------------------------------------------

OMP_NUM_THREADS=10 

Randomizing the input matrix
Start the SRAD main loop
PAPI measurements:(rapl)> > > > > > > > > > > >
Counting Energy Consumption:
PACKAGE_ENERGY_CNT:PACKAGE0 (J) 0.001618968000
PACKAGE_ENERGY_CNT:PACKAGE1 (J) 0.001221967000
DRAM_ENERGY_CNT:PACKAGE0 (J)    0.002608470000
DRAM_ENERGY_CNT:PACKAGE1 (J)    0.002282622000


Energy in total:
PACKAGE_ENERGY:PACKAGE0 (J) 98.779785156000
PACKAGE_ENERGY:PACKAGE1 (J) 74.582946777000
DRAM_ENERGY:PACKAGE0    (J) 39.789001464000
DRAM_ENERGY:PACKAGE1    (J) 34.830047607000

Total time:  2.495676040649 (s)
Power (W) 99.364571749253
====================================================


Computation took: 2.4956760406 (sec)
Computation Done
---------------------------------------------------------------------------------------

OMP_NUM_THREADS=20 

Randomizing the input matrix
Start the SRAD main loop
PAPI measurements:(rapl)> > > > > > > > > > > >
Counting Energy Consumption:
PACKAGE_ENERGY_CNT:PACKAGE0 (J) 0.001440321000
PACKAGE_ENERGY_CNT:PACKAGE1 (J) 0.000986738000
DRAM_ENERGY_CNT:PACKAGE0 (J)    0.002084122000
DRAM_ENERGY_CNT:PACKAGE1 (J)    0.001789204000


Energy in total:
PACKAGE_ENERGY:PACKAGE0 (J) 87.910217285000
PACKAGE_ENERGY:PACKAGE1 (J) 60.225708007000
DRAM_ENERGY:PACKAGE0    (J) 31.801177978000
DRAM_ENERGY:PACKAGE1    (J) 27.301086425000

Total time:  1.899354934692 (s)
Power (W) 109.109775066114
====================================================


Computation took: 1.8993549347 (sec)
Computation Done
---------------------------------------------------------------------------------------

OMP_NUM_THREADS=30 

Randomizing the input matrix
Start the SRAD main loop
PAPI measurements:(rapl)> > > > > > > > > > > >
Counting Energy Consumption:
PACKAGE_ENERGY_CNT:PACKAGE0 (J) 0.001178021000
PACKAGE_ENERGY_CNT:PACKAGE1 (J) 0.000889453000
DRAM_ENERGY_CNT:PACKAGE0 (J)    0.001672101000
DRAM_ENERGY_CNT:PACKAGE1 (J)    0.001445918000


Energy in total:
PACKAGE_ENERGY:PACKAGE0 (J) 71.866333007000
PACKAGE_ENERGY:PACKAGE1 (J) 54.287902832000
DRAM_ENERGY:PACKAGE0    (J) 25.514236450000
DRAM_ENERGY:PACKAGE1    (J) 22.062957763000

Total time:  1.451205968857 (s)
Power (W) 119.715211886054
====================================================


Computation took: 1.4512059689 (sec)
Computation Done
---------------------------------------------------------------------------------------

OMP_NUM_THREADS=40 

Randomizing the input matrix
Start the SRAD main loop
PAPI measurements:(rapl)> > > > > > > > > > > >
Counting Energy Consumption:
PACKAGE_ENERGY_CNT:PACKAGE0 (J) 0.000998429000
PACKAGE_ENERGY_CNT:PACKAGE1 (J) 0.000875684000
DRAM_ENERGY_CNT:PACKAGE0 (J)    0.001425583000
DRAM_ENERGY_CNT:PACKAGE1 (J)    0.001274488000


Energy in total:
PACKAGE_ENERGY:PACKAGE0 (J) 60.939270019000
PACKAGE_ENERGY:PACKAGE1 (J) 53.447509765000
DRAM_ENERGY:PACKAGE0    (J) 21.752670288000
DRAM_ENERGY:PACKAGE1    (J) 19.447143554000

Total time:  1.208144187927 (s)
Power (W) 128.781477559340
====================================================


Computation took: 1.2081441879 (sec)
Computation Done
---------------------------------------------------------------------------------------

OMP_NUM_THREADS=1 

Randomizing the input matrix
Start the SRAD main loop
PAPI measurements:(rapl)> > > > > > > > > > > >
Counting Energy Consumption:
PACKAGE_ENERGY_CNT:PACKAGE0 (J) 0.039075511000
PACKAGE_ENERGY_CNT:PACKAGE1 (J) 0.029168752000
DRAM_ENERGY_CNT:PACKAGE0 (J)    0.081180762000
DRAM_ENERGY_CNT:PACKAGE1 (J)    0.081559702000


Energy in total:
PACKAGE_ENERGY:PACKAGE0 (J) 2384.979919433000
PACKAGE_ENERGY:PACKAGE1 (J) 1780.319335937000
DRAM_ENERGY:PACKAGE0    (J) 1238.720123291000
DRAM_ENERGY:PACKAGE1    (J) 1244.502288818000

Total time: 94.134407043457 (s)
Power (W) 70.627965653512
====================================================


Computation took: 94.1344099045 (sec)
Computation Done
-----------------------------------------------------------------------------------

OMP_NUM_THREADS=2 

Randomizing the input matrix
Start the SRAD main loop
PAPI measurements:(rapl)> > > > > > > > > > > >
Counting Energy Consumption:
PACKAGE_ENERGY_CNT:PACKAGE0 (J) 0.019642944000
PACKAGE_ENERGY_CNT:PACKAGE1 (J) 0.018313059000
DRAM_ENERGY_CNT:PACKAGE0 (J)    0.041207458000
DRAM_ENERGY_CNT:PACKAGE1 (J)    0.042092346000


Energy in total:
PACKAGE_ENERGY:PACKAGE0 (J) 1198.910156250000
PACKAGE_ENERGY:PACKAGE1 (J) 1117.713500976000
DRAM_ENERGY:PACKAGE0    (J) 628.775909423000
DRAM_ENERGY:PACKAGE1    (J) 642.278228759000

Total time: 47.249996185303 (s)
Power (W) 75.929694921837
====================================================


Computation took: 47.2499959469 (sec)
Computation Done
---------------------------------------------------------------------------------------

OMP_NUM_THREADS=4 

Randomizing the input matrix
Start the SRAD main loop
PAPI measurements:(rapl)> > > > > > > > > > > >
Counting Energy Consumption:
PACKAGE_ENERGY_CNT:PACKAGE0 (J) 0.011198354000
PACKAGE_ENERGY_CNT:PACKAGE1 (J) 0.009975584000
DRAM_ENERGY_CNT:PACKAGE0 (J)    0.021721672000
DRAM_ENERGY_CNT:PACKAGE1 (J)    0.021830529000


Energy in total:
PACKAGE_ENERGY:PACKAGE0 (J) 683.493286132000
PACKAGE_ENERGY:PACKAGE1 (J) 608.861328125000
DRAM_ENERGY:PACKAGE0    (J) 331.446411132000
DRAM_ENERGY:PACKAGE1    (J) 333.107437133000

Total time: 23.980504989624 (s)
Power (W) 81.604139002441
====================================================


Computation took: 23.9805049896 (sec)
Computation Done
---------------------------------------------------------------------------------------

OMP_NUM_THREADS=8 

Randomizing the input matrix
Start the SRAD main loop
PAPI measurements:(rapl)> > > > > > > > > > > >
Counting Energy Consumption:
PACKAGE_ENERGY_CNT:PACKAGE0 (J) 0.006899199000
PACKAGE_ENERGY_CNT:PACKAGE1 (J) 0.005984952000
DRAM_ENERGY_CNT:PACKAGE0 (J)    0.011873799000
DRAM_ENERGY_CNT:PACKAGE1 (J)    0.011561886000


Energy in total:
PACKAGE_ENERGY:PACKAGE0 (J) 421.093688964000
PACKAGE_ENERGY:PACKAGE1 (J) 365.317260742000
DRAM_ENERGY:PACKAGE0    (J) 181.179794311000
DRAM_ENERGY:PACKAGE1    (J) 176.434600830000

Total time: 12.228466033936 (s)
Power (W) 93.554280779959
====================================================


Computation took: 12.2284657955 (sec)
Computation Done
---------------------------------------------------------------------------------------

OMP_NUM_THREADS=10 

Randomizing the input matrix
Start the SRAD main loop
PAPI measurements:(rapl)> > > > > > > > > > > >
Counting Energy Consumption:
PACKAGE_ENERGY_CNT:PACKAGE0 (J) 0.006029901000
PACKAGE_ENERGY_CNT:PACKAGE1 (J) 0.005240411000
DRAM_ENERGY_CNT:PACKAGE0 (J)    0.009833389000
DRAM_ENERGY_CNT:PACKAGE1 (J)    0.009399023000


Energy in total:
PACKAGE_ENERGY:PACKAGE0 (J) 368.035949707000
PACKAGE_ENERGY:PACKAGE1 (J) 319.849304199000
DRAM_ENERGY:PACKAGE0    (J) 150.045608520000
DRAM_ENERGY:PACKAGE1    (J) 143.417709350000

Total time:  9.793508529663 (s)
Power (W) 100.203983976084
====================================================


Computation took: 9.7935090065 (sec)
Computation Done
---------------------------------------------------------------------------------------

OMP_NUM_THREADS=20 

Randomizing the input matrix
Start the SRAD main loop
PAPI measurements:(rapl)> > > > > > > > > > > >
Counting Energy Consumption:
PACKAGE_ENERGY_CNT:PACKAGE0 (J) 0.004611946000
PACKAGE_ENERGY_CNT:PACKAGE1 (J) 0.003938663000
DRAM_ENERGY_CNT:PACKAGE0 (J)    0.006574999000
DRAM_ENERGY_CNT:PACKAGE1 (J)    0.005964424000


Energy in total:
PACKAGE_ENERGY:PACKAGE0 (J) 281.490844726000
PACKAGE_ENERGY:PACKAGE1 (J) 240.396911621000
DRAM_ENERGY:PACKAGE0    (J) 100.326522827000
DRAM_ENERGY:PACKAGE1    (J) 91.009887695000

Total time:  5.815870285034 (s)
Power (W) 122.634125576067
====================================================


Computation took: 5.8158700466 (sec)
Computation Done
---------------------------------------------------------------------------------------

OMP_NUM_THREADS=30 

Randomizing the input matrix
Start the SRAD main loop
PAPI measurements:(rapl)> > > > > > > > > > > >
Counting Energy Consumption:
PACKAGE_ENERGY_CNT:PACKAGE0 (J) 0.004496382000
PACKAGE_ENERGY_CNT:PACKAGE1 (J) 0.003662550000
DRAM_ENERGY_CNT:PACKAGE0 (J)    0.006480072000
DRAM_ENERGY_CNT:PACKAGE1 (J)    0.005615403000


Energy in total:
PACKAGE_ENERGY:PACKAGE0 (J) 274.437377929000
PACKAGE_ENERGY:PACKAGE1 (J) 223.544311523000
DRAM_ENERGY:PACKAGE0    (J) 98.878051757000
DRAM_ENERGY:PACKAGE1    (J) 85.684249877000

Total time:  5.545270919800 (s)
Power (W) 123.085779028203
====================================================


Computation took: 5.5452711582 (sec)
Computation Done
---------------------------------------------------------------------------------------

OMP_NUM_THREADS=40 

Randomizing the input matrix
Start the SRAD main loop
PAPI measurements:(rapl)> > > > > > > > > > > >
Counting Energy Consumption:
PACKAGE_ENERGY_CNT:PACKAGE0 (J) 0.003762948000
PACKAGE_ENERGY_CNT:PACKAGE1 (J) 0.003410079000
DRAM_ENERGY_CNT:PACKAGE0 (J)    0.005302049000
DRAM_ENERGY_CNT:PACKAGE1 (J)    0.004837319000


Energy in total:
PACKAGE_ENERGY:PACKAGE0 (J) 229.672119140000
PACKAGE_ENERGY:PACKAGE1 (J) 208.134704589000
DRAM_ENERGY:PACKAGE0    (J) 80.902847290000
DRAM_ENERGY:PACKAGE1    (J) 73.811630249000

Total time:  4.417716979980 (s)
Power (W) 134.123870757927
====================================================


Computation took: 4.4177169800 (sec)
Computation Done
---------------------------------------------------------------------------------------

