==================================
For input file:100

----------------------------------

----------------------------------

I/O completed
num of threads = 1
0.000356000000
number of Clusters 5
number of Attributes 34

Time for process: 0.000432
- - - - - - - - - - - - - - - - - - -

I/O completed
num of threads = 2
0.000723000000
number of Clusters 5
number of Attributes 34

Time for process: 0.000793
- - - - - - - - - - - - - - - - - - - - -

I/O completed
num of threads = 4
0.007110000000
number of Clusters 5
number of Attributes 34

Time for process: 0.007217
- - - - - - - - - - - - - - - - - - - - -

I/O completed
num of threads = 8
0.009392000000
number of Clusters 5
number of Attributes 34

Time for process: 0.009502
- - - - - - - - - - - - - - - - - - - - -

I/O completed
num of threads = 12
0.008585000000
number of Clusters 5
number of Attributes 34

Time for process: 0.008745
- - - - - - - - - - - - - - - - - - - - -

I/O completed
num of threads = 16
0.008401000000
number of Clusters 5
number of Attributes 34

Time for process: 0.008610
- - - - - - - - - - - - - - - - - - - - -

==================================
For input file:204800.txt

----------------------------------

----------------------------------

I/O completed
num of threads = 1
1.183830000000
number of Clusters 5
number of Attributes 34

Time for process: 1.184973
- - - - - - - - - - - - - - - - - - -

I/O completed
num of threads = 2
0.935116000000
number of Clusters 5
number of Attributes 34

Time for process: 0.936181
- - - - - - - - - - - - - - - - - - - - -

I/O completed
num of threads = 4
1.303159000000
number of Clusters 5
number of Attributes 34

Time for process: 1.304260
- - - - - - - - - - - - - - - - - - - - -

I/O completed
num of threads = 8
1.610463000000
number of Clusters 5
number of Attributes 34

Time for process: 1.611396
- - - - - - - - - - - - - - - - - - - - -

I/O completed
num of threads = 12
0.912520000000
number of Clusters 5
number of Attributes 34

Time for process: 0.913533
- - - - - - - - - - - - - - - - - - - - -

I/O completed
num of threads = 16
0.604340000000
number of Clusters 5
number of Attributes 34

Time for process: 0.605507
- - - - - - - - - - - - - - - - - - - - -

==================================
For input file:819200.txt

----------------------------------

----------------------------------

I/O completed
num of threads = 1
4.920890000000
number of Clusters 5
number of Attributes 34

Time for process: 4.923594
- - - - - - - - - - - - - - - - - - -

I/O completed
num of threads = 2
4.144718000000
number of Clusters 5
number of Attributes 34

Time for process: 4.147497
- - - - - - - - - - - - - - - - - - - - -

I/O completed
num of threads = 4
5.874701000000
number of Clusters 5
number of Attributes 34

Time for process: 5.877622
- - - - - - - - - - - - - - - - - - - - -

I/O completed
num of threads = 8
6.916414000000
number of Clusters 5
number of Attributes 34

Time for process: 6.919509
- - - - - - - - - - - - - - - - - - - - -

I/O completed
num of threads = 12
6.841497000000
number of Clusters 5
number of Attributes 34

Time for process: 6.844832
- - - - - - - - - - - - - - - - - - - - -

I/O completed
num of threads = 16
6.362054000000
number of Clusters 5
number of Attributes 34

Time for process: 6.365503
- - - - - - - - - - - - - - - - - - - - -

==================================
For input file:kdd_cup

----------------------------------

----------------------------------

I/O completed
num of threads = 1
5.193268000000
number of Clusters 5
number of Attributes 34

Time for process: 5.195577
- - - - - - - - - - - - - - - - - - -

I/O completed
num of threads = 2
4.412190000000
number of Clusters 5
number of Attributes 34

Time for process: 4.414074
- - - - - - - - - - - - - - - - - - - - -

I/O completed
num of threads = 4
7.690573000000
number of Clusters 5
number of Attributes 34

Time for process: 7.692489
- - - - - - - - - - - - - - - - - - - - -

I/O completed
num of threads = 8
8.216112000000
number of Clusters 5
number of Attributes 34

Time for process: 8.218284
- - - - - - - - - - - - - - - - - - - - -

I/O completed
num of threads = 12
7.375742000000
number of Clusters 5
number of Attributes 34

Time for process: 7.378092
- - - - - - - - - - - - - - - - - - - - -

I/O completed
num of threads = 16
6.418430000000
number of Clusters 5
number of Attributes 34

Time for process: 6.420957
- - - - - - - - - - - - - - - - - - - - -

