100006605 12548046 9343302 7259660 6759527
100000000 16537791 13757149 11989630 11400170
100000000 22923777 16661717 12104665 8070157
100000000 22923926 16661817 12104690 8070087
100000000 22923913 16661821 12104703 8070096
100000000 22788087 16510903 12085246 8109674
100000000 22781695 16503769 12084264 8111416
100000000 22682228 16541084 12107199 8167501
100000000 22923916 16661821 12104700 8070091
100000000 22923919 16661814 12104701 8070098
100000000 22923919 16661811 12104693 8070097
100000000 22923926 16661818 12104695 8070095
100000000 22837014 16565286 12092283 8095457
100000000 22781695 16503769 12084267 8111414
100000000 22633291 16486706 12100165 8181718
100000000 22923923 16661816 12104701 8070095
100000000 22923916 16661821 12104692 8070098
100000000 22923921 16661807 12104701 8070097
100000000 22923917 16661817 12104703 8070098
100000000 22885951 16619669 12099305 8081227
100000000 22781698 16503769 12084270 8111417
100000000 22717522 16495123 12090826 8141586
100000000 22790755 16599020 12107012 8124454
100000000 22923923 16661816 12104693 8070097
100000000 22923916 16661821 12104700 8070098
100000000 22923920 16661808 12104692 8070101
100000000 22923918 16661816 12104702 8070094
100000000 22792664 16516000 12085910 8108333
100000000 22781697 16503769 12084261 8111419
100000000 22677652 16535996 12106547 8168832
100000000 22923913 16661816 12104692 8070098
100000000 22923923 16661816 12104701 8070090
100000000 22923919 16661816 12104693 8070098
100000000 22923916 16661813 12104700 8070090
100000000 22841598 16570378 12092941 8094127
100000000 22781697 16503770 12084265 8111413
100000000 22633196 16483724 12099406 8181183
100000000 22919440 16659708 12104798 8071961
100000000 22923913 16661817 12104702 8070098
100000000 22923924 16661816 12104692 8070097
100000000 22923919 16661816 12104701 8070095
100000000 22890529 16624753 12099969 8079902
100000000 22781696 16503772 12084266 8111413
100000000 22726228 16496300 12089943 8137498
100000000 22777470 16592758 12107234 8129872
100000000 22923923 16661811 12104704 8070095
100000000 22923914 16661817 12104692 8070098
100000000 22923920 16661822 12104701 8070097
100000000 22923923 16661809 12104693 8070097
100000000 22797239 16521087 12086571 8107009
100000000 22781697 16503771 12084264 8111421
100000000 22673068 16530905 12105877 8170158
100000000 22923919 16661820 12104704 8070097
100000000 22923922 16661812 12104695 8070097
100000000 22923915 16661817 12104702 8070098
100000000 22923920 16661822 12104692 8070101
100000000 22846174 16575458 12093599 8092785
100000000 22781700 16503772 12084274 8111411
100000000 22641902 16484899 12098517 8177096
100000000 22906150 16653449 12105034 8077392
100000000 22923920 16661813 12104687 8070098
100000000 22923921 16661812 12104706 8070085
100000000 22923923 16661819 12104691 8070096
100000000 22895102 16629842 12100632 8078572
100000000 22781700 16503770 12084266 8111414
100000000 22734933 16497477 12089055 8133409
100000000 22764189 16586489 12107466 8135293
100000000 22923915 16661821 12104697 8070093
100000000 22923920 16661813 12104696 8070098
100000000 22923919 16661810 12104696 8070097
100000000 22923924 16661821 12104703 8070095
100000000 22801817 16526173 12087221 8105680
100000000 22781697 16503772 12084267 8111422
100000000 22668492 16525816 12105222 8171487
100000000 22923919 16661816 12104691 8070095
100000000 22923914 16661821 12104708 8070098
100000000 22923921 16661813 12104686 8070098
100000000 22923919 16661810 12104704 8070097
100000000 22850752 16580556 12094254 8091458
100000000 22781700 16503772 12084275 8111417
100000000 22650609 16486076 12097630 8173005
100000000 22892864 16647178 12105258 8082804
100000000 22923924 16661816 12104696 8070097
100000000 22923914 16661821 12104697 8070098
100000000 22923921 16661808 12104702 8070101
100000000 22899684 16634935 12101280 8077230
100000000 22781702 16503770 12084271 8111415
100000000 22743640 16498654 12088167 8129321
100000000 22750897 16580231 12107696 8140715
100000000 22923921 16661808 12104702 8070101
100000000 22923924 16661816 12104685 8070088
100000000 22923914 16661821 12104708 8070095
100000000 22923920 16661808 12104691 8070095
100000000 22806401 16531267 12087885 8104353
100000000 22781698 16503771 12084263 8111417
100000000 22663908 16520731 12104562 8172817
100000000 22923921 16661806 12104702 8070095
100000000 22923916 16661818 12104692 8070098
100000000 22923925 16661816 12104696 8070097
100000000 22923919 16661814 12104691 8070095
100000000 22855330 16585643 12094916 8090134
100000000 22781698 16503772 12084274 8111413
100000000 22659315 16487253 12096748 8168918
100000000 22879579 16640916 12105487 8088222
100000000 22923921 16661806 12104687 8070095
100000000 22923916 16661818 12104708 8070098
100000000 22923925 16661816 12104685 8070097
100000000 22904260 16640020 12101949 8075904
100000000 22781701 16503771 12084271 8111417
100000000 22752346 16499830 12087279 8125230
100000000 22737616 16573957 12107923 8146131
100000000 22923919 16661818 12104693 8070098
100000000 22923919 16661813 12104703 8070097
100000000 22923917 16661818 12104692 8070098
100000000 22923920 16661822 12104702 8070101
100000000 22810981 16536347 12088533 8103011
100000000 22781701 16503770 12084262 8111421
100000000 22659324 16515637 12103908 8174151
100000000 22923920 16661822 12104691 8070101
100000000 22923921 16661811 12104700 8070097
100000000 22923918 16661813 12104693 8070086
100000000 22923922 16661820 12104702 8070095
100000000 22859911 16590730 12095569 8088804
100000000 22781698 16503770 12084267 8111413
100000000 22668021 16488430 12095863 8164830
100000000 22866292 16634645 12105711 8093640
100000000 22923919 16661822 12104702 8070095
100000000 22923922 16661811 12104690 8070097
100000000 22923918 16661812 12104703 8070098
100000000 22908847 16645113 12102597 8074576
100000000 22781698 16503771 12084264 8111414
100000000 22761052 16501007 12086399 8121143
100000000 22724334 16567691 12108149 8151549
100000000 22923919 16661817 12104696 8070095
100000000 22923913 16661821 12104698 8070098
100000000 22923922 16661811 12104700 8070097
100000000 22923919 16661812 12104693 8070098
100000000 22815558 16541446 12089199 8101686
100000000 22781701 16503768 12084269 8111422
100000000 22654745 16510556 12103244 8175479
100000000 22923926 16661810 12104694 8070097
100000000 22923919 16661817 12104698 8070097
100000000 22923913 16661821 12104703 8070098
100000000 22923922 16661811 12104690 8070095
100000000 22864492 16595820 12096229 8087467
100000000 22781701 16503767 12084271 8111414
100000000 22676722 16489609 12094975 8160737
100000000 22853008 16628385 12105946 8099065
100000000 22923919 16661811 12104692 8070101
100000000 22923926 16661817 12104695 8070087
100000000 22923913 16661821 12104698 8070096
100000000 22913428 16650193 12103264 8073246
100000000 22781698 16503770 12084265 8111414
100000000 22769758 16502185 12085511 8117055
100000000 22711042 16561430 12108374 8156967
100000000 22923919 16661814 12104701 8070098
100000000 22923919 16661811 12104703 8070095
100000000 22923926 16661818 12104690 8070097
100000000 22923913 16661821 12104703 8070098
100000000 22820140 16546525 12089850 8100355
100000000 22781697 16503769 12084265 8111421
100000000 22650173 16505462 12102597 8176808
100000000 22923916 16661821 12104700 8070098
100000000 22923921 16661807 12104692 8070095
100000000 22923917 16661817 12104702 8070098
100000000 22923926 16661819 12104694 8070097
100000000 22869068 16600909 12096884 8086140
100000000 22781697 16503767 12084271 8111414
100000000 22685432 16490786 12094087 8156649
100000000 22839726 16622115 12106171 8104481
100000000 22923919 16661817 12104694 8070098
100000000 22923917 16661812 12104699 8070097
100000000 22923918 16661816 12104703 8070098
100000000 22918008 16655291 12103910 8071912
100000000 22781695 16503769 12084267 8111414
100000000 22778467 16503363 12084628 8112967
100000000 22697756 16555159 12108608 8162391
100000000 22923923 16661816 12104692 8070095
100000000 22923919 16661816 12104701 8070099
100000000 22923916 16661813 12104692 8070090
100000000 22923919 16661815 12104701 8070098
100000000 22824718 16551623 12090515 8099026
100000000 22781697 16503770 12084264 8111420
100000000 22645597 16500372 12101943 8178140
100000000 22923913 16661817 12104692 8070098
100000000 22923921 16661822 12104701 8070095
100000000 22923922 16661810 12104693 8070097
100000000 22923916 16661813 12104700 8070098
100000000 22873652 16605999 12097540 8084810
100000000 22781696 16503770 12084268 8111416
100000000 22694141 16491963 12093204 8152559
100000000 22826441 16615848 12106395 8109899
100000000 22923914 16661817 12104702 8070098
100000000 22923920 16661822 12104692 8070095
100000000 22923923 16661809 12104701 8070097
100000000 22922584 16660376 12104575 8070585
100000000 22781694 16503771 12084265 8111417
100000000 22781701 16503771 12084270 8111422
100000000 22689944 16549665 12108301 8165261
100000000 22923922 16661812 12104705 8070097
100000000 22923923 16661818 12104691 8070097
100000000 22923912 16661821 12104702 8070098
100000000 22923923 16661809 12104693 8070095
100000000 22829293 16556709 12091171 8097693
100000000 22781700 16503770 12084270 8111422
100000000 22641010 16495290 12101280 8179474
100000000 22923920 16661813 12104697 8070098
100000000 22923921 16661812 12104696 8070095
100000000 22923923 16661819 12104702 8070092
100000000 22923913 16661821 12104692 8070097
100000000 22878230 16611079 12098203 8083480
100000000 22781698 16503771 12084275 8111413
100000000 22702847 16493140 12092316 8148474
100000000 22813151 16609588 12106630 8115317
100000000 22923920 16661813 12104686 8070098
100000000 22923919 16661810 12104705 8070095
100000000 22923924 16661821 12104693 8070097
100000000 22923913 16661821 12104702 8070098
100000000 22784943 16507412 12084800 8110570
100000000 22781701 16503772 12084267 8111426
100000000 22685368 16544572 12107650 8166590
100000000 22923914 16661821 12104697 8070098
100000000 22923921 16661813 12104696 8070098
100000000 22923919 16661810 12104695 8070095
100000000 22923923 16661821 12104704 8070097
100000000 22833871 16561795 12091825 8096362
100000000 22781701 16503771 12084271 8111423
100000000 22636430 16490195 12100617 8180802
100000000 22923924 16661816 12104685 8070097
100000000 22923914 16661821 12104708 8070098
100000000 22923921 16661808 12104691 8070097
100000000 22923919 16661815 12104698 8070098
100000000 22882809 16616178 12098856 8082142
100000000 22781700 16503771 12084279 8111418
100000000 22711550 16494315 12091428 8144381
100000000 22799866 16603318 12106855 8120742
100000000 22923924 16661816 12104696 8070095
100000000 22923919 16661815 12104691 8070096
100000000 22923915 16661814 12104708 8070093
100000000 22923920 16661815 12104687 8070098
100000000 22789520 16512512 12085468 8109241
100000000 22781701 16503771 12084264 8111424
100000000 22680787 16539481 12106989 8167919
100000000 24335417 18385502 14819439 11795569
100000000 16837865 13691093 11738133 11414411
44661674 7166868 5822637 4926308 4786969
number of instructions: 24544661508
