23372820 6723 6610688 2561512 3868134 3582638 2720980 4012344 3967 1034 350 211 557 18 3664 0 0 0 0 0 0
21752749 44553 7330423 1982894 2802749 4875005 1734714 2511187 86536 116975 242812 51 122 556 7335 14063 2720 54 0 0 0
21806325 56385 1807199 934489 934671 16241906 125 17 13 96928 1143917 32 172 720 3024 14448 32819 152166 387294 0 0
21806194 0 1807051 934467 934656 16242068 112 8 0 96928 1143913 32 172 720 3024 14448 30796 168537 429262 0 0
21806186 0 1807052 934466 934656 16242060 112 8 0 96928 1143915 32 172 720 3024 14448 30796 175235 422562 0 0
22335172 0 1724621 1033052 1043067 16614892 133 9 0 107748 1135586 32 172 720 3024 14448 30796 179475 447397 0 0
22359964 0 1720180 1037635 1047627 16633533 112 8 0 108190 1135296 32 172 720 3024 14448 30796 163140 465051 0 0
21751073 0 1751233 941277 946208 16005960 119 9 0 97800 1351102 40 215 900 3656 16761 33811 169119 432863 0 0
21806188 0 1807050 934467 934656 16242060 112 8 0 96928 1143915 32 172 720 3148 15747 32396 163140 431637 0 0
21806192 0 1807053 934466 934656 16242065 112 8 0 96928 1143915 32 172 720 3024 14448 33595 163364 431634 0 0
21806207 0 1807064 934470 934657 16242056 112 8 0 96930 1143918 32 172 720 3024 14448 31081 165879 431636 0 0
21806194 0 1807053 934466 934656 16242068 112 8 0 96928 1143914 32 172 720 3024 14448 30796 174486 423311 0 0
22144631 0 1754507 997556 1004198 16480204 133 9 0 103888 1138534 32 172 720 3024 14448 30796 183636 432774 0 0
22359964 0 1720180 1037635 1047627 16633528 112 8 0 108173 1135314 32 172 720 3024 14448 30796 163141 465054 0 0
21941604 0 1721346 976773 985077 16140643 119 9 0 101678 1348136 39 195 804 3347 16175 33783 169119 444361 0 0
21806196 0 1807051 934467 934656 16242069 112 8 0 96928 1143913 33 192 816 3457 16163 31554 163140 431637 0 0
21806187 0 1807052 934466 934656 16242061 112 8 0 96928 1143915 32 172 720 3024 14618 33649 163140 431634 0 0
21806209 0 1807065 934470 934657 16242057 112 8 0 96929 1143920 32 172 720 3024 14448 31897 165061 431637 0 0
21806191 0 1807052 934466 934656 16242064 112 8 0 96928 1143916 32 172 720 3024 14448 30796 171366 426431 0 0
21954103 0 1784404 962060 965327 16345510 133 9 0 100011 1141503 32 172 720 3024 14448 30796 179580 426374 0 0
22359959 0 1720170 1037634 1047629 16633537 112 8 0 108176 1135305 32 172 720 3024 14448 30796 171359 456837 0 0
22187602 0 1719690 1013291 1023499 16426407 115 9 0 105489 1225303 35 189 791 3303 15087 32081 165726 456587 0 0
21750729 0 1778817 933447 935103 16090990 116 8 0 96992 1263784 37 198 829 3501 16729 32738 166533 430907 0 0
21806196 0 1807054 934466 934656 16242070 112 8 0 96928 1143913 32 172 720 3024 15140 33127 163140 431634 0 0
21806187 0 1807049 934467 934656 16242060 112 8 0 96928 1143916 32 172 720 3024 14448 32936 164022 431637 0 0
21806209 0 1807069 934468 934657 16242057 112 8 0 96929 1143920 32 172 720 3024 14448 30797 168243 429553 0 0
21806191 0 1807052 934467 934656 16242062 112 8 0 96928 1143915 32 172 720 3024 14448 30796 175237 422562 0 0
22317340 0 1727419 1029730 1039429 16602286 133 9 0 107380 1135868 32 172 720 3024 14448 30796 179864 446030 0 0
22359957 0 1720170 1037635 1047629 16633539 112 8 0 108205 1135276 32 172 720 3024 14448 30796 163140 465051 0 0
21768908 0 1748442 944600 949844 16018558 119 9 0 98154 1350837 40 215 900 3630 16700 33801 169119 433940 0 0
21806188 0 1807052 934466 934656 16242062 112 8 0 96928 1143915 32 172 720 3174 15808 32309 163140 431634 0 0
21806196 0 1807051 934467 934656 16242069 112 8 0 96928 1143914 32 172 720 3024 14448 33634 163324 431637 0 0
21806207 0 1807064 934470 934657 16242053 112 8 0 96930 1143921 32 172 720 3024 14448 31139 165822 431635 0 0
21806189 0 1807053 934466 934656 16242065 112 8 0 96928 1143913 32 172 720 3024 14448 30796 174194 423602 0 0
22126804 0 1757308 994234 1000560 16467599 133 9 0 103512 1138825 32 172 720 3024 14448 30796 184025 431407 0 0
22359963 0 1720180 1037634 1047627 16633528 112 8 0 108194 1135293 32 172 720 3024 14448 30796 163141 465054 0 0
21961238 0 1718980 980087 988238 16159262 115 9 0 101916 1344096 35 189 791 3320 15813 33783 169119 445485 0 0
21804391 0 1806619 934475 935133 16236056 116 8 0 97044 1147683 37 198 829 3484 16491 31491 163140 431587 0 0
21806188 0 1807049 934467 934656 16242061 112 8 0 96928 1143916 32 172 720 3024 14652 33614 163140 431637 0 0
21806196 0 1807051 934467 934656 16242069 112 8 0 96928 1143913 32 172 720 3024 14448 31995 164964 431637 0 0
21806207 0 1807067 934469 934657 16242054 112 8 0 96930 1143921 32 172 720 3024 14448 30796 171075 426722 0 0
21936266 0 1787194 958737 961691 16332912 133 9 0 99656 1141769 32 172 720 3024 14448 30796 179055 425918 0 0
22359964 0 1720180 1037634 1047627 16633528 112 8 0 108174 1135313 32 172 720 3024 14448 30796 172272 455924 0 0
22210970 0 1719760 1016719 1027140 16453990 115 9 0 105850 1213068 35 189 791 3283 15005 31908 165374 457734 0 0
21745193 0 1775952 933340 935100 16076014 116 8 0 96986 1275747 37 198 829 3521 16748 32877 166885 430835 0 0
21806192 0 1807051 934467 934656 16242065 112 8 0 96928 1143914 32 172 720 3024 15203 33063 163140 431637 0 0
21806188 0 1807049 934467 934656 16242061 112 8 0 96928 1143915 32 172 720 3024 14448 33028 163931 431637 0 0
21806207 0 1807067 934469 934657 16242056 112 8 0 96930 1143919 32 172 720 3024 14448 30803 167946 429844 0 0
21806196 0 1807051 934467 934656 16242068 112 8 0 96928 1143915 32 172 720 3024 14448 30796 175237 422562 0 0
22299508 0 1730220 1026407 1035791 16589678 133 9 0 107026 1136139 32 172 720 3024 14448 30796 180252 444661 0 0
22359956 0 1720170 1037636 1047629 16633538 112 8 0 108181 1135299 32 172 720 3024 14448 30796 163140 465051 0 0
21786722 0 1745631 947917 953481 16031174 119 9 0 98531 1350537 40 215 900 3601 16642 33791 169119 435015 0 0
21806207 0 1807065 934470 934657 16242053 112 8 0 96928 1143923 32 172 720 3203 15865 32222 163140 431637 0 0
21806191 0 1807051 934467 934656 16242064 112 8 0 96928 1143913 32 172 720 3024 14449 33670 163288 431637 0 0
21806209 0 1807067 934469 934657 16242058 112 8 0 96930 1143919 32 172 720 3024 14448 31200 165761 431632 0 0
21806187 0 1807049 934467 934656 16242061 112 8 0 96928 1143915 32 172 720 3024 14448 30796 173903 423896 0 0
22108977 0 1760107 990912 996922 16454997 133 9 0 103148 1139106 32 172 720 3024 14448 30796 184118 430333 0 0
22359961 0 1720180 1037634 1047627 16633526 112 8 0 108203 1135283 32 172 720 3024 14448 30796 163436 464760 0 0
21984608 0 1719050 983515 991879 16186847 115 9 0 102277 1331835 35 189 791 3320 15656 33626 168808 446656 0 0
21798850 0 1803749 934369 935130 16221076 116 8 0 97038 1159674 37 198 829 3484 16611 31587 163451 431493 0 0
21806193 0 1807051 934467 934656 16242064 112 8 0 96928 1143915 32 172 720 3024 14689 33578 163140 431637 0 0
21806191 0 1807054 934466 934656 16242065 112 8 0 96928 1143913 32 172 720 3024 14448 32092 164867 431634 0 0
21806208 0 1807064 934470 934657 16242057 112 8 0 96930 1143919 32 172 720 3024 14448 30796 170783 427016 0 0
21918438 0 1789992 955415 958053 16320307 133 9 0 99280 1142063 32 172 720 3024 14448 30796 178532 425462 0 0
22359961 0 1720180 1037634 1047627 16633525 112 8 0 108184 1135303 32 172 720 3024 14448 30796 173184 455012 0 0
22234339 0 1719830 1020147 1030781 16481576 115 9 0 106222 1200774 35 189 791 3255 14925 31745 165049 458896 0 0
21739659 0 1773084 933234 935097 16061039 116 8 0 96980 1287759 37 198 829 3547 16765 33007 167210 430749 0 0
21806186 0 1807049 934467 934656 16242059 112 8 0 96928 1143915 32 172 720 3026 15266 32999 163140 431637 0 0
21806194 0 1807054 934466 934656 16242066 112 8 0 96928 1143915 32 172 720 3024 14448 33113 163846 431634 0 0
21806207 0 1807064 934470 934657 16242056 112 8 0 96930 1143918 32 172 720 3024 14448 30815 167642 430139 0 0
21806192 0 1807053 934466 934656 16242066 112 8 0 96928 1143914 32 172 720 3024 14448 30796 175235 422562 0 0
22281673 0 1733006 1023086 1032155 16577080 133 9 0 106673 1136403 32 172 720 3024 14448 30796 180643 443293 0 0
22359960 0 1720180 1037635 1047627 16633529 112 8 0 108172 1135314 32 172 720 3024 14448 30796 163140 465051 0 0
21804556 0 1742831 951241 957119 16043782 119 9 0 98893 1350260 40 215 896 3570 16584 33787 169119 436091 0 0
21806208 0 1807067 934469 934657 16242055 112 8 0 96929 1143920 32 172 724 3234 15917 32135 163140 431637 0 0
21806185 0 1807052 934466 934656 16242059 112 8 0 96928 1143915 32 172 720 3024 14455 33695 163257 431634 0 0
21806195 0 1807051 934467 934656 16242066 112 8 0 96928 1143916 32 172 720 3024 14448 31266 165693 431636 0 0
21806207 0 1807066 934469 934657 16242057 112 8 0 96929 1143920 32 172 720 3024 14448 30796 173610 424187 0 0
22091143 0 1762903 987591 993284 16442389 133 9 0 102794 1139373 32 172 720 3024 14448 30796 183598 429877 0 0
22359956 0 1720170 1037633 1047629 16633535 112 8 0 108181 1135301 32 172 720 3024 14448 30796 164348 463847 0 0
22007983 0 1719130 986944 995518 16214422 115 9 0 102659 1319558 35 189 791 3320 15619 33434 168443 447797 0 0
21793311 0 1800878 934264 935127 16206098 116 8 0 97034 1171663 37 198 829 3484 16608 31722 163816 431429 0 0
21806196 0 1807054 934466 934656 16242070 112 8 0 96928 1143913 32 172 720 3024 14729 33538 163140 431634 0 0
21806185 0 1807049 934467 934656 16242058 112 8 0 96928 1143916 32 172 720 3024 14448 32189 164769 431637 0 0
21806209 0 1807069 934468 934657 16242057 112 8 0 96929 1143920 32 172 720 3024 14448 30796 170489 427308 0 0
21900610 0 1792790 952094 954415 16307703 133 9 0 98917 1142340 32 172 720 3024 14448 30796 178011 425006 0 0
22359961 0 1720180 1037634 1047627 16633525 112 8 0 108174 1135313 32 172 720 3024 14448 30796 174097 454099 0 0
22257708 0 1719900 1023575 1034422 16509159 115 9 0 106600 1188517 35 189 791 3218 14838 31574 164705 460061 0 0
21734100 0 1770198 933126 935093 16046066 116 8 0 96974 1299722 37 198 829 3577 16790 33150 167554 430662 0 0
21806207 0 1807067 934469 934657 16242056 112 8 0 96930 1143919 32 172 720 3033 15328 32930 163140 431634 0 0
21806196 0 1807051 934467 934656 16242069 112 8 0 96928 1143914 32 172 720 3024 14448 33193 163765 431637 0 0
21806184 0 1807049 934467 934656 16242057 112 8 0 96928 1143915 32 172 720 3024 14448 30832 167334 430430 0 0
21806210 0 1807067 934469 934657 16242060 112 8 0 96930 1143919 32 172 720 3024 14448 30796 175234 422562 0 0
22263845 0 1735808 1019764 1028517 16564474 133 9 0 106301 1136690 32 172 720 3024 14448 30796 181033 441924 0 0
22359960 0 1720180 1037634 1047627 16633530 112 8 0 108188 1135297 32 172 720 3024 14448 30796 163140 465052 0 0
21822383 0 1740032 954563 960757 16056384 119 9 0 99247 1349991 40 215 890 3538 16527 33784 169119 437168 0 0
21806209 0 1807068 934469 934657 16242057 112 8 0 96930 1143919 32 172 730 3266 15965 32050 163140 431634 0 0
21806189 0 1807049 934467 934656 16242062 112 8 0 96928 1143916 32 172 720 3024 14464 33713 163229 431637 0 0
21806195 0 1807051 934467 934656 16242068 112 8 0 96928 1143913 32 172 720 3024 14448 31336 165624 431636 0 0
21806208 0 1807067 934469 934657 16242055 112 8 0 96930 1143921 32 172 720 3024 14448 30796 173319 424478 0 0
22073305 0 1765693 984268 989648 16429790 133 9 0 102439 1139638 32 172 720 3024 14448 30796 183074 429421 0 0
22359961 0 1720180 1037633 1047627 16633527 112 8 0 108174 1135313 32 172 720 3024 14448 30796 165260 462935 0 0
22031352 0 1719200 990372 999159 16242005 115 9 0 103025 1307310 35 189 791 3320 15576 33256 168066 448924 0 0
21787757 0 1797999 934154 935123 16191130 116 8 0 97026 1183630 37 198 829 3484 16609 31845 164193 431376 0 0
21806208 0 1807065 934470 934657 16242055 112 8 0 96930 1143920 32 172 720 3024 14771 33495 163140 431637 0 0
21806190 0 1807049 934467 934656 16242063 112 8 0 96928 1143915 32 172 720 3024 14448 32287 164672 431637 0 0
21806195 0 1807054 934466 934656 16242069 112 8 0 96930 1143911 32 172 720 3024 14448 30796 170198 427599 0 0
21882791 0 1795603 948774 950778 16295084 133 9 0 98557 1142624 32 172 720 3024 14448 30796 177487 424550 0 0
22359956 0 1720170 1037633 1047629 16633535 112 8 0 108180 1135301 32 172 720 3024 14448 30796 175009 453187 0 0
22281083 0 1719980 1027004 1038061 16536734 115 9 0 106959 1176259 35 189 787 3178 14759 31416 164385 461213 0 0
21728564 0 1767332 933019 935090 16031092 116 8 0 96968 1311716 37 198 833 3608 16805 33284 167874 430584 0 0
21806207 0 1807065 934470 934657 16242053 112 8 0 96930 1143921 32 172 720 3042 15392 32856 163140 431637 0 0
21806190 0 1807051 934467 934656 16242063 112 8 0 96928 1143913 32 172 720 3024 14448 33268 163691 431637 0 0
21806190 0 1807052 934466 934656 16242064 112 8 0 96928 1143915 32 172 720 3024 14448 30855 167017 430721 0 0
21806207 0 1807064 934470 934657 16242056 112 8 0 96930 1143919 32 172 720 3024 14448 30796 175237 422562 0 0
22246013 0 1738606 1016441 1024879 16551869 133 9 0 105932 1136975 32 172 720 3024 14448 30796 181421 440556 0 0
22359955 0 1720170 1037635 1047628 16633539 112 8 0 108204 1135276 32 172 720 3024 14448 30796 163140 465051 0 0
21840218 0 1737245 957884 964394 16068980 119 9 0 99600 1349729 40 215 881 3507 16471 33783 169119 438242 0 0
21806207 0 1807065 934470 934657 16242055 112 8 0 96930 1143918 32 172 739 3297 16008 31966 163140 431638 0 0
21806196 0 1807051 934467 934656 16242067 112 8 0 96928 1143915 32 172 720 3024 14477 33724 163206 431637 0 0
21806190 0 1807054 934466 934656 16242064 112 8 0 96928 1143913 32 172 720 3024 14448 31410 165550 431633 0 0
21806208 0 1807064 934470 934657 16242057 112 8 0 96930 1143919 32 172 720 3024 14448 30796 173027 424772 0 0
22055475 0 1768491 980945 986010 16417184 133 9 0 102068 1139928 32 172 720 3024 14448 30796 182550 428965 0 0
22359960 0 1720180 1037634 1047626 16633526 112 8 0 108184 1135303 32 172 720 3024 14448 30796 166173 462022 0 0
22054723 0 1719270 993800 1002801 16269591 115 9 0 103392 1295024 35 189 791 3320 15522 33080 167714 450070 0 0
21782217 0 1795130 934048 935120 16176149 116 8 0 97021 1195639 37 198 829 3484 16614 31972 164545 431307 0 0
21806207 0 1807064 934470 934657 16242055 112 8 0 96929 1143920 32 172 720 3024 14820 33447 163140 431637 0 0
21806196 0 1807054 934466 934656 16242068 112 8 0 96928 1143915 32 172 720 3024 14448 32384 164575 431634 0 0
21806189 0 1807050 934467 934656 16242064 112 8 0 96928 1143913 32 172 720 3024 14448 30796 169906 427893 0 0
21864958 0 1798392 945451 947142 16282490 133 9 0 98183 1142908 32 172 720 3024 14448 30796 176963 424095 0 0
22359960 0 1720180 1037634 1047626 16633525 112 8 0 108203 1135284 32 172 720 3024 14448 30796 175922 452274 0 0
22304454 0 1720050 1030432 1041703 16564319 115 9 0 107318 1164005 35 189 775 3136 14675 31248 164064 462381 0 0
21723025 0 1764462 932914 935087 16016113 116 8 0 96964 1323699 37 198 845 3637 16826 33431 168195 430493 0 0
21806209 0 1807067 934469 934657 16242056 112 8 0 96929 1143920 32 172 720 3055 15455 32780 163140 431637 0 0
21806185 0 1807052 934466 934656 16242059 112 8 0 96928 1143915 32 172 720 3024 14448 33336 163623 431634 0 0
21806196 0 1807051 934467 934656 16242067 112 8 0 96928 1143916 32 172 720 3024 14448 30884 166696 431015 0 0
21806207 0 1807066 934469 934657 16242057 112 8 0 96929 1143920 32 172 720 3024 14448 30796 175235 422562 0 0
22228174 0 1741392 1013120 1021242 16539270 133 9 0 105579 1137237 32 172 720 3024 14448 30796 181812 439188 0 0
22359962 0 1720180 1037635 1047627 16633531 112 8 0 108184 1135301 32 172 720 3024 14448 30796 163140 465052 0 0
21858050 0 1734445 961207 968032 16081587 119 9 0 99975 1349438 40 215 870 3477 16415 33783 169119 439319 0 0
21806193 0 1807051 934467 934656 16242067 112 8 0 96928 1143913 32 172 750 3327 16046 31887 163140 431637 0 0
21806209 0 1807067 934469 934657 16242058 112 8 0 96930 1143919 32 172 720 3024 14495 33726 163186 431634 0 0
21806185 0 1807049 934467 934656 16242058 112 8 0 96928 1143916 32 172 720 3024 14448 31487 165472 431636 0 0
21806196 0 1807051 934467 934656 16242067 112 8 0 96928 1143915 32 172 720 3024 14448 30796 172737 425063 0 0
22037660 0 1771307 977625 982373 16404569 133 9 0 101702 1140214 32 172 720 3024 14448 30796 182026 428510 0 0
22359956 0 1720170 1037634 1047628 16633535 112 8 0 108174 1135307 32 172 720 3024 14448 30796 167085 461111 0 0
22078095 0 1719350 997228 1006440 16297166 115 9 0 103774 1282776 35 189 791 3320 15463 32893 167341 451205 0 0
21776682 0 1792259 933943 935117 16161174 116 8 0 97016 1207600 37 198 829 3484 16623 32112 164918 431248 0 0
21806207 0 1807067 934469 934657 16242056 112 8 0 96930 1143919 32 172 720 3024 14870 33397 163140 431634 0 0
21806194 0 1807051 934467 934656 16242067 112 8 0 96928 1143914 32 172 720 3024 14448 32481 164477 431637 0 0
21806186 0 1807049 934467 934656 16242059 112 8 0 96928 1143915 32 172 720 3024 14448 30796 169616 428184 0 0
21847130 0 1801194 942128 943504 16269886 133 9 0 97826 1143180 32 172 720 3024 14448 30796 176439 423639 0 0
22359960 0 1720180 1037635 1047626 16633524 112 8 0 108193 1135294 32 172 720 3024 14448 30796 176834 451362 0 0
22327822 0 1720120 1033859 1045344 16591904 115 9 0 107689 1151743 35 189 756 3098 14596 31093 163735 463537 0 0
21717485 0 1761593 932808 935084 16001133 116 8 0 96958 1335680 37 198 864 3660 16842 33566 168524 430414 0 0
21806192 0 1807053 934466 934656 16242065 112 8 0 96928 1143915 32 172 720 3070 15518 32703 163140 431634 0 0
21806207 0 1807064 934470 934657 16242055 112 8 0 96930 1143920 32 172 720 3024 14448 33400 163558 431637 0 0
21806194 0 1807051 934467 934656 16242067 112 8 0 96928 1143913 32 172 720 3024 14448 30917 166373 431306 0 0
21806186 0 1807052 934466 934656 16242060 112 8 0 96929 1143914 32 172 720 3024 14448 30796 175235 422562 0 0
22210363 0 1744207 1009800 1017605 16526657 133 9 0 105225 1137515 32 172 720 3024 14448 30796 182200 437820 0 0
22359964 0 1720180 1037635 1047627 16633533 112 8 0 108173 1135313 32 172 720 3024 14448 30796 163140 465051 0 0
21875882 0 1731647 964529 971670 16094196 119 9 0 100339 1349155 40 215 856 3448 16360 33783 169119 440397 0 0
21806187 0 1807052 934466 934656 16242061 112 8 0 96928 1143915 32 172 764 3356 16079 31812 163140 431634 0 0
21806209 0 1807065 934470 934657 16242056 112 8 0 96930 1143920 32 172 720 3024 14517 33719 163170 431637 0 0
21806191 0 1807050 934467 934656 16242063 112 8 0 96928 1143915 32 172 720 3024 14448 31569 165391 431636 0 0
21806193 0 1807054 934466 934656 16242067 112 8 0 96928 1143913 32 172 720 3024 14448 30796 172443 425354 0 0
22019828 0 1774102 974304 978734 16391962 133 9 0 101347 1140487 32 172 720 3024 14448 30796 181504 428054 0 0
22359959 0 1720170 1037634 1047629 16633536 112 8 0 108176 1135306 32 172 720 3024 14448 30796 167998 460198 0 0
22101463 0 1719420 1000656 1010081 16324749 115 9 0 104133 1270499 35 189 791 3320 15396 32721 166997 452352 0 0
21771146 0 1789393 933836 935114 16146200 116 8 0 97010 1219606 37 198 829 3484 16637 32240 165262 431176 0 0
21806207 0 1807065 934470 934657 16242053 112 8 0 96930 1143921 32 172 720 3024 14923 33343 163140 431637 0 0
21806189 0 1807050 934467 934656 16242063 112 8 0 96928 1143913 32 172 720 3024 14448 32579 164380 431637 0 0
21806191 0 1807053 934466 934656 16242064 112 8 0 96928 1143915 32 172 720 3024 14448 30796 169322 428475 0 0
21829294 0 1803989 938807 939865 16257277 133 9 0 97472 1143450 32 172 720 3024 14448 30796 175917 423183 0 0
22359964 0 1720180 1037635 1047627 16633527 112 8 0 108173 1135314 32 172 720 3024 14448 30796 177747 450449 0 0
22351190 0 1720190 1037287 1048985 16619486 115 9 0 108069 1139452 35 181 736 3056 14515 30939 163425 464710 0 0
21711945 0 1758726 932701 935081 15986154 116 8 0 96952 1347683 37 206 884 3684 16861 33703 168834 430315 0 0
21806196 0 1807052 934467 934656 16242069 112 8 0 96928 1143913 32 172 720 3088 15580 32622 163140 431637 0 0
21806207 0 1807064 934470 934657 16242053 112 8 0 96930 1143920 32 172 720 3024 14448 33461 163498 431638 0 0
21806189 0 1807053 934466 934656 16242064 112 8 0 96928 1143913 32 172 720 3024 14448 30954 166042 431597 0 0
21806191 0 1807050 934467 934656 16242064 112 8 0 96928 1143915 32 172 720 3024 14448 30796 175237 422562 0 0
22192531 0 1747005 1006478 1013967 16514051 133 9 0 104859 1137796 32 172 720 3024 14448 30796 182589 436452 0 0
22359963 0 1720180 1037635 1047627 16633532 112 8 0 108183 1135303 32 172 720 3024 14448 30796 163140 465051 0 0
21893711 0 1728849 967851 975308 16106800 119 9 0 100697 1348884 40 214 840 3420 16308 33783 169119 441470 0 0
21806188 0 1807052 934466 934656 16242060 112 8 0 96928 1143915 32 173 780 3384 16106 31739 163140 431637 0 0
21806207 0 1807064 934470 934657 16242055 112 8 0 96929 1143920 32 172 720 3024 14542 33709 163156 431637 0 0
21806196 0 1807054 934466 934656 16242068 112 8 0 96928 1143915 32 172 720 3024 14448 31652 165307 431634 0 0
21806188 0 1807050 934467 934656 16242063 112 8 0 96928 1143913 32 172 720 3024 14448 30796 172151 425648 0 0
22001996 0 1776891 970982 975098 16379368 133 9 0 100971 1140772 32 172 720 3024 14448 30796 180982 427598 0 0
22359964 0 1720180 1037634 1047627 16633528 112 8 0 108198 1135289 32 172 720 3024 14448 30796 168910 459286 0 0
22124830 0 1719490 1004084 1013722 16352331 115 9 0 104493 1258256 35 189 791 3320 15316 32539 166636 453504 0 0
21765607 0 1786523 933731 935111 16131220 116 8 0 97006 1231579 37 198 829 3484 16661 32381 165623 431100 0 0
21806188 0 1807049 934467 934656 16242062 112 8 0 96928 1143915 32 172 720 3024 14979 33287 163140 431637 0 0
21806207 0 1807070 934468 934657 16242054 112 8 0 96929 1143920 32 172 720 3024 14448 32676 164283 431634 0 0
21806196 0 1807051 934467 934656 16242067 112 8 0 96928 1143916 32 172 720 3024 14448 30796 169029 428770 0 0
21811462 0 1806787 935486 936227 16244670 133 9 0 97113 1143723 32 172 720 3024 14448 30796 175395 422727 0 0
22359959 0 1720170 1037634 1047629 16633537 112 8 0 108178 1135303 32 172 720 3024 14448 30796 178659 449537 0 0
22359961 0 1720180 1037634 1047627 16633525 112 8 0 108190 1135297 32 172 720 3024 14448 30796 163140 465056 0 0
21721011 0 1755946 935677 940075 15984713 119 9 0 97186 1351573 40 215 900 3696 16866 33831 169119 431046 0 0
21806191 0 1807051 934467 934656 16242065 112 8 0 96928 1143913 32 172 720 3108 15642 32540 163140 431637 0 0
21806209 0 1807067 934469 934657 16242058 112 8 0 96930 1143919 32 172 720 3024 14448 33515 163444 431634 0 0
21806187 0 1807049 934467 934656 16242060 112 8 0 96928 1143916 32 172 720 3024 14448 30997 165963 431635 0 0
21806196 0 1807051 934467 934656 16242067 112 8 0 96928 1143915 32 172 720 3024 14448 30796 174981 422819 0 0
22174699 0 1749806 1003155 1010329 16501444 133 9 0 104486 1138084 32 172 720 3024 14448 30796 182978 435083 0 0
22359956 0 1720170 1037634 1047629 16633539 112 8 0 108179 1135302 32 172 720 3024 14448 30796 163140 465051 0 0
21911545 0 1726059 971174 978944 16119396 119 9 0 101073 1348596 40 209 826 3393 16257 33783 169119 442548 0 0
21806193 0 1807051 934467 934656 16242065 112 8 0 96928 1143915 32 178 794 3411 16131 31668 163140 431637 0 0
21806191 0 1807054 934466 934656 16242065 112 8 0 96928 1143913 32 172 720 3024 14568 33693 163146 431634 0 0
21806208 0 1807064 934470 934657 16242056 112 8 0 96930 1143920 32 172 720 3024 14448 31739 165219 431637 0 0
21806188 0 1807049 934467 934656 16242061 112 8 0 96928 1143915 32 172 720 3024 14448 30796 171861 425939 0 0
21984168 0 1779693 967659 971460 16366764 133 9 0 100609 1141050 32 172 720 3024 14448 30796 180457 427142 0 0
22359961 0 1720180 1037635 1047627 16633525 112 8 0 108198 1135289 32 172 720 3024 14448 30796 169823 458372 0 0
22148201 0 1719560 1007511 1017363 16379917 115 9 0 104859 1245989 35 189 791 3319 15235 32369 166296 454644 0 0
21760065 0 1783653 933625 935108 16116240 116 8 0 97000 1243569 37 198 829 3485 16683 32512 165963 431039 0 0
21806194 0 1807054 934466 934656 16242066 112 8 0 96928 1143915 32 172 720 3024 15038 33229 163140 431634 0 0
21806207 0 1807064 934470 934657 16242055 112 8 0 96930 1143920 32 172 720 3024 14448 32773 164185 431637 0 0
21806192 0 1807051 934467 934656 16242065 112 8 0 96928 1143913 32 172 720 3024 14448 30796 168739 429061 0 0
21806188 0 1807052 934466 934656 16242062 112 8 0 96928 1143915 32 172 720 3024 14448 30796 175235 422562 0 0
22347403 0 1722706 1035331 1045562 16623537 133 9 0 108009 1135383 32 172 720 3024 14448 30796 179207 448334 0 0
22359960 0 1720180 1037633 1047627 16633525 112 8 0 108174 1135313 32 172 720 3024 14448 30796 163140 465056 0 0
21738846 0 1753148 939000 943713 15997324 119 9 0 97555 1351286 40 215 900 3673 16804 33818 169119 432123 0 0
21806185 0 1807052 934466 934656 16242059 112 8 0 96928 1143915 32 172 720 3131 15704 32456 163140 431634 0 0
21806209 0 1807064 934470 934657 16242058 112 8 0 96930 1143919 32 172 720 3024 14448 33565 163393 431637 0 0
21806193 0 1807051 934467 934656 16242063 112 8 0 96928 1143916 32 172 720 3024 14448 31044 165917 431635 0 0
21806192 0 1807054 934466 934656 16242066 112 8 0 96928 1143913 32 172 720 3024 14448 30796 174687 423110 0 0
22156864 0 1752591 999834 1006693 16488846 133 9 0 104133 1138349 32 172 720 3024 14448 30796 183369 433715 0 0
22359961 0 1720180 1037634 1047627 16633531 112 8 0 108173 1135313 32 172 720 3024 14448 30796 163140 465051 0 0
21929376 0 1723261 974496 982582 16132001 119 9 0 101432 1348322 40 201 813 3365 16208 33783 169119 443625 0 0
21806196 0 1807053 934466 934656 16242070 112 8 0 96928 1143914 32 186 807 3439 16151 31600 163140 431634 0 0
21806185 0 1807050 934467 934656 16242058 112 8 0 96928 1143915 32 172 720 3024 14597 33668 163141 431637 0 0
21806209 0 1807064 934470 934657 16242057 112 8 0 96930 1143919 32 172 720 3024 14448 31832 165127 431637 0 0
21806193 0 1807054 934466 934656 16242065 112 8 0 96928 1143915 32 172 720 3024 14448 30796 171567 426230 0 0
21966335 0 1782488 964338 967822 16354157 133 9 0 100255 1141319 32 172 720 3024 14448 30796 179936 426686 0 0
22359956 0 1720170 1037635 1047629 16633532 112 8 0 108176 1135306 32 172 720 3024 14448 30796 170735 457461 0 0
22171575 0 1719640 1010939 1021002 16407493 115 9 0 105241 1233713 35 189 791 3313 15146 32189 165960 455800 0 0
21754527 0 1780787 933518 935105 16101262 116 8 0 96994 1255561 37 198 829 3491 16711 32656 166299 430955 0 0
21806196 0 1807052 934467 934656 16242069 112 8 0 96928 1143913 32 172 720 3024 15099 33167 163140 431637 0 0
21806207 0 1807064 934470 934657 16242053 112 8 0 96930 1143920 32 172 720 3024 14448 32871 164088 431638 0 0
21806187 0 1807052 934466 934656 16242063 112 8 0 96928 1143913 32 172 720 3024 14448 30796 168445 429352 0 0
21806193 0 1807051 934467 934656 16242065 112 8 0 96928 1143915 32 172 720 3024 14448 30796 175237 422562 0 0
22329570 0 1725504 1032009 1041924 16610929 133 9 0 107647 1135662 32 172 720 3024 14448 30796 179596 446965 0 0
22359955 0 1720170 1037633 1047629 16633534 112 8 0 108183 1135298 32 172 720 3024 14448 30796 163140 465056 0 0
21756679 0 1750360 942322 947349 16009919 119 9 0 97909 1351023 40 215 900 3648 16743 33807 169119 433197 0 0
21982478 217 3113228 2226182 700463 12980701 1431244 112578 152530 166101 630469 95 106 369 1651 8541 20962 122928 314113 0 0
24676706 10 9748791 2537913 1399078 3567982 4536629 2667655 36112 23581 145372 552 93 427 2146 7872 2400 0 93 0 0
11133913 69 4483687 1047530 674792 1569384 2013526 1268697 928 230 70097 4 0 0 4 4751 0 0 214 0 0
number of instructions: 24544661508
