rm *.o srad
makefile:24: recipe for target 'clean' failed
gcc	main.c \
		-c -O3 -fopenmp
gcc	main.o \
		-lm -fopenmp -o srad
Time spent in different stages of the application:
0.019201999530 s, 0.000258056156 % : SETUP VARIABLES
0.387313008308 s, 0.005205109250 % : READ COMMAND LINE PARAMETERS
68.195358276367 s, 0.916479170322 % : READ IMAGE FROM FILE
0.798528015614 s, 0.010731438175 % : RESIZE IMAGE
0.106797002256 s, 0.001435247599 % : SETUP, MEMORY ALLOCATION
8.800213813782 s, 0.118266299367 % : EXTRACT IMAGE
7294.251464843750 s, 98.027626037598 % : COMPUTE
12.781243324280 s, 0.171767443419 % : COMPRESS IMAGE
55.630355834961 s, 0.747617781162 % : SAVE IMAGE INTO FILE
0.045198000968 s, 0.000607417081 % : FREE MEMORY
Total time:
7441.015625000000 s
