320032,12904,2036,137
251506,3962,897,41
251440,3961,897,41
251477,3961,897,41
251456,3960,897,41
251523,3963,897,41
251455,3961,897,41
251448,3962,897,41
251485,3961,897,41
251472,3960,897,41
251528,3962,897,41
251459,3961,897,41
251455,3962,897,41
251492,3960,897,41
251412,3960,897,41
251518,3963,897,41
251457,3961,897,41
120982,1923,897,41
