1000000000,1755212062,729729927,1173082253,1194047980,258743427,411933070,586682493,707754814,844101526,947869877,1027105028
1000000000,1773927690,782683859,1223605939,1235106429,279811115,457109304,649058892,778212224,922533710,1021740638,1100851000
1000000000,1773968448,782682931,1223636273,1235137216,279800200,457102749,649057631,778229501,922556009,1021759403,1100874215
1000000000,1773855507,782627687,1223535042,1235035755,279811961,457102859,649028063,778156471,922458248,1021669088,1100773033
1000000000,1773970592,782683429,1223640729,1235141922,279799425,457101776,649058832,778232619,922559179,1021762501,1100877122
1000000000,1773868571,782631127,1223545515,1235045758,279810965,457100092,649028721,778159970,922466249,1021676913,1100782724
1000000000,1773939053,782692692,1223615596,1235116289,279810518,457110533,649063575,778220380,922545354,1021751171,1100862755
1000000000,1773958221,782675361,1223626002,1235126944,279800225,457102040,649053300,778221884,922545582,1021749703,1100863239
1000000000,1773866061,782636897,1223547329,1235048005,279812189,457103944,649033137,778165196,922469682,1021680428,1100785663
1000000000,1773969876,782683042,1223640221,1235141363,279799390,457101940,649058699,778232428,922558900,1021762153,1100876663
1000000000,1773869363,782633838,1223547836,1235048199,279811117,457100657,649030559,778162611,922469179,1021679691,1100785433
1000000000,1773938952,782691978,1223614379,1235115056,279810670,457111146,649063512,778220177,922544860,1021750457,1100861847
1000000000,1773957191,782675365,1223626460,1235127345,279800326,457101954,649053268,778221745,922545147,1021749450,1100863131
1000000000,1773865748,782637089,1223548332,1235048978,279812621,457104154,649033640,778165648,922469837,1021680742,1100785918
1000000000,1773970596,782683715,1223640264,1235141494,279799211,457102135,649058775,778232796,922559569,1021762718,1100877353
1000000000,1773870633,782633512,1223546451,1235046878,279810832,457100429,649030223,778162318,922469072,1021679213,1100784802
1000000000,1773937971,782690937,1223613951,1235114564,279810699,457110811,649062850,778219205,922543910,1021749662,1100861044
477801504,847586980,373961323,584640735,590135741,133691687,218405143,310117521,371829121,440784909,488185996,525985482
