PACKAGE_ENERGY:PACKAGE0,PACKAGE_ENERGY:PACKAGE1,DRAM_ENERGY:PACKAGE0,DRAM_ENERGY:PACKAGE1,TOTAL_ENERGY,TOTAL_TIME,POWER
10358.132080078001,7792.268737792000,5342.272689819000,5447.102752685000,28939.776260374005,411.884960169904,70.261794090360
7344.351684570001,6882.644042968001,3803.602462768000,3974.513092041000,22005.111282347003,292.488788017072,75.234033521526
4995.237548828000,4568.584899902000,2393.361480712000,2520.611663818000,14477.795593259998,179.875787354074,80.487739935566
3570.521972656000,3376.109985351000,1581.689987182000,1650.888076782000,10179.210021971001,117.889245647937,86.345535303280
3398.303833007000,3134.860107421000,1349.762771606000,1426.384490966000,9309.311203000001,99.826407679357,93.254995540875
2724.786865234000,2488.950439453000,874.163375854000,895.647491455000,6983.548171996000,60.725054824725,115.002747912754
2313.601318359000,2204.475158691000,708.475936889000,788.686859130000,6015.239273069001,49.597628568299,121.280783914611
2139.993164062000,2044.643676757000,630.097412109000,688.668380737000,5503.402633665000,42.788021381013,128.620171160967
