125358 2060 1124 110
111682 1752 9 3
111682 1752 9 3
111681 1752 9 3
111682 1752 9 3
111682 1752 9 3
111682 1751 9 3
111682 1752 9 3
111682 1752 9 3
111682 1752 9 3
111682 1752 9 3
111682 1752 9 3
111682 1752 9 3
111682 1751 9 3
111682 1752 9 3
111681 1752 9 3
111681 1752 9 3
111682 1752 9 3
111682 1752 9 3
111682 1752 9 3
111682 1751 9 3
111682 1752 9 3
111682 1752 9 3
111682 1752 9 3
111682 1752 9 3
111682 1752 9 3
111682 1752 9 3
111682 1751 9 3
111681 1752 9 3
111681 1752 9 3
111682 1752 9 3
111682 1752 9 3
111682 1752 9 3
111682 1752 9 3
111682 1751 9 3
111682 1752 9 3
111682 1752 9 3
111682 1752 9 3
111682 1752 9 3
111682 1752 9 3
111682 1752 9 3
111681 1751 9 3
111681 1752 9 3
111682 1752 9 3
111682 1752 9 3
111682 1752 9 3
111682 1752 9 3
111682 1752 9 3
111682 1751 9 3
111682 1752 9 3
111682 1752 9 3
111682 1752 9 3
111682 1752 9 3
111682 1752 9 3
111681 1752 9 3
111681 1751 9 3
111682 1752 9 3
111682 1752 9 3
111682 1752 9 3
111682 1752 9 3
111682 1752 9 3
111682 1752 9 3
111682 1751 9 3
111682 1752 9 3
111682 1752 9 3
111682 1752 9 3
111681 1752 9 3
111681 1752 9 3
111682 1752 9 3
111682 1751 9 3
111682 1752 9 3
111682 1752 9 3
111682 1752 9 3
111682 1752 9 3
111682 1752 9 3
111682 1752 9 3
111682 1751 9 3
111682 1752 9 3
111682 1752 9 3
111681 1752 9 3
111681 1752 9 3
111682 1752 9 3
111682 1752 9 3
111682 1751 9 3
111682 1752 9 3
111682 1752 9 3
111682 1752 9 3
111682 1752 9 3
111682 1752 9 3
111682 1752 9 3
111682 1751 9 3
111682 1752 9 3
111681 1752 9 3
111681 1752 9 3
111682 1752 9 3
111682 1752 9 3
111682 1752 9 3
111682 1751 9 3
111682 1752 9 3
111682 1752 9 3
111682 1752 9 3
111682 1752 9 3
111682 1752 9 3
111682 1752 9 3
111682 1751 9 3
111681 1752 9 3
111681 1752 9 3
111682 1752 9 3
111682 1752 9 3
111682 1752 9 3
111682 1752 9 3
111682 1751 9 3
111682 1752 9 3
111682 1752 9 3
111682 1752 9 3
111682 1752 9 3
111682 1752 9 3
111682 1752 9 3
111681 1751 9 3
111682 1752 9 3
111682 1752 9 3
111682 1752 9 3
111682 1752 9 3
111682 1752 9 3
111682 1752 9 3
111682 1752 9 3
111682 1751 9 3
111682 1752 9 3
111682 1752 9 3
111682 1752 9 3
111681 1752 9 3
111681 1752 9 3
111682 1752 9 3
111682 1751 9 3
111682 1752 9 3
111682 1752 9 3
111682 1752 9 3
111682 1752 9 3
111682 1752 9 3
111682 1752 9 3
111682 1751 9 3
111682 1752 9 3
111682 1752 9 3
111681 1752 9 3
111681 1752 9 3
111682 1752 9 3
111682 1752 9 3
111682 1751 9 3
111682 1752 9 3
111682 1752 9 3
111682 1752 9 3
111682 1752 9 3
111682 1752 9 3
111682 1752 9 3
111682 1751 9 3
111682 1752 9 3
111681 1752 9 3
111681 1752 9 3
111682 1752 9 3
111682 1752 9 3
111682 1752 9 3
111682 1751 9 3
111682 1752 9 3
111682 1752 9 3
111682 1752 9 3
111682 1752 9 3
111682 1752 9 3
111682 1752 9 3
111682 1751 9 3
111681 1752 9 3
111682 1752 9 3
111682 1752 9 3
111682 1752 9 3
111682 1752 9 3
111682 1752 9 3
111682 1751 9 3
111682 1752 9 3
111682 1752 9 3
111682 1752 9 3
111682 1752 9 3
111682 1752 9 3
111682 1752 9 3
111681 1751 9 3
111682 1752 9 3
111682 1752 9 3
111682 1752 9 3
111682 1752 9 3
111682 1752 9 3
111682 1752 9 3
111682 1751 9 3
111682 1752 9 3
111682 1752 9 3
111682 1752 9 3
111682 1752 9 3
111681 1752 9 3
111681 1752 9 3
111682 1751 9 3
111682 1752 9 3
111682 1752 9 3
111682 1752 9 3
111682 1752 9 3
111682 1752 9 3
111682 1752 9 3
111682 1751 9 3
111682 1752 9 3
111682 1752 9 3
111682 1752 9 3
111681 1752 9 3
111681 1752 9 3
111682 1752 9 3
111682 1751 9 3
111682 1752 9 3
111682 1752 9 3
111682 1752 9 3
111682 1752 9 3
111682 1752 9 3
111682 1752 9 3
111682 1751 9 3
111682 1752 9 3
111682 1752 9 3
111681 1752 9 3
111681 1752 9 3
111682 1752 9 3
111682 1752 9 3
111682 1751 9 3
111682 1752 9 3
111682 1752 9 3
111682 1752 9 3
111682 1752 9 3
111682 1752 9 3
111682 1752 9 3
111682 1751 9 3
111682 1752 9 3
111681 1752 9 3
111682 1752 9 3
111682 1752 9 3
111682 1752 9 3
111682 1752 9 3
111682 1751 9 3
111682 1752 9 3
111682 1752 9 3
111682 1752 9 3
111682 1752 9 3
111682 1752 9 3
111682 1752 9 3
111681 1751 9 3
111681 1752 9 3
111682 1752 9 3
111682 1752 9 3
111682 1752 9 3
111682 1752 9 3
111682 1752 9 3
111682 1751 9 3
111682 1752 9 3
111682 1752 9 3
111682 1752 9 3
111682 1752 9 3
111682 1752 9 3
111681 1752 9 3
111681 1751 9 3
111682 1752 9 3
111682 1752 9 3
111682 1752 9 3
111682 1752 9 3
111682 1752 9 3
111682 1752 9 3
111682 1752 9 3
111682 1751 9 3
111682 1752 9 3
111682 1752 9 3
111682 1752 9 3
111681 1752 9 3
111681 1752 9 3
111682 1752 9 3
111682 1751 9 3
111682 1752 9 3
111682 1752 9 3
111682 1752 9 3
111682 1752 9 3
111682 1752 9 3
111682 1752 9 3
111682 1751 9 3
111682 1752 9 3
111682 1752 9 3
111681 1752 9 3
111682 1752 9 3
111682 1752 9 3
111682 1752 9 3
111682 1751 9 3
111682 1752 9 3
111682 1752 9 3
111682 1752 9 3
111682 1752 9 3
111682 1752 9 3
111682 1752 9 3
111682 1751 9 3
111681 1752 9 3
111681 1752 9 3
111682 1752 9 3
111682 1752 9 3
111682 1752 9 3
111682 1752 9 3
111682 1751 9 3
111682 1752 9 3
111682 1752 9 3
111682 1752 9 3
111682 1752 9 3
111682 1752 9 3
111682 1752 9 3
111681 1751 9 3
111681 1752 9 3
111682 1752 9 3
111682 1752 9 3
111682 1752 9 3
111682 1752 9 3
111682 1752 9 3
111682 1751 9 3
111682 1752 9 3
111682 1752 9 3
111682 1752 9 3
111682 1752 9 3
111682 1752 9 3
111681 1752 9 3
111681 1751 9 3
111682 1752 9 3
111682 1752 9 3
111682 1752 9 3
111682 1752 9 3
111682 1752 9 3
111682 1752 9 3
111682 1751 9 3
111682 1752 9 3
111682 1752 9 3
111682 1752 9 3
111682 1752 9 3
111681 1752 9 3
111681 1752 9 3
111682 1751 9 3
111682 1752 9 3
111682 1752 9 3
111682 1752 9 3
111682 1752 9 3
111682 1752 9 3
111682 1752 9 3
111682 1751 9 3
111682 1752 9 3
111682 1752 9 3
111682 1752 9 3
111681 1752 9 3
111682 1752 9 3
111682 1752 9 3
111682 1751 9 3
111682 1752 9 3
111682 1752 9 3
111682 1752 9 3
111682 1752 9 3
111682 1752 9 3
111682 1752 9 3
111682 1751 9 3
111682 1752 9 3
111681 1752 9 3
111681 1752 9 3
111682 1752 9 3
111682 1752 9 3
111682 1752 9 3
111682 1751 9 3
111682 1752 9 3
111682 1752 9 3
111682 1752 9 3
111682 1752 9 3
111682 1752 9 3
111682 1752 9 3
111682 1751 9 3
111681 1752 9 3
111681 1752 9 3
111682 1752 9 3
111682 1752 9 3
111682 1752 9 3
111682 1752 9 3
111682 1751 9 3
111682 1752 9 3
111682 1752 9 3
111682 1752 9 3
111682 1752 9 3
111682 1752 9 3
111682 1752 9 3
111681 1751 9 3
111681 1752 9 3
111682 1752 9 3
111682 1752 9 3
111682 1752 9 3
111682 1752 9 3
111682 1752 9 3
111682 1751 9 3
111682 1752 9 3
111682 1752 9 3
111682 1752 9 3
111682 1752 9 3
111682 1752 9 3
111681 1752 9 3
111682 1751 9 3
111682 1752 9 3
111682 1752 9 3
111682 1752 9 3
111682 1752 9 3
111682 1752 9 3
111682 1752 9 3
111682 1752 9 3
111682 1751 9 3
111682 1752 9 3
111682 1752 9 3
111681 1752 9 3
111681 1752 9 3
111682 1752 9 3
111682 1752 9 3
111682 1751 9 3
111682 1752 9 3
111682 1752 9 3
111682 1752 9 3
111682 1752 9 3
111682 1752 9 3
111682 1752 9 3
111682 1751 9 3
111682 1752 9 3
111681 1752 9 3
111681 1752 9 3
111682 1752 9 3
111682 1752 9 3
111682 1752 9 3
111682 1751 9 3
111682 1752 9 3
111682 1752 9 3
111682 1752 9 3
111682 1752 9 3
111682 1752 9 3
111682 1752 9 3
111682 1751 9 3
111681 1752 9 3
111681 1752 9 3
111682 1752 9 3
111682 1752 9 3
111682 1752 9 3
111682 1752 9 3
111682 1751 9 3
111682 1752 9 3
111682 1752 9 3
111682 1752 9 3
111682 1752 9 3
111682 1752 9 3
111682 1752 9 3
111681 1751 9 3
111681 1752 9 3
111682 1752 9 3
111682 1752 9 3
111682 1752 9 3
111682 1752 9 3
111682 1752 9 3
111682 1751 9 3
111682 1752 9 3
111682 1752 9 3
111682 1752 9 3
111682 1752 9 3
111682 1752 9 3
111681 1752 9 3
111682 1751 9 3
111682 1752 9 3
111682 1752 9 3
111682 1752 9 3
111682 1752 9 3
111682 1752 9 3
111682 1752 9 3
111682 1751 9 3
111682 1752 9 3
111682 1752 9 3
111682 1752 9 3
111681 1752 9 3
111681 1752 9 3
111682 1752 9 3
111682 1751 9 3
111682 1752 9 3
111682 1752 9 3
111682 1752 9 3
111682 1752 9 3
111682 1752 9 3
111682 1752 9 3
111682 1751 9 3
111682 1752 9 3
111682 1752 9 3
111681 1752 9 3
111681 1752 9 3
111682 1752 9 3
111682 1752 9 3
111682 1751 9 3
111682 1752 9 3
111682 1752 9 3
111682 1752 9 3
111682 1752 9 3
111682 1752 9 3
111682 1752 9 3
111682 1751 9 3
111682 1752 9 3
111681 1752 9 3
111681 1752 9 3
111682 1752 9 3
111682 1752 9 3
111682 1752 9 3
111682 1751 9 3
111682 1752 9 3
111682 1752 9 3
111682 1752 9 3
111682 1752 9 3
111682 1752 9 3
111682 1752 9 3
111682 1751 9 3
111681 1752 9 3
111682 1752 9 3
111682 1752 9 3
111682 1752 9 3
111682 1752 9 3
111682 1752 9 3
111682 1751 9 3
111682 1752 9 3
111682 1752 9 3
111682 1752 9 3
111682 1752 9 3
111682 1752 9 3
111681 1752 9 3
111681 1751 9 3
111682 1752 9 3
111682 1752 9 3
111682 1752 9 3
111682 1752 9 3
111682 1752 9 3
111682 1752 9 3
111682 1751 9 3
111682 1752 9 3
111682 1752 9 3
111682 1752 9 3
111682 1752 9 3
111681 1752 9 3
111681 1752 9 3
111682 1751 9 3
111682 1752 9 3
111682 1752 9 3
111682 1752 9 3
111682 1752 9 3
111682 1752 9 3
111682 1752 9 3
111682 1752 9 3
111682 1751 9 3
111682 1752 9 3
111682 1752 9 3
111681 1752 9 3
111681 1752 9 3
111682 1752 9 3
111682 1752 9 3
111682 1751 9 3
111682 1752 9 3
111682 1752 9 3
111682 1752 9 3
111682 1752 9 3
111682 1752 9 3
111682 1752 9 3
111682 1751 9 3
111682 1752 9 3
111681 1752 9 3
111682 1752 9 3
111682 1752 9 3
111682 1752 9 3
111682 1752 9 3
111682 1751 9 3
111682 1752 9 3
111682 1752 9 3
111682 1752 9 3
111682 1752 9 3
111682 1752 9 3
111682 1752 9 3
111681 1751 9 3
111681 1752 9 3
111682 1752 9 3
111682 1752 9 3
111682 1752 9 3
111682 1752 9 3
111682 1752 9 3
111682 1751 9 3
111682 1752 9 3
111682 1752 9 3
111682 1752 9 3
111682 1752 9 3
111682 1752 9 3
111681 1752 9 3
111681 1751 9 3
111682 1752 9 3
111682 1752 9 3
111682 1752 9 3
111682 1752 9 3
111682 1752 9 3
111682 1752 9 3
111682 1751 9 3
111682 1752 9 3
111551 1768 64 12
97796 1543 93 9
97692 1541 93 9
97784 1543 92 9
97834 1543 93 9
97824 1543 93 9
97810 1543 93 9
97824 1543 92 9
97755 1543 93 9
97834 1543 93 9
97814 1543 92 9
97804 1543 93 9
97824 1543 93 9
97770 1543 93 9
97837 1543 93 9
97756 1543 93 9
97810 1543 93 9
97756 1541 93 9
97770 1543 93 9
97760 1543 93 9
97836 1543 93 9
97849 1543 92 9
97768 1543 93 9
97768 1543 92 9
97784 1541 93 9
97838 1545 93 9
97768 1541 93 9
97794 1543 93 9
97744 1543 93 9
97744 1541 93 9
97718 1543 93 9
97784 1541 93 9
97800 1543 93 9
97794 1543 93 9
97776 1543 93 9
97796 1543 93 9
97822 1543 93 9
97834 1543 93 9
97810 1543 93 9
97796 1543 93 9
97861 1545 92 9
97822 1543 93 9
97768 1541 93 9
97704 1543 93 9
97825 1543 93 9
97850 1543 93 9
97850 1543 93 9
97716 1543 93 9
97666 1541 92 9
97823 1543 93 9
97808 1543 92 9
97810 1543 93 9
97810 1543 93 9
97824 1543 93 9
97822 1543 93 9
97742 1541 93 9
97731 1543 93 9
97798 1543 93 9
97771 1541 93 9
97808 1543 93 9
97772 1543 93 9
97732 1543 93 9
97742 1541 93 9
97822 1543 93 9
97822 1543 93 9
97824 1543 92 9
97794 1543 93 9
97862 1545 92 9
97718 1541 93 9
97808 1543 92 9
97808 1543 93 9
97799 1543 93 9
97768 1543 93 9
97822 1543 93 9
97836 1543 93 9
97796 1543 92 9
97758 1541 93 9
97768 1543 93 9
97770 1543 93 9
97762 1543 93 9
97768 1541 93 9
97822 1543 93 9
97796 1543 93 9
97744 1543 93 9
97796 1543 93 9
97822 1543 93 9
97783 1543 93 9
97796 1541 93 9
97822 1545 93 9
97837 1543 93 9
97704 1541 93 9
97782 1543 93 9
97824 1543 93 9
97796 1543 92 9
97768 1541 93 9
97810 1545 93 9
97782 1541 93 9
97903 1545 92 9
97808 1543 92 9
97851 1543 93 9
97758 1543 93 9
97862 1543 93 9
97770 1543 93 9
97834 1543 93 9
97798 1543 93 9
97822 1543 92 9
97864 1545 93 9
97770 1543 93 9
97742 1541 93 9
97861 1543 93 9
97690 1541 93 9
97746 1543 93 9
97734 1541 93 9
97822 1545 93 9
97796 1541 93 9
97770 1543 93 9
97835 1543 93 9
97822 1543 93 9
97795 1543 93 9
97848 1545 92 9
97746 1541 92 9
97810 1543 93 9
97692 1541 93 9
97824 1543 93 9
97782 1543 93 9
97760 1543 93 9
97742 1541 93 9
97796 1543 92 9
97834 1543 92 9
97755 1543 93 9
97810 1543 93 9
97728 1541 93 9
97782 1543 92 9
97748 1543 93 9
97822 1543 93 9
97836 1543 93 9
97798 1543 93 9
97784 1543 93 9
97718 1541 93 9
97808 1543 93 9
97838 1543 92 9
97716 1543 92 9
97849 1543 93 9
97824 1543 92 9
97823 1543 93 9
97822 1543 93 9
97702 1543 93 9
97798 1541 93 9
97744 1543 92 9
97744 1541 93 9
97836 1545 93 9
97755 1541 92 9
97782 1543 93 9
97746 1543 93 9
97808 1543 93 9
97822 1543 92 9
97811 1543 93 9
97780 1541 93 9
97836 1545 92 9
97782 1541 92 9
97810 1545 93 9
97760 1541 93 9
97796 1543 92 9
97836 1543 93 9
97784 1543 93 9
97758 1543 93 9
97784 1541 93 9
97770 1543 92 9
97774 1543 93 9
97770 1543 93 9
97768 1541 93 9
97770 1543 93 9
97836 1543 93 9
97836 1543 92 9
97714 1543 93 9
97770 1541 93 9
97756 1543 93 9
97758 1543 93 9
97760 1541 93 9
97756 1543 93 9
97746 1541 93 9
97783 1543 93 9
97705 1541 93 9
97808 1543 93 9
97876 1545 92 9
97770 1543 93 9
97716 1541 92 9
97799 1543 93 9
97810 1543 93 9
97810 1543 93 9
97810 1543 93 9
97822 1543 93 9
97770 1543 93 9
97800 1543 93 9
97812 1543 93 9
97794 1543 93 9
97862 1543 93 9
97835 1543 93 9
97808 1543 93 9
97834 1543 93 9
97782 1543 93 9
97744 1543 93 9
97848 1543 92 9
97864 1543 93 9
97810 1543 93 9
97824 1545 93 9
97808 1543 93 9
97730 1541 93 9
97836 1543 93 9
97716 1541 93 9
97784 1543 92 9
97730 1543 93 9
97850 1543 93 9
97774 1543 93 9
97822 1543 93 9
97796 1543 93 9
97824 1543 93 9
97836 1543 92 9
97862 1545 92 9
97810 1543 93 9
97784 1541 92 9
97782 1543 93 9
97824 1543 93 9
97822 1543 92 9
97810 1543 93 9
97784 1543 93 9
97822 1543 93 9
97744 1543 93 9
97822 1543 92 9
97768 1543 93 9
97824 1543 92 9
97810 1543 93 9
97744 1541 93 9
97716 1543 92 9
97772 1541 93 9
97874 1545 92 9
97733 1541 93 9
97810 1543 93 9
97809 1543 92 9
97784 1543 93 9
97822 1543 92 9
97752 1543 92 9
97848 1543 92 9
97849 1543 92 9
97848 1545 93 9
97796 1543 93 9
97824 1543 93 9
97768 1541 93 9
97798 1543 93 9
97730 1543 93 9
97834 1543 93 9
97835 1543 93 9
97808 1543 92 9
97769 1543 93 9
97848 1543 93 9
97772 1543 93 9
97782 1543 93 9
97822 1543 92 9
97734 1541 93 9
97808 1543 93 9
97797 1543 93 9
97796 1543 93 9
97810 1543 93 9
97756 1543 93 9
97810 1543 92 9
97796 1543 93 9
97756 1541 93 9
97812 1543 93 9
97758 1543 93 9
97784 1543 93 9
97848 1543 92 9
97809 1543 92 9
97761 1543 92 9
97780 1541 93 9
97694 1541 93 9
97834 1545 93 9
97770 1541 93 9
97770 1543 92 9
97796 1543 92 9
97836 1543 92 9
97834 1543 93 9
97862 1545 93 9
97742 1541 93 9
97758 1543 92 9
97794 1543 93 9
97822 1543 92 9
97664 1541 93 9
97755 1541 93 9
97782 1543 93 9
97756 1543 93 9
97689 1541 93 9
97808 1543 92 9
97730 1541 93 9
97836 1543 93 9
97744 1543 93 9
97834 1543 93 9
97782 1543 93 9
97810 1543 93 9
97746 1541 93 9
97862 1545 92 9
97834 1543 92 9
97837 1543 93 9
97826 1543 93 9
97768 1543 93 9
97860 1545 93 9
97848 1543 93 9
97756 1541 93 9
97783 1543 93 9
97690 1541 92 9
97796 1543 93 9
97808 1543 92 9
97756 1543 92 9
97780 1543 93 9
97784 1541 93 9
97795 1543 93 9
97770 1543 93 9
97794 1543 93 9
97758 1543 93 9
97784 1541 93 9
97721 1543 93 9
97796 1543 93 9
97755 1541 93 9
97784 1543 93 9
97772 1543 93 9
97785 1543 93 9
97782 1541 92 9
97836 1545 93 9
97734 1541 93 9
97784 1543 93 9
97756 1541 92 9
97837 1545 92 9
97848 1543 93 9
97760 1543 93 9
97784 1541 93 9
97746 1543 93 9
97794 1543 93 9
97756 1541 93 9
97810 1543 92 9
97822 1545 93 9
97809 1543 93 9
97850 1543 92 9
97782 1543 93 9
97808 1543 93 9
97770 1541 93 9
97820 1543 93 9
97729 1543 93 9
97836 1543 92 9
97794 1543 93 9
97811 1543 93 9
97784 1543 93 9
97874 1543 92 9
97786 1543 93 9
97706 1541 93 9
97822 1543 93 9
97758 1543 93 9
97754 1543 93 9
97809 1543 93 9
97836 1543 93 9
97850 1543 92 9
97810 1543 92 9
97822 1543 93 9
97718 1543 92 9
97820 1543 93 9
97837 1543 92 9
97874 1543 92 9
97836 1545 92 9
97690 1541 93 9
97768 1541 93 9
97782 1543 92 9
97782 1543 93 9
97876 1545 92 9
97782 1541 93 9
97784 1543 93 9
97822 1543 92 9
97742 1543 92 9
97783 1543 93 9
97758 1541 93 9
97794 1543 93 9
97822 1543 92 9
97797 1543 93 9
97716 1541 93 9
97835 1545 93 9
97848 1543 93 9
97668 1541 93 9
97716 1541 93 9
97860 1545 92 9
97795 1541 93 9
97744 1543 92 9
97836 1543 93 9
97822 1543 93 9
97820 1543 93 9
97798 1543 92 9
97798 1543 93 9
97808 1543 93 9
97852 1545 92 9
97808 1543 93 9
97890 1543 93 9
97756 1543 93 9
97852 1543 93 9
97796 1543 93 9
97798 1543 93 9
97798 1543 92 9
97810 1543 93 9
97730 1541 93 9
97780 1543 93 9
97704 1541 93 9
97822 1543 93 9
97838 1545 92 9
97810 1543 93 9
97810 1543 93 9
97862 1543 93 9
97756 1543 93 9
97785 1541 93 9
97820 1545 93 9
97836 1543 92 9
97746 1541 93 9
97794 1543 93 9
97756 1543 93 9
97782 1543 93 9
97770 1541 93 9
97794 1543 92 9
97836 1543 93 9
97782 1543 92 9
97810 1543 92 9
97810 1543 93 9
97838 1543 92 9
97796 1543 92 9
97769 1543 93 9
97676 1541 93 9
97756 1543 92 9
97810 1543 93 9
97770 1541 93 9
97728 1543 93 9
97781 1543 92 9
97824 1543 92 9
97716 1541 93 9
97730 1541 93 9
97780 1543 93 9
97718 1541 93 9
97758 1543 93 9
97796 1543 92 9
97836 1543 92 9
97808 1543 92 9
97850 1543 93 9
97809 1543 93 9
97772 1543 93 9
97744 1543 93 9
97742 1541 92 9
97810 1543 93 9
97756 1543 92 9
97850 1543 93 9
97786 1543 93 9
97689 1541 93 9
97810 1543 93 9
97822 1543 92 9
97732 1543 93 9
97862 1543 93 9
97770 1543 93 9
97758 1541 93 9
97786 1543 93 9
97728 1543 93 9
97770 1541 92 9
97796 1543 93 9
97800 1543 93 9
97800 1543 92 9
97796 1543 93 9
97770 1543 93 9
97798 1543 93 9
97810 1543 92 9
97742 1541 93 9
97756 1543 93 9
97756 1541 93 9
97716 1541 93 9
97810 1545 92 9
97702 1541 92 9
97810 1543 93 9
97772 1541 93 9
97781 1543 93 9
97808 1543 92 9
97810 1543 92 9
97798 1543 92 9
97809 1543 93 9
97744 1543 93 9
97849 1543 92 9
97822 1543 92 9
97810 1543 93 9
97808 1543 92 9
97692 1541 93 9
97770 1543 93 9
97742 1541 92 9
97754 1543 93 9
97746 1541 93 9
97702 1543 93 9
97730 1541 93 9
97808 1543 92 9
97744 1543 93 9
97796 1541 93 9
97716 1543 93 9
97730 1541 93 9
97743 1543 93 9
97784 1541 93 9
97742 1543 93 9
97746 1541 93 9
97756 1543 93 9
97808 1543 93 9
97824 1543 93 9
97768 1543 93 9
97822 1543 93 9
97824 1543 93 9
97824 1543 93 9
97782 1543 93 9
97782 1543 93 9
97756 1541 93 9
97744 1543 93 9
97782 1543 93 9
97728 1541 93 9
97743 1543 92 9
97756 1541 93 9
97794 1543 93 9
97690 1541 93 9
97770 1543 93 9
97822 1543 93 9
97821 1543 93 9
97784 1543 93 9
97798 1543 93 9
97862 1543 93 9
97744 1543 93 9
97828 1543 92 9
97782 1543 93 9
97784 1541 92 9
97770 1543 93 9
97768 1543 92 9
97798 1543 93 9
97822 1543 93 9
97876 1543 92 9
97732 1543 93 9
97794 1543 93 9
97862 1543 93 9
97756 1543 93 9
97782 1543 93 9
97754 1541 93 9
97782 1543 93 9
97822 1543 93 9
97860 1543 93 9
97767 1543 93 9
97849 1543 92 9
97688 1543 93 9
97862 1543 92 9
97784 1543 92 9
97760 1541 92 9
97770 1543 93 9
97862 1545 92 9
97839 1543 93 9
97808 1543 93 9
97798 1543 92 9
97754 1541 92 9
97784 1543 93 9
97782 1543 93 9
97768 1543 93 9
97730 1541 93 9
97760 1543 92 9
97732 1541 93 9
97812 1543 92 9
97834 1543 93 9
97760 1543 93 9
97780 1543 93 9
81946 1295 92 9
number of instructions: 116683703203
