------------------------

num of omp threads = 1 

Reading File
Start traversing the tree
PAPI measurements:(rapl)> > > > > > > > > > > >
Counting Energy Consumption:
PACKAGE_ENERGY_CNT:PACKAGE0 (J) 0.000542075000
PACKAGE_ENERGY_CNT:PACKAGE1 (J) 0.000419554000
DRAM_ENERGY_CNT:PACKAGE0 (J)    0.000384994000
DRAM_ENERGY_CNT:PACKAGE1 (J)    0.000331138000


Energy in total:
PACKAGE_ENERGY:PACKAGE0 (J) 33.085632324000
PACKAGE_ENERGY:PACKAGE1 (J) 25.607543945000
DRAM_ENERGY:PACKAGE0    (J) 5.874542236000
DRAM_ENERGY:PACKAGE1    (J) 5.052764892000

Total time:  1.020142078400 (s)
Power (W) 68.245869738279
==================================================================


Result stored in result.txt
========================




------------------------

num of omp threads = 2 

Reading File
Start traversing the tree
PAPI measurements:(rapl)> > > > > > > > > > > >
Counting Energy Consumption:
PACKAGE_ENERGY_CNT:PACKAGE0 (J) 0.000511268000
PACKAGE_ENERGY_CNT:PACKAGE1 (J) 0.000521219000
DRAM_ENERGY_CNT:PACKAGE0 (J)    0.000242072000
DRAM_ENERGY_CNT:PACKAGE1 (J)    0.000229644000


Energy in total:
PACKAGE_ENERGY:PACKAGE0 (J) 31.205322265000
PACKAGE_ENERGY:PACKAGE1 (J) 31.812683105000
DRAM_ENERGY:PACKAGE0    (J) 3.693725585000
DRAM_ENERGY:PACKAGE1    (J) 3.504089355000

Total time:  0.560332059860 (s)
Power (W) 125.311088441941
==================================================================


Result stored in result.txt
========================




------------------------

num of omp threads = 3 

Reading File
Start traversing the tree
PAPI measurements:(rapl)> > > > > > > > > > > >
Counting Energy Consumption:
PACKAGE_ENERGY_CNT:PACKAGE0 (J) 0.000369011000
PACKAGE_ENERGY_CNT:PACKAGE1 (J) 0.000377423000
DRAM_ENERGY_CNT:PACKAGE0 (J)    0.000177342000
DRAM_ENERGY_CNT:PACKAGE1 (J)    0.000169565000


Energy in total:
PACKAGE_ENERGY:PACKAGE0 (J) 22.522644042000
PACKAGE_ENERGY:PACKAGE1 (J) 23.036071777000
DRAM_ENERGY:PACKAGE0    (J) 2.706024169000
DRAM_ENERGY:PACKAGE1    (J) 2.587356567000

Total time:  0.406855821609 (s)
Power (W) 124.988002761844
==================================================================


Result stored in result.txt
========================




------------------------

num of omp threads = 4 

Reading File
Start traversing the tree
PAPI measurements:(rapl)> > > > > > > > > > > >
Counting Energy Consumption:
PACKAGE_ENERGY_CNT:PACKAGE0 (J) 0.000324174000
PACKAGE_ENERGY_CNT:PACKAGE1 (J) 0.000337981000
DRAM_ENERGY_CNT:PACKAGE0 (J)    0.000148249000
DRAM_ENERGY_CNT:PACKAGE1 (J)    0.000142188000


Energy in total:
PACKAGE_ENERGY:PACKAGE0 (J) 19.786010742000
PACKAGE_ENERGY:PACKAGE1 (J) 20.628723144000
DRAM_ENERGY:PACKAGE0    (J) 2.262100219000
DRAM_ENERGY:PACKAGE1    (J) 2.169616699000

Total time:  0.338139057159 (s)
Power (W) 132.627242711143
==================================================================


Result stored in result.txt
========================




------------------------

num of omp threads = 5 

Reading File
Start traversing the tree
PAPI measurements:(rapl)> > > > > > > > > > > >
Counting Energy Consumption:
PACKAGE_ENERGY_CNT:PACKAGE0 (J) 0.000265016000
PACKAGE_ENERGY_CNT:PACKAGE1 (J) 0.000274100000
DRAM_ENERGY_CNT:PACKAGE0 (J)    0.000124627000
DRAM_ENERGY_CNT:PACKAGE1 (J)    0.000119068000


Energy in total:
PACKAGE_ENERGY:PACKAGE0 (J) 16.175292968000
PACKAGE_ENERGY:PACKAGE1 (J) 16.729736328000
DRAM_ENERGY:PACKAGE0    (J) 1.901657104000
DRAM_ENERGY:PACKAGE1    (J) 1.816833496000

Total time:  0.283972978592 (s)
Power (W) 128.968326766856
==================================================================


Result stored in result.txt
========================




------------------------

num of omp threads = 6 

Reading File
Start traversing the tree
PAPI measurements:(rapl)> > > > > > > > > > > >
Counting Energy Consumption:
PACKAGE_ENERGY_CNT:PACKAGE0 (J) 0.000207197000
PACKAGE_ENERGY_CNT:PACKAGE1 (J) 0.000249402000
DRAM_ENERGY_CNT:PACKAGE0 (J)    0.000117510000
DRAM_ENERGY_CNT:PACKAGE1 (J)    0.000113293000


Energy in total:
PACKAGE_ENERGY:PACKAGE0 (J) 12.646301269000
PACKAGE_ENERGY:PACKAGE1 (J) 15.222290039000
DRAM_ENERGY:PACKAGE0    (J) 1.793060302000
DRAM_ENERGY:PACKAGE1    (J) 1.728713989000

Total time:  0.267276048660 (s)
Power (W) 117.445486628317
==================================================================


Result stored in result.txt
========================




------------------------

num of omp threads = 7 

Reading File
Start traversing the tree
PAPI measurements:(rapl)> > > > > > > > > > > >
Counting Energy Consumption:
PACKAGE_ENERGY_CNT:PACKAGE0 (J) 0.000247098000
PACKAGE_ENERGY_CNT:PACKAGE1 (J) 0.000244587000
DRAM_ENERGY_CNT:PACKAGE0 (J)    0.000112219000
DRAM_ENERGY_CNT:PACKAGE1 (J)    0.000111037000


Energy in total:
PACKAGE_ENERGY:PACKAGE0 (J) 15.081665039000
PACKAGE_ENERGY:PACKAGE1 (J) 14.928405761000
DRAM_ENERGY:PACKAGE0    (J) 1.712326049000
DRAM_ENERGY:PACKAGE1    (J) 1.694290161000

Total time:  0.256172895432 (s)
Power (W) 130.445834067301
==================================================================


Result stored in result.txt
========================




------------------------

num of omp threads = 8 

Reading File
Start traversing the tree
PAPI measurements:(rapl)> > > > > > > > > > > >
Counting Energy Consumption:
PACKAGE_ENERGY_CNT:PACKAGE0 (J) 0.000225655000
PACKAGE_ENERGY_CNT:PACKAGE1 (J) 0.000221682000
DRAM_ENERGY_CNT:PACKAGE0 (J)    0.000102678000
DRAM_ENERGY_CNT:PACKAGE1 (J)    0.000099092000


Energy in total:
PACKAGE_ENERGY:PACKAGE0 (J) 13.772888183000
PACKAGE_ENERGY:PACKAGE1 (J) 13.530395507000
DRAM_ENERGY:PACKAGE0    (J) 1.566741943000
DRAM_ENERGY:PACKAGE1    (J) 1.512023925000

Total time:  0.232280969620 (s)
Power (W) 130.798703000664
==================================================================


Result stored in result.txt
========================




------------------------

num of omp threads = 9 

Reading File
Start traversing the tree
PAPI measurements:(rapl)> > > > > > > > > > > >
Counting Energy Consumption:
PACKAGE_ENERGY_CNT:PACKAGE0 (J) 0.000216390000
PACKAGE_ENERGY_CNT:PACKAGE1 (J) 0.000221450000
DRAM_ENERGY_CNT:PACKAGE0 (J)    0.000099717000
DRAM_ENERGY_CNT:PACKAGE1 (J)    0.000093669000


Energy in total:
PACKAGE_ENERGY:PACKAGE0 (J) 13.207397460000
PACKAGE_ENERGY:PACKAGE1 (J) 13.516235351000
DRAM_ENERGY:PACKAGE0    (J) 1.521560668000
DRAM_ENERGY:PACKAGE1    (J) 1.429275512000

Total time:  0.222043037415 (s)
Power (W) 133.642870934062
==================================================================


Result stored in result.txt
========================




------------------------

num of omp threads = 10 

Reading File
Start traversing the tree
PAPI measurements:(rapl)> > > > > > > > > > > >
Counting Energy Consumption:
PACKAGE_ENERGY_CNT:PACKAGE0 (J) 0.000221733000
PACKAGE_ENERGY_CNT:PACKAGE1 (J) 0.000217991000
DRAM_ENERGY_CNT:PACKAGE0 (J)    0.000096838000
DRAM_ENERGY_CNT:PACKAGE1 (J)    0.000088005000


Energy in total:
PACKAGE_ENERGY:PACKAGE0 (J) 13.477722167000
PACKAGE_ENERGY:PACKAGE1 (J) 13.305114746000
DRAM_ENERGY:PACKAGE0    (J) 1.477630615000
DRAM_ENERGY:PACKAGE1    (J) 1.342849731000

Total time:  0.208773136139 (s)
Power (W) 141.796582675762
==================================================================


Result stored in result.txt
========================




------------------------

num of omp threads = 11 

Reading File
Start traversing the tree
PAPI measurements:(rapl)> > > > > > > > > > > >
Counting Energy Consumption:
PACKAGE_ENERGY_CNT:PACKAGE0 (J) 0.000222505000
PACKAGE_ENERGY_CNT:PACKAGE1 (J) 0.000225537000
DRAM_ENERGY_CNT:PACKAGE0 (J)    0.000099462000
DRAM_ENERGY_CNT:PACKAGE1 (J)    0.000090262000


Energy in total:
PACKAGE_ENERGY:PACKAGE0 (J) 13.580627441000
PACKAGE_ENERGY:PACKAGE1 (J) 13.765686035000
DRAM_ENERGY:PACKAGE0    (J) 1.517669677000
DRAM_ENERGY:PACKAGE1    (J) 1.377288818000

Total time:  0.214459180832 (s)
Power (W) 141.011785336916
==================================================================


Result stored in result.txt
========================




------------------------

num of omp threads = 12 

Reading File
Start traversing the tree
PAPI measurements:(rapl)> > > > > > > > > > > >
Counting Energy Consumption:
PACKAGE_ENERGY_CNT:PACKAGE0 (J) 0.000217034000
PACKAGE_ENERGY_CNT:PACKAGE1 (J) 0.000226518000
DRAM_ENERGY_CNT:PACKAGE0 (J)    0.000097666000
DRAM_ENERGY_CNT:PACKAGE1 (J)    0.000088633000


Energy in total:
PACKAGE_ENERGY:PACKAGE0 (J) 13.246704101000
PACKAGE_ENERGY:PACKAGE1 (J) 13.825561523000
DRAM_ENERGY:PACKAGE0    (J) 1.490264892000
DRAM_ENERGY:PACKAGE1    (J) 1.352432250000

Total time:  0.209055900574 (s)
Power (W) 143.095519829394
==================================================================


Result stored in result.txt
========================




------------------------

num of omp threads = 13 

Reading File
Start traversing the tree
PAPI measurements:(rapl)> > > > > > > > > > > >
Counting Energy Consumption:
PACKAGE_ENERGY_CNT:PACKAGE0 (J) 0.000224272000
PACKAGE_ENERGY_CNT:PACKAGE1 (J) 0.000249000000
DRAM_ENERGY_CNT:PACKAGE0 (J)    0.000101618000
DRAM_ENERGY_CNT:PACKAGE1 (J)    0.000086751000


Energy in total:
PACKAGE_ENERGY:PACKAGE0 (J) 13.688476562000
PACKAGE_ENERGY:PACKAGE1 (J) 15.197753906000
DRAM_ENERGY:PACKAGE0    (J) 1.550567626000
DRAM_ENERGY:PACKAGE1    (J) 1.323715209000

Total time:  0.218227863312 (s)
Power (W) 145.538304875514
==================================================================


Result stored in result.txt
========================




------------------------

num of omp threads = 14 

Reading File
Start traversing the tree
PAPI measurements:(rapl)> > > > > > > > > > > >
Counting Energy Consumption:
PACKAGE_ENERGY_CNT:PACKAGE0 (J) 0.000257145000
PACKAGE_ENERGY_CNT:PACKAGE1 (J) 0.000261593000
DRAM_ENERGY_CNT:PACKAGE0 (J)    0.000109641000
DRAM_ENERGY_CNT:PACKAGE1 (J)    0.000099858000


Energy in total:
PACKAGE_ENERGY:PACKAGE0 (J) 15.694885253000
PACKAGE_ENERGY:PACKAGE1 (J) 15.966369628000
DRAM_ENERGY:PACKAGE0    (J) 1.672988891000
DRAM_ENERGY:PACKAGE1    (J) 1.523712158000

Total time:  0.236531019211 (s)
Power (W) 147.371604985694
==================================================================


Result stored in result.txt
========================




------------------------

num of omp threads = 15 

Reading File
Start traversing the tree
PAPI measurements:(rapl)> > > > > > > > > > > >
Counting Energy Consumption:
PACKAGE_ENERGY_CNT:PACKAGE0 (J) 0.000240307000
PACKAGE_ENERGY_CNT:PACKAGE1 (J) 0.000249567000
DRAM_ENERGY_CNT:PACKAGE0 (J)    0.000102918000
DRAM_ENERGY_CNT:PACKAGE1 (J)    0.000093955000


Energy in total:
PACKAGE_ENERGY:PACKAGE0 (J) 14.667175292000
PACKAGE_ENERGY:PACKAGE1 (J) 15.232360839000
DRAM_ENERGY:PACKAGE0    (J) 1.570404052000
DRAM_ENERGY:PACKAGE1    (J) 1.433639526000

Total time:  0.220376014709 (s)
Power (W) 149.306537521234
==================================================================


Result stored in result.txt
========================




------------------------

num of omp threads = 16 

Reading File
Start traversing the tree
PAPI measurements:(rapl)> > > > > > > > > > > >
Counting Energy Consumption:
PACKAGE_ENERGY_CNT:PACKAGE0 (J) 0.000260015000
PACKAGE_ENERGY_CNT:PACKAGE1 (J) 0.000258746000
DRAM_ENERGY_CNT:PACKAGE0 (J)    0.000108775000
DRAM_ENERGY_CNT:PACKAGE1 (J)    0.000098457000


Energy in total:
PACKAGE_ENERGY:PACKAGE0 (J) 15.870056152000
PACKAGE_ENERGY:PACKAGE1 (J) 15.792602539000
DRAM_ENERGY:PACKAGE0    (J) 1.659774780000
DRAM_ENERGY:PACKAGE1    (J) 1.502334594000

Total time:  0.231889009476 (s)
Power (W) 150.178605461886
==================================================================


Result stored in result.txt
========================




------------------------

num of omp threads = 17 

Reading File
Start traversing the tree
PAPI measurements:(rapl)> > > > > > > > > > > >
Counting Energy Consumption:
PACKAGE_ENERGY_CNT:PACKAGE0 (J) 0.000248598000
PACKAGE_ENERGY_CNT:PACKAGE1 (J) 0.000264008000
DRAM_ENERGY_CNT:PACKAGE0 (J)    0.000107831000
DRAM_ENERGY_CNT:PACKAGE1 (J)    0.000095682000


Energy in total:
PACKAGE_ENERGY:PACKAGE0 (J) 15.173217773000
PACKAGE_ENERGY:PACKAGE1 (J) 16.113769531000
DRAM_ENERGY:PACKAGE0    (J) 1.645370483000
DRAM_ENERGY:PACKAGE1    (J) 1.459991455000

Total time:  0.226969003677 (s)
Power (W) 151.528837351236
==================================================================


Result stored in result.txt
========================




------------------------

num of omp threads = 18 

Reading File
Start traversing the tree
PAPI measurements:(rapl)> > > > > > > > > > > >
Counting Energy Consumption:
PACKAGE_ENERGY_CNT:PACKAGE0 (J) 0.000261067000
PACKAGE_ENERGY_CNT:PACKAGE1 (J) 0.000282293000
DRAM_ENERGY_CNT:PACKAGE0 (J)    0.000116490000
DRAM_ENERGY_CNT:PACKAGE1 (J)    0.000104846000


Energy in total:
PACKAGE_ENERGY:PACKAGE0 (J) 15.934265136000
PACKAGE_ENERGY:PACKAGE1 (J) 17.229797363000
DRAM_ENERGY:PACKAGE0    (J) 1.777496337000
DRAM_ENERGY:PACKAGE1    (J) 1.599822998000

Total time:  0.244143009186 (s)
Power (W) 149.672038351064
==================================================================


Result stored in result.txt
========================




------------------------

num of omp threads = 19 

Reading File
Start traversing the tree
PAPI measurements:(rapl)> > > > > > > > > > > >
Counting Energy Consumption:
PACKAGE_ENERGY_CNT:PACKAGE0 (J) 0.000252486000
PACKAGE_ENERGY_CNT:PACKAGE1 (J) 0.000279094000
DRAM_ENERGY_CNT:PACKAGE0 (J)    0.000114984000
DRAM_ENERGY_CNT:PACKAGE1 (J)    0.000102177000


Energy in total:
PACKAGE_ENERGY:PACKAGE0 (J) 15.410522460000
PACKAGE_ENERGY:PACKAGE1 (J) 17.034545898000
DRAM_ENERGY:PACKAGE0    (J) 1.754516601000
DRAM_ENERGY:PACKAGE1    (J) 1.559097290000

Total time:  0.241410970688 (s)
Power (W) 148.123683638365
==================================================================


Result stored in result.txt
========================




------------------------

num of omp threads = 20 

Reading File
Start traversing the tree
PAPI measurements:(rapl)> > > > > > > > > > > >
Counting Energy Consumption:
PACKAGE_ENERGY_CNT:PACKAGE0 (J) 0.000293195000
PACKAGE_ENERGY_CNT:PACKAGE1 (J) 0.000287860000
DRAM_ENERGY_CNT:PACKAGE0 (J)    0.000115439000
DRAM_ENERGY_CNT:PACKAGE1 (J)    0.000103584000


Energy in total:
PACKAGE_ENERGY:PACKAGE0 (J) 17.895202636000
PACKAGE_ENERGY:PACKAGE1 (J) 17.569580078000
DRAM_ENERGY:PACKAGE0    (J) 1.761459350000
DRAM_ENERGY:PACKAGE1    (J) 1.580566406000

Total time:  0.243269920349 (s)
Power (W) 159.521606347006
==================================================================


Result stored in result.txt
========================




------------------------

num of omp threads = 21 

Reading File
Start traversing the tree
PAPI measurements:(rapl)> > > > > > > > > > > >
Counting Energy Consumption:
PACKAGE_ENERGY_CNT:PACKAGE0 (J) 0.000311711000
PACKAGE_ENERGY_CNT:PACKAGE1 (J) 0.000313295000
DRAM_ENERGY_CNT:PACKAGE0 (J)    0.000122647000
DRAM_ENERGY_CNT:PACKAGE1 (J)    0.000111522000


Energy in total:
PACKAGE_ENERGY:PACKAGE0 (J) 19.025329589000
PACKAGE_ENERGY:PACKAGE1 (J) 19.122009277000
DRAM_ENERGY:PACKAGE0    (J) 1.871444702000
DRAM_ENERGY:PACKAGE1    (J) 1.701690673000

Total time:  0.258937120438 (s)
Power (W) 161.122029048942
==================================================================


Result stored in result.txt
========================




------------------------

num of omp threads = 22 

Reading File
Start traversing the tree
PAPI measurements:(rapl)> > > > > > > > > > > >
Counting Energy Consumption:
PACKAGE_ENERGY_CNT:PACKAGE0 (J) 0.000318692000
PACKAGE_ENERGY_CNT:PACKAGE1 (J) 0.000312457000
DRAM_ENERGY_CNT:PACKAGE0 (J)    0.000122177000
DRAM_ENERGY_CNT:PACKAGE1 (J)    0.000111133000


Energy in total:
PACKAGE_ENERGY:PACKAGE0 (J) 19.451416015000
PACKAGE_ENERGY:PACKAGE1 (J) 19.070861816000
DRAM_ENERGY:PACKAGE0    (J) 1.864273071000
DRAM_ENERGY:PACKAGE1    (J) 1.695755004000

Total time:  0.259235858917 (s)
Power (W) 162.332117484700
==================================================================


Result stored in result.txt
========================




------------------------

num of omp threads = 23 

Reading File
Start traversing the tree
PAPI measurements:(rapl)> > > > > > > > > > > >
Counting Energy Consumption:
PACKAGE_ENERGY_CNT:PACKAGE0 (J) 0.000365184000
PACKAGE_ENERGY_CNT:PACKAGE1 (J) 0.000363387000
DRAM_ENERGY_CNT:PACKAGE0 (J)    0.000141034000
DRAM_ENERGY_CNT:PACKAGE1 (J)    0.000126940000


Energy in total:
PACKAGE_ENERGY:PACKAGE0 (J) 22.289062500000
PACKAGE_ENERGY:PACKAGE1 (J) 22.179382324000
DRAM_ENERGY:PACKAGE0    (J) 2.152008056000
DRAM_ENERGY:PACKAGE1    (J) 1.936950683000

Total time:  0.296946048737 (s)
Power (W) 163.522645846271
==================================================================


Result stored in result.txt
========================




------------------------

num of omp threads = 24 

Reading File
Start traversing the tree
PAPI measurements:(rapl)> > > > > > > > > > > >
Counting Energy Consumption:
PACKAGE_ENERGY_CNT:PACKAGE0 (J) 0.000358588000
PACKAGE_ENERGY_CNT:PACKAGE1 (J) 0.000341587000
DRAM_ENERGY_CNT:PACKAGE0 (J)    0.000139273000
DRAM_ENERGY_CNT:PACKAGE1 (J)    0.000122676000


Energy in total:
PACKAGE_ENERGY:PACKAGE0 (J) 21.886474609000
PACKAGE_ENERGY:PACKAGE1 (J) 20.848815917000
DRAM_ENERGY:PACKAGE0    (J) 2.125137329000
DRAM_ENERGY:PACKAGE1    (J) 1.871887207000

Total time:  0.286718845367 (s)
Power (W) 162.990036466254
==================================================================


Result stored in result.txt
========================




------------------------

num of omp threads = 25 

Reading File
Start traversing the tree
PAPI measurements:(rapl)> > > > > > > > > > > >
Counting Energy Consumption:
PACKAGE_ENERGY_CNT:PACKAGE0 (J) 0.000395615000
PACKAGE_ENERGY_CNT:PACKAGE1 (J) 0.000404001000
DRAM_ENERGY_CNT:PACKAGE0 (J)    0.000154190000
DRAM_ENERGY_CNT:PACKAGE1 (J)    0.000132035000


Energy in total:
PACKAGE_ENERGY:PACKAGE0 (J) 24.146423339000
PACKAGE_ENERGY:PACKAGE1 (J) 24.658264160000
DRAM_ENERGY:PACKAGE0    (J) 2.352752685000
DRAM_ENERGY:PACKAGE1    (J) 2.014694213000

Total time:  0.322970151901 (s)
Power (W) 164.634824871552
==================================================================


Result stored in result.txt
========================




------------------------

num of omp threads = 26 

Reading File
Start traversing the tree
PAPI measurements:(rapl)> > > > > > > > > > > >
Counting Energy Consumption:
PACKAGE_ENERGY_CNT:PACKAGE0 (J) 0.000378655000
PACKAGE_ENERGY_CNT:PACKAGE1 (J) 0.000389789000
DRAM_ENERGY_CNT:PACKAGE0 (J)    0.000145700000
DRAM_ENERGY_CNT:PACKAGE1 (J)    0.000131516000


Energy in total:
PACKAGE_ENERGY:PACKAGE0 (J) 23.111267089000
PACKAGE_ENERGY:PACKAGE1 (J) 23.790832519000
DRAM_ENERGY:PACKAGE0    (J) 2.223205566000
DRAM_ENERGY:PACKAGE1    (J) 2.006774902000

Total time:  0.306942939758 (s)
Power (W) 166.584968907457
==================================================================


Result stored in result.txt
========================




------------------------

num of omp threads = 27 

Reading File
Start traversing the tree
PAPI measurements:(rapl)> > > > > > > > > > > >
Counting Energy Consumption:
PACKAGE_ENERGY_CNT:PACKAGE0 (J) 0.000379293000
PACKAGE_ENERGY_CNT:PACKAGE1 (J) 0.000387057000
DRAM_ENERGY_CNT:PACKAGE0 (J)    0.000146997000
DRAM_ENERGY_CNT:PACKAGE1 (J)    0.000129610000


Energy in total:
PACKAGE_ENERGY:PACKAGE0 (J) 23.150207519000
PACKAGE_ENERGY:PACKAGE1 (J) 23.624084472000
DRAM_ENERGY:PACKAGE0    (J) 2.242996215000
DRAM_ENERGY:PACKAGE1    (J) 1.977691650000

Total time:  0.303974151611 (s)
Power (W) 167.760908569634
==================================================================


Result stored in result.txt
========================




------------------------

num of omp threads = 28 

Reading File
Start traversing the tree
PAPI measurements:(rapl)> > > > > > > > > > > >
Counting Energy Consumption:
PACKAGE_ENERGY_CNT:PACKAGE0 (J) 0.000457924000
PACKAGE_ENERGY_CNT:PACKAGE1 (J) 0.000450554000
DRAM_ENERGY_CNT:PACKAGE0 (J)    0.000168709000
DRAM_ENERGY_CNT:PACKAGE1 (J)    0.000149330000


Energy in total:
PACKAGE_ENERGY:PACKAGE0 (J) 27.949462890000
PACKAGE_ENERGY:PACKAGE1 (J) 27.499633789000
DRAM_ENERGY:PACKAGE0    (J) 2.574295043000
DRAM_ENERGY:PACKAGE1    (J) 2.278594970000

Total time:  0.353204965591 (s)
Power (W) 170.728026405366
==================================================================


Result stored in result.txt
========================




------------------------

num of omp threads = 29 

Reading File
Start traversing the tree
PAPI measurements:(rapl)> > > > > > > > > > > >
Counting Energy Consumption:
PACKAGE_ENERGY_CNT:PACKAGE0 (J) 0.000478592000
PACKAGE_ENERGY_CNT:PACKAGE1 (J) 0.000488297000
DRAM_ENERGY_CNT:PACKAGE0 (J)    0.000179612000
DRAM_ENERGY_CNT:PACKAGE1 (J)    0.000160198000


Energy in total:
PACKAGE_ENERGY:PACKAGE0 (J) 29.210937500000
PACKAGE_ENERGY:PACKAGE1 (J) 29.803283691000
DRAM_ENERGY:PACKAGE0    (J) 2.740661621000
DRAM_ENERGY:PACKAGE1    (J) 2.444427490000

Total time:  0.382568120956 (s)
Power (W) 167.811447910248
==================================================================


Result stored in result.txt
========================




------------------------

num of omp threads = 30 

Reading File
Start traversing the tree
PAPI measurements:(rapl)> > > > > > > > > > > >
Counting Energy Consumption:
PACKAGE_ENERGY_CNT:PACKAGE0 (J) 0.000520094000
PACKAGE_ENERGY_CNT:PACKAGE1 (J) 0.000518743000
DRAM_ENERGY_CNT:PACKAGE0 (J)    0.000190332000
DRAM_ENERGY_CNT:PACKAGE1 (J)    0.000169643000


Energy in total:
PACKAGE_ENERGY:PACKAGE0 (J) 31.744018554000
PACKAGE_ENERGY:PACKAGE1 (J) 31.661560058000
DRAM_ENERGY:PACKAGE0    (J) 2.904235839000
DRAM_ENERGY:PACKAGE1    (J) 2.588546752000

Total time:  0.406372070312 (s)
Power (W) 169.545021019819
==================================================================


Result stored in result.txt
========================




------------------------

num of omp threads = 31 

Reading File
Start traversing the tree
PAPI measurements:(rapl)> > > > > > > > > > > >
Counting Energy Consumption:
PACKAGE_ENERGY_CNT:PACKAGE0 (J) 0.000556579000
PACKAGE_ENERGY_CNT:PACKAGE1 (J) 0.000552679000
DRAM_ENERGY_CNT:PACKAGE0 (J)    0.000208521000
DRAM_ENERGY_CNT:PACKAGE1 (J)    0.000165952000


Energy in total:
PACKAGE_ENERGY:PACKAGE0 (J) 33.970886230000
PACKAGE_ENERGY:PACKAGE1 (J) 33.732849121000
DRAM_ENERGY:PACKAGE0    (J) 3.181777954000
DRAM_ENERGY:PACKAGE1    (J) 2.532226562000

Total time:  0.432276964188 (s)
Power (W) 169.839584223448
==================================================================


Result stored in result.txt
========================




------------------------

num of omp threads = 32 

Reading File
Start traversing the tree
PAPI measurements:(rapl)> > > > > > > > > > > >
Counting Energy Consumption:
PACKAGE_ENERGY_CNT:PACKAGE0 (J) 0.000536417000
PACKAGE_ENERGY_CNT:PACKAGE1 (J) 0.000527405000
DRAM_ENERGY_CNT:PACKAGE0 (J)    0.000199344000
DRAM_ENERGY_CNT:PACKAGE1 (J)    0.000165170000


Energy in total:
PACKAGE_ENERGY:PACKAGE0 (J) 32.740295410000
PACKAGE_ENERGY:PACKAGE1 (J) 32.190246582000
DRAM_ENERGY:PACKAGE0    (J) 3.041748046000
DRAM_ENERGY:PACKAGE1    (J) 2.520294189000

Total time:  0.421324014664 (s)
Power (W) 167.312049096626
==================================================================


Result stored in result.txt
========================




------------------------

num of omp threads = 33 

Reading File
Start traversing the tree
PAPI measurements:(rapl)> > > > > > > > > > > >
Counting Energy Consumption:
PACKAGE_ENERGY_CNT:PACKAGE0 (J) 0.000601483000
PACKAGE_ENERGY_CNT:PACKAGE1 (J) 0.000516913000
DRAM_ENERGY_CNT:PACKAGE0 (J)    0.000214030000
DRAM_ENERGY_CNT:PACKAGE1 (J)    0.000188266000


Energy in total:
PACKAGE_ENERGY:PACKAGE0 (J) 36.711608886000
PACKAGE_ENERGY:PACKAGE1 (J) 31.549865722000
DRAM_ENERGY:PACKAGE0    (J) 3.265838623000
DRAM_ENERGY:PACKAGE1    (J) 2.872711181000

Total time:  0.455840110779 (s)
Power (W) 163.215177104285
==================================================================


Result stored in result.txt
========================




------------------------

num of omp threads = 34 

Reading File
Start traversing the tree
PAPI measurements:(rapl)> > > > > > > > > > > >
Counting Energy Consumption:
PACKAGE_ENERGY_CNT:PACKAGE0 (J) 0.000556853000
PACKAGE_ENERGY_CNT:PACKAGE1 (J) 0.000546455000
DRAM_ENERGY_CNT:PACKAGE0 (J)    0.000203148000
DRAM_ENERGY_CNT:PACKAGE1 (J)    0.000178283000


Energy in total:
PACKAGE_ENERGY:PACKAGE0 (J) 33.987609863000
PACKAGE_ENERGY:PACKAGE1 (J) 33.352966308000
DRAM_ENERGY:PACKAGE0    (J) 3.099792480000
DRAM_ENERGY:PACKAGE1    (J) 2.720382690000

Total time:  0.430069923401 (s)
Power (W) 170.113619577171
==================================================================


Result stored in result.txt
========================




------------------------

num of omp threads = 35 

Reading File
Start traversing the tree
PAPI measurements:(rapl)> > > > > > > > > > > >
Counting Energy Consumption:
PACKAGE_ENERGY_CNT:PACKAGE0 (J) 0.000590787000
PACKAGE_ENERGY_CNT:PACKAGE1 (J) 0.000594492000
DRAM_ENERGY_CNT:PACKAGE0 (J)    0.000218376000
DRAM_ENERGY_CNT:PACKAGE1 (J)    0.000192334000


Energy in total:
PACKAGE_ENERGY:PACKAGE0 (J) 36.058776855000
PACKAGE_ENERGY:PACKAGE1 (J) 36.284912109000
DRAM_ENERGY:PACKAGE0    (J) 3.332153320000
DRAM_ENERGY:PACKAGE1    (J) 2.934783935000

Total time:  0.462380886078 (s)
Power (W) 170.012707241880
==================================================================


Result stored in result.txt
========================




------------------------

num of omp threads = 36 

Reading File
Start traversing the tree
PAPI measurements:(rapl)> > > > > > > > > > > >
Counting Energy Consumption:
PACKAGE_ENERGY_CNT:PACKAGE0 (J) 0.000570745000
PACKAGE_ENERGY_CNT:PACKAGE1 (J) 0.000563132000
DRAM_ENERGY_CNT:PACKAGE0 (J)    0.000212642000
DRAM_ENERGY_CNT:PACKAGE1 (J)    0.000186472000


Energy in total:
PACKAGE_ENERGY:PACKAGE0 (J) 34.835510253000
PACKAGE_ENERGY:PACKAGE1 (J) 34.370849609000
DRAM_ENERGY:PACKAGE0    (J) 3.244659423000
DRAM_ENERGY:PACKAGE1    (J) 2.845336914000

Total time:  0.449506998062 (s)
Power (W) 167.508751862840
==================================================================


Result stored in result.txt
========================




------------------------

num of omp threads = 37 

Reading File
Start traversing the tree
PAPI measurements:(rapl)> > > > > > > > > > > >
Counting Energy Consumption:
PACKAGE_ENERGY_CNT:PACKAGE0 (J) 0.000586315000
PACKAGE_ENERGY_CNT:PACKAGE1 (J) 0.000580092000
DRAM_ENERGY_CNT:PACKAGE0 (J)    0.000216547000
DRAM_ENERGY_CNT:PACKAGE1 (J)    0.000192544000


Energy in total:
PACKAGE_ENERGY:PACKAGE0 (J) 35.785827636000
PACKAGE_ENERGY:PACKAGE1 (J) 35.406005859000
DRAM_ENERGY:PACKAGE0    (J) 3.304244995000
DRAM_ENERGY:PACKAGE1    (J) 2.937988281000

Total time:  0.460839986801 (s)
Power (W) 168.028098664999
==================================================================


Result stored in result.txt
========================




------------------------

num of omp threads = 38 

Reading File
Start traversing the tree
PAPI measurements:(rapl)> > > > > > > > > > > >
Counting Energy Consumption:
PACKAGE_ENERGY_CNT:PACKAGE0 (J) 0.000583555000
PACKAGE_ENERGY_CNT:PACKAGE1 (J) 0.000572571000
DRAM_ENERGY_CNT:PACKAGE0 (J)    0.000217168000
DRAM_ENERGY_CNT:PACKAGE1 (J)    0.000175417000


Energy in total:
PACKAGE_ENERGY:PACKAGE0 (J) 35.617370605000
PACKAGE_ENERGY:PACKAGE1 (J) 34.946960449000
DRAM_ENERGY:PACKAGE0    (J) 3.313720703000
DRAM_ENERGY:PACKAGE1    (J) 2.676651000000

Total time:  0.460042953491 (s)
Power (W) 166.407728182848
==================================================================


Result stored in result.txt
========================




------------------------

num of omp threads = 39 

Reading File
Start traversing the tree
PAPI measurements:(rapl)> > > > > > > > > > > >
Counting Energy Consumption:
PACKAGE_ENERGY_CNT:PACKAGE0 (J) 0.000597240000
PACKAGE_ENERGY_CNT:PACKAGE1 (J) 0.000596382000
DRAM_ENERGY_CNT:PACKAGE0 (J)    0.000223330000
DRAM_ENERGY_CNT:PACKAGE1 (J)    0.000186417000


Energy in total:
PACKAGE_ENERGY:PACKAGE0 (J) 36.412414550000
PACKAGE_ENERGY:PACKAGE1 (J) 36.400268554000
DRAM_ENERGY:PACKAGE0    (J) 3.407745361000
DRAM_ENERGY:PACKAGE1    (J) 2.844497680000

Total time:  0.468348979950 (s)
Power (W) 168.816266352174
==================================================================


Result stored in result.txt
========================




------------------------

num of omp threads = 40 

Reading File
Start traversing the tree
PAPI measurements:(rapl)> > > > > > > > > > > >
Counting Energy Consumption:
PACKAGE_ENERGY_CNT:PACKAGE0 (J) 0.000623803000
PACKAGE_ENERGY_CNT:PACKAGE1 (J) 0.000610483000
DRAM_ENERGY_CNT:PACKAGE0 (J)    0.000228891000
DRAM_ENERGY_CNT:PACKAGE1 (J)    0.000200770000


Energy in total:
PACKAGE_ENERGY:PACKAGE0 (J) 38.073913574000
PACKAGE_ENERGY:PACKAGE1 (J) 37.260925292000
DRAM_ENERGY:PACKAGE0    (J) 3.492599487000
DRAM_ENERGY:PACKAGE1    (J) 3.063507080000

Total time:  0.482530117035 (s)
Power (W) 169.711573520446
==================================================================


Result stored in result.txt
========================




------------------------

num of omp threads = 41 

Reading File
Start traversing the tree
PAPI measurements:(rapl)> > > > > > > > > > > >
Counting Energy Consumption:
PACKAGE_ENERGY_CNT:PACKAGE0 (J) 0.000619722000
PACKAGE_ENERGY_CNT:PACKAGE1 (J) 0.000613606000
DRAM_ENERGY_CNT:PACKAGE0 (J)    0.000227034000
DRAM_ENERGY_CNT:PACKAGE1 (J)    0.000190200000


Energy in total:
PACKAGE_ENERGY:PACKAGE0 (J) 37.824829101000
PACKAGE_ENERGY:PACKAGE1 (J) 37.451538085000
DRAM_ENERGY:PACKAGE0    (J) 3.464263916000
DRAM_ENERGY:PACKAGE1    (J) 2.902221679000

Total time:  0.474059104919 (s)
Power (W) 172.220830554188
==================================================================


Result stored in result.txt
========================




------------------------

num of omp threads = 42 

Reading File
Start traversing the tree
PAPI measurements:(rapl)> > > > > > > > > > > >
Counting Energy Consumption:
PACKAGE_ENERGY_CNT:PACKAGE0 (J) 0.000628172000
PACKAGE_ENERGY_CNT:PACKAGE1 (J) 0.000620011000
DRAM_ENERGY_CNT:PACKAGE0 (J)    0.000225570000
DRAM_ENERGY_CNT:PACKAGE1 (J)    0.000197601000


Energy in total:
PACKAGE_ENERGY:PACKAGE0 (J) 38.340576171000
PACKAGE_ENERGY:PACKAGE1 (J) 37.842468261000
DRAM_ENERGY:PACKAGE0    (J) 3.441925048000
DRAM_ENERGY:PACKAGE1    (J) 3.015151977000

Total time:  0.478777170181 (s)
Power (W) 172.606645855129
==================================================================


Result stored in result.txt
========================




------------------------

num of omp threads = 43 

Reading File
Start traversing the tree
PAPI measurements:(rapl)> > > > > > > > > > > >
Counting Energy Consumption:
PACKAGE_ENERGY_CNT:PACKAGE0 (J) 0.000635600000
PACKAGE_ENERGY_CNT:PACKAGE1 (J) 0.000577075000
DRAM_ENERGY_CNT:PACKAGE0 (J)    0.000219425000
DRAM_ENERGY_CNT:PACKAGE1 (J)    0.000187857000


Energy in total:
PACKAGE_ENERGY:PACKAGE0 (J) 38.793945312000
PACKAGE_ENERGY:PACKAGE1 (J) 35.221862792000
DRAM_ENERGY:PACKAGE0    (J) 3.348159790000
DRAM_ENERGY:PACKAGE1    (J) 2.866470336000

Total time:  0.471914052963 (s)
Power (W) 170.010699461511
==================================================================


Result stored in result.txt
========================




------------------------

num of omp threads = 44 

Reading File
Start traversing the tree
PAPI measurements:(rapl)> > > > > > > > > > > >
Counting Energy Consumption:
PACKAGE_ENERGY_CNT:PACKAGE0 (J) 0.000645717000
PACKAGE_ENERGY_CNT:PACKAGE1 (J) 0.000632498000
DRAM_ENERGY_CNT:PACKAGE0 (J)    0.000232690000
DRAM_ENERGY_CNT:PACKAGE1 (J)    0.000206379000


Energy in total:
PACKAGE_ENERGY:PACKAGE0 (J) 39.494750976000
PACKAGE_ENERGY:PACKAGE1 (J) 38.604614257000
DRAM_ENERGY:PACKAGE0    (J) 3.550567626000
DRAM_ENERGY:PACKAGE1    (J) 3.149093627000

Total time:  0.498191833496 (s)
Power (W) 170.213602039434
==================================================================


Result stored in result.txt
========================




------------------------

num of omp threads = 45 

Reading File
Start traversing the tree
PAPI measurements:(rapl)> > > > > > > > > > > >
Counting Energy Consumption:
PACKAGE_ENERGY_CNT:PACKAGE0 (J) 0.000696766000
PACKAGE_ENERGY_CNT:PACKAGE1 (J) 0.000669868000
DRAM_ENERGY_CNT:PACKAGE0 (J)    0.000249416000
DRAM_ENERGY_CNT:PACKAGE1 (J)    0.000218508000


Energy in total:
PACKAGE_ENERGY:PACKAGE0 (J) 42.527221679000
PACKAGE_ENERGY:PACKAGE1 (J) 40.885498046000
DRAM_ENERGY:PACKAGE0    (J) 3.805786132000
DRAM_ENERGY:PACKAGE1    (J) 3.334167480000

Total time:  0.526919126511 (s)
Power (W) 171.853077220143
==================================================================


Result stored in result.txt
========================




------------------------

num of omp threads = 46 

Reading File
Start traversing the tree
PAPI measurements:(rapl)> > > > > > > > > > > >
Counting Energy Consumption:
PACKAGE_ENERGY_CNT:PACKAGE0 (J) 0.000744348000
PACKAGE_ENERGY_CNT:PACKAGE1 (J) 0.000745104000
DRAM_ENERGY_CNT:PACKAGE0 (J)    0.000275351000
DRAM_ENERGY_CNT:PACKAGE1 (J)    0.000236480000


Energy in total:
PACKAGE_ENERGY:PACKAGE0 (J) 45.431396484000
PACKAGE_ENERGY:PACKAGE1 (J) 45.477539062000
DRAM_ENERGY:PACKAGE0    (J) 4.201522827000
DRAM_ENERGY:PACKAGE1    (J) 3.608398437000

Total time:  0.570990085602 (s)
Power (W) 172.890667104934
==================================================================


Result stored in result.txt
========================




------------------------

num of omp threads = 47 

Reading File
Start traversing the tree
PAPI measurements:(rapl)> > > > > > > > > > > >
Counting Energy Consumption:
PACKAGE_ENERGY_CNT:PACKAGE0 (J) 0.000803983000
PACKAGE_ENERGY_CNT:PACKAGE1 (J) 0.000784386000
DRAM_ENERGY_CNT:PACKAGE0 (J)    0.000291926000
DRAM_ENERGY_CNT:PACKAGE1 (J)    0.000238242000


Energy in total:
PACKAGE_ENERGY:PACKAGE0 (J) 49.071228027000
PACKAGE_ENERGY:PACKAGE1 (J) 47.875122070000
DRAM_ENERGY:PACKAGE0    (J) 4.454437255000
DRAM_ENERGY:PACKAGE1    (J) 3.635284423000

Total time:  0.605738878250 (s)
Power (W) 173.401568805409
==================================================================


Result stored in result.txt
========================




------------------------

num of omp threads = 48 

Reading File
Start traversing the tree
PAPI measurements:(rapl)> > > > > > > > > > > >
Counting Energy Consumption:
PACKAGE_ENERGY_CNT:PACKAGE0 (J) 0.000764530000
PACKAGE_ENERGY_CNT:PACKAGE1 (J) 0.000724846000
DRAM_ENERGY_CNT:PACKAGE0 (J)    0.000266278000
DRAM_ENERGY_CNT:PACKAGE1 (J)    0.000236947000


Energy in total:
PACKAGE_ENERGY:PACKAGE0 (J) 46.663208007000
PACKAGE_ENERGY:PACKAGE1 (J) 44.241088867000
DRAM_ENERGY:PACKAGE0    (J) 4.063079833000
DRAM_ENERGY:PACKAGE1    (J) 3.615524291000

Total time:  0.572535037994 (s)
Power (W) 172.186668860198
==================================================================


Result stored in result.txt
========================




------------------------

num of omp threads = 49 

Reading File
Start traversing the tree
PAPI measurements:(rapl)> > > > > > > > > > > >
Counting Energy Consumption:
PACKAGE_ENERGY_CNT:PACKAGE0 (J) 0.000864982000
PACKAGE_ENERGY_CNT:PACKAGE1 (J) 0.000818200000
DRAM_ENERGY_CNT:PACKAGE0 (J)    0.000304597000
DRAM_ENERGY_CNT:PACKAGE1 (J)    0.000254941000


Energy in total:
PACKAGE_ENERGY:PACKAGE0 (J) 52.759460449000
PACKAGE_ENERGY:PACKAGE1 (J) 49.938964843000
DRAM_ENERGY:PACKAGE0    (J) 4.647781372000
DRAM_ENERGY:PACKAGE1    (J) 3.890090942000

Total time:  0.646559953690 (s)
Power (W) 172.043283799489
==================================================================


Result stored in result.txt
========================




------------------------

num of omp threads = 50 

Reading File
Start traversing the tree
PAPI measurements:(rapl)> > > > > > > > > > > >
Counting Energy Consumption:
PACKAGE_ENERGY_CNT:PACKAGE0 (J) 0.000805841000
PACKAGE_ENERGY_CNT:PACKAGE1 (J) 0.000802124000
DRAM_ENERGY_CNT:PACKAGE0 (J)    0.000286725000
DRAM_ENERGY_CNT:PACKAGE1 (J)    0.000250554000


Energy in total:
PACKAGE_ENERGY:PACKAGE0 (J) 49.184631347000
PACKAGE_ENERGY:PACKAGE1 (J) 48.957763671000
DRAM_ENERGY:PACKAGE0    (J) 4.375076293000
DRAM_ENERGY:PACKAGE1    (J) 3.823150634000

Total time:  0.607186079025 (s)
Power (W) 175.136791864055
==================================================================


Result stored in result.txt
========================




------------------------

num of omp threads = 51 

Reading File
Start traversing the tree
PAPI measurements:(rapl)> > > > > > > > > > > >
Counting Energy Consumption:
PACKAGE_ENERGY_CNT:PACKAGE0 (J) 0.000964452000
PACKAGE_ENERGY_CNT:PACKAGE1 (J) 0.000955836000
DRAM_ENERGY_CNT:PACKAGE0 (J)    0.000335374000
DRAM_ENERGY_CNT:PACKAGE1 (J)    0.000274145000


Energy in total:
PACKAGE_ENERGY:PACKAGE0 (J) 58.865478515000
PACKAGE_ENERGY:PACKAGE1 (J) 58.339599609000
DRAM_ENERGY:PACKAGE0    (J) 5.117401123000
DRAM_ENERGY:PACKAGE1    (J) 4.183120727000

Total time:  0.728780031204 (s)
Power (W) 173.585436698868
==================================================================


Result stored in result.txt
========================




------------------------

num of omp threads = 52 

Reading File
Start traversing the tree
PAPI measurements:(rapl)> > > > > > > > > > > >
Counting Energy Consumption:
PACKAGE_ENERGY_CNT:PACKAGE0 (J) 0.000907351000
PACKAGE_ENERGY_CNT:PACKAGE1 (J) 0.000903307000
DRAM_ENERGY_CNT:PACKAGE0 (J)    0.000321573000
DRAM_ENERGY_CNT:PACKAGE1 (J)    0.000275294000


Energy in total:
PACKAGE_ENERGY:PACKAGE0 (J) 55.380310058000
PACKAGE_ENERGY:PACKAGE1 (J) 55.133483886000
DRAM_ENERGY:PACKAGE0    (J) 4.906814575000
DRAM_ENERGY:PACKAGE1    (J) 4.200653076000

Total time:  0.690047025681 (s)
Power (W) 173.352332729826
==================================================================


Result stored in result.txt
========================




------------------------

num of omp threads = 53 

Reading File
Start traversing the tree
PAPI measurements:(rapl)> > > > > > > > > > > >
Counting Energy Consumption:
PACKAGE_ENERGY_CNT:PACKAGE0 (J) 0.000847908000
PACKAGE_ENERGY_CNT:PACKAGE1 (J) 0.000843357000
DRAM_ENERGY_CNT:PACKAGE0 (J)    0.000298349000
DRAM_ENERGY_CNT:PACKAGE1 (J)    0.000262934000


Energy in total:
PACKAGE_ENERGY:PACKAGE0 (J) 51.752197265000
PACKAGE_ENERGY:PACKAGE1 (J) 51.474426269000
DRAM_ENERGY:PACKAGE0    (J) 4.552444458000
DRAM_ENERGY:PACKAGE1    (J) 4.012054443000

Total time:  0.635922908783 (s)
Power (W) 175.793513476261
==================================================================


Result stored in result.txt
========================




------------------------

num of omp threads = 54 

Reading File
Start traversing the tree
PAPI measurements:(rapl)> > > > > > > > > > > >
Counting Energy Consumption:
PACKAGE_ENERGY_CNT:PACKAGE0 (J) 0.001135306000
PACKAGE_ENERGY_CNT:PACKAGE1 (J) 0.001137154000
DRAM_ENERGY_CNT:PACKAGE0 (J)    0.000387836000
DRAM_ENERGY_CNT:PACKAGE1 (J)    0.000353069000


Energy in total:
PACKAGE_ENERGY:PACKAGE0 (J) 69.293579101000
PACKAGE_ENERGY:PACKAGE1 (J) 69.406372070000
DRAM_ENERGY:PACKAGE0    (J) 5.917907714000
DRAM_ENERGY:PACKAGE1    (J) 5.387405395000

Total time:  0.872021913528 (s)
Power (W) 172.020062744796
==================================================================


Result stored in result.txt
========================




------------------------

num of omp threads = 55 

Reading File
Start traversing the tree
PAPI measurements:(rapl)> > > > > > > > > > > >
Counting Energy Consumption:
PACKAGE_ENERGY_CNT:PACKAGE0 (J) 0.001072582000
PACKAGE_ENERGY_CNT:PACKAGE1 (J) 0.001058165000
DRAM_ENERGY_CNT:PACKAGE0 (J)    0.000364839000
DRAM_ENERGY_CNT:PACKAGE1 (J)    0.000324184000


Energy in total:
PACKAGE_ENERGY:PACKAGE0 (J) 65.465209960000
PACKAGE_ENERGY:PACKAGE1 (J) 64.585266113000
DRAM_ENERGY:PACKAGE0    (J) 5.567001342000
DRAM_ENERGY:PACKAGE1    (J) 4.946655273000

Total time:  0.799175024033 (s)
Power (W) 175.886543574299
==================================================================


Result stored in result.txt
========================




------------------------

num of omp threads = 56 

Reading File
Start traversing the tree
PAPI measurements:(rapl)> > > > > > > > > > > >
Counting Energy Consumption:
PACKAGE_ENERGY_CNT:PACKAGE0 (J) 0.001823295000
PACKAGE_ENERGY_CNT:PACKAGE1 (J) 0.001796835000
DRAM_ENERGY_CNT:PACKAGE0 (J)    0.000578231000
DRAM_ENERGY_CNT:PACKAGE1 (J)    0.000519857000


Energy in total:
PACKAGE_ENERGY:PACKAGE0 (J) 111.285095214000
PACKAGE_ENERGY:PACKAGE1 (J) 109.670104980000
DRAM_ENERGY:PACKAGE0    (J) 8.823104858000
DRAM_ENERGY:PACKAGE1    (J) 7.932388305000

Total time:  1.350955009460 (s)
Power (W) 175.957520193021
==================================================================


Result stored in result.txt
========================




