omp threads,kernel time,total_time, kernel percentage,,serial ,speedup
1,0.02809715271,0.076465845108,36.744709014893,,0.076465845108,1
2,0.01753616333,0.068609952927,25.559211730957,,0.076465845108,1.11450076622788
4,0.009286880493,0.060085058212,15.456223487854,,0.076465845108,1.2726266293727
8,0.005494117737,0.056544065475,9.716524124146,,0.076465845108,1.35232308582071
10,0.005551099777,0.056616067886,9.80481338501,,0.076465845108,1.35060324680211
20,0.011218070984,0.062757015228,17.875406265259,,0.076465845108,1.21844298729305
30,0.015227794647,0.067263126373,22.639141082764,,0.076465845108,1.13681669632731
40,0.011880874634,0.06772685051,17.542339324951,,0.076465845108,1.12903293940576
