omp threads,kernel time,total_time, kernel percentage
1,0.440746068954,0.840623855591,52.430831909180
2,0.215631008148,0.642285108566,33.572475433350
4,0.110208988190,0.536841869354,20.529134750366
8,0.058838844299,0.485997915268,12.106809616089
10,0.059029817581,0.485069036484,12.169363975525
20,0.075322866440,0.507405996323,14.844693183899
30,0.073438167572,0.504168033600,14.566208839417
40,0.083904981613,0.514989852905,16.292551040649
