-------------------------------------------

omp_num_threads=1

Configuration used: cores = 1, boxes1d = 30
Time spent in different stages of CPU/MCPU KERNEL:
 0.000000000000 s,  0.000000000000 % : CPU/MCPU: VARIABLES
 0.000010000000 s,  0.000002344713 % : MCPU: SET DEVICE
 0.000000000000 s,  0.000000000000 % : CPU/MCPU: INPUTS
426.491302490234 s, 99.999992370605 % : CPU/MCPU: KERNEL
Total time:
426.491333007812 s
Time spent in different stages of the application:
 0.000001000000 s,  0.000000234330 % : VARIABLES
 0.000346999994 s,  0.000081312450 % : INPUT ARGUMENTS
 0.000000000000 s,  0.000000000000 % : INPUTS
 0.000000000000 s,  0.000000000000 % : dim_cpu
 0.244764998555 s,  0.057355746627 % : SYS MEM: ALO
426.491333007812 s, 99.939643859863 % : KERNEL: COMPUTE
 0.012445000000 s,  0.002916235011 % : SYS MEM: FRE
Total time:
426.748901367188 s
===========================================

-------------------------------------------

omp_num_threads=2

Configuration used: cores = 2, boxes1d = 30
Time spent in different stages of CPU/MCPU KERNEL:
 0.000001000000 s,  0.000000469052 % : CPU/MCPU: VARIABLES
 0.000011000000 s,  0.000005159577 % : MCPU: SET DEVICE
 0.000000000000 s,  0.000000000000 % : CPU/MCPU: INPUTS
213.195755004883 s, 99.999992370605 % : CPU/MCPU: KERNEL
Total time:
213.195770263672 s
Time spent in different stages of the application:
 0.000002000000 s,  0.000000936969 % : VARIABLES
 0.000498000009 s,  0.000233305167 % : INPUT ARGUMENTS
 0.000000000000 s,  0.000000000000 % : INPUTS
 0.000000000000 s,  0.000000000000 % : dim_cpu
 0.245519995689 s,  0.115022264421 % : SYS MEM: ALO
213.195800781250 s, 99.878883361816 % : KERNEL: COMPUTE
 0.012508000247 s,  0.005859801080 % : SYS MEM: FRE
Total time:
213.454330444336 s
===========================================

-------------------------------------------

omp_num_threads=4

Configuration used: cores = 4, boxes1d = 30
Time spent in different stages of CPU/MCPU KERNEL:
 0.000000000000 s,  0.000000000000 % : CPU/MCPU: VARIABLES
 0.000010000000 s,  0.000009168428 % : MCPU: SET DEVICE
 0.000000000000 s,  0.000000000000 % : CPU/MCPU: INPUTS
109.069938659668 s, 99.999984741211 % : CPU/MCPU: KERNEL
Total time:
109.069953918457 s
Time spent in different stages of the application:
 0.000001000000 s,  0.000000914674 % : VARIABLES
 0.000479999988 s,  0.000439043419 % : INPUT ARGUMENTS
 0.000001000000 s,  0.000000914674 % : INPUTS
 0.000000000000 s,  0.000000000000 % : dim_cpu
 0.245225995779 s,  0.224301800132 % : SYS MEM: ALO
109.069969177246 s, 99.763442993164 % : KERNEL: COMPUTE
 0.012911000289 s,  0.011809353717 % : SYS MEM: FRE
Total time:
109.328590393066 s
===========================================

-------------------------------------------

omp_num_threads=8

Configuration used: cores = 8, boxes1d = 30
Time spent in different stages of CPU/MCPU KERNEL:
 0.000001000000 s,  0.000001829904 % : CPU/MCPU: VARIABLES
 0.000011000000 s,  0.000020128946 % : MCPU: SET DEVICE
 0.000000000000 s,  0.000000000000 % : CPU/MCPU: INPUTS
54.647663116455 s, 99.999984741211 % : CPU/MCPU: KERNEL
Total time:
54.647670745850 s
Time spent in different stages of the application:
 0.000001000000 s,  0.000001821280 % : VARIABLES
 0.000521000009 s,  0.000948887027 % : INPUT ARGUMENTS
 0.000001000000 s,  0.000001821280 % : INPUTS
 0.000000000000 s,  0.000000000000 % : dim_cpu
 0.245094999671 s,  0.446386694908 % : SYS MEM: ALO
54.647724151611 s, 99.528816223145 % : KERNEL: COMPUTE
 0.013089000247 s,  0.023838736117 % : SYS MEM: FRE
Total time:
54.906433105469 s
===========================================

-------------------------------------------

omp_num_threads=14

Configuration used: cores = 14, boxes1d = 30
Time spent in different stages of CPU/MCPU KERNEL:
 0.000000000000 s,  0.000000000000 % : CPU/MCPU: VARIABLES
 0.000010000000 s,  0.000031962278 % : MCPU: SET DEVICE
 0.000000000000 s,  0.000000000000 % : CPU/MCPU: INPUTS
31.286867141724 s, 99.999961853027 % : CPU/MCPU: KERNEL
Total time:
31.286880493164 s
Time spent in different stages of the application:
 0.000002000000 s,  0.000006340078 % : VARIABLES
 0.000361999992 s,  0.001147554140 % : INPUT ARGUMENTS
 0.000000000000 s,  0.000000000000 % : INPUTS
 0.000000000000 s,  0.000000000000 % : dim_cpu
 0.245198994875 s,  0.777290463448 % : SYS MEM: ALO
31.286903381348 s, 99.180709838867 % : KERNEL: COMPUTE
 0.012885999866 s,  0.040849123150 % : SYS MEM: FRE
Total time:
31.545352935791 s
===========================================

-------------------------------------------

omp_num_threads=28

Configuration used: cores = 28, boxes1d = 30
Time spent in different stages of CPU/MCPU KERNEL:
 0.000000000000 s,  0.000000000000 % : CPU/MCPU: VARIABLES
 0.000010000000 s,  0.000063709122 % : MCPU: SET DEVICE
 0.000000000000 s,  0.000000000000 % : CPU/MCPU: INPUTS
15.696330070496 s, 99.999931335449 % : CPU/MCPU: KERNEL
Total time:
15.696339607239 s
Time spent in different stages of the application:
 0.000001000000 s,  0.000006267650 % : VARIABLES
 0.000295000005 s,  0.001848956686 % : INPUT ARGUMENTS
 0.000000000000 s,  0.000000000000 % : INPUTS
 0.000000000000 s,  0.000000000000 % : dim_cpu
 0.245300993323 s,  1.537460684776 % : SYS MEM: ALO
15.696383476257 s, 98.379432678223 % : KERNEL: COMPUTE
 0.012963999994 s,  0.081253811717 % : SYS MEM: FRE
Total time:
15.954943656921 s
===========================================

-------------------------------------------

omp_num_threads=42

Configuration used: cores = 42, boxes1d = 30
Time spent in different stages of CPU/MCPU KERNEL:
 0.000000000000 s,  0.000000000000 % : CPU/MCPU: VARIABLES
 0.000010000000 s,  0.000080456281 % : MCPU: SET DEVICE
 0.000000000000 s,  0.000000000000 % : CPU/MCPU: INPUTS
12.429100036621 s, 99.999923706055 % : CPU/MCPU: KERNEL
Total time:
12.429109573364 s
Time spent in different stages of the application:
 0.000001000000 s,  0.000007881076 % : VARIABLES
 0.000323999993 s,  0.002553468803 % : INPUT ARGUMENTS
 0.000000000000 s,  0.000000000000 % : INPUTS
 0.000000000000 s,  0.000000000000 % : dim_cpu
 0.245798006654 s,  1.937152862549 % : SYS MEM: ALO
12.429141998291 s, 97.955017089844 % : KERNEL: COMPUTE
 0.013357000425 s,  0.105267539620 % : SYS MEM: FRE
Total time:
12.688622474670 s
===========================================

-------------------------------------------

omp_num_threads=56

Configuration used: cores = 56, boxes1d = 30
Time spent in different stages of CPU/MCPU KERNEL:
 0.000000000000 s,  0.000000000000 % : CPU/MCPU: VARIABLES
 0.000010000000 s,  0.000096000891 % : MCPU: SET DEVICE
 0.000000000000 s,  0.000000000000 % : CPU/MCPU: INPUTS
10.416559219360 s, 99.999908447266 % : CPU/MCPU: KERNEL
Total time:
10.416568756104 s
Time spent in different stages of the application:
 0.000002000000 s,  0.000018734545 % : VARIABLES
 0.000326000008 s,  0.003053730587 % : INPUT ARGUMENTS
 0.000000000000 s,  0.000000000000 % : INPUTS
 0.000000000000 s,  0.000000000000 % : dim_cpu
 0.245155006647 s,  2.296433687210 % : SYS MEM: ALO
10.416604995728 s, 97.575172424316 % : KERNEL: COMPUTE
 0.013377999887 s,  0.125315383077 % : SYS MEM: FRE
Total time:
10.675465583801 s
===========================================

