1.000000,66.957000
1.000000,66.957000
1.000000,66.957000
1.000000,66.957000
1.000000,66.957000
1.000000,66.957000
1.000000,66.957000
1.000000,66.957000
1.000000,66.957000
1.000000,66.957000
1.000000,66.861000
1.000000,66.765000
1.000000,66.765000
1.000000,66.765000
1.000000,66.765000
1.000000,66.765000
1.000000,66.765000
1.000000,66.765000
1.000000,66.765000
1.000000,66.765000
1.000000,66.765000
1.000000,66.765000
1.000000,66.765000
1.000000,66.765000
1.000000,66.765000
1.000000,66.765000
1.000000,66.765000
1.000000,66.765000
1.000000,66.765000
1.000000,66.765000
1.000000,66.765000
1.000000,66.765000
1.000000,66.765000
1.000000,66.765000
1.000000,66.765000
1.000000,66.765000
1.000000,66.765000
1.000000,66.765000
1.000000,66.765000
1.000000,66.765000
1.000000,66.765000
1.000000,66.765000
1.000000,66.765000
1.000000,66.765000
1.000000,66.765000
1.000000,66.765000
1.000000,66.765000
1.000000,66.765000
1.000000,66.765000
1.000000,66.765000
1.000000,66.765000
1.000000,66.813000
1.000000,66.861000
1.000000,66.861000
1.000000,66.861000
1.000000,66.861000
1.000000,66.861000
1.000000,66.861000
1.000000,66.861000
1.000000,66.861000
1.000000,66.861000
1.000000,66.861000
1.000000,66.861000
1.000000,66.861000
1.000000,66.861000
1.000000,66.861000
1.000000,66.861000
1.000000,66.861000
1.000000,66.861000
1.000000,66.861000
1.000000,66.861000
1.000000,66.861000
1.000000,66.861000
1.000000,66.861000
1.000000,66.861000
1.000000,66.861000
1.000000,66.861000
1.000000,66.861000
1.000000,66.861000
1.000000,66.861000
1.000000,66.861000
1.000000,66.861000
1.000000,66.861000
1.000000,66.861000
1.000000,66.861000
1.000000,66.861000
1.000000,66.861000
1.000000,66.861000
1.000000,66.861000
1.000000,66.861000
1.000000,66.861000
1.000000,66.861000
1.000000,66.861000
1.000000,66.861000
1.000000,66.861000
1.000000,66.861000
1.000000,66.861000
1.000000,66.861000
1.000000,66.861000
1.000000,66.861000
1.000000,66.861000
1.000000,66.861000
1.000000,66.861000
1.000000,66.861000
1.000000,66.861000
1.000000,66.861000
1.000000,66.861000
1.000000,66.861000
1.000000,66.861000
1.000000,66.861000
1.000000,66.861000
1.000000,66.861000
1.000000,66.861000
1.000000,66.861000
1.000000,66.861000
1.000000,66.861000
1.000000,66.861000
1.000000,66.861000
1.000000,66.861000
1.000000,66.861000
1.000000,66.861000
1.000000,66.861000
1.000000,66.861000
1.000000,66.861000
1.000000,66.861000
1.000000,66.861000
1.000000,66.861000
1.000000,66.861000
1.000000,66.861000
1.000000,66.861000
1.000000,66.861000
1.000000,66.861000
1.000000,66.861000
1.000000,66.861000
1.000000,66.861000
1.000000,66.861000
1.000000,66.861000
1.000000,66.861000
1.000000,66.861000
1.000000,66.861000
1.000000,66.861000
1.000000,66.861000
1.000000,66.861000
1.000000,66.861000
1.000000,66.861000
1.000000,66.861000
1.000000,66.861000
1.000000,66.861000
1.000000,66.861000
1.000000,66.861000
1.000000,66.861000
1.000000,66.861000
1.000000,66.861000
1.000000,66.861000
1.000000,66.861000
1.000000,66.861000
1.000000,66.861000
1.000000,66.861000
1.000000,66.861000
1.000000,66.861000
1.000000,66.861000
1.000000,66.861000
1.000000,66.861000
1.000000,66.861000
1.000000,66.861000
1.000000,66.861000
1.000000,66.861000
1.000000,66.861000
1.000000,66.861000
1.000000,66.861000
1.000000,66.861000
1.000000,66.861000
1.000000,66.861000
1.000000,66.861000
1.000000,66.861000
1.000000,66.861000
1.000000,66.861000
1.000000,66.861000
1.000000,66.861000
1.000000,66.861000
1.000000,66.957000
1.000000,66.957000
1.000000,66.957000
1.000000,66.957000
1.000000,66.957000
1.000000,66.957000
1.000000,66.957000
1.000000,66.957000
1.000000,66.957000
1.000000,66.957000
1.000000,66.957000
1.000000,66.957000
1.000000,66.957000
1.000000,66.957000
1.000000,66.957000
1.000000,66.957000
1.000000,66.957000
1.000000,66.957000
1.000000,66.957000
1.000000,66.957000
1.000000,66.957000
1.000000,66.957000
1.000000,66.957000
1.000000,66.957000
1.000000,66.957000
1.000000,66.957000
1.000000,66.957000
1.000000,66.957000
1.000000,66.957000
1.000000,66.957000
1.000000,66.957000
1.000000,66.957000
1.000000,66.957000
1.000000,66.957000
1.000000,66.957000
1.000000,66.957000
1.000000,66.957000
1.000000,66.957000
1.000000,66.957000
0.500000,66.957000
