294992592,10817,294067856,294099526,294930524,294941555,294949206,294954485,14477,12947849,101399126,102655410,115466797,153884060,153885582,141008502,62,140586232,140590029,141004879,141005678,141006373,141006454,0,12825422,38504620,38519848,38520215,51324338,51324354
294994096,0,294166624,294166624,294994096,294994096,294994096,294994096,0,12825931,101365341,102606549,115432352,153909759,153909759,141084083,0,140670347,140670347,141084083,141084083,141084083,141084083,0,12826059,38477663,38477663,38477663,51303466,51303466
294994094,0,294166624,294166624,294994094,294994094,294994094,294994094,0,12825930,101365341,102606546,115432348,153909754,153909754,141084080,0,140670345,140670345,141084080,141084080,141084080,141084080,0,12826058,38477662,38477662,38477662,51303464,51303464
294994094,0,294166622,294166622,294994094,294994094,294994094,294994094,0,12825931,101365340,102606548,115432350,153909758,153909758,141084082,0,140670346,140670346,141084082,141084082,141084082,141084082,0,12826058,38477664,38477664,38477664,51303466,51303466
294994096,0,294166624,294166624,294994096,294994096,294994096,294994096,0,12825931,101365338,102606546,115432349,153909756,153909756,141084085,0,140670349,140670349,141084085,141084085,141084085,141084085,0,12826061,38477665,38477665,38477665,51303468,51303468
294994094,0,294166624,294166624,294994094,294994094,294994094,294994094,0,12825930,101365342,102606547,115432349,153909755,153909755,141084080,0,140670345,140670345,141084080,141084080,141084080,141084080,0,12826058,38477662,38477662,38477662,51303464,51303464
294994093,0,294166621,294166621,294994093,294994093,294994093,294994093,0,12825930,101365337,102606545,115432347,153909755,153909755,141084082,0,140670346,140670346,141084082,141084082,141084082,141084082,0,12826058,38477664,38477664,38477664,51303466,51303466
294994096,0,294166626,294166626,294994096,294994096,294994096,294994096,0,12825931,101365344,102606549,115432352,153909759,153909759,141084083,0,140670348,140670348,141084083,141084083,141084083,141084083,0,12826059,38477663,38477663,38477663,51303466,51303466
294994095,0,294166623,294166623,294994095,294994095,294994095,294994095,0,12825931,101365339,102606547,115432349,153909755,153909755,141084082,0,140670346,140670346,141084082,141084082,141084082,141084082,0,12826060,38477664,38477664,38477664,51303466,51303466
294994093,0,294166623,294166623,294994093,294994093,294994093,294994093,0,12825930,101365339,102606544,115432346,153909753,153909753,141084082,0,140670347,140670347,141084082,141084082,141084082,141084082,0,12826058,38477664,38477664,38477664,51303466,51303466
294994096,0,294166624,294166624,294994096,294994096,294994096,294994096,0,12825931,101365341,102606549,115432352,153909760,153909760,141084083,0,140670347,140670347,141084083,141084083,141084083,141084083,0,12826059,38477663,38477663,38477663,51303466,51303466
294994094,0,294166623,294166623,294994094,294994094,294994094,294994094,0,12825930,101365341,102606547,115432349,153909755,153909755,141084080,0,140670344,140670344,141084080,141084080,141084080,141084080,0,12826058,38477662,38477662,38477662,51303464,51303464
294994096,0,294166625,294166625,294994096,294994096,294994096,294994096,0,12825931,101365338,102606545,115432347,153909754,153909754,141084083,0,140670348,140670348,141084083,141084083,141084083,141084083,0,12826060,38477666,38477666,38477666,51303468,51303468
294994094,0,294166622,294166622,294994094,294994094,294994094,294994094,0,12825931,101365341,102606549,115432352,153909759,153909759,141084083,0,140670347,140670347,141084083,141084083,141084083,141084083,0,12826059,38477663,38477663,38477663,51303465,51303465
294994094,0,294166624,294166624,294994094,294994094,294994094,294994094,0,12825930,101365342,102606547,115432349,153909756,153909756,141084081,0,140670346,140670346,141084081,141084081,141084081,141084081,0,12826058,38477662,38477662,38477662,51303465,51303465
294994093,0,294166621,294166621,294994093,294994093,294994093,294994093,0,12825930,101365336,102606544,115432346,153909753,153909753,141084082,0,140670346,140670346,141084082,141084082,141084082,141084082,0,12826058,38477664,38477664,38477664,51303466,51303466
294994098,0,294166628,294166628,294994098,294994098,294994098,294994098,0,12825932,101365345,102606550,115432353,153909760,153909760,141084083,0,140670348,140670348,141084083,141084083,141084083,141084083,0,12826060,38477664,38477664,38477664,51303466,51303466
294994092,0,294166620,294166620,294994092,294994092,294994092,294994092,0,12825930,101365338,102606546,115432348,153909755,153909755,141084080,0,140670344,140670344,141084080,141084080,141084080,141084080,0,12826059,38477663,38477663,38477663,51303466,51303466
294994096,0,294166626,294166626,294994096,294994096,294994096,294994096,0,12825930,101365340,102606545,115432347,153909754,153909754,141084083,0,140670348,140670348,141084083,141084083,141084083,141084083,0,12826058,38477664,38477664,38477664,51303466,51303466
294994094,0,294166622,294166622,294994094,294994094,294994094,294994094,0,12825931,101365341,102606549,115432352,153909759,153909759,141084083,0,140670347,140670347,141084083,141084083,141084083,141084083,0,12826059,38477663,38477663,38477663,51303465,51303465
294994096,0,294166625,294166625,294994096,294994096,294994096,294994096,0,12825931,101365340,102606547,115432349,153909756,153909756,141084081,0,140670345,140670345,141084081,141084081,141084081,141084081,0,12826060,38477664,38477664,38477664,51303467,51303467
294994095,0,294166624,294166624,294994095,294994095,294994095,294994095,0,12825930,101365339,102606545,115432347,153909753,153909753,141084082,0,140670347,140670347,141084082,141084082,141084082,141084082,0,12826058,38477664,38477664,38477664,51303466,51303466
294994094,0,294166622,294166622,294994094,294994094,294994094,294994094,0,12825931,101365341,102606549,115432352,153909760,153909760,141084083,0,140670347,140670347,141084083,141084083,141084083,141084083,0,12826058,38477662,38477662,38477662,51303464,51303464
294994092,0,294166622,294166622,294994092,294994092,294994092,294994092,0,12825930,101365341,102606546,115432348,153909755,153909755,141084080,0,140670345,140670345,141084080,141084080,141084080,141084080,0,12826059,38477663,38477663,38477663,51303466,51303466
294994099,0,294166627,294166627,294994099,294994099,294994099,294994099,0,12825931,101365338,102606546,115432348,153909754,153909754,141084084,0,140670348,140670348,141084084,141084084,141084084,141084084,0,12826060,38477666,38477666,38477666,51303468,51303468
294994095,0,294166625,294166625,294994095,294994095,294994095,294994095,0,12825931,101365344,102606549,115432352,153909760,153909760,141084081,0,140670346,140670346,141084081,141084081,141084081,141084081,0,12826058,38477662,38477662,38477662,51303464,51303464
294994092,0,294166620,294166620,294994092,294994092,294994092,294994092,0,12825930,101365338,102606546,115432348,153909755,153909755,141084082,0,140670346,140670346,141084082,141084082,141084082,141084082,0,12826059,38477663,38477663,38477663,51303466,51303466
294994098,0,294166628,294166628,294994098,294994098,294994098,294994098,0,12825931,101365341,102606546,115432348,153909754,153909754,141084082,0,140670347,140670347,141084082,141084082,141084082,141084082,0,12826060,38477664,38477664,38477664,51303466,51303466
294994096,0,294166624,294166624,294994096,294994096,294994096,294994096,0,12825931,101365341,102606549,115432352,153909760,153909760,141084082,0,140670346,140670346,141084082,141084082,141084082,141084082,0,12826058,38477664,38477664,38477664,51303466,51303466
294994092,0,294166621,294166621,294994092,294994092,294994092,294994092,0,12825930,101365338,102606546,115432348,153909755,153909755,141084083,0,140670347,140670347,141084083,141084083,141084083,141084083,0,12826059,38477663,38477663,38477663,51303466,51303466
294994094,0,294166623,294166623,294994094,294994094,294994094,294994094,0,12825930,101365340,102606545,115432347,153909753,153909753,141084082,0,140670347,140670347,141084082,141084082,141084082,141084082,0,12826058,38477664,38477664,38477664,51303466,51303466
294994096,0,294166624,294166624,294994096,294994096,294994096,294994096,0,12825931,101365339,102606547,115432349,153909757,153909757,141084082,0,140670346,140670346,141084082,141084082,141084082,141084082,0,12826060,38477664,38477664,38477664,51303466,51303466
294994096,0,294166626,294166626,294994096,294994096,294994096,294994096,0,12825931,101365344,102606549,115432352,153909759,153909759,141084083,0,140670348,140670348,141084083,141084083,141084083,141084083,0,12826059,38477663,38477663,38477663,51303466,51303466
294994093,0,294166621,294166621,294994093,294994093,294994093,294994093,0,12825930,101365337,102606545,115432347,153909753,153909753,141084080,0,140670344,140670344,141084080,141084080,141084080,141084080,0,12826058,38477662,38477662,38477662,51303464,51303464
294994096,0,294166626,294166626,294994096,294994096,294994096,294994096,0,12825931,101365344,102606549,115432352,153909760,153909760,141084082,0,140670347,140670347,141084082,141084082,141084082,141084082,0,12826058,38477664,38477664,38477664,51303466,51303466
294994095,0,294166623,294166623,294994095,294994095,294994095,294994095,0,12825931,101365337,102606545,115432347,153909754,153909754,141084085,0,140670349,140670349,141084085,141084085,141084085,141084085,0,12826061,38477665,38477665,38477665,51303468,51303468
294994094,0,294166624,294166624,294994094,294994094,294994094,294994094,0,12825930,101365342,102606547,115432349,153909755,153909755,141084080,0,140670345,140670345,141084080,141084080,141084080,141084080,0,12826058,38477662,38477662,38477662,51303464,51303464
294994093,0,294166621,294166621,294994093,294994093,294994093,294994093,0,12825930,101365338,102606546,115432348,153909756,153909756,141084082,0,140670346,140670346,141084082,141084082,141084082,141084082,0,12826058,38477664,38477664,38477664,51303466,51303466
294994096,0,294166624,294166624,294994096,294994096,294994096,294994096,0,12825931,101365341,102606549,115432352,153909759,153909759,141084083,0,140670347,140670347,141084083,141084083,141084083,141084083,0,12826059,38477663,38477663,38477663,51303466,51303466
294994095,0,294166625,294166625,294994095,294994095,294994095,294994095,0,12825931,101365341,102606546,115432348,153909754,153909754,141084082,0,140670347,140670347,141084082,141084082,141084082,141084082,0,12826060,38477664,38477664,38477664,51303466,51303466
294994093,0,294166621,294166621,294994093,294994093,294994093,294994093,0,12825930,101365336,102606544,115432346,153909754,153909754,141084082,0,140670346,140670346,141084082,141084082,141084082,141084082,0,12826058,38477664,38477664,38477664,51303466,51303466
294994096,0,294166626,294166626,294994096,294994096,294994096,294994096,0,12825931,101365344,102606549,115432352,153909759,153909759,141084083,0,140670348,140670348,141084083,141084083,141084083,141084083,0,12826059,38477663,38477663,38477663,51303466,51303466
294994094,0,294166622,294166622,294994094,294994094,294994094,294994094,0,12825930,101365339,102606547,115432349,153909755,153909755,141084080,0,140670344,140670344,141084080,141084080,141084080,141084080,0,12826058,38477662,38477662,38477662,51303464,51303464
294994095,0,294166625,294166625,294994095,294994095,294994095,294994095,0,12825931,101365340,102606545,115432347,153909754,153909754,141084084,0,140670349,140670349,141084084,141084084,141084084,141084084,0,12826060,38477666,38477666,38477666,51303468,51303468
294994095,0,294166623,294166623,294994095,294994095,294994095,294994095,0,12825931,101365341,102606549,115432352,153909759,153909759,141084082,0,140670346,140670346,141084082,141084082,141084082,141084082,0,12826059,38477663,38477663,38477663,51303465,51303465
294994095,0,294166624,294166624,294994095,294994095,294994095,294994095,0,12825930,101365341,102606547,115432349,153909756,153909756,141084081,0,140670345,140670345,141084081,141084081,141084081,141084081,0,12826058,38477662,38477662,38477662,51303465,51303465
294994092,0,294166621,294166621,294994092,294994092,294994092,294994092,0,12825930,101365337,102606544,115432346,153909754,153909754,141084082,0,140670347,140670347,141084082,141084082,141084082,141084082,0,12826058,38477664,38477664,38477664,51303466,51303466
294994097,0,294166625,294166625,294994097,294994097,294994097,294994097,0,12825932,101365342,102606550,115432353,153909759,153909759,141084083,0,140670347,140670347,141084083,141084083,141084083,141084083,0,12826060,38477664,38477664,38477664,51303466,51303466
294994093,0,294166623,294166623,294994093,294994093,294994093,294994093,0,12825930,101365342,102606547,115432349,153909756,153909756,141084082,0,140670347,140670347,141084082,141084082,141084082,141084082,0,12826059,38477663,38477663,38477663,51303466,51303466
294994095,0,294166623,294166623,294994095,294994095,294994095,294994095,0,12825930,101365336,102606544,115432346,153909753,153909753,141084082,0,140670346,140670346,141084082,141084082,141084082,141084082,0,12826058,38477664,38477664,38477664,51303466,51303466
294994095,0,294166625,294166625,294994095,294994095,294994095,294994095,0,12825931,101365344,102606549,115432352,153909759,153909759,141084082,0,140670347,140670347,141084082,141084082,141084082,141084082,0,12826059,38477663,38477663,38477663,51303465,51303465
294994095,0,294166623,294166623,294994095,294994095,294994095,294994095,0,12825931,101365339,102606547,115432349,153909756,153909756,141084081,0,140670345,140670345,141084081,141084081,141084081,141084081,0,12826060,38477664,38477664,38477664,51303467,51303467
294994096,0,294166626,294166626,294994096,294994096,294994096,294994096,0,12825930,101365340,102606545,115432347,153909754,153909754,141084083,0,140670348,140670348,141084083,141084083,141084083,141084083,0,12826058,38477664,38477664,38477664,51303466,51303466
294994093,0,294166621,294166621,294994093,294994093,294994093,294994093,0,12825931,101365341,102606549,115432352,153909759,153909759,141084082,0,140670346,140670346,141084082,141084082,141084082,141084082,0,12826058,38477662,38477662,38477662,51303464,51303464
294994094,0,294166623,294166623,294994094,294994094,294994094,294994094,0,12825930,101365340,102606547,115432349,153909756,153909756,141084082,0,140670346,140670346,141084082,141084082,141084082,141084082,0,12826059,38477663,38477663,38477663,51303466,51303466
294994097,0,294166626,294166626,294994097,294994097,294994097,294994097,0,12825931,101365339,102606545,115432347,153909753,153909753,141084082,0,140670347,140670347,141084082,141084082,141084082,141084082,0,12826060,38477666,38477666,38477666,51303468,51303468
294994095,0,294166623,294166623,294994095,294994095,294994095,294994095,0,12825931,101365341,102606549,115432352,153909760,153909760,141084082,0,140670346,140670346,141084082,141084082,141084082,141084082,0,12826058,38477662,38477662,38477662,51303464,51303464
294994092,0,294166622,294166622,294994092,294994092,294994092,294994092,0,12825930,101365341,102606546,115432348,153909755,153909755,141084081,0,140670346,140670346,141084081,141084081,141084081,141084081,0,12826059,38477663,38477663,38477663,51303466,51303466
294994099,0,294166627,294166627,294994099,294994099,294994099,294994099,0,12825931,101365338,102606546,115432348,153909754,153909754,141084083,0,140670347,140670347,141084083,141084083,141084083,141084083,0,12826060,38477665,38477665,38477665,51303467,51303467
294994095,0,294166625,294166625,294994095,294994095,294994095,294994095,0,12825931,101365344,102606549,115432352,153909760,153909760,141084082,0,140670347,140670347,141084082,141084082,141084082,141084082,0,12826058,38477663,38477663,38477663,51303465,51303465
294994092,0,294166620,294166620,294994092,294994092,294994092,294994092,0,12825930,101365338,102606546,115432348,153909755,153909755,141084082,0,140670346,140670346,141084082,141084082,141084082,141084082,0,12826059,38477663,38477663,38477663,51303466,51303466
294994094,0,294166624,294166624,294994094,294994094,294994094,294994094,0,12825930,101365340,102606545,115432347,153909753,153909753,141084082,0,140670347,140670347,141084082,141084082,141084082,141084082,0,12826058,38477664,38477664,38477664,51303466,51303466
294994098,0,294166626,294166626,294994098,294994098,294994098,294994098,0,12825932,101365341,102606549,115432351,153909759,153909759,141084082,0,140670346,140670346,141084082,141084082,141084082,141084082,0,12826060,38477664,38477664,38477664,51303466,51303466
294994094,0,294166623,294166623,294994094,294994094,294994094,294994094,0,12825930,101365339,102606547,115432350,153909757,153909757,141084083,0,140670347,140670347,141084083,141084083,141084083,141084083,0,12826059,38477663,38477663,38477663,51303466,51303466
294994094,0,294166623,294166623,294994094,294994094,294994094,294994094,0,12825930,101365340,102606545,115432347,153909753,153909753,141084081,0,140670346,140670346,141084081,141084081,141084081,141084081,0,12826058,38477663,38477663,38477663,51303465,51303465
294994095,0,294166623,294166623,294994095,294994095,294994095,294994095,0,12825931,101365341,102606549,115432352,153909760,153909760,141084082,0,140670346,140670346,141084082,141084082,141084082,141084082,0,12826058,38477663,38477663,38477663,51303465,51303465
294994096,0,294166626,294166626,294994096,294994096,294994096,294994096,0,12825931,101365341,102606546,115432348,153909755,153909755,141084084,0,140670349,140670349,141084084,141084084,141084084,141084084,0,12826061,38477665,38477665,38477665,51303468,51303468
294994094,0,294166622,294166622,294994094,294994094,294994094,294994094,0,12825930,101365338,102606546,115432348,153909754,153909754,141084080,0,140670344,140670344,141084080,141084080,141084080,141084080,0,12826058,38477662,38477662,38477662,51303464,51303464
294994094,0,294166624,294166624,294994094,294994094,294994094,294994094,0,12825931,101365343,102606548,115432350,153909758,153909758,141084082,0,140670347,140670347,141084082,141084082,141084082,141084082,0,12826058,38477664,38477664,38477664,51303466,51303466
294994094,0,294166622,294166622,294994094,294994094,294994094,294994094,0,12825930,101365339,102606547,115432350,153909757,153909757,141084083,0,140670347,140670347,141084083,141084083,141084083,141084083,0,12826059,38477663,38477663,38477663,51303466,51303466
294994096,0,294166626,294166626,294994096,294994096,294994096,294994096,0,12825931,101365341,102606546,115432348,153909754,153909754,141084082,0,140670347,140670347,141084082,141084082,141084082,141084082,0,12826060,38477664,38477664,38477664,51303466,51303466
294994093,0,294166621,294166621,294994093,294994093,294994093,294994093,0,12825930,101365337,102606545,115432347,153909755,153909755,141084082,0,140670346,140670346,141084082,141084082,141084082,141084082,0,12826058,38477664,38477664,38477664,51303466,51303466
294994097,0,294166625,294166625,294994097,294994097,294994097,294994097,0,12825931,101365342,102606550,115432353,153909760,153909760,141084083,0,140670347,140670347,141084083,141084083,141084083,141084083,0,12826059,38477663,38477663,38477663,51303466,51303466
294994093,0,294166623,294166623,294994093,294994093,294994093,294994093,0,12825930,101365340,102606545,115432347,153909753,153909753,141084080,0,140670345,140670345,141084080,141084080,141084080,141084080,0,12826058,38477662,38477662,38477662,51303464,51303464
294994094,0,294166622,294166622,294994094,294994094,294994094,294994094,0,12825931,101365337,102606545,115432347,153909754,153909754,141084084,0,140670348,140670348,141084084,141084084,141084084,141084084,0,12826060,38477666,38477666,38477666,51303468,51303468
294994096,0,294166626,294166626,294994096,294994096,294994096,294994096,0,12825931,101365344,102606549,115432352,153909760,153909760,141084083,0,140670348,140670348,141084083,141084083,141084083,141084083,0,12826059,38477663,38477663,38477663,51303466,51303466
294994094,0,294166622,294166622,294994094,294994094,294994094,294994094,0,12825930,101365339,102606547,115432349,153909755,153909755,141084080,0,140670344,140670344,141084080,141084080,141084080,141084080,0,12826058,38477662,38477662,38477662,51303464,51303464
294994093,0,294166623,294166623,294994093,294994093,294994093,294994093,0,12825930,101365340,102606545,115432347,153909755,153909755,141084082,0,140670347,140670347,141084082,141084082,141084082,141084082,0,12826058,38477664,38477664,38477664,51303466,51303466
294994097,0,294166625,294166625,294994097,294994097,294994097,294994097,0,12825932,101365341,102606549,115432352,153909758,153909758,141084084,0,140670348,140670348,141084084,141084084,141084084,141084084,0,12826061,38477665,38477665,38477665,51303467,51303467
294994094,0,294166623,294166623,294994094,294994094,294994094,294994094,0,12825930,101365341,102606547,115432349,153909756,153909756,141084081,0,140670345,140670345,141084081,141084081,141084081,141084081,0,12826058,38477662,38477662,38477662,51303465,51303465
294994093,0,294166622,294166622,294994093,294994093,294994093,294994093,0,12825930,101365337,102606544,115432346,153909753,153909753,141084082,0,140670347,140670347,141084082,141084082,141084082,141084082,0,12826058,38477664,38477664,38477664,51303466,51303466
294994097,0,294166625,294166625,294994097,294994097,294994097,294994097,0,12825931,101365341,102606549,115432352,153909760,153909760,141084083,0,140670347,140670347,141084083,141084083,141084083,141084083,0,12826059,38477663,38477663,38477663,51303466,51303466
294994093,0,294166623,294166623,294994093,294994093,294994093,294994093,0,12825931,101365342,102606547,115432349,153909755,153909755,141084080,0,140670345,140670345,141084080,141084080,141084080,141084080,0,12826060,38477664,38477664,38477664,51303466,51303466
294994096,0,294166624,294166624,294994096,294994096,294994096,294994096,0,12825930,101365337,102606545,115432347,153909754,153909754,141084083,0,140670347,140670347,141084083,141084083,141084083,141084083,0,12826058,38477664,38477664,38477664,51303466,51303466
294994094,0,294166624,294166624,294994094,294994094,294994094,294994094,0,12825931,101365344,102606549,115432352,153909759,153909759,141084083,0,140670348,140670348,141084083,141084083,141084083,141084083,0,12826059,38477663,38477663,38477663,51303465,51303465
294994094,0,294166622,294166622,294994094,294994094,294994094,294994094,0,12825930,101365339,102606547,115432349,153909756,153909756,141084081,0,140670345,140670345,141084081,141084081,141084081,141084081,0,12826058,38477662,38477662,38477662,51303465,51303465
294994097,0,294166627,294166627,294994097,294994097,294994097,294994097,0,12825931,101365340,102606545,115432347,153909753,153909753,141084082,0,140670347,140670347,141084082,141084082,141084082,141084082,0,12826060,38477666,38477666,38477666,51303468,51303468
294994094,0,294166622,294166622,294994094,294994094,294994094,294994094,0,12825931,101365341,102606549,115432352,153909760,153909760,141084083,0,140670347,140670347,141084083,141084083,141084083,141084083,0,12826058,38477662,38477662,38477662,51303464,51303464
294994092,0,294166621,294166621,294994092,294994092,294994092,294994092,0,12825930,101365339,102606546,115432348,153909755,153909755,141084081,0,140670345,140670345,141084081,141084081,141084081,141084081,0,12826059,38477663,38477663,38477663,51303466,51303466
294994099,0,294166628,294166628,294994099,294994099,294994099,294994099,0,12825931,101365340,102606546,115432348,153909754,153909754,141084083,0,140670348,140670348,141084083,141084083,141084083,141084083,0,12826060,38477666,38477666,38477666,51303468,51303468
294994095,0,294166623,294166623,294994095,294994095,294994095,294994095,0,12825931,101365341,102606549,115432352,153909760,153909760,141084082,0,140670346,140670346,141084082,141084082,141084082,141084082,0,12826058,38477662,38477662,38477662,51303464,51303464
294994092,0,294166622,294166622,294994092,294994092,294994092,294994092,0,12825930,101365341,102606546,115432348,153909755,153909755,141084081,0,140670346,140670346,141084081,141084081,141084081,141084081,0,12826059,38477663,38477663,38477663,51303466,51303466
294994095,0,294166623,294166623,294994095,294994095,294994095,294994095,0,12825930,101365337,102606545,115432347,153909753,153909753,141084082,0,140670346,140670346,141084082,141084082,141084082,141084082,0,12826058,38477664,38477664,38477664,51303466,51303466
294994099,0,294166629,294166629,294994099,294994099,294994099,294994099,0,12825932,101365345,102606550,115432353,153909761,153909761,141084082,0,140670347,140670347,141084082,141084082,141084082,141084082,0,12826060,38477664,38477664,38477664,51303466,51303466
294994092,0,294166620,294166620,294994092,294994092,294994092,294994092,0,12825930,101365338,102606546,115432348,153909755,153909755,141084083,0,140670347,140670347,141084083,141084083,141084083,141084083,0,12826059,38477663,38477663,38477663,51303466,51303466
294994094,0,294166624,294166624,294994094,294994094,294994094,294994094,0,12825930,101365340,102606545,115432347,153909753,153909753,141084082,0,140670347,140670347,141084082,141084082,141084082,141084082,0,12826058,38477664,38477664,38477664,51303466,51303466
294994095,0,294166623,294166623,294994095,294994095,294994095,294994095,0,12825931,101365341,102606549,115432352,153909760,153909760,141084082,0,140670346,140670346,141084082,141084082,141084082,141084082,0,12826058,38477662,38477662,38477662,51303464,51303464
294994097,0,294166626,294166626,294994097,294994097,294994097,294994097,0,12825931,101365339,102606547,115432349,153909756,153909756,141084083,0,140670347,140670347,141084083,141084083,141084083,141084083,0,12826061,38477665,38477665,38477665,51303468,51303468
294994093,0,294166622,294166622,294994093,294994093,294994093,294994093,0,12825930,101365340,102606545,115432347,153909753,153909753,141084080,0,140670345,140670345,141084080,141084080,141084080,141084080,0,12826058,38477662,38477662,38477662,51303464,51303464
294994096,0,294166624,294166624,294994096,294994096,294994096,294994096,0,12825931,101365341,102606549,115432352,153909760,153909760,141084082,0,140670346,140670346,141084082,141084082,141084082,141084082,0,12826058,38477664,38477664,38477664,51303466,51303466
294994092,0,294166622,294166622,294994092,294994092,294994092,294994092,0,12825930,101365341,102606546,115432348,153909755,153909755,141084083,0,140670348,140670348,141084083,141084083,141084083,141084083,0,12826059,38477663,38477663,38477663,51303466,51303466
294994097,0,294166625,294166625,294994097,294994097,294994097,294994097,0,12825931,101365338,102606546,115432348,153909754,153909754,141084082,0,140670346,140670346,141084082,141084082,141084082,141084082,0,12826060,38477664,38477664,38477664,51303466,51303466
294994093,0,294166623,294166623,294994093,294994093,294994093,294994093,0,12825930,101365341,102606546,115432348,153909756,153909756,141084082,0,140670347,140670347,141084082,141084082,141084082,141084082,0,12826058,38477664,38477664,38477664,51303466,51303466
294994096,0,294166624,294166624,294994096,294994096,294994096,294994096,0,12825931,101365341,102606549,115432352,153909759,153909759,141084083,0,140670347,140670347,141084083,141084083,141084083,141084083,0,12826059,38477663,38477663,38477663,51303466,51303466
294994093,0,294166623,294166623,294994093,294994093,294994093,294994093,0,12825930,101365340,102606545,115432347,153909753,153909753,141084081,0,140670346,140670346,141084081,141084081,141084081,141084081,0,12826058,38477663,38477663,38477663,51303465,51303465
294994095,0,294166623,294166623,294994095,294994095,294994095,294994095,0,12825931,101365337,102606545,115432347,153909755,153909755,141084083,0,140670347,140670347,141084083,141084083,141084083,141084083,0,12826060,38477665,38477665,38477665,51303467,51303467
294994097,0,294166625,294166625,294994097,294994097,294994097,294994097,0,12825931,101365342,102606550,115432353,153909760,153909760,141084083,0,140670347,140670347,141084083,141084083,141084083,141084083,0,12826059,38477663,38477663,38477663,51303466,51303466
294994093,0,294166623,294166623,294994093,294994093,294994093,294994093,0,12825930,101365341,102606546,115432348,153909754,153909754,141084080,0,140670345,140670345,141084080,141084080,141084080,141084080,0,12826058,38477662,38477662,38477662,51303464,51303464
294994094,0,294166622,294166622,294994094,294994094,294994094,294994094,0,12825931,101365339,102606547,115432349,153909757,153909757,141084082,0,140670346,140670346,141084082,141084082,141084082,141084082,0,12826058,38477664,38477664,38477664,51303466,51303466
294994096,0,294166626,294166626,294994096,294994096,294994096,294994096,0,12825931,101365342,102606547,115432350,153909756,153909756,141084084,0,140670349,140670349,141084084,141084084,141084084,141084084,0,12826061,38477665,38477665,38477665,51303467,51303467
294994095,0,294166623,294166623,294994095,294994095,294994095,294994095,0,12825930,101365339,102606547,115432349,153909756,153909756,141084081,0,140670345,140670345,141084081,141084081,141084081,141084081,0,12826058,38477662,38477662,38477662,51303465,51303465
294994092,0,294166622,294166622,294994092,294994092,294994092,294994092,0,12825930,101365339,102606544,115432346,153909754,153909754,141084082,0,140670347,140670347,141084082,141084082,141084082,141084082,0,12826058,38477664,38477664,38477664,51303466,51303466
294994097,0,294166625,294166625,294994097,294994097,294994097,294994097,0,12825931,101365342,102606550,115432353,153909760,153909760,141084083,0,140670347,140670347,141084083,141084083,141084083,141084083,0,12826059,38477663,38477663,38477663,51303466,51303466
294994094,0,294166623,294166623,294994094,294994094,294994094,294994094,0,12825931,101365341,102606547,115432349,153909755,153909755,141084082,0,140670346,140670346,141084082,141084082,141084082,141084082,0,12826060,38477664,38477664,38477664,51303466,51303466
294994094,0,294166623,294166623,294994094,294994094,294994094,294994094,0,12825930,101365337,102606544,115432346,153909753,153909753,141084082,0,140670347,140670347,141084082,141084082,141084082,141084082,0,12826058,38477664,38477664,38477664,51303466,51303466
294994096,0,294166624,294166624,294994096,294994096,294994096,294994096,0,12825931,101365341,102606549,115432352,153909760,153909760,141084083,0,140670347,140670347,141084083,141084083,141084083,141084083,0,12826059,38477663,38477663,38477663,51303466,51303466
294994094,0,294166624,294166624,294994094,294994094,294994094,294994094,0,12825930,101365342,102606547,115432349,153909755,153909755,141084080,0,140670345,140670345,141084080,141084080,141084080,141084080,0,12826058,38477662,38477662,38477662,51303464,51303464
294994096,0,294166624,294166624,294994096,294994096,294994096,294994096,0,12825931,101365337,102606545,115432347,153909754,153909754,141084083,0,140670347,140670347,141084083,141084083,141084083,141084083,0,12826060,38477666,38477666,38477666,51303468,51303468
294994093,0,294166623,294166623,294994093,294994093,294994093,294994093,0,12825931,101365344,102606549,115432352,153909759,153909759,141084082,0,140670347,140670347,141084082,141084082,141084082,141084082,0,12826058,38477662,38477662,38477662,51303464,51303464
294994094,0,294166622,294166622,294994094,294994094,294994094,294994094,0,12825930,101365339,102606547,115432349,153909756,153909756,141084082,0,140670346,140670346,141084082,141084082,141084082,141084082,0,12826059,38477663,38477663,38477663,51303466,51303466
294994097,0,294166627,294166627,294994097,294994097,294994097,294994097,0,12825931,101365340,102606545,115432347,153909753,153909753,141084082,0,140670347,140670347,141084082,141084082,141084082,141084082,0,12826060,38477666,38477666,38477666,51303468,51303468
294994095,0,294166623,294166623,294994095,294994095,294994095,294994095,0,12825931,101365341,102606549,115432352,153909760,153909760,141084082,0,140670346,140670346,141084082,141084082,141084082,141084082,0,12826058,38477662,38477662,38477662,51303464,51303464
294994092,0,294166621,294166621,294994092,294994092,294994092,294994092,0,12825930,101365339,102606546,115432348,153909755,153909755,141084081,0,140670345,140670345,141084081,141084081,141084081,141084081,0,12826059,38477663,38477663,38477663,51303466,51303466
294994096,0,294166625,294166625,294994096,294994096,294994096,294994096,0,12825930,101365339,102606545,115432347,153909754,153909754,141084083,0,140670348,140670348,141084083,141084083,141084083,141084083,0,12826058,38477664,38477664,38477664,51303466,51303466
294994098,0,294166626,294166626,294994098,294994098,294994098,294994098,0,12825932,101365342,102606550,115432353,153909760,153909760,141084082,0,140670346,140670346,141084082,141084082,141084082,141084082,0,12826060,38477664,38477664,38477664,51303466,51303466
294994092,0,294166622,294166622,294994092,294994092,294994092,294994092,0,12825930,101365341,102606546,115432348,153909755,153909755,141084082,0,140670347,140670347,141084082,141084082,141084082,141084082,0,12826059,38477663,38477663,38477663,51303466,51303466
294994094,0,294166622,294166622,294994094,294994094,294994094,294994094,0,12825930,101365337,102606545,115432347,153909753,153909753,141084082,0,140670346,140670346,141084082,141084082,141084082,141084082,0,12826058,38477664,38477664,38477664,51303466,51303466
294994095,0,294166625,294166625,294994095,294994095,294994095,294994095,0,12825931,101365344,102606549,115432352,153909760,153909760,141084082,0,140670347,140670347,141084082,141084082,141084082,141084082,0,12826058,38477662,38477662,38477662,51303464,51303464
294994097,0,294166625,294166625,294994097,294994097,294994097,294994097,0,12825931,101365339,102606547,115432349,153909756,153909756,141084083,0,140670347,140670347,141084083,141084083,141084083,141084083,0,12826061,38477665,38477665,38477665,51303468,51303468
294994094,0,294166624,294166624,294994094,294994094,294994094,294994094,0,12825930,101365340,102606545,115432347,153909753,153909753,141084081,0,140670346,140670346,141084081,141084081,141084081,141084081,0,12826058,38477663,38477663,38477663,51303465,51303465
294994095,0,294166623,294166623,294994095,294994095,294994095,294994095,0,12825931,101365341,102606549,115432352,153909760,153909760,141084082,0,140670346,140670346,141084082,141084082,141084082,141084082,0,12826058,38477663,38477663,38477663,51303465,51303465
294994092,0,294166621,294166621,294994092,294994092,294994092,294994092,0,12825930,101365338,102606546,115432348,153909755,153909755,141084082,0,140670346,140670346,141084082,141084082,141084082,141084082,0,12826059,38477663,38477663,38477663,51303466,51303466
294994098,0,294166627,294166627,294994098,294994098,294994098,294994098,0,12825931,101365341,102606546,115432348,153909754,153909754,141084082,0,140670347,140670347,141084082,141084082,141084082,141084082,0,12826060,38477664,38477664,38477664,51303466,51303466
294994095,0,294166623,294166623,294994095,294994095,294994095,294994095,0,12825931,101365340,102606548,115432351,153909759,153909759,141084082,0,140670346,140670346,141084082,141084082,141084082,141084082,0,12826058,38477664,38477664,38477664,51303466,51303466
294994093,0,294166623,294166623,294994093,294994093,294994093,294994093,0,12825930,101365342,102606547,115432349,153909756,153909756,141084083,0,140670348,140670348,141084083,141084083,141084083,141084083,0,12826059,38477663,38477663,38477663,51303466,51303466
294994094,0,294166622,294166622,294994094,294994094,294994094,294994094,0,12825930,101365337,102606545,115432347,153909753,153909753,141084081,0,140670345,140670345,141084081,141084081,141084081,141084081,0,12826058,38477663,38477663,38477663,51303465,51303465
294994095,0,294166625,294166625,294994095,294994095,294994095,294994095,0,12825931,101365341,102606546,115432348,153909756,153909756,141084083,0,140670348,140670348,141084083,141084083,141084083,141084083,0,12826060,38477665,38477665,38477665,51303467,51303467
294994097,0,294166625,294166625,294994097,294994097,294994097,294994097,0,12825931,101365342,102606550,115432353,153909760,153909760,141084083,0,140670347,140670347,141084083,141084083,141084083,141084083,0,12826059,38477663,38477663,38477663,51303466,51303466
294994093,0,294166623,294166623,294994093,294994093,294994093,294994093,0,12825930,101365340,102606545,115432347,153909753,153909753,141084080,0,140670345,140670345,141084080,141084080,141084080,141084080,0,12826058,38477662,38477662,38477662,51303464,51303464
294994095,0,294166623,294166623,294994095,294994095,294994095,294994095,0,12825931,101365340,102606548,115432351,153909759,153909759,141084082,0,140670346,140670346,141084082,141084082,141084082,141084082,0,12826058,38477664,38477664,38477664,51303466,51303466
294994096,0,294166624,294166624,294994096,294994096,294994096,294994096,0,12825931,101365338,102606546,115432348,153909755,153909755,141084085,0,140670349,140670349,141084085,141084085,141084085,141084085,0,12826061,38477665,38477665,38477665,51303468,51303468
294994093,0,294166623,294166623,294994093,294994093,294994093,294994093,0,12825930,101365342,102606547,115432349,153909755,153909755,141084080,0,140670345,140670345,141084080,141084080,141084080,141084080,0,12826058,38477662,38477662,38477662,51303464,51303464
294994093,0,294166621,294166621,294994093,294994093,294994093,294994093,0,12825930,101365337,102606545,115432347,153909755,153909755,141084082,0,140670346,140670346,141084082,141084082,141084082,141084082,0,12826058,38477664,38477664,38477664,51303466,51303466
294994097,0,294166627,294166627,294994097,294994097,294994097,294994097,0,12825931,101365345,102606550,115432353,153909760,153909760,141084083,0,140670348,140670348,141084083,141084083,141084083,141084083,0,12826059,38477663,38477663,38477663,51303466,51303466
294994094,0,294166622,294166622,294994094,294994094,294994094,294994094,0,12825931,101365338,102606546,115432348,153909754,153909754,141084082,0,140670346,140670346,141084082,141084082,141084082,141084082,0,12826060,38477664,38477664,38477664,51303466,51303466
294994093,0,294166623,294166623,294994093,294994093,294994093,294994093,0,12825930,101365339,102606544,115432346,153909753,153909753,141084082,0,140670347,140670347,141084082,141084082,141084082,141084082,0,12826058,38477664,38477664,38477664,51303466,51303466
294994097,0,294166625,294166625,294994097,294994097,294994097,294994097,0,12825931,101365341,102606549,115432352,153909760,153909760,141084083,0,140670347,140670347,141084083,141084083,141084083,141084083,0,12826059,38477663,38477663,38477663,51303466,51303466
294994093,0,294166622,294166622,294994093,294994093,294994093,294994093,0,12825930,101365341,102606547,115432349,153909755,153909755,141084080,0,140670344,140670344,141084080,141084080,141084080,141084080,0,12826058,38477662,38477662,38477662,51303464,51303464
294994096,0,294166625,294166625,294994096,294994096,294994096,294994096,0,12825931,101365338,102606545,115432347,153909754,153909754,141084083,0,140670348,140670348,141084083,141084083,141084083,141084083,0,12826060,38477666,38477666,38477666,51303468,51303468
294994095,0,294166623,294166623,294994095,294994095,294994095,294994095,0,12825931,101365341,102606549,115432352,153909759,153909759,141084083,0,140670347,140670347,141084083,141084083,141084083,141084083,0,12826059,38477663,38477663,38477663,51303465,51303465
294994093,0,294166623,294166623,294994093,294994093,294994093,294994093,0,12825930,101365342,102606547,115432349,153909756,153909756,141084081,0,140670346,140670346,141084081,141084081,141084081,141084081,0,12826058,38477662,38477662,38477662,51303465,51303465
294994097,0,294166625,294166625,294994097,294994097,294994097,294994097,0,12825931,101365337,102606545,115432347,153909753,153909753,141084082,0,140670346,140670346,141084082,141084082,141084082,141084082,0,12826060,38477666,38477666,38477666,51303468,51303468
294994094,0,294166624,294166624,294994094,294994094,294994094,294994094,0,12825931,101365344,102606549,115432352,153909760,153909760,141084083,0,140670348,140670348,141084083,141084083,141084083,141084083,0,12826058,38477662,38477662,38477662,51303464,51303464
294994092,0,294166620,294166620,294994092,294994092,294994092,294994092,0,12825930,101365338,102606546,115432348,153909755,153909755,141084081,0,140670345,140670345,141084081,141084081,141084081,141084081,0,12826059,38477663,38477663,38477663,51303466,51303466
294994096,0,294166626,294166626,294994096,294994096,294994096,294994096,0,12825930,101365340,102606545,115432347,153909754,153909754,141084082,0,140670347,140670347,141084082,141084082,141084082,141084082,0,12826058,38477664,38477664,38477664,51303466,51303466
304983087,165,303934925,304205985,304982075,304982287,304982300,304982329,0,18403962,105337917,111270580,123293047,159360244,159360261,136591734,56,136203136,136203227,136591503,136591506,136591511,136591511,0,14508786,38554931,38555278,38555358,50577722,50577722
452426464,1088,448221656,452424085,452425784,452425784,452425784,452425784,0,104518699,169274164,247615598,247615870,247617094,247617094,67958949,952,67958813,67958813,67958813,67958813,67958813,67958813,0,40765115,40777083,40780483,40781707,40781707,40781707
452430006,1088,448252237,452426850,452429326,452429326,452429326,452429326,0,104498465,169261519,247609531,247609803,247611027,247611027,67953890,952,67953754,67953754,67953754,67953754,67953754,67953754,0,40762080,40774048,40777448,40778672,40778672,40778672
452430050,1080,448259973,452426680,452429375,452429375,452429375,452429375,0,104499900,169262815,247610721,247610991,247612206,247612206,67953850,945,67953715,67953715,67953715,67953715,67953715,67953715,0,40762131,40774011,40777386,40778601,40778601,40778601
452431157,1088,448260744,452427734,452430477,452430477,452430477,452430477,0,104495024,169260546,247610697,247610969,247612193,247612193,67952244,952,67952108,67952108,67952108,67952108,67952108,67952108,0,40761092,40773060,40776460,40777684,40777684,40777684
452431042,1088,448262069,452427294,452430362,452430362,452430362,452430362,0,104493716,169258989,247608923,247609195,247610419,247610419,67952412,952,67952276,67952276,67952276,67952276,67952276,67952276,0,40761192,40773160,40776560,40777784,40777784,40777784
452431108,1088,448263144,452427510,452430428,452430428,452430428,452430428,0,104494289,169259705,247609763,247610035,247611259,247611259,67952315,952,67952179,67952179,67952179,67952179,67952179,67952179,0,40761135,40773103,40776503,40777727,40777727,40777727
452432342,1088,448267425,452428514,452431662,452431662,452431662,452431662,0,104487457,169255518,247607869,247608141,247609365,247609365,67950552,952,67950416,67950416,67950416,67950416,67950416,67950416,0,40760076,40772044,40775444,40776668,40776668,40776668
452431476,1088,448265335,452427600,452430796,452430796,452430796,452430796,0,104491594,169257799,247608541,247608813,247610037,247610037,67951790,952,67951654,67951654,67951654,67951654,67951654,67951654,0,40760820,40772788,40776188,40777412,40777412,40777412
452431263,1080,448265222,452427526,452430588,452430588,452430588,452430588,0,104492367,169257881,247608039,247608309,247609524,247609524,67952117,945,67951982,67951982,67951982,67951982,67951982,67951982,0,40761092,40772972,40776347,40777562,40777562,40777562
452431277,1088,448262124,452427537,452430597,452430597,452430597,452430597,0,104493284,169259062,247609435,247609707,247610931,247610931,67952074,952,67951938,67951938,67951938,67951938,67951938,67951938,0,40760990,40772958,40776358,40777582,40777582,40777582
452431728,1088,448265860,452427888,452431048,452431048,452431048,452431048,0,104490413,169257156,247608364,247608636,247609860,247609860,67951431,952,67951295,67951295,67951295,67951295,67951295,67951295,0,40760603,40772571,40775971,40777195,40777195,40777195
452431945,1088,448268174,452428193,452431265,452431265,452431265,452431265,0,104489775,169256985,247608599,247608871,247610095,247610095,67951119,952,67950983,67950983,67950983,67950983,67950983,67950983,0,40760417,40772385,40775785,40777009,40777009,40777009
452431549,1088,448265265,452427873,452430869,452430869,452430869,452430869,0,104490608,169256967,247607843,247608115,247609339,247609339,67951687,952,67951551,67951551,67951551,67951551,67951551,67951551,0,40760759,40772727,40776127,40777351,40777351,40777351
452431415,1088,448265203,452427626,452430735,452430735,452430735,452430735,0,104491858,169257934,247608563,247608835,247610059,247610059,67951876,952,67951740,67951740,67951740,67951740,67951740,67951740,0,40760870,40772838,40776238,40777462,40777462,40777462
452431345,1088,448267721,452427611,452430665,452430665,452430665,452430665,0,104492345,169258269,247608768,247609040,247610264,247610264,67951976,952,67951840,67951840,67951840,67951840,67951840,67951840,0,40760932,40772900,40776300,40777524,40777524,40777524
452432187,1080,448268097,452428389,452431512,452431512,452431512,452431512,0,104488913,169256405,247608279,247608549,247609764,247609764,67950799,945,67950664,67950664,67950664,67950664,67950664,67950664,0,40760300,40772180,40775555,40776770,40776770,40776770
452431561,1088,448268407,452427721,452430881,452430881,452430881,452430881,0,104490770,169257157,247608057,247608329,247609553,247609553,67951668,952,67951532,67951532,67951532,67951532,67951532,67951532,0,40760746,40772714,40776114,40777338,40777338,40777338
452431907,1088,448269690,452428144,452431227,452431227,452431227,452431227,0,104491664,169258791,247610332,247610604,247611828,247611828,67951175,952,67951039,67951039,67951039,67951039,67951039,67951039,0,40760451,40772419,40775819,40777043,40777043,40777043
452431758,1088,448268621,452428058,452431078,452431078,452431078,452431078,0,104492502,169259314,247610581,247610853,247612077,247612077,67951385,952,67951249,67951249,67951249,67951249,67951249,67951249,0,40760577,40772545,40775945,40777169,40777169,40777169
452431101,1088,448263804,452427276,452430421,452430421,452430421,452430421,0,104491700,169257097,247607140,247607412,247608636,247608636,67952328,952,67952192,67952192,67952192,67952192,67952192,67952192,0,40761142,40773110,40776510,40777734,40777734,40777734
452431783,1088,448267760,452428046,452431103,452431103,452431103,452431103,0,104489427,169256291,247607604,247607876,247609100,247609100,67951350,952,67951214,67951214,67951214,67951214,67951214,67951214,0,40760556,40772524,40775924,40777148,40777148,40777148
452431525,1080,448267950,452427806,452430850,452430850,452430850,452430850,0,104493465,169259542,247610190,247610460,247611675,247611675,67951741,945,67951606,67951606,67951606,67951606,67951606,67951606,0,40760866,40772746,40776121,40777336,40777336,40777336
452430983,1088,448266701,452427064,452430303,452430303,452430303,452430303,0,104495767,169260914,247610739,247611011,247612235,247612235,67952494,952,67952358,67952358,67952358,67952358,67952358,67952358,0,40761242,40773210,40776610,40777834,40777834,40777834
452431033,1088,448270332,452427123,452430353,452430353,452430353,452430353,0,104494797,169260053,247609972,247610244,247611468,247611468,67952423,952,67952287,67952287,67952287,67952287,67952287,67952287,0,40761199,40773167,40776567,40777791,40777791,40777791
452432040,1088,448269366,452428107,452431360,452431360,452431360,452431360,0,104488525,169255938,247607727,247607999,247609223,247609223,67950985,952,67950849,67950849,67950849,67950849,67950849,67950849,0,40760337,40772305,40775705,40776929,40776929,40776929
452432267,1088,448269186,452428441,452431587,452431587,452431587,452431587,0,104489384,169257284,247609496,247609768,247610992,247610992,67950659,952,67950523,67950523,67950523,67950523,67950523,67950523,0,40760141,40772109,40775509,40776733,40776733,40776733
452432264,1088,448269260,452428406,452431584,452431584,452431584,452431584,0,104487297,169255188,247607391,247607663,247608887,247608887,67950666,952,67950530,67950530,67950530,67950530,67950530,67950530,0,40760144,40772112,40775512,40776736,40776736,40776736
452431828,1088,448270730,452427911,452431148,452431148,452431148,452431148,0,104489493,169256453,247607849,247608121,247609345,247609345,67951286,952,67951150,67951150,67951150,67951150,67951150,67951150,0,40760518,40772486,40775886,40777110,40777110,40777110
452433153,1080,448274031,452429294,452432478,452432478,452432478,452432478,0,104486285,169255846,247609513,247609783,247610998,247610998,67949419,945,67949284,67949284,67949284,67949284,67949284,67949284,0,40759472,40771352,40774727,40775942,40775942,40775942
452432173,1088,448270138,452428433,452431493,452431493,452431493,452431493,0,104489340,169257039,247609076,247609348,247610572,247610572,67950794,952,67950658,67950658,67950658,67950658,67950658,67950658,0,40760222,40772190,40775590,40776814,40776814,40776814
452431491,1088,448267000,452427860,452430811,452430811,452430811,452430811,0,104492291,169258527,247609296,247609568,247610792,247610792,67951769,952,67951633,67951633,67951633,67951633,67951633,67951633,0,40760807,40772775,40776175,40777399,40777399,40777399
452432041,1088,448272391,452428192,452431361,452431361,452431361,452431361,0,104489751,169257168,247608960,247609232,247610456,247610456,67950981,952,67950845,67950845,67950845,67950845,67950845,67950845,0,40760335,40772303,40775703,40776927,40776927,40776927
452432742,1088,448270777,452428850,452432062,452432062,452432062,452432062,0,104486840,169255760,247608856,247609128,247610352,247610352,67949979,952,67949843,67949843,67949843,67949843,67949843,67949843,0,40759733,40771701,40775101,40776325,40776325,40776325
452431160,1088,448268055,452427225,452430480,452430480,452430480,452430480,0,104492643,169258169,247608322,247608594,247609818,247609818,67952243,952,67952107,67952107,67952107,67952107,67952107,67952107,0,40761091,40773059,40776459,40777683,40777683,40777683
452431832,1088,448269934,452427980,452431152,452431152,452431152,452431152,0,104491217,169258186,247609590,247609862,247611086,247611086,67951280,952,67951144,67951144,67951144,67951144,67951144,67951144,0,40760514,40772482,40775882,40777106,40777106,40777106
452432248,1080,448270536,452428346,452431573,452431573,452431573,452431573,0,104488411,169256035,247608023,247608293,247609508,247609508,67950710,945,67950575,67950575,67950575,67950575,67950575,67950575,0,40760247,40772127,40775502,40776717,40776717,40776717
452431985,1088,448269662,452428044,452431305,452431305,452431305,452431305,0,104488352,169255645,247607331,247607603,247608827,247608827,67951064,952,67950928,67950928,67950928,67950928,67950928,67950928,0,40760384,40772352,40775752,40776976,40776976,40776976
452431702,1088,448272241,452427763,452431022,452431022,452431022,452431022,0,104490396,169257085,247608246,247608518,247609742,247609742,67951467,952,67951331,67951331,67951331,67951331,67951331,67951331,0,40760625,40772593,40775993,40777217,40777217,40777217
452431751,1088,448270211,452427925,452431071,452431071,452431071,452431071,0,104490352,169257148,247608402,247608674,247609898,247609898,67951396,952,67951260,67951260,67951260,67951260,67951260,67951260,0,40760584,40772552,40775952,40777176,40777176,40777176
452431935,1088,448269435,452428138,452431255,452431255,452431255,452431255,0,104489789,169256977,247608571,247608843,247610067,247610067,67951134,952,67950998,67950998,67950998,67950998,67950998,67950998,0,40760426,40772394,40775794,40777018,40777018,40777018
452432011,1088,448270812,452428136,452431331,452431331,452431331,452431331,0,104490100,169257449,247609183,247609455,247610679,247610679,67951027,952,67950891,67950891,67950891,67950891,67950891,67950891,0,40760361,40772329,40775729,40776953,40776953,40776953
452432044,1080,448268928,452428245,452431369,452431369,452431369,452431369,0,104489626,169256813,247608422,247608692,247609907,247609907,67951001,945,67950866,67950866,67950866,67950866,67950866,67950866,0,40760422,40772302,40775677,40776892,40776892,40776892
452432086,1088,448272187,452428220,452431406,452431406,452431406,452431406,0,104490649,169258161,247610036,247610308,247611532,247611532,67950919,952,67950783,67950783,67950783,67950783,67950783,67950783,0,40760297,40772265,40775665,40776889,40776889,40776889
452432118,1088,448273969,452428202,452431438,452431438,452431438,452431438,0,104490050,169257630,247609564,247609836,247611060,247611060,67950873,952,67950737,67950737,67950737,67950737,67950737,67950737,0,40760269,40772237,40775637,40776861,40776861,40776861
452431974,1088,448271996,452428021,452431294,452431294,452431294,452431294,0,104488433,169255705,247607372,247607644,247608868,247608868,67951078,952,67950942,67950942,67950942,67950942,67950942,67950942,0,40760392,40772360,40775760,40776984,40776984,40776984
452431519,1088,448268272,452427664,452430839,452430839,452430839,452430839,0,104491628,169257923,247608743,247609015,247610239,247610239,67951730,952,67951594,67951594,67951594,67951594,67951594,67951594,0,40760784,40772752,40776152,40777376,40777376,40777376
452432575,1088,448273538,452428701,452431895,452431895,452431895,452431895,0,104485486,169254050,247606836,247607108,247608332,247608332,67950216,952,67950080,67950080,67950080,67950080,67950080,67950080,0,40759876,40771844,40775244,40776468,40776468,40776468
452432268,1088,448274316,452428396,452431588,452431588,452431588,452431588,0,104488402,169256300,247608510,247608782,247610006,247610006,67950661,952,67950525,67950525,67950525,67950525,67950525,67950525,0,40760141,40772109,40775509,40776733,40776733,40776733
452432268,1088,448274316,452428396,452431588,452431588,452431588,452431588,0,104488402,169256300,247608510,247608782,247610006,247610006,67950661,952,67950525,67950525,67950525,67950525,67950525,67950525,0,40760141,40772109,40775509,40776733,40776733,40776733
452432268,1088,448274316,452428396,452431588,452431588,452431588,452431588,0,104488402,169256300,247608510,247608782,247610006,247610006,67950661,952,67950525,67950525,67950525,67950525,67950525,67950525,0,40760141,40772109,40775509,40776733,40776733,40776733
452431634,1088,448271488,452427750,452430954,452430954,452430954,452430954,0,104491474,169258021,247609059,247609331,247610555,247610555,67951561,952,67951425,67951425,67951425,67951425,67951425,67951425,0,40760683,40772651,40776051,40777275,40777275,40777275
452432012,1088,448268788,452428148,452431332,452431332,452431332,452431332,0,104489737,169257089,247608826,247609098,247610322,247610322,67951024,952,67950888,67950888,67950888,67950888,67950888,67950888,0,40760360,40772328,40775728,40776952,40776952,40776952
452431588,1088,448268441,452427688,452430908,452430908,452430908,452430908,0,104490371,169256814,247607762,247608034,247609258,247609258,67951632,952,67951496,67951496,67951496,67951496,67951496,67951496,0,40760724,40772692,40776092,40777316,40777316,40777316
452431831,1088,448270934,452427904,452431151,452431151,452431151,452431151,0,104490545,169257513,247608916,247609188,247610412,247610412,67951281,952,67951145,67951145,67951145,67951145,67951145,67951145,0,40760515,40772483,40775883,40777107,40777107,40777107
452432149,1088,448270487,452428188,452431469,452431469,452431469,452431469,0,104488318,169255964,247607955,247608227,247609451,247609451,67950828,952,67950692,67950692,67950692,67950692,67950692,67950692,0,40760242,40772210,40775610,40776834,40776834,40776834
452431655,1080,448268735,452427771,452430980,452430980,452430980,452430980,0,104490676,169257028,247607914,247608184,247609399,247609399,67951559,945,67951424,67951424,67951424,67951424,67951424,67951424,0,40760756,40772636,40776011,40777226,40777226,40777226
452432094,1088,448272054,452428167,452431414,452431414,452431414,452431414,0,104487151,169254681,247606571,247606843,247608067,247608067,67950906,952,67950770,67950770,67950770,67950770,67950770,67950770,0,40760290,40772258,40775658,40776882,40776882,40776882
452432481,1088,448272163,452428412,452431801,452431801,452431801,452431801,0,104488024,169256383,247608991,247609263,247610487,247610487,67950354,952,67950218,67950218,67950218,67950218,67950218,67950218,0,40759958,40771926,40775326,40776550,40776550,40776550
452432924,1088,448274288,452428945,452432244,452432244,452432244,452432244,0,104487746,169257051,247610481,247610753,247611977,247611977,67949723,952,67949587,67949587,67949587,67949587,67949587,67949587,0,40759579,40771547,40774947,40776171,40776171,40776171
452431994,1088,448273581,452427914,452431314,452431314,452431314,452431314,0,104486236,169253551,247605255,247605527,247606751,247606751,67951049,952,67950913,67950913,67950913,67950913,67950913,67950913,0,40760375,40772343,40775743,40776967,40776967,40776967
452431468,1088,448269154,452427515,452430788,452430788,452430788,452430788,0,104492843,169259033,247609761,247610033,247611257,247611257,67951800,952,67951664,67951664,67951664,67951664,67951664,67951664,0,40760826,40772794,40776194,40777418,40777418,40777418
452431725,1088,448270197,452427799,452431045,452431045,452431045,452431045,0,104490056,169256794,247607999,247608271,247609495,247609495,67951434,952,67951298,67951298,67951298,67951298,67951298,67951298,0,40760606,40772574,40775974,40777198,40777198,40777198
452432279,1080,448271640,452428400,452431604,452431604,452431604,452431604,0,104488851,169256539,247608582,247608852,247610067,247610067,67950668,945,67950533,67950533,67950533,67950533,67950533,67950533,0,40760221,40772101,40775476,40776691,40776691,40776691
452431349,1088,448268355,452427469,452430669,452430669,452430669,452430669,0,104492674,169258607,247609114,247609386,247610610,247610610,67951970,952,67951834,67951834,67951834,67951834,67951834,67951834,0,40760928,40772896,40776296,40777520,40777520,40777520
452432124,1088,448271563,452428192,452431444,452431444,452431444,452431444,0,104487675,169255269,247607214,247607486,247608710,247608710,67950864,952,67950728,67950728,67950728,67950728,67950728,67950728,0,40760264,40772232,40775632,40776856,40776856,40776856
452432473,1088,448274547,452428520,452431793,452431793,452431793,452431793,0,104487298,169255640,247608234,247608506,247609730,247609730,67950365,952,67950229,67950229,67950229,67950229,67950229,67950229,0,40759965,40771933,40775333,40776557,40776557,40776557
452432809,1088,448274126,452428850,452432129,452432129,452432129,452432129,0,104486718,169255776,247608992,247609264,247610488,247610488,67949887,952,67949751,67949751,67949751,67949751,67949751,67949751,0,40759677,40771645,40775045,40776269,40776269,40776269
452432513,1088,448270615,452428666,452431833,452431833,452431833,452431833,0,104486801,169255229,247607898,247608170,247609394,247609394,67950308,952,67950172,67950172,67950172,67950172,67950172,67950172,0,40759930,40771898,40775298,40776522,40776522,40776522
452431748,1080,448268137,452427969,452431073,452431073,452431073,452431073,0,104491187,169257737,247608794,247609064,247610279,247610279,67951426,945,67951291,67951291,67951291,67951291,67951291,67951291,0,40760677,40772557,40775932,40777147,40777147,40777147
452432460,1088,448270391,452428407,452431780,452431780,452431780,452431780,0,104486972,169255287,247607858,247608130,247609354,247609354,67950383,952,67950247,67950247,67950247,67950247,67950247,67950247,0,40759975,40771943,40775343,40776567,40776567,40776567
452433184,1088,448274745,452429028,452432504,452432504,452432504,452432504,0,104483605,169253469,247607382,247607654,247608878,247608878,67949350,952,67949214,67949214,67949214,67949214,67949214,67949214,0,40759356,40771324,40774724,40775948,40775948,40775948
452432142,1088,448272573,452428100,452431462,452431462,452431462,452431462,0,104487629,169255261,247607240,247607512,247608736,247608736,67950839,952,67950703,67950703,67950703,67950703,67950703,67950703,0,40760249,40772217,40775617,40776841,40776841,40776841
452431583,1088,448272048,452427707,452430903,452430903,452430903,452430903,0,104489270,169255706,247606647,247606919,247608143,247608143,67951635,952,67951499,67951499,67951499,67951499,67951499,67951499,0,40760727,40772695,40776095,40777319,40777319,40777319
452432565,1088,448271527,452428619,452431885,452431885,452431885,452431885,0,104488477,169257013,247609777,247610049,247611273,247611273,67950235,952,67950099,67950099,67950099,67950099,67950099,67950099,0,40759887,40771855,40775255,40776479,40776479,40776479
452431813,1088,448270128,452427838,452431133,452431133,452431133,452431133,0,104487915,169254842,247606209,247606481,247607705,247607705,67951308,952,67951172,67951172,67951172,67951172,67951172,67951172,0,40760530,40772498,40775898,40777122,40777122,40777122
452432350,1080,448273687,452428297,452431675,452431675,452431675,452431675,0,104485801,169253643,247605820,247606090,247607305,247607305,67950565,945,67950430,67950430,67950430,67950430,67950430,67950430,0,40760160,40772040,40775415,40776630,40776630,40776630
452432301,1088,448271683,452428312,452431621,452431621,452431621,452431621,0,104488511,169256483,247608757,247609029,247610253,247610253,67950612,952,67950476,67950476,67950476,67950476,67950476,67950476,0,40760112,40772080,40775480,40776704,40776704,40776704
452432269,1088,448271271,452428361,452431589,452431589,452431589,452431589,0,104489470,169257376,247609592,247609864,247611088,247611088,67950656,952,67950520,67950520,67950520,67950520,67950520,67950520,0,40760140,40772108,40775508,40776732,40776732,40776732
452432890,1088,448274531,452428996,452432210,452432210,452432210,452432210,0,104487047,169256281,247609648,247609920,247611144,247611144,67949769,952,67949633,67949633,67949633,67949633,67949633,67949633,0,40759607,40771575,40774975,40776199,40776199,40776199
452432270,1088,448270651,452428426,452431590,452431590,452431590,452431590,0,104487514,169255418,247607633,247607905,247609129,247609129,67950658,952,67950522,67950522,67950522,67950522,67950522,67950522,0,40760140,40772108,40775508,40776732,40776732,40776732
452431781,1088,448270132,452427837,452431101,452431101,452431101,452431101,0,104490307,169257165,247608473,247608745,247609969,247609969,67951354,952,67951218,67951218,67951218,67951218,67951218,67951218,0,40760558,40772526,40775926,40777150,40777150,40777150
452432036,1080,448270908,452428014,452431361,452431361,452431361,452431361,0,104489312,169256484,247608080,247608350,247609565,247609565,67951011,945,67950876,67950876,67950876,67950876,67950876,67950876,0,40760428,40772308,40775683,40776898,40776898,40776898
452432421,1088,448270266,452428489,452431741,452431741,452431741,452431741,0,104486849,169255079,247607576,247607848,247609072,247609072,67950440,952,67950304,67950304,67950304,67950304,67950304,67950304,0,40760010,40771978,40775378,40776602,40776602,40776602
452431161,1088,448269730,452427231,452430481,452430481,452430481,452430481,0,104492542,169258073,247608230,247608502,247609726,247609726,67952239,952,67952103,67952103,67952103,67952103,67952103,67952103,0,40761089,40773057,40776457,40777681,40777681,40777681
452432508,1088,448269702,452428538,452431828,452431828,452431828,452431828,0,104487848,169256262,247608920,247609192,247610416,247610416,67950317,952,67950181,67950181,67950181,67950181,67950181,67950181,0,40759935,40771903,40775303,40776527,40776527,40776527
452431771,1088,448268204,452427799,452431091,452431091,452431091,452431091,0,104489253,169256089,247607378,247607650,247608874,247608874,67951369,952,67951233,67951233,67951233,67951233,67951233,67951233,0,40760567,40772535,40775935,40777159,40777159,40777159
452432659,1088,448272720,452428763,452431979,452431979,452431979,452431979,0,104488395,169257136,247610075,247610347,247611571,247611571,67950099,952,67949963,67949963,67949963,67949963,67949963,67949963,0,40759805,40771773,40775173,40776397,40776397,40776397
452432074,1088,448271747,452428155,452431394,452431394,452431394,452431394,0,104492524,169260009,247611861,247612133,247613357,247613357,67950935,952,67950799,67950799,67950799,67950799,67950799,67950799,0,40760307,40772275,40775675,40776899,40776899,40776899
452432112,1080,448275653,452428178,452431437,452431437,452431437,452431437,0,104490644,169257976,247609711,247609981,247611196,247611196,67950905,945,67950770,67950770,67950770,67950770,67950770,67950770,0,40760364,40772244,40775619,40776834,40776834,40776834
452432359,1088,448274115,452428157,452431679,452431679,452431679,452431679,0,104486879,169254976,247607358,247607630,247608854,247608854,67950529,952,67950393,67950393,67950393,67950393,67950393,67950393,0,40760063,40772031,40775431,40776655,40776655,40776655
452432893,1088,448274037,452428782,452432213,452432213,452432213,452432213,0,104486911,169256154,247609528,247609800,247611024,247611024,67949764,952,67949628,67949628,67949628,67949628,67949628,67949628,0,40759604,40771572,40774972,40776196,40776196,40776196
452432038,1088,448268594,452428084,452431358,452431358,452431358,452431358,0,104488313,169255721,247607507,247607779,247609003,247609003,67950987,952,67950851,67950851,67950851,67950851,67950851,67950851,0,40760337,40772305,40775705,40776929,40776929,40776929
452431671,1088,448271644,452427632,452430991,452430991,452430991,452430991,0,104490630,169257253,247608357,247608629,247609853,247609853,67951511,952,67951375,67951375,67951375,67951375,67951375,67951375,0,40760653,40772621,40776021,40777245,40777245,40777245
452431938,1088,448270677,452427950,452431258,452431258,452431258,452431258,0,104490913,169258108,247609708,247609980,247611204,247611204,67951129,952,67950993,67950993,67950993,67950993,67950993,67950993,0,40760423,40772391,40775791,40777015,40777015,40777015
452432451,1080,448273084,452428570,452431776,452431776,452431776,452431776,0,104488191,169256250,247608615,247608885,247610100,247610100,67950421,945,67950286,67950286,67950286,67950286,67950286,67950286,0,40760074,40771954,40775329,40776544,40776544,40776544
452431847,1088,448271742,452427801,452431167,452431167,452431167,452431167,0,104490471,169257469,247608899,247609171,247610395,247610395,67951261,952,67951125,67951125,67951125,67951125,67951125,67951125,0,40760501,40772469,40775869,40777093,40777093,40777093
452432105,1088,448271154,452428049,452431425,452431425,452431425,452431425,0,104489040,169256592,247608501,247608773,247609997,247609997,67950891,952,67950755,67950755,67950755,67950755,67950755,67950755,0,40760281,40772249,40775649,40776873,40776873,40776873
452431845,1088,448273058,452427807,452431165,452431165,452431165,452431165,0,104492391,169259386,247610813,247611085,247612309,247612309,67951263,952,67951127,67951127,67951127,67951127,67951127,67951127,0,40760503,40772471,40775871,40777095,40777095,40777095
452431939,1088,448273198,452427937,452431259,452431259,452431259,452431259,0,104490492,169257690,247609293,247609565,247610789,247610789,67951128,952,67950992,67950992,67950992,67950992,67950992,67950992,0,40760422,40772390,40775790,40777014,40777014,40777014
452432601,1088,448272825,452428563,452431921,452431921,452431921,452431921,0,104486489,169255106,247607938,247608210,247609434,247609434,67950181,952,67950045,67950045,67950045,67950045,67950045,67950045,0,40759855,40771823,40775223,40776447,40776447,40776447
452432540,1088,448273475,452428528,452431860,452431860,452431860,452431860,0,104486781,169255263,247607979,247608251,247609475,247609475,67950272,952,67950136,67950136,67950136,67950136,67950136,67950136,0,40759908,40771876,40775276,40776500,40776500,40776500
452432398,1080,448272075,452428453,452431723,452431723,452431723,452431723,0,104488405,169256351,247608618,247608888,247610103,247610103,67950495,945,67950360,67950360,67950360,67950360,67950360,67950360,0,40760118,40771998,40775373,40776588,40776588,40776588
452431505,1088,448267483,452427606,452430825,452430825,452430825,452430825,0,104491682,169257947,247608741,247609013,247610237,247610237,67951750,952,67951614,67951614,67951614,67951614,67951614,67951614,0,40760796,40772764,40776164,40777388,40777388,40777388
452431675,1088,448269351,452427804,452430995,452430995,452430995,452430995,0,104490743,169257375,247608487,247608759,247609983,247609983,67951505,952,67951369,67951369,67951369,67951369,67951369,67951369,0,40760649,40772617,40776017,40777241,40777241,40777241
452431866,1088,448271897,452427983,452431186,452431186,452431186,452431186,0,104489885,169256925,247608391,247608663,247609887,247609887,67951233,952,67951097,67951097,67951097,67951097,67951097,67951097,0,40760485,40772453,40775853,40777077,40777077,40777077
452432047,1088,448274705,452428005,452431367,452431367,452431367,452431367,0,104490071,169257500,247609303,247609575,247610799,247610799,67950973,952,67950837,67950837,67950837,67950837,67950837,67950837,0,40760329,40772297,40775697,40776921,40776921,40776921
452432036,1088,448273047,452428150,452431356,452431356,452431356,452431356,0,104488703,169256108,247607889,247608161,247609385,247609385,67950990,952,67950854,67950854,67950854,67950854,67950854,67950854,0,40760340,40772308,40775708,40776932,40776932,40776932
452432170,1088,448273257,452428221,452431490,452431490,452431490,452431490,0,104487819,169255510,247607541,247607813,247609037,247609037,67950799,952,67950663,67950663,67950663,67950663,67950663,67950663,0,40760225,40772193,40775593,40776817,40776817,40776817
452432416,1080,448274197,452428410,452431741,452431741,452431741,452431741,0,104490035,169258019,247610318,247610588,247611803,247611803,67950470,945,67950335,67950335,67950335,67950335,67950335,67950335,0,40760103,40771983,40775358,40776573,40776573,40776573
452431517,1088,448268002,452427560,452430837,452430837,452430837,452430837,0,104490894,169257188,247608008,247608280,247609504,247609504,67951730,952,67951594,67951594,67951594,67951594,67951594,67951594,0,40760784,40772752,40776152,40777376,40777376,40777376
452432086,1088,448274176,452427982,452431406,452431406,452431406,452431406,0,104487987,169255497,247607370,247607642,247608866,247608866,67950919,952,67950783,67950783,67950783,67950783,67950783,67950783,0,40760297,40772265,40775665,40776889,40776889,40776889
452432247,1088,448272619,452428258,452431567,452431567,452431567,452431567,0,104489301,169257158,247609332,247609604,247610828,247610828,67950689,952,67950553,67950553,67950553,67950553,67950553,67950553,0,40760159,40772127,40775527,40776751,40776751,40776751
452431971,1088,448272116,452428222,452431291,452431291,452431291,452431291,0,104489634,169256902,247608566,247608838,247610062,247610062,67951080,952,67950944,67950944,67950944,67950944,67950944,67950944,0,40760394,40772362,40775762,40776986,40776986,40776986
452431636,1088,448267955,452427724,452430956,452430956,452430956,452430956,0,104490626,169257172,247608209,247608481,247609705,247609705,67951563,952,67951427,67951427,67951427,67951427,67951427,67951427,0,40760683,40772651,40776051,40777275,40777275,40777275
452431614,1080,448267725,452427768,452430939,452430939,452430939,452430939,0,104492635,169258901,247609712,247609982,247611197,247611197,67951615,945,67951480,67951480,67951480,67951480,67951480,67951480,0,40760790,40772670,40776045,40777260,40777260,40777260
452431518,1088,448267431,452427673,452430838,452430838,452430838,452430838,0,104490586,169256880,247607700,247607972,247609196,247609196,67951730,952,67951594,67951594,67951594,67951594,67951594,67951594,0,40760784,40772752,40776152,40777376,40777376,40777376
452431539,1088,448268491,452427656,452430859,452430859,452430859,452430859,0,104491374,169257712,247608569,247608841,247610065,247610065,67951702,952,67951566,67951566,67951566,67951566,67951566,67951566,0,40760766,40772734,40776134,40777358,40777358,40777358
452432239,1088,448271353,452428248,452431559,452431559,452431559,452431559,0,104487688,169255529,247607688,247607960,247609184,247609184,67950699,952,67950563,67950563,67950563,67950563,67950563,67950563,0,40760165,40772133,40775533,40776757,40776757,40776757
452431588,1088,448268221,452427723,452430908,452430908,452430908,452430908,0,104491265,169257709,247608659,247608931,247610155,247610155,67951630,952,67951494,67951494,67951494,67951494,67951494,67951494,0,40760724,40772692,40776092,40777316,40777316,40777316
452432561,1088,448272358,452428528,452431881,452431881,452431881,452431881,0,104487049,169255580,247608338,247608610,247609834,247609834,67950239,952,67950103,67950103,67950103,67950103,67950103,67950103,0,40759889,40771857,40775257,40776481,40776481,40776481
452432252,1088,448270501,452428310,452431572,452431572,452431572,452431572,0,104488472,169256341,247608524,247608796,247610020,247610020,67950680,952,67950544,67950544,67950544,67950544,67950544,67950544,0,40760154,40772122,40775522,40776746,40776746,40776746
452432371,1080,448269724,452428459,452431696,452431696,452431696,452431696,0,104489581,169257464,247609678,247609948,247611163,247611163,67950537,945,67950402,67950402,67950402,67950402,67950402,67950402,0,40760142,40772022,40775397,40776612,40776612,40776612
452431796,1088,448270609,452427823,452431116,452431116,452431116,452431116,0,104490318,169257209,247608546,247608818,247610042,247610042,67951332,952,67951196,67951196,67951196,67951196,67951196,67951196,0,40760546,40772514,40775914,40777138,40777138,40777138
452431661,1088,448271411,452427651,452430981,452430981,452430981,452430981,0,104492177,169258778,247609863,247610135,247611359,247611359,67951526,952,67951390,67951390,67951390,67951390,67951390,67951390,0,40760660,40772628,40776028,40777252,40777252,40777252
452431750,1088,448271552,452427783,452431070,452431070,452431070,452431070,0,104490171,169256965,247608217,247608489,247609713,247609713,67951397,952,67951261,67951261,67951261,67951261,67951261,67951261,0,40760585,40772553,40775953,40777177,40777177,40777177
452432347,1088,448272893,452428384,452431667,452431667,452431667,452431667,0,104487856,169255926,247608285,247608557,247609781,247609781,67950546,952,67950410,67950410,67950410,67950410,67950410,67950410,0,40760072,40772040,40775440,40776664,40776664,40776664
452432009,1088,448269419,452428009,452431329,452431329,452431329,452431329,0,104490371,169257717,247609448,247609720,247610944,247610944,67951029,952,67950893,67950893,67950893,67950893,67950893,67950893,0,40760363,40772331,40775731,40776955,40776955,40776955
452432580,1080,448271274,452428724,452431905,452431905,452431905,452431905,0,104486782,169255117,247607721,247607991,247609206,247609206,67950236,945,67950101,67950101,67950101,67950101,67950101,67950101,0,40759963,40771843,40775218,40776433,40776433,40776433
70021979,500,69373489,70017479,70018555,70019271,70019313,70019480,28,16170615,26194568,38320164,38320605,38320979,38321050,10519342,154,10517587,10517929,10518414,10518528,10518529,10518533,0,6308074,6312490,6313656,6313901,6313913,6313914
