____________________________________________________________________________________________________

    with OMP_NUM_THREADS= 1 
 

Random number generator seed: 7

NUMBER OF OMP THREADS = 1
~~~~~~~~~~~~~~~~~~~~~~~~~~~~~~~~~~~~~~~~~~~~~~~~~~~~~~~~~~~~~~~~~~~~~~~~~~~~~~~~~~~~~~~~~~~~~~~~~~
Total execution [setup()] time         : 80.3542299271 (sec)
Initialization time [bpnn_initialize()]: 0.0000000000 (sec)
backprop_face() time: 0.0000000000 (sec)
*-------bpnn_create time: 0.0000000000 (sec)
*-------bpnn_train_kernel() time: 0.0000000000 (sec)
	+-------layerforward time [parallel section] : 13.6383419037 (sec)
        +-------error handle time 		     : 0.0000009537 (sec)
        +-------adjust weight time[parallel section] : 31.4189560413 (sec)
*-------deallocation time: 0.0000000000 (sec)
~~~~~~~~~~~~~~~~~~~~~~~~~~~~~~~~~~~~~~~~~~~~~~~~~~~~~~~~~~~~~~~~~~~~~~~~~~~~~~~~~~~~~~~~~~~~~~~~~~
====================================================================================================

____________________________________________________________________________________________________

    with OMP_NUM_THREADS= 2 
 

Random number generator seed: 7

NUMBER OF OMP THREADS = 1
~~~~~~~~~~~~~~~~~~~~~~~~~~~~~~~~~~~~~~~~~~~~~~~~~~~~~~~~~~~~~~~~~~~~~~~~~~~~~~~~~~~~~~~~~~~~~~~~~~
Total execution [setup()] time         : 64.0298049450 (sec)
Initialization time [bpnn_initialize()]: 0.0000000000 (sec)
backprop_face() time: 0.0000000000 (sec)
*-------bpnn_create time: 0.0000000000 (sec)
*-------bpnn_train_kernel() time: 0.0000000000 (sec)
	+-------layerforward time [parallel section] : 8.4148027897 (sec)
        +-------error handle time 		     : 0.0000000000 (sec)
        +-------adjust weight time[parallel section] : 18.4084050655 (sec)
*-------deallocation time: 0.0000000000 (sec)
~~~~~~~~~~~~~~~~~~~~~~~~~~~~~~~~~~~~~~~~~~~~~~~~~~~~~~~~~~~~~~~~~~~~~~~~~~~~~~~~~~~~~~~~~~~~~~~~~~
====================================================================================================

____________________________________________________________________________________________________

    with OMP_NUM_THREADS= 3 
 

Random number generator seed: 7

NUMBER OF OMP THREADS = 1
~~~~~~~~~~~~~~~~~~~~~~~~~~~~~~~~~~~~~~~~~~~~~~~~~~~~~~~~~~~~~~~~~~~~~~~~~~~~~~~~~~~~~~~~~~~~~~~~~~
Total execution [setup()] time         : 56.8367159367 (sec)
Initialization time [bpnn_initialize()]: 0.0000000000 (sec)
backprop_face() time: 0.0000000000 (sec)
*-------bpnn_create time: 0.0000000000 (sec)
*-------bpnn_train_kernel() time: 0.0000000000 (sec)
	+-------layerforward time [parallel section] : 5.5402898788 (sec)
        +-------error handle time 		     : 0.0000009537 (sec)
        +-------adjust weight time[parallel section] : 14.0903031826 (sec)
*-------deallocation time: 0.0000000000 (sec)
~~~~~~~~~~~~~~~~~~~~~~~~~~~~~~~~~~~~~~~~~~~~~~~~~~~~~~~~~~~~~~~~~~~~~~~~~~~~~~~~~~~~~~~~~~~~~~~~~~
====================================================================================================

____________________________________________________________________________________________________

    with OMP_NUM_THREADS= 4 
 

Random number generator seed: 7

NUMBER OF OMP THREADS = 1
~~~~~~~~~~~~~~~~~~~~~~~~~~~~~~~~~~~~~~~~~~~~~~~~~~~~~~~~~~~~~~~~~~~~~~~~~~~~~~~~~~~~~~~~~~~~~~~~~~
Total execution [setup()] time         : 53.7206239700 (sec)
Initialization time [bpnn_initialize()]: 0.0000000000 (sec)
backprop_face() time: 0.0000000000 (sec)
*-------bpnn_create time: 0.0000000000 (sec)
*-------bpnn_train_kernel() time: 0.0000000000 (sec)
	+-------layerforward time [parallel section] : 4.2225129604 (sec)
        +-------error handle time 		     : 0.0000000000 (sec)
        +-------adjust weight time[parallel section] : 12.3329389095 (sec)
*-------deallocation time: 0.0000000000 (sec)
~~~~~~~~~~~~~~~~~~~~~~~~~~~~~~~~~~~~~~~~~~~~~~~~~~~~~~~~~~~~~~~~~~~~~~~~~~~~~~~~~~~~~~~~~~~~~~~~~~
====================================================================================================

____________________________________________________________________________________________________

    with OMP_NUM_THREADS= 5 
 

Random number generator seed: 7

NUMBER OF OMP THREADS = 1
~~~~~~~~~~~~~~~~~~~~~~~~~~~~~~~~~~~~~~~~~~~~~~~~~~~~~~~~~~~~~~~~~~~~~~~~~~~~~~~~~~~~~~~~~~~~~~~~~~
Total execution [setup()] time         : 51.2799119949 (sec)
Initialization time [bpnn_initialize()]: 0.0000000000 (sec)
backprop_face() time: 0.0000000000 (sec)
*-------bpnn_create time: 0.0000000000 (sec)
*-------bpnn_train_kernel() time: 0.0000000000 (sec)
	+-------layerforward time [parallel section] : 3.6938648224 (sec)
        +-------error handle time 		     : 0.0000011921 (sec)
        +-------adjust weight time[parallel section] : 10.3476729393 (sec)
*-------deallocation time: 0.0000000000 (sec)
~~~~~~~~~~~~~~~~~~~~~~~~~~~~~~~~~~~~~~~~~~~~~~~~~~~~~~~~~~~~~~~~~~~~~~~~~~~~~~~~~~~~~~~~~~~~~~~~~~
====================================================================================================

____________________________________________________________________________________________________

    with OMP_NUM_THREADS= 6 
 

Random number generator seed: 7

NUMBER OF OMP THREADS = 1
~~~~~~~~~~~~~~~~~~~~~~~~~~~~~~~~~~~~~~~~~~~~~~~~~~~~~~~~~~~~~~~~~~~~~~~~~~~~~~~~~~~~~~~~~~~~~~~~~~
Total execution [setup()] time         : 50.2318120003 (sec)
Initialization time [bpnn_initialize()]: 0.0000000000 (sec)
backprop_face() time: 0.0000000000 (sec)
*-------bpnn_create time: 0.0000000000 (sec)
*-------bpnn_train_kernel() time: 0.0000000000 (sec)
	+-------layerforward time [parallel section] : 3.3351860046 (sec)
        +-------error handle time 		     : 0.0000000000 (sec)
        +-------adjust weight time[parallel section] : 9.4911558628 (sec)
*-------deallocation time: 0.0000000000 (sec)
~~~~~~~~~~~~~~~~~~~~~~~~~~~~~~~~~~~~~~~~~~~~~~~~~~~~~~~~~~~~~~~~~~~~~~~~~~~~~~~~~~~~~~~~~~~~~~~~~~
====================================================================================================

____________________________________________________________________________________________________

    with OMP_NUM_THREADS= 7 
 

Random number generator seed: 7

NUMBER OF OMP THREADS = 1
~~~~~~~~~~~~~~~~~~~~~~~~~~~~~~~~~~~~~~~~~~~~~~~~~~~~~~~~~~~~~~~~~~~~~~~~~~~~~~~~~~~~~~~~~~~~~~~~~~
Total execution [setup()] time         : 49.2633459568 (sec)
Initialization time [bpnn_initialize()]: 0.0000000000 (sec)
backprop_face() time: 0.0000000000 (sec)
*-------bpnn_create time: 0.0000000000 (sec)
*-------bpnn_train_kernel() time: 0.0000000000 (sec)
	+-------layerforward time [parallel section] : 2.9264299870 (sec)
        +-------error handle time 		     : 0.0000000000 (sec)
        +-------adjust weight time[parallel section] : 8.9247980118 (sec)
*-------deallocation time: 0.0000000000 (sec)
~~~~~~~~~~~~~~~~~~~~~~~~~~~~~~~~~~~~~~~~~~~~~~~~~~~~~~~~~~~~~~~~~~~~~~~~~~~~~~~~~~~~~~~~~~~~~~~~~~
====================================================================================================

____________________________________________________________________________________________________

    with OMP_NUM_THREADS= 8 
 

Random number generator seed: 7

NUMBER OF OMP THREADS = 1
~~~~~~~~~~~~~~~~~~~~~~~~~~~~~~~~~~~~~~~~~~~~~~~~~~~~~~~~~~~~~~~~~~~~~~~~~~~~~~~~~~~~~~~~~~~~~~~~~~
Total execution [setup()] time         : 47.7127559185 (sec)
Initialization time [bpnn_initialize()]: 0.0000000000 (sec)
backprop_face() time: 0.0000000000 (sec)
*-------bpnn_create time: 0.0000000000 (sec)
*-------bpnn_train_kernel() time: 0.0000000000 (sec)
	+-------layerforward time [parallel section] : 2.4778580666 (sec)
        +-------error handle time 		     : 0.0000009537 (sec)
        +-------adjust weight time[parallel section] : 7.1516160965 (sec)
*-------deallocation time: 0.0000000000 (sec)
~~~~~~~~~~~~~~~~~~~~~~~~~~~~~~~~~~~~~~~~~~~~~~~~~~~~~~~~~~~~~~~~~~~~~~~~~~~~~~~~~~~~~~~~~~~~~~~~~~
====================================================================================================

____________________________________________________________________________________________________

    with OMP_NUM_THREADS= 9 
 

Random number generator seed: 7

NUMBER OF OMP THREADS = 1
~~~~~~~~~~~~~~~~~~~~~~~~~~~~~~~~~~~~~~~~~~~~~~~~~~~~~~~~~~~~~~~~~~~~~~~~~~~~~~~~~~~~~~~~~~~~~~~~~~
Total execution [setup()] time         : 47.6418588161 (sec)
Initialization time [bpnn_initialize()]: 0.0000000000 (sec)
backprop_face() time: 0.0000000000 (sec)
*-------bpnn_create time: 0.0000000000 (sec)
*-------bpnn_train_kernel() time: 0.0000000000 (sec)
	+-------layerforward time [parallel section] : 2.4500081539 (sec)
        +-------error handle time 		     : 0.0000000000 (sec)
        +-------adjust weight time[parallel section] : 8.0237629414 (sec)
*-------deallocation time: 0.0000000000 (sec)
~~~~~~~~~~~~~~~~~~~~~~~~~~~~~~~~~~~~~~~~~~~~~~~~~~~~~~~~~~~~~~~~~~~~~~~~~~~~~~~~~~~~~~~~~~~~~~~~~~
====================================================================================================

____________________________________________________________________________________________________

    with OMP_NUM_THREADS= 10 
 

Random number generator seed: 7

NUMBER OF OMP THREADS = 1
~~~~~~~~~~~~~~~~~~~~~~~~~~~~~~~~~~~~~~~~~~~~~~~~~~~~~~~~~~~~~~~~~~~~~~~~~~~~~~~~~~~~~~~~~~~~~~~~~~
Total execution [setup()] time         : 46.6637301445 (sec)
Initialization time [bpnn_initialize()]: 0.0000000000 (sec)
backprop_face() time: 0.0000000000 (sec)
*-------bpnn_create time: 0.0000000000 (sec)
*-------bpnn_train_kernel() time: 0.0000000000 (sec)
	+-------layerforward time [parallel section] : 2.3845548630 (sec)
        +-------error handle time 		     : 0.0000011921 (sec)
        +-------adjust weight time[parallel section] : 6.9627408981 (sec)
*-------deallocation time: 0.0000000000 (sec)
~~~~~~~~~~~~~~~~~~~~~~~~~~~~~~~~~~~~~~~~~~~~~~~~~~~~~~~~~~~~~~~~~~~~~~~~~~~~~~~~~~~~~~~~~~~~~~~~~~
====================================================================================================

____________________________________________________________________________________________________

    with OMP_NUM_THREADS= 11 
 

Random number generator seed: 7

NUMBER OF OMP THREADS = 1
~~~~~~~~~~~~~~~~~~~~~~~~~~~~~~~~~~~~~~~~~~~~~~~~~~~~~~~~~~~~~~~~~~~~~~~~~~~~~~~~~~~~~~~~~~~~~~~~~~
Total execution [setup()] time         : 47.8076298237 (sec)
Initialization time [bpnn_initialize()]: 0.0000000000 (sec)
backprop_face() time: 0.0000000000 (sec)
*-------bpnn_create time: 0.0000000000 (sec)
*-------bpnn_train_kernel() time: 0.0000000000 (sec)
	+-------layerforward time [parallel section] : 2.3536300659 (sec)
        +-------error handle time 		     : 0.0000009537 (sec)
        +-------adjust weight time[parallel section] : 7.6990790367 (sec)
*-------deallocation time: 0.0000000000 (sec)
~~~~~~~~~~~~~~~~~~~~~~~~~~~~~~~~~~~~~~~~~~~~~~~~~~~~~~~~~~~~~~~~~~~~~~~~~~~~~~~~~~~~~~~~~~~~~~~~~~
====================================================================================================

____________________________________________________________________________________________________

    with OMP_NUM_THREADS= 12 
 

Random number generator seed: 7

NUMBER OF OMP THREADS = 1
~~~~~~~~~~~~~~~~~~~~~~~~~~~~~~~~~~~~~~~~~~~~~~~~~~~~~~~~~~~~~~~~~~~~~~~~~~~~~~~~~~~~~~~~~~~~~~~~~~
Total execution [setup()] time         : 46.8689260483 (sec)
Initialization time [bpnn_initialize()]: 0.0000000000 (sec)
backprop_face() time: 0.0000000000 (sec)
*-------bpnn_create time: 0.0000000000 (sec)
*-------bpnn_train_kernel() time: 0.0000000000 (sec)
	+-------layerforward time [parallel section] : 2.3755841255 (sec)
        +-------error handle time 		     : 0.0000009537 (sec)
        +-------adjust weight time[parallel section] : 7.2883858681 (sec)
*-------deallocation time: 0.0000000000 (sec)
~~~~~~~~~~~~~~~~~~~~~~~~~~~~~~~~~~~~~~~~~~~~~~~~~~~~~~~~~~~~~~~~~~~~~~~~~~~~~~~~~~~~~~~~~~~~~~~~~~
====================================================================================================

____________________________________________________________________________________________________

    with OMP_NUM_THREADS= 13 
 

Random number generator seed: 7

NUMBER OF OMP THREADS = 1
~~~~~~~~~~~~~~~~~~~~~~~~~~~~~~~~~~~~~~~~~~~~~~~~~~~~~~~~~~~~~~~~~~~~~~~~~~~~~~~~~~~~~~~~~~~~~~~~~~
Total execution [setup()] time         : 47.2100899220 (sec)
Initialization time [bpnn_initialize()]: 0.0000000000 (sec)
backprop_face() time: 0.0000000000 (sec)
*-------bpnn_create time: 0.0000000000 (sec)
*-------bpnn_train_kernel() time: 0.0000000000 (sec)
	+-------layerforward time [parallel section] : 2.3338069916 (sec)
        +-------error handle time 		     : 0.0000009537 (sec)
        +-------adjust weight time[parallel section] : 6.7574529648 (sec)
*-------deallocation time: 0.0000000000 (sec)
~~~~~~~~~~~~~~~~~~~~~~~~~~~~~~~~~~~~~~~~~~~~~~~~~~~~~~~~~~~~~~~~~~~~~~~~~~~~~~~~~~~~~~~~~~~~~~~~~~
====================================================================================================

____________________________________________________________________________________________________

    with OMP_NUM_THREADS= 14 
 

Random number generator seed: 7

NUMBER OF OMP THREADS = 1
~~~~~~~~~~~~~~~~~~~~~~~~~~~~~~~~~~~~~~~~~~~~~~~~~~~~~~~~~~~~~~~~~~~~~~~~~~~~~~~~~~~~~~~~~~~~~~~~~~
Total execution [setup()] time         : 46.1544480324 (sec)
Initialization time [bpnn_initialize()]: 0.0000000000 (sec)
backprop_face() time: 0.0000000000 (sec)
*-------bpnn_create time: 0.0000000000 (sec)
*-------bpnn_train_kernel() time: 0.0000000000 (sec)
	+-------layerforward time [parallel section] : 2.4331350327 (sec)
        +-------error handle time 		     : 0.0000009537 (sec)
        +-------adjust weight time[parallel section] : 6.4770090580 (sec)
*-------deallocation time: 0.0000000000 (sec)
~~~~~~~~~~~~~~~~~~~~~~~~~~~~~~~~~~~~~~~~~~~~~~~~~~~~~~~~~~~~~~~~~~~~~~~~~~~~~~~~~~~~~~~~~~~~~~~~~~
====================================================================================================

____________________________________________________________________________________________________

    with OMP_NUM_THREADS= 15 
 

Random number generator seed: 7

NUMBER OF OMP THREADS = 1
~~~~~~~~~~~~~~~~~~~~~~~~~~~~~~~~~~~~~~~~~~~~~~~~~~~~~~~~~~~~~~~~~~~~~~~~~~~~~~~~~~~~~~~~~~~~~~~~~~
Total execution [setup()] time         : 46.4333760738 (sec)
Initialization time [bpnn_initialize()]: 0.0000000000 (sec)
backprop_face() time: 0.0000000000 (sec)
*-------bpnn_create time: 0.0000000000 (sec)
*-------bpnn_train_kernel() time: 0.0000000000 (sec)
	+-------layerforward time [parallel section] : 2.4315910339 (sec)
        +-------error handle time 		     : 0.0000000000 (sec)
        +-------adjust weight time[parallel section] : 6.7672538757 (sec)
*-------deallocation time: 0.0000000000 (sec)
~~~~~~~~~~~~~~~~~~~~~~~~~~~~~~~~~~~~~~~~~~~~~~~~~~~~~~~~~~~~~~~~~~~~~~~~~~~~~~~~~~~~~~~~~~~~~~~~~~
====================================================================================================

____________________________________________________________________________________________________

    with OMP_NUM_THREADS= 16 
 

Random number generator seed: 7

NUMBER OF OMP THREADS = 1
~~~~~~~~~~~~~~~~~~~~~~~~~~~~~~~~~~~~~~~~~~~~~~~~~~~~~~~~~~~~~~~~~~~~~~~~~~~~~~~~~~~~~~~~~~~~~~~~~~
Total execution [setup()] time         : 42.1628239155 (sec)
Initialization time [bpnn_initialize()]: 0.0000000000 (sec)
backprop_face() time: 0.0000000000 (sec)
*-------bpnn_create time: 0.0000000000 (sec)
*-------bpnn_train_kernel() time: 0.0000000000 (sec)
	+-------layerforward time [parallel section] : 1.4070730209 (sec)
        +-------error handle time 		     : 0.0000009537 (sec)
        +-------adjust weight time[parallel section] : 3.4829649925 (sec)
*-------deallocation time: 0.0000000000 (sec)
~~~~~~~~~~~~~~~~~~~~~~~~~~~~~~~~~~~~~~~~~~~~~~~~~~~~~~~~~~~~~~~~~~~~~~~~~~~~~~~~~~~~~~~~~~~~~~~~~~
====================================================================================================

____________________________________________________________________________________________________

    with OMP_NUM_THREADS= 17 
 

Random number generator seed: 7

NUMBER OF OMP THREADS = 1
~~~~~~~~~~~~~~~~~~~~~~~~~~~~~~~~~~~~~~~~~~~~~~~~~~~~~~~~~~~~~~~~~~~~~~~~~~~~~~~~~~~~~~~~~~~~~~~~~~
Total execution [setup()] time         : 43.8203151226 (sec)
Initialization time [bpnn_initialize()]: 0.0000000000 (sec)
backprop_face() time: 0.0000000000 (sec)
*-------bpnn_create time: 0.0000000000 (sec)
*-------bpnn_train_kernel() time: 0.0000000000 (sec)
	+-------layerforward time [parallel section] : 1.4035480022 (sec)
        +-------error handle time 		     : 0.0000000000 (sec)
        +-------adjust weight time[parallel section] : 5.0955400467 (sec)
*-------deallocation time: 0.0000000000 (sec)
~~~~~~~~~~~~~~~~~~~~~~~~~~~~~~~~~~~~~~~~~~~~~~~~~~~~~~~~~~~~~~~~~~~~~~~~~~~~~~~~~~~~~~~~~~~~~~~~~~
====================================================================================================

____________________________________________________________________________________________________

    with OMP_NUM_THREADS= 18 
 

Random number generator seed: 7

NUMBER OF OMP THREADS = 1
~~~~~~~~~~~~~~~~~~~~~~~~~~~~~~~~~~~~~~~~~~~~~~~~~~~~~~~~~~~~~~~~~~~~~~~~~~~~~~~~~~~~~~~~~~~~~~~~~~
Total execution [setup()] time         : 42.2322831154 (sec)
Initialization time [bpnn_initialize()]: 0.0000000000 (sec)
backprop_face() time: 0.0000000000 (sec)
*-------bpnn_create time: 0.0000000000 (sec)
*-------bpnn_train_kernel() time: 0.0000000000 (sec)
	+-------layerforward time [parallel section] : 1.4078280926 (sec)
        +-------error handle time 		     : 0.0000009537 (sec)
        +-------adjust weight time[parallel section] : 3.6115610600 (sec)
*-------deallocation time: 0.0000000000 (sec)
~~~~~~~~~~~~~~~~~~~~~~~~~~~~~~~~~~~~~~~~~~~~~~~~~~~~~~~~~~~~~~~~~~~~~~~~~~~~~~~~~~~~~~~~~~~~~~~~~~
====================================================================================================

____________________________________________________________________________________________________

    with OMP_NUM_THREADS= 19 
 

Random number generator seed: 7

NUMBER OF OMP THREADS = 1
~~~~~~~~~~~~~~~~~~~~~~~~~~~~~~~~~~~~~~~~~~~~~~~~~~~~~~~~~~~~~~~~~~~~~~~~~~~~~~~~~~~~~~~~~~~~~~~~~~
Total execution [setup()] time         : 42.1829750538 (sec)
Initialization time [bpnn_initialize()]: 0.0000000000 (sec)
backprop_face() time: 0.0000000000 (sec)
*-------bpnn_create time: 0.0000000000 (sec)
*-------bpnn_train_kernel() time: 0.0000000000 (sec)
	+-------layerforward time [parallel section] : 1.4136970043 (sec)
        +-------error handle time 		     : 0.0000009537 (sec)
        +-------adjust weight time[parallel section] : 3.4181969166 (sec)
*-------deallocation time: 0.0000000000 (sec)
~~~~~~~~~~~~~~~~~~~~~~~~~~~~~~~~~~~~~~~~~~~~~~~~~~~~~~~~~~~~~~~~~~~~~~~~~~~~~~~~~~~~~~~~~~~~~~~~~~
====================================================================================================

____________________________________________________________________________________________________

    with OMP_NUM_THREADS= 20 
 

Random number generator seed: 7

NUMBER OF OMP THREADS = 1
~~~~~~~~~~~~~~~~~~~~~~~~~~~~~~~~~~~~~~~~~~~~~~~~~~~~~~~~~~~~~~~~~~~~~~~~~~~~~~~~~~~~~~~~~~~~~~~~~~
Total execution [setup()] time         : 42.4666450024 (sec)
Initialization time [bpnn_initialize()]: 0.0000000000 (sec)
backprop_face() time: 0.0000000000 (sec)
*-------bpnn_create time: 0.0000000000 (sec)
*-------bpnn_train_kernel() time: 0.0000000000 (sec)
	+-------layerforward time [parallel section] : 1.4150228500 (sec)
        +-------error handle time 		     : 0.0000011921 (sec)
        +-------adjust weight time[parallel section] : 3.8110749722 (sec)
*-------deallocation time: 0.0000000000 (sec)
~~~~~~~~~~~~~~~~~~~~~~~~~~~~~~~~~~~~~~~~~~~~~~~~~~~~~~~~~~~~~~~~~~~~~~~~~~~~~~~~~~~~~~~~~~~~~~~~~~
====================================================================================================

____________________________________________________________________________________________________

    with OMP_NUM_THREADS= 21 
 

Random number generator seed: 7

NUMBER OF OMP THREADS = 1
~~~~~~~~~~~~~~~~~~~~~~~~~~~~~~~~~~~~~~~~~~~~~~~~~~~~~~~~~~~~~~~~~~~~~~~~~~~~~~~~~~~~~~~~~~~~~~~~~~
Total execution [setup()] time         : 41.9626290798 (sec)
Initialization time [bpnn_initialize()]: 0.0000000000 (sec)
backprop_face() time: 0.0000000000 (sec)
*-------bpnn_create time: 0.0000000000 (sec)
*-------bpnn_train_kernel() time: 0.0000000000 (sec)
	+-------layerforward time [parallel section] : 1.4047029018 (sec)
        +-------error handle time 		     : 0.0000009537 (sec)
        +-------adjust weight time[parallel section] : 3.1672770977 (sec)
*-------deallocation time: 0.0000000000 (sec)
~~~~~~~~~~~~~~~~~~~~~~~~~~~~~~~~~~~~~~~~~~~~~~~~~~~~~~~~~~~~~~~~~~~~~~~~~~~~~~~~~~~~~~~~~~~~~~~~~~
====================================================================================================

____________________________________________________________________________________________________

    with OMP_NUM_THREADS= 22 
 

Random number generator seed: 7

NUMBER OF OMP THREADS = 1
~~~~~~~~~~~~~~~~~~~~~~~~~~~~~~~~~~~~~~~~~~~~~~~~~~~~~~~~~~~~~~~~~~~~~~~~~~~~~~~~~~~~~~~~~~~~~~~~~~
Total execution [setup()] time         : 43.2396290302 (sec)
Initialization time [bpnn_initialize()]: 0.0000000000 (sec)
backprop_face() time: 0.0000000000 (sec)
*-------bpnn_create time: 0.0000000000 (sec)
*-------bpnn_train_kernel() time: 0.0000000000 (sec)
	+-------layerforward time [parallel section] : 1.4093270302 (sec)
        +-------error handle time 		     : 0.0000009537 (sec)
        +-------adjust weight time[parallel section] : 4.6035079956 (sec)
*-------deallocation time: 0.0000000000 (sec)
~~~~~~~~~~~~~~~~~~~~~~~~~~~~~~~~~~~~~~~~~~~~~~~~~~~~~~~~~~~~~~~~~~~~~~~~~~~~~~~~~~~~~~~~~~~~~~~~~~
====================================================================================================

____________________________________________________________________________________________________

    with OMP_NUM_THREADS= 23 
 

Random number generator seed: 7

NUMBER OF OMP THREADS = 1
~~~~~~~~~~~~~~~~~~~~~~~~~~~~~~~~~~~~~~~~~~~~~~~~~~~~~~~~~~~~~~~~~~~~~~~~~~~~~~~~~~~~~~~~~~~~~~~~~~
Total execution [setup()] time         : 43.3223149776 (sec)
Initialization time [bpnn_initialize()]: 0.0000000000 (sec)
backprop_face() time: 0.0000000000 (sec)
*-------bpnn_create time: 0.0000000000 (sec)
*-------bpnn_train_kernel() time: 0.0000000000 (sec)
	+-------layerforward time [parallel section] : 1.4196608067 (sec)
        +-------error handle time 		     : 0.0000011921 (sec)
        +-------adjust weight time[parallel section] : 4.6338398457 (sec)
*-------deallocation time: 0.0000000000 (sec)
~~~~~~~~~~~~~~~~~~~~~~~~~~~~~~~~~~~~~~~~~~~~~~~~~~~~~~~~~~~~~~~~~~~~~~~~~~~~~~~~~~~~~~~~~~~~~~~~~~
====================================================================================================

____________________________________________________________________________________________________

    with OMP_NUM_THREADS= 24 
 

Random number generator seed: 7

NUMBER OF OMP THREADS = 1
~~~~~~~~~~~~~~~~~~~~~~~~~~~~~~~~~~~~~~~~~~~~~~~~~~~~~~~~~~~~~~~~~~~~~~~~~~~~~~~~~~~~~~~~~~~~~~~~~~
Total execution [setup()] time         : 42.6707749367 (sec)
Initialization time [bpnn_initialize()]: 0.0000000000 (sec)
backprop_face() time: 0.0000000000 (sec)
*-------bpnn_create time: 0.0000000000 (sec)
*-------bpnn_train_kernel() time: 0.0000000000 (sec)
	+-------layerforward time [parallel section] : 1.4228551388 (sec)
        +-------error handle time 		     : 0.0000000000 (sec)
        +-------adjust weight time[parallel section] : 3.8445000648 (sec)
*-------deallocation time: 0.0000000000 (sec)
~~~~~~~~~~~~~~~~~~~~~~~~~~~~~~~~~~~~~~~~~~~~~~~~~~~~~~~~~~~~~~~~~~~~~~~~~~~~~~~~~~~~~~~~~~~~~~~~~~
====================================================================================================

____________________________________________________________________________________________________

    with OMP_NUM_THREADS= 25 
 

Random number generator seed: 7

NUMBER OF OMP THREADS = 1
~~~~~~~~~~~~~~~~~~~~~~~~~~~~~~~~~~~~~~~~~~~~~~~~~~~~~~~~~~~~~~~~~~~~~~~~~~~~~~~~~~~~~~~~~~~~~~~~~~
Total execution [setup()] time         : 43.1742260456 (sec)
Initialization time [bpnn_initialize()]: 0.0000000000 (sec)
backprop_face() time: 0.0000000000 (sec)
*-------bpnn_create time: 0.0000000000 (sec)
*-------bpnn_train_kernel() time: 0.0000000000 (sec)
	+-------layerforward time [parallel section] : 1.4165649414 (sec)
        +-------error handle time 		     : 0.0000000000 (sec)
        +-------adjust weight time[parallel section] : 4.3050620556 (sec)
*-------deallocation time: 0.0000000000 (sec)
~~~~~~~~~~~~~~~~~~~~~~~~~~~~~~~~~~~~~~~~~~~~~~~~~~~~~~~~~~~~~~~~~~~~~~~~~~~~~~~~~~~~~~~~~~~~~~~~~~
====================================================================================================

____________________________________________________________________________________________________

    with OMP_NUM_THREADS= 26 
 

Random number generator seed: 7

NUMBER OF OMP THREADS = 1
~~~~~~~~~~~~~~~~~~~~~~~~~~~~~~~~~~~~~~~~~~~~~~~~~~~~~~~~~~~~~~~~~~~~~~~~~~~~~~~~~~~~~~~~~~~~~~~~~~
Total execution [setup()] time         : 43.0756020546 (sec)
Initialization time [bpnn_initialize()]: 0.0000000000 (sec)
backprop_face() time: 0.0000000000 (sec)
*-------bpnn_create time: 0.0000000000 (sec)
*-------bpnn_train_kernel() time: 0.0000000000 (sec)
	+-------layerforward time [parallel section] : 1.4178099632 (sec)
        +-------error handle time 		     : 0.0000009537 (sec)
        +-------adjust weight time[parallel section] : 4.3481700420 (sec)
*-------deallocation time: 0.0000000000 (sec)
~~~~~~~~~~~~~~~~~~~~~~~~~~~~~~~~~~~~~~~~~~~~~~~~~~~~~~~~~~~~~~~~~~~~~~~~~~~~~~~~~~~~~~~~~~~~~~~~~~
====================================================================================================

____________________________________________________________________________________________________

    with OMP_NUM_THREADS= 27 
 

Random number generator seed: 7

NUMBER OF OMP THREADS = 1
~~~~~~~~~~~~~~~~~~~~~~~~~~~~~~~~~~~~~~~~~~~~~~~~~~~~~~~~~~~~~~~~~~~~~~~~~~~~~~~~~~~~~~~~~~~~~~~~~~
Total execution [setup()] time         : 43.5705761909 (sec)
Initialization time [bpnn_initialize()]: 0.0000000000 (sec)
backprop_face() time: 0.0000000000 (sec)
*-------bpnn_create time: 0.0000000000 (sec)
*-------bpnn_train_kernel() time: 0.0000000000 (sec)
	+-------layerforward time [parallel section] : 1.4099729061 (sec)
        +-------error handle time 		     : 0.0000009537 (sec)
        +-------adjust weight time[parallel section] : 4.8052980900 (sec)
*-------deallocation time: 0.0000000000 (sec)
~~~~~~~~~~~~~~~~~~~~~~~~~~~~~~~~~~~~~~~~~~~~~~~~~~~~~~~~~~~~~~~~~~~~~~~~~~~~~~~~~~~~~~~~~~~~~~~~~~
====================================================================================================

____________________________________________________________________________________________________

    with OMP_NUM_THREADS= 28 
 

Random number generator seed: 7

NUMBER OF OMP THREADS = 1
~~~~~~~~~~~~~~~~~~~~~~~~~~~~~~~~~~~~~~~~~~~~~~~~~~~~~~~~~~~~~~~~~~~~~~~~~~~~~~~~~~~~~~~~~~~~~~~~~~
Total execution [setup()] time         : 43.5527150631 (sec)
Initialization time [bpnn_initialize()]: 0.0000000000 (sec)
backprop_face() time: 0.0000000000 (sec)
*-------bpnn_create time: 0.0000000000 (sec)
*-------bpnn_train_kernel() time: 0.0000000000 (sec)
	+-------layerforward time [parallel section] : 1.4183421135 (sec)
        +-------error handle time 		     : 0.0000009537 (sec)
        +-------adjust weight time[parallel section] : 4.9193139076 (sec)
*-------deallocation time: 0.0000000000 (sec)
~~~~~~~~~~~~~~~~~~~~~~~~~~~~~~~~~~~~~~~~~~~~~~~~~~~~~~~~~~~~~~~~~~~~~~~~~~~~~~~~~~~~~~~~~~~~~~~~~~
====================================================================================================

____________________________________________________________________________________________________

    with OMP_NUM_THREADS= 29 
 

Random number generator seed: 7

NUMBER OF OMP THREADS = 1
~~~~~~~~~~~~~~~~~~~~~~~~~~~~~~~~~~~~~~~~~~~~~~~~~~~~~~~~~~~~~~~~~~~~~~~~~~~~~~~~~~~~~~~~~~~~~~~~~~
Total execution [setup()] time         : 42.4084768295 (sec)
Initialization time [bpnn_initialize()]: 0.0000000000 (sec)
backprop_face() time: 0.0000000000 (sec)
*-------bpnn_create time: 0.0000000000 (sec)
*-------bpnn_train_kernel() time: 0.0000000000 (sec)
	+-------layerforward time [parallel section] : 1.4094519615 (sec)
        +-------error handle time 		     : 0.0000000000 (sec)
        +-------adjust weight time[parallel section] : 3.7023360729 (sec)
*-------deallocation time: 0.0000000000 (sec)
~~~~~~~~~~~~~~~~~~~~~~~~~~~~~~~~~~~~~~~~~~~~~~~~~~~~~~~~~~~~~~~~~~~~~~~~~~~~~~~~~~~~~~~~~~~~~~~~~~
====================================================================================================

____________________________________________________________________________________________________

    with OMP_NUM_THREADS= 30 
 

Random number generator seed: 7

NUMBER OF OMP THREADS = 1
~~~~~~~~~~~~~~~~~~~~~~~~~~~~~~~~~~~~~~~~~~~~~~~~~~~~~~~~~~~~~~~~~~~~~~~~~~~~~~~~~~~~~~~~~~~~~~~~~~
Total execution [setup()] time         : 44.7368180752 (sec)
Initialization time [bpnn_initialize()]: 0.0000000000 (sec)
backprop_face() time: 0.0000000000 (sec)
*-------bpnn_create time: 0.0000000000 (sec)
*-------bpnn_train_kernel() time: 0.0000000000 (sec)
	+-------layerforward time [parallel section] : 1.4239888191 (sec)
        +-------error handle time 		     : 0.0000011921 (sec)
        +-------adjust weight time[parallel section] : 5.9818089008 (sec)
*-------deallocation time: 0.0000000000 (sec)
~~~~~~~~~~~~~~~~~~~~~~~~~~~~~~~~~~~~~~~~~~~~~~~~~~~~~~~~~~~~~~~~~~~~~~~~~~~~~~~~~~~~~~~~~~~~~~~~~~
====================================================================================================

____________________________________________________________________________________________________

    with OMP_NUM_THREADS= 31 
 

Random number generator seed: 7

NUMBER OF OMP THREADS = 1
~~~~~~~~~~~~~~~~~~~~~~~~~~~~~~~~~~~~~~~~~~~~~~~~~~~~~~~~~~~~~~~~~~~~~~~~~~~~~~~~~~~~~~~~~~~~~~~~~~
Total execution [setup()] time         : 44.0741720200 (sec)
Initialization time [bpnn_initialize()]: 0.0000000000 (sec)
backprop_face() time: 0.0000000000 (sec)
*-------bpnn_create time: 0.0000000000 (sec)
*-------bpnn_train_kernel() time: 0.0000000000 (sec)
	+-------layerforward time [parallel section] : 1.4224069118 (sec)
        +-------error handle time 		     : 0.0000000000 (sec)
        +-------adjust weight time[parallel section] : 5.3280870914 (sec)
*-------deallocation time: 0.0000000000 (sec)
~~~~~~~~~~~~~~~~~~~~~~~~~~~~~~~~~~~~~~~~~~~~~~~~~~~~~~~~~~~~~~~~~~~~~~~~~~~~~~~~~~~~~~~~~~~~~~~~~~
====================================================================================================

____________________________________________________________________________________________________

    with OMP_NUM_THREADS= 32 
 

Random number generator seed: 7

NUMBER OF OMP THREADS = 1
~~~~~~~~~~~~~~~~~~~~~~~~~~~~~~~~~~~~~~~~~~~~~~~~~~~~~~~~~~~~~~~~~~~~~~~~~~~~~~~~~~~~~~~~~~~~~~~~~~
Total execution [setup()] time         : 45.0695881844 (sec)
Initialization time [bpnn_initialize()]: 0.0000000000 (sec)
backprop_face() time: 0.0000000000 (sec)
*-------bpnn_create time: 0.0000000000 (sec)
*-------bpnn_train_kernel() time: 0.0000000000 (sec)
	+-------layerforward time [parallel section] : 1.3765890598 (sec)
        +-------error handle time 		     : 0.0000009537 (sec)
        +-------adjust weight time[parallel section] : 5.7895178795 (sec)
*-------deallocation time: 0.0000000000 (sec)
~~~~~~~~~~~~~~~~~~~~~~~~~~~~~~~~~~~~~~~~~~~~~~~~~~~~~~~~~~~~~~~~~~~~~~~~~~~~~~~~~~~~~~~~~~~~~~~~~~
====================================================================================================

____________________________________________________________________________________________________

    with OMP_NUM_THREADS= 33 
 

Random number generator seed: 7

NUMBER OF OMP THREADS = 1
~~~~~~~~~~~~~~~~~~~~~~~~~~~~~~~~~~~~~~~~~~~~~~~~~~~~~~~~~~~~~~~~~~~~~~~~~~~~~~~~~~~~~~~~~~~~~~~~~~
Total execution [setup()] time         : 42.8267278671 (sec)
Initialization time [bpnn_initialize()]: 0.0000000000 (sec)
backprop_face() time: 0.0000000000 (sec)
*-------bpnn_create time: 0.0000000000 (sec)
*-------bpnn_train_kernel() time: 0.0000000000 (sec)
	+-------layerforward time [parallel section] : 1.4182322025 (sec)
        +-------error handle time 		     : 0.0000000000 (sec)
        +-------adjust weight time[parallel section] : 4.2320837975 (sec)
*-------deallocation time: 0.0000000000 (sec)
~~~~~~~~~~~~~~~~~~~~~~~~~~~~~~~~~~~~~~~~~~~~~~~~~~~~~~~~~~~~~~~~~~~~~~~~~~~~~~~~~~~~~~~~~~~~~~~~~~
====================================================================================================

____________________________________________________________________________________________________

    with OMP_NUM_THREADS= 34 
 

Random number generator seed: 7

NUMBER OF OMP THREADS = 1
~~~~~~~~~~~~~~~~~~~~~~~~~~~~~~~~~~~~~~~~~~~~~~~~~~~~~~~~~~~~~~~~~~~~~~~~~~~~~~~~~~~~~~~~~~~~~~~~~~
Total execution [setup()] time         : 43.3031229973 (sec)
Initialization time [bpnn_initialize()]: 0.0000000000 (sec)
backprop_face() time: 0.0000000000 (sec)
*-------bpnn_create time: 0.0000000000 (sec)
*-------bpnn_train_kernel() time: 0.0000000000 (sec)
	+-------layerforward time [parallel section] : 1.4220910072 (sec)
        +-------error handle time 		     : 0.0000009537 (sec)
        +-------adjust weight time[parallel section] : 4.6769590378 (sec)
*-------deallocation time: 0.0000000000 (sec)
~~~~~~~~~~~~~~~~~~~~~~~~~~~~~~~~~~~~~~~~~~~~~~~~~~~~~~~~~~~~~~~~~~~~~~~~~~~~~~~~~~~~~~~~~~~~~~~~~~
====================================================================================================

____________________________________________________________________________________________________

    with OMP_NUM_THREADS= 35 
 

Random number generator seed: 7

NUMBER OF OMP THREADS = 1
~~~~~~~~~~~~~~~~~~~~~~~~~~~~~~~~~~~~~~~~~~~~~~~~~~~~~~~~~~~~~~~~~~~~~~~~~~~~~~~~~~~~~~~~~~~~~~~~~~
Total execution [setup()] time         : 44.2190170288 (sec)
Initialization time [bpnn_initialize()]: 0.0000000000 (sec)
backprop_face() time: 0.0000000000 (sec)
*-------bpnn_create time: 0.0000000000 (sec)
*-------bpnn_train_kernel() time: 0.0000000000 (sec)
	+-------layerforward time [parallel section] : 1.4127500057 (sec)
        +-------error handle time 		     : 0.0000009537 (sec)
        +-------adjust weight time[parallel section] : 5.3300530910 (sec)
*-------deallocation time: 0.0000000000 (sec)
~~~~~~~~~~~~~~~~~~~~~~~~~~~~~~~~~~~~~~~~~~~~~~~~~~~~~~~~~~~~~~~~~~~~~~~~~~~~~~~~~~~~~~~~~~~~~~~~~~
====================================================================================================

____________________________________________________________________________________________________

    with OMP_NUM_THREADS= 36 
 

Random number generator seed: 7

NUMBER OF OMP THREADS = 1
~~~~~~~~~~~~~~~~~~~~~~~~~~~~~~~~~~~~~~~~~~~~~~~~~~~~~~~~~~~~~~~~~~~~~~~~~~~~~~~~~~~~~~~~~~~~~~~~~~
Total execution [setup()] time         : 41.9794409275 (sec)
Initialization time [bpnn_initialize()]: 0.0000000000 (sec)
backprop_face() time: 0.0000000000 (sec)
*-------bpnn_create time: 0.0000000000 (sec)
*-------bpnn_train_kernel() time: 0.0000000000 (sec)
	+-------layerforward time [parallel section] : 1.4123389721 (sec)
        +-------error handle time 		     : 0.0000009537 (sec)
        +-------adjust weight time[parallel section] : 3.3637800217 (sec)
*-------deallocation time: 0.0000000000 (sec)
~~~~~~~~~~~~~~~~~~~~~~~~~~~~~~~~~~~~~~~~~~~~~~~~~~~~~~~~~~~~~~~~~~~~~~~~~~~~~~~~~~~~~~~~~~~~~~~~~~
====================================================================================================

____________________________________________________________________________________________________

    with OMP_NUM_THREADS= 37 
 

Random number generator seed: 7

NUMBER OF OMP THREADS = 1
~~~~~~~~~~~~~~~~~~~~~~~~~~~~~~~~~~~~~~~~~~~~~~~~~~~~~~~~~~~~~~~~~~~~~~~~~~~~~~~~~~~~~~~~~~~~~~~~~~
Total execution [setup()] time         : 43.7061979771 (sec)
Initialization time [bpnn_initialize()]: 0.0000000000 (sec)
backprop_face() time: 0.0000000000 (sec)
*-------bpnn_create time: 0.0000000000 (sec)
*-------bpnn_train_kernel() time: 0.0000000000 (sec)
	+-------layerforward time [parallel section] : 1.4063289165 (sec)
        +-------error handle time 		     : 0.0000000000 (sec)
        +-------adjust weight time[parallel section] : 5.0670359135 (sec)
*-------deallocation time: 0.0000000000 (sec)
~~~~~~~~~~~~~~~~~~~~~~~~~~~~~~~~~~~~~~~~~~~~~~~~~~~~~~~~~~~~~~~~~~~~~~~~~~~~~~~~~~~~~~~~~~~~~~~~~~
====================================================================================================

____________________________________________________________________________________________________

    with OMP_NUM_THREADS= 38 
 

Random number generator seed: 7

NUMBER OF OMP THREADS = 1
~~~~~~~~~~~~~~~~~~~~~~~~~~~~~~~~~~~~~~~~~~~~~~~~~~~~~~~~~~~~~~~~~~~~~~~~~~~~~~~~~~~~~~~~~~~~~~~~~~
Total execution [setup()] time         : 43.7626168728 (sec)
Initialization time [bpnn_initialize()]: 0.0000000000 (sec)
backprop_face() time: 0.0000000000 (sec)
*-------bpnn_create time: 0.0000000000 (sec)
*-------bpnn_train_kernel() time: 0.0000000000 (sec)
	+-------layerforward time [parallel section] : 1.4031188488 (sec)
        +-------error handle time 		     : 0.0000000000 (sec)
        +-------adjust weight time[parallel section] : 5.0605411530 (sec)
*-------deallocation time: 0.0000000000 (sec)
~~~~~~~~~~~~~~~~~~~~~~~~~~~~~~~~~~~~~~~~~~~~~~~~~~~~~~~~~~~~~~~~~~~~~~~~~~~~~~~~~~~~~~~~~~~~~~~~~~
====================================================================================================

____________________________________________________________________________________________________

    with OMP_NUM_THREADS= 39 
 

Random number generator seed: 7

NUMBER OF OMP THREADS = 1
~~~~~~~~~~~~~~~~~~~~~~~~~~~~~~~~~~~~~~~~~~~~~~~~~~~~~~~~~~~~~~~~~~~~~~~~~~~~~~~~~~~~~~~~~~~~~~~~~~
Total execution [setup()] time         : 41.7685270309 (sec)
Initialization time [bpnn_initialize()]: 0.0000000000 (sec)
backprop_face() time: 0.0000000000 (sec)
*-------bpnn_create time: 0.0000000000 (sec)
*-------bpnn_train_kernel() time: 0.0000000000 (sec)
	+-------layerforward time [parallel section] : 1.3985061646 (sec)
        +-------error handle time 		     : 0.0000009537 (sec)
        +-------adjust weight time[parallel section] : 3.1386449337 (sec)
*-------deallocation time: 0.0000000000 (sec)
~~~~~~~~~~~~~~~~~~~~~~~~~~~~~~~~~~~~~~~~~~~~~~~~~~~~~~~~~~~~~~~~~~~~~~~~~~~~~~~~~~~~~~~~~~~~~~~~~~
====================================================================================================

____________________________________________________________________________________________________

    with OMP_NUM_THREADS= 40 
 

Random number generator seed: 7

NUMBER OF OMP THREADS = 1
~~~~~~~~~~~~~~~~~~~~~~~~~~~~~~~~~~~~~~~~~~~~~~~~~~~~~~~~~~~~~~~~~~~~~~~~~~~~~~~~~~~~~~~~~~~~~~~~~~
Total execution [setup()] time         : 41.9995701313 (sec)
Initialization time [bpnn_initialize()]: 0.0000000000 (sec)
backprop_face() time: 0.0000000000 (sec)
*-------bpnn_create time: 0.0000000000 (sec)
*-------bpnn_train_kernel() time: 0.0000000000 (sec)
	+-------layerforward time [parallel section] : 1.4127538204 (sec)
        +-------error handle time 		     : 0.0000000000 (sec)
        +-------adjust weight time[parallel section] : 3.2006690502 (sec)
*-------deallocation time: 0.0000000000 (sec)
~~~~~~~~~~~~~~~~~~~~~~~~~~~~~~~~~~~~~~~~~~~~~~~~~~~~~~~~~~~~~~~~~~~~~~~~~~~~~~~~~~~~~~~~~~~~~~~~~~
====================================================================================================

____________________________________________________________________________________________________

    with OMP_NUM_THREADS= 41 
 

Random number generator seed: 7

NUMBER OF OMP THREADS = 1
~~~~~~~~~~~~~~~~~~~~~~~~~~~~~~~~~~~~~~~~~~~~~~~~~~~~~~~~~~~~~~~~~~~~~~~~~~~~~~~~~~~~~~~~~~~~~~~~~~
Total execution [setup()] time         : 43.7523899078 (sec)
Initialization time [bpnn_initialize()]: 0.0000000000 (sec)
backprop_face() time: 0.0000000000 (sec)
*-------bpnn_create time: 0.0000000000 (sec)
*-------bpnn_train_kernel() time: 0.0000000000 (sec)
	+-------layerforward time [parallel section] : 1.4094460011 (sec)
        +-------error handle time 		     : 0.0000000000 (sec)
        +-------adjust weight time[parallel section] : 5.1366209984 (sec)
*-------deallocation time: 0.0000000000 (sec)
~~~~~~~~~~~~~~~~~~~~~~~~~~~~~~~~~~~~~~~~~~~~~~~~~~~~~~~~~~~~~~~~~~~~~~~~~~~~~~~~~~~~~~~~~~~~~~~~~~
====================================================================================================

____________________________________________________________________________________________________

    with OMP_NUM_THREADS= 42 
 

Random number generator seed: 7

NUMBER OF OMP THREADS = 1
~~~~~~~~~~~~~~~~~~~~~~~~~~~~~~~~~~~~~~~~~~~~~~~~~~~~~~~~~~~~~~~~~~~~~~~~~~~~~~~~~~~~~~~~~~~~~~~~~~
Total execution [setup()] time         : 43.2461769581 (sec)
Initialization time [bpnn_initialize()]: 0.0000000000 (sec)
backprop_face() time: 0.0000000000 (sec)
*-------bpnn_create time: 0.0000000000 (sec)
*-------bpnn_train_kernel() time: 0.0000000000 (sec)
	+-------layerforward time [parallel section] : 1.4093408585 (sec)
        +-------error handle time 		     : 0.0000009537 (sec)
        +-------adjust weight time[parallel section] : 4.5904641151 (sec)
*-------deallocation time: 0.0000000000 (sec)
~~~~~~~~~~~~~~~~~~~~~~~~~~~~~~~~~~~~~~~~~~~~~~~~~~~~~~~~~~~~~~~~~~~~~~~~~~~~~~~~~~~~~~~~~~~~~~~~~~
====================================================================================================

____________________________________________________________________________________________________

    with OMP_NUM_THREADS= 43 
 

Random number generator seed: 7

NUMBER OF OMP THREADS = 1
~~~~~~~~~~~~~~~~~~~~~~~~~~~~~~~~~~~~~~~~~~~~~~~~~~~~~~~~~~~~~~~~~~~~~~~~~~~~~~~~~~~~~~~~~~~~~~~~~~
Total execution [setup()] time         : 43.1454260349 (sec)
Initialization time [bpnn_initialize()]: 0.0000000000 (sec)
backprop_face() time: 0.0000000000 (sec)
*-------bpnn_create time: 0.0000000000 (sec)
*-------bpnn_train_kernel() time: 0.0000000000 (sec)
	+-------layerforward time [parallel section] : 1.4145081043 (sec)
        +-------error handle time 		     : 0.0000009537 (sec)
        +-------adjust weight time[parallel section] : 4.5309829712 (sec)
*-------deallocation time: 0.0000000000 (sec)
~~~~~~~~~~~~~~~~~~~~~~~~~~~~~~~~~~~~~~~~~~~~~~~~~~~~~~~~~~~~~~~~~~~~~~~~~~~~~~~~~~~~~~~~~~~~~~~~~~
====================================================================================================

____________________________________________________________________________________________________

    with OMP_NUM_THREADS= 44 
 

Random number generator seed: 7

NUMBER OF OMP THREADS = 1
~~~~~~~~~~~~~~~~~~~~~~~~~~~~~~~~~~~~~~~~~~~~~~~~~~~~~~~~~~~~~~~~~~~~~~~~~~~~~~~~~~~~~~~~~~~~~~~~~~
Total execution [setup()] time         : 43.1938779354 (sec)
Initialization time [bpnn_initialize()]: 0.0000000000 (sec)
backprop_face() time: 0.0000000000 (sec)
*-------bpnn_create time: 0.0000000000 (sec)
*-------bpnn_train_kernel() time: 0.0000000000 (sec)
	+-------layerforward time [parallel section] : 1.4295809269 (sec)
        +-------error handle time 		     : 0.0000000000 (sec)
        +-------adjust weight time[parallel section] : 4.5550911427 (sec)
*-------deallocation time: 0.0000000000 (sec)
~~~~~~~~~~~~~~~~~~~~~~~~~~~~~~~~~~~~~~~~~~~~~~~~~~~~~~~~~~~~~~~~~~~~~~~~~~~~~~~~~~~~~~~~~~~~~~~~~~
====================================================================================================

____________________________________________________________________________________________________

    with OMP_NUM_THREADS= 45 
 

Random number generator seed: 7

NUMBER OF OMP THREADS = 1
~~~~~~~~~~~~~~~~~~~~~~~~~~~~~~~~~~~~~~~~~~~~~~~~~~~~~~~~~~~~~~~~~~~~~~~~~~~~~~~~~~~~~~~~~~~~~~~~~~
Total execution [setup()] time         : 43.3882839680 (sec)
Initialization time [bpnn_initialize()]: 0.0000000000 (sec)
backprop_face() time: 0.0000000000 (sec)
*-------bpnn_create time: 0.0000000000 (sec)
*-------bpnn_train_kernel() time: 0.0000000000 (sec)
	+-------layerforward time [parallel section] : 1.4370081425 (sec)
        +-------error handle time 		     : 0.0000009537 (sec)
        +-------adjust weight time[parallel section] : 4.6686949730 (sec)
*-------deallocation time: 0.0000000000 (sec)
~~~~~~~~~~~~~~~~~~~~~~~~~~~~~~~~~~~~~~~~~~~~~~~~~~~~~~~~~~~~~~~~~~~~~~~~~~~~~~~~~~~~~~~~~~~~~~~~~~
====================================================================================================

____________________________________________________________________________________________________

    with OMP_NUM_THREADS= 46 
 

Random number generator seed: 7

NUMBER OF OMP THREADS = 1
~~~~~~~~~~~~~~~~~~~~~~~~~~~~~~~~~~~~~~~~~~~~~~~~~~~~~~~~~~~~~~~~~~~~~~~~~~~~~~~~~~~~~~~~~~~~~~~~~~
Total execution [setup()] time         : 42.5983469486 (sec)
Initialization time [bpnn_initialize()]: 0.0000000000 (sec)
backprop_face() time: 0.0000000000 (sec)
*-------bpnn_create time: 0.0000000000 (sec)
*-------bpnn_train_kernel() time: 0.0000000000 (sec)
	+-------layerforward time [parallel section] : 1.4128720760 (sec)
        +-------error handle time 		     : 0.0000009537 (sec)
        +-------adjust weight time[parallel section] : 3.9982788563 (sec)
*-------deallocation time: 0.0000000000 (sec)
~~~~~~~~~~~~~~~~~~~~~~~~~~~~~~~~~~~~~~~~~~~~~~~~~~~~~~~~~~~~~~~~~~~~~~~~~~~~~~~~~~~~~~~~~~~~~~~~~~
====================================================================================================

____________________________________________________________________________________________________

    with OMP_NUM_THREADS= 47 
 

Random number generator seed: 7

NUMBER OF OMP THREADS = 1
~~~~~~~~~~~~~~~~~~~~~~~~~~~~~~~~~~~~~~~~~~~~~~~~~~~~~~~~~~~~~~~~~~~~~~~~~~~~~~~~~~~~~~~~~~~~~~~~~~
Total execution [setup()] time         : 43.7410130501 (sec)
Initialization time [bpnn_initialize()]: 0.0000000000 (sec)
backprop_face() time: 0.0000000000 (sec)
*-------bpnn_create time: 0.0000000000 (sec)
*-------bpnn_train_kernel() time: 0.0000000000 (sec)
	+-------layerforward time [parallel section] : 1.4189159870 (sec)
        +-------error handle time 		     : 0.0000000000 (sec)
        +-------adjust weight time[parallel section] : 5.1564481258 (sec)
*-------deallocation time: 0.0000000000 (sec)
~~~~~~~~~~~~~~~~~~~~~~~~~~~~~~~~~~~~~~~~~~~~~~~~~~~~~~~~~~~~~~~~~~~~~~~~~~~~~~~~~~~~~~~~~~~~~~~~~~
====================================================================================================

____________________________________________________________________________________________________

    with OMP_NUM_THREADS= 48 
 

Random number generator seed: 7

NUMBER OF OMP THREADS = 1
~~~~~~~~~~~~~~~~~~~~~~~~~~~~~~~~~~~~~~~~~~~~~~~~~~~~~~~~~~~~~~~~~~~~~~~~~~~~~~~~~~~~~~~~~~~~~~~~~~
Total execution [setup()] time         : 43.8936719894 (sec)
Initialization time [bpnn_initialize()]: 0.0000000000 (sec)
backprop_face() time: 0.0000000000 (sec)
*-------bpnn_create time: 0.0000000000 (sec)
*-------bpnn_train_kernel() time: 0.0000000000 (sec)
	+-------layerforward time [parallel section] : 1.4034821987 (sec)
        +-------error handle time 		     : 0.0000000000 (sec)
        +-------adjust weight time[parallel section] : 5.3051149845 (sec)
*-------deallocation time: 0.0000000000 (sec)
~~~~~~~~~~~~~~~~~~~~~~~~~~~~~~~~~~~~~~~~~~~~~~~~~~~~~~~~~~~~~~~~~~~~~~~~~~~~~~~~~~~~~~~~~~~~~~~~~~
====================================================================================================

____________________________________________________________________________________________________

    with OMP_NUM_THREADS= 49 
 

Random number generator seed: 7

NUMBER OF OMP THREADS = 1
~~~~~~~~~~~~~~~~~~~~~~~~~~~~~~~~~~~~~~~~~~~~~~~~~~~~~~~~~~~~~~~~~~~~~~~~~~~~~~~~~~~~~~~~~~~~~~~~~~
Total execution [setup()] time         : 43.2970809937 (sec)
Initialization time [bpnn_initialize()]: 0.0000000000 (sec)
backprop_face() time: 0.0000000000 (sec)
*-------bpnn_create time: 0.0000000000 (sec)
*-------bpnn_train_kernel() time: 0.0000000000 (sec)
	+-------layerforward time [parallel section] : 1.4114930630 (sec)
        +-------error handle time 		     : 0.0000000000 (sec)
        +-------adjust weight time[parallel section] : 4.6850559711 (sec)
*-------deallocation time: 0.0000000000 (sec)
~~~~~~~~~~~~~~~~~~~~~~~~~~~~~~~~~~~~~~~~~~~~~~~~~~~~~~~~~~~~~~~~~~~~~~~~~~~~~~~~~~~~~~~~~~~~~~~~~~
====================================================================================================

____________________________________________________________________________________________________

    with OMP_NUM_THREADS= 50 
 

Random number generator seed: 7

NUMBER OF OMP THREADS = 1
~~~~~~~~~~~~~~~~~~~~~~~~~~~~~~~~~~~~~~~~~~~~~~~~~~~~~~~~~~~~~~~~~~~~~~~~~~~~~~~~~~~~~~~~~~~~~~~~~~
Total execution [setup()] time         : 43.3269820213 (sec)
Initialization time [bpnn_initialize()]: 0.0000000000 (sec)
backprop_face() time: 0.0000000000 (sec)
*-------bpnn_create time: 0.0000000000 (sec)
*-------bpnn_train_kernel() time: 0.0000000000 (sec)
	+-------layerforward time [parallel section] : 1.4272029400 (sec)
        +-------error handle time 		     : 0.0000000000 (sec)
        +-------adjust weight time[parallel section] : 4.7320830822 (sec)
*-------deallocation time: 0.0000000000 (sec)
~~~~~~~~~~~~~~~~~~~~~~~~~~~~~~~~~~~~~~~~~~~~~~~~~~~~~~~~~~~~~~~~~~~~~~~~~~~~~~~~~~~~~~~~~~~~~~~~~~
====================================================================================================

____________________________________________________________________________________________________

    with OMP_NUM_THREADS= 51 
 

Random number generator seed: 7

NUMBER OF OMP THREADS = 1
~~~~~~~~~~~~~~~~~~~~~~~~~~~~~~~~~~~~~~~~~~~~~~~~~~~~~~~~~~~~~~~~~~~~~~~~~~~~~~~~~~~~~~~~~~~~~~~~~~
Total execution [setup()] time         : 42.8763439655 (sec)
Initialization time [bpnn_initialize()]: 0.0000000000 (sec)
backprop_face() time: 0.0000000000 (sec)
*-------bpnn_create time: 0.0000000000 (sec)
*-------bpnn_train_kernel() time: 0.0000000000 (sec)
	+-------layerforward time [parallel section] : 1.4180538654 (sec)
        +-------error handle time 		     : 0.0000009537 (sec)
        +-------adjust weight time[parallel section] : 4.2056620121 (sec)
*-------deallocation time: 0.0000000000 (sec)
~~~~~~~~~~~~~~~~~~~~~~~~~~~~~~~~~~~~~~~~~~~~~~~~~~~~~~~~~~~~~~~~~~~~~~~~~~~~~~~~~~~~~~~~~~~~~~~~~~
====================================================================================================

____________________________________________________________________________________________________

    with OMP_NUM_THREADS= 52 
 

Random number generator seed: 7

NUMBER OF OMP THREADS = 1
~~~~~~~~~~~~~~~~~~~~~~~~~~~~~~~~~~~~~~~~~~~~~~~~~~~~~~~~~~~~~~~~~~~~~~~~~~~~~~~~~~~~~~~~~~~~~~~~~~
Total execution [setup()] time         : 43.7741398811 (sec)
Initialization time [bpnn_initialize()]: 0.0000000000 (sec)
backprop_face() time: 0.0000000000 (sec)
*-------bpnn_create time: 0.0000000000 (sec)
*-------bpnn_train_kernel() time: 0.0000000000 (sec)
	+-------layerforward time [parallel section] : 1.4212338924 (sec)
        +-------error handle time 		     : 0.0000000000 (sec)
        +-------adjust weight time[parallel section] : 5.1474120617 (sec)
*-------deallocation time: 0.0000000000 (sec)
~~~~~~~~~~~~~~~~~~~~~~~~~~~~~~~~~~~~~~~~~~~~~~~~~~~~~~~~~~~~~~~~~~~~~~~~~~~~~~~~~~~~~~~~~~~~~~~~~~
====================================================================================================

____________________________________________________________________________________________________

    with OMP_NUM_THREADS= 53 
 

Random number generator seed: 7

NUMBER OF OMP THREADS = 1
~~~~~~~~~~~~~~~~~~~~~~~~~~~~~~~~~~~~~~~~~~~~~~~~~~~~~~~~~~~~~~~~~~~~~~~~~~~~~~~~~~~~~~~~~~~~~~~~~~
Total execution [setup()] time         : 43.9959759712 (sec)
Initialization time [bpnn_initialize()]: 0.0000000000 (sec)
backprop_face() time: 0.0000000000 (sec)
*-------bpnn_create time: 0.0000000000 (sec)
*-------bpnn_train_kernel() time: 0.0000000000 (sec)
	+-------layerforward time [parallel section] : 1.4220609665 (sec)
        +-------error handle time 		     : 0.0000009537 (sec)
        +-------adjust weight time[parallel section] : 5.4130859375 (sec)
*-------deallocation time: 0.0000000000 (sec)
~~~~~~~~~~~~~~~~~~~~~~~~~~~~~~~~~~~~~~~~~~~~~~~~~~~~~~~~~~~~~~~~~~~~~~~~~~~~~~~~~~~~~~~~~~~~~~~~~~
====================================================================================================

____________________________________________________________________________________________________

    with OMP_NUM_THREADS= 54 
 

Random number generator seed: 7

NUMBER OF OMP THREADS = 1
~~~~~~~~~~~~~~~~~~~~~~~~~~~~~~~~~~~~~~~~~~~~~~~~~~~~~~~~~~~~~~~~~~~~~~~~~~~~~~~~~~~~~~~~~~~~~~~~~~
Total execution [setup()] time         : 42.9710829258 (sec)
Initialization time [bpnn_initialize()]: 0.0000000000 (sec)
backprop_face() time: 0.0000000000 (sec)
*-------bpnn_create time: 0.0000000000 (sec)
*-------bpnn_train_kernel() time: 0.0000000000 (sec)
	+-------layerforward time [parallel section] : 1.3995678425 (sec)
        +-------error handle time 		     : 0.0000000000 (sec)
        +-------adjust weight time[parallel section] : 4.3491711617 (sec)
*-------deallocation time: 0.0000000000 (sec)
~~~~~~~~~~~~~~~~~~~~~~~~~~~~~~~~~~~~~~~~~~~~~~~~~~~~~~~~~~~~~~~~~~~~~~~~~~~~~~~~~~~~~~~~~~~~~~~~~~
====================================================================================================

____________________________________________________________________________________________________

    with OMP_NUM_THREADS= 55 
 

Random number generator seed: 7

NUMBER OF OMP THREADS = 1
~~~~~~~~~~~~~~~~~~~~~~~~~~~~~~~~~~~~~~~~~~~~~~~~~~~~~~~~~~~~~~~~~~~~~~~~~~~~~~~~~~~~~~~~~~~~~~~~~~
Total execution [setup()] time         : 44.0892419815 (sec)
Initialization time [bpnn_initialize()]: 0.0000000000 (sec)
backprop_face() time: 0.0000000000 (sec)
*-------bpnn_create time: 0.0000000000 (sec)
*-------bpnn_train_kernel() time: 0.0000000000 (sec)
	+-------layerforward time [parallel section] : 1.4221019745 (sec)
        +-------error handle time 		     : 0.0000000000 (sec)
        +-------adjust weight time[parallel section] : 5.4805519581 (sec)
*-------deallocation time: 0.0000000000 (sec)
~~~~~~~~~~~~~~~~~~~~~~~~~~~~~~~~~~~~~~~~~~~~~~~~~~~~~~~~~~~~~~~~~~~~~~~~~~~~~~~~~~~~~~~~~~~~~~~~~~
====================================================================================================

____________________________________________________________________________________________________

    with OMP_NUM_THREADS= 56 
 

Random number generator seed: 7

NUMBER OF OMP THREADS = 1
~~~~~~~~~~~~~~~~~~~~~~~~~~~~~~~~~~~~~~~~~~~~~~~~~~~~~~~~~~~~~~~~~~~~~~~~~~~~~~~~~~~~~~~~~~~~~~~~~~
Total execution [setup()] time         : 42.8250141144 (sec)
Initialization time [bpnn_initialize()]: 0.0000000000 (sec)
backprop_face() time: 0.0000000000 (sec)
*-------bpnn_create time: 0.0000000000 (sec)
*-------bpnn_train_kernel() time: 0.0000000000 (sec)
	+-------layerforward time [parallel section] : 1.4121949673 (sec)
        +-------error handle time 		     : 0.0000000000 (sec)
        +-------adjust weight time[parallel section] : 4.1843349934 (sec)
*-------deallocation time: 0.0000000000 (sec)
~~~~~~~~~~~~~~~~~~~~~~~~~~~~~~~~~~~~~~~~~~~~~~~~~~~~~~~~~~~~~~~~~~~~~~~~~~~~~~~~~~~~~~~~~~~~~~~~~~
====================================================================================================

