omp threads,kernel time,total_time, kernel percentage,,serial time,ser speedup, ,kernel time,serial kernel,par speedup
1,45.057300567627,80.354232788086,56.073337554932,,80.354232788086,1,,45.057300567627,45.057300567627,1
2,26.823207855225,64.029808044434,41.891750335693,,80.354232788086,1.25495039329688,,26.823207855225,45.057300567627,1.67978792137086
3,19.63059425354,56.836715698242,34.538578033447,,80.354232788086,1.41377332945667,,19.63059425354,45.057300567627,2.29525912388015
4,16.555452346802,53.720623016357,30.817684173584,,80.354232788086,1.49577998683335,,16.555452346802,45.057300567627,2.72159888016172
5,14.0415391922,51.27991104126,27.382144927979,,80.354232788086,1.56697293650593,,14.0415391922,45.057300567627,3.20885765804479
6,12.826341629028,50.231811523438,25.534299850464,,80.354232788086,1.59966822519616,,12.826341629028,45.057300567627,3.5128723271845
7,11.851227760315,49.263347625732,24.056886672974,,80.354232788086,1.63111596472413,,11.851227760315,45.057300567627,3.80190993531538
8,9.629474639893,47.712757110596,20.182180404663,,80.354232788086,1.68412470069228,,9.629474639893,45.057300567627,4.6791026772077
9,10.473771095276,47.641857147217,21.984390258789,,80.354232788086,1.68663099215014,,10.473771095276,45.057300567627,4.3019176338453
10,9.347296714783,46.663730621338,20.031183242798,,80.354232788086,1.7219847560011,,9.347296714783,45.057300567627,4.8203562957799
11,10.052709579468,47.807628631592,21.027418136597,,80.354232788086,1.68078265097187,,10.052709579468,45.057300567627,4.4821050694286
12,9.663970947266,46.868927001953,20.619142532349,,80.354232788086,1.71444575176081,,9.663970947266,45.057300567627,4.66240025073482
13,9.091260910034,47.210090637207,19.257028579712,,80.354232788086,1.70205631261291,,9.091260910034,45.057300567627,4.95611126041905
14,8.910144805908,46.154449462891,19.305061340332,,80.354232788086,1.74098561944049,,8.910144805908,45.057300567627,5.05685390631936
15,9.198844909668,46.433376312256,19.810846328735,,80.354232788086,1.73052746041379,,9.198844909668,45.057300567627,4.89814764898055
16,4.890038967133,42.162822723389,11.597988128662,,80.354232788086,1.90580771394869,,4.890038967133,45.057300567627,9.21409847047575
17,6.499088287354,43.820316314697,14.831220626831,,80.354232788086,1.83372096657221,,6.499088287354,45.057300567627,6.93286482279369
18,5.019390106201,42.232284545898,11.885196685791,,80.354232788086,1.90267312441403,,5.019390106201,45.057300567627,8.97664848005394
19,4.831894874573,42.182975769043,11.454608917236,,80.354232788086,1.90489720848608,,4.831894874573,45.057300567627,9.32497534346891
20,5.226099014282,42.466644287109,12.3063621521,,80.354232788086,1.89217288384799,,5.226099014282,45.057300567627,8.6215933614142
21,4.571980953217,41.962627410889,10.895363807678,,80.354232788086,1.91489994182859,,4.571980953217,45.057300567627,9.85509367354717
22,6.012835979462,43.239627838135,13.90584564209,,80.354232788086,1.85834700263581,,6.012835979462,45.057300567627,7.49351898530559
23,6.053502082825,43.322315216064,13.973173141479,,80.354232788086,1.85480005829168,,6.053502082825,45.057300567627,7.44317916325884
24,5.26735496521,42.670776367188,12.344174385071,,80.354232788086,1.88312094667851,,5.26735496521,45.057300567627,8.55406572468021
25,5.721627235413,43.174224853516,13.252414703369,,80.354232788086,1.86116214154896,,5.721627235413,45.057300567627,7.87491018092769
26,5.76598072052,43.075603485107,13.385722160339,,80.354232788086,1.86542326251721,,5.76598072052,45.057300567627,7.81433423932149
27,6.215271949768,43.570575714111,14.264838218689,,80.354232788086,1.84423160518538,,6.215271949768,45.057300567627,7.24944957063526
28,6.337656974792,43.552715301514,14.551692008972,,80.354232788086,1.84498790102514,,6.337656974792,45.057300567627,7.1094571301101
29,5.111787796021,42.408477783203,12.053692817688,,80.354232788086,1.89476814515404,,5.111787796021,45.057300567627,8.81439182641726
30,7.405798912048,44.73681640625,16.554147720337,,80.354232788086,1.7961544705908,,7.405798912048,45.057300567627,6.08405671052265
31,6.750494003296,44.074172973633,15.316211700439,,80.354232788086,1.82315917388075,,6.750494003296,45.057300567627,6.67466714963783
32,7.166108131409,45.06958770752,15.900095939636,,80.354232788086,1.78289256404,,7.166108131409,45.057300567627,6.28755521705585
33,5.650316238403,42.826728820801,13.193434715271,,80.354232788086,1.87626360921261,,5.650316238403,45.057300567627,7.97429713073227
34,6.099050998688,43.303123474121,14.084551811218,,80.354232788086,1.85562209700895,,6.099050998688,45.057300567627,7.38759203314082
35,6.742804050446,44.219017028809,15.248651504517,,80.354232788086,1.81718722367199,,6.742804050446,45.057300567627,6.68227939452678
36,4.776120185852,41.979442596436,11.377283096313,,80.354232788086,1.91413291406847,,4.776120185852,45.057300567627,9.43387076001509
37,6.473364830017,43.706199645996,14.811091423035,,80.354232788086,1.83850880284549,,6.473364830017,45.057300567627,6.96041421282117
38,6.463660240173,43.762615203857,14.769822120667,,80.354232788086,1.83613873196966,,6.463660240173,45.057300567627,6.97086463294999
39,4.537152290344,41.768527984619,10.862609863281,,80.354232788086,1.9237985312213,,4.537152290344,45.057300567627,9.93074459138572
40,4.613422870636,41.999568939209,10.984453201294,,80.354232788086,1.91321565476999,,4.613422870636,45.057300567627,9.76656635020658
41,6.546067237854,43.752388000488,14.961622238159,,80.354232788086,1.8365679328678,,6.546067237854,45.057300567627,6.88310995448897
42,5.999805927277,43.24617767334,13.873609542847,,80.354232788086,1.85806554731939,,5.999805927277,45.057300567627,7.50979300226735
43,5.945491790771,43.145427703857,13.780119895935,,80.354232788086,1.86240436274323,,5.945491790771,45.057300567627,7.57839757470829
44,5.98467206955,43.193878173828,13.855370521545,,80.354232788086,1.86031530821824,,5.98467206955,45.057300567627,7.52878353968273
45,6.105704307556,43.388282775879,14.072242736816,,80.354232788086,1.85198001965539,,6.105704307556,45.057300567627,7.37954186740868
46,5.411151885986,42.598346710205,12.70272731781,,80.354232788086,1.88632280343491,,5.411151885986,45.057300567627,8.32674844783383
47,6.575364112854,43.741012573242,15.032490730286,,80.354232788086,1.83704555658233,,6.575364112854,45.057300567627,6.85244190196946
48,6.708597183228,43.893672943115,15.283745765686,,80.354232788086,1.83065638850098,,6.708597183228,45.057300567627,6.71635206839869
49,6.096549034119,43.297080993652,14.080739021301,,80.354232788086,1.85588106505072,,6.096549034119,45.057300567627,7.39062382922967
50,6.159286022186,43.32698059082,14.215821266174,,80.354232788086,1.8546003366113,,6.159286022186,45.057300567627,7.31534473400468
51,5.623716831207,42.876342773438,13.116129875183,,80.354232788086,1.87409250860513,,5.623716831207,45.057300567627,8.01201445947564
52,6.568645954132,43.774139404297,15.00576877594,,80.354232788086,1.83565534083802,,6.568645954132,45.057300567627,6.85945031628379
53,6.835147857666,43.995975494385,15.535847663879,,80.354232788086,1.82639961689999,,6.835147857666,45.057300567627,6.5920008617067
54,5.748739242554,42.971084594727,13.378156661987,,80.354232788086,1.8699605454675,,5.748739242554,45.057300567627,7.83777079922124
55,6.902653694153,44.089241027832,15.656095504761,,80.354232788086,1.82253608623839,,6.902653694153,45.057300567627,6.5275331146619
56,5.596529960632,42.825012207031,13.068367958069,,80.354232788086,1.87633881806328,,5.596529960632,45.057300567627,8.0509352910779
