PACKAGE_ENERGY:PACKAGE0,PACKAGE_ENERGY:PACKAGE1,DRAM_ENERGY:PACKAGE0,DRAM_ENERGY:PACKAGE1,TOTAL_ENERGY,KERNEL_TIME,POWER
688.886413574000,502.083496093000,134.018417358000,104.024368286000,1429.012695311000,21.244885000000,67.263847053585
488.218200683000,470.830322265000,63.944244384000,60.537307739000,1083.530075071000,10.885488000000,99.538952692888
306.605468750000,322.372314453000,43.764541625000,41.594909667000,714.337234495000,7.169348000000,99.637684555834
271.856933593000,313.617065429000,32.476211547000,31.122970581000,649.073181150000,5.508494000000,117.831331240444
243.128845214000,249.324462890000,27.395568847000,26.255584716000,546.104461667000,4.676379000000,116.779341808480
229.049865722000,226.329467773000,22.821319580000,21.644729614000,499.845382689000,3.850347000000,129.818269025883
207.669921875000,207.024414062000,20.526031494000,19.273925781000,454.494293212000,3.436003000000,132.274125840984
186.706420898000,179.875183105000,17.906799316000,16.985565185000,401.473968504000,3.021919000000,132.853980700343
157.366699218000,157.797668457000,15.613067626000,14.640075683000,345.417510984000,2.609148000000,132.387089955802
164.711242675000,166.356323242000,15.510848999000,14.696472167000,361.274887083000,2.607534000000,138.550403209699
147.969177246000,145.028442382000,13.155792236000,12.365478515000,318.518890379000,2.195031000000,145.109062413697
137.464294433000,151.486389160000,13.175888061000,12.402694702000,314.529266356000,2.195000000000,143.293515424146
134.494750976000,121.062255859000,11.561325073000,10.802505493000,277.920837401000,1.879149000000,147.897179734550
128.282287597000,122.730041503000,11.070983886000,10.253005981000,272.336318967000,1.807949000000,150.632744046984
119.409667968000,125.578918457000,10.700531005000,10.090286254000,265.779403684000,1.782068000000,149.141000053870
122.357910156000,124.976257324000,10.664321899000,10.069259643000,268.067749022000,1.781595000000,150.465032188573
103.035217285000,104.347229003000,8.449432373000,7.946380615000,223.778259276000,1.397449000000,160.133399699023
105.544494628000,103.620239257000,8.311294555000,7.743240356000,225.219268796000,1.369572000000,164.445000917075
106.319396972000,102.723327636000,8.319198608000,7.799591064000,225.161514280000,1.369544000000,164.406192338472
106.106018066000,95.723754882000,8.287368774000,7.756011962000,217.873153684000,1.369411000000,159.099900383450
105.867370605000,101.475769042000,8.278015136000,7.729064941000,223.350219724000,1.369063000000,163.140936336750
105.072875976000,100.149902343000,8.450958251000,7.768096923000,221.441833493000,1.370029000000,161.632953384928
109.992004394000,101.893188476000,8.384155273000,7.734863281000,228.004211424000,1.368579000000,166.599232798399
106.337341308000,100.078979492000,8.533126831000,7.920623779000,222.870071410000,1.402851000000,158.869382001367
103.288330078000,98.363098144000,8.272521972000,7.714309692000,217.638259886000,1.368697000000,159.011278526949
84.890869140000,83.005920410000,5.845596313000,5.432113647000,179.174499510000,0.957554000000,187.116861827114
90.493164062000,88.119812011000,6.618835449000,6.067962646000,191.299774168000,1.070254000000,178.742405230908
83.807067871000,83.016052246000,5.892181396000,5.434478759000,178.149780272000,0.957856000000,185.988061119834
95.037719726000,93.309265136000,7.798217773000,7.136383056000,203.281585691000,1.264229000000,160.794907956549
88.911987304000,86.475708007000,6.924850463000,6.296142578000,188.608688352000,1.118242000000,168.665358975964
90.214660644000,90.811279296000,7.241302490000,6.572021484000,194.839263914000,1.161895000000,167.690939296580
88.717224121000,86.189697265000,6.945800781000,6.306671142000,188.159393309000,1.118201000000,168.269741584027
88.691772460000,86.561584472000,6.946014404000,6.342483520000,188.541854856000,1.128990000000,167.000464889857
86.953796386000,83.595214843000,6.624725341000,5.998229980000,183.171966550000,1.067836000000,171.535672659472
89.327941894000,83.539611816000,7.038528442000,6.357086181000,186.263168333000,1.132737000000,164.436376963938
87.975524902000,85.992126464000,7.117630004000,6.454650878000,187.539932248000,1.143587000000,163.992710872019
89.283325195000,85.754760742000,7.216293334000,6.539566040000,188.793945311000,1.167409000000,161.720481263208
86.994567871000,85.415527343000,6.953521728000,6.374023437000,185.737640379000,1.124820000000,165.126545028538
86.011047363000,85.565979003000,7.200027465000,6.570281982000,185.347335813000,1.161615000000,159.560039955579
88.039978027000,89.372558593000,7.176773071000,6.833587646000,191.422897337000,1.186872000000,161.283522854192
84.575256347000,85.317077636000,7.217758178000,6.606979370000,183.717071531000,1.164455000000,157.770864078904
85.729125976000,81.940795898000,6.969116210000,6.324645996000,180.963684080000,1.123037000000,161.137775585310
86.140502929000,84.448547363000,7.318176269000,6.773742675000,184.680969236000,1.189059000000,155.316909620128
83.216003417000,83.160705566000,6.919235229000,6.313461303000,179.609405515000,1.115636000000,160.992837731124
85.610839843000,80.835571289000,6.892791748000,6.286041259000,179.625244139000,1.116932000000,160.820214783890
83.753723144000,85.777587890000,7.216888427000,6.572280883000,183.320480344000,1.175198000000,155.991143912770
84.326110839000,81.241821289000,6.755706787000,6.165573120000,178.489212035000,1.094201000000,163.122874165715
83.335754394000,83.515686035000,7.012695312000,6.401748657000,180.265884398000,1.143862000000,157.594084249674
83.726867675000,78.200988769000,6.650817871000,5.986785888000,174.565460203000,1.074919000000,162.398711161492
81.209106445000,79.614074707000,6.498504638000,5.841522216000,173.163208006000,1.053090000000,164.433436843954
72.827148437000,67.464538574000,4.746566772000,4.247360229000,149.285614012000,0.751054000000,198.768149842754
74.361450195000,68.561523437000,4.791534423000,4.511779785000,152.226287840000,0.782359000000,194.573447534955
72.681579589000,67.378112792000,4.769271850000,4.287933349000,149.116897580000,0.755743000000,197.311649039422
73.502502441000,67.927551269000,4.826995849000,4.353836059000,150.610885618000,0.769884000000,195.628023985432
72.097290039000,69.256530761000,4.821319580000,4.311416625000,150.486557005000,0.765368000000,196.619870447941
73.825500488000,69.700561523000,4.895828247000,4.594024658000,153.015914916000,0.785642000000,194.765446495987
