omp threads,kernel1,kernel2,kernel1+kernel2,kernels_niter,total_time
1,5.154583000000,0.606663000000,5.761246000000,5.761328220367,8.342398166656
2,2.555086000000,0.313663000000,2.868749000000,2.868870019913,5.447104215622
4,1.295607000000,0.178110000000,1.473717000000,1.473855018616,4.051964998245
8,0.651422000000,0.094489000000,0.745911000000,0.746047019958,3.325621128082
10,0.521223000000,0.079156000000,0.600379000000,0.600480079651,3.179143190384
20,0.436697000000,0.070880000000,0.507577000000,0.507666110992,3.086723089218
30,0.295390000000,0.053454000000,0.348844000000,0.348948955536,2.928635120392
40,0.246565000000,0.045814000000,0.292379000000,0.292466878891,2.871017932892
