5487177,104838,1058,105
5485727,104772,38,8
5485726,104772,38,8
5485726,104773,38,8
5485727,104773,38,8
5485726,104773,38,8
5485727,104772,38,8
5485726,104772,38,8
5485726,104773,38,8
5485727,104773,38,8
5485726,104772,38,8
5485727,104773,38,8
5485726,104773,38,8
5485725,104772,38,8
5485727,104773,38,8
5485726,104772,38,8
5485727,104773,38,8
5485726,104773,38,8
5485726,104772,38,8
5485727,104772,38,8
5485719,104775,48,9
5485726,104772,38,8
5485727,104773,38,8
5485725,104772,38,8
5485726,104773,38,8
5485727,104773,38,8
5485726,104772,38,8
5485727,104773,38,8
5485726,104772,38,8
5485727,104773,38,8
5485727,104773,38,8
5485726,104772,38,8
5485727,104773,38,8
5485726,104773,38,8
5485727,104772,38,8
5485727,104772,38,8
5485726,104773,38,8
5485726,104773,38,8
5485727,104773,38,8
5485726,104773,38,8
5485727,104771,38,8
1451298,23012,91,16
1385470,21656,9,3
1385470,21655,9,3
1385469,21656,9,3
1385471,21656,9,3
1385470,21656,9,3
1385469,21656,9,3
1385470,21655,9,3
1385471,21656,9,3
1385470,21656,9,3
1385469,21656,9,3
1385470,21656,9,3
1385471,21655,9,3
1385470,21656,9,3
1385469,21656,9,3
1385470,21656,9,3
1385470,21656,9,3
1385469,21655,9,3
1385470,21656,9,3
1385470,21656,9,3
1385470,21656,9,3
1385469,21656,9,3
1385470,21654,9,3
1385470,21656,9,3
1385471,21656,9,3
1385469,21656,9,3
1385470,21656,9,3
1385470,21655,9,3
1385470,21656,9,3
1385470,21656,9,3
1385470,21656,9,3
1385470,21656,9,3
1385470,21656,9,3
1385470,21655,9,3
1385470,21656,9,3
1385470,21656,9,3
1385469,21656,9,3
1385470,21656,9,3
1385470,21655,9,3
1385469,21656,9,3
1385471,21656,9,3
1385470,21656,9,3
1385470,21656,9,3
1385469,21655,9,3
1385471,21656,9,3
1385470,21656,9,3
1385469,21656,9,3
1385470,21656,9,3
1385471,21655,9,3
1385470,21656,9,3
1385469,21656,9,3
1385470,21656,9,3
1385471,21656,9,3
1385470,21655,9,3
1385469,21656,9,3
1385470,21656,9,3
1385471,21656,9,3
1385469,21656,9,3
1385470,21655,9,3
1385470,21656,9,3
1385470,21656,9,3
1385469,21656,9,3
1385470,21656,9,3
1385470,21655,9,3
1385471,21656,9,3
1385469,21656,9,3
1385470,21656,9,3
1385470,21656,9,3
1385470,21655,9,3
1385470,21656,9,3
1385470,21656,9,3
1385470,21656,9,3
1385470,21655,9,3
1385470,21655,9,3
1385470,21656,9,3
1385469,21656,9,3
1385469,21656,9,3
1385470,21656,9,3
1385470,21655,9,3
1385469,21656,9,3
1385470,21656,9,3
1385470,21656,9,3
1385470,21656,9,3
1385469,21655,9,3
1385471,21656,9,3
1385470,21656,9,3
1385469,21656,9,3
1385470,21656,9,3
1385471,21655,9,3
1385470,21656,9,3
1385469,21656,9,3
1385470,21656,9,3
1385471,21656,9,3
1385470,21655,9,3
1385469,21656,9,3
1385470,21656,9,3
1385470,21656,9,3
1385469,21656,9,3
1385470,21655,9,3
13728400,214516,13,3
18092107,282691,2,1
18092107,282691,2,1
18092107,282691,2,1
18092106,282691,2,1
18092108,282691,2,1
18092107,282692,2,1
15735905,245883,24,5
1116726,17456,9,3
1116726,17456,9,3
1116725,17455,9,3
1116726,17456,9,3
1116726,17456,9,3
92461979,1747217,126,24
118750069,2246114,62,13
129464299,2246104,21,6
118750018,2246104,21,6
118750018,2246104,21,6
129464299,2246104,21,6
118750018,2246104,21,6
118750018,2246104,21,6
124392115,2246104,21,6
118750018,2246104,21,6
120250755,2246104,21,6
138625426,2580133,170,28
105113640,1997522,2,1
105113644,1997520,3,1
105113640,1997522,2,1
105113641,1997519,2,1
105113644,1997523,3,1
105113639,1997521,2,1
105113642,1997521,3,1
105113641,1997521,2,1
105113645,1997524,3,1
105113641,1997519,2,1
105113644,1997523,3,1
105113640,1997522,2,1
105113644,1997520,3,1
105113641,1997522,2,1
105113640,1997519,2,1
105113644,1997523,3,1
105113641,1997521,2,1
105113643,1997521,3,1
105113641,1997522,2,1
105113644,1997523,3,1
105113639,1997519,2,1
105113644,1997524,3,1
105113641,1997522,2,1
105113646,1997520,3,1
105113641,1997522,2,1
105113640,1997519,2,1
105113645,1997523,3,1
105113641,1997521,2,1
105113642,1997521,3,1
105113639,1997521,2,1
105113644,1997523,3,1
105113641,1997520,2,1
105113645,1997523,3,1
105113641,1997519,2,1
92252347,1746160,95,20
14550283,227359,10,4
14550281,227359,10,4
14550281,227359,10,4
14550282,227359,10,4
14550281,227359,10,4
14550282,227359,10,4
14550281,227359,10,4
14550281,227359,10,4
14550282,227359,10,4
14550280,227359,10,4
14550281,227359,10,4
14550282,227359,10,4
14550281,227359,10,4
14550282,227359,10,4
14550281,227358,10,4
14550280,227359,10,4
14550282,227359,10,4
14550282,227358,10,4
11029160,172372,420,47
29069775,454221,5,1
29069777,454222,5,1
29069775,454220,5,1
29069775,454222,5,1
29069775,454220,5,1
29069777,454222,5,1
29069775,454221,5,1
29069775,454221,5,1
10407962,162680,475,61
number,of,instructions:,227358045450
