165927483,4962,151265500,156156784,165908935,165912997,165913788,165916746,891,63407025,63433035,73187933,92699626,112218836,112219777,146320845,54,136562196,136564541,146309872,146310105,146310199,146318853,0,34140164,97555338,112182161,112185275,112188198,112188199
165899670,2886,151268253,156144430,165896784,165896784,165896784,165899670,0,63407613,63422043,73177281,92690645,112212666,112212666,146331460,0,136576220,136576220,146322802,146322802,146322802,146331460,0,34139004,97558152,112186681,112189567,112192453,112192453
165899667,2886,151268253,156144429,165896781,165896781,165896781,165899667,0,63407608,63422038,73177277,92690641,112212664,112212664,146331470,0,136576232,136576232,146322812,146322812,146322812,146331470,0,34139004,97558162,112186690,112189576,112192462,112192462
165899660,2886,151268244,156144421,165896774,165896774,165896774,165899660,0,63407607,63422037,73177276,92690640,112212660,112212660,146331468,0,136576230,136576230,146322810,146322810,146322810,146331468,0,34139011,97558162,112186692,112189578,112192464,112192464
165899675,2886,151268260,156144436,165896789,165896789,165896789,165899675,0,63407614,63422044,73177282,92690646,112212668,112212668,146331467,0,136576227,136576227,146322809,146322809,146322809,146331467,0,34139004,97558156,112186685,112189571,112192457,112192457
165899656,2886,151268242,156144418,165896770,165896770,165896770,165899656,0,63407604,63422034,73177274,92690636,112212658,112212658,146331475,0,136576237,136576237,146322817,146322817,146322817,146331475,0,34139011,97558168,112186698,112189584,112192470,112192470
165899670,2886,151268253,156144430,165896784,165896784,165896784,165899670,0,63407613,63422043,73177281,92690645,112212666,112212666,146331460,0,136576220,136576220,146322802,146322802,146322802,146331460,0,34139004,97558152,112186681,112189567,112192453,112192453
165899667,2886,151268253,156144429,165896781,165896781,165896781,165899667,0,63407608,63422038,73177277,92690641,112212664,112212664,146331470,0,136576232,136576232,146322812,146322812,146322812,146331470,0,34139004,97558162,112186690,112189576,112192462,112192462
165899660,2886,151268244,156144421,165896774,165896774,165896774,165899660,0,63407607,63422037,73177276,92690640,112212660,112212660,146331468,0,136576230,136576230,146322810,146322810,146322810,146331468,0,34139011,97558162,112186692,112189578,112192464,112192464
165899675,2886,151268260,156144436,165896789,165896789,165896789,165899675,0,63407614,63422044,73177282,92690646,112212668,112212668,146331467,0,136576227,136576227,146322809,146322809,146322809,146331467,0,34139004,97558156,112186685,112189571,112192457,112192457
165899656,2886,151268242,156144418,165896770,165896770,165896770,165899656,0,63407604,63422034,73177274,92690636,112212658,112212658,146331475,0,136576237,136576237,146322817,146322817,146322817,146331475,0,34139011,97558168,112186698,112189584,112192470,112192470
165899670,2886,151268253,156144430,165896784,165896784,165896784,165899670,0,63407613,63422043,73177281,92690645,112212666,112212666,146331460,0,136576220,136576220,146322802,146322802,146322802,146331460,0,34139004,97558152,112186681,112189567,112192453,112192453
165899667,2886,151268253,156144429,165896781,165896781,165896781,165899667,0,63407608,63422038,73177277,92690641,112212664,112212664,146331470,0,136576232,136576232,146322812,146322812,146322812,146331470,0,34139004,97558162,112186690,112189576,112192462,112192462
165899660,2886,151268244,156144421,165896774,165896774,165896774,165899660,0,63407607,63422037,73177276,92690640,112212660,112212660,146331468,0,136576230,136576230,146322810,146322810,146322810,146331468,0,34139011,97558162,112186692,112189578,112192464,112192464
165899675,2886,151268260,156144436,165896789,165896789,165896789,165899675,0,63407614,63422044,73177282,92690646,112212668,112212668,146331467,0,136576227,136576227,146322809,146322809,146322809,146331467,0,34139004,97558156,112186685,112189571,112192457,112192457
165899656,2886,151268242,156144418,165896770,165896770,165896770,165899656,0,63407604,63422034,73177274,92690636,112212658,112212658,146331475,0,136576237,136576237,146322817,146322817,146322817,146331475,0,34139011,97558168,112186698,112189584,112192470,112192470
165899670,2886,151268253,156144430,165896784,165896784,165896784,165899670,0,63407613,63422043,73177281,92690645,112212666,112212666,146331460,0,136576220,136576220,146322802,146322802,146322802,146331460,0,34139004,97558152,112186681,112189567,112192453,112192453
165899667,2886,151268253,156144429,165896781,165896781,165896781,165899667,0,63407608,63422038,73177277,92690641,112212664,112212664,146331470,0,136576232,136576232,146322812,146322812,146322812,146331470,0,34139004,97558162,112186690,112189576,112192462,112192462
165899660,2886,151268244,156144421,165896774,165896774,165896774,165899660,0,63407607,63422037,73177276,92690640,112212660,112212660,146331468,0,136576230,136576230,146322810,146322810,146322810,146331468,0,34139011,97558162,112186692,112189578,112192464,112192464
165899675,2886,151268260,156144436,165896789,165896789,165896789,165899675,0,63407614,63422044,73177282,92690646,112212668,112212668,146331467,0,136576227,136576227,146322809,146322809,146322809,146331467,0,34139004,97558156,112186685,112189571,112192457,112192457
165899671,2888,151268203,156144461,165896778,165896778,165896778,165899664,0,63407611,63422064,73177283,92690646,112212669,112212669,146331474,0,136576143,136576265,146322809,146322809,146322809,146331467,0,34139007,97558187,112186697,112189584,112192470,112192470
165899658,2886,151268243,156144420,165896772,165896772,165896772,165899658,0,63407607,63422037,73177277,92690640,112212660,112212660,146331468,0,136576230,136576230,146322810,146322810,146322810,146331468,0,34139011,97558162,112186692,112189578,112192464,112192464
165899674,2886,151268258,156144434,165896788,165896788,165896788,165899674,0,63407614,63422044,73177282,92690646,112212667,112212667,146331466,0,136576226,136576226,146322808,146322808,146322808,146331466,0,34139004,97558156,112186685,112189571,112192457,112192457
165899659,2886,151268245,156144421,165896773,165896773,165896773,165899659,0,63407604,63422034,73177273,92690636,112212659,112212659,146331476,0,136576238,136576238,146322818,146322818,146322818,146331476,0,34139011,97558168,112186698,112189584,112192470,112192470
165899669,2886,151268253,156144430,165896783,165896783,165896783,165899669,0,63407613,63422043,73177282,92690646,112212666,112212666,146331459,0,136576219,136576219,146322801,146322801,146322801,146331459,0,34139004,97558152,112186681,112189567,112192453,112192453
165899668,2886,151268253,156144429,165896782,165896782,165896782,165899668,0,63407608,63422038,73177276,92690640,112212664,112212664,146331471,0,136576233,136576233,146322813,146322813,146322813,146331471,0,34139004,97558162,112186690,112189576,112192462,112192462
165899658,2886,151268243,156144420,165896772,165896772,165896772,165899658,0,63407607,63422037,73177277,92690640,112212660,112212660,146331468,0,136576230,136576230,146322810,146322810,146322810,146331468,0,34139011,97558162,112186692,112189578,112192464,112192464
165899674,2886,151268258,156144434,165896788,165896788,165896788,165899674,0,63407614,63422044,73177282,92690646,112212667,112212667,146331466,0,136576226,136576226,146322808,146322808,146322808,146331466,0,34139004,97558156,112186685,112189571,112192457,112192457
165899659,2886,151268245,156144421,165896773,165896773,165896773,165899659,0,63407604,63422034,73177273,92690636,112212659,112212659,146331476,0,136576238,136576238,146322818,146322818,146322818,146331476,0,34139011,97558168,112186698,112189584,112192470,112192470
165899669,2886,151268253,156144430,165896783,165896783,165896783,165899669,0,63407613,63422043,73177282,92690646,112212666,112212666,146331459,0,136576219,136576219,146322801,146322801,146322801,146331459,0,34139004,97558152,112186681,112189567,112192453,112192453
165899668,2886,151268253,156144429,165896782,165896782,165896782,165899668,0,63407608,63422038,73177276,92690640,112212664,112212664,146331471,0,136576233,136576233,146322813,146322813,146322813,146331471,0,34139004,97558162,112186690,112189576,112192462,112192462
165899658,2886,151268243,156144420,165896772,165896772,165896772,165899658,0,63407607,63422037,73177277,92690640,112212660,112212660,146331468,0,136576230,136576230,146322810,146322810,146322810,146331468,0,34139011,97558162,112186692,112189578,112192464,112192464
165899674,2886,151268258,156144434,165896788,165896788,165896788,165899674,0,63407614,63422044,73177282,92690646,112212667,112212667,146331466,0,136576226,136576226,146322808,146322808,146322808,146331466,0,34139004,97558156,112186685,112189571,112192457,112192457
165899659,2886,151268245,156144421,165896773,165896773,165896773,165899659,0,63407604,63422034,73177273,92690636,112212659,112212659,146331476,0,136576238,136576238,146322818,146322818,146322818,146331476,0,34139011,97558168,112186698,112189584,112192470,112192470
165899649,2885,151268233,156144410,165896764,165896764,165896764,165899649,0,63407611,63422036,73177276,92690639,112212657,112212657,146331470,0,136576231,136576231,146322815,146322815,146322815,146331470,0,34139009,97558160,112186691,112189576,112192461,112192461
165899670,2886,151268253,156144430,165896784,165896784,165896784,165899670,0,63407613,63422043,73177281,92690645,112212666,112212666,146331460,0,136576220,136576220,146322802,146322802,146322802,146331460,0,34139004,97558152,112186681,112189567,112192453,112192453
165899667,2886,151268253,156144429,165896781,165896781,165896781,165899667,0,63407608,63422038,73177277,92690641,112212664,112212664,146331470,0,136576232,136576232,146322812,146322812,146322812,146331470,0,34139004,97558162,112186690,112189576,112192462,112192462
165899660,2886,151268244,156144421,165896774,165896774,165896774,165899660,0,63407607,63422037,73177276,92690640,112212660,112212660,146331468,0,136576230,136576230,146322810,146322810,146322810,146331468,0,34139011,97558162,112186692,112189578,112192464,112192464
165899675,2886,151268260,156144436,165896789,165896789,165896789,165899675,0,63407614,63422044,73177282,92690646,112212668,112212668,146331467,0,136576227,136576227,146322809,146322809,146322809,146331467,0,34139004,97558156,112186685,112189571,112192457,112192457
165899656,2886,151268242,156144418,165896770,165896770,165896770,165899656,0,63407604,63422034,73177274,92690636,112212658,112212658,146331475,0,136576237,136576237,146322817,146322817,146322817,146331475,0,34139011,97558168,112186698,112189584,112192470,112192470
165899670,2886,151268253,156144430,165896784,165896784,165896784,165899670,0,63407613,63422043,73177281,92690645,112212666,112212666,146331460,0,136576220,136576220,146322802,146322802,146322802,146331460,0,34139004,97558152,112186681,112189567,112192453,112192453
306044044,63,304721854,304800170,306043894,306043923,306043924,306043971,0,17871265,117368471,119155955,136323468,187200448,187200448,170892762,0,169201077,170192684,170892603,170892603,170892603,170892744,0,17401988,35273491,35508010,35508057,52362772,52362772
308327374,0,307222258,307222258,308327374,308327374,308327374,308327374,0,17129299,118247416,119905091,137034390,188422286,188422286,171292987,0,169732824,170740429,171292987,171292987,171292987,171292987,0,17129298,34258597,34258597,34258597,51387895,51387895
308327375,0,307222259,307222259,308327375,308327375,308327375,308327375,0,17129298,118247414,119905088,137034386,188422282,188422282,171292986,0,169732822,170740428,171292986,171292986,171292986,171292986,0,17129299,34258598,34258598,34258598,51387897,51387897
308327374,0,307222257,307222257,308327374,308327374,308327374,308327374,0,17129299,118247417,119905091,137034390,188422286,188422286,171292986,0,169732822,170740428,171292986,171292986,171292986,171292986,0,17129299,34258597,34258597,34258597,51387896,51387896
308327372,0,307222256,307222256,308327372,308327372,308327372,308327372,0,17129298,118247414,119905088,137034386,188422281,188422281,171292985,0,169732821,170740427,171292985,171292985,171292985,171292985,0,17129298,34258597,34258597,34258597,51387895,51387895
308327377,0,307222261,307222261,308327377,308327377,308327377,308327377,0,17129299,118247419,119905093,137034392,188422288,188422288,171292985,0,169732822,170740427,171292985,171292985,171292985,171292985,0,17129299,34258597,34258597,34258597,51387896,51387896
308327376,0,307222260,307222260,308327376,308327376,308327376,308327376,0,17129299,118247417,119905091,137034390,188422286,188422286,171292986,0,169732822,170740428,171292986,171292986,171292986,171292986,0,17129298,34258597,34258597,34258597,51387895,51387895
308327373,0,307222257,307222257,308327373,308327373,308327373,308327373,0,17129298,118247414,119905088,137034386,188422281,188422281,171292987,0,169732823,170740429,171292987,171292987,171292987,171292987,0,17129299,34258598,34258598,34258598,51387897,51387897
308327373,0,307222257,307222257,308327373,308327373,308327373,308327373,0,17129299,118247417,119905091,137034390,188422286,188422286,171292985,0,169732821,170740427,171292985,171292985,171292985,171292985,0,17129298,34258596,34258596,34258596,51387894,51387894
308327375,0,307222259,307222259,308327375,308327375,308327375,308327375,0,17129298,118247414,119905088,137034386,188422282,188422282,171292986,0,169732822,170740428,171292986,171292986,171292986,171292986,0,17129299,34258598,34258598,34258598,51387897,51387897
308327373,0,307222257,307222257,308327373,308327373,308327373,308327373,0,17129299,118247417,119905091,137034390,188422285,188422285,171292985,0,169732822,170740427,171292985,171292985,171292985,171292985,0,17129299,34258597,34258597,34258597,51387895,51387895
308327376,0,307222260,307222260,308327376,308327376,308327376,308327376,0,17129298,118247416,119905090,137034388,188422285,188422285,171292986,0,169732822,170740428,171292986,171292986,171292986,171292986,0,17129298,34258597,34258597,34258597,51387896,51387896
308327375,0,307222259,307222259,308327375,308327375,308327375,308327375,0,17129299,118247417,119905091,137034390,188422285,188422285,171292986,0,169732822,170740428,171292986,171292986,171292986,171292986,0,17129299,34258597,34258597,34258597,51387896,51387896
308327375,0,307222259,307222259,308327375,308327375,308327375,308327375,0,17129299,118247417,119905091,137034390,188422286,188422286,171292985,0,169732821,170740427,171292985,171292985,171292985,171292985,0,17129298,34258597,34258597,34258597,51387895,51387895
308327373,0,307222257,307222257,308327373,308327373,308327373,308327373,0,17129298,118247414,119905088,137034386,188422281,188422281,171292986,0,169732822,170740428,171292986,171292986,171292986,171292986,0,17129299,34258597,34258597,34258597,51387896,51387896
308327373,0,307222257,307222257,308327373,308327373,308327373,308327373,0,17129299,118247417,119905091,137034390,188422286,188422286,171292986,0,169732823,170740428,171292986,171292986,171292986,171292986,0,17129298,34258597,34258597,34258597,51387895,51387895
308327375,0,307222259,307222259,308327375,308327375,308327375,308327375,0,17129298,118247414,119905088,137034386,188422282,188422282,171292987,0,169732823,170740429,171292987,171292987,171292987,171292987,0,17129299,34258598,34258598,34258598,51387897,51387897
308327376,0,307222260,307222260,308327376,308327376,308327376,308327376,0,17129299,118247418,119905092,137034391,188422287,188422287,171292985,0,169732821,170740427,171292985,171292985,171292985,171292985,0,17129299,34258597,34258597,34258597,51387896,51387896
308327372,0,307222256,307222256,308327372,308327372,308327372,308327372,0,17129298,118247414,119905088,137034386,188422282,188422282,171292985,0,169732821,170740427,171292985,171292985,171292985,171292985,0,17129298,34258597,34258597,34258597,51387895,51387895
308327376,0,307222260,307222260,308327376,308327376,308327376,308327376,0,17129299,118247418,119905092,137034391,188422286,188422286,171292986,0,169732822,170740428,171292986,171292986,171292986,171292986,0,17129299,34258597,34258597,34258597,51387896,51387896
308327375,0,307222259,307222259,308327375,308327375,308327375,308327375,0,17129299,118247417,119905091,137034390,188422286,188422286,171292984,0,169732821,170740426,171292984,171292984,171292984,171292984,0,17129298,34258597,34258597,34258597,51387895,51387895
308327374,0,307222258,307222258,308327374,308327374,308327374,308327374,0,17129298,118247414,119905088,137034386,188422281,188422281,171292988,0,169732824,170740430,171292988,171292988,171292988,171292988,0,17129299,34258598,34258598,34258598,51387897,51387897
308327374,0,307222258,307222258,308327374,308327374,308327374,308327374,0,17129299,118247417,119905091,137034390,188422286,188422286,171292986,0,169732822,170740428,171292986,171292986,171292986,171292986,0,17129299,34258597,34258597,34258597,51387895,51387895
308327373,0,307222257,307222257,308327373,308327373,308327373,308327373,0,17129298,118247414,119905088,137034386,188422282,188422282,171292986,0,169732822,170740428,171292986,171292986,171292986,171292986,0,17129298,34258597,34258597,34258597,51387896,51387896
308327376,0,307222260,307222260,308327376,308327376,308327376,308327376,0,17129299,118247418,119905092,137034391,188422287,188422287,171292985,0,169732821,170740427,171292985,171292985,171292985,171292985,0,17129299,34258597,34258597,34258597,51387896,51387896
308327372,0,307222256,307222256,308327372,308327372,308327372,308327372,0,17129298,118247414,119905088,137034386,188422282,188422282,171292985,0,169732822,170740427,171292985,171292985,171292985,171292985,0,17129298,34258597,34258597,34258597,51387895,51387895
308327378,0,307222262,307222262,308327378,308327378,308327378,308327378,0,17129299,118247418,119905092,137034391,188422286,188422286,171292987,0,169732823,170740429,171292987,171292987,171292987,171292987,0,17129299,34258597,34258597,34258597,51387896,51387896
308327373,0,307222257,307222257,308327373,308327373,308327373,308327373,0,17129299,118247417,119905091,137034390,188422286,188422286,171292985,0,169732821,170740427,171292985,171292985,171292985,171292985,0,17129298,34258597,34258597,34258597,51387895,51387895
308327374,0,307222258,307222258,308327374,308327374,308327374,308327374,0,17129298,118247414,119905088,137034386,188422281,188422281,171292986,0,169732822,170740428,171292986,171292986,171292986,171292986,0,17129299,34258598,34258598,34258598,51387897,51387897
308327373,0,307222257,307222257,308327373,308327373,308327373,308327373,0,17129299,118247417,119905091,137034390,188422286,188422286,171292986,0,169732822,170740428,171292986,171292986,171292986,171292986,0,17129299,34258597,34258597,34258597,51387895,51387895
308327374,0,307222258,307222258,308327374,308327374,308327374,308327374,0,17129298,118247414,119905088,137034386,188422282,188422282,171292986,0,169732823,170740428,171292986,171292986,171292986,171292986,0,17129298,34258597,34258597,34258597,51387896,51387896
308327378,0,307222262,307222262,308327378,308327378,308327378,308327378,0,17129299,118247419,119905093,137034392,188422288,188422288,171292985,0,169732821,170740427,171292985,171292985,171292985,171292985,0,17129299,34258597,34258597,34258597,51387896,51387896
308327375,0,307222259,307222259,308327375,308327375,308327375,308327375,0,17129299,118247417,119905091,137034390,188422286,188422286,171292985,0,169732821,170740427,171292985,171292985,171292985,171292985,0,17129298,34258597,34258597,34258597,51387895,51387895
308327372,0,307222256,307222256,308327372,308327372,308327372,308327372,0,17129298,118247414,119905088,137034386,188422281,188422281,171292987,0,169732823,170740429,171292987,171292987,171292987,171292987,0,17129299,34258597,34258597,34258597,51387896,51387896
308327374,0,307222258,307222258,308327374,308327374,308327374,308327374,0,17129299,118247417,119905091,137034390,188422286,188422286,171292985,0,169732821,170740427,171292985,171292985,171292985,171292985,0,17129298,34258597,34258597,34258597,51387895,51387895
308327373,0,307222257,307222257,308327373,308327373,308327373,308327373,0,17129298,118247414,119905088,137034386,188422281,188422281,171292986,0,169732823,170740428,171292986,171292986,171292986,171292986,0,17129299,34258598,34258598,34258598,51387897,51387897
308327377,0,307222261,307222261,308327377,308327377,308327377,308327377,0,17129299,118247417,119905091,137034390,188422287,188422287,171292987,0,169732823,170740429,171292987,171292987,171292987,171292987,0,17129299,34258597,34258597,34258597,51387896,51387896
308327373,0,307222257,307222257,308327373,308327373,308327373,308327373,0,17129298,118247415,119905089,137034387,188422283,188422283,171292985,0,169732821,170740427,171292985,171292985,171292985,171292985,0,17129298,34258597,34258597,34258597,51387895,51387895
308327375,0,307222259,307222259,308327375,308327375,308327375,308327375,0,17129299,118247418,119905092,137034391,188422286,188422286,171292985,0,169732821,170740427,171292985,171292985,171292985,171292985,0,17129299,34258597,34258597,34258597,51387896,51387896
308327375,0,307222259,307222259,308327375,308327375,308327375,308327375,0,17129299,118247416,119905090,137034389,188422285,188422285,171292985,0,169732821,170740427,171292985,171292985,171292985,171292985,0,17129298,34258597,34258597,34258597,51387895,51387895
308327373,0,307222257,307222257,308327373,308327373,308327373,308327373,0,17129298,118247415,119905089,137034387,188422282,188422282,171292986,0,169732823,170740428,171292986,171292986,171292986,171292986,0,17129299,34258597,34258597,34258597,51387896,51387896
308327374,0,307222258,307222258,308327374,308327374,308327374,308327374,0,17129299,118247417,119905091,137034390,188422286,188422286,171292988,0,169732824,170740430,171292988,171292988,171292988,171292988,0,17129299,34258598,34258598,34258598,51387896,51387896
308327375,0,307222259,307222259,308327375,308327375,308327375,308327375,0,17129298,118247414,119905088,137034386,188422282,188422282,171292985,0,169732821,170740427,171292985,171292985,171292985,171292985,0,17129298,34258597,34258597,34258597,51387896,51387896
308327375,0,307222259,307222259,308327375,308327375,308327375,308327375,0,17129299,118247417,119905091,137034390,188422286,188422286,171292986,0,169732822,170740428,171292986,171292986,171292986,171292986,0,17129299,34258597,34258597,34258597,51387896,51387896
308327372,0,307222256,307222256,308327372,308327372,308327372,308327372,0,17129298,118247414,119905088,137034386,188422282,188422282,171292985,0,169732821,170740427,171292985,171292985,171292985,171292985,0,17129298,34258597,34258597,34258597,51387895,51387895
308327377,0,307222261,307222261,308327377,308327377,308327377,308327377,0,17129299,118247419,119905093,137034392,188422287,188422287,171292986,0,169732823,170740428,171292986,171292986,171292986,171292986,0,17129299,34258597,34258597,34258597,51387896,51387896
308327375,0,307222259,307222259,308327375,308327375,308327375,308327375,0,17129299,118247417,119905091,137034390,188422286,188422286,171292986,0,169732822,170740428,171292986,171292986,171292986,171292986,0,17129298,34258597,34258597,34258597,51387895,51387895
308327373,0,307222257,307222257,308327373,308327373,308327373,308327373,0,17129298,118247414,119905088,137034386,188422281,188422281,171292986,0,169732822,170740428,171292986,171292986,171292986,171292986,0,17129299,34258598,34258598,34258598,51387897,51387897
308327373,0,307222257,307222257,308327373,308327373,308327373,308327373,0,17129299,118247417,119905091,137034390,188422286,188422286,171292985,0,169732821,170740427,171292985,171292985,171292985,171292985,0,17129298,34258596,34258596,34258596,51387894,51387894
308327375,0,307222259,307222259,308327375,308327375,308327375,308327375,0,17129298,118247414,119905088,137034386,188422282,188422282,171292986,0,169732822,170740428,171292986,171292986,171292986,171292986,0,17129299,34258598,34258598,34258598,51387897,51387897
308327377,0,307222261,307222261,308327377,308327377,308327377,308327377,0,17129299,118247419,119905093,137034392,188422288,188422288,171292986,0,169732823,170740428,171292986,171292986,171292986,171292986,0,17129299,34258597,34258597,34258597,51387896,51387896
308327375,0,307222258,307222258,308327375,308327375,308327375,308327375,0,17129299,118247416,119905090,137034389,188422285,188422285,171292985,0,169732821,170740427,171292985,171292985,171292985,171292985,0,17129298,34258597,34258597,34258597,51387895,51387895
308327373,0,307222257,307222257,308327373,308327373,308327373,308327373,0,17129298,118247414,119905089,137034387,188422282,188422282,171292986,0,169732821,170740427,171292986,171292986,171292986,171292986,0,17129299,34258597,34258597,34258597,51387896,51387896
308327374,0,307222258,307222258,308327374,308327374,308327374,308327374,0,17129299,118247416,119905091,137034390,188422286,188422286,171292986,0,169732822,170740428,171292986,171292986,171292986,171292986,0,17129298,34258597,34258597,34258597,51387895,51387895
308327373,0,307222257,307222257,308327373,308327373,308327373,308327373,0,17129298,118247414,119905088,137034386,188422281,188422281,171292986,0,169732822,170740428,171292986,171292986,171292986,171292986,0,17129299,34258598,34258598,34258598,51387897,51387897
308327377,0,307222261,307222261,308327377,308327377,308327377,308327377,0,17129299,118247416,119905091,137034390,188422287,188422287,171292987,0,169732824,170740429,171292987,171292987,171292987,171292987,0,17129299,34258597,34258597,34258597,51387896,51387896
308327372,0,307222256,307222256,308327372,308327372,308327372,308327372,0,17129298,118247414,119905088,137034386,188422282,188422282,171292985,0,169732821,170740427,171292985,171292985,171292985,171292985,0,17129298,34258597,34258597,34258597,51387895,51387895
308327376,0,307222259,307222259,308327376,308327376,308327376,308327376,0,17129299,118247419,119905093,137034392,188422287,188422287,171292985,0,169732821,170740427,171292985,171292985,171292985,171292985,0,17129299,34258597,34258597,34258597,51387896,51387896
308327374,0,307222258,307222258,308327374,308327374,308327374,308327374,0,17129299,118247416,119905090,137034388,188422284,188422284,171292985,0,169732821,170740427,171292985,171292985,171292985,171292985,0,17129298,34258597,34258597,34258597,51387895,51387895
308327374,0,307222258,307222258,308327374,308327374,308327374,308327374,0,17129298,118247415,119905089,137034388,188422283,188422283,171292986,0,169732822,170740428,171292986,171292986,171292986,171292986,0,17129299,34258597,34258597,34258597,51387896,51387896
308327374,0,307222258,307222258,308327374,308327374,308327374,308327374,0,17129299,118247417,119905091,137034390,188422286,188422286,171292987,0,169732824,170740429,171292987,171292987,171292987,171292987,0,17129298,34258597,34258597,34258597,51387895,51387895
308327375,0,307222259,307222259,308327375,308327375,308327375,308327375,0,17129298,118247414,119905088,137034386,188422282,188422282,171292986,0,169732822,170740428,171292986,171292986,171292986,171292986,0,17129299,34258598,34258598,34258598,51387897,51387897
308327374,0,307222258,307222258,308327374,308327374,308327374,308327374,0,17129299,118247417,119905091,137034390,188422286,188422286,171292986,0,169732822,170740428,171292986,171292986,171292986,171292986,0,17129299,34258597,34258597,34258597,51387896,51387896
308327372,0,307222256,307222256,308327372,308327372,308327372,308327372,0,17129298,118247414,119905088,137034386,188422281,188422281,171292985,0,169732821,170740427,171292985,171292985,171292985,171292985,0,17129298,34258597,34258597,34258597,51387895,51387895
308327377,0,307222261,307222261,308327377,308327377,308327377,308327377,0,17129299,118247419,119905093,137034392,188422288,188422288,171292985,0,169732821,170740427,171292985,171292985,171292985,171292985,0,17129299,34258597,34258597,34258597,51387896,51387896
308327376,0,307222260,307222260,308327376,308327376,308327376,308327376,0,17129299,118247417,119905091,137034390,188422286,188422286,171292986,0,169732823,170740428,171292986,171292986,171292986,171292986,0,17129298,34258597,34258597,34258597,51387895,51387895
308327373,0,307222257,307222257,308327373,308327373,308327373,308327373,0,17129298,118247414,119905088,137034386,188422281,188422281,171292987,0,169732823,170740429,171292987,171292987,171292987,171292987,0,17129299,34258598,34258598,34258598,51387897,51387897
308327373,0,307222257,307222257,308327373,308327373,308327373,308327373,0,17129299,118247417,119905091,137034390,188422286,188422286,171292985,0,169732821,170740427,171292985,171292985,171292985,171292985,0,17129298,34258596,34258596,34258596,51387894,51387894
308327375,0,307222259,307222259,308327375,308327375,308327375,308327375,0,17129298,118247414,119905088,137034386,188422282,188422282,171292986,0,169732822,170740428,171292986,171292986,171292986,171292986,0,17129299,34258598,34258598,34258598,51387897,51387897
308327374,0,307222258,307222258,308327374,308327374,308327374,308327374,0,17129299,118247417,119905091,137034390,188422286,188422286,171292986,0,169732822,170740428,171292986,171292986,171292986,171292986,0,17129299,34258597,34258597,34258597,51387896,51387896
308327376,0,307222260,307222260,308327376,308327376,308327376,308327376,0,17129299,118247417,119905091,137034389,188422285,188422285,171292985,0,169732822,170740427,171292985,171292985,171292985,171292985,0,17129298,34258597,34258597,34258597,51387895,51387895
308327375,0,307222259,307222259,308327375,308327375,308327375,308327375,0,17129298,118247416,119905090,137034389,188422284,188422284,171292986,0,169732822,170740428,171292986,171292986,171292986,171292986,0,17129299,34258597,34258597,34258597,51387896,51387896
308327374,0,307222258,307222258,308327374,308327374,308327374,308327374,0,17129299,118247417,119905091,137034390,188422286,188422286,171292985,0,169732821,170740427,171292985,171292985,171292985,171292985,0,17129298,34258597,34258597,34258597,51387895,51387895
308327373,0,307222257,307222257,308327373,308327373,308327373,308327373,0,17129298,118247414,119905088,137034386,188422281,188422281,171292987,0,169732823,170740429,171292987,171292987,171292987,171292987,0,17129299,34258598,34258598,34258598,51387897,51387897
308327373,0,307222257,307222257,308327373,308327373,308327373,308327373,0,17129299,118247417,119905091,137034390,188422286,188422286,171292985,0,169732821,170740427,171292985,171292985,171292985,171292985,0,17129298,34258596,34258596,34258596,51387894,51387894
308327375,0,307222259,307222259,308327375,308327375,308327375,308327375,0,17129298,118247414,119905088,137034386,188422282,188422282,171292987,0,169732824,170740429,171292987,171292987,171292987,171292987,0,17129299,34258598,34258598,34258598,51387897,51387897
308327377,0,307222261,307222261,308327377,308327377,308327377,308327377,0,17129299,118247419,119905093,137034392,188422288,188422288,171292985,0,169732821,170740427,171292985,171292985,171292985,171292985,0,17129299,34258597,34258597,34258597,51387896,51387896
308327372,0,307222256,307222256,308327372,308327372,308327372,308327372,0,17129298,118247414,119905088,137034386,188422282,188422282,171292985,0,169732821,170740427,171292985,171292985,171292985,171292985,0,17129298,34258597,34258597,34258597,51387895,51387895
308327375,0,307222259,307222259,308327375,308327375,308327375,308327375,0,17129299,118247417,119905091,137034390,188422285,188422285,171292986,0,169732822,170740428,171292986,171292986,171292986,171292986,0,17129299,34258597,34258597,34258597,51387896,51387896
308327375,0,307222259,307222259,308327375,308327375,308327375,308327375,0,17129299,118247417,119905091,137034390,188422286,188422286,171292985,0,169732821,170740427,171292985,171292985,171292985,171292985,0,17129298,34258597,34258597,34258597,51387895,51387895
308327375,0,307222259,307222259,308327375,308327375,308327375,308327375,0,17129298,118247414,119905088,137034386,188422282,188422282,171292988,0,169732825,170740430,171292988,171292988,171292988,171292988,0,17129299,34258598,34258598,34258598,51387897,51387897
308327373,0,307222257,307222257,308327373,308327373,308327373,308327373,0,17129299,118247417,119905091,137034390,188422285,188422285,171292985,0,169732821,170740427,171292985,171292985,171292985,171292985,0,17129299,34258597,34258597,34258597,51387895,51387895
308327373,0,307222257,307222257,308327373,308327373,308327373,308327373,0,17129298,118247414,119905088,137034386,188422282,188422282,171292986,0,169732822,170740428,171292986,171292986,171292986,171292986,0,17129298,34258597,34258597,34258597,51387896,51387896
308327376,0,307222260,307222260,308327376,308327376,308327376,308327376,0,17129299,118247418,119905092,137034391,188422287,188422287,171292985,0,169732821,170740427,171292985,171292985,171292985,171292985,0,17129299,34258597,34258597,34258597,51387896,51387896
308327372,0,307222256,307222256,308327372,308327372,308327372,308327372,0,17129298,118247414,119905088,137034386,188422282,188422282,171292985,0,169732821,170740427,171292985,171292985,171292985,171292985,0,17129298,34258597,34258597,34258597,51387895,51387895
308327378,0,307222262,307222262,308327378,308327378,308327378,308327378,0,17129299,118247418,119905092,137034391,188422286,188422286,171292987,0,169732824,170740429,171292987,171292987,171292987,171292987,0,17129299,34258597,34258597,34258597,51387896,51387896
308327373,0,307222257,307222257,308327373,308327373,308327373,308327373,0,17129299,118247417,119905091,137034390,188422286,188422286,171292986,0,169732822,170740428,171292986,171292986,171292986,171292986,0,17129298,34258597,34258597,34258597,51387895,51387895
308327374,0,307222258,307222258,308327374,308327374,308327374,308327374,0,17129298,118247414,119905088,137034386,188422281,188422281,171292985,0,169732821,170740427,171292985,171292985,171292985,171292985,0,17129299,34258598,34258598,34258598,51387897,51387897
308327374,0,307222258,307222258,308327374,308327374,308327374,308327374,0,17129299,118247417,119905091,137034390,188422286,188422286,171292986,0,169732822,170740428,171292986,171292986,171292986,171292986,0,17129299,34258597,34258597,34258597,51387895,51387895
308327373,0,307222257,307222257,308327373,308327373,308327373,308327373,0,17129298,118247414,119905088,137034386,188422282,188422282,171292986,0,169732822,170740428,171292986,171292986,171292986,171292986,0,17129298,34258597,34258597,34258597,51387896,51387896
308327378,0,307222262,307222262,308327378,308327378,308327378,308327378,0,17129299,118247419,119905093,137034392,188422288,188422288,171292986,0,169732823,170740428,171292986,171292986,171292986,171292986,0,17129299,34258597,34258597,34258597,51387896,51387896
308327375,0,307222259,307222259,308327375,308327375,308327375,308327375,0,17129299,118247417,119905091,137034390,188422286,188422286,171292984,0,169732820,170740426,171292984,171292984,171292984,171292984,0,17129298,34258597,34258597,34258597,51387895,51387895
308327373,0,307222257,307222257,308327373,308327373,308327373,308327373,0,17129298,118247414,119905088,137034386,188422281,188422281,171292987,0,169732823,170740429,171292987,171292987,171292987,171292987,0,17129299,34258597,34258597,34258597,51387896,51387896
308327373,0,307222257,307222257,308327373,308327373,308327373,308327373,0,17129299,118247417,119905091,137034390,188422286,188422286,171292985,0,169732821,170740427,171292985,171292985,171292985,171292985,0,17129298,34258597,34258597,34258597,51387895,51387895
308327374,0,307222258,307222258,308327374,308327374,308327374,308327374,0,17129298,118247414,119905088,137034386,188422281,188422281,171292986,0,169732822,170740428,171292986,171292986,171292986,171292986,0,17129299,34258598,34258598,34258598,51387897,51387897
308327377,0,307222261,307222261,308327377,308327377,308327377,308327377,0,17129299,118247418,119905092,137034391,188422288,188422288,171292987,0,169732824,170740429,171292987,171292987,171292987,171292987,0,17129299,34258597,34258597,34258597,51387896,51387896
308327372,0,307222256,307222256,308327372,308327372,308327372,308327372,0,17129298,118247414,119905088,137034386,188422282,188422282,171292985,0,169732821,170740427,171292985,171292985,171292985,171292985,0,17129298,34258597,34258597,34258597,51387895,51387895
308327376,0,307222260,307222260,308327376,308327376,308327376,308327376,0,17129299,118247418,119905092,137034391,188422286,188422286,171292985,0,169732821,170740427,171292985,171292985,171292985,171292985,0,17129299,34258597,34258597,34258597,51387896,51387896
308327375,0,307222259,307222259,308327375,308327375,308327375,308327375,0,17129299,118247417,119905091,137034390,188422286,188422286,171292985,0,169732821,170740427,171292985,171292985,171292985,171292985,0,17129298,34258597,34258597,34258597,51387895,51387895
90255309,0,89966644,89966644,90255298,90255298,90255298,90255298,0,14195223,40606976,41039957,45514079,58936446,58936446,209999752,0,199871136,209855422,209999750,209999750,209999750,209999750,0,160011552,174206771,174206771,174206771,178680894,178680894
13157895,0,13157895,13157895,13157895,13157895,13157895,13157895,0,13157895,13157895,13157895,13157895,13157895,13157895,223684210,0,210526315,223684210,223684210,223684210,223684210,223684210,0,210526315,223684210,223684210,223684210,223684210,223684210
13157894,0,13157894,13157894,13157894,13157894,13157894,13157894,0,13157894,13157894,13157894,13157894,13157894,13157894,223684212,0,210526318,223684212,223684212,223684212,223684212,223684212,0,210526318,223684212,223684212,223684212,223684212,223684212
13157895,0,13157895,13157895,13157895,13157895,13157895,13157895,0,13157895,13157895,13157895,13157895,13157895,13157895,223684210,0,210526315,223684210,223684210,223684210,223684210,223684210,0,210526315,223684210,223684210,223684210,223684210,223684210
13157895,0,13157895,13157895,13157895,13157895,13157895,13157895,0,13157895,13157895,13157895,13157895,13157895,13157895,223684210,0,210526315,223684210,223684210,223684210,223684210,223684210,0,210526315,223684210,223684210,223684210,223684210,223684210
13157895,0,13157895,13157895,13157895,13157895,13157895,13157895,0,13157895,13157895,13157895,13157895,13157895,13157895,223684210,0,210526316,223684210,223684210,223684210,223684210,223684210,0,210526316,223684210,223684210,223684210,223684210,223684210
13157894,0,13157894,13157894,13157894,13157894,13157894,13157894,0,13157894,13157894,13157894,13157894,13157894,13157894,223684212,0,210526317,223684212,223684212,223684212,223684212,223684212,0,210526317,223684212,223684212,223684212,223684212,223684212
53492292,0,53332274,53332274,53492281,53492281,53492281,53492281,0,13811612,28451863,28691867,31171908,38612032,38612032,217436700,0,206025128,217356687,217436691,217436691,217436691,217436691,0,183784753,197596365,197596366,197596366,200076407,200076407
303746399,0,302593661,302593661,303746399,303746399,303746399,303746399,0,17867436,123342941,125072048,142939483,196541789,196541789,178674350,0,178097981,178097981,178674350,178674350,178674350,178674350,0,17867435,35734870,35734870,35734870,53602305,53602305
303746398,0,302593660,302593660,303746398,303746398,303746398,303746398,0,17867435,123342940,125072047,142939483,196541788,196541788,178674352,0,178097983,178097983,178674352,178674352,178674352,178674352,0,17867435,35734870,35734870,35734870,53602305,53602305
303746397,0,302593659,302593659,303746397,303746397,303746397,303746397,0,17867435,123342938,125072045,142939480,196541785,196541785,178674352,0,178097983,178097983,178674352,178674352,178674352,178674352,0,17867436,35734871,35734871,35734871,53602306,53602306
303746399,0,302593661,302593661,303746399,303746399,303746399,303746399,0,17867435,123342940,125072047,142939482,196541788,196541788,178674351,0,178097982,178097982,178674351,178674351,178674351,178674351,0,17867435,35734870,35734870,35734870,53602306,53602306
303746397,0,302593659,302593659,303746397,303746397,303746397,303746397,0,17867435,123342938,125072045,142939480,196541785,196541785,178674353,0,178097984,178097984,178674353,178674353,178674353,178674353,0,17867435,35734871,35734871,35734871,53602306,53602306
371404390,42,293443834,293443934,371403974,371404031,371404031,371404031,0,8183086,56488067,57280015,65462836,90011202,90011202,81828472,0,81564058,81564140,81828318,81828321,81828321,81828321,0,8182882,16366056,16366136,16366143,24548926,24548926
428571313,6,285714203,285714215,428571233,428571242,428571242,428571242,0,44,85,107,111,113,115,123,0,104,105,105,105,105,105,0,19,98,111,111,111,111
428571403,0,285714275,285714276,428571400,428571400,428571400,428571400,0,4,9,13,13,13,14,17,0,17,17,17,17,17,17,0,3,13,14,14,14,14
428571374,0,285714262,285714264,428571368,428571368,428571368,428571368,0,8,18,26,26,26,28,34,0,34,34,34,34,34,34,0,6,26,28,28,28,28
428571403,0,285714275,285714276,428571400,428571400,428571400,428571400,0,4,9,13,13,13,14,17,0,17,17,17,17,17,17,0,3,13,14,14,14,14
428571400,0,285714273,285714274,428571397,428571397,428571397,428571397,0,4,9,13,13,13,14,17,0,17,17,17,17,17,17,0,3,13,14,14,14,14
428571376,0,285714263,285714265,428571370,428571370,428571370,428571370,0,8,18,26,26,26,28,34,0,34,34,34,34,34,34,0,6,26,28,28,28,28
428571401,0,285714274,285714275,428571398,428571398,428571398,428571398,0,4,9,13,13,13,14,17,0,17,17,17,17,17,17,0,3,13,14,14,14,14
428571375,0,285714263,285714265,428571369,428571369,428571369,428571369,0,8,18,26,26,26,28,34,0,34,34,34,34,34,34,0,6,26,28,28,28,28
428571402,0,285714274,285714275,428571399,428571399,428571399,428571399,0,4,9,13,13,13,14,17,0,17,17,17,17,17,17,0,3,13,14,14,14,14
428571374,0,285714262,285714264,428571368,428571368,428571368,428571368,0,8,18,26,26,26,28,34,0,34,34,34,34,34,34,0,6,26,28,28,28,28
375269506,35,250179568,250179802,375269231,375269259,375269260,375269260,0,310,438,546,564,595,596,31093192,19,514,723,31093105,31093105,31093105,31093105,0,183,564,653,680,680,680
272727274,0,181818184,181818184,272727274,272727274,272727274,272727274,0,0,0,0,0,0,0,90909091,0,0,0,90909091,90909091,90909091,90909091,0,0,0,0,0,0,0
272727272,0,181818179,181818179,272727267,272727267,272727267,272727267,0,0,3,3,3,3,3,90909090,0,0,0,90909088,90909088,90909088,90909088,0,0,0,0,0,0,0
272727273,0,181818182,181818182,272727273,272727273,272727273,272727273,0,0,0,0,0,0,0,90909090,0,0,0,90909090,90909090,90909090,90909090,0,0,0,0,0,0,0
272727272,0,181818181,181818181,272727272,272727272,272727272,272727272,0,0,0,0,0,0,0,90909092,0,0,0,90909092,90909092,90909092,90909092,0,0,0,0,0,0,0
272727273,0,181818180,181818180,272727268,272727268,272727268,272727268,0,0,3,3,3,3,3,90909090,0,0,0,90909088,90909088,90909088,90909088,0,0,0,0,0,0,0
272727274,0,181818184,181818184,272727274,272727274,272727274,272727274,0,0,0,0,0,0,0,90909090,0,0,0,90909090,90909090,90909090,90909090,0,0,0,0,0,0,0
272727274,0,181818181,181818181,272727269,272727269,272727269,272727269,0,0,3,3,3,3,3,90909090,0,0,0,90909088,90909088,90909088,90909088,0,0,0,0,0,0,0
272727272,0,181818180,181818180,272727272,272727272,272727272,272727272,0,0,0,0,0,0,0,90909091,0,0,0,90909091,90909091,90909091,90909091,0,0,0,0,0,0,0
272727274,0,181818181,181818181,272727269,272727269,272727269,272727269,0,0,3,3,3,3,3,90909089,0,0,0,90909087,90909087,90909087,90909087,0,0,0,0,0,0,0
272727272,0,181818182,181818182,272727272,272727272,272727272,272727272,0,0,0,0,0,0,0,90909092,0,0,0,90909092,90909092,90909092,90909092,0,0,0,0,0,0,0
272727273,0,181818180,181818180,272727268,272727268,272727268,272727268,0,0,3,3,3,3,3,90909090,0,0,0,90909088,90909088,90909088,90909088,0,0,0,0,0,0,0
272727274,0,181818183,181818183,272727274,272727274,272727274,272727274,0,0,0,0,0,0,0,90909090,0,0,0,90909090,90909090,90909090,90909090,0,0,0,0,0,0,0
272727273,0,181818181,181818181,272727268,272727268,272727268,272727268,0,0,3,3,3,3,3,90909090,0,0,0,90909088,90909088,90909088,90909088,0,0,0,0,0,0,0
272727272,0,181818180,181818180,272727272,272727272,272727272,272727272,0,0,0,0,0,0,0,90909092,0,0,0,90909092,90909092,90909092,90909092,0,0,0,0,0,0,0
272727274,0,181818184,181818184,272727274,272727274,272727274,272727274,0,0,0,0,0,0,0,90909090,0,0,0,90909090,90909090,90909090,90909090,0,0,0,0,0,0,0
272727274,0,181818181,181818181,272727269,272727269,272727269,272727269,0,0,3,3,3,3,3,90909090,0,0,0,90909088,90909088,90909088,90909088,0,0,0,0,0,0,0
272727272,0,181818180,181818180,272727272,272727272,272727272,272727272,0,0,0,0,0,0,0,90909090,0,0,0,90909090,90909090,90909090,90909090,0,0,0,0,0,0,0
272727273,0,181818181,181818181,272727268,272727268,272727268,272727268,0,0,3,3,3,3,3,90909090,0,0,0,90909088,90909088,90909088,90909088,0,0,0,0,0,0,0
272727272,0,181818181,181818181,272727272,272727272,272727272,272727272,0,0,0,0,0,0,0,90909092,0,0,0,90909092,90909092,90909092,90909092,0,0,0,0,0,0,0
272727273,0,181818180,181818180,272727268,272727268,272727268,272727268,0,0,3,3,3,3,3,90909090,0,0,0,90909088,90909088,90909088,90909088,0,0,0,0,0,0,0
272727274,0,181818184,181818184,272727274,272727274,272727274,272727274,0,0,0,0,0,0,0,90909090,0,0,0,90909090,90909090,90909090,90909090,0,0,0,0,0,0,0
272727274,0,181818181,181818181,272727269,272727269,272727269,272727269,0,0,3,3,3,3,3,90909090,0,0,0,90909088,90909088,90909088,90909088,0,0,0,0,0,0,0
272727272,0,181818180,181818180,272727272,272727272,272727272,272727272,0,0,0,0,0,0,0,90909091,0,0,0,90909091,90909091,90909091,90909091,0,0,0,0,0,0,0
272727274,0,181818181,181818181,272727269,272727269,272727269,272727269,0,0,3,3,3,3,3,90909089,0,0,0,90909087,90909087,90909087,90909087,0,0,0,0,0,0,0
272727272,0,181818182,181818182,272727272,272727272,272727272,272727272,0,0,0,0,0,0,0,90909092,0,0,0,90909092,90909092,90909092,90909092,0,0,0,0,0,0,0
272727273,0,181818182,181818182,272727273,272727273,272727273,272727273,0,0,0,0,0,0,0,90909090,0,0,0,90909090,90909090,90909090,90909090,0,0,0,0,0,0,0
272727274,0,181818181,181818181,272727269,272727269,272727269,272727269,0,0,3,3,3,3,3,90909090,0,0,0,90909088,90909088,90909088,90909088,0,0,0,0,0,0,0
272727271,0,181818180,181818180,272727271,272727271,272727271,272727271,0,0,0,0,0,0,0,90909092,0,0,0,90909092,90909092,90909092,90909092,0,0,0,0,0,0,0
272727274,0,181818181,181818181,272727269,272727269,272727269,272727269,0,0,3,3,3,3,3,90909090,0,0,0,90909088,90909088,90909088,90909088,0,0,0,0,0,0,0
272727274,0,181818184,181818184,272727274,272727274,272727274,272727274,0,0,0,0,0,0,0,90909090,0,0,0,90909090,90909090,90909090,90909090,0,0,0,0,0,0,0
272727274,0,181818181,181818181,272727269,272727269,272727269,272727269,0,0,3,3,3,3,3,90909090,0,0,0,90909088,90909088,90909088,90909088,0,0,0,0,0,0,0
272727272,0,181818180,181818180,272727272,272727272,272727272,272727272,0,0,0,0,0,0,0,90909090,0,0,0,90909090,90909090,90909090,90909090,0,0,0,0,0,0,0
272727273,0,181818181,181818181,272727268,272727268,272727268,272727268,0,0,3,3,3,3,3,90909090,0,0,0,90909088,90909088,90909088,90909088,0,0,0,0,0,0,0
272727272,0,181818181,181818181,272727272,272727272,272727272,272727272,0,0,0,0,0,0,0,90909092,0,0,0,90909092,90909092,90909092,90909092,0,0,0,0,0,0,0
270063306,22,187556074,187556094,265554798,265554824,265554825,265554825,0,10519652,12022505,12022527,12022539,15028131,15028131,94529531,0,15028009,15028016,93026722,93026722,93026722,93026722,0,36,10519712,10519730,10519734,10519734,10519734
253968257,0,222222226,222222226,222222226,222222226,222222226,222222226,0,74074076,84656087,84656087,84656087,105820108,105820108,116402116,0,105820105,105820105,105820105,105820105,105820105,105820105,0,0,74074073,74074073,74074073,74074073,74074073
253968250,0,222222218,222222218,222222218,222222218,222222218,222222218,0,74074071,84656082,84656082,84656082,105820103,105820103,116402116,0,105820105,105820105,105820105,105820105,105820105,105820105,0,0,74074074,74074074,74074074,74074074,74074074
253968255,0,222222223,222222223,222222223,222222223,222222223,222222223,0,74074077,84656087,84656087,84656087,105820108,105820108,116402119,0,105820109,105820109,105820109,105820109,105820109,105820109,0,0,74074077,74074077,74074077,74074077,74074077
253968256,0,222222225,222222225,222222225,222222225,222222225,222222225,0,74074075,84656086,84656086,84656086,105820107,105820107,116402113,0,105820102,105820102,105820102,105820102,105820102,105820102,0,0,74074070,74074070,74074070,74074070,74074070
253968252,0,222222219,222222219,222222219,222222219,222222219,222222219,0,74074072,84656082,84656082,84656082,105820104,105820104,116402118,0,105820108,105820108,105820108,105820108,105820108,105820108,0,0,74074077,74074077,74074077,74074077,74074077
253968259,0,222222228,222222228,222222228,222222228,222222228,222222228,0,74074076,84656087,84656087,84656087,105820108,105820108,116402114,0,105820103,105820103,105820103,105820103,105820103,105820103,0,0,74074070,74074070,74074070,74074070,74074070
253968249,0,222222217,222222217,222222217,222222217,222222217,222222217,0,74074071,84656082,84656082,84656082,105820103,105820103,116402118,0,105820108,105820108,105820108,105820108,105820108,105820108,0,0,74074077,74074077,74074077,74074077,74074077
253968256,0,222222224,222222224,222222224,222222224,222222224,222222224,0,74074077,84656087,84656087,84656087,105820108,105820108,116402120,0,105820109,105820109,105820109,105820109,105820109,105820109,0,0,74074077,74074077,74074077,74074077,74074077
253968250,0,222222219,222222219,222222219,222222219,222222219,222222219,0,74074070,84656081,84656081,84656081,105820102,105820102,116402113,0,105820102,105820102,105820102,105820102,105820102,105820102,0,0,74074070,74074070,74074070,74074070,74074070
253968255,0,222222223,222222223,222222223,222222223,222222223,222222223,0,74074077,84656087,84656087,84656087,105820108,105820108,116402118,0,105820108,105820108,105820108,105820108,105820108,105820108,0,0,74074077,74074077,74074077,74074077,74074077
253968260,0,222222229,222222229,222222229,222222229,222222229,222222229,0,74074076,84656087,84656087,84656087,105820108,105820108,116402114,0,105820103,105820103,105820103,105820103,105820103,105820103,0,0,74074070,74074070,74074070,74074070,74074070
253968249,0,222222216,222222216,222222216,222222216,222222216,222222216,0,74074071,84656081,84656081,84656081,105820103,105820103,116402118,0,105820108,105820108,105820108,105820108,105820108,105820108,0,0,74074077,74074077,74074077,74074077,74074077
253968257,0,222222226,222222226,222222226,222222226,222222226,222222226,0,74074076,84656087,84656087,84656087,105820108,105820108,116402114,0,105820103,105820103,105820103,105820103,105820103,105820103,0,0,74074071,74074071,74074071,74074071,74074071
253968249,0,222222217,222222217,222222217,222222217,222222217,222222217,0,74074071,84656082,84656082,84656082,105820103,105820103,116402118,0,105820107,105820107,105820107,105820107,105820107,105820107,0,0,74074076,74074076,74074076,74074076,74074076
253968256,0,222222224,222222224,222222224,222222224,222222224,222222224,0,74074077,84656087,84656087,84656087,105820108,105820108,116402119,0,105820109,105820109,105820109,105820109,105820109,105820109,0,0,74074077,74074077,74074077,74074077,74074077
253968255,0,222222224,222222224,222222224,222222224,222222224,222222224,0,74074074,84656085,84656085,84656085,105820106,105820106,116402113,0,105820102,105820102,105820102,105820102,105820102,105820102,0,0,74074070,74074070,74074070,74074070,74074070
253968252,0,222222219,222222219,222222219,222222219,222222219,222222219,0,74074073,84656083,84656083,84656083,105820104,105820104,116402118,0,105820108,105820108,105820108,105820108,105820108,105820108,0,0,74074077,74074077,74074077,74074077,74074077
253968260,0,222222229,222222229,222222229,222222229,222222229,222222229,0,74074076,84656087,84656087,84656087,105820109,105820109,116402114,0,105820103,105820103,105820103,105820103,105820103,105820103,0,0,74074070,74074070,74074070,74074070,74074070
260041993,231,185330328,185330763,185330961,185331065,185331075,185331082,0,67404289,81054300,86683252,86683807,102726854,102732588,144510978,51,91469370,91469716,91469898,91469938,91469938,91469938,0,5628292,78660140,78661460,78661686,78662405,78668139
279069768,0,69767442,69767442,69767442,69767442,69767442,69767442,0,46511628,69767442,93023256,93023256,93023256,93023256,232558139,0,46511628,46511628,46511628,46511628,46511628,46511628,0,23255814,93023255,93023255,93023255,93023255,93023255
279069768,0,69767442,69767442,69767442,69767442,69767442,69767442,0,46511628,69767442,93023256,93023256,93023256,93023256,232558139,0,46511628,46511628,46511628,46511628,46511628,46511628,0,23255814,93023255,93023255,93023255,93023255,93023255
279069768,0,69767442,69767442,69767442,69767442,69767442,69767442,0,46511628,69767442,93023256,93023256,93023256,93023256,232558139,0,46511628,46511628,46511628,46511628,46511628,46511628,0,23255814,93023255,93023255,93023255,93023255,93023255
279069768,0,69767442,69767442,69767442,69767442,69767442,69767442,0,46511628,69767442,93023256,93023256,93023256,93023256,232558138,0,46511628,46511628,46511628,46511628,46511628,46511628,0,23255813,93023255,93023255,93023255,93023255,93023255
279069768,0,69767442,69767442,69767442,69767442,69767442,69767442,0,46511628,69767442,93023256,93023256,93023256,93023256,232558139,0,46511628,46511628,46511628,46511628,46511628,46511628,0,23255814,93023256,93023256,93023256,93023256,93023256
279069768,0,69767442,69767442,69767442,69767442,69767442,69767442,0,46511628,69767442,93023256,93023256,93023256,93023256,232558139,0,46511627,46511627,46511627,46511627,46511627,46511627,0,23255814,93023256,93023256,93023256,93023256,93023256
279069767,0,69767441,69767441,69767441,69767441,69767441,69767441,0,46511628,69767442,93023256,93023256,93023256,93023256,232558140,0,46511628,46511628,46511628,46511628,46511628,46511628,0,23255814,93023256,93023256,93023256,93023256,93023256
279069767,0,69767442,69767442,69767442,69767442,69767442,69767442,0,46511628,69767441,93023255,93023255,93023255,93023255,232558140,0,46511628,46511628,46511628,46511628,46511628,46511628,0,23255814,93023256,93023256,93023256,93023256,93023256
99919586,207,24982606,24983134,24983448,24983744,24983764,24983764,0,16653780,24980921,33308017,33308489,33309297,33315032,83264335,19,16654662,16655070,16655324,16655369,16655370,16655370,0,8326617,33306744,33307498,33307612,33307980,33310847
number,of,instructions:,227358045450
