omp threads,time,kernel_time
1,0.000220376998,0.000198000000
2,0.000234967098,0.000204000000
4,0.000309748109,0.000273000000
8,0.000358684920,0.000293000000
10,0.000527846627,0.000463000000
20,0.002843080088,0.002730000000
30,0.005539382808,0.005366000000
40,0.006008946802,0.005765000000
