omp threads,total ins,total cyc ,Ipc (per thread),,ipc (dice-wise)
1,1914184842459,1218291127937,1.571204779026,,0.007014307049221
2,1916045171920,604014837561,1.586091146086,,0.014161528090053
4,1924811194966,311161569531,1.546472462736,,0.02761557969172
6,1923962835029,207983843068,1.541756646933,,0.041297053042858
8,1929940150475,158506374543,1.521973608348,,0.054356200298144
10,1933157554354,128707710062,1.501974942622,,0.067052452795632
12,1935439524809,109128605410,1.477950043084,,0.079175895165219
14,1946154539182,95659868422,1.453180323224,,0.090823770201469
16,1946769153971,84547045129,1.439116789209,,0.102794056372099
18,1956029661393,78668473093,1.381345159622,,0.111000950326731
20,1960392641292,71388724921,1.373040801234,,0.122592928681603
22,1969567854687,67771603527,1.320992966339,,0.12974038062258
24,1982328817568,63534950543,1.300025157168,,0.139288409696586
26,1987070377248,60913444863,1.254661986565,,0.145630409154825
28,2004549779097,58237526972,1.229294361582,,0.153661795197791
30,2121360435970,80351366568,0.880034995702,,0.117861829781541
32,2144232583497,77302716046,0.866816480218,,0.123830925745421
34,2197453464672,75678863878,0.854016312391,,0.129627475987977
36,2217948102721,73632336608,0.836720282938,,0.134472902615027
38,2209052740741,71762744195,0.810071681535,,0.137422874546106
40,2191306505843,69162866692,0.792082012593,,0.141443216534398
42,2178720342837,68009308127,0.762752854068,,0.143016160137784
44,2165453824562,66441636294,0.740723172912,,0.145499194679083
46,2146055719299,64348464651,0.72501162934,,0.148886316739475
48,2128450318441,62237340154,0.712477667873,,0.152673785972718
50,2127116206985,61562823294,0.691039199689,,0.15424982135922
52,2102046539389,59565049595,0.678652535105,,0.157544338506616
54,2105306826827,59689114101,0.653170415527,,0.157460725171569
56,2083085813124,56205405625,0.661821768476,,0.165455442118975
