hotspot_openmp.cpp: In function 'void read_input(FLOAT*, int, int, char*)':
hotspot_openmp.cpp:257:48: warning: deprecated conversion from string constant to 'char*' [-Wwrite-strings]
   fatal ("file could not be opened for reading");
                                                ^
hotspot_openmp.cpp:262:36: warning: deprecated conversion from string constant to 'char*' [-Wwrite-strings]
    fatal("not enough lines in file");
                                    ^
hotspot_openmp.cpp:264:31: warning: deprecated conversion from string constant to 'char*' [-Wwrite-strings]
    fatal("invalid file format");
                               ^
hotspot_openmp.cpp: In function 'int main(int, char**)':
hotspot_openmp.cpp:305:36: warning: deprecated conversion from string constant to 'char*' [-Wwrite-strings]
   fatal("unable to allocate memory");
                                    ^
ld: warning: libcoi_device.so.0, needed by /various/common_tools/intel_parallel_studio/compilers_and_libraries_2018.1.163/linux/compiler/lib/intel64_lin/libioffload_target.so.5, not found (try using -rpath or -rpath-link)
/various/common_tools/intel_parallel_studio/compilers_and_libraries_2018.1.163/linux/compiler/lib/intel64_lin/libioffload_target.so.5: undefined reference to `COIPerfGetCycleFrequency@COI_1.0'
/various/common_tools/intel_parallel_studio/compilers_and_libraries_2018.1.163/linux/compiler/lib/intel64_lin/libioffload_target.so.5: undefined reference to `COIBufferAddRef@COI_1.0'
/various/common_tools/intel_parallel_studio/compilers_and_libraries_2018.1.163/linux/compiler/lib/intel64_lin/libioffload_target.so.5: undefined reference to `COIPipelineStartExecutingRunFunctions@COI_1.0'
/various/common_tools/intel_parallel_studio/compilers_and_libraries_2018.1.163/linux/compiler/lib/intel64_lin/libioffload_target.so.5: undefined reference to `COIEngineGetIndex@COI_1.0'
/various/common_tools/intel_parallel_studio/compilers_and_libraries_2018.1.163/linux/compiler/lib/intel64_lin/libioffload_target.so.5: undefined reference to `COIBufferReleaseRef@COI_1.0'
/various/common_tools/intel_parallel_studio/compilers_and_libraries_2018.1.163/linux/compiler/lib/intel64_lin/libioffload_target.so.5: undefined reference to `COIProcessWaitForShutdown@COI_1.0'
make: *** [hotspot_offload] Error 1
Analysis type: all
Measuring ALL characteristics...
interval size: 1000000000
Returning data for each interval of 1000000000 instructions...
ITYPES spec file: itypes_default.spec
append pid: yes
All done reading config
interval_size: 1000000000, mode: 1
==> found 11 groups
   group 0 (#: 1): mem_read [SPECIAL]; 
   group 1 (#: 1): mem_write [SPECIAL]; 
   group 2 (#: 5): COND_BR [CAT]; UNCOND_BR [CAT]; LEAVE [OPCODE]; RET_NEAR [OPCODE]; CALL_NEAR [OPCODE]; 
   group 3 (#: 5): LOGICAL [CAT]; DATAXFER [CAT]; BINARY [CAT]; FLAGOP [CAT]; BITBYTE [CAT]; 
   group 4 (#: 2): X87_ALU [CAT]; FCMOV [CAT]; 
   group 5 (#: 2): POP [CAT]; PUSH [CAT]; 
   group 6 (#: 1): SHIFT [CAT]; 
   group 7 (#: 1): STRINGOP [CAT]; 
   group 8 (#: 2): MMX [CAT]; SSE [CAT]; 
   group 9 (#: 8): INTERRUPT [CAT]; ROTATE [CAT]; SEMAPHORE [CAT]; CMOV [CAT]; SYSTEM [CAT]; MISC [CAT]; PREFETCH [CAT]; SYSCALL [CAT]; 
   group 10 (#: 2): WIDENOP [CAT]; NOP [CAT]; 
