210973376 17890060 196172447 204154540 208023399 208998453 209006101 209011476 978553 61386522 98044365 146734415 160238639 161207711 161691270 150211019 9640920 145863193 146830869 149242977 150207849 150208544 150208625 0 16159798 87055105 131396391 142001726 142001771 142001787
210924729 17903084 196202319 204163845 208032944 208998332 208998332 208998443 965392 61346605 98013725 146752638 160268119 161233511 161716207 150293265 9653905 145949010 146914410 149327893 150293263 150293263 150293263 0 16161066 87081769 131468024 142087332 142087332 142087332
215992504 23447202 203879127 209021430 213263147 214321555 214321558 214321665 1058351 59526706 96178763 143834141 157315070 158373456 158902634 153091400 9692815 149664685 149832369 152032955 153091287 153091287 153091287 0 18329754 90769402 132898710 144095239 144095241 144095241
217475317 24877457 205873184 210436223 214771170 215852796 215852796 215852892 1081626 59016435 95791881 143383537 156903862 157985488 158526301 154132175 9734618 150887325 150887325 153050577 154132175 154132175 154132175 0 18928511 91938550 133581181 144938254 144938254 144938254
237723126 2872233 208106686 208638350 209166204 235847133 235847229 237531622 124847 17356703 49470840 62704036 64264904 100510673 100573122 46355326 1124126 41172931 41173152 41427914 46063288 46063293 46354742 0 21380175 32813797 38590284 44134677 44134679 44134679
240374216 664 208407101 208412413 208442791 238466438 238466521 240370813 0 11916113 43421919 52170972 52171138 93009211 93009211 32287106 581 26853013 26853013 26858076 31957440 31957440 32286940 0 21698109 25094595 26190434 30976805 30976805 30976805
240374220 664 208407102 208412414 208442792 238466442 238466525 240370817 0 11916114 43421921 52170973 52171139 93009214 93009214 32287105 581 26853012 26853012 26858075 31957439 31957439 32286939 0 21698108 25094594 26190433 30976804 30976804 30976804
240375955 664 208408617 208413928 208444300 238468153 238468236 240372552 0 11915733 43421626 52170623 52170789 93009416 93009416 32286597 581 26852461 26852461 26857523 31956927 31956927 32286431 0 21697796 25094125 26189907 30976344 30976344 30976344
240374515 664 208407354 208412666 208443044 238466733 238466816 240371112 0 11916054 43421874 52170916 52171082 93009251 93009251 32287012 581 26852912 26852912 26857975 31957346 31957346 32286846 0 21698054 25094511 26190337 30976719 30976719 30976719
240374217 664 208407099 208412411 208442789 238466445 238466528 240370814 0 11916111 43421912 52170959 52171125 93009202 93009202 32287101 581 26853008 26853008 26858071 31957436 31957436 32286935 0 21698110 25094592 26190430 30976802 30976802 30976802
240374219 664 208407101 208412413 208442791 238466441 238466524 240370816 0 11916114 43421920 52170973 52171139 93009214 93009214 32287106 581 26853013 26853013 26858076 31957440 31957440 32286940 0 21698109 25094595 26190434 30976805 30976805 30976805
240374216 664 208407098 208412410 208442788 238466438 238466521 240370813 0 11916114 43421921 52170974 52171140 93009215 93009215 32287106 581 26853013 26853013 26858076 31957440 31957440 32286940 0 21698109 25094595 26190434 30976805 30976805 30976805
240374218 664 208407097 208412409 208442787 238466446 238466529 240370815 0 11916112 43421913 52170961 52171127 93009204 93009204 32287101 581 26853008 26853008 26858071 31957436 31957436 32286935 0 21698110 25094592 26190430 30976802 30976802 30976802
240374215 664 208407100 208412412 208442790 238466437 238466520 240370812 0 11916113 43421919 52170972 52171138 93009211 93009211 32287106 581 26853013 26853013 26858076 31957440 31957440 32286940 0 21698109 25094595 26190434 30976805 30976805 30976805
240376254 664 208408873 208414184 208444556 238468442 238468525 240372851 0 11915676 43421589 52170580 52170746 93009465 93009465 32286507 581 26852364 26852364 26857426 31956836 31956836 32286341 0 21697739 25094043 26189813 30976260 30976260 30976260
240374217 664 208407099 208412411 208442789 238466445 238466528 240370814 0 11916111 43421911 52170958 52171124 93009201 93009201 32287101 581 26853008 26853008 26858071 31957436 31957436 32286935 0 21698110 25094592 26190430 30976802 30976802 30976802
240374219 664 208407101 208412413 208442791 238466441 238466524 240370816 0 11916114 43421921 52170974 52171140 93009215 93009215 32287106 581 26853013 26853013 26858076 31957440 31957440 32286940 0 21698109 25094595 26190434 30976805 30976805 30976805
240374216 664 208407098 208412410 208442788 238466438 238466521 240370813 0 11916114 43421921 52170974 52171140 93009214 93009214 32287106 581 26853013 26853013 26858076 31957440 31957440 32286940 0 21698109 25094595 26190434 30976805 30976805 30976805
240374220 664 208407102 208412414 208442792 238466448 238466531 240370817 0 11916111 43421911 52170958 52171124 93009202 93009202 32287101 581 26853008 26853008 26858071 31957436 31957436 32286935 0 21698110 25094592 26190430 30976802 30976802 30976802
240374217 664 208407099 208412411 208442789 238466439 238466522 240370814 0 11916114 43421921 52170974 52171140 93009215 93009215 32287106 581 26853013 26853013 26858076 31957440 31957440 32286940 0 21698109 25094595 26190434 30976805 30976805 30976805
240376249 664 208408868 208414179 208444551 238468443 238468526 240372846 0 11915673 43421580 52170566 52170732 93009451 93009451 32286503 581 26852360 26852360 26857422 31956833 31956833 32286337 0 21697741 25094041 26189810 30976258 30976258 30976258
240374219 664 208407101 208412413 208442791 238466441 238466524 240370816 0 11916114 43421920 52170973 52171139 93009214 93009214 32287105 581 26853012 26853012 26858075 31957439 31957439 32286939 0 21698108 25094594 26190433 30976804 30976804 30976804
240374218 664 208407100 208412412 208442790 238466440 238466523 240370815 0 11916114 43421921 52170974 52171140 93009215 93009215 32287106 581 26853013 26853013 26858076 31957440 31957440 32286940 0 21698109 25094595 26190434 30976805 30976805 30976805
240374218 664 208407100 208412412 208442790 238466446 238466529 240370815 0 11916111 43421912 52170959 52171125 93009202 93009202 32287101 581 26853008 26853008 26858071 31957436 31957436 32286935 0 21698110 25094592 26190430 30976802 30976802 30976802
240374218 664 208407100 208412412 208442790 238466440 238466523 240370815 0 11916114 43421920 52170973 52171139 93009214 93009214 32287106 581 26853013 26853013 26858076 31957440 31957440 32286940 0 21698109 25094595 26190434 30976805 30976805 30976805
240374216 664 208407098 208412410 208442788 238466438 238466521 240370813 0 11916114 43421921 52170974 52171140 93009214 93009214 32287106 581 26853013 26853013 26858076 31957440 31957440 32286940 0 21698109 25094595 26190434 30976805 30976805 30976805
240374330 664 208407195 208412507 208442879 238466552 238466635 240370927 0 11916085 43421892 52170937 52171103 93009213 93009213 32287074 581 26852978 26852978 26858040 31957408 31957408 32286908 0 21698092 25094566 26190401 30976777 30976777 30976777
240376139 664 208408775 208414086 208444464 238468333 238468416 240372736 0 11915702 43421608 52170602 52170768 93009453 93009453 32286534 581 26852395 26852395 26857458 31956864 31956864 32286368 0 21697758 25094070 26189843 30976285 30976285 30976285
240374218 664 208407102 208412414 208442792 238466442 238466525 240370815 0 11916114 43421921 52170974 52171140 93009215 93009215 32287106 581 26853013 26853013 26858076 31957441 31957441 32286940 0 21698109 25094595 26190434 30976806 30976806 30976806
240374218 664 208407098 208412410 208442788 238466444 238466527 240370815 0 11916111 43421911 52170958 52171124 93009201 93009201 32287101 581 26853007 26853007 26858070 31957435 31957435 32286935 0 21698109 25094591 26190429 30976801 30976801 30976801
240374218 664 208407100 208412412 208442790 238466440 238466523 240370815 0 11916114 43421921 52170974 52171140 93009215 93009215 32287106 581 26853013 26853013 26858076 31957440 31957440 32286940 0 21698109 25094595 26190434 30976805 30976805 30976805
240374218 664 208407100 208412412 208442790 238466446 238466529 240370815 0 11916111 43421912 52170959 52171125 93009202 93009202 32287101 581 26853008 26853008 26858071 31957436 31957436 32286935 0 21698110 25094592 26190430 30976802 30976802 30976802
240374219 664 208407101 208412413 208442791 238466441 238466524 240370816 0 11916114 43421920 52170973 52171139 93009214 93009214 32287106 581 26853013 26853013 26858076 31957440 31957440 32286940 0 21698109 25094595 26190434 30976805 30976805 30976805
240376248 664 208408873 208414184 208444556 238468436 238468519 240372845 0 11915675 43421588 52170579 52170745 93009462 93009462 32286508 581 26852366 26852366 26857428 31956837 31956837 32286342 0 21697741 25094045 26189815 30976261 30976261 30976261
240374217 664 208407093 208412405 208442783 238466445 238466528 240370814 0 11916112 43421913 52170961 52171127 93009204 93009204 32287101 581 26853007 26853007 26858070 31957436 31957436 32286935 0 21698109 25094591 26190429 30976802 30976802 30976802
240374219 664 208407101 208412413 208442791 238466441 238466524 240370816 0 11916114 43421920 52170973 52171139 93009214 93009214 32287105 581 26853013 26853013 26858076 31957439 31957439 32286939 0 21698109 25094595 26190434 30976804 30976804 30976804
240374218 664 208407102 208412414 208442792 238466440 238466523 240370815 0 11916114 43421921 52170974 52171140 93009215 93009215 32287106 581 26853013 26853013 26858076 31957440 31957440 32286940 0 21698109 25094595 26190434 30976805 30976805 30976805
240374218 664 208407098 208412410 208442788 238466446 238466529 240370815 0 11916111 43421911 52170958 52171124 93009201 93009201 32287101 581 26853007 26853007 26858070 31957436 31957436 32286935 0 21698109 25094591 26190429 30976802 30976802 30976802
240374219 664 208407101 208412413 208442791 238466441 238466524 240370816 0 11916114 43421921 52170974 52171140 93009215 93009215 32287106 581 26853013 26853013 26858076 31957440 31957440 32286940 0 21698109 25094595 26190434 30976805 30976805 30976805
240374645 664 208407473 208412785 208443157 238466861 238466944 240371242 0 11916017 43421843 52170881 52171047 93009254 93009254 32286985 581 26852882 26852882 26857944 31957318 31957318 32286819 0 21698035 25094483 26190309 30976696 30976696 30976696
240375819 664 208408498 208413809 208444187 238468019 238468102 240372416 0 11915769 43421656 52170657 52170823 93009410 93009410 32286624 581 26852492 26852492 26857555 31956955 31956955 32286458 0 21697816 25094154 26189936 30976367 30976367 30976367
240374220 664 208407102 208412414 208442792 238466442 238466525 240370817 0 11916114 43421921 52170973 52171139 93009214 93009214 32287106 581 26853013 26853013 26858076 31957440 31957440 32286940 0 21698109 25094595 26190434 30976805 30976805 30976805
240374217 664 208407093 208412405 208442783 238466445 238466528 240370814 0 11916112 43421913 52170961 52171127 93009204 93009204 32287101 581 26853007 26853007 26858070 31957436 31957436 32286935 0 21698109 25094591 26190429 30976802 30976802 30976802
240374219 664 208407101 208412413 208442791 238466441 238466524 240370816 0 11916114 43421920 52170973 52171139 93009214 93009214 32287105 581 26853013 26853013 26858076 31957439 31957439 32286939 0 21698109 25094595 26190434 30976804 30976804 30976804
240374219 664 208407102 208412414 208442792 238466441 238466524 240370816 0 11916114 43421921 52170974 52171140 93009215 93009215 32287106 581 26853013 26853013 26858076 31957440 31957440 32286940 0 21698109 25094595 26190434 30976805 30976805 30976805
240374217 664 208407098 208412410 208442788 238466445 238466528 240370814 0 11916111 43421911 52170958 52171124 93009201 93009201 32287101 581 26853007 26853007 26858070 31957436 31957436 32286935 0 21698109 25094591 26190429 30976802 30976802 30976802
240376252 664 208408877 208414188 208444560 238468440 238468523 240372849 0 11915675 43421588 52170579 52170745 93009464 93009464 32286508 581 26852366 26852366 26857428 31956837 31956837 32286342 0 21697741 25094045 26189815 30976261 30976261 30976261
240374216 664 208407098 208412410 208442788 238466438 238466521 240370813 0 11916114 43421921 52170974 52171140 93009213 93009213 32287105 581 26853012 26853012 26858075 31957439 31957439 32286939 0 21698108 25094594 26190433 30976804 30976804 30976804
240374216 664 208407098 208412410 208442788 238466444 238466527 240370813 0 11916112 43421912 52170960 52171126 93009203 93009203 32287102 581 26853009 26853009 26858072 31957437 31957437 32286936 0 21698111 25094593 26190431 30976803 30976803 30976803
240374219 664 208407101 208412413 208442791 238466441 238466524 240370816 0 11916113 43421920 52170972 52171138 93009213 93009213 32287106 581 26853013 26853013 26858076 31957440 31957440 32286940 0 21698109 25094595 26190434 30976805 30976805 30976805
240374218 664 208407094 208412406 208442784 238466446 238466529 240370815 0 11916112 43421913 52170961 52171127 93009204 93009204 32287101 581 26853007 26853007 26858070 31957436 31957436 32286935 0 21698109 25094591 26190429 30976802 30976802 30976802
240374219 664 208407101 208412413 208442791 238466441 238466524 240370816 0 11916114 43421920 52170973 52171139 93009214 93009214 32287105 581 26853013 26853013 26858076 31957439 31957439 32286939 0 21698109 25094595 26190434 30976804 30976804 30976804
240374962 664 208407753 208413065 208443437 238467172 238467255 240371559 0 11915948 43421793 52170824 52170990 93009295 93009295 32286897 581 26852786 26852786 26857848 31957229 31957229 32286731 0 21697978 25094400 26190217 30976616 30976616 30976616
240375507 664 208408223 208413534 208443912 238467713 238467796 240372104 0 11915838 43421706 52170713 52170879 93009370 93009370 32286712 581 26852587 26852587 26857650 31957044 31957044 32286546 0 21697872 25094236 26190027 30976447 30976447 30976447
240374218 664 208407100 208412412 208442790 238466440 238466523 240370815 0 11916114 43421921 52170974 52171140 93009215 93009215 32287106 581 26853013 26853013 26858076 31957440 31957440 32286940 0 21698109 25094595 26190434 30976805 30976805 30976805
240374216 664 208407098 208412410 208442788 238466438 238466521 240370813 0 11916114 43421921 52170974 52171140 93009213 93009213 32287106 581 26853013 26853013 26858076 31957440 31957440 32286940 0 21698109 25094595 26190434 30976805 30976805 30976805
240374216 664 208407098 208412410 208442788 238466444 238466527 240370813 0 11916112 43421912 52170960 52171126 93009203 93009203 32287101 581 26853008 26853008 26858071 31957436 31957436 32286935 0 21698110 25094592 26190430 30976802 30976802 30976802
240374219 664 208407101 208412413 208442791 238466441 238466524 240370816 0 11916113 43421920 52170972 52171138 93009213 93009213 32287106 581 26853013 26853013 26858076 31957440 31957440 32286940 0 21698109 25094595 26190434 30976805 30976805 30976805
240374221 664 208407103 208412415 208442793 238466449 238466532 240370818 0 11916114 43421920 52170974 52171140 93009215 93009215 32287105 581 26853012 26853012 26858075 31957440 31957440 32286939 0 21698109 25094594 26190433 30976805 30976805 30976805
240376250 664 208408869 208414180 208444552 238468438 238468521 240372847 0 11915673 43421580 52170565 52170731 93009452 93009452 32286503 581 26852360 26852360 26857422 31956832 31956832 32286337 0 21697740 25094041 26189810 30976257 30976257 30976257
240374217 664 208407099 208412411 208442789 238466439 238466522 240370814 0 11916114 43421921 52170974 52171140 93009215 93009215 32287106 581 26853013 26853013 26858076 31957440 31957440 32286940 0 21698109 25094595 26190434 30976805 30976805 30976805
240374218 664 208407100 208412412 208442790 238466446 238466529 240370815 0 11916111 43421911 52170958 52171124 93009201 93009201 32287101 581 26853008 26853008 26858071 31957436 31957436 32286935 0 21698110 25094592 26190430 30976802 30976802 30976802
240374219 664 208407101 208412413 208442791 238466441 238466524 240370816 0 11916114 43421921 52170974 52171140 93009215 93009215 32287106 581 26853013 26853013 26858076 31957440 31957440 32286940 0 21698109 25094595 26190434 30976805 30976805 30976805
240374215 664 208407097 208412409 208442787 238466437 238466520 240370812 0 11916114 43421921 52170974 52171140 93009213 93009213 32287106 581 26853013 26853013 26858076 31957440 31957440 32286940 0 21698109 25094595 26190434 30976805 30976805 30976805
240374217 664 208407099 208412411 208442789 238466445 238466528 240370814 0 11916112 43421913 52170961 52171127 93009204 93009204 32287101 581 26853008 26853008 26858071 31957436 31957436 32286935 0 21698110 25094592 26190430 30976802 30976802 30976802
240375252 664 208408005 208413316 208443688 238467456 238467539 240371849 0 11915881 43421735 52170752 52170918 93009321 93009321 32286801 581 26852682 26852682 26857744 31957132 31957132 32286635 0 21697924 25094315 26190118 30976528 30976528 30976528
240375218 664 208407966 208413278 208443656 238467424 238467507 240371815 0 11915908 43421773 52170800 52170966 93009357 93009357 32286812 581 26852695 26852695 26857758 31957144 31957144 32286646 0 21697924 25094323 26190129 30976537 30976537 30976537
240374219 664 208407101 208412413 208442791 238466447 238466530 240370816 0 11916111 43421911 52170958 52171124 93009201 93009201 32287101 581 26853008 26853008 26858071 31957436 31957436 32286935 0 21698110 25094592 26190430 30976802 30976802 30976802
240374217 664 208407099 208412411 208442789 238466439 238466522 240370814 0 11916114 43421921 52170974 52171140 93009215 93009215 32287106 581 26853013 26853013 26858076 31957440 31957440 32286940 0 21698109 25094595 26190434 30976805 30976805 30976805
240374219 664 208407101 208412413 208442791 238466447 238466530 240370816 0 11916111 43421911 52170958 52171124 93009201 93009201 32287101 581 26853008 26853008 26858071 31957436 31957436 32286935 0 21698110 25094592 26190430 30976802 30976802 30976802
240374218 664 208407100 208412412 208442790 238466440 238466523 240370815 0 11916114 43421921 52170974 52171140 93009215 93009215 32287106 581 26853013 26853013 26858076 31957440 31957440 32286940 0 21698109 25094595 26190434 30976805 30976805 30976805
240374215 664 208407097 208412409 208442787 238466437 238466520 240370812 0 11916114 43421921 52170974 52171140 93009213 93009213 32287106 581 26853013 26853013 26858076 31957440 31957440 32286940 0 21698109 25094595 26190434 30976805 30976805 30976805
240376252 664 208408871 208414182 208444554 238468446 238468529 240372849 0 11915673 43421580 52170566 52170732 93009453 93009453 32286502 581 26852359 26852359 26857421 31956832 31956832 32286336 0 21697740 25094040 26189809 30976257 30976257 30976257
240374219 664 208407101 208412413 208442791 238466441 238466524 240370816 0 11916114 43421920 52170973 52171139 93009214 93009214 32287106 581 26853013 26853013 26858076 31957440 31957440 32286940 0 21698109 25094595 26190434 30976805 30976805 30976805
240374216 664 208407098 208412410 208442788 238466438 238466521 240370813 0 11916114 43421921 52170974 52171140 93009215 93009215 32287106 581 26853013 26853013 26858076 31957440 31957440 32286940 0 21698109 25094595 26190434 30976805 30976805 30976805
240374219 664 208407101 208412413 208442791 238466447 238466530 240370816 0 11916111 43421911 52170958 52171124 93009201 93009201 32287101 581 26853008 26853008 26858071 31957436 31957436 32286935 0 21698110 25094592 26190430 30976802 30976802 30976802
240374218 664 208407100 208412412 208442790 238466440 238466523 240370815 0 11916114 43421921 52170974 52171140 93009215 93009215 32287106 581 26853013 26853013 26858076 31957440 31957440 32286940 0 21698109 25094595 26190434 30976805 30976805 30976805
240374216 664 208407098 208412410 208442788 238466438 238466521 240370813 0 11916114 43421921 52170974 52171140 93009213 93009213 32287105 581 26853012 26853012 26858075 31957439 31957439 32286939 0 21698108 25094594 26190433 30976804 30976804 30976804
240375558 664 208408274 208413585 208443957 238467762 238467845 240372155 0 11915816 43421683 52170688 52170854 93009357 93009357 32286708 581 26852582 26852582 26857644 31957039 31957039 32286542 0 21697869 25094230 26190023 30976445 30976445 30976445
240374912 664 208407698 208413010 208443388 238467124 238467207 240371509 0 11915971 43421817 52170851 52171017 93009310 93009310 32286901 581 26852792 26852792 26857855 31957234 31957234 32286735 0 21697982 25094407 26190222 30976618 30976618 30976618
240374217 664 208407098 208412410 208442788 238466445 238466528 240370814 0 11916111 43421912 52170959 52171125 93009202 93009202 32287101 581 26853007 26853007 26858070 31957436 31957436 32286935 0 21698109 25094591 26190429 30976802 30976802 30976802
240374219 664 208407101 208412413 208442791 238466441 238466524 240370816 0 11916114 43421920 52170973 52171139 93009214 93009214 32287106 581 26853013 26853013 26858076 31957440 31957440 32286940 0 21698109 25094595 26190434 30976805 30976805 30976805
240374217 664 208407099 208412411 208442789 238466439 238466522 240370814 0 11916114 43421921 52170974 52171140 93009215 93009215 32287106 581 26853013 26853013 26858076 31957440 31957440 32286940 0 21698109 25094595 26190434 30976805 30976805 30976805
240374218 664 208407100 208412412 208442790 238466446 238466529 240370815 0 11916111 43421911 52170958 52171124 93009201 93009201 32287101 581 26853008 26853008 26858071 31957436 31957436 32286935 0 21698110 25094592 26190430 30976802 30976802 30976802
240374218 664 208407100 208412412 208442790 238466440 238466523 240370815 0 11916114 43421921 52170974 52171140 93009215 93009215 32287106 581 26853013 26853013 26858076 31957440 31957440 32286940 0 21698109 25094595 26190434 30976805 30976805 30976805
240376250 664 208408875 208414186 208444558 238468438 238468521 240372847 0 11915675 43421587 52170578 52170744 93009461 93009461 32286507 581 26852365 26852365 26857427 31956836 31956836 32286341 0 21697740 25094044 26189814 30976260 30976260 30976260
240374218 664 208407094 208412406 208442784 238466446 238466529 240370815 0 11916112 43421914 52170962 52171128 93009205 93009205 32287101 581 26853008 26853008 26858071 31957436 31957436 32286935 0 21698110 25094592 26190430 30976802 30976802 30976802
240374218 664 208407101 208412413 208442791 238466440 238466523 240370815 0 11916114 43421920 52170973 52171139 93009214 93009214 32287106 581 26853013 26853013 26858076 31957440 31957440 32286940 0 21698109 25094595 26190434 30976805 30976805 30976805
240374216 664 208407101 208412413 208442791 238466442 238466525 240370813 0 11916114 43421921 52170974 52171140 93009214 93009214 32287106 581 26853013 26853013 26858076 31957441 31957441 32286940 0 21698109 25094595 26190434 30976806 30976806 30976806
240374220 664 208407098 208412410 208442788 238466444 238466527 240370817 0 11916111 43421911 52170958 52171124 93009202 93009202 32287101 581 26853007 26853007 26858070 31957435 31957435 32286935 0 21698109 25094591 26190429 30976801 30976801 30976801
240374217 664 208407099 208412411 208442789 238466439 238466522 240370814 0 11916114 43421921 52170974 52171140 93009215 93009215 32287106 581 26853013 26853013 26858076 31957440 31957440 32286940 0 21698109 25094595 26190434 30976805 30976805 30976805
240375871 664 208408547 208413858 208444230 238468069 238468152 240372468 0 11915751 43421638 52170637 52170803 93009402 93009402 32286618 581 26852485 26852485 26857547 31956948 31956948 32286452 0 21697811 25094146 26189930 30976363 30976363 30976363
240374596 664 208407427 208412739 208443117 238466814 238466897 240371193 0 11916035 43421861 52170901 52171067 93009262 93009262 32286991 581 26852889 26852889 26857952 31957325 31957325 32286825 0 21698040 25094491 26190315 30976700 30976700 30976700
240374220 664 208407102 208412414 208442792 238466442 238466525 240370817 0 11916114 43421921 52170973 52171139 93009214 93009214 32287105 581 26853012 26853012 26858075 31957439 31957439 32286939 0 21698108 25094594 26190433 30976804 30976804 30976804
240374217 664 208407093 208412405 208442783 238466445 238466528 240370814 0 11916112 43421913 52170961 52171127 93009204 93009204 32287101 581 26853008 26853008 26858071 31957436 31957436 32286935 0 21698110 25094592 26190430 30976802 30976802 30976802
240374219 664 208407101 208412413 208442791 238466441 238466524 240370816 0 11916114 43421920 52170973 52171139 93009214 93009214 32287106 581 26853013 26853013 26858076 31957440 31957440 32286940 0 21698109 25094595 26190434 30976805 30976805 30976805
240374216 664 208407101 208412413 208442791 238466438 238466521 240370813 0 11916114 43421921 52170974 52171140 93009215 93009215 32287106 581 26853013 26853013 26858076 31957440 31957440 32286940 0 21698109 25094595 26190434 30976805 30976805 30976805
240374219 664 208407098 208412410 208442788 238466447 238466530 240370816 0 11916111 43421911 52170958 52171124 93009201 93009201 32287101 581 26853007 26853007 26858070 31957436 31957436 32286935 0 21698109 25094591 26190429 30976802 30976802 30976802
240376250 664 208408875 208414186 208444558 238468438 238468521 240372847 0 11915675 43421588 52170579 52170745 93009463 93009463 32286508 581 26852366 26852366 26857428 31956837 31956837 32286342 0 21697741 25094045 26189815 30976261 30976261 30976261
240374221 664 208407103 208412415 208442793 238466449 238466532 240370818 0 11916113 43421918 52170967 52171133 93009209 93009209 32287102 581 26853009 26853009 26858072 31957437 31957437 32286936 0 21698110 25094592 26190430 30976802 30976802 30976802
240374213 664 208407095 208412407 208442785 238466435 238466518 240370810 0 11916112 43421914 52170966 52171132 93009207 93009207 32287105 581 26853012 26853012 26858075 31957439 31957439 32286939 0 21698109 25094595 26190434 30976805 30976805 30976805
240374220 664 208407102 208412414 208442792 238466442 238466525 240370817 0 11916114 43421921 52170973 52171139 93009214 93009214 32287105 581 26853012 26853012 26858075 31957439 31957439 32286939 0 21698108 25094594 26190433 30976804 30976804 30976804
240374217 664 208407093 208412405 208442783 238466445 238466528 240370814 0 11916112 43421913 52170961 52171127 93009204 93009204 32287101 581 26853008 26853008 26858071 31957436 31957436 32286935 0 21698110 25094592 26190430 30976802 30976802 30976802
240374219 664 208407101 208412413 208442791 238466441 238466524 240370816 0 11916114 43421920 52170973 52171139 93009214 93009214 32287106 581 26853013 26853013 26858076 31957440 31957440 32286940 0 21698109 25094595 26190434 30976805 30976805 30976805
240376182 664 208408818 208414129 208444501 238468374 238468457 240372779 0 11915687 43421593 52170586 52170752 93009449 93009449 32286529 581 26852388 26852388 26857450 31956858 31956858 32286363 0 21697753 25094062 26189837 30976282 30976282 30976282
240374287 664 208407158 208412470 208442848 238466511 238466594 240370884 0 11916099 43421906 52170951 52171117 93009216 93009216 32287080 581 26852985 26852985 26858048 31957415 31957415 32286914 0 21698097 25094574 26190407 30976781 30976781 30976781
240374216 664 208407098 208412410 208442788 238466438 238466521 240370813 0 11916114 43421921 52170974 52171140 93009214 93009214 32287106 581 26853013 26853013 26858076 31957440 31957440 32286940 0 21698109 25094595 26190434 30976805 30976805 30976805
240374218 664 208407100 208412412 208442790 238466440 238466523 240370815 0 11916114 43421920 52170973 52171139 93009213 93009213 32287105 581 26853012 26853012 26858075 31957439 31957439 32286939 0 21698108 25094594 26190433 30976804 30976804 30976804
240374216 664 208407098 208412410 208442788 238466444 238466527 240370813 0 11916111 43421912 52170960 52171126 93009203 93009203 32287102 581 26853009 26853009 26858072 31957437 31957437 32286936 0 21698111 25094593 26190431 30976803 30976803 30976803
240374220 664 208407102 208412414 208442792 238466442 238466525 240370817 0 11916114 43421921 52170973 52171139 93009214 93009214 32287105 581 26853012 26853012 26858075 31957439 31957439 32286939 0 21698108 25094594 26190433 30976804 30976804 30976804
240374235 664 208407111 208412423 208442795 238466457 238466540 240370832 0 11916106 43421906 52170953 52171119 93009202 93009202 32287096 581 26853002 26853002 26858064 31957430 31957430 32286930 0 21698107 25094587 26190424 30976797 30976797 30976797
240376234 664 208408859 208414170 208444548 238468428 238468511 240372831 0 11915681 43421594 52170586 52170752 93009465 93009465 32286513 581 26852371 26852371 26857434 31956843 31956843 32286347 0 21697743 25094049 26189820 30976266 30976266 30976266
240374215 664 208407097 208412409 208442787 238466437 238466520 240370812 0 11916114 43421921 52170974 52171140 93009213 93009213 32287106 581 26853013 26853013 26858076 31957440 31957440 32286940 0 21698109 25094595 26190434 30976805 30976805 30976805
240374222 664 208407104 208412416 208442794 238466450 238466533 240370819 0 11916111 43421911 52170958 52171124 93009203 93009203 32287101 581 26853008 26853008 26858071 31957436 31957436 32286935 0 21698110 25094592 26190430 30976802 30976802 30976802
240374216 664 208407098 208412410 208442788 238466438 238466521 240370813 0 11916114 43421921 52170974 52171140 93009215 93009215 32287106 581 26853013 26853013 26858076 31957440 31957440 32286940 0 21698109 25094595 26190434 30976805 30976805 30976805
240374217 664 208407099 208412411 208442789 238466439 238466522 240370814 0 11916114 43421920 52170973 52171139 93009212 93009212 32287105 581 26853012 26853012 26858075 31957439 31957439 32286939 0 21698108 25094594 26190433 30976804 30976804 30976804
240374216 664 208407098 208412410 208442788 238466444 238466527 240370813 0 11916111 43421912 52170960 52171126 93009203 93009203 32287102 581 26853009 26853009 26858072 31957437 31957437 32286936 0 21698111 25094593 26190431 30976803 30976803 30976803
240376253 664 208408872 208414183 208444555 238468441 238468524 240372850 0 11915676 43421589 52170580 52170746 93009465 93009465 32286507 581 26852364 26852364 26857426 31956836 31956836 32286341 0 21697739 25094043 26189813 30976260 30976260 30976260
240374216 664 208407098 208412410 208442788 238466438 238466521 240370813 0 11916114 43421921 52170974 52171140 93009213 93009213 32287106 581 26853013 26853013 26858076 31957440 31957440 32286940 0 21698109 25094595 26190434 30976805 30976805 30976805
240374221 664 208407103 208412415 208442793 238466449 238466532 240370818 0 11916111 43421911 52170958 52171124 93009203 93009203 32287101 581 26853008 26853008 26858071 31957436 31957436 32286935 0 21698110 25094592 26190430 30976802 30976802 30976802
240374215 664 208407097 208412409 208442787 238466437 238466520 240370812 0 11916114 43421921 52170974 52171140 93009213 93009213 32287106 581 26853013 26853013 26858076 31957440 31957440 32286940 0 21698109 25094595 26190434 30976805 30976805 30976805
240374221 664 208407103 208412415 208442793 238466449 238466532 240370818 0 11916111 43421911 52170958 52171124 93009203 93009203 32287101 581 26853008 26853008 26858071 31957436 31957436 32286935 0 21698110 25094592 26190430 30976802 30976802 30976802
240374216 664 208407098 208412410 208442788 238466438 238466521 240370813 0 11916114 43421921 52170974 52171140 93009215 93009215 32287106 581 26853013 26853013 26858076 31957440 31957440 32286940 0 21698109 25094595 26190434 30976805 30976805 30976805
240374551 664 208407390 208412702 208443074 238466767 238466850 240371148 0 11916037 43421856 52170896 52171062 93009241 93009241 32287007 581 26852906 26852906 26857968 31957340 31957340 32286841 0 21698050 25094504 26190332 30976716 30976716 30976716
240375917 664 208408579 208413890 208444268 238468117 238468200 240372514 0 11915750 43421644 52170643 52170809 93009424 93009424 32286601 581 26852466 26852466 26857529 31956932 31956932 32286435 0 21697799 25094131 26189911 30976346 30976346 30976346
240374219 664 208407101 208412413 208442791 238466441 238466524 240370816 0 11916114 43421921 52170974 52171140 93009215 93009215 32287106 581 26853013 26853013 26858076 31957440 31957440 32286940 0 21698109 25094595 26190434 30976805 30976805 30976805
240374215 664 208407097 208412409 208442787 238466437 238466520 240370812 0 11916114 43421921 52170974 52171140 93009213 93009213 32287106 581 26853013 26853013 26858076 31957440 31957440 32286940 0 21698109 25094595 26190434 30976805 30976805 30976805
240374221 664 208407103 208412415 208442793 238466449 238466532 240370818 0 11916111 43421911 52170958 52171124 93009203 93009203 32287101 581 26853008 26853008 26858071 31957436 31957436 32286935 0 21698110 25094592 26190430 30976802 30976802 30976802
240374216 664 208407098 208412410 208442788 238466438 238466521 240370813 0 11916114 43421921 52170974 52171140 93009214 93009214 32287106 581 26853013 26853013 26858076 31957440 31957440 32286940 0 21698109 25094595 26190434 30976805 30976805 30976805
240374220 664 208407102 208412414 208442792 238466448 238466531 240370817 0 11916111 43421911 52170958 52171124 93009202 93009202 32287101 581 26853008 26853008 26858071 31957436 31957436 32286935 0 21698110 25094592 26190430 30976802 30976802 30976802
240376249 664 208408868 208414179 208444551 238468437 238468520 240372846 0 11915676 43421589 52170581 52170747 93009464 93009464 32286507 581 26852365 26852365 26857427 31956836 31956836 32286341 0 21697740 25094044 26189814 30976260 30976260 30976260
240374217 664 208407102 208412414 208442792 238466439 238466522 240370814 0 11916114 43421921 52170974 52171140 93009215 93009215 32287106 581 26853013 26853013 26858076 31957440 31957440 32286940 0 21698109 25094595 26190434 30976805 30976805 30976805
240374219 664 208407098 208412410 208442788 238466447 238466530 240370816 0 11916111 43421911 52170958 52171124 93009201 93009201 32287101 581 26853007 26853007 26858070 31957436 31957436 32286935 0 21698109 25094591 26190429 30976802 30976802 30976802
240374218 664 208407100 208412412 208442790 238466440 238466523 240370815 0 11916114 43421921 52170974 52171140 93009215 93009215 32287106 581 26853013 26853013 26858076 31957440 31957440 32286940 0 21698109 25094595 26190434 30976805 30976805 30976805
240374215 664 208407097 208412409 208442787 238466437 238466520 240370812 0 11916114 43421921 52170974 52171140 93009213 93009213 32287106 581 26853013 26853013 26858076 31957440 31957440 32286940 0 21698109 25094595 26190434 30976805 30976805 30976805
240374221 664 208407103 208412415 208442793 238466449 238466532 240370818 0 11916111 43421911 52170958 52171124 93009203 93009203 32287101 581 26853008 26853008 26858071 31957436 31957436 32286935 0 21698110 25094592 26190430 30976802 30976802 30976802
240374867 664 208407669 208412981 208443353 238467077 238467160 240371464 0 11915969 43421807 52170840 52171006 93009283 93009283 32286918 581 26852810 26852810 26857872 31957250 31957250 32286752 0 21697993 25094421 26190240 30976635 30976635 30976635
240375601 664 208408306 208413617 208443995 238467801 238467884 240372198 0 11915820 43421701 52170712 52170878 93009393 93009393 32286695 581 26852568 26852568 26857631 31957026 31957026 32286529 0 21697856 25094218 26190008 30976430 30976430 30976430
240374217 664 208407093 208412405 208442783 238466445 238466528 240370814 0 11916112 43421913 52170961 52171127 93009204 93009204 32287101 581 26853008 26853008 26858071 31957436 31957436 32286935 0 21698110 25094592 26190430 30976802 30976802 30976802
240374218 664 208407102 208412414 208442792 238466440 238466523 240370815 0 11916114 43421921 52170974 52171140 93009215 93009215 32287106 581 26853013 26853013 26858076 31957440 31957440 32286940 0 21698109 25094595 26190434 30976805 30976805 30976805
240374218 664 208407098 208412410 208442788 238466446 238466529 240370815 0 11916111 43421911 52170958 52171124 93009201 93009201 32287101 581 26853007 26853007 26858070 31957436 31957436 32286935 0 21698109 25094591 26190429 30976802 30976802 30976802
240374218 664 208407100 208412412 208442790 238466440 238466523 240370815 0 11916114 43421921 52170974 52171140 93009215 93009215 32287106 581 26853013 26853013 26858076 31957440 31957440 32286940 0 21698109 25094595 26190434 30976805 30976805 30976805
240374215 664 208407097 208412409 208442787 238466437 238466520 240370812 0 11916114 43421921 52170974 52171140 93009213 93009213 32287106 581 26853013 26853013 26858076 31957440 31957440 32286940 0 21698109 25094595 26190434 30976805 30976805 30976805
240376250 664 208408875 208414186 208444558 238468444 238468527 240372847 0 11915672 43421578 52170564 52170730 93009451 93009451 32286503 581 26852361 26852361 26857423 31956833 31956833 32286337 0 21697742 25094042 26189811 30976258 30976258 30976258
240374220 664 208407102 208412414 208442792 238466442 238466525 240370817 0 11916114 43421921 52170973 52171139 93009214 93009214 32287106 581 26853013 26853013 26858076 31957440 31957440 32286940 0 21698109 25094595 26190434 30976805 30976805 30976805
240374219 664 208407101 208412413 208442791 238466441 238466524 240370816 0 11916114 43421920 52170973 52171139 93009214 93009214 32287105 581 26853012 26853012 26858075 31957439 31957439 32286939 0 21698108 25094594 26190433 30976804 30976804 30976804
240374217 664 208407093 208412405 208442783 238466445 238466528 240370814 0 11916112 43421913 52170961 52171127 93009204 93009204 32287101 581 26853008 26853008 26858071 31957436 31957436 32286935 0 21698110 25094592 26190430 30976802 30976802 30976802
240374218 664 208407102 208412414 208442792 238466440 238466523 240370815 0 11916114 43421921 52170974 52171140 93009215 93009215 32287106 581 26853013 26853013 26858076 31957440 31957440 32286940 0 21698109 25094595 26190434 30976805 30976805 30976805
240374215 664 208407101 208412413 208442791 238466443 238466526 240370812 0 11916114 43421920 52170973 52171139 93009212 93009212 32287106 581 26853013 26853013 26858076 31957441 31957441 32286940 0 21698109 25094595 26190434 30976806 30976806 30976806
240375187 664 208407946 208413258 208443630 238467391 238467474 240371784 0 11915897 43421748 52170768 52170934 93009313 93009313 32286825 581 26852709 26852709 26857771 31957156 31957156 32286659 0 21697937 25094335 26190144 30976551 30976551 30976551
240375284 664 208408026 208413337 208443715 238467490 238467573 240371881 0 11915889 43421752 52170770 52170936 93009353 93009353 32286783 581 26852663 26852663 26857726 31957115 31957115 32286617 0 21697912 25094300 26190099 30976510 30976510 30976510
240374215 664 208407097 208412409 208442787 238466443 238466526 240370812 0 11916111 43421911 52170959 52171125 93009202 93009202 32287102 581 26853009 26853009 26858072 31957437 31957437 32286936 0 21698111 25094593 26190431 30976803 30976803 30976803
240374220 664 208407102 208412414 208442792 238466442 238466525 240370817 0 11916114 43421921 52170973 52171139 93009214 93009214 32287106 581 26853013 26853013 26858076 31957440 31957440 32286940 0 21698109 25094595 26190434 30976805 30976805 30976805
240374219 664 208407101 208412413 208442791 238466441 238466524 240370816 0 11916114 43421920 52170973 52171139 93009214 93009214 32287105 581 26853012 26853012 26858075 31957439 31957439 32286939 0 21698108 25094594 26190433 30976804 30976804 30976804
240374217 664 208407093 208412405 208442783 238466445 238466528 240370814 0 11916112 43421913 52170961 52171127 93009204 93009204 32287101 581 26853008 26853008 26858071 31957436 31957436 32286935 0 21698110 25094592 26190430 30976802 30976802 30976802
240374219 664 208407102 208412414 208442792 238466441 238466524 240370816 0 11916114 43421921 52170974 52171140 93009215 93009215 32287106 581 26853013 26853013 26858076 31957440 31957440 32286940 0 21698109 25094595 26190434 30976805 30976805 30976805
240376250 664 208408874 208414185 208444557 238468438 238468521 240372847 0 11915675 43421588 52170579 52170745 93009462 93009462 32286507 581 26852364 26852364 26857426 31956836 31956836 32286341 0 21697739 25094043 26189813 30976260 30976260 30976260
240374219 664 208407101 208412413 208442791 238466447 238466530 240370816 0 11916111 43421911 52170958 52171124 93009203 93009203 32287102 581 26853009 26853009 26858072 31957437 31957437 32286936 0 21698111 25094593 26190431 30976803 30976803 30976803
240374216 664 208407098 208412410 208442788 238466438 238466521 240370813 0 11916114 43421921 52170974 52171140 93009213 93009213 32287105 581 26853012 26853012 26858075 31957439 31957439 32286939 0 21698108 25094594 26190433 30976804 30976804 30976804
240374221 664 208407103 208412415 208442793 238466449 238466532 240370818 0 11916113 43421916 52170965 52171131 93009208 93009208 32287103 581 26853010 26853010 26858073 31957438 31957438 32286937 0 21698111 25094593 26190431 30976803 30976803 30976803
240374214 664 208407096 208412408 208442786 238466436 238466519 240370811 0 11916112 43421916 52170967 52171133 93009208 93009208 32287105 581 26853012 26853012 26858075 31957439 31957439 32286939 0 21698109 25094595 26190434 30976805 30976805 30976805
240374219 664 208407101 208412413 208442791 238466441 238466524 240370816 0 11916114 43421920 52170973 52171139 93009214 93009214 32287105 581 26853012 26853012 26858075 31957439 31957439 32286939 0 21698108 25094594 26190433 30976804 30976804 30976804
240375491 664 208408211 208413522 208443894 238467695 238467778 240372088 0 11915831 43421702 52170714 52170880 93009355 93009355 32286739 581 26852614 26852614 26857676 31957070 31957070 32286573 0 21697883 25094256 26190053 30976472 30976472 30976472
240374978 664 208407759 208413071 208443449 238467190 238467273 240371575 0 11915956 43421799 52170826 52170992 93009313 93009313 32286870 581 26852759 26852759 26857822 31957203 31957203 32286704 0 21697967 25094380 26190191 30976591 30976591 30976591
240374217 664 208407099 208412411 208442789 238466439 238466522 240370814 0 11916114 43421921 52170974 52171140 93009213 93009213 32287105 581 26853012 26853012 26858075 31957439 31957439 32286939 0 21698108 25094594 26190433 30976804 30976804 30976804
240374219 664 208407101 208412413 208442791 238466447 238466530 240370816 0 11916111 43421911 52170958 52171124 93009203 93009203 32287102 581 26853009 26853009 26858072 31957437 31957437 32286936 0 21698111 25094593 26190431 30976803 30976803 30976803
240374216 664 208407098 208412410 208442788 238466438 238466521 240370813 0 11916114 43421921 52170974 52171140 93009213 93009213 32287106 581 26853013 26853013 26858076 31957440 31957440 32286940 0 21698109 25094595 26190434 30976805 30976805 30976805
240374219 664 208407101 208412413 208442791 238466441 238466524 240370816 0 11916114 43421920 52170973 52171139 93009214 93009214 32287105 581 26853012 26853012 26858075 31957439 31957439 32286939 0 21698108 25094594 26190433 30976804 30976804 30976804
240374216 664 208407098 208412410 208442788 238466444 238466527 240370813 0 11916111 43421912 52170959 52171125 93009202 93009202 32287102 581 26853009 26853009 26858072 31957437 31957437 32286936 0 21698111 25094593 26190431 30976803 30976803 30976803
240377694 664 208409984 208415295 208445673 238469880 238469962 240374306 0 11915278 43421258 52170192 52170358 93009545 93009545 32286078 581 26851900 26851900 26856963 31956406 31956406 32285913 0 21697477 25093648 26189369 30975871 30975871 30975871
240378551 664 208410500 208415812 208446190 238470717 238470800 240375148 0 11915034 43421057 52169987 52170153 93009556 93009556 32285846 581 26851654 26851654 26856717 31956174 31956174 32285680 0 21697331 25093436 26189131 30975658 30975658 30975658
240378550 664 208410499 208415811 208446189 238470716 238470799 240375147 0 11915035 43421054 52169986 52170152 93009555 93009555 32285848 581 26851656 26851656 26856719 31956176 31956176 32285682 0 21697332 25093439 26189134 30975661 30975661 30975661
240378480 664 208410428 208415740 208446118 238470647 238470730 240375077 0 11915023 43421038 52169956 52170122 93009525 93009525 32285858 581 26851665 26851665 26856728 31956186 31956186 32285692 0 21697340 25093446 26189143 30975670 30975670 30975670
240378445 664 208410392 208415704 208446082 238470611 238470694 240375042 0 11915017 43421026 52169935 52170101 93009504 93009504 32285860 581 26851667 26851667 26856730 31956189 31956189 32285694 0 21697347 25093452 26189144 30975671 30975671 30975671
240378546 664 208410495 208415807 208446185 238470712 238470795 240375143 0 11915035 43421053 52169983 52170149 93009552 93009552 32285844 581 26851652 26851652 26856715 31956172 31956172 32285678 0 21697331 25093435 26189130 30975657 30975657 30975657
240378546 664 208410495 208415807 208446185 238470712 238470795 240375143 0 11915035 43421053 52169983 52170149 93009552 93009552 32285844 581 26851652 26851652 26856715 31956172 31956172 32285678 0 21697331 25093435 26189130 30975657 30975657 30975657
240378546 664 208410495 208415807 208446185 238470712 238470795 240375143 0 11915035 43421053 52169983 52170149 93009552 93009552 32285844 581 26851652 26851652 26856715 31956172 31956172 32285678 0 21697331 25093435 26189130 30975657 30975657 30975657
240378546 664 208410495 208415807 208446185 238470712 238470795 240375143 0 11915035 43421053 52169983 52170149 93009552 93009552 32285843 581 26851651 26851651 26856714 31956171 31956171 32285677 0 21697330 25093434 26189129 30975656 30975656 30975656
240378464 664 208410412 208415724 208446102 238470631 238470714 240375061 0 11915018 43421036 52169951 52170117 93009520 93009520 32285868 581 26851675 26851675 26856738 31956196 31956196 32285702 0 21697345 25093455 26189152 30975679 30975679 30975679
240378471 664 208410418 208415730 208446108 238470637 238470720 240375068 0 11915022 43421034 52169948 52170114 93009517 93009517 32285857 581 26851664 26851664 26856727 31956186 31956186 32285691 0 21697344 25093449 26189141 30975668 30975668 30975668
240378546 664 208410495 208415807 208446185 238470712 238470795 240375143 0 11915035 43421053 52169983 52170149 93009552 93009552 32285843 581 26851651 26851651 26856714 31956171 31956171 32285677 0 21697330 25093434 26189129 30975656 30975656 30975656
240378545 664 208410494 208415806 208446184 238470711 238470794 240375142 0 11915034 43421052 52169982 52170148 93009551 93009551 32285844 581 26851652 26851652 26856715 31956172 31956172 32285678 0 21697331 25093435 26189130 30975657 30975657 30975657
240378546 664 208410495 208415807 208446185 238470712 238470795 240375143 0 11915035 43421053 52169983 52170149 93009552 93009552 32285844 581 26851652 26851652 26856715 31956172 31956172 32285678 0 21697331 25093435 26189130 30975657 30975657 30975657
240378546 664 208410495 208415807 208446185 238470712 238470795 240375143 0 11915035 43421053 52169983 52170149 93009552 93009552 32285844 581 26851652 26851652 26856715 31956172 31956172 32285678 0 21697331 25093435 26189130 30975657 30975657 30975657
240377987 656 208410095 208415406 208445784 238470171 238470254 240374602 0 11915007 43421036 52169901 52170065 93009459 93009459 32285783 574 26851585 26851585 26856648 31956111 31956111 32285618 0 21697383 25093429 26189101 30975619 30975619 30975619
240378571 664 208410549 208415861 208446239 238470738 238470821 240375168 0 11915183 43421273 52170248 52170414 93009817 93009817 32285882 581 26851689 26851689 26856752 31956210 31956210 32285716 0 21697359 25093469 26189166 30975693 30975693 30975693
240378639 664 208410587 208415899 208446277 238470805 238470888 240375236 0 11915176 43421271 52170256 52170422 93009825 93009825 32285874 581 26851681 26851681 26856744 31956202 31956202 32285708 0 21697351 25093461 26189158 30975685 30975685 30975685
240378646 664 208410594 208415906 208446284 238470813 238470896 240375243 0 11915177 43421278 52170262 52170428 93009831 93009831 32285870 581 26851677 26851677 26856740 31956199 31956199 32285704 0 21697351 25093458 26189153 30975680 30975680 30975680
240378531 664 208410477 208415789 208446167 238470697 238470780 240375128 0 11915178 43421278 52170250 52170416 93009819 93009819 32285911 581 26851716 26851716 26856779 31956239 31956239 32285745 0 21697374 25093494 26189192 30975719 30975719 30975719
240378602 664 208410549 208415861 208446239 238470768 238470851 240375199 0 11915178 43421273 52170254 52170420 93009823 93009823 32285881 581 26851688 26851688 26856751 31956209 31956209 32285715 0 21697358 25093468 26189165 30975692 30975692 30975692
240378638 664 208410586 208415898 208446276 238470804 238470887 240375235 0 11915175 43421270 52170255 52170421 93009824 93009824 32285873 581 26851680 26851680 26856743 31956201 31956201 32285707 0 21697350 25093460 26189157 30975684 30975684 30975684
240378641 664 208410589 208415901 208446279 238470807 238470890 240375238 0 11915176 43421272 52170257 52170423 93009826 93009826 32285874 581 26851681 26851681 26856744 31956202 31956202 32285708 0 21697351 25093461 26189158 30975685 30975685 30975685
240378649 664 208410597 208415909 208446287 238470815 238470898 240375246 0 11915175 43421276 52170264 52170430 93009833 93009833 32285881 581 26851688 26851688 26856751 31956209 31956209 32285715 0 21697351 25093467 26189164 30975691 30975691 30975691
240378640 664 208410587 208415899 208446277 238470806 238470889 240375237 0 11915174 43421271 52170256 52170422 93009825 93009825 32285877 581 26851683 26851683 26856746 31956205 31956205 32285711 0 21697351 25093461 26189160 30975687 30975687 30975687
240378638 664 208410586 208415898 208446276 238470804 238470887 240375235 0 11915175 43421270 52170255 52170421 93009824 93009824 32285873 581 26851680 26851680 26856743 31956201 31956201 32285707 0 21697350 25093460 26189157 30975684 30975684 30975684
240378639 664 208410587 208415899 208446277 238470805 238470888 240375236 0 11915176 43421271 52170256 52170422 93009825 93009825 32285874 581 26851681 26851681 26856744 31956202 31956202 32285708 0 21697351 25093461 26189158 30975685 30975685 30975685
240378639 664 208410587 208415899 208446277 238470805 238470888 240375236 0 11915176 43421271 52170256 52170422 93009825 93009825 32285873 581 26851680 26851680 26856743 31956201 31956201 32285707 0 21697350 25093460 26189157 30975684 30975684 30975684
240378553 664 208410500 208415812 208446190 238470720 238470803 240375150 0 11915179 43421276 52170247 52170413 93009816 93009816 32285892 581 26851698 26851698 26856761 31956221 31956221 32285726 0 21697369 25093480 26189174 30975701 30975701 30975701
240378587 664 208410533 208415845 208446223 238470753 238470836 240375184 0 11915178 43421282 52170263 52170429 93009832 93009832 32285897 581 26851703 26851703 26856766 31956225 31956225 32285731 0 21697364 25093480 26189179 30975706 30975706 30975706
240378639 664 208410587 208415899 208446277 238470805 238470888 240375236 0 11915176 43421271 52170256 52170422 93009825 93009825 32285873 581 26851680 26851680 26856743 31956201 31956201 32285707 0 21697350 25093460 26189157 30975684 30975684 30975684
240377071 664 208409517 208414828 208445206 238469262 238469345 240373676 0 11915500 43421469 52170445 52170611 93009583 93009583 32286273 581 26852112 26852112 26857175 31956602 31956602 32286107 0 21697599 25093830 26189572 30976048 30976048 30976048
240374217 664 208407101 208412413 208442791 238466439 238466522 240370814 0 11916113 43421919 52170972 52171138 93009212 93009212 32287106 581 26853013 26853013 26858076 31957440 31957440 32286940 0 21698109 25094595 26190434 30976805 30976805 30976805
240374220 664 208407096 208412408 208442786 238466448 238466531 240370817 0 11916112 43421913 52170960 52171126 93009205 93009205 32287101 581 26853007 26853007 26858070 31957436 31957436 32286935 0 21698109 25094591 26190429 30976802 30976802 30976802
240374217 664 208407099 208412411 208442789 238466439 238466522 240370814 0 11916114 43421921 52170974 52171140 93009213 93009213 32287105 581 26853013 26853013 26858076 31957439 31957439 32286939 0 21698109 25094595 26190434 30976804 30976804 30976804
240374219 664 208407101 208412413 208442791 238466441 238466524 240370816 0 11916114 43421920 52170973 52171139 93009214 93009214 32287106 581 26853013 26853013 26858076 31957440 31957440 32286940 0 21698109 25094595 26190434 30976805 30976805 30976805
240374216 664 208407098 208412410 208442788 238466444 238466527 240370813 0 11916111 43421912 52170959 52171125 93009202 93009202 32287102 581 26853008 26853008 26858071 31957437 31957437 32286936 0 21698110 25094592 26190430 30976803 30976803 30976803
240375685 664 208408385 208413696 208444068 238467883 238467966 240372282 0 11915793 43421678 52170688 52170854 93009389 93009389 32286686 581 26852558 26852558 26857620 31957016 31957016 32286520 0 21697848 25094207 26189999 30976424 30976424 30976424
240374784 664 208407591 208412903 208443281 238466996 238467079 240371381 0 11915996 43421830 52170864 52171030 93009288 93009288 32286927 581 26852820 26852820 26857883 31957260 31957260 32286761 0 21698001 25094432 26190249 30976641 30976641 30976641
240374217 664 208407097 208412409 208442787 238466445 238466528 240370814 0 11916112 43421913 52170961 52171127 93009204 93009204 32287101 581 26853008 26853008 26858071 31957436 31957436 32286935 0 21698110 25094592 26190430 30976802 30976802 30976802
240374217 664 208407101 208412413 208442791 238466439 238466522 240370814 0 11916113 43421919 52170972 52171138 93009212 93009212 32287106 581 26853013 26853013 26858076 31957440 31957440 32286940 0 21698109 25094595 26190434 30976805 309240374219 664 208407101 208412413 208442791 238466441 238466524 240370816 0 11916114 43421920 52170973 52171139 93009214 93009214 32287106 581 26853013 26853013 26858076 31957440 31957440 32286940 0 21698109 25094595 26190434 30976805 30976805 30976805
240374216 664 208407098 208412410 208442788 238466438 238466521 240370813 0 11916114 43421921 52170974 52171140 93009215 93009215 32287106 581 26853013 26853013 26858076 31957440 31957440 32286940 0 21698109 25094595 26190434 30976805 30976805 30976805
240376249 664 208408868 208414179 208444551 238468443 238468526 240372846 0 11915673 43421580 52170566 52170732 93009451 93009451 32286503 581 26852360 26852360 26857422 31956833 31956833 32286337 0 21697741 25094041 26189810 30976258 30976258 30976258
240374219 664 208407101 208412413 208442791 238466441 238466524 240370816 0 11916114 43421920 52170973 52171139 93009214 93009214 32287105 581 26853012 26853012 26858075 31957439 31957439 32286939 0 21698108 25094594 26190433 30976804 30976804 30976804
240374219 664 208407101 208412413 208442791 238466441 238466524 240370816 0 11916114 43421921 52170974 52171140 93009215 93009215 32287106 581 26853013 26853013 26858076 31957440 31957440 32286940 0 21698109 25094595 26190434 30976805 30976805 30976805
240374217 664 208407099 208412411 208442789 238466445 238466528 240370814 0 11916111 43421911 52170958 52171124 93009201 93009201 32287101 581 26853008 26853008 26858071 31957436 31957436 32286935 0 21698110 25094592 26190430 30976802 30976802 30976802
240374219 664 208407101 208412413 208442791 238466441 238466524 240370816 0 11916114 43421921 52170974 52171140 93009215 93009215 32287106 581 26853013 26853013 26858076 31957440 31957440 32286940 0 21698109 25094595 26190434 30976805 30976805 30976805
240374216 664 208407098 208412410 208442788 238466438 238466521 240370813 0 11916114 43421921 52170974 52171140 93009214 93009214 32287106 581 26853013 26853013 26858076 31957440 31957440 32286940 0 21698109 25094595 26190434 30976805 30976805 30976805
240374344 664 208407210 208412522 208442894 238466566 238466649 240370941 0 11916081 43421886 52170927 52171093 93009211 93009211 32287061 581 26852965 26852965 26858027 31957395 31957395 32286895 0 21698088 25094556 26190389 30976766 30976766 30976766
240376125 664 208408760 208414071 208444449 238468319 238468402 240372722 0 11915706 43421614 52170612 52170778 93009455 93009455 32286547 581 26852408 26852408 26857471 31956877 31956877 32286381 0 21697762 25094080 26189855 30976296 30976296 30976296
240374217 664 208407099 208412411 208442789 238466445 238466528 240370814 0 11916111 43421912 52170959 52171125 93009202 93009202 32287102 581 26853008 26853008 26858071 31957437 31957437 32286936 0 21698110 25094592 26190430 30976803 30976803 30976803
240374219 664 208407101 208412413 208442791 238466441 238466524 240370816 0 11916114 43421920 52170973 52171139 93009214 93009214 32287105 581 26853012 26853012 26858075 31957439 31957439 32286939 0 21698108 25094594 26190433 30976804 30976804 30976804
240374218 664 208407100 208412412 208442790 238466440 238466523 240370815 0 11916114 43421921 52170974 52171140 93009215 93009215 32287106 581 26853013 26853013 26858076 31957440 31957440 32286940 0 21698109 25094595 26190434 30976805 30976805 30976805
240374218 664 208407100 208412412 208442790 238466446 238466529 240370815 0 11916111 43421912 52170959 52171125 93009202 93009202 32287101 581 26853008 26853008 26858071 31957436 31957436 32286935 0 21698110 25094592 26190430 30976802 30976802 30976802
240374218 664 208407100 208412412 208442790 238466440 238466523 240370815 0 11916114 43421920 52170973 52171139 93009214 93009214 32287106 581 26853013 26853013 26858076 31957440 31957440 32286940 0 21698109 25094595 26190434 30976805 30976805 30976805
237400932 8019053 221610654 229806266 231891579 235060008 235060026 235223297 137082 62448676 109660334 168484330 191220318 195314585 195314596 160475935 2425653 152359434 157831291 159617075 160055310 160055314 160083645 0 29176302 103064327 151623335 158874502 158874505 158874505
236948584 8690287 222546724 231489053 233761386 234410243 234410243 234410243 160490 67370105 115951954 179345778 204162395 204811633 204811633 172436945 2565447 163908901 169898363 171846084 171846264 171846264 171846318 0 30139436 110456938 163347877 170813772 170813772 170813772
236967713 8684410 222557008 231509616 233781746 234430308 234430308 234430308 160300 67360702 115960210 179367376 204184674 204833855 204833855 172427183 2577795 163902405 169889467 171837070 171837261 171837261 171837318 0 30136449 110451058 163338885 170804142 170804142 170804142
74528016 2771934 69960576 72891380 73605172 73809531 73809558 73809657 60552 21288140 36497931 56407316 64230915 64434862 64434916 54203954 857630 51616493 53481220 54096901 54098004 54098005 54098033 0 9477168 34727952 51350016 53694140 53694151 53694152
number of instructions: 248315368537
