1000000000,262894534,133720462,243398552,585150539,389374,78408757,8381619,9624,3904408,71834836,1997454,6053902
1000000000,262183266,133767698,243202326,585022806,386768,78781571,8440186,0,3869008,71817984,1973217,6029950
1000000000,262165519,133813134,243107182,584986609,386434,78903717,8441152,0,3865472,71836919,1971360,6025404
1000000000,262482826,133623150,243316356,585324161,386577,78537357,8355316,0,3870698,71644700,1975011,6113431
1000000000,262564887,133509475,243413773,585493876,386788,78346198,8325459,0,3872292,71558285,1975186,6151554
1000000000,262496528,133497573,243416974,585500687,386730,78352251,8328771,0,3869580,71547534,1973584,6147631
1000000000,262474185,133473431,243470144,585523186,386659,78295643,8335936,0,3869338,71520181,1974314,6148374
1000000000,272712740,126910935,201519806,564775080,309600,62155275,6577279,31,93170734,61973518,1587619,6760151
1000000000,319594500,101705403,30059089,476650999,0,1778,172,0,454372966,25543113,16,9302148
1000000000,320500738,99438313,30898779,475310723,0,1672,164,0,454702228,25816702,14,9156537
1000000000,319594419,101705473,30059199,476651173,0,1778,172,0,454372722,25543097,16,9302132
1000000000,320500685,99438369,30898838,475310830,0,1672,164,0,454702085,25816693,14,9156527
1000000000,319594649,101705262,30058905,476650672,0,1778,172,0,454373410,25543141,16,9302174
1000000000,320500515,99438533,30899047,475311220,0,1672,164,0,454701554,25816668,14,9156499
1000000000,319594740,101705186,30058803,476650490,0,1778,172,0,454373665,25543150,16,9302187
1000000000,320500532,99438510,30899041,475311176,0,1672,164,0,454701608,25816665,14,9156498
1000000000,319594713,101705197,30058822,476650527,0,1778,172,0,454373606,25543152,16,9302188
1000000000,320500437,99438605,30899145,475311382,0,1672,164,0,454701330,25816655,14,9156484
1000000000,319594775,101705146,30058770,476650415,0,1778,172,0,454373763,25543152,16,9302192
1000000000,320500601,99438450,30898940,475311024,0,1672,164,0,454701822,25816682,14,9156513
1000000000,319594632,101705267,30058946,476650707,0,1778,172,0,454373356,25543129,16,9302167
1000000000,320500499,99438548,30899043,475311227,0,1672,164,0,454701546,25816671,14,9156500
1000000000,319594797,101705121,30058758,476650375,0,1778,172,0,454373813,25543152,16,9302194
1000000000,320500446,99438587,30899106,475311331,0,1672,164,0,454701397,25816665,14,9156492
1000000000,319594792,101705138,30058761,476650398,0,1778,172,0,454373790,25543152,16,9302192
1000000000,320500376,99438637,30899153,475311435,0,1672,164,0,454701252,25816665,14,9156488
1000000000,319594947,101705014,30058623,476650126,0,1778,172,0,454374166,25543162,16,9302208
1000000000,320500253,99438791,30899447,475311857,0,1724,183,0,454700518,25816645,18,9156465
1000000000,319600754,101723754,30063988,476669812,0,1796,172,0,454350225,25541485,16,9303030
1000000000,320557041,99620612,30954222,475499211,0,1672,164,0,454468785,25800124,14,9165292
1000000000,319900897,102667514,30324562,477660282,0,1790,172,0,453156004,25457037,16,9344105
1000000000,321131749,101448046,31487610,477397453,0,1680,164,0,452143502,25635051,14,9250303
1000000000,321514144,106703062,31440919,481906543,0,1672,160,0,447998620,25131362,15,9516519
1000000000,322510548,106872059,33049217,483038414,0,1778,176,0,445297675,25110665,15,9501461
1000000000,325953546,110984096,32835392,486488068,0,1464,142,0,441660388,25226618,13,9768715
1000000000,327425626,119413044,36056662,496266408,0,1775,172,0,429905313,23994175,15,9952435
1000000000,325819924,123236306,36573775,499123744,0,1675,164,0,426542944,23639967,15,10351353
1000000000,331836868,129488070,37939457,505920863,0,1464,142,0,418239857,23571058,13,10571723
1000000000,332679379,138090081,42072798,515538993,0,1672,164,0,405564227,22330880,14,10933366
1000000000,337410981,147044504,42821705,524327126,0,1464,142,0,396004660,21998235,13,11341752
1000000000,342115335,151132953,44176275,528708469,0,1150,112,0,389855896,22145567,10,11584335
1000000000,340634533,157223273,45691211,534971227,0,1464,142,0,383096827,21084155,13,11795656
1000000000,344742059,170395642,51548828,549124977,0,1566,152,0,364165677,19610868,13,12423309
1000000000,345962948,169338951,49317581,547679853,0,1256,124,0,367036354,20309674,11,12419427
1000000000,352046581,182445939,52933243,561501096,0,1150,112,0,350178269,19337724,10,12967413
1000000000,349394137,184909411,53515639,563913670,0,1464,142,0,347975888,18597065,13,13033112
1000000000,354642592,190701307,55336282,570083387,0,1150,112,0,339674862,18592354,10,13349665
1000000000,356594670,196859963,57063714,576527417,0,1150,112,0,331870822,18039817,10,13622766
1000000000,357431954,199525174,57837867,579298096,0,1150,112,0,328481614,17799421,10,13745859
1000000000,357893965,200996637,58267117,580826318,0,1150,112,0,326609932,17666537,10,13814137
1000000000,358012274,201373198,58376685,581216869,0,1150,112,0,326131615,17632596,10,13831672
1000000000,358023513,201396173,58379781,581238700,0,1150,112,0,326107323,17630717,10,13833060
1000000000,356511655,200983393,58141122,580719344,0,1358,130,0,327263046,17363723,12,13744725
1000000000,355863460,201036028,58240294,580826978,0,1256,124,0,326868988,17450254,11,13831860
1000000000,358018327,201394741,58383657,581239555,0,1150,112,0,326103364,17630599,10,13832608
1000000000,358018914,201394971,58383201,581239513,0,1150,112,0,326103762,17630619,10,13832665
1000000000,358018850,201394932,58383258,581239502,0,1150,112,0,326103727,17630616,10,13832659
1000000000,358019011,201395009,58383142,581239536,0,1150,112,0,326103781,17630622,10,13832674
1000000000,358022635,201395989,58380426,581238895,0,1150,112,0,326106599,17630704,10,13832990
1000000000,358017866,201394366,58384028,581239357,0,1150,112,0,326103316,17630564,10,13832544
1000000000,358019107,201394920,58383082,581239378,0,1150,112,0,326104009,17630614,10,13832672
1000000000,358018937,201394996,58383184,581239538,0,1150,112,0,326103741,17630624,10,13832671
1000000000,358019380,201395042,58382869,581239386,0,1150,112,0,326104164,17630624,10,13832700
1000000000,358018280,201394817,58383681,581239649,0,1150,112,0,326103238,17630604,10,13832611
1000000000,358024854,201396505,58378778,581238429,0,1150,112,0,326108405,17630744,10,13833174
1000000000,356956317,200807236,59344370,581175952,0,1461,142,0,325630248,17324951,12,13762535
1000000000,354015711,200245276,59689944,579162780,0,1255,122,0,327287799,17153458,11,13971667
1000000000,356911266,201207982,58309474,581024327,0,1256,124,0,326500940,17537659,11,13832063
1000000000,358018681,201394909,58383383,581239568,0,1150,112,0,326103557,17630614,10,13832646
1000000000,358018895,201394942,58383218,581239491,0,1150,112,0,326103773,17630616,10,13832662
1000000000,358018918,201394951,58383220,581239508,0,1150,112,0,326103752,17630617,10,13832663
1000000000,358019146,201395059,58383022,581239502,0,1150,112,0,326103910,17630626,10,13832689
1000000000,358023063,201396098,58380119,581238840,0,1150,112,0,326106902,17630712,10,13833025
1000000000,358017103,201394113,58384607,581239427,0,1150,112,0,326102788,17630544,10,13832474
1000000000,358019153,201394973,58383031,581239411,0,1150,112,0,326104008,17630621,10,13832681
1000000000,358019024,201394982,58383131,581239477,0,1150,112,0,326103858,17630617,10,13832673
1000000000,358019176,201395027,58383015,581239468,0,1150,112,0,326103956,17630624,10,13832686
1000000000,358019257,201395092,58382954,581239500,0,1150,112,0,326103964,17630629,10,13832698
1000000000,358025809,201396694,58378068,581238189,0,1150,112,0,326109229,17630759,10,13833250
1000000000,354995678,200734301,58043447,580434905,0,1358,130,0,327792187,17237448,12,13744175
1000000000,357376607,201284389,58340087,581111953,0,1256,124,0,326337604,17576469,11,13832168
1000000000,358018691,201394907,58383368,581239538,0,1150,112,0,326103602,17630614,10,13832646
1000000000,358018624,201394879,58383424,581239564,0,1150,112,0,326103531,17630611,10,13832640
1000000000,358019095,201394994,58383080,581239477,0,1150,112,0,326103895,17630622,10,13832679
1000000000,358019050,201395050,58383100,581239533,0,1150,112,0,326103815,17630624,10,13832681
1000000000,358023203,201396057,58380016,581238715,0,1150,112,0,326107124,17630709,10,13833030
1000000000,358017164,201394122,58384554,581239414,0,1150,112,0,326102845,17630546,10,13832479
1000000000,358019150,201395054,58383035,581239504,0,1150,112,0,326103900,17630624,10,13832687
1000000000,358018987,201394955,58383163,581239475,0,1150,112,0,326103834,17630617,10,13832668
1000000000,358019156,201395031,58383023,581239472,0,1150,112,0,326103945,17630624,10,13832686
1000000000,358019885,201395166,58382486,581239286,0,1150,112,0,326104570,17630636,10,13832745
1000000000,358025992,201396695,58377955,581238109,0,1150,112,0,326109410,17630757,10,13833259
1000000000,354529565,200657829,58013397,580347575,0,1358,130,0,327954748,17198633,12,13744017
1000000000,357841785,201360699,58370800,581199518,0,1256,124,0,326174260,17615271,11,13832256
1000000000,358018754,201394945,58383340,581239589,0,1150,112,0,326103567,17630617,10,13832652
1000000000,358018839,201394965,58383263,581239548,0,1150,112,0,326103672,17630619,10,13832660
1000000000,358019037,201394995,58383112,581239484,0,1150,112,0,326103862,17630621,10,13832676
1000000000,358019257,201395075,58382948,581239483,0,1150,112,0,326103988,17630629,10,13832697
1000000000,358022649,201395918,58380431,581238824,0,1150,112,0,326106680,17630697,10,13832984
1000000000,358017342,201394197,58384420,581239398,0,1150,112,0,326102970,17630549,10,13832494
1000000000,358019311,201395072,58382911,581239444,0,1150,112,0,326104060,17630628,10,13832700
1000000000,358019057,201394971,58383110,581239470,0,1150,112,0,326103879,17630620,10,13832676
1000000000,358018935,201394964,58383189,581239488,0,1150,112,0,326103802,17630616,10,13832664
1000000000,358020588,201395383,58381975,581239213,0,1150,112,0,326105048,17630652,10,13832807
1000000000,358026151,201395098,58378000,581236265,0,1150,112,0,326111536,17630609,10,13833120
361269227,124831317,71395160,22420491,208315516,0,730,70,0,118879455,5724420,6,5016551
number,of,instructions:,105361269227
