64338,1095,1619,161
56032,904,244,35
55979,903,244,35
56056,906,256,35
56081,904,245,35
56039,903,244,35
56036,904,257,35
1218654,19147,644,80
1249950,19545,145,15
1249950,19545,145,15
1249950,19545,145,15
1249950,19545,145,15
1249950,19545,145,15
1249950,19545,145,15
1249950,19545,145,15
1249950,19545,145,15
1249950,19545,145,15
1249950,19545,145,15
1249950,19545,145,15
1249950,19545,145,15
1249950,19545,145,15
1249950,19545,145,15
1249950,19545,145,15
1249950,19545,145,15
1249950,19545,145,15
1249950,19545,145,15
1249950,19545,145,15
1250010,19561,198,26
1249955,19548,172,19
1249951,19545,163,16
1249955,19548,172,19
1249955,19548,169,19
1249951,19545,163,16
1249951,19545,163,16
1249951,19545,163,16
1249951,19545,163,16
1249951,19545,163,16
1249951,19545,163,16
1249951,19545,163,16
1249951,19545,163,16
1249951,19545,163,16
1249951,19545,163,16
1249951,19545,163,16
1249951,19545,163,16
1249951,19545,163,16
1249951,19545,163,16
1249951,19545,163,16
1249951,19545,163,16
1249951,19545,163,16
1249951,19545,163,16
1249951,19545,163,16
1249951,19545,163,16
1249951,19545,163,16
1249951,19545,163,16
1249951,19545,163,16
1249951,19545,163,16
1249951,19545,163,16
1249951,19545,163,16
1249951,19545,163,16
1249951,19545,163,16
1249951,19545,163,16
1249951,19545,163,16
1249951,19545,163,16
1249951,19545,163,16
1249951,19545,163,16
1249951,19545,163,16
1249951,19545,163,16
1249951,19545,163,16
1249951,19545,163,16
1249951,19545,163,16
1249951,19545,163,16
1249951,19545,163,16
1249951,19545,163,16
1249951,19545,163,16
1249951,19545,163,16
1249951,19545,163,16
1249951,19545,163,16
1249951,19545,163,16
1249951,19545,163,16
1249951,19545,163,16
1249951,19545,163,16
1249951,19545,163,16
1249951,19545,163,16
1249951,19545,163,16
1249951,19545,163,16
1249951,19545,163,16
1249951,19545,163,16
1249951,19545,163,16
1249951,19545,163,16
1249951,19545,163,16
1249951,19545,163,16
1249951,19545,163,16
1249951,19545,163,16
1249951,19545,163,16
1249951,19545,163,16
1249951,19545,163,16
1249951,19545,163,16
1249951,19545,163,16
1249951,19545,163,16
1249951,19545,163,16
1249951,19545,163,16
1249951,19545,163,16
1249951,19545,163,16
1249951,19545,163,16
1249951,19545,163,16
1249951,19545,163,16
number,of,instructions:,105361269227
