262894709,59606,120321068,31445738,43011483,21007953,10889806,12508248,23520308,3606,122758,1696,1149,790,497,2,1,0,0,0,0
262183266,52084,120462786,31444036,42837824,20878662,10764029,12356544,23267664,3,119602,0,3,16,8,4,1,0,0,0,0
262165519,52034,120496037,31421383,42840659,20866334,10753395,12344264,23271869,3,119508,2,5,12,7,7,0,0,0,0,0
262482826,52106,120823699,31333214,42774264,20887965,10762959,12360814,23367877,127,119744,10,15,23,8,0,1,0,0,0,0
262564887,52128,120952492,31301297,42709627,20877036,10766880,12364471,23421186,4,119718,8,14,13,10,2,0,1,0,0,0
262496528,52090,120933076,31304759,42683802,20873780,10758937,12354996,23415419,4,119630,1,5,12,15,1,0,1,0,0,0
262474185,52087,120907035,31314775,42664350,20883982,10757511,12353787,23420895,86,119631,13,8,9,15,0,1,0,0,0,0
272712749,524028,130367061,35465347,35536668,23145879,14414149,11235165,18952464,41289,168287,133837,252084,430206,584382,481717,165882,31886,7802,316433,458183
319594500,360871,167415413,55594121,8052869,33106401,29766380,6699701,822641,223894,411392,735337,1341265,2214412,2968230,2491197,863532,160134,39366,421210,5906134
320500738,0,167462890,55785289,7950095,33460097,30079203,6767560,823005,217218,398235,716308,1320208,2228381,3033814,2566768,897413,166297,40944,689128,5897885
319594419,0,167415176,55594077,8052976,33106482,29766477,6698690,822263,223684,411233,735536,1341317,2213656,2966920,2493136,864856,160317,39382,421171,6267070
320500685,0,167463060,55785225,7950121,33460085,30079718,6768185,823235,217419,398344,715990,1319709,2228426,3034029,2565248,897406,166243,40938,689200,5898104
319594649,0,167415213,55594276,8052774,33107037,29765638,6698718,822337,223597,411164,735883,1341096,2213236,2966031,2494204,865603,160278,39459,421099,6267006
320500515,0,167463082,55785062,7950248,33459441,30080679,6768186,823263,217397,398439,716116,1320216,2229386,3034703,2563137,896426,166553,40720,689286,5898175
319594740,0,167415070,55594392,8052727,33106963,29765554,6698597,822203,223460,410939,735716,1340699,2212359,2965225,2495918,867268,159906,39652,421049,6267043
320500532,0,167463200,55785040,7950245,33459730,30080613,6768039,823289,217546,398388,716352,1320267,2229087,3035707,2562621,895351,166737,40669,689355,5898296
319594713,0,167415280,55594325,8052721,33106881,29765503,6698610,821759,223266,410981,734961,1340076,2211806,2964718,2497562,868577,160034,39661,421016,6266976
320500437,0,167462949,55785021,7950316,33459563,30080390,6768503,823823,217651,398527,716542,1321272,2229959,3036127,2560286,894713,166699,40618,689295,5898183
319594775,0,167415293,55594363,8052703,33106922,29765450,6698481,821453,223239,411043,735111,1339737,2211732,2963764,2498696,869338,159861,39593,421086,6266910
320500601,0,167463188,55785111,7950167,33459783,30080465,6768412,823675,217621,398373,716894,1321311,2229213,3036227,2560899,894332,166726,40810,689295,5898099
319594632,0,167415120,55594276,8052840,33106621,29765503,6698229,821711,223247,411099,734595,1339005,2211002,2963534,2500098,870251,160001,39410,420976,6267114
320500499,0,167463110,55785077,7950200,33459970,30080521,6768400,823788,217602,398080,717348,1321859,2229600,3036047,2559577,894247,166762,40956,689357,5897998
319594797,0,167415209,55594376,8052730,33106829,29765499,6698038,820872,223084,411435,733672,1338201,2210118,2964563,2501906,870719,160052,39373,421040,6267081
320500446,0,167462990,55785080,7950227,33459478,30080319,6768728,824863,217881,398196,718323,1323041,2230463,3034762,2556977,893855,166821,41006,689302,5898134
319594792,0,167415501,55594280,8052720,33107350,29765446,6698191,820179,222828,411020,732685,1336549,2209589,2965146,2504214,871564,160059,39430,421095,6266946
320500376,0,167463053,55785036,7950240,33459493,30080298,6768547,825204,218151,398581,719168,1324256,2230920,3034400,2554749,893432,166675,40852,689250,5898071
319594947,0,167415326,55594424,8052676,33107038,29766268,6697694,819467,222899,410706,731769,1335323,2208534,2965305,2507705,871864,160272,39396,421114,6267167
320500253,10,167462859,55784961,7950340,33459659,30080120,6768876,825636,217996,398580,719537,1324881,2230941,3033585,2553733,893417,166739,40919,689260,5898204
319600754,0,167424175,55590504,8052941,33107726,29765913,6697903,819160,222699,410780,731075,1334693,2208949,2965659,2509861,871614,159905,39366,421109,6266722
320557041,0,167544720,55746223,7958071,33473755,30079810,6769493,826592,218246,398784,720343,1324553,2228999,3031442,2550098,893542,166917,40854,689243,5895356
319900897,0,167864089,55399948,8061486,33193559,29770189,6695468,819672,223152,410161,728455,1329545,2199289,2955132,2507185,870452,159404,39088,417006,6257617
321131749,0,168379475,55364588,8012900,33640899,30083250,6758224,826419,219561,398223,719040,1318942,2213257,3007427,2533193,890912,166475,40738,693305,5864921
321514144,0,169876303,54639653,8099916,33660847,29837912,6675782,815823,219228,399144,706204,1285623,2156039,2947798,2517513,871388,159894,39670,398044,6207363
322510548,0,170737422,54184632,8150825,34099522,30050201,6710102,828507,223715,400412,716269,1308868,2171723,2921227,2456922,855755,159338,38823,711498,5784787
325953546,0,173134179,53815680,8182599,35084174,30597769,6791584,831675,222468,398269,711873,1303505,2193549,2968957,2483771,860577,160560,39820,397983,5774554
327425626,0,176800033,52297924,8232752,35270042,30055053,6583019,810188,220157,389546,684927,1240708,2061695,2797887,2387832,838026,153123,37637,504593,6060484
325819924,0,177302376,50604213,8445393,35421752,29953741,6546205,811458,222924,387486,685912,1251702,2065607,2742827,2282937,793247,147220,35995,601257,5517672
331836868,0,181765468,50078971,8350864,36969544,30701760,6637919,819593,217942,375235,668550,1217734,2036258,2763546,2327358,805895,150309,37362,399111,5513449
332679379,0,185180098,47768640,8991745,37228968,30196644,6431413,791002,208823,361513,638710,1162515,1935130,2606198,2196996,770367,141765,34749,687097,5347006
337410981,0,189931124,46521348,8564613,38760768,30797454,6465970,791671,202009,349683,614794,1118550,1879894,2585184,2215883,775250,143044,35014,375153,5283575
342115335,0,193223010,45789627,8662244,40233644,31625589,6590884,805241,204028,346960,620550,1138270,1917519,2601711,2188250,763964,141929,34723,394013,4833179
340634533,0,194641838,44443027,8742267,39801272,30851180,6359656,779925,200642,346027,617225,1118067,1839567,2444118,2048358,719823,133784,32781,395903,5119073
344742059,0,200660741,41345756,10057753,40819664,30604664,6144356,740201,180304,315114,553823,1002755,1682993,2308812,1967104,678230,124577,30880,587183,4937149
345962948,0,200887437,41745903,8988505,41661982,31407495,6344077,775292,195255,332585,589037,1068539,1767223,2356848,1975188,696216,129671,31693,470276,4539726
352046581,0,207758252,39425032,9112274,43458042,31794189,6257491,750895,179821,306349,535431,976503,1655723,2283166,1947894,675309,123986,30333,371068,4404823
349394137,0,207441445,38782104,9250725,42605968,30995620,6083265,743470,188873,315629,552255,999852,1635746,2153496,1769737,608586,113639,28364,393971,4731392
354642592,0,211531410,37708827,9361123,44254490,31832873,6181665,752799,173114,286180,511964,938190,1577762,2171552,1880013,667799,122932,29489,371253,4289157
356594670,0,214387497,36458931,9459280,44930382,31865510,6086797,725703,163291,286188,518302,949107,1584416,2115185,1746978,606777,113747,28168,370738,4197673
357431954,0,215607025,35909423,9537083,45219552,31885494,6041462,710118,155816,278596,501459,918037,1543986,2095189,1751984,602825,112197,28030,370347,4163331
357893965,0,216279354,35606026,9582427,45391789,31892871,6001957,697809,153010,275168,494280,905209,1520280,2070889,1760628,608781,112909,27649,370469,4142460
358012274,0,216451842,35529185,9593095,45444212,31889790,5986350,695031,152121,274242,493794,902774,1511022,2059957,1760673,620189,113268,27745,370275,4136709
358023513,0,216466074,35525819,9590372,45449998,31885259,5983933,695582,153765,279091,498109,907775,1519497,2060195,1754653,611423,112338,27638,370451,4131541
356511655,0,215632851,35819665,9665957,44761869,31402539,5894827,686775,153718,277894,500148,910325,1506856,2025843,1699260,591599,109793,27099,370604,4474033
355863460,0,215512200,35269905,9527807,44984120,31564063,5929436,693517,156623,281878,505141,920532,1515884,2018977,1695837,590892,109218,26860,378409,4182161
358018327,0,216460964,35524587,9594331,45447224,31890116,5987347,697262,154540,277930,502563,922437,1538817,2061834,1716060,595882,110750,27030,382979,4125674
358018914,0,216461494,35524754,9593853,45447367,31889542,5986719,698486,153525,276033,499093,910735,1524754,2066843,1737256,601717,112109,27837,372336,4134461
358018850,0,216461782,35524667,9593870,45447533,31889311,5985777,697027,152997,274796,495177,906468,1516383,2065731,1751939,607770,113096,27792,370468,4136266
358019011,0,216461792,35524766,9593705,45447547,31890044,5985361,695669,152352,274405,493322,903046,1512900,2059521,1755802,619484,114110,27626,370592,4136967
358022635,0,216464920,35525738,9590991,45449124,31887009,5982927,695324,152228,273870,494190,905766,1514274,2056309,1760337,624371,114901,27950,370624,4131782
358017866,0,216460321,35524460,9594935,45446854,31887381,5985304,696763,155211,279978,506934,925964,1544641,2061216,1709518,593966,110511,27590,370498,4135821
358019107,0,216461829,35524744,9593780,45447532,31887678,5988521,697135,153918,277060,499241,914448,1532827,2072303,1725182,597214,111435,27339,370208,4136713
358018937,0,216461412,35524762,9593797,45447165,31888504,5986915,696616,153186,275971,496448,908943,1525811,2070737,1741627,600782,111624,27775,370367,4136495
358019380,0,216462192,35524786,9593534,45447733,31889512,5986578,695288,152706,274957,493696,903608,1517123,2065774,1756216,608597,112736,27606,370409,4136329
358018280,0,216461121,35524549,9594297,45447334,31890004,5984520,694657,152105,274173,493886,902333,1509805,2058965,1761168,621157,113342,27680,370299,4136885
358024854,0,216467310,35526155,9589387,45450664,31884152,5984352,695881,153968,279543,498628,909262,1521787,2062645,1751287,608859,112076,27609,370485,4130804
356956317,0,215572879,35682247,10380229,44661450,31333064,5881616,685215,153321,277046,498921,907898,1502874,2019545,1696531,591189,109692,27066,417294,4558240
354015711,0,214231249,34738270,10948193,44217902,31025296,5824154,677913,149751,269823,485793,888108,1483341,2005530,1691907,589641,109170,26832,572731,4080107
356911266,0,215971631,35393906,9561789,45209006,31722186,5960004,697417,157884,284029,509068,927822,1527608,2026920,1698120,591868,109368,26879,422135,4113626
358018681,0,216461846,35524517,9594002,45447789,31890495,5986426,696495,154138,277202,501628,919453,1535344,2065374,1720746,596790,111077,27225,382705,4125429
358018895,0,216461406,35524761,9593875,45447265,31889281,5986602,699278,153327,275492,498232,910185,1523376,2066365,1740034,602566,112225,27859,370325,4136441
358018918,0,216461695,35524753,9593816,45447428,31889977,5985834,696199,152819,274784,494512,905591,1515330,2065396,1753113,609676,113338,27654,370495,4136508
358019146,0,216461965,35524763,9593592,45447726,31889671,5985218,695974,152426,274229,493003,902592,1512072,2057690,1757219,621819,114094,27613,370601,4136879
358023063,0,216465352,35525848,9590679,45449415,31884889,5982036,694746,152348,274738,496066,909346,1519712,2061555,1753749,618646,114676,28249,370715,4130298
358017103,0,216459565,35524247,9595575,45446329,31888712,5986829,697581,155240,280063,507020,925431,1543946,2058846,1708307,593997,110334,27241,370346,4137494
358019153,0,216461645,35524857,9593685,45447477,31887922,5988327,696742,153982,276815,498429,913509,1531577,2073174,1728164,597577,111337,27388,370213,4136333
358019024,0,216461741,35524693,9593786,45447419,31888910,5986658,696382,153023,275448,495615,907233,1523699,2069550,1746078,601887,111980,27861,370403,4136658
358019176,0,216461983,35524749,9593634,45447622,31889175,5986860,695280,152584,274990,493521,903568,1515982,2064547,1756698,610957,112764,27546,370356,4136360
358019257,0,216461961,35524816,9593559,45447688,31890005,5983990,694907,152094,274105,493956,902000,1509931,2058003,1761555,623443,113462,27653,370325,4135804
358025809,0,216468156,35526390,9588724,45451153,31882831,5984441,696014,154470,280806,500960,913806,1528779,2064756,1741992,602398,111586,27632,370590,4130325
354995678,0,214966307,35639987,9619119,44435305,31176307,5852148,681825,152345,274939,495230,900904,1490524,2008224,1692985,590256,109359,26960,370411,4512543
357376607,0,216175992,35448895,9576751,45309219,31792718,5973189,699217,158285,284761,510482,930504,1532440,2031459,1699327,592060,109388,26879,381863,4143178
358018691,0,216461707,35524587,9594008,45447601,31890647,5986153,696320,153968,277084,501281,918909,1534494,2065856,1722265,597337,111231,27427,381625,4126191
358018624,0,216461159,35524703,9594062,45447169,31888777,5986745,699144,153341,275376,497849,909628,1522407,2066588,1741614,603165,112375,27729,370373,4136420
358019095,0,216462008,35524764,9593665,45447602,31889958,5985923,696228,152771,274662,494433,905158,1514405,2064924,1754093,610302,113407,27704,370491,4136597
358019050,0,216461869,35524707,9593693,45447647,31889857,5984593,695755,152339,274065,492997,902671,1512255,2056502,1757576,623270,114276,27652,370569,4136757
358023203,0,216465154,35525976,9590620,45449227,31884537,5982669,694936,152613,275348,497394,911155,1522099,2063270,1749522,615430,114254,28260,370694,4130045
358017164,0,216459693,35524249,9595527,45446430,31888755,5986926,697566,155339,279840,506369,925030,1543548,2059077,1709122,594201,110369,27072,370320,4137731
358019150,0,216461853,35524801,9593626,45447618,31888464,5988139,696774,153777,276763,498151,912418,1531028,2073384,1729182,597901,111338,27427,370196,4136310
358018987,0,216461779,35524652,9593827,45447447,31888753,5986832,696074,152859,275187,495211,906823,1522915,2069116,1747928,602637,112012,27846,370421,4136668
358019156,0,216461930,35524765,9593644,45447640,31888969,5986533,695575,152709,275072,493421,903811,1515201,2063870,1757109,611720,112824,27635,370348,4136380
358019885,0,216462461,35524979,9593146,45447994,31889479,5984093,695541,152197,274066,494247,901787,1509728,2056926,1762363,624166,113496,27547,370347,4135322
358025992,0,216468091,35526480,9588661,45451039,31882646,5983805,695458,155138,282356,503882,917864,1531485,2063099,1736556,599921,111358,27728,370772,4129653
354529565,0,214761558,35584728,9604605,44334989,31106801,5839773,680252,151344,273060,491523,895682,1485875,2006329,1692103,589770,109272,26854,370197,4524850
357841785,0,216380140,35503890,9591855,45409253,31863379,5986378,700548,158669,285318,511979,932980,1537291,2036280,1700768,592321,109452,26879,383000,4131405
358018754,0,216461474,35524679,9593950,45447362,31890383,5986280,696607,153940,276971,501152,918436,1532580,2066280,1724253,598121,111466,27552,380513,4126755
358018839,0,216461431,35524765,9593881,45447228,31889224,5986379,698925,153220,275174,497168,909251,1522562,2066062,1742927,603510,112521,27739,370373,4136499
358019037,0,216462286,35524643,9593700,45447999,31889251,5986488,696300,152788,274868,494465,904561,1514015,2065006,1753544,611139,113272,27606,370472,4136634
358019257,0,216461695,35524868,9593546,45447478,31890397,5984627,695463,152231,273824,492842,902505,1511811,2056043,1758771,624053,114271,27699,370633,4136500
358022649,0,216464878,35525758,9591038,45449094,31884175,5982022,695669,153011,276123,498642,912942,1525384,2063231,1744999,612638,114015,28243,370646,4130141
358017342,0,216459883,35524287,9595383,45446446,31888390,5987320,697184,155137,279518,505599,924712,1542641,2060350,1710312,594621,110520,27006,370298,4137735
358019311,0,216462031,35524835,9593506,45447795,31888767,5987862,696664,153697,276775,498274,911615,1530176,2072625,1730834,598025,111434,27606,370256,4136534
358019057,0,216461691,35524710,9593779,45447344,31888916,5987035,695814,152821,275134,494732,906591,1522426,2069614,1748821,603054,111936,27742,370384,4136513
358018935,0,216461608,35524757,9593826,45447420,31888969,5986240,695682,152683,274789,493470,903520,1514208,2063288,1758529,612658,112862,27708,370344,4136374
358020588,0,216463379,35525057,9592607,45448676,31888050,5984283,695397,152271,274145,494503,902467,1510768,2056910,1761723,624461,113509,27492,370382,4134508
358026151,0,216466780,35526532,9590024,45450684,31883072,5983750,696178,156196,284621,507463,922759,1530661,2059181,1731372,597638,111172,27656,370780,4129632
124831317,0,75602805,12412284,4827164,14756297,10353894,1943941,226467,50182,90498,163089,297029,494463,668510,563969,196547,36390,8944,317213,1821631
number,of,instructions:,105361269227
