PACKAGE_ENERGY:PACKAGE0,PACKAGE_ENERGY:PACKAGE1,DRAM_ENERGY:PACKAGE0,DRAM_ENERGY:PACKAGE1,TOTAL_ENERGY,TOTAL_TIME,POWER
4879.837646484000,3972.251525878000,1069.261947631000,858.178390502000,10779.529510495000,163.108840296045,66.087953852961
2464.229492187000,2585.216674804000,522.478622436000,492.105239868000,6064.030029295001,82.335347398999,73.650384930163
1785.688049316000,1957.330810546000,367.425643920000,342.247055053000,4452.691558835000,56.012096035993,79.495178255314
1460.380187988000,1515.388244628000,276.453186035000,259.175292968000,3511.396911619001,42.093778343056,83.418430225051
1256.586303710000,1323.368591308000,230.542358398000,216.323974609000,3026.821228025000,34.685130627942,87.265671866509
1179.053222656000,1219.717407226000,200.388534545000,192.131378173000,2791.290542600000,29.989566972014,93.075386690473
1025.970031738000,1128.712463378000,172.593948364000,167.716156005000,2494.992599485000,25.701651199022,97.075187121826
952.216491699000,1019.515686035000,151.768585205000,146.166397094000,2269.667160033000,22.272767941002,101.903237444269
970.276977539000,989.522399902000,144.150360107000,134.682144165000,2238.631881713000,20.842293789960,107.408133877828
882.174316406000,936.247070312000,127.649169921000,121.429229736000,2067.499786375000,18.170003026025,113.786430492811
824.423828125000,886.130615234000,121.122390747000,110.460327148000,1942.137161254000,16.864952786011,115.158173633607
792.591308593000,812.690368652000,106.213470458000,104.831115722000,1816.326263425000,15.274859089986,118.909526610017
771.525268554000,789.713500976000,102.628280639000,95.765762329000,1759.632812498000,14.459951041965,121.690094758364
758.454467773000,754.192321777000,99.866821289000,97.291000366000,1709.804611205000,13.335875608027,128.210899790926
772.209045410000,794.958007812000,101.848159790000,96.090606689000,1765.105819701000,13.225147034973,133.465874899788
748.398071289000,748.458923339000,99.579589843000,92.246704101000,1688.683288572000,12.379157662042,136.413424456974
723.583374023000,771.409179687000,90.183761596000,89.369415283000,1674.545730589000,11.739829306025,142.637996425519
747.576477050000,745.201538085000,93.841369628000,87.184509277000,1673.803894040000,11.442011144012,146.285812255648
736.497131347000,765.803466796000,86.490219116000,83.569183349000,1672.360000608000,11.049832124962,151.347095747287
763.597900390000,761.057617187000,91.134323120000,82.936203002000,1698.726043699000,10.988141591079,154.596300895705
720.771911621000,753.984924316000,82.297134399000,77.694366455000,1634.748336791000,10.185530054965,160.497129552342
690.946289062000,716.173522949000,79.288742065000,78.111770629000,1564.520324705000,9.469819130027,165.211215042560
678.696350097000,709.096557617000,75.606826782000,74.796493530000,1538.196228026000,9.167498733033,167.787994612248
684.089172363000,692.579406738000,72.399917602000,73.762222290000,1522.830718993000,8.849560089060,172.079821332083
707.262695312000,723.128112792000,74.183593750000,71.430038452000,1576.004440306000,8.952010561014,176.050333002239
679.835327148000,686.491943359000,74.649810791000,69.557418823000,1510.534500121000,8.281517759082,182.398268537730
716.398010253000,717.980285644000,74.334060668000,67.319915771000,1576.032272336000,8.643224354018,182.343094172172
680.138061523000,677.811706542000,72.115280151000,65.172943115000,1495.237991331000,7.912593908026,188.969383328816
923.145446777000,927.398437500000,90.095642089000,87.993026733000,2028.632553099000,11.086496473989,182.982293627084
914.222839355000,914.222106933000,93.419692993000,85.468231201000,2007.332870482000,10.930507662008,183.644980869381
889.470397949000,885.126953125000,88.922653198000,82.609451293000,1946.129455565000,10.624694343074,183.170394622561
863.638854980000,861.838562011000,87.444183349000,84.024887084000,1896.946487424000,10.331147755962,183.614302324668
846.461547851000,844.664855957000,85.652984619000,81.888565063000,1858.667953490000,10.118653472979,183.687281954411
824.008850097000,826.669128417000,83.782058715000,79.877075195000,1814.337112424000,9.865633956972,183.904766823615
809.039794921000,797.885620117000,81.881851196000,80.374267578000,1769.181533812000,9.577141968999,184.729592558907
787.825622558000,786.606750488000,83.406295776000,76.599609375000,1734.438278197000,9.417444561026,184.172921534887
782.550720214000,762.589416503000,84.986129760000,73.106750488000,1703.233016965000,9.175923499977,185.619792598448
752.324523925000,763.391235351000,78.895492553000,77.572097778000,1672.183349607000,8.977611997980,186.261485791913
742.120849609000,746.171264648000,79.675231933000,76.102127075000,1644.069473265000,8.792023596005,186.995571077872
738.890258789000,723.928039550000,79.779144287000,74.600753784000,1617.198196410000,8.602690111031,187.987498740230
721.547119140000,711.555297851000,78.971054077000,71.129638671000,1583.203109739000,8.391395178973,188.669830936601
711.217407226000,698.113281250000,74.024368286000,72.125152587000,1555.480209349000,8.242145678960,188.722727058776
702.387817382000,694.736999511000,75.777175903000,71.311828613000,1544.213821409000,8.128870634013,189.966588341029
678.254272460000,690.290649414000,73.865036010000,71.754348754000,1514.164306638000,7.926780884038,191.018816943344
681.382629394000,675.272277832000,76.237960815000,67.839157104000,1500.732025145000,7.803002241999,192.327514282574
667.574401855000,658.421020507000,70.048309326000,69.983963012000,1466.027694700000,7.614269720041,192.536874658029
640.299804687000,659.851501464000,68.047058105000,66.207366943000,1434.405731199000,7.443091406021,192.716393357551
646.438293457000,639.916625976000,71.630523681000,66.183929443000,1424.169372557000,7.321489961003,194.519063761976
638.300048828000,643.223571777000,70.330368041000,64.485427856000,1416.339416502000,7.264067826094,194.978825970512
630.469848632000,625.179443359000,69.570281982000,63.227066040000,1388.446640013000,7.088243752951,195.880205083946
611.428222656000,615.314331054000,66.835906982000,62.074371337000,1355.652832029000,6.926012838958,195.733514151699
610.810546875000,612.663269042000,67.986053466000,62.235763549000,1353.695632932000,6.877293254947,196.835525656580
621.503234863000,622.319458007000,64.996246337000,61.718048095000,1370.536987302000,7.014890010003,195.375406506397
599.428222656000,607.936401367000,63.110244750000,62.966491699000,1333.441360472000,6.776541426079,196.773143795784
588.667602539000,587.878051757000,64.442047119000,59.906158447000,1300.893859862000,6.576954326010,197.795787438765
738.184265136000,735.712097167000,76.552215576000,70.379470825000,1620.828048704000,8.392812079052,193.120974643242
