PACKAGE_ENERGY:PACKAGE0,PACKAGE_ENERGY:PACKAGE1,DRAM_ENERGY:PACKAGE0,DRAM_ENERGY:PACKAGE1,TOTAL_ENERGY,TOTAL_TIME,POWER
6125.718994140000,5035.708007812001,1356.076995849000,1115.622634887000,13633.126632688001,201.639690876938,67.611324801169
3037.169433593000,3184.020629882000,656.921417236000,606.007324218000,7484.118804928999,100.323778745951,74.599650237268
2228.313964843000,2448.157104492000,462.470123291000,436.019332885000,5574.960525511001,69.667640055995,80.022238747145
1871.922546386000,1954.959533691000,368.370681762000,346.278335571000,4541.531097409999,53.592255071038,84.742302621714
1640.878967285000,1772.705627441000,314.579254150000,276.442413330000,4004.606262206000,44.035170727991,90.941086318088
1454.597717285000,1560.924682617000,257.091522216000,246.309661865000,3518.923583983000,36.871837603045,95.436620812531
1306.845397949000,1419.347961425000,214.644912719000,225.949081420000,3166.787353513000,31.803768874030,99.572706808939
1213.934082031000,1277.586425781000,204.046813964000,192.909317016000,2888.476638792000,27.599602803937,104.656456808862
1138.225158691000,1182.258605957000,183.647857666000,169.942077636000,2674.073699950000,24.555946529028,108.897195096468
1114.984252929000,1144.650390625000,174.503524780000,166.513656616000,2600.651824950000,22.531376744970,115.423564852983
1060.454406738000,1139.272521972000,162.127487182000,157.753204345000,2519.607620237000,21.165847655968,119.041186594130
1015.506225585000,1059.930847167000,149.301681518000,141.268859863000,2366.007614133000,18.918795170961,125.061220482193
1133.862670898000,1202.122375488000,164.873428344000,173.891448974000,2674.749923704000,20.673610765021,129.379911139158
982.377502441000,1017.194641113000,142.239715576000,135.848175048000,2277.660034178000,16.817811870016,135.431413538330
1076.069885253000,1126.858032226000,146.379287719000,156.353073120000,2505.660278318000,18.235198720940,137.407895393025
965.039489746000,996.623718261000,141.833724975000,128.933853149000,2232.430786131000,15.347370614996,145.460147026726
1036.296325683000,1056.952575683000,151.987762451000,135.900390625000,2381.137054442000,16.119737954927,147.715618026796
983.928649902000,1027.846313476000,143.710617065000,134.293853759000,2289.779434202000,14.701786663034,155.748378525951
1003.468139648000,1034.721008300000,139.858428955000,130.884063720000,2308.931640623000,14.566709697945,158.507424703379
976.522460937000,1003.867065429000,137.485031127000,123.522247314000,2241.396804807001,13.470374944969,166.394537194684
976.787658691000,1034.260498046000,123.088500976000,106.983016967000,2241.119674680000,13.464847428957,166.442262825818
954.477600097000,963.022888183000,133.998168945000,117.624496459000,2169.123153684000,12.392047904083,175.041540387314
956.788085937000,979.909912109000,118.420547485000,116.669464111000,2171.788009642000,12.266932212049,177.044102967225
951.577697753000,970.942016601000,130.022735595000,115.672103881000,2168.214553830000,11.490358493989,188.698599348680
968.002380371000,1010.993103027000,119.591476440000,118.709625244000,2217.296585082000,11.933970263111,185.797059670560
973.578491210000,994.442382812000,115.046447753000,107.857727050000,2190.925048825000,11.581929617911,189.167532622275
925.788269042000,931.787780761000,115.703826904000,103.742965698000,2077.022842405000,10.545063070953,196.966374542254
990.295715332000,980.002014160000,119.628875732000,104.741973876000,2194.668579100000,11.079799204948,198.078371142307
1245.313476562000,1240.142211914000,143.472808837000,129.743438720000,2758.671936033000,14.304018402938,192.859926373306
1255.711181640000,1259.469787597000,146.661437988000,137.847869873000,2799.690277098000,14.456832838012,193.658618624729
1209.518981933000,1212.507507324000,128.840850830000,124.952636718000,2675.819976805000,14.026613231050,190.767360069621
1200.223693847000,1206.507812500000,142.911911010000,134.011199951000,2683.654617308000,13.860932344920,193.612850169603
1182.561584472000,1182.050415039000,141.492736816000,134.019088745000,2640.123825072000,13.561548774946,194.677161796559
1174.351623535000,1166.536682128000,133.729766845000,128.393646240000,2603.011718748000,13.442242978024,193.644150236197
1133.819641113000,1143.335388183000,137.966522216000,133.226577758000,2548.348129270000,13.018949256977,195.741459542466
1110.714111328000,1116.045166015000,135.693359375000,130.445800781000,2492.898437499000,12.691094490001,196.428955710880
1110.087646484000,1080.111145019000,135.176406860000,126.895263671000,2452.270462034001,12.383536341018,198.026669806050
1094.997253417000,1073.205993652000,137.190429687000,127.057174682000,2432.450851438000,12.211417968967,199.194791106128
1055.746826171000,1065.891113281000,130.357894897000,125.135498046000,2377.131332395000,11.891572282999,199.900507336069
1031.847656250000,1063.480041503000,131.145599365000,122.052536010000,2348.525833128001,11.703026219970,200.676798375497
1023.484558105000,1036.637329101000,129.732284545000,122.983551025000,2312.837722776000,11.425125446054,202.434339447430
1009.178894042000,1007.239318847000,126.091827392000,119.984893798000,2262.494934079000,11.154306211043,202.836007123334
982.548889160000,986.791015625000,122.315841674000,111.811508178000,2203.467254637001,10.847771780915,203.126254786604
986.839660644000,959.413940429000,119.090682983000,108.712219238000,2174.056503294000,10.686249617022,203.444293480761
979.249328613000,987.506042480000,125.100753784000,118.119338989000,2209.975463866000,10.669153787079,207.136902135796
954.353332519000,951.271118164000,117.488586425000,107.247039794000,2130.360076902000,10.322276856983,206.384706244417
919.413330078000,955.444946289000,102.304016113000,111.672164916000,2088.834457396000,10.127371669980,206.256324490180
1059.198181152000,1118.523803710000,105.560089111000,138.049316406000,2421.331390378999,11.985383732012,202.023685225189
928.476318359000,948.981018066000,121.390441894000,115.403076171000,2114.250854490000,10.020115116960,211.000655163268
924.236267089000,922.779846191000,120.807678222000,110.271255493000,2078.095046995000,9.795114013948,212.156289761992
925.671264648000,918.485778808000,115.626647949000,109.043121337000,2068.826812742000,9.804095735075,211.016586194748
905.544799804000,888.617492675000,115.536346435000,108.553451538000,2018.252090452000,9.483957614983,212.806949628668
885.134094238000,888.490539550000,112.057144165000,101.846298217000,1987.528076170000,9.373238798929,212.042829464349
907.262756347000,899.585998535000,113.777633666000,105.273941040000,2025.900329588000,9.561423812993,211.882703790939
890.802124023000,891.464172363000,114.967514038000,100.850875854000,1998.084686278000,9.375828315038,213.110204148384
844.777404785000,846.792236328000,104.589065551000,99.126327514000,1895.285034178000,8.855944725918,214.012744301722
