42793,727,1257,123
39508,634,171,23
39379,631,174,24
38684,621,174,24
38679,620,174,24
38679,621,174,24
38679,620,174,24
38679,621,171,23
38680,620,174,24
38677,620,174,24
38679,621,171,23
38679,620,174,24
38680,621,171,23
38680,620,171,23
38680,621,171,23
38679,620,174,24
38678,621,174,24
38679,620,174,24
38679,621,174,24
38679,620,174,24
38680,620,174,24
38679,621,174,24
38680,620,174,24
38679,621,174,24
38680,620,174,24
38679,621,174,24
38680,620,174,24
38680,621,174,24
38679,620,174,24
38666,620,174,24
1052984,16505,411,57
1042190,16332,106,14
1024734,16204,106,14
1003326,16012,106,14
985854,15884,106,14
967262,15755,106,14
946990,15564,106,14
929454,15436,106,14
908110,15244,106,14
886814,15052,106,14
