223601126,6758,86909004,41494467,30746200,22696392,11964374,29694765,4226,1055,341,459,522,7,82556,0,0,0,0,0,0
223281265,0,87084297,41776835,30459438,22584339,11871730,29415984,16,4,3,272,0,0,88347,0,0,0,0,0,0
223164067,0,87153514,41932135,30349034,22213973,11744594,29680990,433,15,6,140,0,0,89233,0,0,0,0,0,0
222539079,0,87533259,42778201,29749778,22045142,11583438,28754500,437,36,7,241,0,0,94040,0,0,0,0,0,0
222534585,0,87536162,42784064,29745435,22045127,11582640,28746677,135,0,0,270,0,0,94075,0,0,0,0,0,0
222534697,0,87535412,42783145,29746380,22045403,11582485,28747398,135,0,0,270,0,0,94069,0,0,0,0,0,0
222533778,0,87536029,42784566,29745122,22044863,11582439,28746277,135,0,0,270,0,0,94077,0,0,0,0,0,0
222535115,0,87536554,42784091,29745358,22045172,11582555,28746906,135,0,0,270,0,0,94074,0,0,0,0,0,0
222534048,0,87535158,42784214,29745878,22044820,11582861,28746638,135,0,0,270,0,0,94074,0,0,0,0,0,0
222533729,0,87537037,42785198,29744344,22044660,11582149,28745858,134,0,0,268,0,0,94081,0,0,0,0,0,0
222535027,0,87536174,42784832,29745402,22044773,11582803,28746561,135,0,0,270,0,0,94077,0,0,0,0,0,0
222534657,0,87535510,42783378,29746083,22045323,11582578,28747309,135,0,0,270,0,0,94071,0,0,0,0,0,0
222536904,0,87536509,42784387,29746138,22045197,11582974,28747220,135,0,0,270,0,0,94074,0,0,0,0,0,0
222536475,0,87536244,42784380,29745884,22045157,11583186,28747148,135,0,0,270,0,0,94071,0,0,0,0,0,0
222534325,0,87536232,42783995,29745126,22045129,11582597,28746768,135,0,0,270,0,0,94073,0,0,0,0,0,0
222534556,0,87534840,42783572,29746459,22045252,11582866,28747091,135,0,0,270,0,0,94071,0,0,0,0,0,0
222533748,0,87534722,42784247,29746446,22044796,11582604,28746454,134,0,0,270,0,0,94075,0,0,0,0,0,0
222533772,0,87535256,42784613,29745753,22044700,11582748,28746223,135,0,0,268,0,0,94076,0,0,0,0,0,0
222533971,0,87535787,42785236,29745088,22044460,11582967,28745949,135,0,0,270,0,0,94079,0,0,0,0,0,0
222535551,0,87536519,42784967,29745227,22044892,11583016,28746449,135,0,0,270,0,0,94076,0,0,0,0,0,0
222534672,0,87536305,42784860,29745226,22044745,11582764,28746289,135,0,0,270,0,0,94078,0,0,0,0,0,0
222535429,0,87536112,42784735,29745774,22044984,11582927,28746417,135,0,0,270,0,0,94075,0,0,0,0,0,0
222534949,0,87535536,42783340,29746269,22044159,11582322,28748746,228,8,3,267,0,0,94071,0,0,0,0,0,0
222535109,0,87535986,42784124,29745663,21997033,11567768,28809923,265,4,4,266,0,0,94073,0,0,0,0,0,0
222534566,0,87536192,42785838,29744937,21927214,11546537,28899362,135,0,4,265,0,0,94082,0,0,0,0,0,0
222534307,0,87534750,42783410,29746527,21925347,11545386,28904409,137,0,4,266,0,0,94071,0,0,0,0,0,0
222536233,0,87536430,42784894,29745616,21924425,11545566,28904822,135,0,6,263,0,0,94076,0,0,0,0,0,0
222535492,0,87536034,42784791,29745693,21923597,11545201,28905691,138,0,5,265,0,0,94077,0,0,0,0,0,0
222534917,0,87536509,42785929,29745046,21924073,11545201,28903670,137,0,3,267,0,0,94082,0,0,0,0,0,0
222522936,0,87542741,42800519,29734521,21924023,11543147,28883401,148,0,3,267,0,0,94166,0,0,0,0,0,0
344150351,1048624,157245760,70283469,58045596,7835426,28546368,8696338,1925466,8226036,17,79,0,0,27990,1645604,434,768,1536,3072,617768
396555578,0,187180705,82452561,70367496,1400262,35728684,175289,2727111,11781005,0,0,0,0,892818,1461780,512,1024,2048,4096,2380187
394884437,0,186327789,81698876,69842318,2007098,35657954,260331,2714055,11666890,0,0,0,0,2319904,12217,768,1536,3072,5824,2365805
396623671,0,187215499,82483251,70388877,1375520,35731544,171819,2728844,11783957,0,0,0,0,2347840,7862,512,1024,2144,4768,2380210
396650910,0,187229402,82495539,70397438,1365623,35732696,170431,2729708,11784880,0,0,0,0,2348496,7670,512,1024,2176,4224,2381091
395027448,0,186400803,81763372,69887265,1955139,35663996,253044,2717124,11673856,0,0,0,0,2323200,11145,768,1536,3264,6528,2366408
396719021,0,187264127,82526290,70418877,1340880,35735601,166961,2731532,11787631,0,0,0,0,2350080,7190,512,1088,2176,4352,2381724
395129606,0,186452925,81809468,69919393,1918025,35668331,247839,2719433,11678634,0,0,0,0,2325520,10425,768,1728,3264,6592,2367261
395190893,0,186484226,81837101,69938648,1895757,35670914,244716,2720564,11681894,0,0,0,0,2326880,9993,768,1728,3264,5824,2368616
153917358,0,72641949,31941904,27277866,635257,13879510,80878,1060077,4560383,0,0,0,0,909072,3235,256,576,1152,2464,922779
number,of,instructions:,39388766954
