100000000 73292 67216 67959 69350 86445 67277 68098 68285 1858436 68487 68852 67306 16080886 128305 68502
100000000 57853 57853 57853 57853 57876 57853 57853 57853 1844984 57853 57853 57853 16080811 115706 57853
100000000 57855 57855 57855 57855 57876 57855 57855 57855 1844987 57855 57855 57855 16080811 115710 57855
100000000 57854 57854 57854 57854 57875 57854 57854 57854 1844985 57854 57854 57854 16080814 115708 57854
100000000 57854 57854 57854 57854 57874 57854 57854 57854 1844984 57854 57854 57854 16080811 115708 57854
100000000 57853 57853 57853 57853 57867 57853 57853 57853 1844983 57853 57853 57853 16080813 115706 57853
100000000 57854 57854 57854 57854 57868 57854 57854 57854 1844985 57854 57854 57854 16080811 115708 57854
100000000 57854 57854 57854 57854 57868 57854 57854 57854 1844984 57854 57854 57854 16080814 115708 57854
100000000 57854 57854 57854 57854 57868 57854 57854 57854 1844985 57854 57854 57854 16080811 115708 57854
100000000 57853 57853 57853 57853 57864 57853 57853 57853 1844983 57853 57853 57853 16080813 115706 57853
100000000 57854 57854 57854 57854 57861 57854 57854 57854 1844985 57854 57854 57854 16080812 115708 57854
100000000 57854 57854 57854 57854 57861 57854 57854 57854 1844984 57854 57854 57854 16080812 115708 57854
100000000 57855 57855 57855 57855 57862 57855 57855 57855 1844988 57855 57855 57855 16080813 115710 57855
100000000 57853 57853 57853 57853 57860 57853 57853 57853 1844983 57853 57853 57853 16080811 115706 57853
100000000 57854 57854 57854 57854 57861 57854 57854 57854 1844984 57854 57854 57854 16080813 115708 57854
100000000 57854 57854 57854 57854 57861 57854 57854 57854 1844985 57854 57854 57854 16080811 115708 57854
100000000 57854 57854 57854 57854 57862 57854 57854 57854 1844984 57854 57854 57854 16080814 115708 57854
100000000 57853 57853 57853 57853 57860 57853 57853 57853 1844984 57853 57853 57853 16080811 115706 57853
100000000 57854 57854 57854 57854 57854 57854 57854 57854 1844984 57854 57854 57854 16080813 115708 57854
100000000 57854 57854 57854 57854 57854 57854 57854 57854 1844985 57854 57854 57854 16080812 115708 57854
100000000 57854 57854 57854 57854 57854 57854 57854 57854 1844982 57854 57854 57854 16080811 115708 57854
100000000 57854 57854 57854 57854 57854 57854 57854 57854 1844986 57854 57854 57854 16080813 115708 57854
100000000 57854 57854 57854 57854 57854 57854 57854 57854 1844985 57854 57854 57854 16080812 115708 57854
100000000 57854 57854 57854 57854 57854 57854 57854 57854 1844984 57854 57854 57854 16080813 115708 57854
100000000 57854 57854 57854 57854 57854 57854 57854 57854 1844985 57854 57854 57854 16080811 115708 57854
100000000 57853 57853 57853 57853 57853 57853 57853 57853 1844983 57853 57853 57853 16080814 115706 57853
100000000 57854 57854 57854 57854 57854 57854 57854 57854 1844985 57854 57854 57854 16080811 115708 57854
100000000 57854 57854 57854 57854 57854 57854 57854 57854 1844984 57854 57854 57854 16080813 115708 57854
100000000 57854 57854 57854 57854 57854 57854 57854 57854 1844985 57854 57854 57854 16080812 115708 57854
100000000 57854 57854 57854 57854 57854 57854 57854 57854 1844984 57854 57854 57854 16080811 115707 57854
100000000 57853 57853 57853 57853 57853 57853 57853 57853 1844984 57853 57853 57853 16080812 115707 57853
100000000 57855 57855 57855 57855 57855 57855 57855 57855 1844987 57855 57855 57855 16080813 115710 57855
100000000 57854 57854 57854 57854 57854 57854 57854 57854 1844984 57854 57854 57854 16080813 115708 57854
100000000 57854 57854 57854 57854 57854 57854 57854 57854 1844985 57854 57854 57854 16080811 115708 57854
100000000 57853 57853 57853 57853 57853 57853 57853 57853 1844983 57853 57853 57853 16080813 115706 57853
100000000 57854 57854 57854 57854 57854 57854 57854 57854 1844985 57854 57854 57854 16080812 115708 57854
100000000 57854 57854 57854 57854 57854 57854 57854 57854 1844984 57854 57854 57854 16080812 115708 57854
100000000 34911 33937 33774 34198 36729 34411 33763 34039 1396842 35534 34185 34325 12239720 68397 35060
100000000 2022 812 391 385 5679 1929 593 540 791254 6487 2425 2289 7046753 6052 5891
100000000 1617 658 339 307 5025 1702 553 516 791168 6393 2397 2268 7046626 5998 5830
100000000 1340 559 331 283 4622 1618 548 501 791171 6354 2396 2266 7046646 6000 5839
100000000 546 265 159 144 2055 739 261 233 785807 2927 1107 1041 7038331 2767 2693
100000000 945 420 274 234 3378 1214 433 399 788869 4891 1853 1748 7043086 4618 4492
100000000 631 280 185 156 2283 832 299 260 786555 3387 1283 1208 7039469 3202 3114
100000000 805 370 233 213 2917 1075 381 370 788082 4371 1655 1567 7041841 4126 4013
100000000 887 393 257 203 3240 1156 423 353 788984 4956 1870 1747 7043283 4680 4567
100000000 863 401 258 210 3214 1150 424 363 788987 4951 1867 1754 7043277 4688 4572
100000000 687 320 205 175 2553 919 338 304 787387 3921 1480 1397 7040776 3714 3618
100000000 800 374 247 223 2864 1071 394 370 788019 4341 1654 1560 7041748 4094 3974
100000000 950 446 281 238 3504 1249 468 410 789689 5415 2044 1920 7044366 5114 4982
100000000 593 284 179 161 2212 796 299 265 786614 3433 1296 1222 7039565 3243 3160
100000000 845 412 267 231 3141 1150 430 395 788858 4871 1845 1740 7043032 4598 4469
100000000 820 411 257 228 3149 1145 425 388 788916 4919 1854 1750 7043162 4644 4522
100000000 1080 541 341 298 4068 1481 559 513 791108 6323 2397 2258 7046543 5971 5801
100000000 907 456 289 243 3458 1238 474 414 789655 5402 2043 1919 7044326 5099 4967
100000000 1328 650 418 367 4976 1815 680 635 793430 7758 2938 2775 7050089 7347 7137
100000000 579 292 185 169 2190 806 301 287 786548 3399 1287 1218 7039468 3208 3116
100000000 653 331 210 185 2517 904 343 309 787396 3941 1489 1403 7040812 3729 3634
100000000 492 252 162 134 1873 684 260 235 785791 2911 1106 1042 7038306 2753 2678
100000000 1297 635 413 351 4992 1788 676 602 793606 7884 2973 2807 7050405 7472 7275
100000000 714 347 228 184 2806 973 377 325 788191 4434 1673 1568 7042040 4201 4096
100000000 901 454 290 259 3413 1271 474 443 789534 5318 2016 1903 7044097 5016 4866
100000000 709 362 223 193 2802 998 378 329 788147 4414 1664 1569 7041966 4174 4071
100000000 872 435 277 237 3453 1227 469 406 789766 5470 2062 1938 7044516 5171 5049
100000000 660 330 218 187 2492 913 348 314 787326 3891 1479 1400 7040688 3682 3581
100000000 1278 636 410 345 4986 1780 676 595 793548 7872 2968 2794 7050355 7448 7257
100000000 1375 686 442 399 5285 1943 725 683 794203 8283 3132 2965 7051321 7832 7618
100000000 1152 566 374 328 4339 1579 602 549 791879 6782 2571 2425 7047693 6417 6230
100000000 988 476 324 278 3734 1350 520 477 790280 5806 2210 2071 7045284 5474 5312
100000000 404 197 130 108 1556 555 211 185 785064 2444 921 865 7037169 2306 2242
100000000 1056 513 339 280 4081 1453 560 485 791277 6435 2432 2288 7046849 6083 5935
100000000 879 480 312 314 3372 1275 496 436 789309 5182 1990 1865 7043766 4890 4721
100000000 707 355 235 181 2830 983 407 285 788199 4457 1695 1562 7042079 4217 4116
100000000 626 319 212 170 2510 896 362 272 787387 3935 1500 1385 7040810 3728 3630
100000000 627 309 210 158 2492 875 355 266 787379 3931 1493 1375 7040777 3714 3612
100000000 867 434 286 225 3429 1219 488 370 789684 5407 2051 1893 7044347 5105 4967
100000000 619 316 206 169 2498 900 355 270 787383 3933 1491 1380 7040777 3714 3618
100000000 312 151 103 80 1245 439 176 132 784326 1963 746 688 7036029 1861 1812
100000000 948 487 316 267 3757 1363 538 424 790468 5906 2243 2086 7045559 5584 5437
100000000 869 435 286 232 3430 1232 492 375 789729 5436 2063 1908 7044419 5134 5003
100000000 1266 652 428 355 4988 1826 725 570 793424 7819 2977 2763 7050166 7389 7184
100000000 481 249 163 146 1830 684 272 227 785699 2832 1085 1010 7038103 2673 2586
100000000 569 285 194 161 2193 808 322 261 786539 3409 1302 1205 7039470 3214 3121
100000000 856 443 285 241 3433 1240 490 388 789620 5366 2039 1891 7044253 5070 4933
100000000 1343 658 444 352 5288 1894 752 589 794309 8342 3167 2933 7051499 7894 7675
100000000 1099 562 370 318 4314 1579 626 503 791817 6748 2574 2394 7047605 6381 6193
100000000 711 356 237 188 2798 1003 404 304 788138 4410 1678 1548 7041948 4173 4059
100000000 638 317 212 181 2471 914 360 294 787308 3876 1479 1373 7040627 3656 3554
100000000 548 270 182 135 2188 762 312 221 786658 3471 1316 1208 7039669 3278 3196
100000000 958 494 325 293 3705 1383 543 457 790216 5727 2193 2047 7045110 5409 5241
100000000 470 232 155 117 1876 651 267 193 785911 2986 1132 1042 7038501 2828 2754
100000000 1008 505 331 261 4048 1434 575 423 791289 6421 2433 2250 7046849 6077 5922
100000000 783 398 259 214 3099 1118 446 339 788905 4900 1862 1725 7043125 4635 4512
100000000 1412 725 470 387 5583 2017 806 619 794954 8758 3333 3093 7052494 8288 8059
100000000 943 496 320 280 3711 1363 542 443 790288 5792 2209 2060 7045262 5471 5313
100000000 630 311 207 165 2477 877 357 266 787357 3903 1488 1370 7040731 3695 3594
100000000 628 321 208 169 2501 899 356 283 787404 3942 1495 1384 7040804 3727 3627
100000000 1173 610 393 331 4670 1693 670 533 792670 7319 2781 2580 7048975 6914 6723
100000000 950 491 321 272 3707 1368 544 433 790282 5782 2212 2050 7045259 5467 5310
100000000 1094 551 360 293 4355 1563 623 468 792093 6934 2627 2441 7048084 6560 6400
100000000 870 444 292 236 3429 1234 497 382 789624 5384 2050 1896 7044275 5086 4945
100000000 304 158 101 81 1247 446 176 133 784337 1975 748 694 7036049 1871 1825
100000000 621 314 203 168 2481 891 352 274 787365 3906 1482 1375 7040727 3694 3593
100000000 705 345 231 181 2806 989 401 291 788224 4455 1693 1563 7042092 4224 4120
100000000 552 282 184 154 2183 798 313 254 786610 3439 1305 1213 7039569 3243 3159
100000000 1549 801 515 436 6200 2261 887 708 796516 9758 3705 3447 7054908 9227 8980
100000000 311 154 104 78 1256 441 180 127 784362 1996 758 699 7036104 1889 1846
100000000 797 413 266 228 3124 1144 450 366 788899 4901 1862 1731 7043111 4634 4502
100000000 930 473 311 254 3710 1337 534 394 790396 5842 2221 2061 7045431 5528 5382
100000000 780 395 258 214 3105 1115 445 336 788942 4918 1864 1730 7043184 4657 4536
100000000 707 361 236 190 2823 1013 408 312 788133 4429 1687 1558 7041969 4186 4077
100000000 316 158 107 85 1239 448 179 137 784299 1954 742 685 7035978 1843 1792
100000000 1187 600 400 324 4667 1689 672 532 792687 7329 2788 2584 7048994 6922 6730
100000000 867 427 289 233 3392 1223 494 379 789617 5347 2041 1885 7044214 5057 4913
100000000 1016 514 340 275 4075 1462 584 440 791254 6429 2440 2257 7046822 6078 5923
100000000 1178 593 389 330 4637 1693 671 525 792649 7275 2771 2574 7048901 6888 6692
100000000 1124 544 380 304 4361 1560 633 489 791915 6834 2608 2410 7047813 6466 6283
100000000 393 197 134 105 1567 559 228 165 785075 2469 939 866 7037219 2329 2269
100000000 778 399 257 211 3117 1116 445 331 788977 4945 1874 1739 7043252 4684 4565
100000000 804 394 266 209 3100 1112 452 339 788897 4894 1866 1724 7043116 4624 4500
100000000 1267 641 427 346 4971 1798 725 552 793435 7809 2977 2755 7050161 7388 7184
100000000 631 318 210 171 2490 898 358 273 787356 3916 1489 1376 7040730 3699 3599
100000000 793 403 263 222 3107 1130 448 358 788914 4887 1858 1733 7043110 4627 4500
100000000 72992 78047 71862 74829 75575 78260 71872 72192 542137 75606 72539 72507 5893872 112214 73832
100000000 175256 177264 175203 176022 175777 178029 175193 175196 175301 177066 175192 175192 4174036 270504 175192
100000000 174628 175572 174593 174868 174744 175708 174588 174588 174620 176363 174588 174588 4174012 270206 174588
100000000 175498 176242 175447 175649 175559 176193 175444 175444 175485 177317 175444 175444 4174046 270222 175444
100000000 175464 175934 175413 175552 175539 175825 175413 175413 175413 177222 175413 175413 4174048 270766 175413
100000000 174873 175212 174825 174919 174883 175115 174825 174825 174825 176719 174825 174825 4174021 269846 174825
100000000 174518 174854 174479 174549 174550 174784 174479 174479 174479 176352 174479 174479 4174009 268813 174479
100000000 175510 175843 175488 175536 175557 175699 175488 175488 175488 177267 175488 175488 4174048 270577 175488
100000000 175198 175434 175163 175215 175214 175326 175163 175163 175163 176940 175163 175163 4174036 269896 175163
100000000 175732 175953 175697 175744 175727 175836 175697 175697 175697 177526 175697 175697 4174058 270936 175697
100000000 175033 175217 175001 175037 175012 175129 175001 175001 175001 176887 175001 175001 4174030 269480 175001
100000000 175509 175663 175476 175506 175488 175590 175476 175476 175476 177353 175476 175476 4174048 270832 175476
100000000 175024 175127 174985 175000 174995 175097 174985 174985 174985 176796 174985 174985 4174030 270158 174985
100000000 175159 175313 175134 175156 175135 175267 175134 175134 175134 176986 175134 175134 4174033 270340 175134
100000000 174087 174221 174056 174081 174068 174166 174056 174056 174056 175883 174056 174056 4173991 269034 174056
100000000 175125 175244 175105 175138 175109 175190 175105 175105 175105 176930 175105 175105 4174033 269985 175105
100000000 176319 176451 176288 176302 176291 176371 176288 176288 176288 178151 176288 176288 4174082 272037 176288
100000000 174632 174781 174613 174641 174619 174693 174613 174613 174613 176437 174613 174613 4174014 270088 174613
100000000 175061 175182 175044 175067 175050 175101 175044 175044 175044 176887 175044 175044 4174031 270200 175044
100000000 174179 174310 174170 174183 174173 174232 174170 174170 174170 175979 174170 174170 4173994 269328 174170
100000000 174412 174546 174402 174409 174404 174470 174402 174402 174402 176250 174402 174402 4174003 269203 174402
100000000 174095 174219 174077 174088 174084 174144 174077 174077 174077 175923 174077 174077 4173992 269258 174077
100000000 175232 175320 175217 175220 175224 175277 175217 175217 175217 177043 175217 175217 4174039 270603 175217
100000000 174286 174393 174279 174289 174285 174360 174279 174279 174279 176140 174279 174279 4173997 268754 174279
100000000 174932 175056 174924 174935 174929 174994 174924 174924 174924 176736 174924 174924 4174027 270284 174924
100000000 174373 174476 174365 174377 174370 174412 174365 174365 174365 176168 174365 174365 4174003 269290 174365
100000000 174371 174477 174366 174377 174371 174417 174366 174366 174366 176158 174366 174366 4174003 269672 174366
100000000 175296 175387 175285 175294 175290 175340 175285 175285 175285 177184 175285 175285 4174040 270480 175285
100000000 175369 175457 175361 175366 175366 175420 175361 175361 175361 177149 175361 175361 4174045 270290 175361
100000000 175328 175388 175321 175327 175330 175378 175321 175321 175321 177185 175321 175321 4174042 270460 175321
100000000 175216 175308 175211 175212 175215 175282 175211 175211 175211 177069 175211 175211 4174039 269918 175211
100000000 174421 174499 174414 174422 174421 174475 174414 174414 174414 176239 174414 174414 4174003 269748 174414
100000000 175066 175162 175060 175068 175064 175121 175060 175060 175060 176938 175060 175060 4174031 269994 175060
100000000 175872 175963 175863 175872 175870 175914 175863 175863 175863 177759 175863 175863 4174066 270688 175863
100000000 174183 174242 174174 174178 174176 174254 174174 174174 174174 175997 174174 174174 4173994 269326 174174
100000000 174883 174947 174875 174881 174877 174951 174875 174875 174875 176718 174875 174875 4174024 269850 174875
100000000 175540 175610 175534 175544 175535 175617 175534 175534 175534 177378 175534 175534 4174051 270592 175534
100000000 175011 175097 175008 175010 175010 175095 175008 175008 175008 176861 175008 175008 4174030 270246 175008
100000000 174402 174464 174394 174398 174396 174452 174394 174394 174394 176203 174394 174394 4174004 269195 174394
100000000 173787 173842 173784 173790 173785 173855 173784 173784 173784 175605 173784 173784 4173979 269185 173784
100000000 174291 174359 174287 174291 174289 174353 174287 174287 174287 176105 174287 174287 4174000 269716 174287
100000000 174648 174738 174639 174643 174643 174721 174639 174639 174639 176419 174639 174639 4174012 269222 174639
100000000 175874 175949 175870 175874 175871 175934 175870 175870 175870 177718 175870 175870 4174066 270777 175870
100000000 175470 175521 175464 175464 175466 175534 175464 175464 175464 177322 175464 175464 4174048 270503 175464
100000000 174348 174421 174345 174345 174346 174397 174345 174345 174345 176181 174345 174345 4174002 269818 174345
100000000 174968 175029 174964 174966 174965 175049 174964 174964 174964 176751 174964 174964 4174029 270322 174964
100000000 175174 175243 175168 175171 175170 175225 175168 175168 175168 177035 175168 175168 4174036 270862 175168
100000000 175601 175667 175595 175596 175596 175667 175595 175595 175595 177482 175595 175595 4174054 270582 175595
100000000 147347 147402 147319 147335 147437 147390 147313 147320 147760 148857 147301 147310 4034598 226583 147278
100000000 407 407 407 407 407 407 407 407 548 407 407 407 3333754 814 407
100000000 407 407 407 407 407 407 407 407 407 407 407 407 3333754 814 407
100000000 407 407 407 407 407 407 407 407 407 407 407 407 3333754 814 407
100000000 407 407 407 407 407 407 407 407 407 407 407 407 3333754 814 407
100000000 406 406 406 406 406 406 406 406 406 406 406 406 3333753 812 406
100000000 407 407 407 407 407 407 407 407 407 407 407 407 3333754 814 407
100000000 407 407 407 407 407 407 407 407 407 407 407 407 3333754 814 407
100000000 407 407 407 407 407 407 407 407 407 407 407 407 3333754 814 407
100000000 407 407 407 407 407 407 407 407 407 407 407 407 3333754 814 407
100000000 407 407 407 407 407 407 407 407 407 407 407 407 3333753 814 407
100000000 407 407 407 407 407 407 407 407 407 407 407 407 3333754 814 407
100000000 406 406 406 406 406 406 406 406 406 406 406 406 3333753 812 406
100000000 407 407 407 407 407 407 407 407 407 407 407 407 3333754 814 407
100000000 407 407 407 407 407 407 407 407 407 407 407 407 3333754 814 407
100000000 407 407 407 407 407 407 407 407 407 407 407 407 3333754 814 407
100000000 407 407 407 407 407 407 407 407 407 407 407 407 3333754 814 407
100000000 407 407 407 407 407 407 407 407 407 407 407 407 3333754 814 407
100000000 407 407 407 407 407 407 407 407 407 407 407 407 3333754 814 407
100000000 406 406 406 406 406 406 406 406 406 406 406 406 3333752 812 406
100000000 10132 10136 10116 10136 10139 10144 10109 10132 10528 10229 10098 10125 3372039 12319 10091
100000000 282484 283186 282463 282498 282474 283259 282463 282465 282577 286697 282463 282463 4178506 360920 282463
100000000 283554 284234 283542 283572 283546 284237 283542 283542 283548 287752 283542 283542 4178553 362006 283542
100000000 283146 283798 283135 283157 283144 283700 283135 283135 283135 287251 283135 283135 4178534 361746 283135
100000000 283055 283622 283046 283071 283053 283727 283046 283046 283046 287235 283046 283046 4178531 360710 283046
100000000 282367 282937 282354 282384 282362 282971 282354 282354 282354 286543 282354 282354 4178502 361123 282354
100000000 283389 283911 283372 283401 283372 284083 283372 283372 283372 287680 283372 283372 4178545 361508 283372
100000000 283283 283727 283271 283277 283271 283881 283271 283271 283271 287671 283271 283271 4178542 361986 283271
100000000 284212 284630 284195 284215 284195 284840 284195 284195 284195 288518 284195 284195 4178578 362071 284195
100000000 283189 283596 283180 283190 283180 283870 283180 283180 283180 287371 283180 283180 4178536 361570 283180
100000000 282703 283078 282688 282690 282688 283355 282688 282688 282688 287095 282688 282688 4178517 361376 282688
100000000 284256 284601 284245 284252 284245 284979 284245 284245 284245 288428 284245 284245 4178581 362568 284245
100000000 283399 283741 283384 283392 283384 284059 283384 283384 283384 287685 283384 283384 4178546 361340 283384
100000000 283974 284340 283969 283978 283969 284572 283969 283969 283969 288301 283969 283969 4178569 362590 283969
100000000 282261 282561 282251 282255 282251 282847 282251 282251 282251 286304 282251 282251 4178497 361228 282251
100000000 283458 283770 283448 283462 283448 284108 283448 283448 283448 287762 283448 283448 4178548 362226 283448
100000000 283948 284242 283945 283949 283945 284683 283945 283945 283945 288278 283945 283945 4178569 361824 283945
100000000 283108 283382 283106 283113 283106 283754 283106 283106 283106 287446 283106 283106 4178533 362437 283106
100000000 282764 282990 282757 282761 282757 283413 282757 282757 282757 287432 282757 282757 4178518 361610 282757
100000000 283407 283678 283400 283404 283400 284045 283400 283400 283400 287665 283400 283400 4178548 361893 283400
100000000 281950 282178 281946 281946 281946 282536 281946 281946 281946 286142 281946 281946 4178485 360281 281946
100000000 282143 282401 282140 282143 282140 282850 282140 282140 282140 286405 282140 282140 4178494 360999 282140
100000000 282809 282996 282802 282803 282802 283416 282802 282802 282802 286976 282802 282802 4178520 361622 282802
100000000 282465 282678 282453 282454 282453 283088 282453 282453 282453 286666 282453 282453 4178507 360914 282453
100000000 283204 283401 283196 283198 283196 283835 283196 283196 283196 287526 283196 283196 4178536 361516 283196
100000000 282533 282735 282528 282527 282528 283220 282528 282528 282528 286888 282528 282528 4178509 360926 282528
100000000 281747 281941 281741 281742 281741 282422 281741 281741 281741 285880 281741 281741 4178478 360741 281741
100000000 283028 283235 283022 283024 283022 283602 283022 283022 283022 287290 283022 283022 4178530 361628 283022
100000000 284132 284321 284129 284130 284129 284864 284129 284129 284129 288497 284129 284129 4178576 362855 284129
100000000 283018 283191 283015 283018 283015 283620 283015 283015 283015 287202 283015 283015 4178530 361360 283015
100000000 284179 284350 284170 284170 284170 284879 284170 284170 284170 288418 284170 284170 4178578 361957 284170
100000000 281996 282156 281988 281986 281988 282660 281988 281988 281988 286195 281988 281988 4178487 361002 281988
100000000 285036 285225 285033 285036 285033 285709 285033 285033 285033 289404 285033 285033 4178613 362860 285033
100000000 283919 284071 283909 283909 283909 284589 283909 283909 283909 288284 283909 283909 4178568 362396 283909
100000000 282294 282476 282289 282289 282289 282917 282289 282289 282289 286320 282289 282289 4178500 361443 282289
100000000 283172 283310 283165 283164 283165 283847 283165 283165 283165 287485 283165 283165 4178536 361924 283165
100000000 284047 284218 284042 284041 284042 284741 284042 284042 284042 288273 284042 284042 4178572 362154 284042
100000000 282522 282714 282518 282518 282518 283201 282518 282518 282518 286654 282518 282518 4178509 361662 282518
100000000 282527 282676 282523 282524 282523 283174 282523 282523 282523 286731 282523 282523 4178509 360724 282523
100000000 282442 282573 282438 282438 282438 283088 282438 282438 282438 286694 282438 282438 4178506 361109 282438
100000000 281669 281812 281667 281669 281667 282313 281667 281667 281667 286100 281667 281667 4178473 361241 281667
100000000 283434 283583 283432 283432 283432 284124 283432 283432 283432 287651 283432 283432 4178548 361182 283432
100000000 283167 283338 283166 283169 283166 283838 283166 283166 283166 287285 283166 283166 4178536 361350 283166
100000000 283595 283761 283592 283593 283592 284260 283592 283592 283592 287767 283592 283592 4178554 360725 283592
100000000 282408 282561 282405 282405 282405 283104 282405 282405 282405 286521 282405 282405 4178503 361547 282405
100000000 283621 283774 283619 283619 283619 284301 283619 283619 283619 287729 283619 283619 4178557 361844 283619
100000000 283522 283651 283518 283519 283518 284267 283518 283518 283518 287815 283518 283518 4178550 361944 283518
100000000 283895 284014 283892 283892 283892 284586 283892 283892 283892 288195 283892 283892 4178567 362311 283892
100000000 283980 284066 283973 283973 283973 284642 283973 283973 283973 288326 283973 283973 4178569 362134 283973
100000000 45136 45122 45109 45145 45154 45206 45109 45141 45660 45646 45109 45136 3464778 57106 45109
100000000 407 407 407 407 407 407 407 407 407 407 407 407 3333754 814 407
100000000 407 407 407 407 407 407 407 407 407 407 407 407 3333754 814 407
100000000 407 407 407 407 407 407 407 407 407 407 407 407 3333754 814 407
100000000 407 407 407 407 407 407 407 407 407 407 407 407 3333753 814 407
100000000 407 407 407 407 407 407 407 407 407 407 407 407 3333754 814 407
100000000 406 406 406 406 406 406 406 406 406 406 406 406 3333753 812 406
100000000 407 407 407 407 407 407 407 407 407 407 407 407 3333754 814 407
100000000 407 407 407 407 407 407 407 407 407 407 407 407 3333754 814 407
100000000 407 407 407 407 407 407 407 407 407 407 407 407 3333754 814 407
100000000 407 407 407 407 407 407 407 407 407 407 407 407 3333754 814 407
100000000 407 407 407 407 407 407 407 407 407 407 407 407 3333754 814 407
100000000 407 407 407 407 407 407 407 407 407 407 407 407 3333754 814 407
100000000 406 406 406 406 406 406 406 406 406 406 406 406 3333752 812 406
100000000 407 407 407 407 407 407 407 407 407 407 407 407 3333754 814 407
100000000 407 407 407 407 407 407 407 407 407 407 407 407 3333754 814 407
100000000 407 407 407 407 407 407 407 407 407 407 407 407 3333754 814 407
100000000 407 407 407 407 407 407 407 407 407 407 407 407 3333754 814 407
100000000 407 407 407 407 407 407 407 407 407 407 407 407 3333754 814 407
100000000 407 407 407 407 407 407 407 407 407 407 407 407 3333754 814 407
100000000 282298 282374 282257 282230 281993 282648 281944 282230 282225 283369 281723 282301 3948765 295001 282201
100000000 398375 398639 398370 398370 398370 398733 398370 398388 398426 400115 398370 398370 4183337 417069 398370
100000000 398336 398583 398331 398331 398346 398903 398346 398347 398335 400385 398335 398331 4183335 417198 398331
100000000 399253 399407 399251 399236 399253 399405 399253 399230 399230 400779 399230 399251 4183373 416055 399230
100000000 397598 397831 397598 397599 397598 397849 397598 397598 397598 399021 397598 397598 4183303 416184 397598
100000000 398591 398724 398591 398566 398618 399052 398618 398550 398550 400090 398550 398591 4183344 417440 398550
100000000 398325 398465 398325 398295 398293 398816 398293 398297 398293 400493 398293 398333 4183333 416023 398293
100000000 400298 400549 400298 400298 400298 400880 400298 400298 400298 401921 400298 400298 4183417 417689 400298
100000000 399120 399243 399120 399097 399184 399590 399184 399156 399102 400852 399102 399122 4183366 416706 399102
100000000 397436 397537 397436 397439 397435 397766 397435 397435 397435 399442 397435 397436 4183297 416505 397435
100000000 400271 400573 400271 400254 400258 400839 400258 400257 400257 401744 400257 400270 4183416 418309 400257
100000000 399623 399754 399623 399576 399675 400221 399675 399574 399574 401124 399574 399626 4183385 417219 399574
100000000 400370 400508 400370 400332 400361 400751 400361 400344 400331 402112 400331 400369 4183419 417633 400331
100000000 399113 399240 399113 399097 399098 399530 399098 399098 399098 400625 399098 399113 4183366 416924 399098
100000000 399511 399610 399511 399423 399423 399812 399423 399431 399423 401199 399423 399505 4183381 416806 399423
100000000 398836 399070 398836 398837 398871 399302 398871 398824 398836 400447 398836 398836 4183357 416902 398836
100000000 399722 399969 399722 399723 399717 400029 399717 399753 399717 401238 399717 399722 4183390 416512 399717
100000000 397483 397594 397483 397483 397483 397967 397483 397483 397483 399623 397483 397483 4183302 417098 397483
100000000 398442 398605 398442 398434 398442 398914 398442 398442 398442 400099 398442 398442 4183339 416379 398442
100000000 396954 397076 396954 396934 396952 397473 396952 396948 396948 398769 396948 396954 4183276 415811 396948
100000000 397151 397365 397151 397161 397151 397606 397151 397158 397151 398944 397151 397151 4183285 416294 397151
100000000 399041 399181 399041 399036 399067 399529 399067 399017 399017 400747 399017 399040 4183363 416775 399017
100000000 400013 400133 400013 399984 400018 400525 400018 399968 399989 401987 399989 400001 4183404 417637 399968
100000000 398130 398272 398130 398164 398130 398626 398130 398144 398130 399735 398130 398130 4183327 415587 398130
100000000 398276 398495 398276 398275 398276 398849 398276 398276 398276 400189 398276 398276 4183332 416703 398276
100000000 397523 397712 397523 397528 397523 397834 397523 397532 397523 399322 397523 397523 4183301 416228 397523
100000000 397646 397867 397646 397653 397646 398263 397646 397654 397646 399709 397646 397646 4183305 417110 397646
100000000 400327 400466 400327 400320 400327 400749 400327 400333 400327 402118 400327 400327 4183420 417813 400327
100000000 399206 399347 399206 399217 399206 399711 399206 399210 399206 401094 399206 399206 4183369 417135 399206
100000000 398683 398773 398683 398646 398628 399142 398628 398628 398628 400695 398628 398683 4183348 416055 398628
100000000 398797 398966 398797 398830 398797 399212 398797 398797 398797 400287 398797 398797 4183354 416809 398797
100000000 400166 400338 400166 400157 400158 400774 400158 400157 400157 402023 400157 400166 4183410 418375 400157
100000000 398777 398877 398777 398774 398777 399252 398777 398777 398777 400726 398777 398777 4183354 417164 398777
100000000 399008 399219 399008 399023 399008 399421 399008 399008 399008 400859 399008 399008 4183363 418214 399008
100000000 399827 399971 399827 399847 399827 400341 399827 399827 399827 401940 399827 399827 4183396 417803 399827
100000000 398057 398279 398057 398072 398122 398410 398122 398057 398057 399434 398057 398057 4183324 416426 398057
100000000 398261 398463 398261 398265 398259 398872 398259 398259 398259 399999 398259 398261 4183332 416957 398259
100000000 398910 399072 398910 398936 398910 399375 398910 398913 398910 400646 398910 398910 4183360 417325 398910
100000000 398480 398639 398480 398456 398475 398986 398475 398470 398470 400519 398470 398480 4183339 416640 398470
100000000 396692 396791 396692 396687 396800 397246 396800 396692 396692 398678 396692 396692 4183267 416062 396692
100000000 398965 399018 398965 398927 398918 399480 398918 398912 398912 400423 398912 398966 4183359 416212 398912
100000000 399189 399262 399189 399150 399180 399623 399180 399162 399162 400924 399162 399187 4183369 416538 399162
100000000 399727 399837 399727 399733 399756 400268 399756 399749 399727 401079 399727 399727 4183393 416648 399727
100000000 397607 397823 397607 397606 397638 398169 397638 397627 397607 399343 397607 397607 4183305 416810 397607
100000000 399783 399908 399783 399786 399783 400171 399783 399783 399783 401408 399783 399783 4183394 417432 399783
100000000 399111 399295 399111 399102 399111 399568 399111 399111 399111 400883 399111 399111 4183369 416933 399111
100000000 399010 399128 399010 399007 399010 399308 399010 399022 399010 400506 399010 399010 4183362 417575 399010
100000000 399546 399676 399546 399532 399538 399986 399538 399559 399538 401467 399538 399546 4183384 417196 399538
100000000 168694 168905 168667 168902 168423 168953 168378 168897 168829 169197 168276 168679 3691322 175871 168872
100000000 407 407 407 407 407 407 407 407 407 407 407 407 3333754 814 407
100000000 407 407 407 407 407 407 407 407 407 407 407 407 3333754 814 407
100000000 407 407 407 407 407 407 407 407 407 407 407 407 3333754 814 407
100000000 407 407 407 407 407 407 407 407 407 407 407 407 3333754 814 407
100000000 406 406 406 406 406 406 406 406 406 406 406 406 3333753 812 406
100000000 407 407 407 407 407 407 407 407 407 407 407 407 3333753 814 407
100000000 407 407 407 407 407 407 407 407 407 407 407 407 3333754 814 407
100000000 407 407 407 407 407 407 407 407 407 407 407 407 3333754 814 407
100000000 407 407 407 407 407 407 407 407 407 407 407 407 3333754 814 407
100000000 407 407 407 407 407 407 407 407 407 407 407 407 3333754 814 407
100000000 407 407 407 407 407 407 407 407 407 407 407 407 3333754 814 407
100000000 406 406 406 406 406 406 406 406 406 406 406 406 3333753 812 406
100000000 407 407 407 407 407 407 407 407 407 407 407 407 3333754 814 407
100000000 407 407 407 407 407 407 407 407 407 407 407 407 3333754 814 407
100000000 407 407 407 407 407 407 407 407 407 407 407 407 3333753 814 407
100000000 407 407 407 407 407 407 407 407 407 407 407 407 3333754 814 407
100000000 407 407 407 407 407 407 407 407 407 407 407 407 3333754 814 407
100000000 407 407 407 407 407 407 407 407 407 407 407 407 3333754 814 407
100000000 406 406 406 406 406 406 406 406 406 406 406 406 3333753 812 406
100000000 194804 223427 194769 223754 194412 204391 194363 205052 194833 194987 194364 194789 3725102 194810 227525
100000000 439111 480265 439111 481126 439081 442140 439081 441970 439155 439245 439068 439075 4188111 439245 512977
100000000 438207 465618 438207 466034 438202 438756 438202 438585 438203 438378 438201 438207 4188105 438378 512797
100000000 438099 457929 438099 458153 438084 438458 438084 438288 438078 438271 438078 438101 4188157 438271 514070
100000000 438110 452285 438110 452421 438098 438314 438098 438143 438090 438278 438090 438107 4188141 438278 513676
100000000 438439 448978 438439 449147 438436 438638 438436 438470 438433 438611 438433 438441 4188088 438611 512377
100000000 437581 446047 437581 446110 437579 437716 437579 437546 437565 437716 437565 437546 4188184 437716 514729
100000000 438966 446415 438966 446459 438957 439120 438957 438949 438949 439120 438949 438949 4188168 439120 514305
100000000 438092 444538 438092 444559 438091 438255 438091 438085 438080 438255 438080 438085 4188151 438255 513946
100000000 439580 445068 439580 445047 439584 439760 439584 439589 439584 439760 439584 439589 4188147 439760 513819
100000000 438459 442849 438459 442788 438458 438647 438458 438477 438440 438647 438440 438477 4188112 438647 513020
100000000 438633 443263 438633 443128 438615 438784 438615 438614 438608 438784 438608 438614 4188222 438784 515588
100000000 438706 442795 438706 442644 438700 438881 438700 438710 438700 438881 438700 438710 4188205 438881 515226
100000000 438777 442053 438777 441919 438773 438960 438773 438790 438778 438960 438778 438790 4188235 438960 515958
100000000 439105 442166 439105 442018 439110 439275 439110 439104 439100 439275 439100 439104 4188117 439275 513073
100000000 439135 441833 439135 441726 439122 439316 439122 439146 439120 439316 439120 439146 4188127 439316 513325
100000000 437740 440267 437740 440144 437733 437917 437733 437747 437727 437917 437727 437747 4188196 437917 515009
100000000 438337 440227 438337 440073 438331 438506 438331 438335 438329 438506 438329 438335 4188060 438506 511728
100000000 437990 439680 437990 439529 437990 438177 437990 438007 437987 438177 437987 438007 4188106 438177 512861
100000000 437892 439458 437892 439299 437890 438067 437890 437896 437887 438067 437887 437896 4188081 438067 512216
100000000 437812 439240 437812 439053 437791 437980 437791 437810 437784 437980 437784 437810 4188064 437980 511878
100000000 438232 439702 438232 439545 438198 438373 438198 438203 438198 438373 438198 438203 4188088 438373 512396
100000000 438856 440237 438856 440062 438851 439045 438851 438874 438851 439045 438851 438874 4188219 439045 515568
100000000 437736 438875 437736 438677 437732 437927 437732 437757 437732 437927 437732 437757 4188130 437927 513402
100000000 438589 439581 438589 439431 438580 438762 438580 438591 438580 438762 438580 438591 4188165 438762 514250
100000000 437869 438798 437869 438629 437852 438034 437852 437864 437852 438034 437852 437864 4188100 438034 512666
100000000 438687 439550 438687 439316 438683 438873 438683 438703 438683 438873 438683 438703 4188076 438873 512169
100000000 439140 440147 439140 439972 439125 439293 439125 439122 439125 439293 439125 439122 4188194 439293 514919
100000000 439372 440403 439372 440208 439368 439576 439368 439406 439368 439576 439368 439406 4188197 439576 515065
100000000 436887 437646 436887 437482 436889 437073 436889 436902 436889 437073 436889 436902 4188132 437073 513446
100000000 439406 440219 439406 440012 439401 439588 439401 439418 439401 439588 439401 439418 4188142 439588 513683
100000000 438555 439300 438555 439124 438559 438738 438559 438568 438559 438738 438559 438568 4188181 438738 514653
100000000 439182 439730 439182 439538 439159 439337 439159 439166 439159 439337 439159 439166 4188135 439337 513525
100000000 439690 440300 439690 440132 439687 439878 439687 439708 439687 439878 439687 439708 4188199 439878 515079
100000000 439281 439792 439281 439651 439272 439439 439272 439268 439272 439439 439272 439268 4188171 439439 514408
100000000 438543 439005 438543 438832 438538 438703 438538 438533 438538 438703 438538 438533 4188163 438703 514174
100000000 438490 438993 438490 438831 438483 438658 438483 438488 438483 438658 438483 438488 4188094 438658 512606
100000000 438840 439393 438840 439240 438835 439011 438835 438840 438835 439011 438835 438840 4188138 439011 513565
100000000 438947 439439 438947 439264 438948 439117 438948 438947 438948 439117 438948 438947 4188163 439117 514205
100000000 438249 438785 438249 438605 438247 438429 438247 438258 438247 438429 438247 438258 4188042 438429 511293
100000000 438821 439198 438821 439039 438818 439017 438818 438847 438818 439017 438818 438847 4188130 439017 513430
100000000 437760 438190 437760 438025 437760 437955 437760 437785 437760 437955 437760 437785 4188154 437955 514041
100000000 437989 438411 437989 438235 437984 438155 437984 437984 437984 438155 437984 437984 4188195 438155 514926
100000000 438725 439227 438725 439034 438718 438895 438718 438725 438718 438895 438718 438725 4188124 438895 513289
100000000 438816 439193 438816 439041 438812 438985 438812 438814 438812 438985 438812 438814 4188159 438985 514089
100000000 438667 439048 438667 438898 438659 438825 438659 438655 438659 438825 438659 438655 4188163 438825 514228
100000000 439461 439863 439461 439696 439447 439624 439447 439454 439447 439624 439447 439454 4188166 439624 514254
100000000 438565 439000 438565 438829 438549 438749 438549 438578 438549 438749 438549 438578 4188135 438749 513584
100000000 277804 278154 277778 277950 277826 278039 277781 277827 278334 278039 277781 277804 3873419 278061 326604
100000000 407 407 407 407 407 407 407 407 407 407 407 407 3333754 814 407
100000000 407 407 407 407 407 407 407 407 407 407 407 407 3333754 814 407
100000000 407 407 407 407 407 407 407 407 407 407 407 407 3333753 814 407
100000000 407 407 407 407 407 407 407 407 407 407 407 407 3333754 814 407
100000000 407 407 407 407 407 407 407 407 407 407 407 407 3333754 814 407
100000000 407 407 407 407 407 407 407 407 407 407 407 407 3333754 814 407
100000000 406 406 406 406 406 406 406 406 406 406 406 406 3333753 812 406
100000000 407 407 407 407 407 407 407 407 407 407 407 407 3333754 814 407
100000000 407 407 407 407 407 407 407 407 407 407 407 407 3333754 814 407
100000000 407 407 407 407 407 407 407 407 407 407 407 407 3333754 814 407
100000000 407 407 407 407 407 407 407 407 407 407 407 407 3333754 814 407
100000000 407 407 407 407 407 407 407 407 407 407 407 407 3333753 814 407
100000000 407 407 407 407 407 407 407 407 407 407 407 407 3333754 814 407
100000000 406 406 406 406 406 406 406 406 406 406 406 406 3333753 812 406
100000000 407 407 407 407 407 407 407 407 407 407 407 407 3333754 814 407
100000000 407 407 407 407 407 407 407 407 407 407 407 407 3333754 814 407
100000000 407 407 407 407 407 407 407 407 407 407 407 407 3333754 814 407
100000000 407 407 407 407 407 407 407 407 407 407 407 407 3333754 814 407
100000000 407 407 407 407 407 407 407 407 407 407 407 407 3333754 814 407
100000000 101885 102092 101853 101952 101902 102026 101852 101888 102309 102029 101854 101862 3546138 102341 144993
100000000 436369 436934 436369 436753 436346 436517 436346 436346 436421 436517 436346 436346 4192587 436517 620395
100000000 435749 436257 435749 436074 435738 435916 435738 435746 435766 435916 435738 435746 4192618 435916 621115
100000000 434563 434976 434563 434796 434560 434741 434560 434570 434560 434741 434560 434570 4192662 434741 622156
100000000 435639 436073 435639 435886 435625 435801 435625 435631 435625 435801 435625 435631 4192570 435801 620007
100000000 435347 435781 435347 435608 435336 435502 435336 435331 435336 435502 435336 435331 4192626 435502 621311
100000000 435642 436014 435642 435845 435626 435792 435626 435621 435626 435792 435626 435621 4192650 435792 621926
100000000 435569 435950 435569 435794 435568 435722 435568 435552 435568 435722 435568 435552 4192636 435722 621510
100000000 434800 435188 434800 435005 434795 434958 434795 434787 434795 434958 434795 434787 4192647 434958 621812
100000000 435609 435997 435609 435814 435621 435801 435621 435631 435621 435801 435621 435631 4192680 435801 622639
100000000 435134 435501 435134 435317 435125 435330 435125 435159 435125 435330 435125 435159 4192669 435330 622338
100000000 435498 435858 435498 435680 435481 435671 435481 435500 435481 435671 435481 435500 4192707 435671 623306
100000000 434646 434937 434646 434739 434639 434791 434639 434621 434639 434791 434639 434621 4192690 434791 622837
100000000 435023 435333 435023 435144 435014 435193 435014 435022 435014 435193 435014 435022 4192719 435193 623554
100000000 436104 436403 436104 436221 436101 436274 436101 436104 436101 436274 436101 436104 4192618 436274 621139
100000000 435659 435973 435659 435784 435650 435829 435650 435658 435650 435829 435650 435658 4192680 435829 622591
100000000 434821 435120 434821 434930 434813 435005 434813 434835 434813 435005 434813 434835 4192651 435005 621930
100000000 436683 436952 436683 436781 436688 436860 436688 436689 436688 436860 436688 436689 4192596 436860 620606
100000000 434927 435196 434927 435016 434926 435118 434926 434947 434926 435118 434926 434947 4192566 435118 619848
100000000 434870 435137 434870 434952 434878 435050 434878 434880 434878 435050 434878 434880 4192567 435050 619882
100000000 435884 436109 435884 435925 435874 436055 435874 435884 435874 436055 435874 435884 4192560 436055 619784
100000000 435249 435439 435249 435269 435234 435400 435234 435230 435234 435400 435234 435230 4192552 435400 619495
100000000 434718 434992 434718 434806 434715 434911 434715 434740 434715 434911 434715 434740 4192743 434911 624157
100000000 434616 434872 434616 434683 434608 434796 434608 434625 434608 434796 434608 434625 4192590 434796 620447
100000000 434736 434964 434736 434772 434727 434895 434727 434725 434727 434895 434727 434725 4192723 434895 623639
100000000 434546 434766 434546 434571 434533 434709 434533 434538 434533 434709 434533 434538 4192680 434709 622615
100000000 435608 435798 435608 435618 435591 435767 435591 435597 435591 435767 435591 435597 4192477 435767 617750
100000000 435211 435433 435211 435246 435212 435375 435212 435204 435212 435375 435212 435204 4192644 435375 621762
100000000 434880 435118 434880 434935 434872 435063 434872 434892 434872 435063 434872 434892 4192716 435063 623433
100000000 434744 434989 434744 434800 434743 434927 434743 434757 434743 434927 434743 434757 4192612 434927 621030
100000000 435149 435358 435149 435182 435148 435330 435148 435159 435148 435330 435148 435159 4192698 435330 623021
100000000 435452 435641 435452 435461 435449 435609 435449 435439 435449 435609 435449 435439 4192600 435609 620681
100000000 435909 436079 435909 435894 435899 436058 435899 435887 435899 436058 435899 435887 4192602 436058 620761
100000000 435765 435993 435765 435808 435764 435959 435764 435789 435764 435959 435764 435789 4192789 435959 625212
100000000 436506 436713 436506 436510 436506 436663 436506 436492 436506 436663 436506 436492 4192611 436663 621005
100000000 435495 435713 435495 435521 435496 435645 435496 435474 435496 435645 435496 435474 4192659 435645 622057
100000000 435716 435902 435716 435714 435711 435869 435711 435699 435711 435869 435711 435699 4192618 435869 621131
100000000 435971 436166 435971 435979 435969 436138 435969 435967 435969 436138 435969 435967 4192598 436138 620660
100000000 435296 435446 435296 435274 435292 435440 435292 435270 435292 435440 435292 435270 4192667 435440 622298
100000000 434744 434957 434744 434781 434742 434921 434742 434750 434742 434921 434742 434750 4192536 434921 619177
100000000 436773 436987 436773 436803 436773 436965 436773 436794 436773 436965 436773 436794 4192635 436965 621528
100000000 434407 434620 434407 434441 434408 434599 434408 434429 434408 434599 434408 434429 4192623 434599 621240
100000000 435599 435767 435599 435592 435593 435758 435593 435587 435593 435758 435593 435587 4192687 435758 622816
100000000 435225 435409 435225 435231 435221 435386 435221 435216 435221 435386 435221 435216 4192615 435386 621031
100000000 435416 435574 435416 435404 435416 435570 435416 435399 435416 435570 435416 435399 4192671 435570 622382
100000000 435180 435362 435180 435194 435180 435346 435180 435176 435180 435346 435180 435176 4192612 435346 621001
100000000 435312 435483 435312 435306 435312 435471 435312 435300 435312 435471 435312 435300 4192620 435471 621192
100000000 435538 435755 435538 435579 435538 435734 435538 435563 435538 435734 435538 435563 4192644 435734 621711
100000000 344292 344499 344267 344300 344313 344493 344267 344282 344699 344493 344268 344271 4013030 344491 495184
100000000 407 447 407 407 407 447 407 407 529 447 407 407 3333754 814 407
100000000 406 406 406 406 406 406 406 406 406 406 406 406 3333753 812 406
100000000 407 407 407 407 407 407 407 407 407 407 407 407 3333754 814 407
100000000 407 407 407 407 407 407 407 407 407 407 407 407 3333754 814 407
100000000 407 407 407 407 407 407 407 407 407 407 407 407 3333754 814 407
100000000 407 407 407 407 407 407 407 407 407 407 407 407 3333754 814 407
100000000 407 407 407 407 407 407 407 407 407 407 407 407 3333754 814 407
100000000 407 407 407 407 407 407 407 407 407 407 407 407 3333753 814 407
100000000 406 406 406 406 406 406 406 406 406 406 406 406 3333753 812 406
100000000 407 407 407 407 407 407 407 407 407 407 407 407 3333754 814 407
100000000 407 407 407 407 407 407 407 407 407 407 407 407 3333754 814 407
100000000 407 407 407 407 407 407 407 407 407 407 407 407 3333754 814 407
100000000 407 407 407 407 407 407 407 407 407 407 407 407 3333754 814 407
100000000 407 407 407 407 407 407 407 407 407 407 407 407 3333754 814 407
100000000 406 406 406 406 406 406 406 406 406 406 406 406 3333753 812 406
100000000 407 407 407 407 407 407 407 407 407 407 407 407 3333754 814 407
100000000 407 407 407 407 407 407 407 407 407 407 407 407 3333753 814 407
100000000 407 407 407 407 407 407 407 407 407 407 407 407 3333754 814 407
100000000 407 407 407 407 407 407 407 407 407 407 407 407 3333754 814 407
100000000 30687 30794 30661 30689 30707 30801 30659 30664 31100 30802 30659 30660 3409729 31178 50115
100000000 416644 416832 416644 416649 416644 416811 416644 416640 416715 416811 416644 416640 4196631 416811 681656
100000000 416695 416884 416695 416709 416695 416873 416695 416703 416742 416873 416695 416703 4196674 416873 680615
100000000 415555 415717 415555 415539 415555 415701 415555 415530 415555 415701 415555 415530 4196667 415701 680846
100000000 416433 416601 416433 416425 416433 416591 416433 416420 416433 416591 416433 416420 4196694 416591 680154
100000000 415584 415751 415584 415574 415584 415744 415584 415573 415584 415744 415584 415573 4196676 415744 680644
100000000 416093 416272 416093 416098 416093 416266 416093 416096 416093 416266 416093 416096 4196635 416266 681534
100000000 416275 416436 416275 416264 416275 416426 416275 416255 416275 416426 416275 416255 4196706 416426 679904
100000000 416476 416641 416476 416465 416476 416629 416476 416458 416476 416629 416476 416458 4196736 416629 679189
100000000 416500 416671 416500 416505 416500 416667 416500 416496 416500 416667 416500 416496 4196682 416667 680468
100000000 416435 416636 416435 416461 416429 416617 416429 416447 416435 416617 416435 416447 4196707 416617 679841
100000000 416756 416952 416756 416778 416756 416940 416756 416769 416756 416940 416756 416769 4196724 416940 679495
100000000 415368 415512 415368 415333 415363 415500 415363 415329 415368 415500 415368 415329 4196778 415500 678161
100000000 416428 416593 416428 416417 416422 416587 416422 416416 416428 416587 416428 416416 4196777 416587 678240
100000000 416740 416910 416740 416741 416721 416912 416721 416742 416738 416912 416738 416742 4196648 416912 681268
100000000 416667 416849 416667 416675 416666 416843 416666 416672 416667 416843 416667 416672 4196763 416843 678540
100000000 416138 416325 416138 416147 416142 416320 416142 416149 416138 416320 416138 416149 4196652 416320 681162
100000000 416625 416810 416625 416637 416630 416799 416630 416628 416625 416799 416625 416628 4196652 416799 681145
100000000 416530 416700 416530 416532 416513 416698 416513 416528 416528 416698 416528 416528 4196584 416698 682817
100000000 415860 416047 415860 415873 415859 416037 415859 415866 415864 416037 415864 415866 4196641 416037 681408
100000000 416816 417006 416816 416828 416811 416999 416811 416828 416817 416999 416817 416828 4196564 416999 683287
100000000 417506 417699 417506 417522 417496 417690 417496 417519 417532 417690 417532 417519 4196574 417690 682974
100000000 415400 415580 415400 415407 415399 415576 415399 415406 415402 415576 415402 415406 4196782 415576 678105
100000000 415113 415308 415113 415130 415107 415296 415107 415125 415116 415296 415116 415125 4196655 415296 681088
100000000 414819 414984 414819 414808 414813 414979 414813 414808 414826 414979 414826 414808 4196800 414979 677682
100000000 415357 415555 415357 415381 415348 415547 415348 415376 415371 415547 415371 415376 4196714 415547 679694
100000000 416783 416944 416783 416774 416776 416943 416776 416773 416793 416943 416793 416773 4196575 416943 682990
100000000 415676 415846 415676 415668 415676 415838 415676 415667 415678 415838 415678 415667 4196661 415838 680977
100000000 415185 415347 415185 415176 415183 415345 415183 415174 415179 415345 415179 415174 4196766 415345 678452
100000000 416835 417005 416835 416830 416834 416999 416834 416828 416819 416999 416819 416828 4196649 416999 681284
100000000 415870 416046 415870 415871 415868 416040 415868 415870 415876 416040 415876 415870 4196758 416040 678620
100000000 416982 417137 416982 416961 416980 417128 416980 416957 416977 417128 416977 416957 4196625 417128 681861
100000000 416019 416169 416019 415993 416017 416161 416017 415990 416021 416161 416021 415990 4196703 416161 679929
100000000 415566 415745 415566 415573 415565 415741 415565 415570 415557 415741 415557 415570 4196778 415741 678224
100000000 417703 417876 417703 417700 417699 417869 417699 417699 417720 417869 417720 417699 4196674 417869 680648
100000000 416049 416207 416049 416031 416028 416199 416028 416028 416046 416199 416046 416028 4196715 416199 679683
100000000 416714 416887 416714 416710 416702 416878 416702 416707 416727 416878 416727 416707 4196679 416878 680480
100000000 416943 417109 416943 416936 416929 417106 416929 416935 416944 417106 416944 416935 4196634 417106 681639
100000000 415798 415952 415798 415781 415777 415948 415777 415778 415802 415948 415802 415778 4196722 415948 679500
100000000 416685 416873 416685 416699 416694 416870 416694 416699 416689 416870 416689 416699 4196544 416870 683696
100000000 417664 417848 417664 417676 417665 417845 417665 417674 417661 417845 417661 417674 4196631 417845 681708
100000000 416079 416258 416079 416088 416085 416258 416085 416087 416067 416258 416067 416087 4196751 416258 678842
100000000 415662 415834 415662 415661 415649 415831 415649 415661 415676 415831 415676 415661 4196716 415831 679650
100000000 415511 415686 415511 415511 415513 415682 415513 415511 415521 415682 415521 415511 4196662 415682 680906
100000000 415837 416022 415837 415851 415835 416022 415835 415851 415867 416022 415867 415851 4196693 416022 680231
100000000 417109 417285 417109 417111 417096 417282 417096 417111 417134 417282 417134 417111 4196661 417282 680962
100000000 416218 416385 416218 416218 416212 416390 416212 416220 416232 416390 416232 416220 4196683 416390 680380
100000000 415890 416064 415890 415890 415897 416059 415897 415888 415882 416059 415882 415888 4196715 416059 679717
100000000 375554 375736 375532 375559 375573 375732 375530 375536 375825 375732 375532 375535 4113586 375730 612318
100000000 407 493 407 407 407 493 407 407 667 493 407 407 3333754 814 407
100000000 406 406 406 406 406 406 406 406 406 406 406 406 3333753 812 406
100000000 407 407 407 407 407 407 407 407 407 407 407 407 3333754 814 407
100000000 407 407 407 407 407 407 407 407 407 407 407 407 3333754 814 407
100000000 407 407 407 407 407 407 407 407 407 407 407 407 3333754 814 407
100000000 407 407 407 407 407 407 407 407 407 407 407 407 3333754 814 407
100000000 407 407 407 407 407 407 407 407 407 407 407 407 3333753 814 407
100000000 407 407 407 407 407 407 407 407 407 407 407 407 3333754 814 407
100000000 406 406 406 406 406 406 406 406 406 406 406 406 3333753 812 406
100000000 407 407 407 407 407 407 407 407 407 407 407 407 3333754 814 407
100000000 407 407 407 407 407 407 407 407 407 407 407 407 3333754 814 407
100000000 407 407 407 407 407 407 407 407 407 407 407 407 3333754 814 407
100000000 407 407 407 407 407 407 407 407 407 407 407 407 3333754 814 407
100000000 407 407 407 407 407 407 407 407 407 407 407 407 3333754 814 407
100000000 407 407 407 407 407 407 407 407 407 407 407 407 3333754 814 407
100000000 406 406 406 406 406 406 406 406 406 406 406 406 3333752 812 406
100000000 407 407 407 407 407 407 407 407 407 407 407 407 3333754 814 407
100000000 407 407 407 407 407 407 407 407 407 407 407 407 3333754 814 407
100000000 407 407 407 407 407 407 407 407 407 407 407 407 3333754 814 407
100000000 407 407 407 407 407 407 407 407 407 407 407 407 3333754 814 407
100000000 373569 373843 373543 373575 373586 373840 373538 373550 374050 373842 373563 373546 4178604 373856 574111
100000000 389132 389319 389132 389147 389130 389317 389130 389147 389218 389317 389147 389147 4200241 389317 596221
100000000 388303 388466 388303 388296 388293 388468 388293 388297 388331 388468 388331 388297 4200248 388468 596088
100000000 389803 389973 389803 389803 389801 389974 389801 389803 389826 389974 389826 389803 4200226 389974 596566
100000000 387578 387773 387578 387599 387581 387771 387581 387600 387607 387771 387607 387600 4200303 387771 594806
100000000 389167 389346 389167 389171 389164 389342 389164 389171 389178 389342 389178 389171 4200159 389342 598126
100000000 388034 388217 388034 388047 388035 388218 388035 388047 388068 388218 388068 388047 4200339 388218 593958
100000000 388401 388571 388401 388398 388387 388569 388387 388398 388431 388569 388431 388398 4200279 388569 595314
100000000 389441 389613 389441 389442 389439 389613 389439 389442 389448 389613 389448 389442 4200237 389613 596356
100000000 388406 388590 388406 388417 388405 388588 388405 388417 388401 388588 388401 388417 4200291 388588 595015
100000000 389482 389658 389482 389487 389474 389658 389474 389487 389497 389658 389497 389487 4200244 389658 596161
100000000 387133 387297 387133 387125 387113 387295 387113 387125 387162 387295 387162 387125 4200384 387295 592843
100000000 388614 388785 388614 388613 388604 388783 388604 388612 388650 388783 388650 388612 4200357 388783 593519
100000000 388696 388876 388696 388704 388691 388875 388691 388704 388723 388875 388723 388704 4200216 388875 596825
100000000 388867 389037 388867 388864 388862 389034 388862 388863 388871 389034 388871 388863 4200288 389034 595119
100000000 388263 388443 388263 388272 388266 388443 388266 388272 388271 388443 388271 388272 4200186 388443 597534
100000000 388744 388906 388744 388734 388742 388905 388742 388734 388746 388905 388746 388734 4200258 388905 595843
100000000 389379 389554 389379 389383 389368 389554 389368 389383 389396 389554 389396 389383 4200138 389554 598648
100000000 389042 389223 389042 389052 389043 389223 389043 389052 389064 389223 389064 389052 4200165 389223 598007
100000000 389450 389638 389450 389467 389452 389638 389452 389467 389457 389638 389457 389467 4200072 389638 600253
100000000 389437 389645 389437 389472 389435 389642 389435 389472 389505 389642 389505 389472 4200124 389642 598962
100000000 388251 388433 388251 388262 388249 388433 388249 388262 388271 388433 388271 388262 4200360 388433 593467
100000000 387899 388087 387899 387913 387899 388084 387899 387913 387908 388084 387908 387913 4200201 388084 597151
100000000 387291 387470 387291 387298 387291 387469 387291 387298 387325 387469 387325 387298 4200325 387469 594248
100000000 387304 387509 387304 387338 387302 387508 387302 387337 387353 387508 387353 387337 4200280 387508 595330
100000000 388246 388427 388246 388255 388248 388426 388248 388255 388279 388426 388279 388255 4200160 388426 598120
100000000 388264 388451 388264 388280 388266 388451 388266 388280 388294 388451 388294 388280 4200195 388451 597364
100000000 387478 387668 387478 387493 387479 387664 387479 387493 387504 387664 387504 387493 4200317 387664 594431
100000000 390000 390168 390000 389996 390003 390166 390003 389995 389998 390166 389998 389995 4200153 390166 598317
100000000 388216 388397 388216 388226 388215 388397 388215 388226 388241 388397 388241 388226 4200310 388397 594590
100000000 389721 389894 389721 389723 389718 389892 389718 389722 389745 389892 389745 389722 4200184 389892 597547
100000000 387506 387688 387506 387514 387500 387685 387500 387514 387556 387685 387556 387514 4200287 387685 595180
100000000 387946 388110 387946 387939 387942 388111 387942 387940 387949 388111 387949 387940 4200307 388111 594639
100000000 389994 390187 389994 390016 389995 390187 389995 390016 390040 390187 390040 390016 4200258 390187 595882
100000000 388635 388813 388635 388643 388630 388812 388630 388641 388684 388812 388684 388641 4200260 388812 595767
100000000 389062 389258 389062 389085 389063 389254 389063 389083 389111 389254 389111 389083 4200220 389254 596735
100000000 388801 388989 388801 388817 388794 388988 388794 388817 388841 388988 388841 388817 4200249 388988 596012
100000000 388387 388555 388387 388385 388383 388556 388383 388385 388416 388556 388416 388385 4200291 388556 595071
100000000 389537 389706 389537 389536 389528 389705 389528 389534 389541 389705 389541 389534 4200093 389705 599757
100000000 389762 389955 389762 389784 389758 389954 389758 389784 389784 389954 389784 389784 4200211 389954 596898
100000000 387342 387513 387342 387341 387344 387512 387344 387341 387327 387512 387327 387341 4200366 387512 593293
100000000 388291 388485 388291 388311 388286 388480 388286 388309 388333 388480 388333 388309 4200273 388480 595468
100000000 388192 388373 388192 388201 388193 388372 388193 388201 388232 388372 388232 388201 4200219 388372 596733
100000000 387655 387840 387655 387668 387653 387838 387653 387667 387702 387838 387702 387667 4200269 387838 595610
100000000 389660 389852 389660 389682 389655 389853 389655 389682 389706 389853 389706 389682 4200238 389853 596324
100000000 389507 389694 389507 389524 389500 389695 389500 389524 389551 389695 389551 389524 4200240 389695 596260
100000000 387864 388039 387864 387867 387853 388037 387853 387866 387872 388037 387872 387866 4200272 388037 595483
100000000 378450 378609 378428 378442 378472 378607 378427 378429 378627 378607 378431 378428 4179352 378605 579587
100000000 407 523 407 407 407 522 407 407 757 523 407 407 3333753 814 407
100000000 407 407 407 407 407 407 407 407 407 407 407 407 3333754 814 407
100000000 407 407 407 407 407 407 407 407 407 407 407 407 3333754 814 407
100000000 407 407 407 407 407 407 407 407 407 407 407 407 3333754 814 407
100000000 407 407 407 407 407 407 407 407 407 407 407 407 3333754 814 407
100000000 406 406 406 406 406 406 406 406 406 406 406 406 3333753 812 406
100000000 407 407 407 407 407 407 407 407 407 407 407 407 3333754 814 407
100000000 407 407 407 407 407 407 407 407 407 407 407 407 3333754 814 407
100000000 407 407 407 407 407 407 407 407 407 407 407 407 3333754 814 407
100000000 407 407 407 407 407 407 407 407 407 407 407 407 3333754 814 407
100000000 407 407 407 407 407 407 407 407 407 407 407 407 3333753 814 407
100000000 407 407 407 407 407 407 407 407 407 407 407 407 3333754 814 407
100000000 406 406 406 406 406 406 406 406 406 406 406 406 3333753 812 406
100000000 407 407 407 407 407 407 407 407 407 407 407 407 3333754 814 407
100000000 407 407 407 407 407 407 407 407 407 407 407 407 3333754 814 407
100000000 407 407 407 407 407 407 407 407 407 407 407 407 3333754 814 407
100000000 407 407 407 407 407 407 407 407 407 407 407 407 3333754 814 407
100000000 407 407 407 407 407 407 407 407 407 407 407 407 3333754 814 407
100000000 407 407 407 407 407 407 407 407 407 407 407 407 3333754 814 407
100000000 406 406 406 406 406 406 406 406 406 406 406 406 3333752 812 406
100000000 318351 318620 318326 318344 318369 318620 318321 318341 318827 318620 318355 318339 4118748 318666 466967
100000000 358098 358296 358098 358125 358094 358296 358094 358125 358206 358296 358131 358125 4203306 358296 523711
100000000 357679 357863 357679 357692 357664 357863 357664 357692 357738 357863 357731 357692 4203312 357863 523535
100000000 358289 358472 358289 358301 358285 358472 358285 358301 358326 358472 358326 358301 4203303 358472 523757
100000000 356550 356743 356550 356570 356548 356741 356548 356570 356587 356741 356587 356570 4203339 356741 522920
100000000 358156 358335 358156 358164 358160 358335 358160 358164 358179 358335 358179 358164 4203210 358335 525985
100000000 356596 356793 356596 356622 356592 356793 356592 356622 356649 356793 356649 356622 4203381 356793 521902
100000000 356987 357166 356987 356994 356983 357166 356983 356994 357035 357166 357035 356994 4203347 357166 522745
100000000 358097 358286 358097 358114 358095 358284 358095 358113 358124 358284 358124 358113 4203324 358284 523263
100000000 357376 357555 357376 357384 357374 357555 357374 357384 357383 357555 357383 357384 4203333 357555 523054
100000000 358584 358775 358584 358602 358580 358773 358580 358602 358627 358773 358627 358602 4203273 358773 524481
100000000 355869 356052 355869 355882 355863 356050 355863 355879 355918 356050 355918 355879 4203465 356050 519983
100000000 357234 357419 357234 357247 357231 357418 357231 357247 357296 357418 357296 357247 4203384 357418 521798
100000000 357041 357216 357041 357044 357040 357215 357040 357044 357065 357215 357065 357044 4203324 357215 523305
100000000 357945 358109 357945 357937 357943 358108 357943 357937 357950 358108 357950 357937 4203329 358108 523152
100000000 358184 358378 358184 358207 358184 358378 358184 358207 358219 358378 358219 358207 4203208 358378 526005
100000000 358010 358183 358010 358012 358012 358183 358012 358012 358029 358183 358029 358012 4203303 358183 523752
100000000 358525 358712 358525 358541 358525 358712 358525 358541 358556 358712 358556 358541 4203234 358712 525437
100000000 358049 358241 358049 358069 358045 358240 358045 358069 358094 358240 358094 358069 4203213 358240 525902
100000000 359151 359337 359151 359167 359147 359338 359147 359167 359176 359338 359176 359167 4203117 359338 528130
100000000 359173 359389 359173 359217 359172 359388 359172 359217 359251 359388 359251 359217 4203150 359388 527386
100000000 356509 356700 356509 356529 356505 356700 356505 356529 356546 356700 356546 356529 4203435 356700 520635
100000000 357391 357571 357391 357400 357387 357571 357387 357400 357414 357571 357414 357400 4203279 357571 524326
100000000 357363 357550 357363 357379 357364 357550 357364 357379 357409 357550 357409 357379 4203318 357550 523436
100000000 355992 356194 355992 356023 355983 356194 355983 356023 356044 356194 356044 356023 4203345 356194 522794
100000000 357291 357470 357291 357301 357287 357472 357287 357301 357332 357472 357332 357301 4203208 357472 525988
100000000 357373 357564 357373 357393 357376 357564 357376 357393 357409 357564 357409 357393 4203248 357564 525106
100000000 356862 357053 356862 356880 356858 357051 356858 356880 356909 357051 356909 356880 4203350 357051 522639
100000000 359232 359407 359232 359235 359234 359406 359234 359235 359253 359406 359253 359235 4203196 359406 526311
100000000 356364 356543 356364 356369 356360 356540 356360 356369 356393 356540 356393 356369 4203366 356540 522262
100000000 358774 358952 358774 358779 358772 358950 358772 358779 358813 358950 358813 358779 4203259 358950 524790
100000000 356166 356349 356166 356178 356158 356349 356158 356178 356219 356349 356219 356178 4203360 356349 522417
100000000 356836 357009 356836 356837 356837 357008 356837 356837 356860 357008 356860 356837 4203368 357008 522248
100000000 358200 358400 358200 358230 358197 358401 358197 358230 358274 358401 358274 358230 4203342 358401 522866
100000000 357694 357888 357694 357715 357692 357886 357692 357715 357765 357886 357765 357715 4203282 357886 524239
100000000 358262 358454 358262 358282 358263 358453 358263 358282 358330 358453 358330 358282 4203255 358453 524925
100000000 357523 357726 357523 357554 357519 357725 357519 357554 357604 357725 357604 357554 4203279 357725 524287
100000000 357555 357725 357555 357555 357554 357726 357554 357555 357587 357726 357587 357555 4203321 357726 523377
100000000 358618 358793 358618 358623 358615 358794 358615 358623 358642 358794 358642 358623 4203207 358794 526032
100000000 358522 358724 358522 358554 358523 358725 358523 358554 358554 358725 358554 358554 4203240 358725 525279
100000000 356303 356483 356303 356312 356303 356483 356303 356312 356316 356483 356316 356312 4203392 356483 521642
100000000 356998 357197 356998 357023 356997 357194 356997 357023 357056 357194 357056 357023 4203331 357194 523106
100000000 356906 357091 356906 356919 356906 357090 356906 356919 356959 357090 356959 356919 4203297 357090 523901
100000000 356269 356446 356269 356275 356270 356446 356270 356275 356327 356446 356327 356275 4203318 356446 523397
100000000 358066 358281 358066 358110 358065 358281 358065 358110 358142 358281 358142 358110 4203315 358281 523483
100000000 358403 358598 358403 358427 358403 358598 358403 358427 358476 358598 358476 358427 4203291 358598 524044
100000000 356999 357186 356999 357015 356999 357186 356999 357015 357048 357186 357048 357015 4203315 357186 523518
100000000 356470 356652 356470 356482 356471 356653 356471 356482 356482 356653 356482 356482 4203399 356653 521472
100000000 5036 5145 5015 5016 5060 5145 5015 5016 5563 5146 5017 5015 3345192 5420 7486
100000000 407 407 407 407 407 407 407 407 407 407 407 407 3333754 814 407
100000000 407 407 407 407 407 407 407 407 407 407 407 407 3333754 814 407
100000000 407 407 407 407 407 407 407 407 407 407 407 407 3333754 814 407
100000000 406 406 406 406 406 406 406 406 406 406 406 406 3333753 812 406
100000000 407 407 407 407 407 407 407 407 407 407 407 407 3333754 814 407
100000000 407 407 407 407 407 407 407 407 407 407 407 407 3333754 814 407
100000000 407 407 407 407 407 407 407 407 407 407 407 407 3333753 814 407
100000000 407 407 407 407 407 407 407 407 407 407 407 407 3333754 814 407
100000000 407 407 407 407 407 407 407 407 407 407 407 407 3333754 814 407
100000000 407 407 407 407 407 407 407 407 407 407 407 407 3333754 814 407
100000000 406 406 406 406 406 406 406 406 406 406 406 406 3333753 812 406
100000000 407 407 407 407 407 407 407 407 407 407 407 407 3333754 814 407
100000000 407 407 407 407 407 407 407 407 407 407 407 407 3333754 814 407
100000000 407 407 407 407 407 407 407 407 407 407 407 407 3333754 814 407
100000000 407 407 407 407 407 407 407 407 407 407 407 407 3333754 814 407
100000000 407 407 407 407 407 407 407 407 407 407 407 407 3333754 814 407
100000000 407 407 407 407 407 407 407 407 407 407 407 407 3333753 814 407
100000000 406 406 406 406 406 406 406 406 406 406 406 406 3333753 812 406
100000000 407 407 407 407 407 407 407 407 407 407 407 407 3333754 814 407
100000000 278304 278566 278281 278296 278326 278566 278278 278293 278772 278566 278304 278291 4088489 278627 394301
100000000 326456 326666 326456 326494 326454 326665 326454 326494 326583 326665 326515 326494 4205940 326665 461391
100000000 326310 326508 326310 326338 326306 326509 326306 326338 326404 326509 326385 326338 4205931 326509 461580
100000000 326479 326662 326479 326491 326477 326662 326477 326491 326520 326662 326520 326491 4205920 326662 461794
100000000 325458 325647 325458 325474 325459 325646 325459 325474 325503 325646 325503 325474 4205944 325646 461295
100000000 326769 326949 326769 326778 326769 326949 326769 326778 326792 326949 326792 326778 4205856 326949 463333
100000000 325759 325958 325759 325787 325755 325958 325755 325787 325822 325958 325822 325787 4205965 325958 460759
100000000 325688 325867 325688 325697 325689 325868 325689 325697 325738 325868 325738 325697 4206008 325868 459734
100000000 326378 326571 326378 326398 326379 326569 326379 326398 326412 326569 326412 326398 4205958 326569 460969
100000000 325395 325578 325395 325406 325395 325577 325395 325406 325416 325577 325416 325406 4205967 325577 460706
100000000 327530 327726 327530 327555 327530 327726 327530 327555 327599 327726 327599 327555 4205886 327726 462642
100000000 324658 324854 324658 324683 324660 324854 324660 324683 324731 324854 324731 324683 4206057 324854 458600
100000000 325240 325430 325240 325258 325237 325430 325237 325258 325315 325430 325315 325258 4206035 325430 459075
100000000 324777 324951 324777 324782 324777 324953 324777 324782 324810 324953 324810 324782 4205934 324953 461510
100000000 326402 326569 326402 326398 326404 326569 326404 326398 326421 326569 326421 326398 4205982 326569 460403
100000000 327057 327254 327057 327083 327052 327254 327052 327083 327101 327254 327101 327083 4205814 327254 464316
100000000 326985 327160 326985 326989 326985 327160 326985 326989 327010 327160 327010 326989 4205916 327160 461938
100000000 327080 327264 327080 327093 327081 327264 327081 327093 327122 327264 327122 327093 4205871 327264 462988
100000000 326843 327028 326843 326857 326839 327028 326839 326857 326888 327028 326888 326857 4205850 327028 463459
100000000 328280 328471 328280 328300 328278 328471 328278 328300 328315 328471 328315 328300 4205742 328471 466094
100000000 328146 328360 328146 328188 328146 328360 328146 328188 328232 328360 328232 328188 4205768 328360 465386
100000000 325083 325277 325083 325106 325079 325277 325079 325106 325130 325277 325130 325106 4206072 325277 458286
100000000 326365 326545 326365 326373 326365 326544 326365 326373 326400 326544 326400 326373 4205907 326544 462138
100000000 326090 326282 326090 326111 326091 326282 326091 326111 326150 326282 326150 326111 4205892 326282 462450
100000000 324148 324348 324148 324177 324143 324348 324143 324177 324210 324348 324210 324177 4205967 324348 460729
100000000 325786 325972 325786 325801 325784 325972 325784 325801 325849 325972 325849 325801 4205855 325972 463391
100000000 326518 326710 326518 326539 326518 326710 326518 326539 326561 326710 326561 326539 4205872 326710 462982
100000000 325682 325878 325682 325705 325682 325876 325682 325705 325743 325876 325743 325705 4205964 325876 460786
100000000 327893 328067 327893 327895 327893 328067 327893 327895 327921 328067 327921 327895 4205813 328067 464346
100000000 325112 325290 325112 325119 325112 325290 325112 325119 325153 325290 325153 325119 4206014 325290 459625
100000000 327439 327617 327439 327446 327439 327617 327439 327446 327482 327617 327482 327446 4205878 327617 462806
100000000 324930 325126 324930 324955 324930 325126 324930 324955 324997 325126 324997 324955 4205991 325126 460169
100000000 325643 325823 325643 325651 325643 325822 325643 325651 325674 325822 325674 325651 4205982 325822 460366
100000000 326304 326511 326304 326340 326304 326511 326304 326340 326399 326511 326399 326340 4206012 326511 459623
100000000 326821 327016 326821 326845 326821 327016 326821 326845 326896 327016 326896 326845 4205922 327016 461794
100000000 326902 327094 326902 326923 326902 327094 326902 326923 326985 327094 326985 326923 4205847 327094 463542
100000000 326160 326372 326160 326200 326160 326372 326160 326200 326256 326372 326256 326200 4205936 326372 461518
100000000 325744 325922 325744 325750 325744 325921 325744 325750 325795 325921 325795 325750 4205949 325921 461089
100000000 327421 327595 327421 327425 327421 327596 327421 327425 327460 327596 327460 327425 4205832 327596 463922
100000000 327078 327282 327078 327112 327078 327283 327078 327112 327123 327283 327123 327112 4205868 327283 463107
100000000 325125 325307 325125 325136 325125 325307 325125 325136 325148 325307 325148 325136 4206006 325307 459774
100000000 325723 325923 325723 325751 325723 325922 325723 325751 325788 325922 325788 325751 4205919 325922 461877
100000000 325429 325624 325429 325453 325429 325624 325429 325453 325498 325624 325498 325453 4205913 325624 461965
100000000 325105 325283 325105 325113 325105 325284 325105 325113 325172 325284 325172 325113 4205932 325284 461545
100000000 326947 327166 326947 326994 326947 327166 326947 326994 327033 327166 327033 326994 4205929 327166 461651
100000000 326677 326881 326677 326710 326677 326881 326677 326710 326766 326881 326766 326710 4205895 326881 462435
100000000 326536 326722 326536 326551 326536 326722 326536 326551 326595 326722 326595 326551 4205919 326722 461814
100000000 324837 325026 324837 324854 324837 325025 324837 324854 324862 325025 324862 324854 4206030 325025 459224
100000000 7188 7298 7167 7168 7212 7298 7167 7168 7716 7299 7170 7167 3351758 7570 10436
100000000 407 407 407 407 407 407 407 407 407 407 407 407 3333754 814 407
100000000 407 407 407 407 407 407 407 407 407 407 407 407 3333754 814 407
100000000 407 407 407 407 407 407 407 407 407 407 407 407 3333754 814 407
100000000 406 406 406 406 406 406 406 406 406 406 406 406 3333753 812 406
100000000 407 407 407 407 407 407 407 407 407 407 407 407 3333754 814 407
100000000 407 407 407 407 407 407 407 407 407 407 407 407 3333754 814 407
100000000 407 407 407 407 407 407 407 407 407 407 407 407 3333754 814 407
100000000 407 407 407 407 407 407 407 407 407 407 407 407 3333754 814 407
100000000 407 407 407 407 407 407 407 407 407 407 407 407 3333754 814 407
100000000 406 406 406 406 406 406 406 406 406 406 406 406 3333752 812 406
100000000 407 407 407 407 407 407 407 407 407 407 407 407 3333754 814 407
100000000 407 407 407 407 407 407 407 407 407 407 407 407 3333754 814 407
100000000 407 407 407 407 407 407 407 407 407 407 407 407 3333754 814 407
100000000 407 407 407 407 407 407 407 407 407 407 407 407 3333754 814 407
100000000 407 407 407 407 407 407 407 407 407 407 407 407 3333754 814 407
100000000 407 407 407 407 407 407 407 407 407 407 407 407 3333754 814 407
100000000 406 406 406 406 406 406 406 406 406 406 406 406 3333753 812 406
100000000 407 407 407 407 407 407 407 407 407 407 407 407 3333754 814 407
100000000 407 407 407 407 407 407 407 407 407 407 407 407 3333753 814 407
100000000 250427 250688 250403 250419 250452 250688 250403 250415 250904 250688 250437 250414 4083846 250752 345901
100000000 295957 296173 295957 296001 295957 296172 295957 296001 296088 296172 296024 296001 4208169 296172 408587
100000000 296685 296884 296685 296713 296685 296884 296685 296713 296788 296884 296764 296713 4208169 296884 408591
100000000 296731 296917 296731 296744 296731 296916 296731 296744 296787 296916 296787 296744 4208158 296916 408889
100000000 295934 296125 295934 295954 295934 296125 295934 295954 296001 296125 296001 295954 4208182 296125 408274
100000000 297136 297317 297136 297146 297136 297317 297136 297146 297169 297317 297169 297146 4208085 297317 410578
100000000 295863 296061 295863 295890 295863 296061 295863 295890 295932 296061 295932 295890 4208196 296061 408000
100000000 295822 296005 295822 295834 295822 296005 295822 295834 295883 296005 295883 295834 4208259 296005 406464
100000000 296782 296974 296782 296802 296782 296974 296782 296802 296830 296974 296830 296802 4208195 296974 408014
100000000 295511 295699 295511 295529 295511 295700 295511 295529 295546 295700 295546 295529 4208190 295700 408114
100000000 297598 297795 297598 297624 297598 297795 297598 297624 297671 297795 297671 297624 4208112 297795 409968
100000000 294572 294777 294572 294606 294572 294777 294572 294606 294663 294777 294663 294606 4208301 294777 405458
100000000 294717 294904 294717 294733 294717 294904 294717 294733 294800 294904 294800 294733 4208265 294904 406296
100000000 295471 295653 295471 295480 295471 295652 295471 295480 295515 295652 295515 295480 4208165 295652 408746
100000000 296566 296740 296566 296569 296566 296740 296566 296569 296603 296740 296603 296569 4208214 296740 407532
100000000 296738 296940 296738 296769 296738 296940 296738 296769 296795 296940 296795 296769 4208058 296940 411256
100000000 297311 297490 297311 297319 297311 297490 297311 297319 297342 297490 297342 297319 4208148 297490 409063
100000000 297700 297890 297700 297718 297700 297890 297700 297718 297748 297890 297748 297718 4208108 297890 410103
100000000 297421 297612 297421 297442 297421 297613 297421 297442 297482 297613 297482 297442 4208085 297613 410560
100000000 298876 299081 298876 298910 298876 299081 298876 298910 298937 299081 298937 298910 4207980 299081 413080
100000000 298148 298361 298148 298190 298148 298361 298148 298190 298239 298361 298239 298190 4208016 298361 412220
100000000 295231 295432 295231 295261 295231 295432 295231 295261 295286 295432 295286 295261 4208319 295432 405041
100000000 296447 296631 296447 296460 296447 296632 296447 296460 296505 296632 296505 296460 4208162 296632 408781
100000000 296453 296643 296453 296472 296453 296643 296453 296472 296522 296643 296522 296472 4208148 296643 409140
100000000 294387 294594 294387 294423 294387 294594 294387 294423 294462 294594 294462 294423 4208180 294594 408347
100000000 296597 296782 296597 296611 296597 296782 296597 296611 296662 296782 296662 296611 4208059 296782 411205
100000000 296284 296479 296284 296308 296284 296479 296284 296308 296341 296479 296341 296308 4208121 296479 409722
100000000 295942 296143 295942 295971 295942 296143 295942 295971 296016 296143 296016 295971 4208204 296143 407774
100000000 298528 298703 298528 298532 298528 298703 298528 298532 298567 298703 298567 298532 4208043 298703 411612
100000000 295193 295382 295193 295211 295193 295382 295193 295211 295240 295382 295240 295211 4208253 295382 406610
100000000 297716 297898 297716 297726 297716 297897 297716 297726 297765 297897 297765 297726 4208139 297897 409298
100000000 294979 295187 294979 295015 294979 295187 294979 295015 295057 295187 295057 295015 4208219 295187 407444
100000000 295288 295482 295288 295310 295288 295481 295288 295310 295351 295481 295351 295310 4208216 295481 407516
100000000 296419 296624 296419 296453 296419 296624 296419 296453 296518 296624 296518 296453 4208242 296624 406877
100000000 297218 297414 297218 297243 297218 297414 297218 297243 297299 297414 297299 297243 4208142 297414 409227
100000000 297736 297928 297736 297757 297736 297928 297736 297757 297827 297928 297827 297757 4208075 297928 410845
100000000 295676 295885 295676 295713 295676 295885 295676 295713 295778 295885 295778 295713 4208189 295885 408145
100000000 295591 295775 295591 295604 295591 295775 295591 295604 295640 295775 295640 295604 4208197 295775 407962
100000000 297591 297781 297591 297609 297591 297780 297591 297609 297648 297780 297648 297609 4208079 297780 410674
100000000 297274 297481 297274 297310 297274 297481 297274 297310 297331 297481 297331 297310 4208097 297481 410334
100000000 294721 294909 294721 294737 294721 294909 294721 294737 294747 294909 294747 294737 4208246 294909 406811
100000000 296789 296990 296789 296819 296789 296990 296789 296819 296864 296990 296864 296819 4208111 296990 409978
100000000 295800 295988 295800 295817 295800 295988 295800 295817 295877 295988 295877 295817 4208124 295988 409668
100000000 294788 294965 294788 294795 294788 294966 294788 294795 294861 294966 294861 294795 4208176 294966 408411
100000000 296696 296923 296696 296751 296696 296922 296696 296751 296789 296922 296789 296751 4208163 296922 408786
100000000 297241 297452 297241 297280 297241 297452 297241 297280 297339 297452 297339 297280 4208111 297452 409941
100000000 296561 296748 296561 296577 296561 296748 296561 296577 296638 296748 296638 296577 4208157 296748 408909
100000000 295606 295796 295606 295625 295606 295796 295606 295625 295641 295796 295641 295625 4208243 295796 406874
100000000 1193 1301 1173 1174 1218 1300 1173 1173 1719 1302 1173 1173 3336149 1579 1649
100000000 407 407 407 407 407 407 407 407 407 407 407 407 3333754 814 407
100000000 407 407 407 407 407 407 407 407 407 407 407 407 3333753 814 407
100000000 407 407 407 407 407 407 407 407 407 407 407 407 3333754 814 407
100000000 407 407 407 407 407 407 407 407 407 407 407 407 3333754 814 407
100000000 407 407 407 407 407 407 407 407 407 407 407 407 3333754 814 407
100000000 406 406 406 406 406 406 406 406 406 406 406 406 3333753 812 406
100000000 407 407 407 407 407 407 407 407 407 407 407 407 3333754 814 407
100000000 407 407 407 407 407 407 407 407 407 407 407 407 3333754 814 407
100000000 407 407 407 407 407 407 407 407 407 407 407 407 3333754 814 407
100000000 407 407 407 407 407 407 407 407 407 407 407 407 3333754 814 407
100000000 407 407 407 407 407 407 407 407 407 407 407 407 3333754 814 407
100000000 406 406 406 406 406 406 406 406 406 406 406 406 3333752 812 406
100000000 407 407 407 407 407 407 407 407 407 407 407 407 3333754 814 407
100000000 407 407 407 407 407 407 407 407 407 407 407 407 3333754 814 407
100000000 407 407 407 407 407 407 407 407 407 407 407 407 3333754 814 407
100000000 407 407 407 407 407 407 407 407 407 407 407 407 3333754 814 407
100000000 407 407 407 407 407 407 407 407 407 407 407 407 3333754 814 407
100000000 407 407 407 407 407 407 407 407 407 407 407 407 3333754 814 407
100000000 406 406 406 406 406 406 406 406 406 406 406 406 3333753 812 406
100000000 231851 232117 231827 231844 231876 232117 231827 231840 232335 232117 231874 231840 4101166 232174 314102
100000000 268299 268513 268299 268341 268299 268512 268299 268341 268428 268512 268364 268341 4210101 268512 362905
100000000 268594 268796 268594 268624 268594 268796 268594 268624 268714 268796 268684 268624 4210117 268796 362526
100000000 268642 268828 268642 268657 268642 268828 268642 268657 268705 268828 268705 268657 4210119 268828 362458
100000000 267824 268015 267824 267844 267824 268015 267824 267844 267901 268015 267901 267844 4210117 268015 362514
100000000 269416 269598 269416 269427 269416 269598 269416 269427 269457 269598 269457 269427 4210026 269598 364614
100000000 267402 267597 267402 267425 267402 267597 267402 267425 267472 267597 267472 267425 4210130 267597 362226
100000000 267595 267782 267595 267610 267595 267781 267595 267610 267664 267781 267664 267610 4210167 267781 361335
100000000 268544 268739 268544 268568 268544 268739 268544 268568 268601 268739 268601 268568 4210143 268739 361872
100000000 267760 267956 267760 267784 267760 267956 267760 267784 267804 267956 267804 267784 4210127 267956 362276
100000000 269780 269979 269780 269808 269780 269979 269780 269808 269853 269979 269853 269808 4210038 269979 364389
100000000 265906 266115 265906 265944 265906 266115 265906 265944 266009 266115 266009 265944 4210248 266115 359406
100000000 267662 267854 267662 267682 267662 267854 267662 267682 267752 267854 267752 267682 4210148 267854 361726
100000000 267285 267461 267285 267290 267285 267461 267285 267290 267336 267461 267336 267290 4210113 267461 362613
100000000 268550 268730 268550 268559 268550 268730 268550 268559 268597 268730 268597 268559 4210118 268730 362505
100000000 269586 269786 269586 269614 269586 269785 269586 269614 269649 269785 269649 269614 4209991 269785 365489
100000000 269019 269198 269019 269026 269019 269198 269019 269026 269055 269198 269055 269026 4210103 269198 362856
100000000 269675 269862 269675 269691 269675 269862 269675 269691 269734 269862 269734 269691 4210020 269862 364750
100000000 269912 270111 269912 269941 269912 270112 269912 269941 269987 270112 269987 269941 4210002 270112 365220
100000000 271143 271348 271143 271176 271143 271348 271143 271176 271197 271348 271197 271176 4209923 271348 367131
100000000 269658 269877 269658 269705 269658 269876 269658 269705 269765 269876 269765 269705 4209975 269876 365848
100000000 266763 266958 266763 266787 266763 266958 266763 266787 266832 266958 266832 266787 4210245 266958 359456
100000000 269094 269284 269094 269113 269094 269284 269094 269113 269167 269284 269167 269113 4210068 269284 363680
100000000 268392 268578 268392 268405 268392 268577 268392 268405 268454 268577 268454 268405 4210109 268577 362732
100000000 267118 267323 267118 267152 267118 267323 267118 267152 267199 267323 267199 267152 4210122 267323 362340
100000000 269826 270016 269826 269845 269826 270016 269826 269845 269903 270016 269903 269845 4209961 270016 366213
100000000 268193 268388 268193 268216 268193 268388 268193 268216 268277 268388 268277 268216 4210069 268388 363660
100000000 267671 267870 267671 267699 267671 267870 267671 267699 267764 267870 267764 267699 4210131 267870 362197
100000000 269898 270074 269898 269903 269898 270074 269898 269903 269945 270074 269945 269903 4210002 270074 365173
100000000 267094 267282 267094 267110 267094 267282 267094 267110 267144 267282 267144 267110 4210172 267282 361228
100000000 269432 269618 269432 269447 269432 269618 269432 269447 269493 269618 269493 269447 4210092 269618 363127
100000000 267653 267862 267653 267691 267653 267862 267653 267691 267744 267862 267744 267691 4210134 267862 362081
100000000 267852 268037 267852 267866 267852 268037 267852 267866 267909 268037 267909 267866 4210134 268037 362068
100000000 268160 268367 268160 268195 268160 268367 268160 268195 268266 268367 268266 268195 4210172 268367 361222
100000000 269506 269702 269506 269531 269506 269702 269506 269531 269591 269702 269591 269531 4210095 269702 363068
100000000 269477 269670 269477 269499 269477 269670 269477 269499 269566 269670 269566 269499 4210017 269670 364816
100000000 267865 268072 267865 267900 267865 268072 267865 267900 267975 268072 267975 267900 4210148 268072 361778
100000000 268053 268242 268053 268071 268053 268242 268053 268071 268114 268242 268114 268071 4210105 268242 362802
100000000 270303 270488 270303 270317 270303 270488 270303 270317 270358 270488 270358 270317 4209965 270488 366138
100000000 269187 269398 269187 269226 269187 269398 269187 269226 269251 269398 269251 269226 4210070 269398 363604
100000000 266831 267021 266831 266850 266831 267021 266831 266850 266860 267021 266860 266850 4210167 267021 361326
100000000 269181 269379 269181 269208 269181 269379 269181 269208 269268 269379 269268 269208 4210056 269379 363923
100000000 267946 268136 267946 267965 267946 268136 267946 267965 268033 268136 268033 267965 4210044 268136 364224
100000000 267150 267334 267150 267162 267150 267334 267150 267162 267228 267334 267228 267162 4210115 267334 362582
100000000 269106 269336 269106 269165 269106 269336 269106 269165 269211 269336 269211 269165 4210080 269336 363387
100000000 268987 269192 268987 269021 268987 269192 268987 269021 269084 269192 269084 269021 4210047 269192 364146
100000000 268352 268540 268352 268368 268352 268540 268352 268368 268432 268540 268432 268368 4210094 268540 363049
100000000 258067 258251 258047 258070 258092 258252 258047 258069 258315 258252 258101 258069 4177613 258250 348143
100000000 406 516 406 406 406 514 406 406 738 516 406 406 3333753 812 406
100000000 407 407 407 407 407 407 407 407 407 407 407 407 3333754 814 407
100000000 407 407 407 407 407 407 407 407 407 407 407 407 3333753 814 407
100000000 407 407 407 407 407 407 407 407 407 407 407 407 3333754 814 407
100000000 407 407 407 407 407 407 407 407 407 407 407 407 3333754 814 407
100000000 407 407 407 407 407 407 407 407 407 407 407 407 3333754 814 407
100000000 407 407 407 407 407 407 407 407 407 407 407 407 3333754 814 407
100000000 406 406 406 406 406 406 406 406 406 406 406 406 3333753 812 406
100000000 407 407 407 407 407 407 407 407 407 407 407 407 3333754 814 407
100000000 407 407 407 407 407 407 407 407 407 407 407 407 3333754 814 407
100000000 407 407 407 407 407 407 407 407 407 407 407 407 3333754 814 407
100000000 407 407 407 407 407 407 407 407 407 407 407 407 3333754 814 407
100000000 407 407 407 407 407 407 407 407 407 407 407 407 3333753 814 407
100000000 407 407 407 407 407 407 407 407 407 407 407 407 3333754 814 407
100000000 406 406 406 406 406 406 406 406 406 406 406 406 3333753 812 406
100000000 407 407 407 407 407 407 407 407 407 407 407 407 3333754 814 407
100000000 407 407 407 407 407 407 407 407 407 407 407 407 3333754 814 407
100000000 407 407 407 407 407 407 407 407 407 407 407 407 3333754 814 407
100000000 407 407 407 407 407 407 407 407 407 407 407 407 3333754 814 407
100000000 407 407 407 407 407 407 407 407 407 407 407 407 3333754 814 407
100000000 219869 220146 219846 219864 219895 220146 219846 219862 220363 220146 219904 219862 4137569 220186 294166
100000000 243316 243528 243316 243357 243316 243528 243316 243357 243450 243528 243385 243357 4211754 243528 323772
100000000 242228 242423 242228 242251 242228 242423 242228 242251 242350 242423 242320 242251 4211786 242423 323013
100000000 243774 243965 243774 243794 243774 243979 243774 243808 243851 243965 243851 243794 4211742 243965 324019
100000000 242410 242595 242410 242424 242410 242530 242410 242359 242487 242605 242487 242434 4211772 242605 323343
100000000 244378 244516 244378 244344 244378 244536 244378 244364 244424 244565 244424 244393 4211666 244565 325826
100000000 241696 241923 241696 241752 241696 241925 241696 241754 241765 241878 241765 241707 4211796 241878 322766
100000000 242693 242849 242693 242678 242693 242872 242693 242701 242776 242878 242776 242707 4211778 242878 323200
100000000 243218 243441 243218 243269 243218 243465 243218 243293 243280 243416 243280 243244 4211804 243416 322608
100000000 242266 242510 242266 242339 242266 242512 242266 242341 242323 242470 242323 242299 4211790 242470 322892
100000000 244903 245124 244903 244952 244903 245100 244903 244928 244987 245100 244987 244928 4211663 245100 325966
100000000 240512 240746 240512 240575 240512 240727 240512 240556 240635 240727 240635 240556 4211892 240727 320450
100000000 242717 242905 242717 242734 242717 242905 242717 242734 242810 242905 242810 242734 4211790 242905 322909
100000000 242764 242943 242764 242771 242764 242943 242764 242771 242822 242943 242822 242771 4211744 242943 324011
100000000 243399 243584 243399 243413 243399 243584 243399 243413 243452 243584 243452 243413 4211745 243584 323995
100000000 244732 244928 244732 244757 244732 244928 244732 244757 244797 244928 244797 244757 4211628 244928 326703
100000000 243737 243917 243737 243745 243737 243917 243737 243745 243779 243917 243779 243745 4211741 243917 324133
100000000 245107 245296 245107 245125 245107 245296 245107 245125 245174 245296 245174 245125 4211634 245296 326551
100000000 244613 244814 244613 244643 244613 244814 244613 244643 244690 244814 244690 244643 4211673 244814 325699
100000000 246382 246586 246382 246414 246382 246586 246382 246414 246438 246586 246438 246414 4211552 246586 328541
100000000 243980 244200 243980 244029 243980 244200 243980 244029 244107 244200 244107 244029 4211658 244200 326043
100000000 241411 241600 241411 241429 241411 241600 241411 241429 241484 241600 241484 241429 4211889 241600 320593
100000000 243645 243836 243645 243664 243645 243836 243645 243664 243727 243836 243727 243664 4211702 243836 325001
100000000 242973 243158 242973 242987 242973 243162 242973 242991 243050 243162 243050 242991 4211766 243162 323428
100000000 242157 242378 242157 242206 242157 242368 242157 242196 242239 242368 242239 242196 4211741 242368 324108
100000000 244166 244357 244166 244186 244166 244349 244166 244178 244261 244349 244261 244178 4211616 244349 326998
100000000 242998 243194 242998 243023 242998 243194 242998 243023 243087 243194 243087 243023 4211714 243194 324737
100000000 242763 242963 242763 242791 242763 242963 242763 242791 242863 242963 242863 242791 4211790 242963 322917
100000000 243596 243777 243596 243606 243596 243780 243596 243609 243651 243774 243651 243603 4211703 243774 324951
100000000 242193 242409 242193 242238 242193 242385 242193 242214 242254 242385 242254 242214 4211790 242385 322897
100000000 244388 244575 244388 244403 244388 244575 244388 244403 244452 244575 244452 244403 4211735 244575 324234
100000000 242644 242850 242644 242679 242644 242850 242644 242679 242741 242850 242741 242679 4211745 242850 323959
100000000 242615 242806 242615 242635 242615 242806 242615 242635 242686 242806 242686 242635 4211778 242806 323220
100000000 241940 242177 241940 242005 241940 242146 241940 241974 242056 242146 242056 241974 4211851 242146 321481
100000000 244220 244347 244220 244176 244220 244373 244220 244202 244299 244414 244299 244243 4211740 244414 324085
100000000 243129 243377 243129 243205 243129 243411 243129 243239 243243 243330 243243 243158 4211723 243330 324483
100000000 242720 242889 242720 242718 242720 242897 242720 242726 242827 242920 242827 242749 4211793 242920 322879
100000000 243145 243245 243145 243074 243115 243242 243115 243071 243184 243337 243184 243166 4211736 243308 324164
100000000 244500 244667 244500 244495 244500 244677 244500 244505 244568 244688 244568 244516 4211622 244688 326882
100000000 244075 244286 244075 244115 244075 244368 244075 244197 244140 244288 244140 244117 4211756 244288 323753
100000000 241672 241866 241672 241695 241672 241876 241672 241705 241709 241860 241709 241689 4211775 241860 323251
100000000 244377 244576 244377 244404 244377 244612 244377 244440 244457 244570 244457 244398 4211687 244570 325348
100000000 243095 243319 243095 243148 243095 243298 243095 243127 243190 243282 243190 243111 4211652 243282 326179
100000000 242314 242535 242314 242364 242314 242498 242314 242327 242387 242498 242387 242327 4211746 242498 323925
100000000 244187 244398 244187 244226 244187 244421 244187 244249 244309 244421 244309 244249 4211698 244421 325135
100000000 243305 243487 243305 243316 243305 243500 243305 243329 243398 243505 243398 243334 4211712 243505 324727
100000000 243223 243433 243223 243261 243223 243441 243223 243269 243315 243416 243315 243244 4211715 243416 324682
100000000 219522 219749 219503 219555 219548 219726 219503 219530 219840 219726 219557 219530 4127794 219724 291683
100000000 407 494 407 407 407 492 407 407 670 494 407 407 3333754 814 407
100000000 407 407 407 407 407 407 407 407 407 407 407 407 3333754 814 407
100000000 407 407 407 407 407 407 407 407 407 407 407 407 3333754 814 407
100000000 407 407 407 407 407 407 407 407 407 407 407 407 3333753 814 407
100000000 407 407 407 407 407 407 407 407 407 407 407 407 3333754 814 407
100000000 407 407 407 407 407 407 407 407 407 407 407 407 3333754 814 407
100000000 406 406 406 406 406 406 406 406 406 406 406 406 3333753 812 406
100000000 407 407 407 407 407 407 407 407 407 407 407 407 3333754 814 407
100000000 407 407 407 407 407 407 407 407 407 407 407 407 3333754 814 407
100000000 407 407 407 407 407 407 407 407 407 407 407 407 3333754 814 407
100000000 407 407 407 407 407 407 407 407 407 407 407 407 3333754 814 407
100000000 407 407 407 407 407 407 407 407 407 407 407 407 3333754 814 407
100000000 407 407 407 407 407 407 407 407 407 407 407 407 3333754 814 407
100000000 406 406 406 406 406 406 406 406 406 406 406 406 3333752 812 406
100000000 407 407 407 407 407 407 407 407 407 407 407 407 3333754 814 407
100000000 407 407 407 407 407 407 407 407 407 407 407 407 3333754 814 407
100000000 407 407 407 407 407 407 407 407 407 407 407 407 3333754 814 407
100000000 407 407 407 407 407 407 407 407 407 407 407 407 3333754 814 407
100000000 407 407 407 407 407 407 407 407 407 407 407 407 3333754 814 407
100000000 407 407 407 407 407 407 407 407 407 407 407 407 3333754 814 407
100000000 212164 212463 212141 212171 212190 212452 212141 212159 212672 212453 212213 212159 4190350 212469 280494
100000000 220606 220826 220606 220655 220601 220817 220601 220646 220741 220822 220672 220651 4213197 220817 289620
100000000 219277 219363 219277 219191 219233 219335 219233 219163 219361 219464 219333 219292 4213208 219429 289324
100000000 220563 220811 220563 220640 220715 220782 220715 220611 220808 220749 220808 220578 4213179 220907 290042
100000000 219712 219785 219712 219613 219693 219810 219693 219638 219773 219900 219773 219728 4213220 219887 289069
100000000 221350 221429 221350 221258 221300 221459 221300 221288 221365 221545 221365 221374 4213095 221486 292056
100000000 218612 218822 218612 218650 218612 218788 218612 218616 218692 218795 218692 218623 4213232 218795 288785
100000000 220303 220357 220303 220186 220303 220324 220303 220153 220390 220488 220390 220317 4213223 220488 289005
100000000 219531 219669 219531 219498 219531 219637 219531 219466 219592 219726 219592 219555 4213270 219726 287882
100000000 219307 219455 219307 219283 219291 219388 219291 219216 219357 219511 219357 219339 4213207 219494 289383
100000000 221489 221617 221489 221446 221489 221608 221489 221437 221574 221688 221574 221517 4213126 221688 291290
59003572 128843 128937 128843 128836 128843 128945 128843 128844 128916 128969 128916 128868 2485982 128969 169787
number of instructions: 95259003572
