151594758,98265,123811111,4316640,3807457,2618834,1704169,4728970,10419556,42939,39968,317,599,321,4,6,12,5565,25,0,0
152251580,72317,127707778,3741179,2961699,1986847,1425938,1460892,12807048,19996,58478,129,36,247,3,0,0,8975,18,0,0
152399007,73469,127305792,3808033,3131648,2018655,1472823,1677521,12823024,21672,56644,317,36,246,3,0,0,9124,0,0,0
152388130,73868,127304044,3826849,3087136,2031913,1484713,1660799,12830313,20904,57933,189,36,250,1,0,0,9182,0,0,0
152415183,72523,127568644,3756463,3035669,1993028,1437059,1388999,13074795,19920,58602,190,36,248,2,0,0,9005,0,0,0
152439081,71454,127794619,3702156,3047886,1962931,1420600,1348452,13003849,19280,58390,314,35,243,1,0,0,8871,0,0,0
152377632,74321,127275872,3852822,3088030,2045480,1491063,1865732,12595855,22735,55991,193,37,257,1,0,0,9243,0,0,0
152407650,72964,127486383,3776743,3071129,2003315,1458747,1490411,12960146,20124,58101,251,36,247,2,0,0,9051,0,0,0
152432622,71633,127795356,3713908,3041125,1970665,1427638,1355600,12969718,19555,57979,253,36,250,1,0,0,8905,0,0,0
152420589,72352,127806528,3746436,2998671,1988084,1432489,1626817,12661630,21057,56931,324,35,245,0,0,0,8990,0,0,0
152397476,73418,127259783,3858187,3114819,2017732,1476196,1566605,12942957,20952,57283,132,37,257,1,0,0,9116,0,0,1
168337175,62704,119060253,10189493,6695988,9985795,1226916,1175487,11171832,264145,148091,394871,1580890,5671200,111,81,161,8016,718,1435,698988
265440052,27860,134989278,118779520,3604211,162102,121575,519232,390054,6846220,0,0,0,0,0,0,0,0,0,0,0
265440092,27863,134989027,118779781,3604243,162100,121575,519226,390052,6846225,0,0,0,0,0,0,0,0,0,0,0
265440128,27859,134989485,118779377,3604204,162102,121576,519228,390060,6846237,0,0,0,0,0,0,0,0,0,0,0
265440209,27863,134990124,118778818,3604200,162100,121577,519233,390055,6846239,0,0,0,0,0,0,0,0,0,0,0
265440025,27863,134989392,118779413,3604192,162100,121575,519226,390052,6846212,0,0,0,0,0,0,0,0,0,0,0
265440062,27858,134989219,118779578,3604219,162102,121575,519232,390057,6846222,0,0,0,0,0,0,0,0,0,0,0
265440090,27861,134989014,118779788,3604245,162100,121575,519228,390052,6846227,0,0,0,0,0,0,0,0,0,0,0
265440149,27863,134989685,118779209,3604194,162102,121576,519226,390057,6846237,0,0,0,0,0,0,0,0,0,0,0
265440180,27859,134989996,118778921,3604200,162100,121577,519234,390058,6846235,0,0,0,0,0,0,0,0,0,0,0
265440025,27863,134989392,118779413,3604192,162100,121575,519226,390052,6846212,0,0,0,0,0,0,0,0,0,0,0
265440073,27863,134989160,118779640,3604225,162102,121575,519231,390054,6846223,0,0,0,0,0,0,0,0,0,0,0
265440079,27856,134988973,118779823,3604239,162100,121575,519229,390055,6846229,0,0,0,0,0,0,0,0,0,0,0
265440181,27863,134989910,118779010,3604194,162102,121576,519229,390058,6846239,0,0,0,0,0,0,0,0,0,0,0
265440148,27861,134989871,118779023,3604200,162100,121577,519230,390056,6846230,0,0,0,0,0,0,0,0,0,0,0
265440025,27861,134989392,118779413,3604192,162100,121575,519227,390053,6846212,0,0,0,0,0,0,0,0,0,0,0
265440084,27863,134989100,118779699,3604234,162102,121575,519231,390054,6846226,0,0,0,0,0,0,0,0,0,0,0
265440068,27859,134988933,118779860,3604229,162100,121575,519228,390055,6846229,0,0,0,0,0,0,0,0,0,0,0
265440209,27860,134990137,118778811,3604195,162102,121576,519230,390058,6846240,0,0,0,0,0,0,0,0,0,0,0
265440120,27863,134989743,118779126,3604200,162100,121577,519230,390054,6846227,0,0,0,0,0,0,0,0,0,0,0
265440025,27859,134989392,118779413,3604192,162100,121575,519227,390055,6846212,0,0,0,0,0,0,0,0,0,0,0
265440095,27863,134989042,118779758,3604243,162102,121575,519231,390054,6846227,0,0,0,0,0,0,0,0,0,0,0
265440087,27863,134989074,118779733,3604222,162102,121576,519227,390057,6846233,0,0,0,0,0,0,0,0,0,0,0
265440212,27859,134990181,118778776,3604194,162100,121576,519231,390056,6846239,0,0,0,0,0,0,0,0,0,0,0
265440087,27860,134989617,118779229,3604199,162100,121576,519230,390054,6846222,0,0,0,0,0,0,0,0,0,0,0
252857171,33314,124042411,86037727,7712917,12094797,12801733,5443339,252145,4423212,0,0,84,0,0,0,0,0,0,0,15492
229339006,43043,103994801,26170818,15151707,33746249,35812517,14376588,0,0,0,0,240,0,0,0,0,0,0,11030,32013
234415768,235148,212325603,3557041,2097927,3938151,3724288,1973271,2403703,282807,411846,689171,564800,153139,81775,140269,254680,487195,835339,259441,174
389821056,4049,190776750,34418149,86319749,74297915,2650475,1353735,91,2,0,2,12,0,37,0,0,0,0,17,73
401408450,0,197183097,35211266,91549297,77464790,0,0,0,0,0,0,0,0,0,0,0,0,0,0,0
401408450,0,197183100,35211269,91549294,77464787,0,0,0,0,0,0,0,0,0,0,0,0,0,0,0
401408452,0,197183097,35211266,91549299,77464790,0,0,0,0,0,0,0,0,0,0,0,0,0,0,0
401408450,0,197183101,35211269,91549293,77464787,0,0,0,0,0,0,0,0,0,0,0,0,0,0,0
401408453,0,197183097,35211267,91549299,77464790,0,0,0,0,0,0,0,0,0,0,0,0,0,0,0
401408448,0,197183100,35211268,91549293,77464787,0,0,0,0,0,0,0,0,0,0,0,0,0,0,0
401408453,0,197183097,35211267,91549298,77464791,0,0,0,0,0,0,0,0,0,0,0,0,0,0,0
401408448,0,197183099,35211268,91549294,77464787,0,0,0,0,0,0,0,0,0,0,0,0,0,0,0
401408452,0,197183098,35211267,91549297,77464790,0,0,0,0,0,0,0,0,0,0,0,0,0,0,0
401408449,0,197183099,35211268,91549294,77464788,0,0,0,0,0,0,0,0,0,0,0,0,0,0,0
401408453,0,197183100,35211267,91549297,77464789,0,0,0,0,0,0,0,0,0,0,0,0,0,0,0
401408447,0,197183096,35211268,91549295,77464788,0,0,0,0,0,0,0,0,0,0,0,0,0,0,0
401408455,0,197183100,35211269,91549296,77464790,0,0,0,0,0,0,0,0,0,0,0,0,0,0,0
401408447,0,197183098,35211266,91549296,77464787,0,0,0,0,0,0,0,0,0,0,0,0,0,0,0
401408455,0,197183098,35211270,91549295,77464792,0,0,0,0,0,0,0,0,0,0,0,0,0,0,0
401408447,0,197183101,35211265,91549296,77464785,0,0,0,0,0,0,0,0,0,0,0,0,0,0,0
401408454,0,197183096,35211270,91549296,77464792,0,0,0,0,0,0,0,0,0,0,0,0,0,0,0
401408448,0,197183101,35211266,91549295,77464786,0,0,0,0,0,0,0,0,0,0,0,0,0,0,0
401408454,0,197183097,35211269,91549297,77464791,0,0,0,0,0,0,0,0,0,0,0,0,0,0,0
401408447,0,197183100,35211266,91549295,77464786,0,0,0,0,0,0,0,0,0,0,0,0,0,0,0
401408453,0,197183097,35211269,91549296,77464791,0,0,0,0,0,0,0,0,0,0,0,0,0,0,0
401408449,0,197183100,35211266,91549295,77464788,0,0,0,0,0,0,0,0,0,0,0,0,0,0,0
401408452,0,197183098,35211269,91549296,77464789,0,0,0,0,0,0,0,0,0,0,0,0,0,0,0
401408449,0,197183098,35211266,91549296,77464789,0,0,0,0,0,0,0,0,0,0,0,0,0,0,0
401408452,0,197183100,35211269,91549295,77464788,0,0,0,0,0,0,0,0,0,0,0,0,0,0,0
401408451,0,197183096,35211266,91549299,77464790,0,0,0,0,0,0,0,0,0,0,0,0,0,0,0
401408449,0,197183100,35211269,91549293,77464787,0,0,0,0,0,0,0,0,0,0,0,0,0,0,0
401408453,0,197183098,35211267,91549298,77464790,0,0,0,0,0,0,0,0,0,0,0,0,0,0,0
401408450,0,197183101,35211268,91549294,77464787,0,0,0,0,0,0,0,0,0,0,0,0,0,0,0
401408452,0,197183097,35211267,91549298,77464790,0,0,0,0,0,0,0,0,0,0,0,0,0,0,0
401408447,0,197183099,35211268,91549293,77464787,0,0,0,0,0,0,0,0,0,0,0,0,0,0,0
401408453,0,197183097,35211267,91549298,77464791,0,0,0,0,0,0,0,0,0,0,0,0,0,0,0
401408450,0,197183100,35211268,91549294,77464788,0,0,0,0,0,0,0,0,0,0,0,0,0,0,0
401408452,0,197183099,35211267,91549297,77464789,0,0,0,0,0,0,0,0,0,0,0,0,0,0,0
401408448,0,197183097,35211268,91549295,77464788,0,0,0,0,0,0,0,0,0,0,0,0,0,0,0
401408454,0,197183100,35211268,91549296,77464790,0,0,0,0,0,0,0,0,0,0,0,0,0,0,0
401408446,0,197183096,35211267,91549296,77464787,0,0,0,0,0,0,0,0,0,0,0,0,0,0,0
401408457,0,197183100,35211270,91549295,77464792,0,0,0,0,0,0,0,0,0,0,0,0,0,0,0
401408446,0,197183100,35211265,91549296,77464785,0,0,0,0,0,0,0,0,0,0,0,0,0,0,0
401408454,0,197183097,35211270,91549295,77464792,0,0,0,0,0,0,0,0,0,0,0,0,0,0,0
401408448,0,197183101,35211266,91549296,77464785,0,0,0,0,0,0,0,0,0,0,0,0,0,0,0
401408454,0,197183097,35211269,91549296,77464792,0,0,0,0,0,0,0,0,0,0,0,0,0,0,0
401408448,0,197183100,35211266,91549296,77464786,0,0,0,0,0,0,0,0,0,0,0,0,0,0,0
401408452,0,197183096,35211269,91549296,77464791,0,0,0,0,0,0,0,0,0,0,0,0,0,0,0
401408449,0,197183101,35211266,91549295,77464787,0,0,0,0,0,0,0,0,0,0,0,0,0,0,0
401408452,0,197183097,35211269,91549296,77464790,0,0,0,0,0,0,0,0,0,0,0,0,0,0,0
401408450,0,197183099,35211266,91549296,77464789,0,0,0,0,0,0,0,0,0,0,0,0,0,0,0
401408452,0,197183100,35211269,91549295,77464788,0,0,0,0,0,0,0,0,0,0,0,0,0,0,0
401408450,0,197183096,35211266,91549298,77464790,0,0,0,0,0,0,0,0,0,0,0,0,0,0,0
401408449,0,197183100,35211269,91549293,77464787,0,0,0,0,0,0,0,0,0,0,0,0,0,0,0
401408453,0,197183097,35211267,91549299,77464790,0,0,0,0,0,0,0,0,0,0,0,0,0,0,0
401408450,0,197183102,35211268,91549293,77464787,0,0,0,0,0,0,0,0,0,0,0,0,0,0,0
401408453,0,197183097,35211267,91549299,77464790,0,0,0,0,0,0,0,0,0,0,0,0,0,0,0
401408447,0,197183099,35211268,91549293,77464787,0,0,0,0,0,0,0,0,0,0,0,0,0,0,0
401408453,0,197183097,35211267,91549298,77464791,0,0,0,0,0,0,0,0,0,0,0,0,0,0,0
401408449,0,197183100,35211268,91549294,77464787,0,0,0,0,0,0,0,0,0,0,0,0,0,0,0
401408452,0,197183098,35211267,91549297,77464790,0,0,0,0,0,0,0,0,0,0,0,0,0,0,0
401408448,0,197183098,35211268,91549294,77464788,0,0,0,0,0,0,0,0,0,0,0,0,0,0,0
401408454,0,197183100,35211268,91549297,77464789,0,0,0,0,0,0,0,0,0,0,0,0,0,0,0
401408447,0,197183096,35211267,91549296,77464788,0,0,0,0,0,0,0,0,0,0,0,0,0,0,0
401408456,0,197183100,35211269,91549295,77464792,0,0,0,0,0,0,0,0,0,0,0,0,0,0,0
401408446,0,197183099,35211266,91549296,77464785,0,0,0,0,0,0,0,0,0,0,0,0,0,0,0
401408455,0,197183098,35211270,91549295,77464792,0,0,0,0,0,0,0,0,0,0,0,0,0,0,0
401408447,0,197183101,35211265,91549296,77464785,0,0,0,0,0,0,0,0,0,0,0,0,0,0,0
401408453,0,197183095,35211270,91549296,77464792,0,0,0,0,0,0,0,0,0,0,0,0,0,0,0
401408449,0,197183101,35211266,91549296,77464786,0,0,0,0,0,0,0,0,0,0,0,0,0,0,0
401408453,0,197183097,35211269,91549296,77464791,0,0,0,0,0,0,0,0,0,0,0,0,0,0,0
401408449,0,197183101,35211266,91549295,77464787,0,0,0,0,0,0,0,0,0,0,0,0,0,0,0
401408452,0,197183097,35211269,91549296,77464790,0,0,0,0,0,0,0,0,0,0,0,0,0,0,0
401408449,0,197183099,35211266,91549295,77464789,0,0,0,0,0,0,0,0,0,0,0,0,0,0,0
401408452,0,197183099,35211269,91549296,77464788,0,0,0,0,0,0,0,0,0,0,0,0,0,0,0
401408450,0,197183097,35211266,91549297,77464790,0,0,0,0,0,0,0,0,0,0,0,0,0,0,0
401408450,0,197183100,35211269,91549294,77464787,0,0,0,0,0,0,0,0,0,0,0,0,0,0,0
401408452,0,197183097,35211266,91549299,77464790,0,0,0,0,0,0,0,0,0,0,0,0,0,0,0
401408450,0,197183101,35211269,91549293,77464787,0,0,0,0,0,0,0,0,0,0,0,0,0,0,0
401408453,0,197183097,35211267,91549299,77464790,0,0,0,0,0,0,0,0,0,0,0,0,0,0,0
401408448,0,197183100,35211268,91549293,77464787,0,0,0,0,0,0,0,0,0,0,0,0,0,0,0
401408453,0,197183097,35211267,91549298,77464791,0,0,0,0,0,0,0,0,0,0,0,0,0,0,0
401408448,0,197183099,35211268,91549294,77464787,0,0,0,0,0,0,0,0,0,0,0,0,0,0,0
401408452,0,197183098,35211267,91549297,77464790,0,0,0,0,0,0,0,0,0,0,0,0,0,0,0
401408449,0,197183099,35211268,91549294,77464788,0,0,0,0,0,0,0,0,0,0,0,0,0,0,0
401408453,0,197183100,35211267,91549297,77464789,0,0,0,0,0,0,0,0,0,0,0,0,0,0,0
401408447,0,197183096,35211268,91549295,77464788,0,0,0,0,0,0,0,0,0,0,0,0,0,0,0
401408455,0,197183100,35211269,91549296,77464790,0,0,0,0,0,0,0,0,0,0,0,0,0,0,0
401408447,0,197183098,35211266,91549296,77464787,0,0,0,0,0,0,0,0,0,0,0,0,0,0,0
401408455,0,197183098,35211270,91549295,77464792,0,0,0,0,0,0,0,0,0,0,0,0,0,0,0
401408447,0,197183101,35211265,91549296,77464785,0,0,0,0,0,0,0,0,0,0,0,0,0,0,0
401408454,0,197183096,35211270,91549296,77464792,0,0,0,0,0,0,0,0,0,0,0,0,0,0,0
401408448,0,197183101,35211266,91549295,77464786,0,0,0,0,0,0,0,0,0,0,0,0,0,0,0
401408454,0,197183097,35211269,91549297,77464791,0,0,0,0,0,0,0,0,0,0,0,0,0,0,0
401408447,0,197183100,35211266,91549295,77464786,0,0,0,0,0,0,0,0,0,0,0,0,0,0,0
401408453,0,197183097,35211269,91549296,77464791,0,0,0,0,0,0,0,0,0,0,0,0,0,0,0
401408449,0,197183100,35211266,91549295,77464788,0,0,0,0,0,0,0,0,0,0,0,0,0,0,0
401408452,0,197183098,35211269,91549296,77464789,0,0,0,0,0,0,0,0,0,0,0,0,0,0,0
401408449,0,197183098,35211266,91549296,77464789,0,0,0,0,0,0,0,0,0,0,0,0,0,0,0
401408452,0,197183100,35211269,91549295,77464788,0,0,0,0,0,0,0,0,0,0,0,0,0,0,0
401408451,0,197183096,35211266,91549299,77464790,0,0,0,0,0,0,0,0,0,0,0,0,0,0,0
401408449,0,197183100,35211269,91549293,77464787,0,0,0,0,0,0,0,0,0,0,0,0,0,0,0
401408453,0,197183098,35211267,91549298,77464790,0,0,0,0,0,0,0,0,0,0,0,0,0,0,0
401408450,0,197183101,35211268,91549294,77464787,0,0,0,0,0,0,0,0,0,0,0,0,0,0,0
401408452,0,197183097,35211267,91549298,77464790,0,0,0,0,0,0,0,0,0,0,0,0,0,0,0
401408447,0,197183099,35211268,91549293,77464787,0,0,0,0,0,0,0,0,0,0,0,0,0,0,0
401408453,0,197183097,35211267,91549298,77464791,0,0,0,0,0,0,0,0,0,0,0,0,0,0,0
401408450,0,197183100,35211268,91549294,77464788,0,0,0,0,0,0,0,0,0,0,0,0,0,0,0
401408452,0,197183099,35211267,91549297,77464789,0,0,0,0,0,0,0,0,0,0,0,0,0,0,0
401408448,0,197183097,35211268,91549295,77464788,0,0,0,0,0,0,0,0,0,0,0,0,0,0,0
401408454,0,197183100,35211268,91549296,77464790,0,0,0,0,0,0,0,0,0,0,0,0,0,0,0
401408446,0,197183096,35211267,91549296,77464787,0,0,0,0,0,0,0,0,0,0,0,0,0,0,0
401408457,0,197183100,35211270,91549295,77464792,0,0,0,0,0,0,0,0,0,0,0,0,0,0,0
401408446,0,197183100,35211265,91549296,77464785,0,0,0,0,0,0,0,0,0,0,0,0,0,0,0
401408454,0,197183097,35211270,91549295,77464792,0,0,0,0,0,0,0,0,0,0,0,0,0,0,0
401408448,0,197183101,35211266,91549296,77464785,0,0,0,0,0,0,0,0,0,0,0,0,0,0,0
401408454,0,197183097,35211269,91549296,77464792,0,0,0,0,0,0,0,0,0,0,0,0,0,0,0
401408448,0,197183100,35211266,91549296,77464786,0,0,0,0,0,0,0,0,0,0,0,0,0,0,0
401408452,0,197183096,35211269,91549296,77464791,0,0,0,0,0,0,0,0,0,0,0,0,0,0,0
401408449,0,197183101,35211266,91549295,77464787,0,0,0,0,0,0,0,0,0,0,0,0,0,0,0
401408452,0,197183097,35211269,91549296,77464790,0,0,0,0,0,0,0,0,0,0,0,0,0,0,0
401408450,0,197183099,35211266,91549296,77464789,0,0,0,0,0,0,0,0,0,0,0,0,0,0,0
401408452,0,197183100,35211269,91549295,77464788,0,0,0,0,0,0,0,0,0,0,0,0,0,0,0
401408450,0,197183096,35211266,91549298,77464790,0,0,0,0,0,0,0,0,0,0,0,0,0,0,0
401408449,0,197183100,35211269,91549293,77464787,0,0,0,0,0,0,0,0,0,0,0,0,0,0,0
401408453,0,197183097,35211267,91549299,77464790,0,0,0,0,0,0,0,0,0,0,0,0,0,0,0
401408450,0,197183102,35211268,91549293,77464787,0,0,0,0,0,0,0,0,0,0,0,0,0,0,0
401408453,0,197183097,35211267,91549299,77464790,0,0,0,0,0,0,0,0,0,0,0,0,0,0,0
401408447,0,197183099,35211268,91549293,77464787,0,0,0,0,0,0,0,0,0,0,0,0,0,0,0
401408453,0,197183097,35211267,91549298,77464791,0,0,0,0,0,0,0,0,0,0,0,0,0,0,0
401408449,0,197183100,35211268,91549294,77464787,0,0,0,0,0,0,0,0,0,0,0,0,0,0,0
401408452,0,197183098,35211267,91549297,77464790,0,0,0,0,0,0,0,0,0,0,0,0,0,0,0
401408448,0,197183098,35211268,91549294,77464788,0,0,0,0,0,0,0,0,0,0,0,0,0,0,0
401408454,0,197183100,35211268,91549297,77464789,0,0,0,0,0,0,0,0,0,0,0,0,0,0,0
401408447,0,197183096,35211267,91549296,77464788,0,0,0,0,0,0,0,0,0,0,0,0,0,0,0
401408456,0,197183100,35211269,91549295,77464792,0,0,0,0,0,0,0,0,0,0,0,0,0,0,0
401408446,0,197183099,35211266,91549296,77464785,0,0,0,0,0,0,0,0,0,0,0,0,0,0,0
401408455,0,197183098,35211270,91549295,77464792,0,0,0,0,0,0,0,0,0,0,0,0,0,0,0
401408447,0,197183101,35211265,91549296,77464785,0,0,0,0,0,0,0,0,0,0,0,0,0,0,0
401408453,0,197183095,35211270,91549296,77464792,0,0,0,0,0,0,0,0,0,0,0,0,0,0,0
401408449,0,197183101,35211266,91549296,77464786,0,0,0,0,0,0,0,0,0,0,0,0,0,0,0
401408453,0,197183097,35211269,91549296,77464791,0,0,0,0,0,0,0,0,0,0,0,0,0,0,0
401408449,0,197183101,35211266,91549295,77464787,0,0,0,0,0,0,0,0,0,0,0,0,0,0,0
401408452,0,197183097,35211269,91549296,77464790,0,0,0,0,0,0,0,0,0,0,0,0,0,0,0
401408449,0,197183099,35211266,91549295,77464789,0,0,0,0,0,0,0,0,0,0,0,0,0,0,0
401408452,0,197183099,35211269,91549296,77464788,0,0,0,0,0,0,0,0,0,0,0,0,0,0,0
401408450,0,197183097,35211266,91549297,77464790,0,0,0,0,0,0,0,0,0,0,0,0,0,0,0
401408450,0,197183100,35211269,91549294,77464787,0,0,0,0,0,0,0,0,0,0,0,0,0,0,0
401408452,0,197183097,35211266,91549299,77464790,0,0,0,0,0,0,0,0,0,0,0,0,0,0,0
401408450,0,197183101,35211269,91549293,77464787,0,0,0,0,0,0,0,0,0,0,0,0,0,0,0
401408453,0,197183097,35211267,91549299,77464790,0,0,0,0,0,0,0,0,0,0,0,0,0,0,0
401408448,0,197183100,35211268,91549293,77464787,0,0,0,0,0,0,0,0,0,0,0,0,0,0,0
401408453,0,197183097,35211267,91549298,77464791,0,0,0,0,0,0,0,0,0,0,0,0,0,0,0
401408448,0,197183099,35211268,91549294,77464787,0,0,0,0,0,0,0,0,0,0,0,0,0,0,0
401408452,0,197183098,35211267,91549297,77464790,0,0,0,0,0,0,0,0,0,0,0,0,0,0,0
401408449,0,197183099,35211268,91549294,77464788,0,0,0,0,0,0,0,0,0,0,0,0,0,0,0
401408453,0,197183100,35211267,91549297,77464789,0,0,0,0,0,0,0,0,0,0,0,0,0,0,0
401408447,0,197183096,35211268,91549295,77464788,0,0,0,0,0,0,0,0,0,0,0,0,0,0,0
401408455,0,197183100,35211269,91549296,77464790,0,0,0,0,0,0,0,0,0,0,0,0,0,0,0
401408447,0,197183098,35211266,91549296,77464787,0,0,0,0,0,0,0,0,0,0,0,0,0,0,0
401408455,0,197183098,35211270,91549295,77464792,0,0,0,0,0,0,0,0,0,0,0,0,0,0,0
401408447,0,197183101,35211265,91549296,77464785,0,0,0,0,0,0,0,0,0,0,0,0,0,0,0
401408454,0,197183096,35211270,91549296,77464792,0,0,0,0,0,0,0,0,0,0,0,0,0,0,0
401408448,0,197183101,35211266,91549295,77464786,0,0,0,0,0,0,0,0,0,0,0,0,0,0,0
401408454,0,197183097,35211269,91549297,77464791,0,0,0,0,0,0,0,0,0,0,0,0,0,0,0
401408447,0,197183100,35211266,91549295,77464786,0,0,0,0,0,0,0,0,0,0,0,0,0,0,0
401408453,0,197183097,35211269,91549296,77464791,0,0,0,0,0,0,0,0,0,0,0,0,0,0,0
401408449,0,197183100,35211266,91549295,77464788,0,0,0,0,0,0,0,0,0,0,0,0,0,0,0
401408452,0,197183098,35211269,91549296,77464789,0,0,0,0,0,0,0,0,0,0,0,0,0,0,0
401408449,0,197183098,35211266,91549296,77464789,0,0,0,0,0,0,0,0,0,0,0,0,0,0,0
401408452,0,197183100,35211269,91549295,77464788,0,0,0,0,0,0,0,0,0,0,0,0,0,0,0
401408451,0,197183096,35211266,91549299,77464790,0,0,0,0,0,0,0,0,0,0,0,0,0,0,0
401408449,0,197183100,35211269,91549293,77464787,0,0,0,0,0,0,0,0,0,0,0,0,0,0,0
401408453,0,197183098,35211267,91549298,77464790,0,0,0,0,0,0,0,0,0,0,0,0,0,0,0
401408450,0,197183101,35211268,91549294,77464787,0,0,0,0,0,0,0,0,0,0,0,0,0,0,0
401408452,0,197183097,35211267,91549298,77464790,0,0,0,0,0,0,0,0,0,0,0,0,0,0,0
401408447,0,197183099,35211268,91549293,77464787,0,0,0,0,0,0,0,0,0,0,0,0,0,0,0
401408453,0,197183097,35211267,91549298,77464791,0,0,0,0,0,0,0,0,0,0,0,0,0,0,0
401408450,0,197183100,35211268,91549294,77464788,0,0,0,0,0,0,0,0,0,0,0,0,0,0,0
401408452,0,197183099,35211267,91549297,77464789,0,0,0,0,0,0,0,0,0,0,0,0,0,0,0
401408448,0,197183097,35211268,91549295,77464788,0,0,0,0,0,0,0,0,0,0,0,0,0,0,0
401408454,0,197183100,35211268,91549296,77464790,0,0,0,0,0,0,0,0,0,0,0,0,0,0,0
401408446,0,197183096,35211267,91549296,77464787,0,0,0,0,0,0,0,0,0,0,0,0,0,0,0
401408457,0,197183100,35211270,91549295,77464792,0,0,0,0,0,0,0,0,0,0,0,0,0,0,0
401408446,0,197183100,35211265,91549296,77464785,0,0,0,0,0,0,0,0,0,0,0,0,0,0,0
401408454,0,197183097,35211270,91549295,77464792,0,0,0,0,0,0,0,0,0,0,0,0,0,0,0
401408448,0,197183101,35211266,91549296,77464785,0,0,0,0,0,0,0,0,0,0,0,0,0,0,0
401408454,0,197183097,35211269,91549296,77464792,0,0,0,0,0,0,0,0,0,0,0,0,0,0,0
401408448,0,197183100,35211266,91549296,77464786,0,0,0,0,0,0,0,0,0,0,0,0,0,0,0
401408452,0,197183096,35211269,91549296,77464791,0,0,0,0,0,0,0,0,0,0,0,0,0,0,0
401408449,0,197183101,35211266,91549295,77464787,0,0,0,0,0,0,0,0,0,0,0,0,0,0,0
401408452,0,197183097,35211269,91549296,77464790,0,0,0,0,0,0,0,0,0,0,0,0,0,0,0
401408450,0,197183099,35211266,91549296,77464789,0,0,0,0,0,0,0,0,0,0,0,0,0,0,0
401408452,0,197183100,35211269,91549295,77464788,0,0,0,0,0,0,0,0,0,0,0,0,0,0,0
401408450,0,197183096,35211266,91549298,77464790,0,0,0,0,0,0,0,0,0,0,0,0,0,0,0
401408449,0,197183100,35211269,91549293,77464787,0,0,0,0,0,0,0,0,0,0,0,0,0,0,0
401408453,0,197183097,35211267,91549299,77464790,0,0,0,0,0,0,0,0,0,0,0,0,0,0,0
401408450,0,197183102,35211268,91549293,77464787,0,0,0,0,0,0,0,0,0,0,0,0,0,0,0
401408453,0,197183097,35211267,91549299,77464790,0,0,0,0,0,0,0,0,0,0,0,0,0,0,0
401408447,0,197183099,35211268,91549293,77464787,0,0,0,0,0,0,0,0,0,0,0,0,0,0,0
401408453,0,197183097,35211267,91549298,77464791,0,0,0,0,0,0,0,0,0,0,0,0,0,0,0
401408449,0,197183100,35211268,91549294,77464787,0,0,0,0,0,0,0,0,0,0,0,0,0,0,0
401408452,0,197183098,35211267,91549297,77464790,0,0,0,0,0,0,0,0,0,0,0,0,0,0,0
401408448,0,197183098,35211268,91549294,77464788,0,0,0,0,0,0,0,0,0,0,0,0,0,0,0
401408454,0,197183100,35211268,91549297,77464789,0,0,0,0,0,0,0,0,0,0,0,0,0,0,0
401408447,0,197183096,35211267,91549296,77464788,0,0,0,0,0,0,0,0,0,0,0,0,0,0,0
401408456,0,197183100,35211269,91549295,77464792,0,0,0,0,0,0,0,0,0,0,0,0,0,0,0
401408446,0,197183099,35211266,91549296,77464785,0,0,0,0,0,0,0,0,0,0,0,0,0,0,0
401408455,0,197183098,35211270,91549295,77464792,0,0,0,0,0,0,0,0,0,0,0,0,0,0,0
401408447,0,197183101,35211265,91549296,77464785,0,0,0,0,0,0,0,0,0,0,0,0,0,0,0
401408453,0,197183095,35211270,91549296,77464792,0,0,0,0,0,0,0,0,0,0,0,0,0,0,0
401408449,0,197183101,35211266,91549296,77464786,0,0,0,0,0,0,0,0,0,0,0,0,0,0,0
401408453,0,197183097,35211269,91549296,77464791,0,0,0,0,0,0,0,0,0,0,0,0,0,0,0
401408449,0,197183101,35211266,91549295,77464787,0,0,0,0,0,0,0,0,0,0,0,0,0,0,0
401408452,0,197183097,35211269,91549296,77464790,0,0,0,0,0,0,0,0,0,0,0,0,0,0,0
401408449,0,197183099,35211266,91549295,77464789,0,0,0,0,0,0,0,0,0,0,0,0,0,0,0
401408452,0,197183099,35211269,91549296,77464788,0,0,0,0,0,0,0,0,0,0,0,0,0,0,0
401408450,0,197183097,35211266,91549297,77464790,0,0,0,0,0,0,0,0,0,0,0,0,0,0,0
401408450,0,197183100,35211269,91549294,77464787,0,0,0,0,0,0,0,0,0,0,0,0,0,0,0
401408452,0,197183097,35211266,91549299,77464790,0,0,0,0,0,0,0,0,0,0,0,0,0,0,0
401408450,0,197183101,35211269,91549293,77464787,0,0,0,0,0,0,0,0,0,0,0,0,0,0,0
401408453,0,197183097,35211267,91549299,77464790,0,0,0,0,0,0,0,0,0,0,0,0,0,0,0
401408448,0,197183100,35211268,91549293,77464787,0,0,0,0,0,0,0,0,0,0,0,0,0,0,0
401408453,0,197183097,35211267,91549298,77464791,0,0,0,0,0,0,0,0,0,0,0,0,0,0,0
401408448,0,197183099,35211268,91549294,77464787,0,0,0,0,0,0,0,0,0,0,0,0,0,0,0
401408452,0,197183098,35211267,91549297,77464790,0,0,0,0,0,0,0,0,0,0,0,0,0,0,0
401408449,0,197183099,35211268,91549294,77464788,0,0,0,0,0,0,0,0,0,0,0,0,0,0,0
401408453,0,197183100,35211267,91549297,77464789,0,0,0,0,0,0,0,0,0,0,0,0,0,0,0
401408447,0,197183096,35211268,91549295,77464788,0,0,0,0,0,0,0,0,0,0,0,0,0,0,0
401408455,0,197183100,35211269,91549296,77464790,0,0,0,0,0,0,0,0,0,0,0,0,0,0,0
401408447,0,197183098,35211266,91549296,77464787,0,0,0,0,0,0,0,0,0,0,0,0,0,0,0
401408455,0,197183098,35211270,91549295,77464792,0,0,0,0,0,0,0,0,0,0,0,0,0,0,0
401408447,0,197183101,35211265,91549296,77464785,0,0,0,0,0,0,0,0,0,0,0,0,0,0,0
401408454,0,197183096,35211270,91549296,77464792,0,0,0,0,0,0,0,0,0,0,0,0,0,0,0
401408448,0,197183101,35211266,91549295,77464786,0,0,0,0,0,0,0,0,0,0,0,0,0,0,0
401408454,0,197183097,35211269,91549297,77464791,0,0,0,0,0,0,0,0,0,0,0,0,0,0,0
401408447,0,197183100,35211266,91549295,77464786,0,0,0,0,0,0,0,0,0,0,0,0,0,0,0
401408453,0,197183097,35211269,91549296,77464791,0,0,0,0,0,0,0,0,0,0,0,0,0,0,0
401408449,0,197183100,35211266,91549295,77464788,0,0,0,0,0,0,0,0,0,0,0,0,0,0,0
401408452,0,197183098,35211269,91549296,77464789,0,0,0,0,0,0,0,0,0,0,0,0,0,0,0
401408449,0,197183098,35211266,91549296,77464789,0,0,0,0,0,0,0,0,0,0,0,0,0,0,0
401408452,0,197183100,35211269,91549295,77464788,0,0,0,0,0,0,0,0,0,0,0,0,0,0,0
401408451,0,197183096,35211266,91549299,77464790,0,0,0,0,0,0,0,0,0,0,0,0,0,0,0
401408449,0,197183100,35211269,91549293,77464787,0,0,0,0,0,0,0,0,0,0,0,0,0,0,0
401408453,0,197183098,35211267,91549298,77464790,0,0,0,0,0,0,0,0,0,0,0,0,0,0,0
401408450,0,197183101,35211268,91549294,77464787,0,0,0,0,0,0,0,0,0,0,0,0,0,0,0
401408452,0,197183097,35211267,91549298,77464790,0,0,0,0,0,0,0,0,0,0,0,0,0,0,0
401408447,0,197183099,35211268,91549293,77464787,0,0,0,0,0,0,0,0,0,0,0,0,0,0,0
401408453,0,197183097,35211267,91549298,77464791,0,0,0,0,0,0,0,0,0,0,0,0,0,0,0
401408450,0,197183100,35211268,91549294,77464788,0,0,0,0,0,0,0,0,0,0,0,0,0,0,0
401408452,0,197183099,35211267,91549297,77464789,0,0,0,0,0,0,0,0,0,0,0,0,0,0,0
401408448,0,197183097,35211268,91549295,77464788,0,0,0,0,0,0,0,0,0,0,0,0,0,0,0
401408454,0,197183100,35211268,91549296,77464790,0,0,0,0,0,0,0,0,0,0,0,0,0,0,0
401408446,0,197183096,35211267,91549296,77464787,0,0,0,0,0,0,0,0,0,0,0,0,0,0,0
401408457,0,197183100,35211270,91549295,77464792,0,0,0,0,0,0,0,0,0,0,0,0,0,0,0
401408446,0,197183100,35211265,91549296,77464785,0,0,0,0,0,0,0,0,0,0,0,0,0,0,0
401408454,0,197183097,35211270,91549295,77464792,0,0,0,0,0,0,0,0,0,0,0,0,0,0,0
401408448,0,197183101,35211266,91549296,77464785,0,0,0,0,0,0,0,0,0,0,0,0,0,0,0
401408454,0,197183097,35211269,91549296,77464792,0,0,0,0,0,0,0,0,0,0,0,0,0,0,0
401408448,0,197183100,35211266,91549296,77464786,0,0,0,0,0,0,0,0,0,0,0,0,0,0,0
401408452,0,197183096,35211269,91549296,77464791,0,0,0,0,0,0,0,0,0,0,0,0,0,0,0
401408449,0,197183101,35211266,91549295,77464787,0,0,0,0,0,0,0,0,0,0,0,0,0,0,0
401408452,0,197183097,35211269,91549296,77464790,0,0,0,0,0,0,0,0,0,0,0,0,0,0,0
401408450,0,197183099,35211266,91549296,77464789,0,0,0,0,0,0,0,0,0,0,0,0,0,0,0
401408452,0,197183100,35211269,91549295,77464788,0,0,0,0,0,0,0,0,0,0,0,0,0,0,0
401408450,0,197183096,35211266,91549298,77464790,0,0,0,0,0,0,0,0,0,0,0,0,0,0,0
401408449,0,197183100,35211269,91549293,77464787,0,0,0,0,0,0,0,0,0,0,0,0,0,0,0
401408453,0,197183097,35211267,91549299,77464790,0,0,0,0,0,0,0,0,0,0,0,0,0,0,0
401408450,0,197183102,35211268,91549293,77464787,0,0,0,0,0,0,0,0,0,0,0,0,0,0,0
401408453,0,197183097,35211267,91549299,77464790,0,0,0,0,0,0,0,0,0,0,0,0,0,0,0
401408447,0,197183099,35211268,91549293,77464787,0,0,0,0,0,0,0,0,0,0,0,0,0,0,0
401408453,0,197183097,35211267,91549298,77464791,0,0,0,0,0,0,0,0,0,0,0,0,0,0,0
401408449,0,197183100,35211268,91549294,77464787,0,0,0,0,0,0,0,0,0,0,0,0,0,0,0
401408452,0,197183098,35211267,91549297,77464790,0,0,0,0,0,0,0,0,0,0,0,0,0,0,0
401408448,0,197183098,35211268,91549294,77464788,0,0,0,0,0,0,0,0,0,0,0,0,0,0,0
401408454,0,197183100,35211268,91549297,77464789,0,0,0,0,0,0,0,0,0,0,0,0,0,0,0
401408447,0,197183096,35211267,91549296,77464788,0,0,0,0,0,0,0,0,0,0,0,0,0,0,0
401408456,0,197183100,35211269,91549295,77464792,0,0,0,0,0,0,0,0,0,0,0,0,0,0,0
401408446,0,197183099,35211266,91549296,77464785,0,0,0,0,0,0,0,0,0,0,0,0,0,0,0
401408455,0,197183098,35211270,91549295,77464792,0,0,0,0,0,0,0,0,0,0,0,0,0,0,0
401408447,0,197183101,35211265,91549296,77464785,0,0,0,0,0,0,0,0,0,0,0,0,0,0,0
401408453,0,197183095,35211270,91549296,77464792,0,0,0,0,0,0,0,0,0,0,0,0,0,0,0
401408449,0,197183101,35211266,91549296,77464786,0,0,0,0,0,0,0,0,0,0,0,0,0,0,0
401408453,0,197183097,35211269,91549296,77464791,0,0,0,0,0,0,0,0,0,0,0,0,0,0,0
401408449,0,197183101,35211266,91549295,77464787,0,0,0,0,0,0,0,0,0,0,0,0,0,0,0
401408452,0,197183097,35211269,91549296,77464790,0,0,0,0,0,0,0,0,0,0,0,0,0,0,0
401408449,0,197183099,35211266,91549295,77464789,0,0,0,0,0,0,0,0,0,0,0,0,0,0,0
401408452,0,197183099,35211269,91549296,77464788,0,0,0,0,0,0,0,0,0,0,0,0,0,0,0
401408450,0,197183097,35211266,91549297,77464790,0,0,0,0,0,0,0,0,0,0,0,0,0,0,0
401408450,0,197183100,35211269,91549294,77464787,0,0,0,0,0,0,0,0,0,0,0,0,0,0,0
401408452,0,197183097,35211266,91549299,77464790,0,0,0,0,0,0,0,0,0,0,0,0,0,0,0
401408450,0,197183101,35211269,91549293,77464787,0,0,0,0,0,0,0,0,0,0,0,0,0,0,0
401408453,0,197183097,35211267,91549299,77464790,0,0,0,0,0,0,0,0,0,0,0,0,0,0,0
401408448,0,197183100,35211268,91549293,77464787,0,0,0,0,0,0,0,0,0,0,0,0,0,0,0
401408453,0,197183097,35211267,91549298,77464791,0,0,0,0,0,0,0,0,0,0,0,0,0,0,0
401408448,0,197183099,35211268,91549294,77464787,0,0,0,0,0,0,0,0,0,0,0,0,0,0,0
401408452,0,197183098,35211267,91549297,77464790,0,0,0,0,0,0,0,0,0,0,0,0,0,0,0
401408449,0,197183099,35211268,91549294,77464788,0,0,0,0,0,0,0,0,0,0,0,0,0,0,0
401408453,0,197183100,35211267,91549297,77464789,0,0,0,0,0,0,0,0,0,0,0,0,0,0,0
401408447,0,197183096,35211268,91549295,77464788,0,0,0,0,0,0,0,0,0,0,0,0,0,0,0
401408455,0,197183100,35211269,91549296,77464790,0,0,0,0,0,0,0,0,0,0,0,0,0,0,0
401408447,0,197183098,35211266,91549296,77464787,0,0,0,0,0,0,0,0,0,0,0,0,0,0,0
401408455,0,197183098,35211270,91549295,77464792,0,0,0,0,0,0,0,0,0,0,0,0,0,0,0
401408447,0,197183101,35211265,91549296,77464785,0,0,0,0,0,0,0,0,0,0,0,0,0,0,0
401408454,0,197183096,35211270,91549296,77464792,0,0,0,0,0,0,0,0,0,0,0,0,0,0,0
401408448,0,197183101,35211266,91549295,77464786,0,0,0,0,0,0,0,0,0,0,0,0,0,0,0
401408454,0,197183097,35211269,91549297,77464791,0,0,0,0,0,0,0,0,0,0,0,0,0,0,0
401408447,0,197183100,35211266,91549295,77464786,0,0,0,0,0,0,0,0,0,0,0,0,0,0,0
401408453,0,197183097,35211269,91549296,77464791,0,0,0,0,0,0,0,0,0,0,0,0,0,0,0
401408449,0,197183100,35211266,91549295,77464788,0,0,0,0,0,0,0,0,0,0,0,0,0,0,0
401408452,0,197183098,35211269,91549296,77464789,0,0,0,0,0,0,0,0,0,0,0,0,0,0,0
401408449,0,197183098,35211266,91549296,77464789,0,0,0,0,0,0,0,0,0,0,0,0,0,0,0
401408452,0,197183100,35211269,91549295,77464788,0,0,0,0,0,0,0,0,0,0,0,0,0,0,0
401408451,0,197183096,35211266,91549299,77464790,0,0,0,0,0,0,0,0,0,0,0,0,0,0,0
401408449,0,197183100,35211269,91549293,77464787,0,0,0,0,0,0,0,0,0,0,0,0,0,0,0
401408453,0,197183098,35211267,91549298,77464790,0,0,0,0,0,0,0,0,0,0,0,0,0,0,0
401408450,0,197183101,35211268,91549294,77464787,0,0,0,0,0,0,0,0,0,0,0,0,0,0,0
401408452,0,197183097,35211267,91549298,77464790,0,0,0,0,0,0,0,0,0,0,0,0,0,0,0
401408447,0,197183099,35211268,91549293,77464787,0,0,0,0,0,0,0,0,0,0,0,0,0,0,0
401408453,0,197183097,35211267,91549298,77464791,0,0,0,0,0,0,0,0,0,0,0,0,0,0,0
401408450,0,197183100,35211268,91549294,77464788,0,0,0,0,0,0,0,0,0,0,0,0,0,0,0
401408452,0,197183099,35211267,91549297,77464789,0,0,0,0,0,0,0,0,0,0,0,0,0,0,0
401408448,0,197183097,35211268,91549295,77464788,0,0,0,0,0,0,0,0,0,0,0,0,0,0,0
401408454,0,197183100,35211268,91549296,77464790,0,0,0,0,0,0,0,0,0,0,0,0,0,0,0
401408446,0,197183096,35211267,91549296,77464787,0,0,0,0,0,0,0,0,0,0,0,0,0,0,0
401408457,0,197183100,35211270,91549295,77464792,0,0,0,0,0,0,0,0,0,0,0,0,0,0,0
401408446,0,197183100,35211265,91549296,77464785,0,0,0,0,0,0,0,0,0,0,0,0,0,0,0
401408454,0,197183097,35211270,91549295,77464792,0,0,0,0,0,0,0,0,0,0,0,0,0,0,0
401408448,0,197183101,35211266,91549296,77464785,0,0,0,0,0,0,0,0,0,0,0,0,0,0,0
401408454,0,197183097,35211269,91549296,77464792,0,0,0,0,0,0,0,0,0,0,0,0,0,0,0
401408448,0,197183100,35211266,91549296,77464786,0,0,0,0,0,0,0,0,0,0,0,0,0,0,0
401408452,0,197183096,35211269,91549296,77464791,0,0,0,0,0,0,0,0,0,0,0,0,0,0,0
401408449,0,197183101,35211266,91549295,77464787,0,0,0,0,0,0,0,0,0,0,0,0,0,0,0
401408452,0,197183097,35211269,91549296,77464790,0,0,0,0,0,0,0,0,0,0,0,0,0,0,0
401408450,0,197183099,35211266,91549296,77464789,0,0,0,0,0,0,0,0,0,0,0,0,0,0,0
401408452,0,197183100,35211269,91549295,77464788,0,0,0,0,0,0,0,0,0,0,0,0,0,0,0
401408450,0,197183096,35211266,91549298,77464790,0,0,0,0,0,0,0,0,0,0,0,0,0,0,0
401408449,0,197183100,35211269,91549293,77464787,0,0,0,0,0,0,0,0,0,0,0,0,0,0,0
401408453,0,197183097,35211267,91549299,77464790,0,0,0,0,0,0,0,0,0,0,0,0,0,0,0
401408450,0,197183102,35211268,91549293,77464787,0,0,0,0,0,0,0,0,0,0,0,0,0,0,0
401408453,0,197183097,35211267,91549299,77464790,0,0,0,0,0,0,0,0,0,0,0,0,0,0,0
401408447,0,197183099,35211268,91549293,77464787,0,0,0,0,0,0,0,0,0,0,0,0,0,0,0
401408453,0,197183097,35211267,91549298,77464791,0,0,0,0,0,0,0,0,0,0,0,0,0,0,0
401408449,0,197183100,35211268,91549294,77464787,0,0,0,0,0,0,0,0,0,0,0,0,0,0,0
401408452,0,197183098,35211267,91549297,77464790,0,0,0,0,0,0,0,0,0,0,0,0,0,0,0
401408448,0,197183098,35211268,91549294,77464788,0,0,0,0,0,0,0,0,0,0,0,0,0,0,0
401408454,0,197183100,35211268,91549297,77464789,0,0,0,0,0,0,0,0,0,0,0,0,0,0,0
401408447,0,197183096,35211267,91549296,77464788,0,0,0,0,0,0,0,0,0,0,0,0,0,0,0
401408456,0,197183100,35211269,91549295,77464792,0,0,0,0,0,0,0,0,0,0,0,0,0,0,0
401408446,0,197183099,35211266,91549296,77464785,0,0,0,0,0,0,0,0,0,0,0,0,0,0,0
401408455,0,197183098,35211270,91549295,77464792,0,0,0,0,0,0,0,0,0,0,0,0,0,0,0
401408447,0,197183101,35211265,91549296,77464785,0,0,0,0,0,0,0,0,0,0,0,0,0,0,0
401408453,0,197183095,35211270,91549296,77464792,0,0,0,0,0,0,0,0,0,0,0,0,0,0,0
401408449,0,197183101,35211266,91549296,77464786,0,0,0,0,0,0,0,0,0,0,0,0,0,0,0
401408453,0,197183097,35211269,91549296,77464791,0,0,0,0,0,0,0,0,0,0,0,0,0,0,0
401408449,0,197183101,35211266,91549295,77464787,0,0,0,0,0,0,0,0,0,0,0,0,0,0,0
401408452,0,197183097,35211269,91549296,77464790,0,0,0,0,0,0,0,0,0,0,0,0,0,0,0
401408449,0,197183099,35211266,91549295,77464789,0,0,0,0,0,0,0,0,0,0,0,0,0,0,0
401408452,0,197183099,35211269,91549296,77464788,0,0,0,0,0,0,0,0,0,0,0,0,0,0,0
401408450,0,197183097,35211266,91549297,77464790,0,0,0,0,0,0,0,0,0,0,0,0,0,0,0
401408450,0,197183100,35211269,91549294,77464787,0,0,0,0,0,0,0,0,0,0,0,0,0,0,0
401408452,0,197183097,35211266,91549299,77464790,0,0,0,0,0,0,0,0,0,0,0,0,0,0,0
401408450,0,197183101,35211269,91549293,77464787,0,0,0,0,0,0,0,0,0,0,0,0,0,0,0
401408453,0,197183097,35211267,91549299,77464790,0,0,0,0,0,0,0,0,0,0,0,0,0,0,0
401408448,0,197183100,35211268,91549293,77464787,0,0,0,0,0,0,0,0,0,0,0,0,0,0,0
401408453,0,197183097,35211267,91549298,77464791,0,0,0,0,0,0,0,0,0,0,0,0,0,0,0
401408448,0,197183099,35211268,91549294,77464787,0,0,0,0,0,0,0,0,0,0,0,0,0,0,0
401408452,0,197183098,35211267,91549297,77464790,0,0,0,0,0,0,0,0,0,0,0,0,0,0,0
401408449,0,197183099,35211268,91549294,77464788,0,0,0,0,0,0,0,0,0,0,0,0,0,0,0
401408453,0,197183100,35211267,91549297,77464789,0,0,0,0,0,0,0,0,0,0,0,0,0,0,0
401408447,0,197183096,35211268,91549295,77464788,0,0,0,0,0,0,0,0,0,0,0,0,0,0,0
401408455,0,197183100,35211269,91549296,77464790,0,0,0,0,0,0,0,0,0,0,0,0,0,0,0
401408447,0,197183098,35211266,91549296,77464787,0,0,0,0,0,0,0,0,0,0,0,0,0,0,0
401408455,0,197183098,35211270,91549295,77464792,0,0,0,0,0,0,0,0,0,0,0,0,0,0,0
401408447,0,197183101,35211265,91549296,77464785,0,0,0,0,0,0,0,0,0,0,0,0,0,0,0
401408454,0,197183096,35211270,91549296,77464792,0,0,0,0,0,0,0,0,0,0,0,0,0,0,0
401408448,0,197183101,35211266,91549295,77464786,0,0,0,0,0,0,0,0,0,0,0,0,0,0,0
401408454,0,197183097,35211269,91549297,77464791,0,0,0,0,0,0,0,0,0,0,0,0,0,0,0
401408447,0,197183100,35211266,91549295,77464786,0,0,0,0,0,0,0,0,0,0,0,0,0,0,0
401408453,0,197183097,35211269,91549296,77464791,0,0,0,0,0,0,0,0,0,0,0,0,0,0,0
401408449,0,197183100,35211266,91549295,77464788,0,0,0,0,0,0,0,0,0,0,0,0,0,0,0
401408452,0,197183098,35211269,91549296,77464789,0,0,0,0,0,0,0,0,0,0,0,0,0,0,0
401408449,0,197183098,35211266,91549296,77464789,0,0,0,0,0,0,0,0,0,0,0,0,0,0,0
401408452,0,197183100,35211269,91549295,77464788,0,0,0,0,0,0,0,0,0,0,0,0,0,0,0
401408451,0,197183096,35211266,91549299,77464790,0,0,0,0,0,0,0,0,0,0,0,0,0,0,0
401408449,0,197183100,35211269,91549293,77464787,0,0,0,0,0,0,0,0,0,0,0,0,0,0,0
401408453,0,197183098,35211267,91549298,77464790,0,0,0,0,0,0,0,0,0,0,0,0,0,0,0
401408450,0,197183101,35211268,91549294,77464787,0,0,0,0,0,0,0,0,0,0,0,0,0,0,0
401408452,0,197183097,35211267,91549298,77464790,0,0,0,0,0,0,0,0,0,0,0,0,0,0,0
401408447,0,197183099,35211268,91549293,77464787,0,0,0,0,0,0,0,0,0,0,0,0,0,0,0
401408453,0,197183097,35211267,91549298,77464791,0,0,0,0,0,0,0,0,0,0,0,0,0,0,0
401408450,0,197183100,35211268,91549294,77464788,0,0,0,0,0,0,0,0,0,0,0,0,0,0,0
401408452,0,197183099,35211267,91549297,77464789,0,0,0,0,0,0,0,0,0,0,0,0,0,0,0
401408448,0,197183097,35211268,91549295,77464788,0,0,0,0,0,0,0,0,0,0,0,0,0,0,0
401408454,0,197183100,35211268,91549296,77464790,0,0,0,0,0,0,0,0,0,0,0,0,0,0,0
401408446,0,197183096,35211267,91549296,77464787,0,0,0,0,0,0,0,0,0,0,0,0,0,0,0
401408457,0,197183100,35211270,91549295,77464792,0,0,0,0,0,0,0,0,0,0,0,0,0,0,0
401408446,0,197183100,35211265,91549296,77464785,0,0,0,0,0,0,0,0,0,0,0,0,0,0,0
401408454,0,197183097,35211270,91549295,77464792,0,0,0,0,0,0,0,0,0,0,0,0,0,0,0
401408448,0,197183101,35211266,91549296,77464785,0,0,0,0,0,0,0,0,0,0,0,0,0,0,0
401408454,0,197183097,35211269,91549296,77464792,0,0,0,0,0,0,0,0,0,0,0,0,0,0,0
401408448,0,197183100,35211266,91549296,77464786,0,0,0,0,0,0,0,0,0,0,0,0,0,0,0
401408452,0,197183096,35211269,91549296,77464791,0,0,0,0,0,0,0,0,0,0,0,0,0,0,0
401408449,0,197183101,35211266,91549295,77464787,0,0,0,0,0,0,0,0,0,0,0,0,0,0,0
401408452,0,197183097,35211269,91549296,77464790,0,0,0,0,0,0,0,0,0,0,0,0,0,0,0
401408450,0,197183099,35211266,91549296,77464789,0,0,0,0,0,0,0,0,0,0,0,0,0,0,0
401408452,0,197183100,35211269,91549295,77464788,0,0,0,0,0,0,0,0,0,0,0,0,0,0,0
401408450,0,197183096,35211266,91549298,77464790,0,0,0,0,0,0,0,0,0,0,0,0,0,0,0
401408449,0,197183100,35211269,91549293,77464787,0,0,0,0,0,0,0,0,0,0,0,0,0,0,0
401408453,0,197183097,35211267,91549299,77464790,0,0,0,0,0,0,0,0,0,0,0,0,0,0,0
401408450,0,197183102,35211268,91549293,77464787,0,0,0,0,0,0,0,0,0,0,0,0,0,0,0
401408453,0,197183097,35211267,91549299,77464790,0,0,0,0,0,0,0,0,0,0,0,0,0,0,0
401408447,0,197183099,35211268,91549293,77464787,0,0,0,0,0,0,0,0,0,0,0,0,0,0,0
401408453,0,197183097,35211267,91549298,77464791,0,0,0,0,0,0,0,0,0,0,0,0,0,0,0
401408449,0,197183100,35211268,91549294,77464787,0,0,0,0,0,0,0,0,0,0,0,0,0,0,0
401408452,0,197183098,35211267,91549297,77464790,0,0,0,0,0,0,0,0,0,0,0,0,0,0,0
401408448,0,197183098,35211268,91549294,77464788,0,0,0,0,0,0,0,0,0,0,0,0,0,0,0
401408454,0,197183100,35211268,91549297,77464789,0,0,0,0,0,0,0,0,0,0,0,0,0,0,0
401408447,0,197183096,35211267,91549296,77464788,0,0,0,0,0,0,0,0,0,0,0,0,0,0,0
401408456,0,197183100,35211269,91549295,77464792,0,0,0,0,0,0,0,0,0,0,0,0,0,0,0
401408446,0,197183099,35211266,91549296,77464785,0,0,0,0,0,0,0,0,0,0,0,0,0,0,0
401408455,0,197183098,35211270,91549295,77464792,0,0,0,0,0,0,0,0,0,0,0,0,0,0,0
401408447,0,197183101,35211265,91549296,77464785,0,0,0,0,0,0,0,0,0,0,0,0,0,0,0
401408453,0,197183095,35211270,91549296,77464792,0,0,0,0,0,0,0,0,0,0,0,0,0,0,0
401408449,0,197183101,35211266,91549296,77464786,0,0,0,0,0,0,0,0,0,0,0,0,0,0,0
401408453,0,197183097,35211269,91549296,77464791,0,0,0,0,0,0,0,0,0,0,0,0,0,0,0
401408449,0,197183101,35211266,91549295,77464787,0,0,0,0,0,0,0,0,0,0,0,0,0,0,0
401408452,0,197183097,35211269,91549296,77464790,0,0,0,0,0,0,0,0,0,0,0,0,0,0,0
401408449,0,197183099,35211266,91549295,77464789,0,0,0,0,0,0,0,0,0,0,0,0,0,0,0
401408452,0,197183099,35211269,91549296,77464788,0,0,0,0,0,0,0,0,0,0,0,0,0,0,0
401408450,0,197183097,35211266,91549297,77464790,0,0,0,0,0,0,0,0,0,0,0,0,0,0,0
401408450,0,197183100,35211269,91549294,77464787,0,0,0,0,0,0,0,0,0,0,0,0,0,0,0
401408452,0,197183097,35211266,91549299,77464790,0,0,0,0,0,0,0,0,0,0,0,0,0,0,0
401408450,0,197183101,35211269,91549293,77464787,0,0,0,0,0,0,0,0,0,0,0,0,0,0,0
401408453,0,197183097,35211267,91549299,77464790,0,0,0,0,0,0,0,0,0,0,0,0,0,0,0
401408448,0,197183100,35211268,91549293,77464787,0,0,0,0,0,0,0,0,0,0,0,0,0,0,0
401408453,0,197183097,35211267,91549298,77464791,0,0,0,0,0,0,0,0,0,0,0,0,0,0,0
401408448,0,197183099,35211268,91549294,77464787,0,0,0,0,0,0,0,0,0,0,0,0,0,0,0
401408452,0,197183098,35211267,91549297,77464790,0,0,0,0,0,0,0,0,0,0,0,0,0,0,0
401408449,0,197183099,35211268,91549294,77464788,0,0,0,0,0,0,0,0,0,0,0,0,0,0,0
401408453,0,197183100,35211267,91549297,77464789,0,0,0,0,0,0,0,0,0,0,0,0,0,0,0
401408447,0,197183096,35211268,91549295,77464788,0,0,0,0,0,0,0,0,0,0,0,0,0,0,0
401408455,0,197183100,35211269,91549296,77464790,0,0,0,0,0,0,0,0,0,0,0,0,0,0,0
401408447,0,197183098,35211266,91549296,77464787,0,0,0,0,0,0,0,0,0,0,0,0,0,0,0
401408455,0,197183098,35211270,91549295,77464792,0,0,0,0,0,0,0,0,0,0,0,0,0,0,0
401408447,0,197183101,35211265,91549296,77464785,0,0,0,0,0,0,0,0,0,0,0,0,0,0,0
401408454,0,197183096,35211270,91549296,77464792,0,0,0,0,0,0,0,0,0,0,0,0,0,0,0
401408448,0,197183101,35211266,91549295,77464786,0,0,0,0,0,0,0,0,0,0,0,0,0,0,0
401408454,0,197183097,35211269,91549297,77464791,0,0,0,0,0,0,0,0,0,0,0,0,0,0,0
401408447,0,197183100,35211266,91549295,77464786,0,0,0,0,0,0,0,0,0,0,0,0,0,0,0
401408453,0,197183097,35211269,91549296,77464791,0,0,0,0,0,0,0,0,0,0,0,0,0,0,0
401408449,0,197183100,35211266,91549295,77464788,0,0,0,0,0,0,0,0,0,0,0,0,0,0,0
401408452,0,197183098,35211269,91549296,77464789,0,0,0,0,0,0,0,0,0,0,0,0,0,0,0
401408449,0,197183098,35211266,91549296,77464789,0,0,0,0,0,0,0,0,0,0,0,0,0,0,0
401408452,0,197183100,35211269,91549295,77464788,0,0,0,0,0,0,0,0,0,0,0,0,0,0,0
401408451,0,197183096,35211266,91549299,77464790,0,0,0,0,0,0,0,0,0,0,0,0,0,0,0
401408449,0,197183100,35211269,91549293,77464787,0,0,0,0,0,0,0,0,0,0,0,0,0,0,0
401408453,0,197183098,35211267,91549298,77464790,0,0,0,0,0,0,0,0,0,0,0,0,0,0,0
401408450,0,197183101,35211268,91549294,77464787,0,0,0,0,0,0,0,0,0,0,0,0,0,0,0
401408452,0,197183097,35211267,91549298,77464790,0,0,0,0,0,0,0,0,0,0,0,0,0,0,0
401408447,0,197183099,35211268,91549293,77464787,0,0,0,0,0,0,0,0,0,0,0,0,0,0,0
401408453,0,197183097,35211267,91549298,77464791,0,0,0,0,0,0,0,0,0,0,0,0,0,0,0
401408450,0,197183100,35211268,91549294,77464788,0,0,0,0,0,0,0,0,0,0,0,0,0,0,0
401408452,0,197183099,35211267,91549297,77464789,0,0,0,0,0,0,0,0,0,0,0,0,0,0,0
401408448,0,197183097,35211268,91549295,77464788,0,0,0,0,0,0,0,0,0,0,0,0,0,0,0
401408454,0,197183100,35211268,91549296,77464790,0,0,0,0,0,0,0,0,0,0,0,0,0,0,0
401408446,0,197183096,35211267,91549296,77464787,0,0,0,0,0,0,0,0,0,0,0,0,0,0,0
401408457,0,197183100,35211270,91549295,77464792,0,0,0,0,0,0,0,0,0,0,0,0,0,0,0
401408446,0,197183100,35211265,91549296,77464785,0,0,0,0,0,0,0,0,0,0,0,0,0,0,0
401408454,0,197183097,35211270,91549295,77464792,0,0,0,0,0,0,0,0,0,0,0,0,0,0,0
401408448,0,197183101,35211266,91549296,77464785,0,0,0,0,0,0,0,0,0,0,0,0,0,0,0
401408454,0,197183097,35211269,91549296,77464792,0,0,0,0,0,0,0,0,0,0,0,0,0,0,0
401408448,0,197183100,35211266,91549296,77464786,0,0,0,0,0,0,0,0,0,0,0,0,0,0,0
401408452,0,197183096,35211269,91549296,77464791,0,0,0,0,0,0,0,0,0,0,0,0,0,0,0
401408449,0,197183101,35211266,91549295,77464787,0,0,0,0,0,0,0,0,0,0,0,0,0,0,0
401408452,0,197183097,35211269,91549296,77464790,0,0,0,0,0,0,0,0,0,0,0,0,0,0,0
401408450,0,197183099,35211266,91549296,77464789,0,0,0,0,0,0,0,0,0,0,0,0,0,0,0
401408452,0,197183100,35211269,91549295,77464788,0,0,0,0,0,0,0,0,0,0,0,0,0,0,0
401408450,0,197183096,35211266,91549298,77464790,0,0,0,0,0,0,0,0,0,0,0,0,0,0,0
401408449,0,197183100,35211269,91549293,77464787,0,0,0,0,0,0,0,0,0,0,0,0,0,0,0
401408453,0,197183097,35211267,91549299,77464790,0,0,0,0,0,0,0,0,0,0,0,0,0,0,0
401408450,0,197183102,35211268,91549293,77464787,0,0,0,0,0,0,0,0,0,0,0,0,0,0,0
401408453,0,197183097,35211267,91549299,77464790,0,0,0,0,0,0,0,0,0,0,0,0,0,0,0
401408447,0,197183099,35211268,91549293,77464787,0,0,0,0,0,0,0,0,0,0,0,0,0,0,0
401408453,0,197183097,35211267,91549298,77464791,0,0,0,0,0,0,0,0,0,0,0,0,0,0,0
401408449,0,197183100,35211268,91549294,77464787,0,0,0,0,0,0,0,0,0,0,0,0,0,0,0
401408452,0,197183098,35211267,91549297,77464790,0,0,0,0,0,0,0,0,0,0,0,0,0,0,0
401408448,0,197183098,35211268,91549294,77464788,0,0,0,0,0,0,0,0,0,0,0,0,0,0,0
401408454,0,197183100,35211268,91549297,77464789,0,0,0,0,0,0,0,0,0,0,0,0,0,0,0
401408447,0,197183096,35211267,91549296,77464788,0,0,0,0,0,0,0,0,0,0,0,0,0,0,0
401408456,0,197183100,35211269,91549295,77464792,0,0,0,0,0,0,0,0,0,0,0,0,0,0,0
401408446,0,197183099,35211266,91549296,77464785,0,0,0,0,0,0,0,0,0,0,0,0,0,0,0
401408455,0,197183098,35211270,91549295,77464792,0,0,0,0,0,0,0,0,0,0,0,0,0,0,0
401408447,0,197183101,35211265,91549296,77464785,0,0,0,0,0,0,0,0,0,0,0,0,0,0,0
401408453,0,197183095,35211270,91549296,77464792,0,0,0,0,0,0,0,0,0,0,0,0,0,0,0
401408449,0,197183101,35211266,91549296,77464786,0,0,0,0,0,0,0,0,0,0,0,0,0,0,0
401408453,0,197183097,35211269,91549296,77464791,0,0,0,0,0,0,0,0,0,0,0,0,0,0,0
401408449,0,197183101,35211266,91549295,77464787,0,0,0,0,0,0,0,0,0,0,0,0,0,0,0
401408452,0,197183097,35211269,91549296,77464790,0,0,0,0,0,0,0,0,0,0,0,0,0,0,0
401408449,0,197183099,35211266,91549295,77464789,0,0,0,0,0,0,0,0,0,0,0,0,0,0,0
401408452,0,197183099,35211269,91549296,77464788,0,0,0,0,0,0,0,0,0,0,0,0,0,0,0
401408450,0,197183097,35211266,91549297,77464790,0,0,0,0,0,0,0,0,0,0,0,0,0,0,0
401408450,0,197183100,35211269,91549294,77464787,0,0,0,0,0,0,0,0,0,0,0,0,0,0,0
401408452,0,197183097,35211266,91549299,77464790,0,0,0,0,0,0,0,0,0,0,0,0,0,0,0
401408450,0,197183101,35211269,91549293,77464787,0,0,0,0,0,0,0,0,0,0,0,0,0,0,0
401408453,0,197183097,35211267,91549299,77464790,0,0,0,0,0,0,0,0,0,0,0,0,0,0,0
401408448,0,197183100,35211268,91549293,77464787,0,0,0,0,0,0,0,0,0,0,0,0,0,0,0
401408453,0,197183097,35211267,91549298,77464791,0,0,0,0,0,0,0,0,0,0,0,0,0,0,0
401408448,0,197183099,35211268,91549294,77464787,0,0,0,0,0,0,0,0,0,0,0,0,0,0,0
401408452,0,197183098,35211267,91549297,77464790,0,0,0,0,0,0,0,0,0,0,0,0,0,0,0
401408449,0,197183099,35211268,91549294,77464788,0,0,0,0,0,0,0,0,0,0,0,0,0,0,0
401408453,0,197183100,35211267,91549297,77464789,0,0,0,0,0,0,0,0,0,0,0,0,0,0,0
401408447,0,197183096,35211268,91549295,77464788,0,0,0,0,0,0,0,0,0,0,0,0,0,0,0
401408455,0,197183100,35211269,91549296,77464790,0,0,0,0,0,0,0,0,0,0,0,0,0,0,0
401408447,0,197183098,35211266,91549296,77464787,0,0,0,0,0,0,0,0,0,0,0,0,0,0,0
401408455,0,197183098,35211270,91549295,77464792,0,0,0,0,0,0,0,0,0,0,0,0,0,0,0
401408447,0,197183101,35211265,91549296,77464785,0,0,0,0,0,0,0,0,0,0,0,0,0,0,0
401408454,0,197183096,35211270,91549296,77464792,0,0,0,0,0,0,0,0,0,0,0,0,0,0,0
401408448,0,197183101,35211266,91549295,77464786,0,0,0,0,0,0,0,0,0,0,0,0,0,0,0
401408454,0,197183097,35211269,91549297,77464791,0,0,0,0,0,0,0,0,0,0,0,0,0,0,0
401408447,0,197183100,35211266,91549295,77464786,0,0,0,0,0,0,0,0,0,0,0,0,0,0,0
401408453,0,197183097,35211269,91549296,77464791,0,0,0,0,0,0,0,0,0,0,0,0,0,0,0
401408449,0,197183100,35211266,91549295,77464788,0,0,0,0,0,0,0,0,0,0,0,0,0,0,0
401408452,0,197183098,35211269,91549296,77464789,0,0,0,0,0,0,0,0,0,0,0,0,0,0,0
401408449,0,197183098,35211266,91549296,77464789,0,0,0,0,0,0,0,0,0,0,0,0,0,0,0
401408452,0,197183100,35211269,91549295,77464788,0,0,0,0,0,0,0,0,0,0,0,0,0,0,0
401408451,0,197183096,35211266,91549299,77464790,0,0,0,0,0,0,0,0,0,0,0,0,0,0,0
401408449,0,197183100,35211269,91549293,77464787,0,0,0,0,0,0,0,0,0,0,0,0,0,0,0
401408453,0,197183098,35211267,91549298,77464790,0,0,0,0,0,0,0,0,0,0,0,0,0,0,0
401408450,0,197183101,35211268,91549294,77464787,0,0,0,0,0,0,0,0,0,0,0,0,0,0,0
401408452,0,197183097,35211267,91549298,77464790,0,0,0,0,0,0,0,0,0,0,0,0,0,0,0
401408447,0,197183099,35211268,91549293,77464787,0,0,0,0,0,0,0,0,0,0,0,0,0,0,0
401408453,0,197183097,35211267,91549298,77464791,0,0,0,0,0,0,0,0,0,0,0,0,0,0,0
401408450,0,197183100,35211268,91549294,77464788,0,0,0,0,0,0,0,0,0,0,0,0,0,0,0
401408452,0,197183099,35211267,91549297,77464789,0,0,0,0,0,0,0,0,0,0,0,0,0,0,0
401408448,0,197183097,35211268,91549295,77464788,0,0,0,0,0,0,0,0,0,0,0,0,0,0,0
401408454,0,197183100,35211268,91549296,77464790,0,0,0,0,0,0,0,0,0,0,0,0,0,0,0
401408446,0,197183096,35211267,91549296,77464787,0,0,0,0,0,0,0,0,0,0,0,0,0,0,0
401408457,0,197183100,35211270,91549295,77464792,0,0,0,0,0,0,0,0,0,0,0,0,0,0,0
401408446,0,197183100,35211265,91549296,77464785,0,0,0,0,0,0,0,0,0,0,0,0,0,0,0
401408454,0,197183097,35211270,91549295,77464792,0,0,0,0,0,0,0,0,0,0,0,0,0,0,0
401408448,0,197183101,35211266,91549296,77464785,0,0,0,0,0,0,0,0,0,0,0,0,0,0,0
401408454,0,197183097,35211269,91549296,77464792,0,0,0,0,0,0,0,0,0,0,0,0,0,0,0
401408448,0,197183100,35211266,91549296,77464786,0,0,0,0,0,0,0,0,0,0,0,0,0,0,0
401408452,0,197183096,35211269,91549296,77464791,0,0,0,0,0,0,0,0,0,0,0,0,0,0,0
401408449,0,197183101,35211266,91549295,77464787,0,0,0,0,0,0,0,0,0,0,0,0,0,0,0
401408452,0,197183097,35211269,91549296,77464790,0,0,0,0,0,0,0,0,0,0,0,0,0,0,0
401408450,0,197183099,35211266,91549296,77464789,0,0,0,0,0,0,0,0,0,0,0,0,0,0,0
401408452,0,197183100,35211269,91549295,77464788,0,0,0,0,0,0,0,0,0,0,0,0,0,0,0
401408450,0,197183096,35211266,91549298,77464790,0,0,0,0,0,0,0,0,0,0,0,0,0,0,0
401408449,0,197183100,35211269,91549293,77464787,0,0,0,0,0,0,0,0,0,0,0,0,0,0,0
401408453,0,197183097,35211267,91549299,77464790,0,0,0,0,0,0,0,0,0,0,0,0,0,0,0
401408450,0,197183102,35211268,91549293,77464787,0,0,0,0,0,0,0,0,0,0,0,0,0,0,0
401408453,0,197183097,35211267,91549299,77464790,0,0,0,0,0,0,0,0,0,0,0,0,0,0,0
401408447,0,197183099,35211268,91549293,77464787,0,0,0,0,0,0,0,0,0,0,0,0,0,0,0
401408453,0,197183097,35211267,91549298,77464791,0,0,0,0,0,0,0,0,0,0,0,0,0,0,0
401408449,0,197183100,35211268,91549294,77464787,0,0,0,0,0,0,0,0,0,0,0,0,0,0,0
401408452,0,197183098,35211267,91549297,77464790,0,0,0,0,0,0,0,0,0,0,0,0,0,0,0
401408448,0,197183098,35211268,91549294,77464788,0,0,0,0,0,0,0,0,0,0,0,0,0,0,0
401408454,0,197183100,35211268,91549297,77464789,0,0,0,0,0,0,0,0,0,0,0,0,0,0,0
401408447,0,197183096,35211267,91549296,77464788,0,0,0,0,0,0,0,0,0,0,0,0,0,0,0
401408456,0,197183100,35211269,91549295,77464792,0,0,0,0,0,0,0,0,0,0,0,0,0,0,0
401408446,0,197183099,35211266,91549296,77464785,0,0,0,0,0,0,0,0,0,0,0,0,0,0,0
401408455,0,197183098,35211270,91549295,77464792,0,0,0,0,0,0,0,0,0,0,0,0,0,0,0
401408447,0,197183101,35211265,91549296,77464785,0,0,0,0,0,0,0,0,0,0,0,0,0,0,0
401408453,0,197183095,35211270,91549296,77464792,0,0,0,0,0,0,0,0,0,0,0,0,0,0,0
401408449,0,197183101,35211266,91549296,77464786,0,0,0,0,0,0,0,0,0,0,0,0,0,0,0
401408453,0,197183097,35211269,91549296,77464791,0,0,0,0,0,0,0,0,0,0,0,0,0,0,0
401408449,0,197183101,35211266,91549295,77464787,0,0,0,0,0,0,0,0,0,0,0,0,0,0,0
401408452,0,197183097,35211269,91549296,77464790,0,0,0,0,0,0,0,0,0,0,0,0,0,0,0
401408449,0,197183099,35211266,91549295,77464789,0,0,0,0,0,0,0,0,0,0,0,0,0,0,0
401408452,0,197183099,35211269,91549296,77464788,0,0,0,0,0,0,0,0,0,0,0,0,0,0,0
401408450,0,197183097,35211266,91549297,77464790,0,0,0,0,0,0,0,0,0,0,0,0,0,0,0
401408450,0,197183100,35211269,91549294,77464787,0,0,0,0,0,0,0,0,0,0,0,0,0,0,0
401408452,0,197183097,35211266,91549299,77464790,0,0,0,0,0,0,0,0,0,0,0,0,0,0,0
401408450,0,197183101,35211269,91549293,77464787,0,0,0,0,0,0,0,0,0,0,0,0,0,0,0
401408453,0,197183097,35211267,91549299,77464790,0,0,0,0,0,0,0,0,0,0,0,0,0,0,0
401408448,0,197183100,35211268,91549293,77464787,0,0,0,0,0,0,0,0,0,0,0,0,0,0,0
401408453,0,197183097,35211267,91549298,77464791,0,0,0,0,0,0,0,0,0,0,0,0,0,0,0
401408448,0,197183099,35211268,91549294,77464787,0,0,0,0,0,0,0,0,0,0,0,0,0,0,0
401408452,0,197183098,35211267,91549297,77464790,0,0,0,0,0,0,0,0,0,0,0,0,0,0,0
401408449,0,197183099,35211268,91549294,77464788,0,0,0,0,0,0,0,0,0,0,0,0,0,0,0
401408453,0,197183100,35211267,91549297,77464789,0,0,0,0,0,0,0,0,0,0,0,0,0,0,0
401408447,0,197183096,35211268,91549295,77464788,0,0,0,0,0,0,0,0,0,0,0,0,0,0,0
401408455,0,197183100,35211269,91549296,77464790,0,0,0,0,0,0,0,0,0,0,0,0,0,0,0
401408447,0,197183098,35211266,91549296,77464787,0,0,0,0,0,0,0,0,0,0,0,0,0,0,0
401408455,0,197183098,35211270,91549295,77464792,0,0,0,0,0,0,0,0,0,0,0,0,0,0,0
401408447,0,197183101,35211265,91549296,77464785,0,0,0,0,0,0,0,0,0,0,0,0,0,0,0
401408454,0,197183096,35211270,91549296,77464792,0,0,0,0,0,0,0,0,0,0,0,0,0,0,0
401408448,0,197183101,35211266,91549295,77464786,0,0,0,0,0,0,0,0,0,0,0,0,0,0,0
401408454,0,197183097,35211269,91549297,77464791,0,0,0,0,0,0,0,0,0,0,0,0,0,0,0
401408447,0,197183100,35211266,91549295,77464786,0,0,0,0,0,0,0,0,0,0,0,0,0,0,0
401408453,0,197183097,35211269,91549296,77464791,0,0,0,0,0,0,0,0,0,0,0,0,0,0,0
401408449,0,197183100,35211266,91549295,77464788,0,0,0,0,0,0,0,0,0,0,0,0,0,0,0
401408452,0,197183098,35211269,91549296,77464789,0,0,0,0,0,0,0,0,0,0,0,0,0,0,0
401408449,0,197183098,35211266,91549296,77464789,0,0,0,0,0,0,0,0,0,0,0,0,0,0,0
401408452,0,197183100,35211269,91549295,77464788,0,0,0,0,0,0,0,0,0,0,0,0,0,0,0
401408451,0,197183096,35211266,91549299,77464790,0,0,0,0,0,0,0,0,0,0,0,0,0,0,0
401408449,0,197183100,35211269,91549293,77464787,0,0,0,0,0,0,0,0,0,0,0,0,0,0,0
401408453,0,197183098,35211267,91549298,77464790,0,0,0,0,0,0,0,0,0,0,0,0,0,0,0
401408450,0,197183101,35211268,91549294,77464787,0,0,0,0,0,0,0,0,0,0,0,0,0,0,0
401408452,0,197183097,35211267,91549298,77464790,0,0,0,0,0,0,0,0,0,0,0,0,0,0,0
401408447,0,197183099,35211268,91549293,77464787,0,0,0,0,0,0,0,0,0,0,0,0,0,0,0
401408453,0,197183097,35211267,91549298,77464791,0,0,0,0,0,0,0,0,0,0,0,0,0,0,0
401408450,0,197183100,35211268,91549294,77464788,0,0,0,0,0,0,0,0,0,0,0,0,0,0,0
401408452,0,197183099,35211267,91549297,77464789,0,0,0,0,0,0,0,0,0,0,0,0,0,0,0
401408448,0,197183097,35211268,91549295,77464788,0,0,0,0,0,0,0,0,0,0,0,0,0,0,0
401408454,0,197183100,35211268,91549296,77464790,0,0,0,0,0,0,0,0,0,0,0,0,0,0,0
401408446,0,197183096,35211267,91549296,77464787,0,0,0,0,0,0,0,0,0,0,0,0,0,0,0
401408457,0,197183100,35211270,91549295,77464792,0,0,0,0,0,0,0,0,0,0,0,0,0,0,0
401408446,0,197183100,35211265,91549296,77464785,0,0,0,0,0,0,0,0,0,0,0,0,0,0,0
401408454,0,197183097,35211270,91549295,77464792,0,0,0,0,0,0,0,0,0,0,0,0,0,0,0
401408448,0,197183101,35211266,91549296,77464785,0,0,0,0,0,0,0,0,0,0,0,0,0,0,0
401408454,0,197183097,35211269,91549296,77464792,0,0,0,0,0,0,0,0,0,0,0,0,0,0,0
401408448,0,197183100,35211266,91549296,77464786,0,0,0,0,0,0,0,0,0,0,0,0,0,0,0
401408452,0,197183096,35211269,91549296,77464791,0,0,0,0,0,0,0,0,0,0,0,0,0,0,0
401408449,0,197183101,35211266,91549295,77464787,0,0,0,0,0,0,0,0,0,0,0,0,0,0,0
401408452,0,197183097,35211269,91549296,77464790,0,0,0,0,0,0,0,0,0,0,0,0,0,0,0
401408450,0,197183099,35211266,91549296,77464789,0,0,0,0,0,0,0,0,0,0,0,0,0,0,0
401408452,0,197183100,35211269,91549295,77464788,0,0,0,0,0,0,0,0,0,0,0,0,0,0,0
401408450,0,197183096,35211266,91549298,77464790,0,0,0,0,0,0,0,0,0,0,0,0,0,0,0
401408449,0,197183100,35211269,91549293,77464787,0,0,0,0,0,0,0,0,0,0,0,0,0,0,0
401408453,0,197183097,35211267,91549299,77464790,0,0,0,0,0,0,0,0,0,0,0,0,0,0,0
401408450,0,197183102,35211268,91549293,77464787,0,0,0,0,0,0,0,0,0,0,0,0,0,0,0
401408453,0,197183097,35211267,91549299,77464790,0,0,0,0,0,0,0,0,0,0,0,0,0,0,0
401408447,0,197183099,35211268,91549293,77464787,0,0,0,0,0,0,0,0,0,0,0,0,0,0,0
401408453,0,197183097,35211267,91549298,77464791,0,0,0,0,0,0,0,0,0,0,0,0,0,0,0
401408449,0,197183100,35211268,91549294,77464787,0,0,0,0,0,0,0,0,0,0,0,0,0,0,0
401408452,0,197183098,35211267,91549297,77464790,0,0,0,0,0,0,0,0,0,0,0,0,0,0,0
401408448,0,197183098,35211268,91549294,77464788,0,0,0,0,0,0,0,0,0,0,0,0,0,0,0
401408454,0,197183100,35211268,91549297,77464789,0,0,0,0,0,0,0,0,0,0,0,0,0,0,0
401408447,0,197183096,35211267,91549296,77464788,0,0,0,0,0,0,0,0,0,0,0,0,0,0,0
401408456,0,197183100,35211269,91549295,77464792,0,0,0,0,0,0,0,0,0,0,0,0,0,0,0
401408446,0,197183099,35211266,91549296,77464785,0,0,0,0,0,0,0,0,0,0,0,0,0,0,0
401408455,0,197183098,35211270,91549295,77464792,0,0,0,0,0,0,0,0,0,0,0,0,0,0,0
401408447,0,197183101,35211265,91549296,77464785,0,0,0,0,0,0,0,0,0,0,0,0,0,0,0
401408453,0,197183095,35211270,91549296,77464792,0,0,0,0,0,0,0,0,0,0,0,0,0,0,0
401408449,0,197183101,35211266,91549296,77464786,0,0,0,0,0,0,0,0,0,0,0,0,0,0,0
401408453,0,197183097,35211269,91549296,77464791,0,0,0,0,0,0,0,0,0,0,0,0,0,0,0
401408449,0,197183101,35211266,91549295,77464787,0,0,0,0,0,0,0,0,0,0,0,0,0,0,0
401408452,0,197183097,35211269,91549296,77464790,0,0,0,0,0,0,0,0,0,0,0,0,0,0,0
401408449,0,197183099,35211266,91549295,77464789,0,0,0,0,0,0,0,0,0,0,0,0,0,0,0
401408452,0,197183099,35211269,91549296,77464788,0,0,0,0,0,0,0,0,0,0,0,0,0,0,0
401408450,0,197183097,35211266,91549297,77464790,0,0,0,0,0,0,0,0,0,0,0,0,0,0,0
401408450,0,197183100,35211269,91549294,77464787,0,0,0,0,0,0,0,0,0,0,0,0,0,0,0
401408452,0,197183097,35211266,91549299,77464790,0,0,0,0,0,0,0,0,0,0,0,0,0,0,0
401408450,0,197183101,35211269,91549293,77464787,0,0,0,0,0,0,0,0,0,0,0,0,0,0,0
401408453,0,197183097,35211267,91549299,77464790,0,0,0,0,0,0,0,0,0,0,0,0,0,0,0
401408448,0,197183100,35211268,91549293,77464787,0,0,0,0,0,0,0,0,0,0,0,0,0,0,0
401408453,0,197183097,35211267,91549298,77464791,0,0,0,0,0,0,0,0,0,0,0,0,0,0,0
401408448,0,197183099,35211268,91549294,77464787,0,0,0,0,0,0,0,0,0,0,0,0,0,0,0
401408452,0,197183098,35211267,91549297,77464790,0,0,0,0,0,0,0,0,0,0,0,0,0,0,0
401408449,0,197183099,35211268,91549294,77464788,0,0,0,0,0,0,0,0,0,0,0,0,0,0,0
401408453,0,197183100,35211267,91549297,77464789,0,0,0,0,0,0,0,0,0,0,0,0,0,0,0
401408447,0,197183096,35211268,91549295,77464788,0,0,0,0,0,0,0,0,0,0,0,0,0,0,0
401408455,0,197183100,35211269,91549296,77464790,0,0,0,0,0,0,0,0,0,0,0,0,0,0,0
401408447,0,197183098,35211266,91549296,77464787,0,0,0,0,0,0,0,0,0,0,0,0,0,0,0
401408455,0,197183098,35211270,91549295,77464792,0,0,0,0,0,0,0,0,0,0,0,0,0,0,0
401408447,0,197183101,35211265,91549296,77464785,0,0,0,0,0,0,0,0,0,0,0,0,0,0,0
401408454,0,197183096,35211270,91549296,77464792,0,0,0,0,0,0,0,0,0,0,0,0,0,0,0
401408448,0,197183101,35211266,91549295,77464786,0,0,0,0,0,0,0,0,0,0,0,0,0,0,0
401408454,0,197183097,35211269,91549297,77464791,0,0,0,0,0,0,0,0,0,0,0,0,0,0,0
401408447,0,197183100,35211266,91549295,77464786,0,0,0,0,0,0,0,0,0,0,0,0,0,0,0
401408453,0,197183097,35211269,91549296,77464791,0,0,0,0,0,0,0,0,0,0,0,0,0,0,0
401408449,0,197183100,35211266,91549295,77464788,0,0,0,0,0,0,0,0,0,0,0,0,0,0,0
401408452,0,197183098,35211269,91549296,77464789,0,0,0,0,0,0,0,0,0,0,0,0,0,0,0
401408449,0,197183098,35211266,91549296,77464789,0,0,0,0,0,0,0,0,0,0,0,0,0,0,0
401408452,0,197183100,35211269,91549295,77464788,0,0,0,0,0,0,0,0,0,0,0,0,0,0,0
401408451,0,197183096,35211266,91549299,77464790,0,0,0,0,0,0,0,0,0,0,0,0,0,0,0
401408449,0,197183100,35211269,91549293,77464787,0,0,0,0,0,0,0,0,0,0,0,0,0,0,0
401408453,0,197183098,35211267,91549298,77464790,0,0,0,0,0,0,0,0,0,0,0,0,0,0,0
401408450,0,197183101,35211268,91549294,77464787,0,0,0,0,0,0,0,0,0,0,0,0,0,0,0
401408452,0,197183097,35211267,91549298,77464790,0,0,0,0,0,0,0,0,0,0,0,0,0,0,0
401408447,0,197183099,35211268,91549293,77464787,0,0,0,0,0,0,0,0,0,0,0,0,0,0,0
401408453,0,197183097,35211267,91549298,77464791,0,0,0,0,0,0,0,0,0,0,0,0,0,0,0
401408450,0,197183100,35211268,91549294,77464788,0,0,0,0,0,0,0,0,0,0,0,0,0,0,0
401408452,0,197183099,35211267,91549297,77464789,0,0,0,0,0,0,0,0,0,0,0,0,0,0,0
401408448,0,197183097,35211268,91549295,77464788,0,0,0,0,0,0,0,0,0,0,0,0,0,0,0
401408454,0,197183100,35211268,91549296,77464790,0,0,0,0,0,0,0,0,0,0,0,0,0,0,0
401408446,0,197183096,35211267,91549296,77464787,0,0,0,0,0,0,0,0,0,0,0,0,0,0,0
401408457,0,197183100,35211270,91549295,77464792,0,0,0,0,0,0,0,0,0,0,0,0,0,0,0
401408446,0,197183100,35211265,91549296,77464785,0,0,0,0,0,0,0,0,0,0,0,0,0,0,0
401408454,0,197183097,35211270,91549295,77464792,0,0,0,0,0,0,0,0,0,0,0,0,0,0,0
401408448,0,197183101,35211266,91549296,77464785,0,0,0,0,0,0,0,0,0,0,0,0,0,0,0
401408454,0,197183097,35211269,91549296,77464792,0,0,0,0,0,0,0,0,0,0,0,0,0,0,0
401408448,0,197183100,35211266,91549296,77464786,0,0,0,0,0,0,0,0,0,0,0,0,0,0,0
401408452,0,197183096,35211269,91549296,77464791,0,0,0,0,0,0,0,0,0,0,0,0,0,0,0
401408449,0,197183101,35211266,91549295,77464787,0,0,0,0,0,0,0,0,0,0,0,0,0,0,0
401408452,0,197183097,35211269,91549296,77464790,0,0,0,0,0,0,0,0,0,0,0,0,0,0,0
401408450,0,197183099,35211266,91549296,77464789,0,0,0,0,0,0,0,0,0,0,0,0,0,0,0
401408452,0,197183100,35211269,91549295,77464788,0,0,0,0,0,0,0,0,0,0,0,0,0,0,0
401408450,0,197183096,35211266,91549298,77464790,0,0,0,0,0,0,0,0,0,0,0,0,0,0,0
401408449,0,197183100,35211269,91549293,77464787,0,0,0,0,0,0,0,0,0,0,0,0,0,0,0
401408453,0,197183097,35211267,91549299,77464790,0,0,0,0,0,0,0,0,0,0,0,0,0,0,0
401408450,0,197183102,35211268,91549293,77464787,0,0,0,0,0,0,0,0,0,0,0,0,0,0,0
401408453,0,197183097,35211267,91549299,77464790,0,0,0,0,0,0,0,0,0,0,0,0,0,0,0
401408447,0,197183099,35211268,91549293,77464787,0,0,0,0,0,0,0,0,0,0,0,0,0,0,0
299459490,0,147102907,26268376,68297779,57790428,0,0,0,0,0,0,0,0,0,0,0,0,0,0,0
number,of,instructions:,733746021887
