
MOD:0, SIM:100, INSTANCES:100,threads:1 

Time spent in different stages of the application:
0.000011000000 s, 0.000368690526 % : SETUP VARIABLES, READ COMMAND LINE ARGUMENTS
0.004426999949 s, 0.148381173611 % : ALLOCATE MEMORY
0.115460999310 s, 3.869943380356 % : READ DATA FROM FILES
2.862529039383 s, 95.944305419922 % : RUN COMPUTATION
0.001104000024 s, 0.037003122270 % : FREE MEMORY
Total time:
2.983531951904 s
--------------------------------------



MOD:0, SIM:100, INSTANCES:100,threads:2 

Time spent in different stages of the application:
0.000006000000 s, 0.000384710584 % : SETUP VARIABLES, READ COMMAND LINE ARGUMENTS
0.005156000145 s, 0.330594629049 % : ALLOCATE MEMORY
0.058956000954 s, 3.780166149139 % : READ DATA FROM FILES
1.494933009148 s, 95.852752685547 % : RUN COMPUTATION
0.000562999980 s, 0.036098677665 % : FREE MEMORY
Total time:
1.559613943100 s
--------------------------------------



MOD:0, SIM:100, INSTANCES:100,threads:4 

Time spent in different stages of the application:
0.000010000000 s, 0.001121164183 % : SETUP VARIABLES, READ COMMAND LINE ARGUMENTS
0.004753000103 s, 0.532889366150 % : ALLOCATE MEMORY
0.074340000749 s, 8.334734916687 % : READ DATA FROM FILES
0.812023997307 s, 91.041221618652 % : RUN COMPUTATION
0.000803000003 s, 0.090029485524 % : FREE MEMORY
Total time:
0.891929984093 s
--------------------------------------



MOD:0, SIM:100, INSTANCES:100,threads:8 

Time spent in different stages of the application:
0.000006000000 s, 0.000472874730 % : SETUP VARIABLES, READ COMMAND LINE ARGUMENTS
0.002453000052 s, 0.193326950073 % : ALLOCATE MEMORY
0.052597001195 s, 4.145298480988 % : READ DATA FROM FILES
1.213207006454 s, 95.615821838379 % : RUN COMPUTATION
0.000571999990 s, 0.045080725104 % : FREE MEMORY
Total time:
1.268834948540 s
--------------------------------------



MOD:0, SIM:100, INSTANCES:100,threads:12 

Time spent in different stages of the application:
0.000008000000 s, 0.000517062726 % : SETUP VARIABLES, READ COMMAND LINE ARGUMENTS
0.003468000097 s, 0.224146708846 % : ALLOCATE MEMORY
0.054076001048 s, 3.495085716248 % : READ DATA FROM FILES
1.489073038101 s, 96.243026733398 % : RUN COMPUTATION
0.000576000020 s, 0.037228517234 % : FREE MEMORY
Total time:
1.547201037407 s
--------------------------------------



MOD:0, SIM:100, INSTANCES:100,threads:16 

Time spent in different stages of the application:
0.000010000000 s, 0.000650878937 % : SETUP VARIABLES, READ COMMAND LINE ARGUMENTS
0.003575999988 s, 0.232754319906 % : ALLOCATE MEMORY
0.056593999267 s, 3.683584213257 % : READ DATA FROM FILES
1.475638985634 s, 96.046234130859 % : RUN COMPUTATION
0.000564999995 s, 0.036774661392 % : FREE MEMORY
Total time:
1.536383986473 s
--------------------------------------



MOD:0, SIM:100, INSTANCES:1000,threads:1 

Time spent in different stages of the application:
0.000007000000 s, 0.000024706193 % : SETUP VARIABLES, READ COMMAND LINE ARGUMENTS
0.023067999631 s, 0.081417500973 % : ALLOCATE MEMORY
0.596395015717 s, 2.104950189590 % : READ DATA FROM FILES
27.707408905029 s, 97.792083740234 % : RUN COMPUTATION
0.006097999867 s, 0.021522624418 % : FREE MEMORY
Total time:
28.332975387573 s
--------------------------------------



MOD:0, SIM:100, INSTANCES:1000,threads:2 

Time spent in different stages of the application:
0.000008000000 s, 0.000046644749 % : SETUP VARIABLES, READ COMMAND LINE ARGUMENTS
0.030532000586 s, 0.178019687533 % : ALLOCATE MEMORY
0.516045987606 s, 3.008854627609 % : READ DATA FROM FILES
16.598117828369 s, 96.776885986328 % : RUN COMPUTATION
0.006209000014 s, 0.036202155054 % : FREE MEMORY
Total time:
17.150911331177 s
--------------------------------------



MOD:0, SIM:100, INSTANCES:1000,threads:4 

Time spent in different stages of the application:
0.000009000000 s, 0.000085106214 % : SETUP VARIABLES, READ COMMAND LINE ARGUMENTS
0.031096000224 s, 0.294051438570 % : ALLOCATE MEMORY
0.541252970695 s, 5.118221282959 % : READ DATA FROM FILES
9.996327400208 s, 94.527725219727 % : RUN COMPUTATION
0.006335999817 s, 0.059914775193 % : FREE MEMORY
Total time:
10.575020790100 s
--------------------------------------



MOD:0, SIM:100, INSTANCES:1000,threads:8 

Time spent in different stages of the application:
0.000010000000 s, 0.000070743816 % : SETUP VARIABLES, READ COMMAND LINE ARGUMENTS
0.029308000579 s, 0.207335963845 % : ALLOCATE MEMORY
0.542514026165 s, 3.837951183319 % : READ DATA FROM FILES
13.557315826416 s, 95.909622192383 % : RUN COMPUTATION
0.006362999789 s, 0.045014288276 % : FREE MEMORY
Total time:
14.135511398315 s
--------------------------------------



MOD:0, SIM:100, INSTANCES:1000,threads:12 

Time spent in different stages of the application:
0.000009000000 s, 0.000061156672 % : SETUP VARIABLES, READ COMMAND LINE ARGUMENTS
0.027826000005 s, 0.189082831144 % : ALLOCATE MEMORY
0.506841003895 s, 3.444078922272 % : READ DATA FROM FILES
14.175259590149 s, 96.323524475098 % : RUN COMPUTATION
0.006364999805 s, 0.043251357973 % : FREE MEMORY
Total time:
14.716300964355 s
--------------------------------------



MOD:0, SIM:100, INSTANCES:1000,threads:16 

Time spent in different stages of the application:
0.000010000000 s, 0.000055358803 % : SETUP VARIABLES, READ COMMAND LINE ARGUMENTS
0.028788000345 s, 0.159366935492 % : ALLOCATE MEMORY
0.525143980980 s, 2.907134294510 % : READ DATA FROM FILES
17.498796463013 s, 96.871246337891 % : RUN COMPUTATION
0.011237000115 s, 0.062206689268 % : FREE MEMORY
Total time:
18.063974380493 s
--------------------------------------



MOD:0, SIM:1000, INSTANCES:100,threads:1 

Time spent in different stages of the application:
0.000009000000 s, 0.000032686410 % : SETUP VARIABLES, READ COMMAND LINE ARGUMENTS
0.028594000265 s, 0.103848360479 % : ALLOCATE MEMORY
0.057388000190 s, 0.208423078060 % : READ DATA FROM FILES
27.442308425903 s, 99.665611267090 % : RUN COMPUTATION
0.006082000211 s, 0.022088749334 % : FREE MEMORY
Total time:
27.534379959106 s
--------------------------------------



MOD:0, SIM:1000, INSTANCES:100,threads:2 

Time spent in different stages of the application:
0.000010000000 s, 0.000065027773 % : SETUP VARIABLES, READ COMMAND LINE ARGUMENTS
0.029648000374 s, 0.192794337869 % : ALLOCATE MEMORY
0.104002997279 s, 0.676308333874 % : READ DATA FROM FILES
15.237874984741 s, 99.088508605957 % : RUN COMPUTATION
0.006508999970 s, 0.042326577008 % : FREE MEMORY
Total time:
15.378045082092 s
--------------------------------------



MOD:0, SIM:1000, INSTANCES:100,threads:4 

Time spent in different stages of the application:
0.000011000000 s, 0.000122455531 % : SETUP VARIABLES, READ COMMAND LINE ARGUMENTS
0.030346000567 s, 0.337821394205 % : ALLOCATE MEMORY
0.071428000927 s, 0.795159399509 % : READ DATA FROM FILES
8.868535041809 s, 98.727378845215 % : RUN COMPUTATION
0.012532999739 s, 0.139521375299 % : FREE MEMORY
Total time:
8.982852935791 s
--------------------------------------



MOD:0, SIM:1000, INSTANCES:100,threads:8 

Time spent in different stages of the application:
0.000009000000 s, 0.000073356976 % : SETUP VARIABLES, READ COMMAND LINE ARGUMENTS
0.026459999382 s, 0.215669512749 % : ALLOCATE MEMORY
0.063856996596 s, 0.520484030247 % : READ DATA FROM FILES
12.165404319763 s, 99.157470703125 % : RUN COMPUTATION
0.013042000122 s, 0.106302402914 % : FREE MEMORY
Total time:
12.268772125244 s
--------------------------------------



MOD:0, SIM:1000, INSTANCES:100,threads:12 

Time spent in different stages of the application:
0.000011000000 s, 0.000069458962 % : SETUP VARIABLES, READ COMMAND LINE ARGUMENTS
0.027440000325 s, 0.173268541694 % : ALLOCATE MEMORY
0.118272997439 s, 0.746829092503 % : READ DATA FROM FILES
15.679190635681 s, 99.005485534668 % : RUN COMPUTATION
0.011773999780 s, 0.074346348643 % : FREE MEMORY
Total time:
15.836688995361 s
--------------------------------------



MOD:0, SIM:1000, INSTANCES:100,threads:16 

Time spent in different stages of the application:
0.000011000000 s, 0.000061529645 % : SETUP VARIABLES, READ COMMAND LINE ARGUMENTS
0.026972999796 s, 0.150876298547 % : ALLOCATE MEMORY
0.055950999260 s, 0.312967747450 % : READ DATA FROM FILES
17.787986755371 s, 99.498954772949 % : RUN COMPUTATION
0.006639000028 s, 0.037135940045 % : FREE MEMORY
Total time:
17.877559661865 s
--------------------------------------



MOD:1, SIM:100, INSTANCES:100,threads:1 

Time spent in different stages of the application:
0.000017000000 s, 0.000681307865 % : SETUP VARIABLES, READ COMMAND LINE ARGUMENTS
0.004654999822 s, 0.186558112502 % : ALLOCATE MEMORY
0.055899001658 s, 2.240260362625 % : READ DATA FROM FILES
2.434046983719 s, 97.549133300781 % : RUN COMPUTATION
0.000583000015 s, 0.023364851251 % : FREE MEMORY
Total time:
2.495201110840 s
--------------------------------------



MOD:1, SIM:100, INSTANCES:100,threads:2 

Time spent in different stages of the application:
0.000010000000 s, 0.000706811668 % : SETUP VARIABLES, READ COMMAND LINE ARGUMENTS
0.005133000202 s, 0.362806439400 % : ALLOCATE MEMORY
0.060621999204 s, 4.284833908081 % : READ DATA FROM FILES
1.347988009453 s, 95.277366638184 % : RUN COMPUTATION
0.001050999970 s, 0.074285909534 % : FREE MEMORY
Total time:
1.414803981781 s
--------------------------------------



MOD:1, SIM:100, INSTANCES:100,threads:4 

Time spent in different stages of the application:
0.000007000000 s, 0.000950019516 % : SETUP VARIABLES, READ COMMAND LINE ARGUMENTS
0.001807000022 s, 0.245240747929 % : ALLOCATE MEMORY
0.042162001133 s, 5.722103118896 % : READ DATA FROM FILES
0.691848993301 s, 93.895713806152 % : RUN COMPUTATION
0.001001999946 s, 0.135988503695 % : FREE MEMORY
Total time:
0.736827015877 s
--------------------------------------



MOD:1, SIM:100, INSTANCES:100,threads:8 

Time spent in different stages of the application:
0.000007000000 s, 0.001398313674 % : SETUP VARIABLES, READ COMMAND LINE ARGUMENTS
0.002515000058 s, 0.502394080162 % : ALLOCATE MEMORY
0.041822001338 s, 8.354325294495 % : READ DATA FROM FILES
0.454948991537 s, 90.880195617676 % : RUN COMPUTATION
0.001309999963 s, 0.261684417725 % : FREE MEMORY
Total time:
0.500603020191 s
--------------------------------------



MOD:1, SIM:100, INSTANCES:100,threads:12 

Time spent in different stages of the application:
0.000002000000 s, 0.000473099557 % : SETUP VARIABLES, READ COMMAND LINE ARGUMENTS
0.002768999897 s, 0.655006349087 % : ALLOCATE MEMORY
0.041039001197 s, 9.707766532898 % : READ DATA FROM FILES
0.378230005503 s, 89.470222473145 % : RUN COMPUTATION
0.000704000005 s, 0.166531041265 % : FREE MEMORY
Total time:
0.422744005919 s
--------------------------------------



MOD:1, SIM:100, INSTANCES:100,threads:16 

Time spent in different stages of the application:
0.000007000000 s, 0.001656138338 % : SETUP VARIABLES, READ COMMAND LINE ARGUMENTS
0.002374999924 s, 0.561904072762 % : ALLOCATE MEMORY
0.045193001628 s, 10.692265510559 % : READ DATA FROM FILES
0.373780012131 s, 88.433059692383 % : RUN COMPUTATION
0.001315000001 s, 0.311117410660 % : FREE MEMORY
Total time:
0.422670006752 s
--------------------------------------



MOD:1, SIM:100, INSTANCES:1000,threads:1 

Time spent in different stages of the application:
0.000009000000 s, 0.000034909935 % : SETUP VARIABLES, READ COMMAND LINE ARGUMENTS
0.027257999405 s, 0.105730548501 % : ALLOCATE MEMORY
0.642545998096 s, 2.492359876633 % : READ DATA FROM FILES
25.099000930786 s, 97.356048583984 % : RUN COMPUTATION
0.011812999845 s, 0.045821227133 % : FREE MEMORY
Total time:
25.780628204346 s
--------------------------------------



MOD:1, SIM:100, INSTANCES:1000,threads:2 

Time spent in different stages of the application:
0.000005000000 s, 0.000035810972 % : SETUP VARIABLES, READ COMMAND LINE ARGUMENTS
0.030830999836 s, 0.220817625523 % : ALLOCATE MEMORY
0.576937973499 s, 4.132142066956 % : READ DATA FROM FILES
13.346113204956 s, 95.587455749512 % : RUN COMPUTATION
0.008314000443 s, 0.059546485543 % : FREE MEMORY
Total time:
13.962201118469 s
--------------------------------------



MOD:1, SIM:100, INSTANCES:1000,threads:4 

Time spent in different stages of the application:
0.000010000000 s, 0.000139006661 % : SETUP VARIABLES, READ COMMAND LINE ARGUMENTS
0.023589000106 s, 0.327902793884 % : ALLOCATE MEMORY
0.400088012218 s, 5.561489582062 % : READ DATA FROM FILES
6.763623237610 s, 94.018867492676 % : RUN COMPUTATION
0.006589999888 s, 0.091605387628 % : FREE MEMORY
Total time:
7.193900108337 s
--------------------------------------



MOD:1, SIM:100, INSTANCES:1000,threads:8 

Time spent in different stages of the application:
0.000006000000 s, 0.000133523383 % : SETUP VARIABLES, READ COMMAND LINE ARGUMENTS
0.025115000084 s, 0.558906614780 % : ALLOCATE MEMORY
0.420834988356 s, 9.365219116211 % : READ DATA FROM FILES
4.040720939636 s, 89.921791076660 % : RUN COMPUTATION
0.006918000057 s, 0.153952464461 % : FREE MEMORY
Total time:
4.493595123291 s
--------------------------------------



MOD:1, SIM:100, INSTANCES:1000,threads:12 

Time spent in different stages of the application:
0.000007000000 s, 0.000172965112 % : SETUP VARIABLES, READ COMMAND LINE ARGUMENTS
0.025270000100 s, 0.624404072762 % : ALLOCATE MEMORY
0.514684021473 s, 12.717482566833 % : READ DATA FROM FILES
3.495992898941 s, 86.383544921875 % : RUN COMPUTATION
0.011105000041 s, 0.274396777153 % : FREE MEMORY
Total time:
4.047059059143 s
--------------------------------------



MOD:1, SIM:100, INSTANCES:1000,threads:16 

Time spent in different stages of the application:
0.000011000000 s, 0.000285556249 % : SETUP VARIABLES, READ COMMAND LINE ARGUMENTS
0.026670999825 s, 0.692369997501 % : ALLOCATE MEMORY
0.427837014198 s, 11.106501579285 % : READ DATA FROM FILES
3.386169910431 s, 87.903808593750 % : RUN COMPUTATION
0.011442000046 s, 0.297030389309 % : FREE MEMORY
Total time:
3.852130889893 s
--------------------------------------



MOD:1, SIM:1000, INSTANCES:100,threads:1 

Time spent in different stages of the application:
0.000007000000 s, 0.000027881935 % : SETUP VARIABLES, READ COMMAND LINE ARGUMENTS
0.029980000108 s, 0.119414351881 % : ALLOCATE MEMORY
0.049667999148 s, 0.197834283113 % : READ DATA FROM FILES
25.020242691040 s, 99.658973693848 % : RUN COMPUTATION
0.005963000003 s, 0.023751426488 % : FREE MEMORY
Total time:
25.105859756470 s
--------------------------------------



MOD:1, SIM:1000, INSTANCES:100,threads:2 

Time spent in different stages of the application:
0.000011000000 s, 0.000083328428 % : SETUP VARIABLES, READ COMMAND LINE ARGUMENTS
0.031003000215 s, 0.234857380390 % : ALLOCATE MEMORY
0.055853001773 s, 0.423103898764 % : READ DATA FROM FILES
13.103915214539 s, 99.266242980957 % : RUN COMPUTATION
0.009995000437 s, 0.075715236366 % : FREE MEMORY
Total time:
13.200777053833 s
--------------------------------------



MOD:1, SIM:1000, INSTANCES:100,threads:4 

Time spent in different stages of the application:
0.000007000000 s, 0.000102408863 % : SETUP VARIABLES, READ COMMAND LINE ARGUMENTS
0.023125000298 s, 0.338314980268 % : ALLOCATE MEMORY
0.044707998633 s, 0.654070794582 % : READ DATA FROM FILES
6.760305881500 s, 98.902175903320 % : RUN COMPUTATION
0.007199999876 s, 0.105334833264 % : FREE MEMORY
Total time:
6.835346221924 s
--------------------------------------



MOD:1, SIM:1000, INSTANCES:100,threads:8 

Time spent in different stages of the application:
0.000008000000 s, 0.000189849816 % : SETUP VARIABLES, READ COMMAND LINE ARGUMENTS
0.023900000378 s, 0.567176342010 % : ALLOCATE MEMORY
0.047074001282 s, 1.117123842239 % : READ DATA FROM FILES
4.129249095917 s, 97.992149353027 % : RUN COMPUTATION
0.013625999913 s, 0.323361724615 % : FREE MEMORY
Total time:
4.213857173920 s
--------------------------------------



MOD:1, SIM:1000, INSTANCES:100,threads:12 

Time spent in different stages of the application:
0.000006000000 s, 0.000163747420 % : SETUP VARIABLES, READ COMMAND LINE ARGUMENTS
0.025626000017 s, 0.699365198612 % : ALLOCATE MEMORY
0.042442999780 s, 1.158321976662 % : READ DATA FROM FILES
3.580635070801 s, 97.719955444336 % : RUN COMPUTATION
0.015469999984 s, 0.422195434570 % : FREE MEMORY
Total time:
3.664180040359 s
--------------------------------------



MOD:1, SIM:1000, INSTANCES:100,threads:16 

Time spent in different stages of the application:
0.000007000000 s, 0.000192612701 % : SETUP VARIABLES, READ COMMAND LINE ARGUMENTS
0.025829000399 s, 0.710713326931 % : ALLOCATE MEMORY
0.044762998819 s, 1.231703162193 % : READ DATA FROM FILES
3.551145076752 s, 97.713661193848 % : RUN COMPUTATION
0.012492000125 s, 0.343731105328 % : FREE MEMORY
Total time:
3.634236097336 s
--------------------------------------


