OMP_NUM_THREADS=1:

Input File: /home/users/amarkou/DIPLOMA/rodinia_3.1/data/b+tree/mil.txt 
Command File: /home/users/amarkou/DIPLOMA/rodinia_3.1/data/b+tree/command.txt 
Command Buffer: 
j 6000 3000
k 10000

Getting input from file cores...
Transforming data to a GPU suitable structure...
Tree transformation took 0.179039
Waiting for command
> 
******command: j count=6000, rSize=6000 
Time spent in different stages of CPU/MCPU KERNEL:
 0.000005000000 s,  0.032098606229 % : MCPU: SET DEVICE
 0.015572000295 s, 99.967903137207 % : CPU/MCPU: KERNEL
Total time:
0.015576999635 s
> > > > > > > > > > > > 
 ******command: k count=10000 
Time spent in different stages of CPU/MCPU KERNEL:
 0.000000000000 s,  0.000000000000 % : MCPU: SET DEVICE
 0.017548000440 s, 100.000000000000 % : CPU/MCPU: KERNEL
Total time:
0.017548000440 s
> > > > > > > > > PAPI measurements:(rapl)> > > > > > > > > > > >
Counting Energy Consumption:
PACKAGE_ENERGY_CNT:PACKAGE0 (J) 0.000025517000
PACKAGE_ENERGY_CNT:PACKAGE1 (J) 0.000024915000
DRAM_ENERGY_CNT:PACKAGE0 (J)    0.000019783000
DRAM_ENERGY_CNT:PACKAGE1 (J)    0.000017378000


Energy in total:
PACKAGE_ENERGY:PACKAGE0 (J) 1.557434082000
PACKAGE_ENERGY:PACKAGE1 (J) 1.520690917000
DRAM_ENERGY:PACKAGE0    (J) 0.301864624000
DRAM_ENERGY:PACKAGE1    (J) 0.265167236000

Total time:  0.045368000865 (s)
Power (W) 80.346428969797
==================================================================


---------------------------------------------------------------------------------------------

OMP_NUM_THREADS= 2 : 

Input File: /home/users/amarkou/DIPLOMA/rodinia_3.1/data/b+tree/mil.txt 
Command File: /home/users/amarkou/DIPLOMA/rodinia_3.1/data/b+tree/command.txt 
Command Buffer: 
j 6000 3000
k 10000

Getting input from file cores...
Transforming data to a GPU suitable structure...
Tree transformation took 0.182920
Waiting for command
> 
******command: j count=6000, rSize=6000 
Time spent in different stages of CPU/MCPU KERNEL:
 0.000004000000 s,  0.045866299421 % : MCPU: SET DEVICE
 0.008716999553 s, 99.954132080078 % : CPU/MCPU: KERNEL
Total time:
0.008720999584 s
> > > > > > > > > > > > 
 ******command: k count=10000 
Time spent in different stages of CPU/MCPU KERNEL:
 0.000000000000 s,  0.000000000000 % : MCPU: SET DEVICE
 0.008497999981 s, 100.000000000000 % : CPU/MCPU: KERNEL
Total time:
0.008497999981 s
> > > > > > > > > PAPI measurements:(rapl)> > > > > > > > > > > >
Counting Energy Consumption:
PACKAGE_ENERGY_CNT:PACKAGE0 (J) 0.000049403000
PACKAGE_ENERGY_CNT:PACKAGE1 (J) 0.000047301000
DRAM_ENERGY_CNT:PACKAGE0 (J)    0.000024007000
DRAM_ENERGY_CNT:PACKAGE1 (J)    0.000021635000


Energy in total:
PACKAGE_ENERGY:PACKAGE0 (J) 3.015319824000
PACKAGE_ENERGY:PACKAGE1 (J) 2.887023925000
DRAM_ENERGY:PACKAGE0    (J) 0.366317749000
DRAM_ENERGY:PACKAGE1    (J) 0.330123901000

Total time:  0.056740999222 (s)
Power (W) 116.296601919279
==================================================================


---------------------------------------------------------------------------------------------

OMP_NUM_THREADS= 3 : 

Input File: /home/users/amarkou/DIPLOMA/rodinia_3.1/data/b+tree/mil.txt 
Command File: /home/users/amarkou/DIPLOMA/rodinia_3.1/data/b+tree/command.txt 
Command Buffer: 
j 6000 3000
k 10000

Getting input from file cores...
Transforming data to a GPU suitable structure...
Tree transformation took 0.187502
Waiting for command
> 
******command: j count=6000, rSize=6000 
Time spent in different stages of CPU/MCPU KERNEL:
 0.000005000000 s,  0.083878546953 % : MCPU: SET DEVICE
 0.005956000183 s, 99.916122436523 % : CPU/MCPU: KERNEL
Total time:
0.005960999988 s
> > > > > > > > > > > > 
 ******command: k count=10000 
Time spent in different stages of CPU/MCPU KERNEL:
 0.000001000000 s,  0.017937220633 % : MCPU: SET DEVICE
 0.005574000068 s, 99.982063293457 % : CPU/MCPU: KERNEL
Total time:
0.005574999843 s
> > > > > > > > > PAPI measurements:(rapl)> > > > > > > > > > > >
Counting Energy Consumption:
PACKAGE_ENERGY_CNT:PACKAGE0 (J) 0.000021106000
PACKAGE_ENERGY_CNT:PACKAGE1 (J) 0.000020883000
DRAM_ENERGY_CNT:PACKAGE0 (J)    0.000011593000
DRAM_ENERGY_CNT:PACKAGE1 (J)    0.000009133000


Energy in total:
PACKAGE_ENERGY:PACKAGE0 (J) 1.288208007000
PACKAGE_ENERGY:PACKAGE1 (J) 1.274597167000
DRAM_ENERGY:PACKAGE0    (J) 0.169921875000
DRAM_ENERGY:PACKAGE1    (J) 0.139358520000

Total time:  0.023561000824 (s)
Power (W) 121.899981688278
==================================================================


---------------------------------------------------------------------------------------------

OMP_NUM_THREADS= 4 : 

Input File: /home/users/amarkou/DIPLOMA/rodinia_3.1/data/b+tree/mil.txt 
Command File: /home/users/amarkou/DIPLOMA/rodinia_3.1/data/b+tree/command.txt 
Command Buffer: 
j 6000 3000
k 10000

Getting input from file cores...
Transforming data to a GPU suitable structure...
Tree transformation took 0.185616
Waiting for command
> 
******command: j count=6000, rSize=6000 
Time spent in different stages of CPU/MCPU KERNEL:
 0.000005000000 s,  0.106723584235 % : MCPU: SET DEVICE
 0.004679999780 s, 99.893280029297 % : CPU/MCPU: KERNEL
Total time:
0.004685000051 s
> > > > > > > > > > > > 
 ******command: k count=10000 
Time spent in different stages of CPU/MCPU KERNEL:
 0.000000000000 s,  0.000000000000 % : MCPU: SET DEVICE
 0.004265000112 s, 100.000000000000 % : CPU/MCPU: KERNEL
Total time:
0.004265000112 s
> > > > > > > > > PAPI measurements:(rapl)> > > > > > > > > > > >
Counting Energy Consumption:
PACKAGE_ENERGY_CNT:PACKAGE0 (J) 0.000019301000
PACKAGE_ENERGY_CNT:PACKAGE1 (J) 0.000019269000
DRAM_ENERGY_CNT:PACKAGE0 (J)    0.000010111000
DRAM_ENERGY_CNT:PACKAGE1 (J)    0.000008391000


Energy in total:
PACKAGE_ENERGY:PACKAGE0 (J) 1.178039550000
PACKAGE_ENERGY:PACKAGE1 (J) 1.176086425000
DRAM_ENERGY:PACKAGE0    (J) 0.154281616000
DRAM_ENERGY:PACKAGE1    (J) 0.128036499000

Total time:  0.020709000528 (s)
Power (W) 127.309093765937
==================================================================


---------------------------------------------------------------------------------------------

OMP_NUM_THREADS= 5 : 

Input File: /home/users/amarkou/DIPLOMA/rodinia_3.1/data/b+tree/mil.txt 
Command File: /home/users/amarkou/DIPLOMA/rodinia_3.1/data/b+tree/command.txt 
Command Buffer: 
j 6000 3000
k 10000

Getting input from file cores...
Transforming data to a GPU suitable structure...
Tree transformation took 0.183448
Waiting for command
> 
******command: j count=6000, rSize=6000 
Time spent in different stages of CPU/MCPU KERNEL:
 0.000005000000 s,  0.139353394508 % : MCPU: SET DEVICE
 0.003583000042 s, 99.860641479492 % : CPU/MCPU: KERNEL
Total time:
0.003588000080 s
> > > > > > > > > > > > 
 ******command: k count=10000 
Time spent in different stages of CPU/MCPU KERNEL:
 0.000000000000 s,  0.000000000000 % : MCPU: SET DEVICE
 0.003313000081 s, 100.000000000000 % : CPU/MCPU: KERNEL
Total time:
0.003313000081 s
> > > > > > > > > PAPI measurements:(rapl)> > > > > > > > > > > >
Counting Energy Consumption:
PACKAGE_ENERGY_CNT:PACKAGE0 (J) 0.000020914000
PACKAGE_ENERGY_CNT:PACKAGE1 (J) 0.000020052000
DRAM_ENERGY_CNT:PACKAGE0 (J)    0.000010694000
DRAM_ENERGY_CNT:PACKAGE1 (J)    0.000008901000


Energy in total:
PACKAGE_ENERGY:PACKAGE0 (J) 1.276489257000
PACKAGE_ENERGY:PACKAGE1 (J) 1.223876953000
DRAM_ENERGY:PACKAGE0    (J) 0.163177490000
DRAM_ENERGY:PACKAGE1    (J) 0.135818481000

Total time:  0.023329000920 (s)
Power (W) 119.994944943966
==================================================================


---------------------------------------------------------------------------------------------

OMP_NUM_THREADS= 6 : 

Input File: /home/users/amarkou/DIPLOMA/rodinia_3.1/data/b+tree/mil.txt 
Command File: /home/users/amarkou/DIPLOMA/rodinia_3.1/data/b+tree/command.txt 
Command Buffer: 
j 6000 3000
k 10000

Getting input from file cores...
Transforming data to a GPU suitable structure...
Tree transformation took 0.186647
Waiting for command
> 
******command: j count=6000, rSize=6000 
Time spent in different stages of CPU/MCPU KERNEL:
 0.000005000000 s,  0.163452103734 % : MCPU: SET DEVICE
 0.003053999972 s, 99.836547851562 % : CPU/MCPU: KERNEL
Total time:
0.003059000010 s
> > > > > > > > > > > > 
 ******command: k count=10000 
Time spent in different stages of CPU/MCPU KERNEL:
 0.000000000000 s,  0.000000000000 % : MCPU: SET DEVICE
 0.004610999953 s, 100.000000000000 % : CPU/MCPU: KERNEL
Total time:
0.004610999953 s
> > > > > > > > > PAPI measurements:(rapl)> > > > > > > > > > > >
Counting Energy Consumption:
PACKAGE_ENERGY_CNT:PACKAGE0 (J) 0.000027028000
PACKAGE_ENERGY_CNT:PACKAGE1 (J) 0.000025709000
DRAM_ENERGY_CNT:PACKAGE0 (J)    0.000012754000
DRAM_ENERGY_CNT:PACKAGE1 (J)    0.000011306000


Energy in total:
PACKAGE_ENERGY:PACKAGE0 (J) 1.649658203000
PACKAGE_ENERGY:PACKAGE1 (J) 1.569152832000
DRAM_ENERGY:PACKAGE0    (J) 0.200195312000
DRAM_ENERGY:PACKAGE1    (J) 0.172515869000

Total time:  0.028288999572 (s)
Power (W) 126.958261878745
==================================================================


---------------------------------------------------------------------------------------------

OMP_NUM_THREADS= 7 : 

Input File: /home/users/amarkou/DIPLOMA/rodinia_3.1/data/b+tree/mil.txt 
Command File: /home/users/amarkou/DIPLOMA/rodinia_3.1/data/b+tree/command.txt 
Command Buffer: 
j 6000 3000
k 10000

Getting input from file cores...
Transforming data to a GPU suitable structure...
Tree transformation took 0.185681
Waiting for command
> 
******command: j count=6000, rSize=6000 
Time spent in different stages of CPU/MCPU KERNEL:
 0.000005000000 s,  0.185597628355 % : MCPU: SET DEVICE
 0.002688999986 s, 99.814399719238 % : CPU/MCPU: KERNEL
Total time:
0.002694000024 s
> > > > > > > > > > > > 
 ******command: k count=10000 
Time spent in different stages of CPU/MCPU KERNEL:
 0.000000000000 s,  0.000000000000 % : MCPU: SET DEVICE
 0.003996999934 s, 100.000000000000 % : CPU/MCPU: KERNEL
Total time:
0.003996999934 s
> > > > > > > > > PAPI measurements:(rapl)> > > > > > > > > > > >
Counting Energy Consumption:
PACKAGE_ENERGY_CNT:PACKAGE0 (J) 0.000148459000
PACKAGE_ENERGY_CNT:PACKAGE1 (J) 0.000148830000
DRAM_ENERGY_CNT:PACKAGE0 (J)    0.000071541000
DRAM_ENERGY_CNT:PACKAGE1 (J)    0.000068219000


Energy in total:
PACKAGE_ENERGY:PACKAGE0 (J) 9.061218261000
PACKAGE_ENERGY:PACKAGE1 (J) 9.083862304000
DRAM_ENERGY:PACKAGE0    (J) 1.091629028000
DRAM_ENERGY:PACKAGE1    (J) 1.040939331000

Total time:  0.185247004032 (s)
Power (W) 109.462763135875
==================================================================


---------------------------------------------------------------------------------------------

OMP_NUM_THREADS= 8 : 

Input File: /home/users/amarkou/DIPLOMA/rodinia_3.1/data/b+tree/mil.txt 
Command File: /home/users/amarkou/DIPLOMA/rodinia_3.1/data/b+tree/command.txt 
Command Buffer: 
j 6000 3000
k 10000

Getting input from file cores...
Transforming data to a GPU suitable structure...
Tree transformation took 0.187162
Waiting for command
> 
******command: j count=6000, rSize=6000 
Time spent in different stages of CPU/MCPU KERNEL:
 0.000005000000 s,  0.205846041441 % : MCPU: SET DEVICE
 0.002424000064 s, 99.794158935547 % : CPU/MCPU: KERNEL
Total time:
0.002429000102 s
> > > > > > > > > > > > 
 ******command: k count=10000 
Time spent in different stages of CPU/MCPU KERNEL:
 0.000000000000 s,  0.000000000000 % : MCPU: SET DEVICE
 0.003423999995 s, 100.000000000000 % : CPU/MCPU: KERNEL
Total time:
0.003423999995 s
> > > > > > > > > PAPI measurements:(rapl)> > > > > > > > > > > >
Counting Energy Consumption:
PACKAGE_ENERGY_CNT:PACKAGE0 (J) 0.000021240000
PACKAGE_ENERGY_CNT:PACKAGE1 (J) 0.000019647000
DRAM_ENERGY_CNT:PACKAGE0 (J)    0.000010219000
DRAM_ENERGY_CNT:PACKAGE1 (J)    0.000008608000


Energy in total:
PACKAGE_ENERGY:PACKAGE0 (J) 1.296386718000
PACKAGE_ENERGY:PACKAGE1 (J) 1.199157714000
DRAM_ENERGY:PACKAGE0    (J) 0.155929565000
DRAM_ENERGY:PACKAGE1    (J) 0.131347656000

Total time:  0.021918000653 (s)
Power (W) 126.965123188373
==================================================================


---------------------------------------------------------------------------------------------

OMP_NUM_THREADS= 9 : 

Input File: /home/users/amarkou/DIPLOMA/rodinia_3.1/data/b+tree/mil.txt 
Command File: /home/users/amarkou/DIPLOMA/rodinia_3.1/data/b+tree/command.txt 
Command Buffer: 
j 6000 3000
k 10000

Getting input from file cores...
Transforming data to a GPU suitable structure...
Tree transformation took 0.182828
Waiting for command
> 
******command: j count=6000, rSize=6000 
Time spent in different stages of CPU/MCPU KERNEL:
 0.000004000000 s,  0.186915889382 % : MCPU: SET DEVICE
 0.002135999966 s, 99.813087463379 % : CPU/MCPU: KERNEL
Total time:
0.002139999997 s
> > > > > > > > > > > > 
 ******command: k count=10000 
Time spent in different stages of CPU/MCPU KERNEL:
 0.000001000000 s,  0.032144006342 % : MCPU: SET DEVICE
 0.003109999932 s, 99.967857360840 % : CPU/MCPU: KERNEL
Total time:
0.003110999940 s
> > > > > > > > > PAPI measurements:(rapl)> > > > > > > > > > > >
Counting Energy Consumption:
PACKAGE_ENERGY_CNT:PACKAGE0 (J) 0.000024779000
PACKAGE_ENERGY_CNT:PACKAGE1 (J) 0.000024434000
DRAM_ENERGY_CNT:PACKAGE0 (J)    0.000011998000
DRAM_ENERGY_CNT:PACKAGE1 (J)    0.000010302000


Energy in total:
PACKAGE_ENERGY:PACKAGE0 (J) 1.512390136000
PACKAGE_ENERGY:PACKAGE1 (J) 1.491333007000
DRAM_ENERGY:PACKAGE0    (J) 0.183074951000
DRAM_ENERGY:PACKAGE1    (J) 0.157196044000

Total time:  0.027044000104 (s)
Power (W) 123.650130348017
==================================================================


---------------------------------------------------------------------------------------------

OMP_NUM_THREADS= 10 : 

Input File: /home/users/amarkou/DIPLOMA/rodinia_3.1/data/b+tree/mil.txt 
Command File: /home/users/amarkou/DIPLOMA/rodinia_3.1/data/b+tree/command.txt 
Command Buffer: 
j 6000 3000
k 10000

Getting input from file cores...
Transforming data to a GPU suitable structure...
Tree transformation took 0.186072
Waiting for command
> 
******command: j count=6000, rSize=6000 
Time spent in different stages of CPU/MCPU KERNEL:
 0.000005000000 s,  0.244977951050 % : MCPU: SET DEVICE
 0.002035999903 s, 99.755027770996 % : CPU/MCPU: KERNEL
Total time:
0.002040999942 s
> > > > > > > > > > > > 
 ******command: k count=10000 
Time spent in different stages of CPU/MCPU KERNEL:
 0.000000000000 s,  0.000000000000 % : MCPU: SET DEVICE
 0.002821000060 s, 100.000000000000 % : CPU/MCPU: KERNEL
Total time:
0.002821000060 s
> > > > > > > > > PAPI measurements:(rapl)> > > > > > > > > > > >
Counting Energy Consumption:
PACKAGE_ENERGY_CNT:PACKAGE0 (J) 0.000018658000
PACKAGE_ENERGY_CNT:PACKAGE1 (J) 0.000018730000
DRAM_ENERGY_CNT:PACKAGE0 (J)    0.000009819000
DRAM_ENERGY_CNT:PACKAGE1 (J)    0.000007688000


Energy in total:
PACKAGE_ENERGY:PACKAGE0 (J) 1.138793945000
PACKAGE_ENERGY:PACKAGE1 (J) 1.143188476000
DRAM_ENERGY:PACKAGE0    (J) 0.149826049000
DRAM_ENERGY:PACKAGE1    (J) 0.117309570000

Total time:  0.020488999784 (s)
Power (W) 124.413981496135
==================================================================


---------------------------------------------------------------------------------------------

OMP_NUM_THREADS= 11 : 

Input File: /home/users/amarkou/DIPLOMA/rodinia_3.1/data/b+tree/mil.txt 
Command File: /home/users/amarkou/DIPLOMA/rodinia_3.1/data/b+tree/command.txt 
Command Buffer: 
j 6000 3000
k 10000

Getting input from file cores...
Transforming data to a GPU suitable structure...
Tree transformation took 0.187258
Waiting for command
> 
******command: j count=6000, rSize=6000 
Time spent in different stages of CPU/MCPU KERNEL:
 0.000005000000 s,  0.271002709866 % : MCPU: SET DEVICE
 0.001840000041 s, 99.728996276855 % : CPU/MCPU: KERNEL
Total time:
0.001844999962 s
> > > > > > > > > > > > 
 ******command: k count=10000 
Time spent in different stages of CPU/MCPU KERNEL:
 0.000000000000 s,  0.000000000000 % : MCPU: SET DEVICE
 0.002558999928 s, 100.000000000000 % : CPU/MCPU: KERNEL
Total time:
0.002558999928 s
> > > > > > > > > PAPI measurements:(rapl)> > > > > > > > > > > >
Counting Energy Consumption:
PACKAGE_ENERGY_CNT:PACKAGE0 (J) 0.000017565000
PACKAGE_ENERGY_CNT:PACKAGE1 (J) 0.000016039000
DRAM_ENERGY_CNT:PACKAGE0 (J)    0.000008828000
DRAM_ENERGY_CNT:PACKAGE1 (J)    0.000006622000


Energy in total:
PACKAGE_ENERGY:PACKAGE0 (J) 1.013366699000
PACKAGE_ENERGY:PACKAGE1 (J) 0.978942871000
DRAM_ENERGY:PACKAGE0    (J) 0.134704589000
DRAM_ENERGY:PACKAGE1    (J) 0.101043701000

Total time:  0.017798999324 (s)
Power (W) 125.178827156901
==================================================================


---------------------------------------------------------------------------------------------

OMP_NUM_THREADS= 12 : 

Input File: /home/users/amarkou/DIPLOMA/rodinia_3.1/data/b+tree/mil.txt 
Command File: /home/users/amarkou/DIPLOMA/rodinia_3.1/data/b+tree/command.txt 
Command Buffer: 
j 6000 3000
k 10000

Getting input from file cores...
Transforming data to a GPU suitable structure...
Tree transformation took 0.184851
Waiting for command
> 
******command: j count=6000, rSize=6000 
Time spent in different stages of CPU/MCPU KERNEL:
 0.000005000000 s,  0.282645553350 % : MCPU: SET DEVICE
 0.001764000044 s, 99.717353820801 % : CPU/MCPU: KERNEL
Total time:
0.001768999966 s
> > > > > > > > > > > > 
 ******command: k count=10000 
Time spent in different stages of CPU/MCPU KERNEL:
 0.000001000000 s,  0.043215211481 % : MCPU: SET DEVICE
 0.002312999917 s, 99.956787109375 % : CPU/MCPU: KERNEL
Total time:
0.002313999925 s
> > > > > > > > > PAPI measurements:(rapl)> > > > > > > > > > > >
Counting Energy Consumption:
PACKAGE_ENERGY_CNT:PACKAGE0 (J) 0.000045184000
PACKAGE_ENERGY_CNT:PACKAGE1 (J) 0.000045355000
DRAM_ENERGY_CNT:PACKAGE0 (J)    0.000021334000
DRAM_ENERGY_CNT:PACKAGE1 (J)    0.000019531000


Energy in total:
PACKAGE_ENERGY:PACKAGE0 (J) 2.757812500000
PACKAGE_ENERGY:PACKAGE1 (J) 2.768249511000
DRAM_ENERGY:PACKAGE0    (J) 0.325531005000
DRAM_ENERGY:PACKAGE1    (J) 0.298019409000

Total time:  0.051846999675 (s)
Power (W) 118.610767518743
==================================================================


---------------------------------------------------------------------------------------------

OMP_NUM_THREADS= 13 : 

Input File: /home/users/amarkou/DIPLOMA/rodinia_3.1/data/b+tree/mil.txt 
Command File: /home/users/amarkou/DIPLOMA/rodinia_3.1/data/b+tree/command.txt 
Command Buffer: 
j 6000 3000
k 10000

Getting input from file cores...
Transforming data to a GPU suitable structure...
Tree transformation took 0.185369
Waiting for command
> 
******command: j count=6000, rSize=6000 
Time spent in different stages of CPU/MCPU KERNEL:
 0.000005000000 s,  0.304506689310 % : MCPU: SET DEVICE
 0.001637000008 s, 99.695495605469 % : CPU/MCPU: KERNEL
Total time:
0.001642000047 s
> > > > > > > > > > > > 
 ******command: k count=10000 
Time spent in different stages of CPU/MCPU KERNEL:
 0.000000000000 s,  0.000000000000 % : MCPU: SET DEVICE
 0.001331000007 s, 100.000000000000 % : CPU/MCPU: KERNEL
Total time:
0.001331000007 s
> > > > > > > > > PAPI measurements:(rapl)> > > > > > > > > > > >
Counting Energy Consumption:
PACKAGE_ENERGY_CNT:PACKAGE0 (J) 0.000017576000
PACKAGE_ENERGY_CNT:PACKAGE1 (J) 0.000016126000
DRAM_ENERGY_CNT:PACKAGE0 (J)    0.000008655000
DRAM_ENERGY_CNT:PACKAGE1 (J)    0.000006499000


Energy in total:
PACKAGE_ENERGY:PACKAGE0 (J) 1.072753906000
PACKAGE_ENERGY:PACKAGE1 (J) 0.984252929000
DRAM_ENERGY:PACKAGE0    (J) 0.132064819000
DRAM_ENERGY:PACKAGE1    (J) 0.099166870000

Total time:  0.017707999796 (s)
Power (W) 129.220609351873
==================================================================


---------------------------------------------------------------------------------------------

OMP_NUM_THREADS= 14 : 

Input File: /home/users/amarkou/DIPLOMA/rodinia_3.1/data/b+tree/mil.txt 
Command File: /home/users/amarkou/DIPLOMA/rodinia_3.1/data/b+tree/command.txt 
Command Buffer: 
j 6000 3000
k 10000

Getting input from file cores...
Transforming data to a GPU suitable structure...
Tree transformation took 0.184488
Waiting for command
> 
******command: j count=6000, rSize=6000 
Time spent in different stages of CPU/MCPU KERNEL:
 0.000005000000 s,  0.315855979919 % : MCPU: SET DEVICE
 0.001578000025 s, 99.684143066406 % : CPU/MCPU: KERNEL
Total time:
0.001582999947 s
> > > > > > > > > > > > 
 ******command: k count=10000 
Time spent in different stages of CPU/MCPU KERNEL:
 0.000000000000 s,  0.000000000000 % : MCPU: SET DEVICE
 0.002082000021 s, 100.000000000000 % : CPU/MCPU: KERNEL
Total time:
0.002082000021 s
> > > > > > > > > PAPI measurements:(rapl)> > > > > > > > > > > >
Counting Energy Consumption:
PACKAGE_ENERGY_CNT:PACKAGE0 (J) 0.000107681000
PACKAGE_ENERGY_CNT:PACKAGE1 (J) 0.000103196000
DRAM_ENERGY_CNT:PACKAGE0 (J)    0.000049434000
DRAM_ENERGY_CNT:PACKAGE1 (J)    0.000046925000


Energy in total:
PACKAGE_ENERGY:PACKAGE0 (J) 6.572326660000
PACKAGE_ENERGY:PACKAGE1 (J) 6.298583984000
DRAM_ENERGY:PACKAGE0    (J) 0.754302978000
DRAM_ENERGY:PACKAGE1    (J) 0.716018676000

Total time:  0.127400994301 (s)
Power (W) 112.567663829490
==================================================================


---------------------------------------------------------------------------------------------

OMP_NUM_THREADS= 15 : 

Input File: /home/users/amarkou/DIPLOMA/rodinia_3.1/data/b+tree/mil.txt 
Command File: /home/users/amarkou/DIPLOMA/rodinia_3.1/data/b+tree/command.txt 
Command Buffer: 
j 6000 3000
k 10000

Getting input from file cores...
Transforming data to a GPU suitable structure...
Tree transformation took 0.183961
Waiting for command
> 
******command: j count=6000, rSize=6000 
Time spent in different stages of CPU/MCPU KERNEL:
 0.000004000000 s,  0.259909033775 % : MCPU: SET DEVICE
 0.001535000047 s, 99.740097045898 % : CPU/MCPU: KERNEL
Total time:
0.001538999961 s
> > > > > > > > > > > > 
 ******command: k count=10000 
Time spent in different stages of CPU/MCPU KERNEL:
 0.000001000000 s,  0.052603892982 % : MCPU: SET DEVICE
 0.001900000032 s, 99.947395324707 % : CPU/MCPU: KERNEL
Total time:
0.001901000040 s
> > > > > > > > > PAPI measurements:(rapl)> > > > > > > > > > > >
Counting Energy Consumption:
PACKAGE_ENERGY_CNT:PACKAGE0 (J) 0.000023327000
PACKAGE_ENERGY_CNT:PACKAGE1 (J) 0.000024136000
DRAM_ENERGY_CNT:PACKAGE0 (J)    0.000011590000
DRAM_ENERGY_CNT:PACKAGE1 (J)    0.000009756000


Energy in total:
PACKAGE_ENERGY:PACKAGE0 (J) 1.423767089000
PACKAGE_ENERGY:PACKAGE1 (J) 1.473144531000
DRAM_ENERGY:PACKAGE0    (J) 0.176849365000
DRAM_ENERGY:PACKAGE1    (J) 0.148864746000

Total time:  0.025709999725 (s)
Power (W) 125.345226193778
==================================================================


---------------------------------------------------------------------------------------------

OMP_NUM_THREADS= 16 : 

Input File: /home/users/amarkou/DIPLOMA/rodinia_3.1/data/b+tree/mil.txt 
Command File: /home/users/amarkou/DIPLOMA/rodinia_3.1/data/b+tree/command.txt 
Command Buffer: 
j 6000 3000
k 10000

Getting input from file cores...
Transforming data to a GPU suitable structure...
Tree transformation took 0.188307
Waiting for command
> 
******command: j count=6000, rSize=6000 
Time spent in different stages of CPU/MCPU KERNEL:
 0.000005000000 s,  0.341763496399 % : MCPU: SET DEVICE
 0.001458000042 s, 99.658241271973 % : CPU/MCPU: KERNEL
Total time:
0.001462999964 s
> > > > > > > > > > > > 
 ******command: k count=10000 
Time spent in different stages of CPU/MCPU KERNEL:
 0.000001000000 s,  0.056465271860 % : MCPU: SET DEVICE
 0.001769999973 s, 99.943534851074 % : CPU/MCPU: KERNEL
Total time:
0.001770999981 s
> > > > > > > > > PAPI measurements:(rapl)> > > > > > > > > > > >
Counting Energy Consumption:
PACKAGE_ENERGY_CNT:PACKAGE0 (J) 0.000022012000
PACKAGE_ENERGY_CNT:PACKAGE1 (J) 0.000021500000
DRAM_ENERGY_CNT:PACKAGE0 (J)    0.000010263000
DRAM_ENERGY_CNT:PACKAGE1 (J)    0.000008727000


Energy in total:
PACKAGE_ENERGY:PACKAGE0 (J) 1.343505859000
PACKAGE_ENERGY:PACKAGE1 (J) 1.312255859000
DRAM_ENERGY:PACKAGE0    (J) 0.156600952000
DRAM_ENERGY:PACKAGE1    (J) 0.133163452000

Total time:  0.022929999977 (s)
Power (W) 128.457310288248
==================================================================


---------------------------------------------------------------------------------------------

OMP_NUM_THREADS= 17 : 

Input File: /home/users/amarkou/DIPLOMA/rodinia_3.1/data/b+tree/mil.txt 
Command File: /home/users/amarkou/DIPLOMA/rodinia_3.1/data/b+tree/command.txt 
Command Buffer: 
j 6000 3000
k 10000

Getting input from file cores...
Transforming data to a GPU suitable structure...
Tree transformation took 0.182681
Waiting for command
> 
******command: j count=6000, rSize=6000 
Time spent in different stages of CPU/MCPU KERNEL:
 0.000006000000 s,  0.423429757357 % : MCPU: SET DEVICE
 0.001411000034 s, 99.576568603516 % : CPU/MCPU: KERNEL
Total time:
0.001416999963 s
> > > > > > > > > > > > 
 ******command: k count=10000 
Time spent in different stages of CPU/MCPU KERNEL:
 0.000000000000 s,  0.000000000000 % : MCPU: SET DEVICE
 0.001643999945 s, 100.000000000000 % : CPU/MCPU: KERNEL
Total time:
0.001643999945 s
> > > > > > > > > PAPI measurements:(rapl)> > > > > > > > > > > >
Counting Energy Consumption:
PACKAGE_ENERGY_CNT:PACKAGE0 (J) 0.000016970000
PACKAGE_ENERGY_CNT:PACKAGE1 (J) 0.000016501000
DRAM_ENERGY_CNT:PACKAGE0 (J)    0.000008092000
DRAM_ENERGY_CNT:PACKAGE1 (J)    0.000006636000


Energy in total:
PACKAGE_ENERGY:PACKAGE0 (J) 1.035766601000
PACKAGE_ENERGY:PACKAGE1 (J) 1.007141113000
DRAM_ENERGY:PACKAGE0    (J) 0.123474121000
DRAM_ENERGY:PACKAGE1    (J) 0.101257324000

Total time:  0.016247000545 (s)
Power (W) 139.572787769809
==================================================================


---------------------------------------------------------------------------------------------

OMP_NUM_THREADS= 18 : 

Input File: /home/users/amarkou/DIPLOMA/rodinia_3.1/data/b+tree/mil.txt 
Command File: /home/users/amarkou/DIPLOMA/rodinia_3.1/data/b+tree/command.txt 
Command Buffer: 
j 6000 3000
k 10000

Getting input from file cores...
Transforming data to a GPU suitable structure...
Tree transformation took 0.178504
Waiting for command
> 
******command: j count=6000, rSize=6000 
Time spent in different stages of CPU/MCPU KERNEL:
 0.000004000000 s,  0.283286124468 % : MCPU: SET DEVICE
 0.001408000011 s, 99.716712951660 % : CPU/MCPU: KERNEL
Total time:
0.001412000041 s
> > > > > > > > > > > > 
 ******command: k count=10000 
Time spent in different stages of CPU/MCPU KERNEL:
 0.000000000000 s,  0.000000000000 % : MCPU: SET DEVICE
 0.000982000027 s, 100.000000000000 % : CPU/MCPU: KERNEL
Total time:
0.000982000027 s
> > > > > > > > > PAPI measurements:(rapl)> > > > > > > > > > > >
Counting Energy Consumption:
PACKAGE_ENERGY_CNT:PACKAGE0 (J) 0.000014426000
PACKAGE_ENERGY_CNT:PACKAGE1 (J) 0.000013725000
DRAM_ENERGY_CNT:PACKAGE0 (J)    0.000006820000
DRAM_ENERGY_CNT:PACKAGE1 (J)    0.000005464000


Energy in total:
PACKAGE_ENERGY:PACKAGE0 (J) 0.880493164000
PACKAGE_ENERGY:PACKAGE1 (J) 0.837707519000
DRAM_ENERGY:PACKAGE0    (J) 0.104064941000
DRAM_ENERGY:PACKAGE1    (J) 0.083374023000

Total time:  0.014580000192 (s)
Power (W) 130.702306029815
==================================================================


---------------------------------------------------------------------------------------------

OMP_NUM_THREADS= 19 : 

Input File: /home/users/amarkou/DIPLOMA/rodinia_3.1/data/b+tree/mil.txt 
Command File: /home/users/amarkou/DIPLOMA/rodinia_3.1/data/b+tree/command.txt 
Command Buffer: 
j 6000 3000
k 10000

Getting input from file cores...
Transforming data to a GPU suitable structure...
Tree transformation took 0.184845
Waiting for command
> 
******command: j count=6000, rSize=6000 
Time spent in different stages of CPU/MCPU KERNEL:
 0.000005000000 s,  0.369276225567 % : MCPU: SET DEVICE
 0.001349000027 s, 99.630722045898 % : CPU/MCPU: KERNEL
Total time:
0.001353999949 s
> > > > > > > > > > > > 
 ******command: k count=10000 
Time spent in different stages of CPU/MCPU KERNEL:
 0.000000000000 s,  0.000000000000 % : MCPU: SET DEVICE
 0.001497999998 s, 100.000000000000 % : CPU/MCPU: KERNEL
Total time:
0.001497999998 s
> > > > > > > > > PAPI measurements:(rapl)> > > > > > > > > > > >
Counting Energy Consumption:
PACKAGE_ENERGY_CNT:PACKAGE0 (J) 0.000017481000
PACKAGE_ENERGY_CNT:PACKAGE1 (J) 0.000017396000
DRAM_ENERGY_CNT:PACKAGE0 (J)    0.000008466000
DRAM_ENERGY_CNT:PACKAGE1 (J)    0.000007032000


Energy in total:
PACKAGE_ENERGY:PACKAGE0 (J) 1.066955566000
PACKAGE_ENERGY:PACKAGE1 (J) 1.061767578000
DRAM_ENERGY:PACKAGE0    (J) 0.129180908000
DRAM_ENERGY:PACKAGE1    (J) 0.107299804000

Total time:  0.018883999437 (s)
Power (W) 125.249095875000
==================================================================


---------------------------------------------------------------------------------------------

OMP_NUM_THREADS= 20 : 

Input File: /home/users/amarkou/DIPLOMA/rodinia_3.1/data/b+tree/mil.txt 
Command File: /home/users/amarkou/DIPLOMA/rodinia_3.1/data/b+tree/command.txt 
Command Buffer: 
j 6000 3000
k 10000

Getting input from file cores...
Transforming data to a GPU suitable structure...
Tree transformation took 0.185871
Waiting for command
> 
******command: j count=6000, rSize=6000 
Time spent in different stages of CPU/MCPU KERNEL:
 0.000005000000 s,  0.370644927025 % : MCPU: SET DEVICE
 0.001343999989 s, 99.629356384277 % : CPU/MCPU: KERNEL
Total time:
0.001349000027 s
> > > > > > > > > > > > 
 ******command: k count=10000 
Time spent in different stages of CPU/MCPU KERNEL:
 0.000001000000 s,  0.070521861315 % : MCPU: SET DEVICE
 0.001416999963 s, 99.929473876953 % : CPU/MCPU: KERNEL
Total time:
0.001417999971 s
> > > > > > > > > PAPI measurements:(rapl)> > > > > > > > > > > >
Counting Energy Consumption:
PACKAGE_ENERGY_CNT:PACKAGE0 (J) 0.000022892000
PACKAGE_ENERGY_CNT:PACKAGE1 (J) 0.000022620000
DRAM_ENERGY_CNT:PACKAGE0 (J)    0.000010959000
DRAM_ENERGY_CNT:PACKAGE1 (J)    0.000009309000


Energy in total:
PACKAGE_ENERGY:PACKAGE0 (J) 1.397216796000
PACKAGE_ENERGY:PACKAGE1 (J) 1.380615234000
DRAM_ENERGY:PACKAGE0    (J) 0.167221069000
DRAM_ENERGY:PACKAGE1    (J) 0.142044067000

Total time:  0.023505000398 (s)
Power (W) 131.337890397146
==================================================================


---------------------------------------------------------------------------------------------

OMP_NUM_THREADS= 21 : 

Input File: /home/users/amarkou/DIPLOMA/rodinia_3.1/data/b+tree/mil.txt 
Command File: /home/users/amarkou/DIPLOMA/rodinia_3.1/data/b+tree/command.txt 
Command Buffer: 
j 6000 3000
k 10000

Getting input from file cores...
Transforming data to a GPU suitable structure...
Tree transformation took 0.184540
Waiting for command
> 
******command: j count=6000, rSize=6000 
Time spent in different stages of CPU/MCPU KERNEL:
 0.000005000000 s,  0.369276225567 % : MCPU: SET DEVICE
 0.001349000027 s, 99.630722045898 % : CPU/MCPU: KERNEL
Total time:
0.001353999949 s
> > > > > > > > > > > > 
 ******command: k count=10000 
Time spent in different stages of CPU/MCPU KERNEL:
 0.000001000000 s,  0.071787506342 % : MCPU: SET DEVICE
 0.001392000006 s, 99.928215026855 % : CPU/MCPU: KERNEL
Total time:
0.001393000013 s
> > > > > > > > > PAPI measurements:(rapl)> > > > > > > > > > > >
Counting Energy Consumption:
PACKAGE_ENERGY_CNT:PACKAGE0 (J) 0.000020090000
PACKAGE_ENERGY_CNT:PACKAGE1 (J) 0.000019374000
DRAM_ENERGY_CNT:PACKAGE0 (J)    0.000009276000
DRAM_ENERGY_CNT:PACKAGE1 (J)    0.000007834000


Energy in total:
PACKAGE_ENERGY:PACKAGE0 (J) 1.226196289000
PACKAGE_ENERGY:PACKAGE1 (J) 1.182495117000
DRAM_ENERGY:PACKAGE0    (J) 0.141540527000
DRAM_ENERGY:PACKAGE1    (J) 0.119537353000

Total time:  0.020390000194 (s)
Power (W) 130.935226118579
==================================================================


---------------------------------------------------------------------------------------------

OMP_NUM_THREADS= 22 : 

Input File: /home/users/amarkou/DIPLOMA/rodinia_3.1/data/b+tree/mil.txt 
Command File: /home/users/amarkou/DIPLOMA/rodinia_3.1/data/b+tree/command.txt 
Command Buffer: 
j 6000 3000
k 10000

Getting input from file cores...
Transforming data to a GPU suitable structure...
Tree transformation took 0.186223
Waiting for command
> 
******command: j count=6000, rSize=6000 
Time spent in different stages of CPU/MCPU KERNEL:
 0.000005000000 s,  0.386100381613 % : MCPU: SET DEVICE
 0.001290000044 s, 99.613899230957 % : CPU/MCPU: KERNEL
Total time:
0.001294999965 s
> > > > > > > > > > > > 
 ******command: k count=10000 
Time spent in different stages of CPU/MCPU KERNEL:
 0.000001000000 s,  0.121212124825 % : MCPU: SET DEVICE
 0.000823999988 s, 99.878784179688 % : CPU/MCPU: KERNEL
Total time:
0.000824999996 s
> > > > > > > > > PAPI measurements:(rapl)> > > > > > > > > > > >
Counting Energy Consumption:
PACKAGE_ENERGY_CNT:PACKAGE0 (J) 0.000020822000
PACKAGE_ENERGY_CNT:PACKAGE1 (J) 0.000019935000
DRAM_ENERGY_CNT:PACKAGE0 (J)    0.000009315000
DRAM_ENERGY_CNT:PACKAGE1 (J)    0.000008033000


Energy in total:
PACKAGE_ENERGY:PACKAGE0 (J) 1.270874023000
PACKAGE_ENERGY:PACKAGE1 (J) 1.216735839000
DRAM_ENERGY:PACKAGE0    (J) 0.142135620000
DRAM_ENERGY:PACKAGE1    (J) 0.122573852000

Total time:  0.021159000695 (s)
Power (W) 130.077945253940
==================================================================


---------------------------------------------------------------------------------------------

OMP_NUM_THREADS= 23 : 

Input File: /home/users/amarkou/DIPLOMA/rodinia_3.1/data/b+tree/mil.txt 
Command File: /home/users/amarkou/DIPLOMA/rodinia_3.1/data/b+tree/command.txt 
Command Buffer: 
j 6000 3000
k 10000

Getting input from file cores...
Transforming data to a GPU suitable structure...
Tree transformation took 0.183227
Waiting for command
> 
******command: j count=6000, rSize=6000 
Time spent in different stages of CPU/MCPU KERNEL:
 0.000005000000 s,  0.387897610664 % : MCPU: SET DEVICE
 0.001283999998 s, 99.612106323242 % : CPU/MCPU: KERNEL
Total time:
0.001289000036 s
> > > > > > > > > > > > 
 ******command: k count=10000 
Time spent in different stages of CPU/MCPU KERNEL:
 0.000000000000 s,  0.000000000000 % : MCPU: SET DEVICE
 0.001277999952 s, 100.000000000000 % : CPU/MCPU: KERNEL
Total time:
0.001277999952 s
> > > > > > > > > PAPI measurements:(rapl)> > > > > > > > > > > >
Counting Energy Consumption:
PACKAGE_ENERGY_CNT:PACKAGE0 (J) 0.000021867000
PACKAGE_ENERGY_CNT:PACKAGE1 (J) 0.000020628000
DRAM_ENERGY_CNT:PACKAGE0 (J)    0.000009964000
DRAM_ENERGY_CNT:PACKAGE1 (J)    0.000008475000


Energy in total:
PACKAGE_ENERGY:PACKAGE0 (J) 1.334655761000
PACKAGE_ENERGY:PACKAGE1 (J) 1.259033203000
DRAM_ENERGY:PACKAGE0    (J) 0.152038574000
DRAM_ENERGY:PACKAGE1    (J) 0.129318237000

Total time:  0.022304000333 (s)
Power (W) 128.902696022312
==================================================================


---------------------------------------------------------------------------------------------

OMP_NUM_THREADS= 24 : 

Input File: /home/users/amarkou/DIPLOMA/rodinia_3.1/data/b+tree/mil.txt 
Command File: /home/users/amarkou/DIPLOMA/rodinia_3.1/data/b+tree/command.txt 
Command Buffer: 
j 6000 3000
k 10000

Getting input from file cores...
Transforming data to a GPU suitable structure...
Tree transformation took 0.184491
Waiting for command
> 
******command: j count=6000, rSize=6000 
Time spent in different stages of CPU/MCPU KERNEL:
 0.000005000000 s,  0.391236305237 % : MCPU: SET DEVICE
 0.001273000031 s, 99.608764648438 % : CPU/MCPU: KERNEL
Total time:
0.001277999952 s
> > > > > > > > > > > > 
 ******command: k count=10000 
Time spent in different stages of CPU/MCPU KERNEL:
 0.000000000000 s,  0.000000000000 % : MCPU: SET DEVICE
 0.001200999948 s, 100.000000000000 % : CPU/MCPU: KERNEL
Total time:
0.001200999948 s
> > > > > > > > > PAPI measurements:(rapl)> > > > > > > > > > > >
Counting Energy Consumption:
PACKAGE_ENERGY_CNT:PACKAGE0 (J) 0.000017375000
PACKAGE_ENERGY_CNT:PACKAGE1 (J) 0.000016779000
DRAM_ENERGY_CNT:PACKAGE0 (J)    0.000007632000
DRAM_ENERGY_CNT:PACKAGE1 (J)    0.000006624000


Energy in total:
PACKAGE_ENERGY:PACKAGE0 (J) 1.060485839000
PACKAGE_ENERGY:PACKAGE1 (J) 1.024108886000
DRAM_ENERGY:PACKAGE0    (J) 0.116455078000
DRAM_ENERGY:PACKAGE1    (J) 0.101074218000

Total time:  0.017707999796 (s)
Power (W) 130.004746304675
==================================================================


---------------------------------------------------------------------------------------------

OMP_NUM_THREADS= 25 : 

Input File: /home/users/amarkou/DIPLOMA/rodinia_3.1/data/b+tree/mil.txt 
Command File: /home/users/amarkou/DIPLOMA/rodinia_3.1/data/b+tree/command.txt 
Command Buffer: 
j 6000 3000
k 10000

Getting input from file cores...
Transforming data to a GPU suitable structure...
Tree transformation took 0.186099
Waiting for command
> 
******command: j count=6000, rSize=6000 
Time spent in different stages of CPU/MCPU KERNEL:
 0.000005000000 s,  0.394944697618 % : MCPU: SET DEVICE
 0.001261000056 s, 99.605056762695 % : CPU/MCPU: KERNEL
Total time:
0.001265999977 s
> > > > > > > > > > > > 
 ******command: k count=10000 
Time spent in different stages of CPU/MCPU KERNEL:
 0.000000000000 s,  0.000000000000 % : MCPU: SET DEVICE
 0.001155999955 s, 100.000000000000 % : CPU/MCPU: KERNEL
Total time:
0.001155999955 s
> > > > > > > > > PAPI measurements:(rapl)> > > > > > > > > > > >
Counting Energy Consumption:
PACKAGE_ENERGY_CNT:PACKAGE0 (J) 0.000016221000
PACKAGE_ENERGY_CNT:PACKAGE1 (J) 0.000016116000
DRAM_ENERGY_CNT:PACKAGE0 (J)    0.000007487000
DRAM_ENERGY_CNT:PACKAGE1 (J)    0.000006399000


Energy in total:
PACKAGE_ENERGY:PACKAGE0 (J) 0.990051269000
PACKAGE_ENERGY:PACKAGE1 (J) 0.983642578000
DRAM_ENERGY:PACKAGE0    (J) 0.114242553000
DRAM_ENERGY:PACKAGE1    (J) 0.097640991000

Total time:  0.016100000590 (s)
Power (W) 135.750143533897
==================================================================


---------------------------------------------------------------------------------------------

OMP_NUM_THREADS= 26 : 

Input File: /home/users/amarkou/DIPLOMA/rodinia_3.1/data/b+tree/mil.txt 
Command File: /home/users/amarkou/DIPLOMA/rodinia_3.1/data/b+tree/command.txt 
Command Buffer: 
j 6000 3000
k 10000

Getting input from file cores...
Transforming data to a GPU suitable structure...
Tree transformation took 0.186857
Waiting for command
> 
******command: j count=6000, rSize=6000 
Time spent in different stages of CPU/MCPU KERNEL:
 0.000004000000 s,  0.307929158211 % : MCPU: SET DEVICE
 0.001294999965 s, 99.692070007324 % : CPU/MCPU: KERNEL
Total time:
0.001298999996 s
> > > > > > > > > > > > 
 ******command: k count=10000 
Time spent in different stages of CPU/MCPU KERNEL:
 0.000000000000 s,  0.000000000000 % : MCPU: SET DEVICE
 0.001123000053 s, 100.000000000000 % : CPU/MCPU: KERNEL
Total time:
0.001123000053 s
> > > > > > > > > PAPI measurements:(rapl)> > > > > > > > > > > >
Counting Energy Consumption:
PACKAGE_ENERGY_CNT:PACKAGE0 (J) 0.000057049000
PACKAGE_ENERGY_CNT:PACKAGE1 (J) 0.000053577000
DRAM_ENERGY_CNT:PACKAGE0 (J)    0.000025457000
DRAM_ENERGY_CNT:PACKAGE1 (J)    0.000023411000


Energy in total:
PACKAGE_ENERGY:PACKAGE0 (J) 3.481994628000
PACKAGE_ENERGY:PACKAGE1 (J) 3.270080566000
DRAM_ENERGY:PACKAGE0    (J) 0.388442993000
DRAM_ENERGY:PACKAGE1    (J) 0.357223510000

Total time:  0.063363000751 (s)
Power (W) 118.329965566473
==================================================================


---------------------------------------------------------------------------------------------

OMP_NUM_THREADS= 27 : 

Input File: /home/users/amarkou/DIPLOMA/rodinia_3.1/data/b+tree/mil.txt 
Command File: /home/users/amarkou/DIPLOMA/rodinia_3.1/data/b+tree/command.txt 
Command Buffer: 
j 6000 3000
k 10000

Getting input from file cores...
Transforming data to a GPU suitable structure...
Tree transformation took 0.183618
Waiting for command
> 
******command: j count=6000, rSize=6000 
Time spent in different stages of CPU/MCPU KERNEL:
 0.000004000000 s,  0.317712485790 % : MCPU: SET DEVICE
 0.001255000010 s, 99.682289123535 % : CPU/MCPU: KERNEL
Total time:
0.001259000041 s
> > > > > > > > > > > > 
 ******command: k count=10000 
Time spent in different stages of CPU/MCPU KERNEL:
 0.000000000000 s,  0.000000000000 % : MCPU: SET DEVICE
 0.001071000006 s, 100.000000000000 % : CPU/MCPU: KERNEL
Total time:
0.001071000006 s
> > > > > > > > > PAPI measurements:(rapl)> > > > > > > > > > > >
Counting Energy Consumption:
PACKAGE_ENERGY_CNT:PACKAGE0 (J) 0.000018666000
PACKAGE_ENERGY_CNT:PACKAGE1 (J) 0.000017730000
DRAM_ENERGY_CNT:PACKAGE0 (J)    0.000008104000
DRAM_ENERGY_CNT:PACKAGE1 (J)    0.000006974000


Energy in total:
PACKAGE_ENERGY:PACKAGE0 (J) 1.139282226000
PACKAGE_ENERGY:PACKAGE1 (J) 1.082153320000
DRAM_ENERGY:PACKAGE0    (J) 0.123657226000
DRAM_ENERGY:PACKAGE1    (J) 0.106414794000

Total time:  0.018211999908 (s)
Power (W) 134.609465098397
==================================================================


---------------------------------------------------------------------------------------------

OMP_NUM_THREADS= 28 : 

Input File: /home/users/amarkou/DIPLOMA/rodinia_3.1/data/b+tree/mil.txt 
Command File: /home/users/amarkou/DIPLOMA/rodinia_3.1/data/b+tree/command.txt 
Command Buffer: 
j 6000 3000
k 10000

Getting input from file cores...
Transforming data to a GPU suitable structure...
Tree transformation took 0.181243
Waiting for command
> 
******command: j count=6000, rSize=6000 
Time spent in different stages of CPU/MCPU KERNEL:
 0.000005000000 s,  0.392156898975 % : MCPU: SET DEVICE
 0.001270000008 s, 99.607841491699 % : CPU/MCPU: KERNEL
Total time:
0.001275000046 s
> > > > > > > > > > > > 
 ******command: k count=10000 
Time spent in different stages of CPU/MCPU KERNEL:
 0.000000000000 s,  0.000000000000 % : MCPU: SET DEVICE
 0.001045000041 s, 100.000000000000 % : CPU/MCPU: KERNEL
Total time:
0.001045000041 s
> > > > > > > > > PAPI measurements:(rapl)> > > > > > > > > > > >
Counting Energy Consumption:
PACKAGE_ENERGY_CNT:PACKAGE0 (J) 0.000014949000
PACKAGE_ENERGY_CNT:PACKAGE1 (J) 0.000014449000
DRAM_ENERGY_CNT:PACKAGE0 (J)    0.000006473000
DRAM_ENERGY_CNT:PACKAGE1 (J)    0.000005538000


Energy in total:
PACKAGE_ENERGY:PACKAGE0 (J) 0.912414550000
PACKAGE_ENERGY:PACKAGE1 (J) 0.881896972000
DRAM_ENERGY:PACKAGE0    (J) 0.098770141000
DRAM_ENERGY:PACKAGE1    (J) 0.084503173000

Total time:  0.014096999541 (s)
Power (W) 140.284095935370
==================================================================


---------------------------------------------------------------------------------------------

OMP_NUM_THREADS= 29 : 

Input File: /home/users/amarkou/DIPLOMA/rodinia_3.1/data/b+tree/mil.txt 
Command File: /home/users/amarkou/DIPLOMA/rodinia_3.1/data/b+tree/command.txt 
Command Buffer: 
j 6000 3000
k 10000

Getting input from file cores...
Transforming data to a GPU suitable structure...
Tree transformation took 0.184355
Waiting for command
> 
******command: j count=6000, rSize=6000 
Time spent in different stages of CPU/MCPU KERNEL:
 0.000004000000 s,  0.253646165133 % : MCPU: SET DEVICE
 0.001572999987 s, 99.746353149414 % : CPU/MCPU: KERNEL
Total time:
0.001577000017 s
> > > > > > > > > > > > 
 ******command: k count=10000 
Time spent in different stages of CPU/MCPU KERNEL:
 0.000001000000 s,  0.096805423498 % : MCPU: SET DEVICE
 0.001031999942 s, 99.903198242188 % : CPU/MCPU: KERNEL
Total time:
0.001032999950 s
> > > > > > > > > PAPI measurements:(rapl)> > > > > > > > > > > >
Counting Energy Consumption:
PACKAGE_ENERGY_CNT:PACKAGE0 (J) 0.000027648000
PACKAGE_ENERGY_CNT:PACKAGE1 (J) 0.000026076000
DRAM_ENERGY_CNT:PACKAGE0 (J)    0.000012512000
DRAM_ENERGY_CNT:PACKAGE1 (J)    0.000010983000


Energy in total:
PACKAGE_ENERGY:PACKAGE0 (J) 1.687500000000
PACKAGE_ENERGY:PACKAGE1 (J) 1.591552734000
DRAM_ENERGY:PACKAGE0    (J) 0.190917968000
DRAM_ENERGY:PACKAGE1    (J) 0.167587280000

Total time:  0.028712999076 (s)
Power (W) 126.686800372751
==================================================================


---------------------------------------------------------------------------------------------

OMP_NUM_THREADS= 30 : 

Input File: /home/users/amarkou/DIPLOMA/rodinia_3.1/data/b+tree/mil.txt 
Command File: /home/users/amarkou/DIPLOMA/rodinia_3.1/data/b+tree/command.txt 
Command Buffer: 
j 6000 3000
k 10000

Getting input from file cores...
Transforming data to a GPU suitable structure...
Tree transformation took 0.186999
Waiting for command
> 
******command: j count=6000, rSize=6000 
Time spent in different stages of CPU/MCPU KERNEL:
 0.000004000000 s,  0.259067356586 % : MCPU: SET DEVICE
 0.001539999968 s, 99.740936279297 % : CPU/MCPU: KERNEL
Total time:
0.001543999999 s
> > > > > > > > > > > > 
 ******command: k count=10000 
Time spent in different stages of CPU/MCPU KERNEL:
 0.000001000000 s,  0.100704938173 % : MCPU: SET DEVICE
 0.000991999987 s, 99.899299621582 % : CPU/MCPU: KERNEL
Total time:
0.000992999994 s
> > > > > > > > > PAPI measurements:(rapl)> > > > > > > > > > > >
Counting Energy Consumption:
PACKAGE_ENERGY_CNT:PACKAGE0 (J) 0.000017742000
PACKAGE_ENERGY_CNT:PACKAGE1 (J) 0.000019060000
DRAM_ENERGY_CNT:PACKAGE0 (J)    0.000008591000
DRAM_ENERGY_CNT:PACKAGE1 (J)    0.000007683000


Energy in total:
PACKAGE_ENERGY:PACKAGE0 (J) 1.082885742000
PACKAGE_ENERGY:PACKAGE1 (J) 1.163330078000
DRAM_ENERGY:PACKAGE0    (J) 0.131088256000
DRAM_ENERGY:PACKAGE1    (J) 0.117233276000

Total time:  0.019894000143 (s)
Power (W) 125.391441343747
==================================================================


---------------------------------------------------------------------------------------------

OMP_NUM_THREADS= 31 : 

Input File: /home/users/amarkou/DIPLOMA/rodinia_3.1/data/b+tree/mil.txt 
Command File: /home/users/amarkou/DIPLOMA/rodinia_3.1/data/b+tree/command.txt 
Command Buffer: 
j 6000 3000
k 10000

Getting input from file cores...
Transforming data to a GPU suitable structure...
Tree transformation took 0.185164
Waiting for command
> 
******command: j count=6000, rSize=6000 
Time spent in different stages of CPU/MCPU KERNEL:
 0.000005000000 s,  0.314267754555 % : MCPU: SET DEVICE
 0.001585999969 s, 99.685737609863 % : CPU/MCPU: KERNEL
Total time:
0.001591000007 s
> > > > > > > > > > > > 
 ******command: k count=10000 
Time spent in different stages of CPU/MCPU KERNEL:
 0.000000000000 s,  0.000000000000 % : MCPU: SET DEVICE
 0.001006999984 s, 100.000000000000 % : CPU/MCPU: KERNEL
Total time:
0.001006999984 s
> > > > > > > > > PAPI measurements:(rapl)> > > > > > > > > > > >
Counting Energy Consumption:
PACKAGE_ENERGY_CNT:PACKAGE0 (J) 0.000019377000
PACKAGE_ENERGY_CNT:PACKAGE1 (J) 0.000018805000
DRAM_ENERGY_CNT:PACKAGE0 (J)    0.000008336000
DRAM_ENERGY_CNT:PACKAGE1 (J)    0.000007280000


Energy in total:
PACKAGE_ENERGY:PACKAGE0 (J) 1.182678222000
PACKAGE_ENERGY:PACKAGE1 (J) 1.147766113000
DRAM_ENERGY:PACKAGE0    (J) 0.127197265000
DRAM_ENERGY:PACKAGE1    (J) 0.111083984000

Total time:  0.018843999133 (s)
Power (W) 136.315310032457
==================================================================


---------------------------------------------------------------------------------------------

OMP_NUM_THREADS= 32 : 

Input File: /home/users/amarkou/DIPLOMA/rodinia_3.1/data/b+tree/mil.txt 
Command File: /home/users/amarkou/DIPLOMA/rodinia_3.1/data/b+tree/command.txt 
Command Buffer: 
j 6000 3000
k 10000

Getting input from file cores...
Transforming data to a GPU suitable structure...
Tree transformation took 0.188131
Waiting for command
> 
******command: j count=6000, rSize=6000 
Time spent in different stages of CPU/MCPU KERNEL:
 0.000005000000 s,  0.316656112671 % : MCPU: SET DEVICE
 0.001573999994 s, 99.683341979980 % : CPU/MCPU: KERNEL
Total time:
0.001579000033 s
> > > > > > > > > > > > 
 ******command: k count=10000 
Time spent in different stages of CPU/MCPU KERNEL:
 0.000000000000 s,  0.000000000000 % : MCPU: SET DEVICE
 0.000971000001 s, 100.000000000000 % : CPU/MCPU: KERNEL
Total time:
0.000971000001 s
> > > > > > > > > PAPI measurements:(rapl)> > > > > > > > > > > >
Counting Energy Consumption:
PACKAGE_ENERGY_CNT:PACKAGE0 (J) 0.000024987000
PACKAGE_ENERGY_CNT:PACKAGE1 (J) 0.000024964000
DRAM_ENERGY_CNT:PACKAGE0 (J)    0.000011640000
DRAM_ENERGY_CNT:PACKAGE1 (J)    0.000010084000


Energy in total:
PACKAGE_ENERGY:PACKAGE0 (J) 1.525085449000
PACKAGE_ENERGY:PACKAGE1 (J) 1.523681640000
DRAM_ENERGY:PACKAGE0    (J) 0.177612304000
DRAM_ENERGY:PACKAGE1    (J) 0.153869628000

Total time:  0.026713000610 (s)
Power (W) 126.539473056240
==================================================================


---------------------------------------------------------------------------------------------

OMP_NUM_THREADS= 33 : 

Input File: /home/users/amarkou/DIPLOMA/rodinia_3.1/data/b+tree/mil.txt 
Command File: /home/users/amarkou/DIPLOMA/rodinia_3.1/data/b+tree/command.txt 
Command Buffer: 
j 6000 3000
k 10000

Getting input from file cores...
Transforming data to a GPU suitable structure...
Tree transformation took 0.185023
Waiting for command
> 
******command: j count=6000, rSize=6000 
Time spent in different stages of CPU/MCPU KERNEL:
 0.000004000000 s,  0.248911023140 % : MCPU: SET DEVICE
 0.001602999982 s, 99.751091003418 % : CPU/MCPU: KERNEL
Total time:
0.001607000013 s
> > > > > > > > > > > > 
 ******command: k count=10000 
Time spent in different stages of CPU/MCPU KERNEL:
 0.000000000000 s,  0.000000000000 % : MCPU: SET DEVICE
 0.000923999993 s, 100.000000000000 % : CPU/MCPU: KERNEL
Total time:
0.000923999993 s
> > > > > > > > > PAPI measurements:(rapl)> > > > > > > > > > > >
Counting Energy Consumption:
PACKAGE_ENERGY_CNT:PACKAGE0 (J) 0.000015747000
PACKAGE_ENERGY_CNT:PACKAGE1 (J) 0.000016056000
DRAM_ENERGY_CNT:PACKAGE0 (J)    0.000007237000
DRAM_ENERGY_CNT:PACKAGE1 (J)    0.000006223000


Energy in total:
PACKAGE_ENERGY:PACKAGE0 (J) 0.961120605000
PACKAGE_ENERGY:PACKAGE1 (J) 0.979980468000
DRAM_ENERGY:PACKAGE0    (J) 0.110427856000
DRAM_ENERGY:PACKAGE1    (J) 0.094955444000

Total time:  0.015740999952 (s)
Power (W) 136.362644022047
==================================================================


---------------------------------------------------------------------------------------------

OMP_NUM_THREADS= 34 : 

Input File: /home/users/amarkou/DIPLOMA/rodinia_3.1/data/b+tree/mil.txt 
Command File: /home/users/amarkou/DIPLOMA/rodinia_3.1/data/b+tree/command.txt 
Command Buffer: 
j 6000 3000
k 10000

Getting input from file cores...
Transforming data to a GPU suitable structure...
Tree transformation took 0.184161
Waiting for command
> 
******command: j count=6000, rSize=6000 
Time spent in different stages of CPU/MCPU KERNEL:
 0.000005000000 s,  0.320924252272 % : MCPU: SET DEVICE
 0.001552999951 s, 99.679077148438 % : CPU/MCPU: KERNEL
Total time:
0.001557999989 s
> > > > > > > > > > > > 
 ******command: k count=10000 
Time spent in different stages of CPU/MCPU KERNEL:
 0.000001000000 s,  0.110011003911 % : MCPU: SET DEVICE
 0.000907999987 s, 99.889984130859 % : CPU/MCPU: KERNEL
Total time:
0.000908999995 s
> > > > > > > > > PAPI measurements:(rapl)> > > > > > > > > > > >
Counting Energy Consumption:
PACKAGE_ENERGY_CNT:PACKAGE0 (J) 0.000014965000
PACKAGE_ENERGY_CNT:PACKAGE1 (J) 0.000015245000
DRAM_ENERGY_CNT:PACKAGE0 (J)    0.000006883000
DRAM_ENERGY_CNT:PACKAGE1 (J)    0.000005876000


Energy in total:
PACKAGE_ENERGY:PACKAGE0 (J) 0.913391113000
PACKAGE_ENERGY:PACKAGE1 (J) 0.875061035000
DRAM_ENERGY:PACKAGE0    (J) 0.105026245000
DRAM_ENERGY:PACKAGE1    (J) 0.089660644000

Total time:  0.014239000157 (s)
Power (W) 139.275160839975
==================================================================


---------------------------------------------------------------------------------------------

OMP_NUM_THREADS= 35 : 

Input File: /home/users/amarkou/DIPLOMA/rodinia_3.1/data/b+tree/mil.txt 
Command File: /home/users/amarkou/DIPLOMA/rodinia_3.1/data/b+tree/command.txt 
Command Buffer: 
j 6000 3000
k 10000

Getting input from file cores...
Transforming data to a GPU suitable structure...
Tree transformation took 0.184850
Waiting for command
> 
******command: j count=6000, rSize=6000 
Time spent in different stages of CPU/MCPU KERNEL:
 0.000005000000 s,  0.349406003952 % : MCPU: SET DEVICE
 0.001426000032 s, 99.650588989258 % : CPU/MCPU: KERNEL
Total time:
0.001430999953 s
> > > > > > > > > > > > 
 ******command: k count=10000 
Time spent in different stages of CPU/MCPU KERNEL:
 0.000001000000 s,  0.113636359572 % : MCPU: SET DEVICE
 0.000878999999 s, 99.886360168457 % : CPU/MCPU: KERNEL
Total time:
0.000880000007 s
> > > > > > > > > PAPI measurements:(rapl)> > > > > > > > > > > >
Counting Energy Consumption:
PACKAGE_ENERGY_CNT:PACKAGE0 (J) 0.000014676000
PACKAGE_ENERGY_CNT:PACKAGE1 (J) 0.000015243000
DRAM_ENERGY_CNT:PACKAGE0 (J)    0.000006722000
DRAM_ENERGY_CNT:PACKAGE1 (J)    0.000005861000


Energy in total:
PACKAGE_ENERGY:PACKAGE0 (J) 0.895751953000
PACKAGE_ENERGY:PACKAGE1 (J) 0.930358886000
DRAM_ENERGY:PACKAGE0    (J) 0.102569580000
DRAM_ENERGY:PACKAGE1    (J) 0.089431762000

Total time:  0.015368999913 (s)
Power (W) 131.310572736030
==================================================================


---------------------------------------------------------------------------------------------

OMP_NUM_THREADS= 36 : 

Input File: /home/users/amarkou/DIPLOMA/rodinia_3.1/data/b+tree/mil.txt 
Command File: /home/users/amarkou/DIPLOMA/rodinia_3.1/data/b+tree/command.txt 
Command Buffer: 
j 6000 3000
k 10000

Getting input from file cores...
Transforming data to a GPU suitable structure...
Tree transformation took 0.184447
Waiting for command
> 
******command: j count=6000, rSize=6000 
Time spent in different stages of CPU/MCPU KERNEL:
 0.000005000000 s,  0.312695443630 % : MCPU: SET DEVICE
 0.001594000030 s, 99.687301635742 % : CPU/MCPU: KERNEL
Total time:
0.001598999952 s
> > > > > > > > > > > > 
 ******command: k count=10000 
Time spent in different stages of CPU/MCPU KERNEL:
 0.000000000000 s,  0.000000000000 % : MCPU: SET DEVICE
 0.000884999987 s, 100.000000000000 % : CPU/MCPU: KERNEL
Total time:
0.000884999987 s
> > > > > > > > > PAPI measurements:(rapl)> > > > > > > > > > > >
Counting Energy Consumption:
PACKAGE_ENERGY_CNT:PACKAGE0 (J) 0.000015039000
PACKAGE_ENERGY_CNT:PACKAGE1 (J) 0.000013516000
DRAM_ENERGY_CNT:PACKAGE0 (J)    0.000006926000
DRAM_ENERGY_CNT:PACKAGE1 (J)    0.000005014000


Energy in total:
PACKAGE_ENERGY:PACKAGE0 (J) 0.917907714000
PACKAGE_ENERGY:PACKAGE1 (J) 0.824951171000
DRAM_ENERGY:PACKAGE0    (J) 0.105682373000
DRAM_ENERGY:PACKAGE1    (J) 0.076507568000

Total time:  0.013429000042 (s)
Power (W) 143.350124352147
==================================================================


---------------------------------------------------------------------------------------------

OMP_NUM_THREADS= 37 : 

Input File: /home/users/amarkou/DIPLOMA/rodinia_3.1/data/b+tree/mil.txt 
Command File: /home/users/amarkou/DIPLOMA/rodinia_3.1/data/b+tree/command.txt 
Command Buffer: 
j 6000 3000
k 10000

Getting input from file cores...
Transforming data to a GPU suitable structure...
Tree transformation took 0.187349
Waiting for command
> 
******command: j count=6000, rSize=6000 
Time spent in different stages of CPU/MCPU KERNEL:
 0.000004000000 s,  0.256246000528 % : MCPU: SET DEVICE
 0.001556999981 s, 99.743751525879 % : CPU/MCPU: KERNEL
Total time:
0.001561000012 s
> > > > > > > > > > > > 
 ******command: k count=10000 
Time spent in different stages of CPU/MCPU KERNEL:
 0.000000000000 s,  0.000000000000 % : MCPU: SET DEVICE
 0.000870999997 s, 100.000000000000 % : CPU/MCPU: KERNEL
Total time:
0.000870999997 s
> > > > > > > > > PAPI measurements:(rapl)> > > > > > > > > > > >
Counting Energy Consumption:
PACKAGE_ENERGY_CNT:PACKAGE0 (J) 0.000016806000
PACKAGE_ENERGY_CNT:PACKAGE1 (J) 0.000016304000
DRAM_ENERGY_CNT:PACKAGE0 (J)    0.000007933000
DRAM_ENERGY_CNT:PACKAGE1 (J)    0.000006614000


Energy in total:
PACKAGE_ENERGY:PACKAGE0 (J) 1.025756835000
PACKAGE_ENERGY:PACKAGE1 (J) 0.995117187000
DRAM_ENERGY:PACKAGE0    (J) 0.121047973000
DRAM_ENERGY:PACKAGE1    (J) 0.100921630000

Total time:  0.016947999597 (s)
Power (W) 132.336775925491
==================================================================


---------------------------------------------------------------------------------------------

OMP_NUM_THREADS= 38 : 

Input File: /home/users/amarkou/DIPLOMA/rodinia_3.1/data/b+tree/mil.txt 
Command File: /home/users/amarkou/DIPLOMA/rodinia_3.1/data/b+tree/command.txt 
Command Buffer: 
j 6000 3000
k 10000

Getting input from file cores...
Transforming data to a GPU suitable structure...
Tree transformation took 0.185377
Waiting for command
> 
******command: j count=6000, rSize=6000 
Time spent in different stages of CPU/MCPU KERNEL:
 0.000005000000 s,  0.324675321579 % : MCPU: SET DEVICE
 0.001535000047 s, 99.675331115723 % : CPU/MCPU: KERNEL
Total time:
0.001539999968 s
> > > > > > > > > > > > 
 ******command: k count=10000 
Time spent in different stages of CPU/MCPU KERNEL:
 0.000000000000 s,  0.000000000000 % : MCPU: SET DEVICE
 0.000837999978 s, 100.000000000000 % : CPU/MCPU: KERNEL
Total time:
0.000837999978 s
> > > > > > > > > PAPI measurements:(rapl)> > > > > > > > > > > >
Counting Energy Consumption:
PACKAGE_ENERGY_CNT:PACKAGE0 (J) 0.000022163000
PACKAGE_ENERGY_CNT:PACKAGE1 (J) 0.000021301000
DRAM_ENERGY_CNT:PACKAGE0 (J)    0.000010282000
DRAM_ENERGY_CNT:PACKAGE1 (J)    0.000008847000


Energy in total:
PACKAGE_ENERGY:PACKAGE0 (J) 1.352722167000
PACKAGE_ENERGY:PACKAGE1 (J) 1.300109863000
DRAM_ENERGY:PACKAGE0    (J) 0.156890869000
DRAM_ENERGY:PACKAGE1    (J) 0.134994506000

Total time:  0.023302000016 (s)
Power (W) 126.371873786856
==================================================================


---------------------------------------------------------------------------------------------

OMP_NUM_THREADS= 39 : 

Input File: /home/users/amarkou/DIPLOMA/rodinia_3.1/data/b+tree/mil.txt 
Command File: /home/users/amarkou/DIPLOMA/rodinia_3.1/data/b+tree/command.txt 
Command Buffer: 
j 6000 3000
k 10000

Getting input from file cores...
Transforming data to a GPU suitable structure...
Tree transformation took 0.185384
Waiting for command
> 
******command: j count=6000, rSize=6000 
Time spent in different stages of CPU/MCPU KERNEL:
 0.000004000000 s,  0.260756194592 % : MCPU: SET DEVICE
 0.001530000009 s, 99.739242553711 % : CPU/MCPU: KERNEL
Total time:
0.001534000039 s
> > > > > > > > > > > > 
 ******command: k count=10000 
Time spent in different stages of CPU/MCPU KERNEL:
 0.000000000000 s,  0.000000000000 % : MCPU: SET DEVICE
 0.000828000018 s, 100.000000000000 % : CPU/MCPU: KERNEL
Total time:
0.000828000018 s
> > > > > > > > > PAPI measurements:(rapl)> > > > > > > > > > > >
Counting Energy Consumption:
PACKAGE_ENERGY_CNT:PACKAGE0 (J) 0.000033982000
PACKAGE_ENERGY_CNT:PACKAGE1 (J) 0.000039218000
DRAM_ENERGY_CNT:PACKAGE0 (J)    0.000018184000
DRAM_ENERGY_CNT:PACKAGE1 (J)    0.000016427000


Energy in total:
PACKAGE_ENERGY:PACKAGE0 (J) 2.074096679000
PACKAGE_ENERGY:PACKAGE1 (J) 2.393676757000
DRAM_ENERGY:PACKAGE0    (J) 0.277465820000
DRAM_ENERGY:PACKAGE1    (J) 0.250656127000

Total time:  0.043168000877 (s)
Power (W) 115.731451109958
==================================================================


---------------------------------------------------------------------------------------------

OMP_NUM_THREADS= 40 : 

Input File: /home/users/amarkou/DIPLOMA/rodinia_3.1/data/b+tree/mil.txt 
Command File: /home/users/amarkou/DIPLOMA/rodinia_3.1/data/b+tree/command.txt 
Command Buffer: 
j 6000 3000
k 10000

Getting input from file cores...
Transforming data to a GPU suitable structure...
Tree transformation took 0.180201
Waiting for command
> 
******command: j count=6000, rSize=6000 
Time spent in different stages of CPU/MCPU KERNEL:
 0.000004000000 s,  0.065963059664 % : MCPU: SET DEVICE
 0.006060000043 s, 99.934036254883 % : CPU/MCPU: KERNEL
Total time:
0.006064000074 s
> > > > > > > > > > > > 
 ******command: k count=10000 
Time spent in different stages of CPU/MCPU KERNEL:
 0.000001000000 s,  0.030581038445 % : MCPU: SET DEVICE
 0.003268999979 s, 99.969413757324 % : CPU/MCPU: KERNEL
Total time:
0.003269999987 s
> > > > > > > > > PAPI measurements:(rapl)> > > > > > > > > > > >
Counting Energy Consumption:
PACKAGE_ENERGY_CNT:PACKAGE0 (J) 0.000026445000
PACKAGE_ENERGY_CNT:PACKAGE1 (J) 0.000026041000
DRAM_ENERGY_CNT:PACKAGE0 (J)    0.000011681000
DRAM_ENERGY_CNT:PACKAGE1 (J)    0.000009873000


Energy in total:
PACKAGE_ENERGY:PACKAGE0 (J) 1.614074707000
PACKAGE_ENERGY:PACKAGE1 (J) 1.589416503000
DRAM_ENERGY:PACKAGE0    (J) 0.178237915000
DRAM_ENERGY:PACKAGE1    (J) 0.150650024000

Total time:  0.026314999908 (s)
Power (W) 134.234435163273
==================================================================


---------------------------------------------------------------------------------------------

OMP_NUM_THREADS= 41 : 

Input File: /home/users/amarkou/DIPLOMA/rodinia_3.1/data/b+tree/mil.txt 
Command File: /home/users/amarkou/DIPLOMA/rodinia_3.1/data/b+tree/command.txt 
Command Buffer: 
j 6000 3000
k 10000

Getting input from file cores...
Transforming data to a GPU suitable structure...
Tree transformation took 0.186000
Waiting for command
> 
******command: j count=6000, rSize=6000 
Time spent in different stages of CPU/MCPU KERNEL:
 0.000004000000 s,  0.257731944323 % : MCPU: SET DEVICE
 0.001548000029 s, 99.742271423340 % : CPU/MCPU: KERNEL
Total time:
0.001551999943 s
> > > > > > > > > > > > 
 ******command: k count=10000 
Time spent in different stages of CPU/MCPU KERNEL:
 0.000000000000 s,  0.000000000000 % : MCPU: SET DEVICE
 0.000821999973 s, 100.000000000000 % : CPU/MCPU: KERNEL
Total time:
0.000821999973 s
> > > > > > > > > PAPI measurements:(rapl)> > > > > > > > > > > >
Counting Energy Consumption:
PACKAGE_ENERGY_CNT:PACKAGE0 (J) 0.000017292000
PACKAGE_ENERGY_CNT:PACKAGE1 (J) 0.000016683000
DRAM_ENERGY_CNT:PACKAGE0 (J)    0.000007904000
DRAM_ENERGY_CNT:PACKAGE1 (J)    0.000006642000


Energy in total:
PACKAGE_ENERGY:PACKAGE0 (J) 1.055419921000
PACKAGE_ENERGY:PACKAGE1 (J) 1.018249511000
DRAM_ENERGY:PACKAGE0    (J) 0.120605468000
DRAM_ENERGY:PACKAGE1    (J) 0.101348876000

Total time:  0.016511999071 (s)
Power (W) 139.027610538160
==================================================================


---------------------------------------------------------------------------------------------

OMP_NUM_THREADS= 42 : 

Input File: /home/users/amarkou/DIPLOMA/rodinia_3.1/data/b+tree/mil.txt 
Command File: /home/users/amarkou/DIPLOMA/rodinia_3.1/data/b+tree/command.txt 
Command Buffer: 
j 6000 3000
k 10000

Getting input from file cores...
Transforming data to a GPU suitable structure...
Tree transformation took 0.186019
Waiting for command
> 
******command: j count=6000, rSize=6000 
Time spent in different stages of CPU/MCPU KERNEL:
 0.000005000000 s,  0.328947365284 % : MCPU: SET DEVICE
 0.001515000011 s, 99.671051025391 % : CPU/MCPU: KERNEL
Total time:
0.001520000049 s
> > > > > > > > > > > > 
 ******command: k count=10000 
Time spent in different stages of CPU/MCPU KERNEL:
 0.000001000000 s,  0.130718961358 % : MCPU: SET DEVICE
 0.000763999997 s, 99.869277954102 % : CPU/MCPU: KERNEL
Total time:
0.000765000004 s
> > > > > > > > > PAPI measurements:(rapl)> > > > > > > > > > > >
Counting Energy Consumption:
PACKAGE_ENERGY_CNT:PACKAGE0 (J) 0.000015294000
PACKAGE_ENERGY_CNT:PACKAGE1 (J) 0.000015589000
DRAM_ENERGY_CNT:PACKAGE0 (J)    0.000007632000
DRAM_ENERGY_CNT:PACKAGE1 (J)    0.000006159000


Energy in total:
PACKAGE_ENERGY:PACKAGE0 (J) 0.933471679000
PACKAGE_ENERGY:PACKAGE1 (J) 0.951477050000
DRAM_ENERGY:PACKAGE0    (J) 0.116455078000
DRAM_ENERGY:PACKAGE1    (J) 0.093978881000

Total time:  0.015449999832 (s)
Power (W) 135.623476429560
==================================================================


---------------------------------------------------------------------------------------------

OMP_NUM_THREADS= 43 : 

Input File: /home/users/amarkou/DIPLOMA/rodinia_3.1/data/b+tree/mil.txt 
Command File: /home/users/amarkou/DIPLOMA/rodinia_3.1/data/b+tree/command.txt 
Command Buffer: 
j 6000 3000
k 10000

Getting input from file cores...
Transforming data to a GPU suitable structure...
Tree transformation took 0.185511
Waiting for command
> 
******command: j count=6000, rSize=6000 
Time spent in different stages of CPU/MCPU KERNEL:
 0.000005000000 s,  0.082494638860 % : MCPU: SET DEVICE
 0.006056000013 s, 99.917510986328 % : CPU/MCPU: KERNEL
Total time:
0.006060999818 s
> > > > > > > > > > > > 
 ******command: k count=10000 
Time spent in different stages of CPU/MCPU KERNEL:
 0.000001000000 s,  0.130718961358 % : MCPU: SET DEVICE
 0.000763999997 s, 99.869277954102 % : CPU/MCPU: KERNEL
Total time:
0.000765000004 s
> > > > > > > > > PAPI measurements:(rapl)> > > > > > > > > > > >
Counting Energy Consumption:
PACKAGE_ENERGY_CNT:PACKAGE0 (J) 0.000021693000
PACKAGE_ENERGY_CNT:PACKAGE1 (J) 0.000020771000
DRAM_ENERGY_CNT:PACKAGE0 (J)    0.000009426000
DRAM_ENERGY_CNT:PACKAGE1 (J)    0.000008066000


Energy in total:
PACKAGE_ENERGY:PACKAGE0 (J) 1.324035644000
PACKAGE_ENERGY:PACKAGE1 (J) 1.267761230000
DRAM_ENERGY:PACKAGE0    (J) 0.143829345000
DRAM_ENERGY:PACKAGE1    (J) 0.123077392000

Total time:  0.021250000224 (s)
Power (W) 134.527227337921
==================================================================


---------------------------------------------------------------------------------------------

OMP_NUM_THREADS= 44 : 

Input File: /home/users/amarkou/DIPLOMA/rodinia_3.1/data/b+tree/mil.txt 
Command File: /home/users/amarkou/DIPLOMA/rodinia_3.1/data/b+tree/command.txt 
Command Buffer: 
j 6000 3000
k 10000

Getting input from file cores...
Transforming data to a GPU suitable structure...
Tree transformation took 0.189453
Waiting for command
> 
******command: j count=6000, rSize=6000 
Time spent in different stages of CPU/MCPU KERNEL:
 0.000005000000 s,  0.085675120354 % : MCPU: SET DEVICE
 0.005830999929 s, 99.914321899414 % : CPU/MCPU: KERNEL
Total time:
0.005836000200 s
> > > > > > > > > > > > 
 ******command: k count=10000 
Time spent in different stages of CPU/MCPU KERNEL:
 0.000000000000 s,  0.000000000000 % : MCPU: SET DEVICE
 0.003284000093 s, 100.000000000000 % : CPU/MCPU: KERNEL
Total time:
0.003284000093 s
> > > > > > > > > PAPI measurements:(rapl)> > > > > > > > > > > >
Counting Energy Consumption:
PACKAGE_ENERGY_CNT:PACKAGE0 (J) 0.000038930000
PACKAGE_ENERGY_CNT:PACKAGE1 (J) 0.000038734000
DRAM_ENERGY_CNT:PACKAGE0 (J)    0.000020385000
DRAM_ENERGY_CNT:PACKAGE1 (J)    0.000018221000


Energy in total:
PACKAGE_ENERGY:PACKAGE0 (J) 2.376098632000
PACKAGE_ENERGY:PACKAGE1 (J) 2.364135742000
DRAM_ENERGY:PACKAGE0    (J) 0.311050415000
DRAM_ENERGY:PACKAGE1    (J) 0.278030395000

Total time:  0.048076000065 (s)
Power (W) 110.851884034398
==================================================================


---------------------------------------------------------------------------------------------

OMP_NUM_THREADS= 45 : 

Input File: /home/users/amarkou/DIPLOMA/rodinia_3.1/data/b+tree/mil.txt 
Command File: /home/users/amarkou/DIPLOMA/rodinia_3.1/data/b+tree/command.txt 
Command Buffer: 
j 6000 3000
k 10000

Getting input from file cores...
Transforming data to a GPU suitable structure...
Tree transformation took 0.185616
Waiting for command
> 
******command: j count=6000, rSize=6000 
Time spent in different stages of CPU/MCPU KERNEL:
 0.000005000000 s,  0.047938637435 % : MCPU: SET DEVICE
 0.010425000452 s, 99.952056884766 % : CPU/MCPU: KERNEL
Total time:
0.010429999791 s
> > > > > > > > > > > > 
 ******command: k count=10000 
Time spent in different stages of CPU/MCPU KERNEL:
 0.000000000000 s,  0.000000000000 % : MCPU: SET DEVICE
 0.003294999944 s, 100.000000000000 % : CPU/MCPU: KERNEL
Total time:
0.003294999944 s
> > > > > > > > > PAPI measurements:(rapl)> > > > > > > > > > > >
Counting Energy Consumption:
PACKAGE_ENERGY_CNT:PACKAGE0 (J) 0.000029463000
PACKAGE_ENERGY_CNT:PACKAGE1 (J) 0.000028006000
DRAM_ENERGY_CNT:PACKAGE0 (J)    0.000012570000
DRAM_ENERGY_CNT:PACKAGE1 (J)    0.000011141000


Energy in total:
PACKAGE_ENERGY:PACKAGE0 (J) 1.798278808000
PACKAGE_ENERGY:PACKAGE1 (J) 1.709350585000
DRAM_ENERGY:PACKAGE0    (J) 0.191802978000
DRAM_ENERGY:PACKAGE1    (J) 0.169998168000

Total time:  0.029122000560 (s)
Power (W) 132.869667762212
==================================================================


---------------------------------------------------------------------------------------------

OMP_NUM_THREADS= 46 : 

Input File: /home/users/amarkou/DIPLOMA/rodinia_3.1/data/b+tree/mil.txt 
Command File: /home/users/amarkou/DIPLOMA/rodinia_3.1/data/b+tree/command.txt 
Command Buffer: 
j 6000 3000
k 10000

Getting input from file cores...
Transforming data to a GPU suitable structure...
Tree transformation took 0.188139
Waiting for command
> 
******command: j count=6000, rSize=6000 
Time spent in different stages of CPU/MCPU KERNEL:
 0.000005000000 s,  0.081940345466 % : MCPU: SET DEVICE
 0.006097000092 s, 99.918060302734 % : CPU/MCPU: KERNEL
Total time:
0.006101999898 s
> > > > > > > > > > > > 
 ******command: k count=10000 
Time spent in different stages of CPU/MCPU KERNEL:
 0.000000000000 s,  0.000000000000 % : MCPU: SET DEVICE
 0.003225999884 s, 100.000000000000 % : CPU/MCPU: KERNEL
Total time:
0.003225999884 s
> > > > > > > > > PAPI measurements:(rapl)> > > > > > > > > > > >
Counting Energy Consumption:
PACKAGE_ENERGY_CNT:PACKAGE0 (J) 0.000025024000
PACKAGE_ENERGY_CNT:PACKAGE1 (J) 0.000024099000
DRAM_ENERGY_CNT:PACKAGE0 (J)    0.000011150000
DRAM_ENERGY_CNT:PACKAGE1 (J)    0.000009492000


Energy in total:
PACKAGE_ENERGY:PACKAGE0 (J) 1.527343750000
PACKAGE_ENERGY:PACKAGE1 (J) 1.470886230000
DRAM_ENERGY:PACKAGE0    (J) 0.170135498000
DRAM_ENERGY:PACKAGE1    (J) 0.144836425000

Total time:  0.024041999131 (s)
Power (W) 137.808918671290
==================================================================


---------------------------------------------------------------------------------------------

OMP_NUM_THREADS= 47 : 

Input File: /home/users/amarkou/DIPLOMA/rodinia_3.1/data/b+tree/mil.txt 
Command File: /home/users/amarkou/DIPLOMA/rodinia_3.1/data/b+tree/command.txt 
Command Buffer: 
j 6000 3000
k 10000

Getting input from file cores...
Transforming data to a GPU suitable structure...
Tree transformation took 0.187380
Waiting for command
> 
******command: j count=6000, rSize=6000 
Time spent in different stages of CPU/MCPU KERNEL:
 0.000005000000 s,  0.186776235700 % : MCPU: SET DEVICE
 0.002672000090 s, 99.813224792480 % : CPU/MCPU: KERNEL
Total time:
0.002676999895 s
> > > > > > > > > > > > 
 ******command: k count=10000 
Time spent in different stages of CPU/MCPU KERNEL:
 0.000000000000 s,  0.000000000000 % : MCPU: SET DEVICE
 0.000696000003 s, 100.000000000000 % : CPU/MCPU: KERNEL
Total time:
0.000696000003 s
> > > > > > > > > PAPI measurements:(rapl)> > > > > > > > > > > >
Counting Energy Consumption:
PACKAGE_ENERGY_CNT:PACKAGE0 (J) 0.000017967000
PACKAGE_ENERGY_CNT:PACKAGE1 (J) 0.000017771000
DRAM_ENERGY_CNT:PACKAGE0 (J)    0.000008261000
DRAM_ENERGY_CNT:PACKAGE1 (J)    0.000006991000


Energy in total:
PACKAGE_ENERGY:PACKAGE0 (J) 1.096618652000
PACKAGE_ENERGY:PACKAGE1 (J) 1.084655761000
DRAM_ENERGY:PACKAGE0    (J) 0.126052856000
DRAM_ENERGY:PACKAGE1    (J) 0.106674194000

Total time:  0.017990000546 (s)
Power (W) 134.185735949831
==================================================================


---------------------------------------------------------------------------------------------

OMP_NUM_THREADS= 48 : 

Input File: /home/users/amarkou/DIPLOMA/rodinia_3.1/data/b+tree/mil.txt 
Command File: /home/users/amarkou/DIPLOMA/rodinia_3.1/data/b+tree/command.txt 
Command Buffer: 
j 6000 3000
k 10000

Getting input from file cores...
Transforming data to a GPU suitable structure...
Tree transformation took 0.187264
Waiting for command
> 
******command: j count=6000, rSize=6000 
Time spent in different stages of CPU/MCPU KERNEL:
 0.000005000000 s,  0.078988939524 % : MCPU: SET DEVICE
 0.006324999966 s, 99.921012878418 % : CPU/MCPU: KERNEL
Total time:
0.006329999771 s
> > > > > > > > > > > > 
 ******command: k count=10000 
Time spent in different stages of CPU/MCPU KERNEL:
 0.000000000000 s,  0.000000000000 % : MCPU: SET DEVICE
 0.003266999964 s, 100.000000000000 % : CPU/MCPU: KERNEL
Total time:
0.003266999964 s
> > > > > > > > > PAPI measurements:(rapl)> > > > > > > > > > > >
Counting Energy Consumption:
PACKAGE_ENERGY_CNT:PACKAGE0 (J) 0.000031713000
PACKAGE_ENERGY_CNT:PACKAGE1 (J) 0.000028241000
DRAM_ENERGY_CNT:PACKAGE0 (J)    0.000013660000
DRAM_ENERGY_CNT:PACKAGE1 (J)    0.000013064000


Energy in total:
PACKAGE_ENERGY:PACKAGE0 (J) 1.935607910000
PACKAGE_ENERGY:PACKAGE1 (J) 1.723693847000
DRAM_ENERGY:PACKAGE0    (J) 0.208435058000
DRAM_ENERGY:PACKAGE1    (J) 0.199340820000

Total time:  0.033716998994 (s)
Power (W) 120.623951013003
==================================================================


---------------------------------------------------------------------------------------------

OMP_NUM_THREADS= 49 : 

Input File: /home/users/amarkou/DIPLOMA/rodinia_3.1/data/b+tree/mil.txt 
Command File: /home/users/amarkou/DIPLOMA/rodinia_3.1/data/b+tree/command.txt 
Command Buffer: 
j 6000 3000
k 10000

Getting input from file cores...
Transforming data to a GPU suitable structure...
Tree transformation took 0.187345
Waiting for command
> 
******command: j count=6000, rSize=6000 
Time spent in different stages of CPU/MCPU KERNEL:
 0.000005000000 s,  0.051435038447 % : MCPU: SET DEVICE
 0.009716000408 s, 99.948570251465 % : CPU/MCPU: KERNEL
Total time:
0.009720999748 s
> > > > > > > > > > > > 
 ******command: k count=10000 
Time spent in different stages of CPU/MCPU KERNEL:
 0.000000000000 s,  0.000000000000 % : MCPU: SET DEVICE
 0.003215000033 s, 100.000000000000 % : CPU/MCPU: KERNEL
Total time:
0.003215000033 s
> > > > > > > > > PAPI measurements:(rapl)> > > > > > > > > > > >
Counting Energy Consumption:
PACKAGE_ENERGY_CNT:PACKAGE0 (J) 0.000027811000
PACKAGE_ENERGY_CNT:PACKAGE1 (J) 0.000028008000
DRAM_ENERGY_CNT:PACKAGE0 (J)    0.000012849000
DRAM_ENERGY_CNT:PACKAGE1 (J)    0.000010511000


Energy in total:
PACKAGE_ENERGY:PACKAGE0 (J) 1.697448730000
PACKAGE_ENERGY:PACKAGE1 (J) 1.709472656000
DRAM_ENERGY:PACKAGE0    (J) 0.196060180000
DRAM_ENERGY:PACKAGE1    (J) 0.160385131000

Total time:  0.026600999758 (s)
Power (W) 141.474633708760
==================================================================


---------------------------------------------------------------------------------------------

OMP_NUM_THREADS= 50 : 

Input File: /home/users/amarkou/DIPLOMA/rodinia_3.1/data/b+tree/mil.txt 
Command File: /home/users/amarkou/DIPLOMA/rodinia_3.1/data/b+tree/command.txt 
Command Buffer: 
j 6000 3000
k 10000

Getting input from file cores...
Transforming data to a GPU suitable structure...
Tree transformation took 0.187855
Waiting for command
> 
******command: j count=6000, rSize=6000 
Time spent in different stages of CPU/MCPU KERNEL:
 0.000004000000 s,  0.061623785645 % : MCPU: SET DEVICE
 0.006486999802 s, 99.938377380371 % : CPU/MCPU: KERNEL
Total time:
0.006490999833 s
> > > > > > > > > > > > 
 ******command: k count=10000 
Time spent in different stages of CPU/MCPU KERNEL:
 0.000000000000 s,  0.000000000000 % : MCPU: SET DEVICE
 0.003279000055 s, 100.000000000000 % : CPU/MCPU: KERNEL
Total time:
0.003279000055 s
> > > > > > > > > PAPI measurements:(rapl)> > > > > > > > > > > >
Counting Energy Consumption:
PACKAGE_ENERGY_CNT:PACKAGE0 (J) 0.000023832000
PACKAGE_ENERGY_CNT:PACKAGE1 (J) 0.000024976000
DRAM_ENERGY_CNT:PACKAGE0 (J)    0.000010696000
DRAM_ENERGY_CNT:PACKAGE1 (J)    0.000009289000


Energy in total:
PACKAGE_ENERGY:PACKAGE0 (J) 1.454589843000
PACKAGE_ENERGY:PACKAGE1 (J) 1.524414062000
DRAM_ENERGY:PACKAGE0    (J) 0.163208007000
DRAM_ENERGY:PACKAGE1    (J) 0.141738891000

Total time:  0.024993000552 (s)
Power (W) 131.394819768031
==================================================================


---------------------------------------------------------------------------------------------

OMP_NUM_THREADS= 51 : 

Input File: /home/users/amarkou/DIPLOMA/rodinia_3.1/data/b+tree/mil.txt 
Command File: /home/users/amarkou/DIPLOMA/rodinia_3.1/data/b+tree/command.txt 
Command Buffer: 
j 6000 3000
k 10000

Getting input from file cores...
Transforming data to a GPU suitable structure...
Tree transformation took 0.185840
Waiting for command
> 
******command: j count=6000, rSize=6000 
Time spent in different stages of CPU/MCPU KERNEL:
 0.000005000000 s,  0.074107006192 % : MCPU: SET DEVICE
 0.006742000114 s, 99.925895690918 % : CPU/MCPU: KERNEL
Total time:
0.006746999919 s
> > > > > > > > > > > > 
 ******command: k count=10000 
Time spent in different stages of CPU/MCPU KERNEL:
 0.000001000000 s,  0.031725887209 % : MCPU: SET DEVICE
 0.003151000012 s, 99.968269348145 % : CPU/MCPU: KERNEL
Total time:
0.003152000019 s
> > > > > > > > > PAPI measurements:(rapl)> > > > > > > > > > > >
Counting Energy Consumption:
PACKAGE_ENERGY_CNT:PACKAGE0 (J) 0.000026421000
PACKAGE_ENERGY_CNT:PACKAGE1 (J) 0.000024724000
DRAM_ENERGY_CNT:PACKAGE0 (J)    0.000012220000
DRAM_ENERGY_CNT:PACKAGE1 (J)    0.000011018000


Energy in total:
PACKAGE_ENERGY:PACKAGE0 (J) 1.612609863000
PACKAGE_ENERGY:PACKAGE1 (J) 1.509033203000
DRAM_ENERGY:PACKAGE0    (J) 0.186462402000
DRAM_ENERGY:PACKAGE1    (J) 0.168121337000

Total time:  0.027367999777 (s)
Power (W) 127.017934569566
==================================================================


---------------------------------------------------------------------------------------------

OMP_NUM_THREADS= 52 : 

Input File: /home/users/amarkou/DIPLOMA/rodinia_3.1/data/b+tree/mil.txt 
Command File: /home/users/amarkou/DIPLOMA/rodinia_3.1/data/b+tree/command.txt 
Command Buffer: 
j 6000 3000
k 10000

Getting input from file cores...
Transforming data to a GPU suitable structure...
Tree transformation took 0.184088
Waiting for command
> 
******command: j count=6000, rSize=6000 
Time spent in different stages of CPU/MCPU KERNEL:
 0.000005000000 s,  0.063484005630 % : MCPU: SET DEVICE
 0.007871000096 s, 99.936515808105 % : CPU/MCPU: KERNEL
Total time:
0.007876000367 s
> > > > > > > > > > > > 
 ******command: k count=10000 
Time spent in different stages of CPU/MCPU KERNEL:
 0.000000000000 s,  0.000000000000 % : MCPU: SET DEVICE
 0.005295999814 s, 100.000000000000 % : CPU/MCPU: KERNEL
Total time:
0.005295999814 s
> > > > > > > > > PAPI measurements:(rapl)> > > > > > > > > > > >
Counting Energy Consumption:
PACKAGE_ENERGY_CNT:PACKAGE0 (J) 0.000028517000
PACKAGE_ENERGY_CNT:PACKAGE1 (J) 0.000026134000
DRAM_ENERGY_CNT:PACKAGE0 (J)    0.000011241000
DRAM_ENERGY_CNT:PACKAGE1 (J)    0.000010417000


Energy in total:
PACKAGE_ENERGY:PACKAGE0 (J) 1.740539550000
PACKAGE_ENERGY:PACKAGE1 (J) 1.595092773000
DRAM_ENERGY:PACKAGE0    (J) 0.171524047000
DRAM_ENERGY:PACKAGE1    (J) 0.158950805000

Total time:  0.027419999242 (s)
Power (W) 133.701942974797
==================================================================


---------------------------------------------------------------------------------------------

OMP_NUM_THREADS= 53 : 

Input File: /home/users/amarkou/DIPLOMA/rodinia_3.1/data/b+tree/mil.txt 
Command File: /home/users/amarkou/DIPLOMA/rodinia_3.1/data/b+tree/command.txt 
Command Buffer: 
j 6000 3000
k 10000

Getting input from file cores...
Transforming data to a GPU suitable structure...
Tree transformation took 0.186641
Waiting for command
> 
******command: j count=6000, rSize=6000 
Time spent in different stages of CPU/MCPU KERNEL:
 0.000005000000 s,  0.064045086503 % : MCPU: SET DEVICE
 0.007801999804 s, 99.935951232910 % : CPU/MCPU: KERNEL
Total time:
0.007807000075 s
> > > > > > > > > > > > 
 ******command: k count=10000 
Time spent in different stages of CPU/MCPU KERNEL:
 0.000000000000 s,  0.000000000000 % : MCPU: SET DEVICE
 0.003253000090 s, 100.000000000000 % : CPU/MCPU: KERNEL
Total time:
0.003253000090 s
> > > > > > > > > PAPI measurements:(rapl)> > > > > > > > > > > >
Counting Energy Consumption:
PACKAGE_ENERGY_CNT:PACKAGE0 (J) 0.000029047000
PACKAGE_ENERGY_CNT:PACKAGE1 (J) 0.000026962000
DRAM_ENERGY_CNT:PACKAGE0 (J)    0.000014075000
DRAM_ENERGY_CNT:PACKAGE1 (J)    0.000011712000


Energy in total:
PACKAGE_ENERGY:PACKAGE0 (J) 1.772888183000
PACKAGE_ENERGY:PACKAGE1 (J) 1.645629882000
DRAM_ENERGY:PACKAGE0    (J) 0.214767456000
DRAM_ENERGY:PACKAGE1    (J) 0.178710937000

Total time:  0.030073000118 (s)
Power (W) 126.758103382611
==================================================================


---------------------------------------------------------------------------------------------

OMP_NUM_THREADS= 54 : 

Input File: /home/users/amarkou/DIPLOMA/rodinia_3.1/data/b+tree/mil.txt 
Command File: /home/users/amarkou/DIPLOMA/rodinia_3.1/data/b+tree/command.txt 
Command Buffer: 
j 6000 3000
k 10000

Getting input from file cores...
Transforming data to a GPU suitable structure...
Tree transformation took 0.181489
Waiting for command
> 
******command: j count=6000, rSize=6000 
Time spent in different stages of CPU/MCPU KERNEL:
 0.000005000000 s,  0.063059650362 % : MCPU: SET DEVICE
 0.007923999801 s, 99.936935424805 % : CPU/MCPU: KERNEL
Total time:
0.007929000072 s
> > > > > > > > > > > > 
 ******command: k count=10000 
Time spent in different stages of CPU/MCPU KERNEL:
 0.000000000000 s,  0.000000000000 % : MCPU: SET DEVICE
 0.003185000038 s, 100.000000000000 % : CPU/MCPU: KERNEL
Total time:
0.003185000038 s
> > > > > > > > > PAPI measurements:(rapl)> > > > > > > > > > > >
Counting Energy Consumption:
PACKAGE_ENERGY_CNT:PACKAGE0 (J) 0.000025409000
PACKAGE_ENERGY_CNT:PACKAGE1 (J) 0.000024924000
DRAM_ENERGY_CNT:PACKAGE0 (J)    0.000011001000
DRAM_ENERGY_CNT:PACKAGE1 (J)    0.000010093000


Energy in total:
PACKAGE_ENERGY:PACKAGE0 (J) 1.550842285000
PACKAGE_ENERGY:PACKAGE1 (J) 1.521240234000
DRAM_ENERGY:PACKAGE0    (J) 0.167861938000
DRAM_ENERGY:PACKAGE1    (J) 0.154006958000

Total time:  0.026260999963 (s)
Power (W) 129.239230030168
==================================================================


---------------------------------------------------------------------------------------------

OMP_NUM_THREADS= 55 : 

Input File: /home/users/amarkou/DIPLOMA/rodinia_3.1/data/b+tree/mil.txt 
Command File: /home/users/amarkou/DIPLOMA/rodinia_3.1/data/b+tree/command.txt 
Command Buffer: 
j 6000 3000
k 10000

Getting input from file cores...
Transforming data to a GPU suitable structure...
Tree transformation took 0.185111
Waiting for command
> 
******command: j count=6000, rSize=6000 
Time spent in different stages of CPU/MCPU KERNEL:
 0.000005000000 s,  0.064201332629 % : MCPU: SET DEVICE
 0.007782999892 s, 99.935798645020 % : CPU/MCPU: KERNEL
Total time:
0.007788000163 s
> > > > > > > > > > > > 
 ******command: k count=10000 
Time spent in different stages of CPU/MCPU KERNEL:
 0.000001000000 s,  0.031240237877 % : MCPU: SET DEVICE
 0.003199999919 s, 99.968757629395 % : CPU/MCPU: KERNEL
Total time:
0.003200999927 s
> > > > > > > > > PAPI measurements:(rapl)> > > > > > > > > > > >
Counting Energy Consumption:
PACKAGE_ENERGY_CNT:PACKAGE0 (J) 0.000026324000
PACKAGE_ENERGY_CNT:PACKAGE1 (J) 0.000026460000
DRAM_ENERGY_CNT:PACKAGE0 (J)    0.000011420000
DRAM_ENERGY_CNT:PACKAGE1 (J)    0.000010030000


Energy in total:
PACKAGE_ENERGY:PACKAGE0 (J) 1.606689453000
PACKAGE_ENERGY:PACKAGE1 (J) 1.614990234000
DRAM_ENERGY:PACKAGE0    (J) 0.174255371000
DRAM_ENERGY:PACKAGE1    (J) 0.153045654000

Total time:  0.025799000636 (s)
Power (W) 137.562720436662
==================================================================


---------------------------------------------------------------------------------------------

OMP_NUM_THREADS= 56 : 

Input File: /home/users/amarkou/DIPLOMA/rodinia_3.1/data/b+tree/mil.txt 
Command File: /home/users/amarkou/DIPLOMA/rodinia_3.1/data/b+tree/command.txt 
Command Buffer: 
j 6000 3000
k 10000

Getting input from file cores...
Transforming data to a GPU suitable structure...
Tree transformation took 0.185505
Waiting for command
> 
******command: j count=6000, rSize=6000 
Time spent in different stages of CPU/MCPU KERNEL:
 0.000005000000 s,  0.024777008221 % : MCPU: SET DEVICE
 0.020175000653 s, 99.975219726562 % : CPU/MCPU: KERNEL
Total time:
0.020179999992 s
> > > > > > > > > > > > 
 ******command: k count=10000 
Time spent in different stages of CPU/MCPU KERNEL:
 0.000000000000 s,  0.000000000000 % : MCPU: SET DEVICE
 0.003138999920 s, 100.000000000000 % : CPU/MCPU: KERNEL
Total time:
0.003138999920 s
> > > > > > > > > PAPI measurements:(rapl)> > > > > > > > > > > >
Counting Energy Consumption:
PACKAGE_ENERGY_CNT:PACKAGE0 (J) 0.000032611000
PACKAGE_ENERGY_CNT:PACKAGE1 (J) 0.000034720000
DRAM_ENERGY_CNT:PACKAGE0 (J)    0.000015563000
DRAM_ENERGY_CNT:PACKAGE1 (J)    0.000014117000


Energy in total:
PACKAGE_ENERGY:PACKAGE0 (J) 1.990417480000
PACKAGE_ENERGY:PACKAGE1 (J) 2.119140625000
DRAM_ENERGY:PACKAGE0    (J) 0.237472534000
DRAM_ENERGY:PACKAGE1    (J) 0.215408325000

Total time:  0.037638001144 (s)
Power (W) 121.218949607676
==================================================================


---------------------------------------------------------------------------------------------

