points,,power,avg power=82.285833W
1,1,66.22189,82.285833
2,1,66.283,82.285833
3,1,66.283,82.285833
4,1,66.283,82.285833
5,1,66.283,82.285833
6,1,82.36484,82.285833
7,1,85.895,82.285833
8,1,85.895,82.285833
9,1,79.4936,82.285833
10,1,75.226,82.285833
11,1,75.226,82.285833
12,1,73.08058,82.285833
13,1,67.828,82.285833
14,1,67.828,82.285833
15,1,67.5088,82.285833
16,1,66.764,82.285833
17,1,66.764,82.285833
18,1,66.65781,82.285833
19,1,66.477,82.285833
20,1,66.477,82.285833
21,1,66.477,82.285833
22,1,66.477,82.285833
23,1,66.477,82.285833
24,1,66.477,82.285833
25,1,66.477,82.285833
26,1,66.477,82.285833
27,1,73.76639,82.285833
28,1,84.256,82.285833
29,1,84.256,82.285833
30,1,82.7539,82.285833
31,1,75.911,82.285833
32,1,75.911,82.285833
33,1,75.911,82.285833
34,1,68.87879,82.285833
35,1,67.828,82.285833
36,1,67.828,82.285833
37,1,66.85528,82.285833
38,1,66.67,82.285833
39,1,66.66616,82.285833
40,1,66.574,82.285833
41,1,66.574,82.285833
42,1,66.574,82.285833
43,1,66.574,82.285833
44,1,66.574,82.285833
45,1,66.56721,82.285833
46,1,66.477,82.285833
47,1,66.477,82.285833
48,1,66.477,82.285833
49,1,90.95022,82.285833
50,1,93.975,82.285833
51,1,93.975,82.285833
52,1,79.09436,82.285833
53,1,70.724,82.285833
54,1,70.724,82.285833
55,1,69.07295,82.285833
56,1,67.055,82.285833
57,1,67.055,82.285833
58,1,66.80488,82.285833
59,1,66.574,82.285833
60,1,66.574,82.285833
61,1,66.54102,82.285833
62,1,66.477,82.285833
63,1,66.477,82.285833
64,1,66.477,82.285833
65,1,66.477,82.285833
66,1,66.477,82.285833
67,1,66.477,82.285833
68,1,66.477,82.285833
69,1,66.477,82.285833
70,1,76.23675,82.285833
71,1,94.362,82.285833
72,1,94.362,82.285833
73,1,92.70734,82.285833
74,1,70.724,82.285833
75,1,70.724,82.285833
76,1,70.724,82.285833
77,1,67.45859,82.285833
78,1,67.055,82.285833
79,1,67.055,82.285833
80,1,66.72775,82.285833
81,1,66.67,82.285833
82,1,66.67,82.285833
83,1,66.50595,82.285833
84,1,66.477,82.285833
85,1,66.477,82.285833
86,1,66.477,82.285833
87,1,66.477,82.285833
88,1,66.477,82.285833
89,1,66.477,82.285833
90,1,66.477,82.285833
91,1,66.477,82.285833
92,1,80.79712,82.285833
93,1,87.536,82.285833
94,1,87.536,82.285833
95,1,81.74045,82.285833
96,1,74.657,82.285833
97,1,74.657,82.285833
98,1,73.75662,82.285833
99,1,67.731,82.285833
100,1,67.731,82.285833
101,1,67.57628,82.285833
102,1,66.764,82.285833
103,1,66.764,82.285833
104,1,66.7317,82.285833
105,1,66.574,82.285833
106,1,66.574,82.285833
107,1,66.574,82.285833
108,1,66.574,82.285833
109,1,66.574,82.285833
110,1,67.01878,82.285833
111,1,68.692,82.285833
112,1,68.73556,82.285833
113,1,70.144,82.285833
114,1,70.144,82.285833
115,1,69.12534,82.285833
116,0.72,68.501,82.285833
