PACKAGE_ENERGY:PACKAGE0,PACKAGE_ENERGY:PACKAGE1,DRAM_ENERGY:PACKAGE0,DRAM_ENERGY:PACKAGE1,TOTAL_ENERGY,TOTAL_TIME,POWER
2771.690734863000,2087.567321777000,1400.721130371000,1459.171051025000,7719.150238036000,110.392993434332,69.924276875668
1415.895568847000,1324.235717773000,715.593597412000,748.692184448000,4204.417068480000,56.250206586905,74.744917816156
808.763671875000,727.477539062000,373.733245849000,386.845489501000,2296.819946287000,28.933636100963,79.382347184859
477.500610351000,448.849914550000,200.775817871000,202.705795288000,1329.832138060000,15.131611500867,87.884369618122
460.107299804000,399.248657226000,172.586822509000,176.401123046000,1208.343902585000,12.983373205177,93.068564192789
331.262878417000,307.139892578000,100.869842529000,102.415405273000,841.688018797000,7.260784111917,115.922468678768
357.548522949000,328.845764160000,106.625885009000,109.935012817000,902.955184935000,7.744755250402,116.589247270035
303.148925781000,288.724182128000,90.381668090000,92.212982177000,774.467758176000,6.324946112931,122.446538570925
PACKAGE_ENERGY:PACKAGE0,PACKAGE_ENERGY:PACKAGE1,DRAM_ENERGY:PACKAGE0,DRAM_ENERGY:PACKAGE1,TOTAL_ENERGY,TOTAL_TIME,POWER
6077.963989257000,4587.364624023000,3096.020385742000,3201.102676391000,16962.451675413002,242.178144046105,70.041215908334
2886.382873535000,2698.046386718000,1462.938186645000,1524.181625366000,8571.549072264001,114.727204648778,74.712437198349
1582.030151367000,1438.714050292000,733.509094238000,762.243835449000,4516.497131346001,57.192936562002,78.969491738718
950.310607910000,888.635864257000,391.053924560000,403.314987182000,2633.315383909001,29.871277651750,88.155431937300
898.760375976000,786.354187011000,334.393325805000,343.038696289000,2362.546585081001,25.206732660532,93.726807710394
634.873291015000,582.040527343000,186.582290649000,196.110260009000,1599.606369016000,13.802228118293,115.894792877386
703.079772949000,654.349853515000,209.555450439000,217.684555053000,1784.669631956000,15.252267050557,117.010122235622
568.292175292000,545.804931640000,165.128311157000,172.218383789000,1451.443801878000,11.806685119867,122.934065501216
PACKAGE_ENERGY:PACKAGE0,PACKAGE_ENERGY:PACKAGE1,DRAM_ENERGY:PACKAGE0,DRAM_ENERGY:PACKAGE1,TOTAL_ENERGY,TOTAL_TIME,POWER
9958.382446289001,7521.101562500001,5077.368286132000,5256.092834472001,27812.945129393003,397.170255172998,70.027764584934
4878.820373535001,4565.220397949000,2472.854431152000,2578.878677368000,14495.773880004001,194.221629597247,74.635219105429
2778.442565917000,2487.697448730000,1262.799102783000,1318.548248291000,7847.487365721001,98.950384768657,79.307295106211
1567.170227050000,1460.975585937000,635.480926513000,660.687408447000,4324.314147947000,49.321369531564,87.676278842572
1457.540100097000,1272.913024902000,532.124588012000,546.287399291000,3808.865112302000,40.653509582393,93.690929797403
991.159423828000,923.535644531000,286.973205566000,297.948547363000,2499.616821288000,21.458821715787,116.484346363205
1080.282165527000,1040.473388671000,309.022384643000,324.874511718000,2754.652450559000,23.469897035509,117.369600999582
896.153686523000,863.014404296000,252.179107666000,258.146240234000,2269.493438719000,18.122431783006,125.231175699457
