-------------------------------------------

omp_num_threads=1

Configuration used: cores = 1, boxes1d = 50
Time spent in different stages of CPU/MCPU KERNEL:
 0.000000000000 s,  0.000000000000 % : CPU/MCPU: VARIABLES
 0.000009000000 s,  0.000000408864 % : MCPU: SET DEVICE
 0.000000000000 s,  0.000000000000 % : CPU/MCPU: INPUTS
2201.220703125000 s, 100.000000000000 % : CPU/MCPU: KERNEL
Total time:
2201.220703125000 s
Time spent in different stages of the application:
 0.000000000000 s,  0.000000000000 % : VARIABLES
 0.000971000001 s,  0.000044086632 % : INPUT ARGUMENTS
 0.000000000000 s,  0.000000000000 % : INPUTS
 0.000000000000 s,  0.000000000000 % : dim_cpu
 1.228904008865 s,  0.055796332657 % : SYS MEM: ALO
2201.220703125000 s, 99.942741394043 % : KERNEL: COMPUTE
 0.031228000298 s,  0.001417855150 % : SYS MEM: FRE
Total time:
2202.481689453125 s
===========================================

-------------------------------------------

omp_num_threads=2

Configuration used: cores = 2, boxes1d = 50
Time spent in different stages of CPU/MCPU KERNEL:
 0.000000000000 s,  0.000000000000 % : CPU/MCPU: VARIABLES
 0.000008000000 s,  0.000000724699 % : MCPU: SET DEVICE
 0.000000000000 s,  0.000000000000 % : CPU/MCPU: INPUTS
1103.906005859375 s, 100.000000000000 % : CPU/MCPU: KERNEL
Total time:
1103.906005859375 s
Time spent in different stages of the application:
 0.000000000000 s,  0.000000000000 % : VARIABLES
 0.000790000020 s,  0.000071481641 % : INPUT ARGUMENTS
 0.000000000000 s,  0.000000000000 % : INPUTS
 0.000000000000 s,  0.000000000000 % : dim_cpu
 1.240550041199 s,  0.112248793244 % : SYS MEM: ALO
1103.906005859375 s, 99.884834289551 % : KERNEL: COMPUTE
 0.031481999904 s,  0.002848588629 % : SYS MEM: FRE
Total time:
1105.178833007812 s
===========================================

-------------------------------------------

omp_num_threads=4

Configuration used: cores = 4, boxes1d = 50
Time spent in different stages of CPU/MCPU KERNEL:
 0.000001000000 s,  0.000000179136 % : CPU/MCPU: VARIABLES
 0.000007000000 s,  0.000001253955 % : MCPU: SET DEVICE
 0.000001000000 s,  0.000000179136 % : CPU/MCPU: INPUTS
558.233764648438 s, 100.000000000000 % : CPU/MCPU: KERNEL
Total time:
558.233764648438 s
Time spent in different stages of the application:
 0.000000000000 s,  0.000000000000 % : VARIABLES
 0.000574000005 s,  0.000102589533 % : INPUT ARGUMENTS
 0.000000000000 s,  0.000000000000 % : INPUTS
 0.000000000000 s,  0.000000000000 % : dim_cpu
 1.243883013725 s,  0.222316011786 % : SYS MEM: ALO
558.233764648438 s, 99.771682739258 % : KERNEL: COMPUTE
 0.032988999039 s,  0.005896038841 % : SYS MEM: FRE
Total time:
559.511230468750 s
===========================================

-------------------------------------------

omp_num_threads=10

Configuration used: cores = 10, boxes1d = 50
Time spent in different stages of CPU/MCPU KERNEL:
 0.000000000000 s,  0.000000000000 % : CPU/MCPU: VARIABLES
 0.000007000000 s,  0.000003127496 % : MCPU: SET DEVICE
 0.000000000000 s,  0.000000000000 % : CPU/MCPU: INPUTS
223.821166992188 s, 99.999992370605 % : CPU/MCPU: KERNEL
Total time:
223.821182250977 s
Time spent in different stages of the application:
 0.000000000000 s,  0.000000000000 % : VARIABLES
 0.000829999975 s,  0.000368742563 % : INPUT ARGUMENTS
 0.000000000000 s,  0.000000000000 % : INPUTS
 0.000000000000 s,  0.000000000000 % : dim_cpu
 1.233921051025 s,  0.548191785812 % : SYS MEM: ALO
223.821212768555 s, 99.436637878418 % : KERNEL: COMPUTE
 0.033319000155 s,  0.014802569523 % : SYS MEM: FRE
Total time:
225.089294433594 s
===========================================

-------------------------------------------

omp_num_threads=20

Configuration used: cores = 20, boxes1d = 50
Time spent in different stages of CPU/MCPU KERNEL:
 0.000000000000 s,  0.000000000000 % : CPU/MCPU: VARIABLES
 0.000009000000 s,  0.000008038209 % : MCPU: SET DEVICE
 0.000000000000 s,  0.000000000000 % : CPU/MCPU: INPUTS
111.965232849121 s, 99.999992370605 % : CPU/MCPU: KERNEL
Total time:
111.965240478516 s
Time spent in different stages of the application:
 0.000000000000 s,  0.000000000000 % : VARIABLES
 0.000507000019 s,  0.000447767467 % : INPUT ARGUMENTS
 0.000000000000 s,  0.000000000000 % : INPUTS
 0.000000000000 s,  0.000000000000 % : dim_cpu
 1.229928970337 s,  1.086237072945 % : SYS MEM: ALO
111.965263366699 s, 98.884429931641 % : KERNEL: COMPUTE
 0.032706998289 s,  0.028885859996 % : SYS MEM: FRE
Total time:
113.228408813477 s
===========================================

-------------------------------------------

omp_num_threads=30

Configuration used: cores = 30, boxes1d = 50
Time spent in different stages of CPU/MCPU KERNEL:
 0.000000000000 s,  0.000000000000 % : CPU/MCPU: VARIABLES
 0.000008000000 s,  0.000008645950 % : MCPU: SET DEVICE
 0.000000000000 s,  0.000000000000 % : CPU/MCPU: INPUTS
92.528854370117 s, 99.999992370605 % : CPU/MCPU: KERNEL
Total time:
92.528861999512 s
Time spent in different stages of the application:
 0.000000000000 s,  0.000000000000 % : VARIABLES
 0.000455000001 s,  0.000485127064 % : INPUT ARGUMENTS
 0.000000000000 s,  0.000000000000 % : INPUTS
 0.000000000000 s,  0.000000000000 % : dim_cpu
 1.227584958076 s,  1.308867454529 % : SYS MEM: ALO
92.528892517090 s, 98.655540466309 % : KERNEL: COMPUTE
 0.032930001616 s,  0.035110402852 % : SYS MEM: FRE
Total time:
93.789863586426 s
===========================================

-------------------------------------------

omp_num_threads=40

Configuration used: cores = 40, boxes1d = 50
Time spent in different stages of CPU/MCPU KERNEL:
 0.000000000000 s,  0.000000000000 % : CPU/MCPU: VARIABLES
 0.000008000000 s,  0.000010836728 % : MCPU: SET DEVICE
 0.000000000000 s,  0.000000000000 % : CPU/MCPU: INPUTS
73.823013305664 s, 99.999984741211 % : CPU/MCPU: KERNEL
Total time:
73.823020935059 s
Time spent in different stages of the application:
 0.000000000000 s,  0.000000000000 % : VARIABLES
 0.000365999993 s,  0.000487438578 % : INPUT ARGUMENTS
 0.000000000000 s,  0.000000000000 % : INPUTS
 0.000000000000 s,  0.000000000000 % : dim_cpu
 1.230352044106 s,  1.638581991196 % : SYS MEM: ALO
73.823051452637 s, 98.317489624023 % : KERNEL: COMPUTE
 0.032616999000 s,  0.043439298868 % : SYS MEM: FRE
Total time:
75.086387634277 s
===========================================

