1000000000,1883771129,732426369,1107285729,1247949579,36441206,150775868,394091342,1048687844,1054447901,1060883681,1064779434
1000000000,1894750030,729320365,1124659478,1243070142,2092035,117272300,373303340,1066615266,1071313632,1076960505,1080855330
1000000000,1894747743,729319042,1124788577,1243069663,2095647,117273017,373300866,1066589057,1071291026,1076942088,1080842134
1000000000,1895964922,727295691,1125545782,1243013872,2393273,116833270,373755305,1063705128,1069139240,1074992105,1079355670
1000000000,1894753018,729320231,1124570725,1243069677,2089680,117271223,373304452,1066627748,1071323765,1076968451,1080860070
1000000000,1895953773,727298881,1125749654,1243017173,2398655,116837494,373754202,1063689885,1069129366,1074985600,1079355782
1000000000,1894756515,729317983,1124562326,1243067911,2089572,117269803,373303381,1066617984,1071313893,1076959762,1080851813
1000000000,1895183597,727586966,1124175840,1243301573,4711675,119328417,375340456,1062407651,1067909709,1073850197,1078204025
1000000000,1890133614,730679542,1117471883,1245268377,16857038,131495381,382108503,1059138006,1064253598,1070183889,1074065834
1000000000,1894751174,729321874,1124554006,1243070873,2089158,117272008,373305535,1066638226,1071333723,1076976745,1080866798
1000000000,1895959377,727295320,1125734451,1243014370,2398430,116835222,373752534,1063674719,1069113975,1074971995,1079342717
1000000000,1894749442,729322156,1124596491,1243071263,2090265,117272647,373305122,1066633370,1071329971,1076974046,1080865826
1000000000,1895289276,728104747,1125178440,1243111928,2345077,117107533,373555203,1064799059,1070045199,1075883232,1080028956
1000000000,1895422135,728510838,1125156809,1242972266,2143822,116999266,373501404,1065499172,1070389092,1076054587,1080172446
1000000000,1894750558,729321129,1124608129,1243070518,2090622,117272170,373304429,1066626646,1071323603,1076968634,1080861219
1000000000,1890570032,728944867,1116927282,1245498513,19475121,133550225,384145906,1054934549,1060852188,1067075234,1071413907
1000000000,1894749755,729320839,1124659026,1243070353,2092017,117272428,373303538,1066616380,1071314820,1076961297,1080856149
1000000000,1894748047,729318781,1124790906,1243069472,2095722,117272890,373300699,1066587438,1071289482,1076940732,1080840878
1000000000,1895964662,727295922,1125543369,1243014039,2393198,116833379,373755457,1063706611,1069140648,1074993338,1079356803
1000000000,1894753035,729320217,1124570773,1243069667,2089683,117271216,373304444,1066627668,1071323688,1076968383,1080860006
1000000000,1895953665,727298953,1125749879,1243017229,2398655,116837538,373754238,1063690217,1069129698,1074985900,1079356082
1000000000,1894756771,729317815,1124561963,1243067785,2089572,117269701,373303298,1066617212,1071313121,1076959064,1080851115
1000000000,1895957302,727299585,1125607137,1243017126,2394779,116836287,373756497,1063714697,1069150312,1075002422,1079367098
1000000000,1889360162,730965453,1116039065,1245551161,19173955,133986808,383692063,1057825862,1063007826,1069027204,1072898306
1000000000,1894749825,729323067,1124554779,1243071645,2089137,117272574,373306096,1066642678,1071338246,1076980549,1080870597
1000000000,1895959154,727295468,1125734750,1243014486,2398430,116835313,373752609,1063675404,1069114660,1074972614,1079343336
1000000000,1894750404,729321505,1124595697,1243070758,2090277,117272254,373304790,1066630300,1071326913,1076971289,1080863085
1000000000,1895297834,728094364,1125182734,1243110801,2345385,117103533,373557508,1064787264,1070034933,1075872939,1080021639
1000000000,1895412618,728521875,1125153061,1242973900,2143496,117003658,373499436,1065514084,1070402457,1076067671,1080182530
1000000000,1894751877,729320216,1124608094,1243069816,2090667,117271632,373303949,1066622188,1071319190,1076964669,1080857521
1000000000,1895954941,727298575,1125726297,1243016843,2398052,116837051,373754352,1063691828,1069130707,1074986696,1079356246
1000000000,1889361737,730967096,1115858595,1245550898,19169041,133985777,383695704,1057861537,1063038600,1069052027,1072915684
1000000000,1894748745,729318475,1124793952,1243069102,2095866,117272609,373300426,1066584058,1071286337,1076937807,1080838441
1000000000,1895963815,727296603,1125540337,1243014547,2393054,116833736,373755871,1063710552,1069144446,1074996581,1079359609
1000000000,1894753032,729320217,1124570887,1243069667,2089686,117271217,373304442,1066627650,1071323673,1076968371,1080859998
1000000000,1895953629,727298980,1125749776,1243017250,2398652,116837553,373754253,1063690359,1069129837,1074986024,1079356202
1000000000,1894756923,729317709,1124561942,1243067699,2089575,117269637,373303243,1066616702,1071312614,1076958608,1080850663
1000000000,1895957501,727299421,1125608431,1243017008,2394821,116836205,373756395,1063713714,1069149371,1075001593,1079366325
1000000000,1894747278,729320685,1124730726,1243070683,2093955,117273306,373302536,1066606052,1071306333,1076954899,1080852345
1000000000,1889360686,730966963,1115860297,1245550277,19169098,133985746,383695846,1057861104,1063038224,1069051594,1072915195
1000000000,1895958733,727296028,1125734988,1243014767,2398427,116835500,373752843,1063676833,1069116178,1074973712,1079344481
1000000000,1894753427,729319443,1124593891,1243069164,2090331,117271016,373303732,1066620495,1071317161,1076963117,1080856226
1000000000,1895303675,728086148,1125188002,1243110876,2345633,117100686,373560400,1064783187,1070032244,1075868931,1080019110
1000000000,1895403755,728532153,1125149524,1242975417,2143191,117007742,373497603,1065527983,1070414912,1076079862,1080191925
1000000000,1894753743,729318916,1124608008,1243068816,2090733,117270864,373303267,1066615827,1071312894,1076959381,1080852863
1000000000,1895953193,727299792,1125726534,1243017779,2397992,116837771,373754989,1063697770,1069136590,1074991614,1079360542
1000000000,1894756045,729318581,1124549684,1243068323,2089212,117270017,373303862,1066622746,1071318296,1076963463,1080854837
1000000000,1889351485,730965881,1116102281,1245549126,19175731,133987952,383692575,1057820461,1063004197,1069024253,1072897167
1000000000,1895963719,727296977,1125538728,1243014679,2393012,116833793,373756033,1063711343,1069145287,1074997047,1079360070
1000000000,1894753024,729320219,1124571006,1243069668,2089689,117271220,373304441,1066627642,1071323668,1076968368,1080859999
1000000000,1895953626,727298982,1125749798,1243017251,2398652,116837554,373754254,1063690368,1069129846,1074986032,1079356210
1000000000,1894757021,729317646,1124561634,1243067650,2089572,117269597,373303213,1066616430,1071312339,1076958358,1080850409
1000000000,1895958880,727298411,1125610187,1243016240,2394932,116835634,373755833,1063708436,1069144203,1074997167,1079362436
1000000000,1894745846,729321730,1124729067,1243071478,2093844,117273899,373303115,1066611487,1071311658,1076959467,1080856376
1000000000,1894751380,729318845,1124686042,1243069082,2092824,117271704,373302183,1066603865,1071303018,1076951487,1080847722
1000000000,1890565590,728943510,1116907743,1245493957,19474704,133549230,384146867,1054932561,1060849876,1067072294,1071410433
1000000000,1894754537,729318691,1124592992,1243068581,2090346,117270563,373303348,1066616941,1071313622,1076959927,1080853056
1000000000,1895310562,728077632,1125191505,1243110063,2345879,117097380,373562447,1064774365,1070024677,1075861233,1080013854
1000000000,1895395767,728541420,1125146625,1242976811,2142924,117011498,373495942,1065540386,1070426039,1076090765,1080200358
1000000000,1894754159,729318622,1124608321,1243068590,2090754,117270693,373303109,1066614352,1071311440,1076958079,1080851589
1000000000,1895952945,727299969,1125726286,1243017916,2397977,116837873,373755087,1063698678,1069137483,1074992413,1079361321
1000000000,1894755876,729318697,1124549817,1243068413,2089209,117270086,373303921,1066623294,1071318841,1076963954,1080855324
1000000000,1895958307,727296601,1125709769,1243015255,2397710,116835701,373753535,1063684633,1069123171,1074979773,1079349189
1000000000,1889356607,730966178,1115930843,1245548303,19171030,133986004,383695115,1057846993,1063026132,1069041342,1072907859
1000000000,1894753019,729320218,1124571335,1243069670,2089695,117271222,373304439,1066627607,1071323639,1076968345,1080859984
1000000000,1895953651,727298967,1125749574,1243017239,2398649,116837544,373754248,1063690315,1069129790,1074985980,1079356154
1000000000,1894757049,729317628,1124561650,1243067636,2089572,117269586,373303204,1066616346,1071312255,1076958282,1080850333
1000000000,1895959120,727298223,1125611219,1243016099,2394968,116835534,373755721,1063707370,1069143173,1074996255,1079361572
1000000000,1894745627,729321904,1124727996,1243071608,2093808,117273990,373303220,1066612490,1071312625,1076960322,1080857183
1000000000,1894751295,729318891,1124686606,1243069117,2092836,117271737,373302200,1066604007,1071303172,1076951633,1080847884
1000000000,1895961380,727295837,1125647522,1243014413,2396081,116834546,373753970,1063690174,1069127087,1074982552,1079349908
1000000000,1889353971,730968505,1115856879,1245553176,19183531,133998196,383704987,1057847049,1063036063,1069050157,1072914376
1000000000,1895251147,728125309,1125207674,1243146255,2432615,117189472,373609519,1064750633,1070068165,1075908415,1080053823
1000000000,1895389636,728523882,1125189281,1243008052,2246502,117089770,373563931,1065413480,1070387961,1076058857,1080179741
1000000000,1894719671,729335522,1124633737,1243102000,2178575,117351184,373357881,1066559551,1071328633,1076977913,1080872285
1000000000,1895921717,727313339,1125759121,1243052039,2500449,116927817,373815451,1063603564,1069126402,1074988474,1079360570
1000000000,1894718772,729337282,1124581302,1243103144,2177105,117351639,373359498,1066575846,1071343462,1076990326,1080882231
1000000000,1895922223,727313617,1125730947,1243052124,2499979,116927854,373816090,1063608831,1069131180,1074992352,1079363380
1000000000,1894723130,729332475,1124662434,1243099786,2179201,117349520,373355778,1066540645,1071310371,1076962418,1080859055
1000000000,1889332458,730979617,1115897055,1245576303,19242596,134051918,383740691,1057805655,1063043186,1069059877,1072925497
1000000000,1895955845,727297455,1125749069,1243016072,2398712,116836647,373753460,1063682989,1069122527,1074979438,1079349672
1000000000,1894755008,729318931,1124567054,1243068662,2089647,117270414,373303819,1066621938,1071317922,1076963304,1080855179
1000000000,1895959799,727298667,1125571049,1243016269,2393831,116835325,373756512,1063715744,1069150413,1075002144,1079365774
1000000000,1894744948,729321462,1124767955,1243071438,2094942,117274199,373302429,1066604144,1071305410,1076954453,1080852997
1000000000,1894753333,729317940,1124665474,1243068297,2092317,117270936,373301985,1066602504,1071301151,1076949645,1080845403
1000000000,1895959365,727296770,1125668819,1243015219,2396603,116835337,373754176,1063691575,1069129009,1074984453,1079352306
1000000000,1894753716,729320076,1124555487,1243069496,2089287,117270962,373304571,1066629219,1071324844,1076969239,1080860353
1000000000,1889671867,730012902,1116386704,1245629362,19417051,133925939,383898498,1056375651,1062066444,1068267685,1072314839
1000000000,1895641205,728252847,1125249724,1242937487,2151428,116897424,373551321,1065170186,1070096808,1075765724,1079953567
1000000000,1894753138,729319539,1124599003,1243069259,2090458,117271128,373303714,1066620228,1071317020,1076962832,1080855665
1000000000,1895954521,727298713,1125733378,1243016976,2398234,116837214,373754330,1063691449,1069130511,1074986447,1079356112
1000000000,1894755747,729318763,1124550878,1243068468,2089233,117270137,373303943,1066623471,1071319042,1076964112,1080855442
1000000000,1895957810,727297216,1125697663,1243015679,2397353,116835926,373754021,1063689450,1069127632,1074983552,1079352343
1000000000,1894748947,729321555,1124639761,1243070976,2091444,117272778,373304231,1066624039,1071321816,1076967322,1080860785
1000000000,1894685406,729186454,1124847756,1243049000,2110207,117271604,373268783,1066406051,1071221885,1076876331,1080783529
1000000000,1890632628,729076238,1116773566,1245515476,19458029,133549785,384179610,1055127004,1060928342,1067145666,1071474101
1000000000,1894755084,729318882,1124566792,1243068622,2089644,117270383,373303795,1066621727,1071317708,1076963109,1080854980
1000000000,1895959704,727298713,1125572071,1243016313,2393855,116835364,373756524,1063715825,1069150518,1075002251,1079365913
1000000000,1894745030,729321426,1124766960,1243071404,2094918,117274166,373302425,1066604106,1071305348,1076954386,1080852898
1000000000,1894753358,729317911,1124666019,1243068276,2092332,117270925,373301961,1066602290,1071300952,1076949472,1080845250
1000000000,1895959336,727296801,1125668281,1243015241,2396588,116835350,373754199,1063691800,1069129219,1074984635,1079352468
1000000000,1894753723,729320069,1124555621,1243069491,2089290,117270959,373304566,1066629170,1071324798,1076969199,1080860317
1000000000,1895956046,727297457,1125742569,1243016049,2398538,116836574,373753549,1063683973,1069123337,1074980271,1079350657
1000000000,1889357310,730968434,1115894075,1245551128,19169938,133986863,383696243,1057862325,1063040373,1069053574,1072918181
1000000000,1894753132,729319537,1124599050,1243069258,2090463,117271130,373303714,1066620196,1071316994,1076962813,1080855654
1000000000,1895954579,727298677,1125733394,1243016949,2398232,116837190,373754311,1063691296,1069130355,1074986303,1079355964
1000000000,1894755695,729318801,1124550803,1243068496,2089230,117270159,373303962,1066623656,1071319224,1076964275,1080855601
1000000000,1895957809,727297211,1125697848,1243015678,2397359,116835926,373754018,1063689403,1069127591,1074983518,1079352317
1000000000,1894750358,729320601,1124638614,1243070235,2091462,117272202,373303742,1066619534,1071317329,1076963276,1080856803
1000000000,1894679572,729181898,1124851463,1243059540,2114030,117275590,373270452,1066395030,1071225922,1076879977,1080787341
1000000000,1896030007,727434936,1125484711,1243025620,2374833,116831957,373786799,1063909162,1069214294,1075063178,1079419309
1000000000,1889362469,730965753,1115853039,1245548911,19168993,133984825,383695373,1057855218,1063032323,1069046120,1072910057
1000000000,1895959631,727298740,1125573165,1243016335,2393882,116835392,373756524,1063715795,1069150515,1075002263,1079365961
1000000000,1894745164,729321356,1124765963,1243071348,2094894,117274113,373302401,1066603920,1071305138,1076954183,1080852663
1000000000,1894753261,729317969,1124666430,1243068323,2092341,117270964,373301986,1066602507,1071301178,1076949681,1080845471
1000000000,1895959356,727296797,1125667806,1243015236,2396576,116835342,373754202,1063691851,1069129258,1074984663,1079352480
1000000000,1894753723,729320069,1124555572,1243069491,2089290,117270959,373304567,1066629169,1071324797,1076969199,1080860317
1000000000,1895956139,727297390,1125742701,1243015997,2398544,116836536,373753512,1063683627,1069122997,1074979967,1079350361
1000000000,1894753763,729319420,1124584255,1243069108,2090079,117270896,373303847,1066621790,1071318205,1076963725,1080856073
1000000000,1889356392,730968587,1115908779,1245551201,19170319,133987123,383696177,1057861014,1063039442,1069052902,1072917998
1000000000,1895954673,727298614,1125733319,1243016900,2398232,116837152,373754280,1063691006,1069130065,1074986041,1079355702
1000000000,1894755605,729318863,1124550798,1243068544,2089227,117270195,373303995,1066623963,1071319528,1076964548,1080855870
1000000000,1895957799,727297211,1125698213,1243015679,2397368,116835930,373754013,1063689350,1069127547,1074983483,1079352294
1000000000,1894753165,729318693,1124636530,1243068760,2091504,117271053,373302768,1066610506,1071308342,1076955789,1080850573
1000000000,1894683648,729176631,1124858270,1243083682,2121569,117284539,373286626,1066405268,1071236222,1076888697,1080794944
1000000000,1896023134,727442112,1125479637,1243002954,2367243,116824154,373771605,1063908007,1069213027,1075061982,1079417961
1000000000,1894752961,729320133,1124577135,1243069625,2089854,117271237,373304315,1066626326,1071322517,1076967252,1080858780
1000000000,1890568547,728944200,1116849694,1245495143,19473048,133548911,384147647,1054944135,1060859796,1067080632,1071416775
1000000000,1894745336,729321259,1124764881,1243071269,2094870,117274044,373302365,1066603607,1071304801,1076953866,1080852314
1000000000,1894753109,729318066,1124666795,1243068401,2092347,117271026,373302031,1066602928,1071301605,1076950069,1080845867
1000000000,1895959360,727296802,1125667511,1243015237,2396567,116835341,373754210,1063691914,1069129312,1074984709,1079352514
1000000000,1894753723,729320066,1124555718,1243069490,2089293,117270959,373304564,1066629142,1071324773,1076969178,1080860300
1000000000,1895956194,727297351,1125742713,1243015967,2398547,116836513,373753491,1063683432,1069122805,1074979795,1079350193
1000000000,1894753782,729319410,1124584168,1243069098,2090076,117270888,373303842,1066621756,1071318168,1076963690,1080856034
1000000000,1895603311,727733391,1125314689,1243063218,2356028,116961377,373628550,1064332881,1069632091,1075473742,1079720010
1000000000,1889706441,730533375,1116326261,1245503673,19212523,133862676,383822084,1057217969,1062536246,1068564049,1072552538
1000000000,1894755459,729318963,1124550899,1243068621,2089224,117270255,373304046,1066624438,1071320000,1076964973,1080856291
1000000000,1895957788,727297214,1125698418,1243015681,2397374,116835934,373754010,1063689325,1069127528,1074983469,1079352288
1000000000,1894753959,729318156,1124635912,1243068344,2091513,117270729,373302496,1066607982,1071305827,1076953522,1080848318
1000000000,1894689477,729170257,1124863742,1243105928,2128868,117292380,373301538,1066408924,1071239974,1076892128,1080798503
1000000000,1896016518,727449022,1125474596,1242981122,2359929,116816634,373756968,1063906909,1069211818,1075060840,1079416671
1000000000,1894755207,729318583,1124576521,1243068433,2089917,117270316,373303510,1066618834,1071315087,1076961009,1080853513
1000000000,1895956219,727297258,1125746263,1243015910,2398646,116836498,373753395,1063682449,1069121921,1074978964,1079349326
1000000000,1889353107,730968916,1115866798,1245549462,19169209,133986947,383697719,1057870443,1063047764,1069059489,1072922742
1000000000,1894752892,729318204,1124667489,1243068510,2092356,117271114,373302097,1066603508,1071302194,1076950607,1080846417
1000000000,1895959373,727296800,1125667202,1243015233,2396558,116835336,373754211,1063691957,1069129346,1074984734,1079352527
1000000000,1894753726,729320065,1124555673,1243069492,2089293,117270959,373304564,1066629145,1071324776,1076969180,1080860302
1000000000,1895956206,727297342,1125742635,1243015958,2398547,116836507,373753487,1063683387,1069122760,1074979755,1079350153
1000000000,1894753807,729319395,1124584002,1243069086,2090073,117270878,373303836,1066621702,1071318111,1076963637,1080855977
1000000000,1895611119,727724315,1125318033,1243061896,2356300,116957783,373630184,1064320667,1069621160,1075463036,1079711791
1000000000,1895093662,728895790,1125021120,1243025793,2132476,117151727,373428745,1065999089,1070834534,1076493447,1080506870
403846762,765884284,293346286,454507924,501929931,1043602,47133628,151019073,429063072,431353019,433765295,435616753
number,of,instructions:,151403846574
