-------------------------------------------

omp_num_threads=1

Configuration used: cores = 1, boxes1d = 30
Time spent in different stages of CPU/MCPU KERNEL:
 0.000000000000 s,  0.000000000000 % : CPU/MCPU: VARIABLES
 0.000006000000 s,  0.000001250218 % : MCPU: SET DEVICE
 0.000000000000 s,  0.000000000000 % : CPU/MCPU: INPUTS
479.916351318359 s, 99.999992370605 % : CPU/MCPU: KERNEL
Total time:
479.916381835938 s
Time spent in different stages of the application:
 0.000000000000 s,  0.000000000000 % : VARIABLES
 0.000296999991 s,  0.000061850675 % : INPUT ARGUMENTS
 0.000000000000 s,  0.000000000000 % : INPUTS
 0.000000000000 s,  0.000000000000 % : dim_cpu
 0.265181988478 s,  0.055224530399 % : SYS MEM: ALO
479.916381835938 s, 99.943275451660 % : KERNEL: COMPUTE
 0.006895000115 s,  0.001435893704 % : SYS MEM: FRE
Total time:
480.188781738281 s
===========================================

-------------------------------------------

omp_num_threads=2

Configuration used: cores = 2, boxes1d = 30
Time spent in different stages of CPU/MCPU KERNEL:
 0.000000000000 s,  0.000000000000 % : CPU/MCPU: VARIABLES
 0.000007000000 s,  0.000002861311 % : MCPU: SET DEVICE
 0.000000000000 s,  0.000000000000 % : CPU/MCPU: INPUTS
244.643081665039 s, 100.000000000000 % : CPU/MCPU: KERNEL
Total time:
244.643081665039 s
Time spent in different stages of the application:
 0.000000000000 s,  0.000000000000 % : VARIABLES
 0.000322999986 s,  0.000131882116 % : INPUT ARGUMENTS
 0.000000000000 s,  0.000000000000 % : INPUTS
 0.000000000000 s,  0.000000000000 % : dim_cpu
 0.264827996492 s,  0.108130261302 % : SYS MEM: ALO
244.643142700195 s, 99.888710021973 % : KERNEL: COMPUTE
 0.007420000155 s,  0.003029613988 % : SYS MEM: FRE
Total time:
244.915695190430 s
===========================================

-------------------------------------------

omp_num_threads=4

Configuration used: cores = 4, boxes1d = 30
Time spent in different stages of CPU/MCPU KERNEL:
 0.000000000000 s,  0.000000000000 % : CPU/MCPU: VARIABLES
 0.000008000000 s,  0.000006389656 % : MCPU: SET DEVICE
 0.000000000000 s,  0.000000000000 % : CPU/MCPU: INPUTS
125.202354431152 s, 99.999992370605 % : CPU/MCPU: KERNEL
Total time:
125.202362060547 s
Time spent in different stages of the application:
 0.000000000000 s,  0.000000000000 % : VARIABLES
 0.000383000006 s,  0.000305236346 % : INPUT ARGUMENTS
 0.000000000000 s,  0.000000000000 % : INPUTS
 0.000000000000 s,  0.000000000000 % : dim_cpu
 0.266205012798 s,  0.212155193090 % : SYS MEM: ALO
125.202407836914 s, 99.781524658203 % : KERNEL: COMPUTE
 0.007542999927 s,  0.006011481863 % : SYS MEM: FRE
Total time:
125.476547241211 s
===========================================

-------------------------------------------

omp_num_threads=10

Configuration used: cores = 10, boxes1d = 30
Time spent in different stages of CPU/MCPU KERNEL:
 0.000000000000 s,  0.000000000000 % : CPU/MCPU: VARIABLES
 0.000008000000 s,  0.000015921800 % : MCPU: SET DEVICE
 0.000000000000 s,  0.000000000000 % : CPU/MCPU: INPUTS
50.245563507080 s, 99.999984741211 % : CPU/MCPU: KERNEL
Total time:
50.245571136475 s
Time spent in different stages of the application:
 0.000000000000 s,  0.000000000000 % : VARIABLES
 0.000429000007 s,  0.000849174568 % : INPUT ARGUMENTS
 0.000000000000 s,  0.000000000000 % : INPUTS
 0.000001000000 s,  0.000001979428 % : dim_cpu
 0.266157001257 s,  0.526838600636 % : SYS MEM: ALO
50.245613098145 s, 99.457565307617 % : KERNEL: COMPUTE
 0.007449999917 s,  0.014746737666 % : SYS MEM: FRE
Total time:
50.519649505615 s
===========================================

-------------------------------------------

omp_num_threads=20

Configuration used: cores = 20, boxes1d = 30
Time spent in different stages of CPU/MCPU KERNEL:
 0.000000000000 s,  0.000000000000 % : CPU/MCPU: VARIABLES
 0.000008000000 s,  0.000031343639 % : MCPU: SET DEVICE
 0.000000000000 s,  0.000000000000 % : CPU/MCPU: INPUTS
25.523511886597 s, 99.999969482422 % : CPU/MCPU: KERNEL
Total time:
25.523519515991 s
Time spent in different stages of the application:
 0.000000000000 s,  0.000000000000 % : VARIABLES
 0.000451000000 s,  0.001748166746 % : INPUT ARGUMENTS
 0.000000000000 s,  0.000000000000 % : INPUTS
 0.000000000000 s,  0.000000000000 % : dim_cpu
 0.266840994358 s,  1.034329414368 % : SYS MEM: ALO
25.523553848267 s, 98.934425354004 % : KERNEL: COMPUTE
 0.007610000204 s,  0.029497889802 % : SYS MEM: FRE
Total time:
25.798456192017 s
===========================================

-------------------------------------------

omp_num_threads=30

Configuration used: cores = 30, boxes1d = 30
Time spent in different stages of CPU/MCPU KERNEL:
 0.000000000000 s,  0.000000000000 % : CPU/MCPU: VARIABLES
 0.000008000000 s,  0.000038530641 % : MCPU: SET DEVICE
 0.000001000000 s,  0.000004816330 % : CPU/MCPU: INPUTS
20.762687683105 s, 99.999961853027 % : CPU/MCPU: KERNEL
Total time:
20.762695312500 s
Time spent in different stages of the application:
 0.000000000000 s,  0.000000000000 % : VARIABLES
 0.000387000007 s,  0.001839610399 % : INPUT ARGUMENTS
 0.000000000000 s,  0.000000000000 % : INPUTS
 0.000000000000 s,  0.000000000000 % : dim_cpu
 0.265603989363 s,  1.262552618980 % : SYS MEM: ALO
20.762771606445 s, 98.696151733398 % : KERNEL: COMPUTE
 0.008299999870 s,  0.039454173297 % : SYS MEM: FRE
Total time:
21.037063598633 s
===========================================

-------------------------------------------

omp_num_threads=40

Configuration used: cores = 40, boxes1d = 30
Time spent in different stages of CPU/MCPU KERNEL:
 0.000000000000 s,  0.000000000000 % : CPU/MCPU: VARIABLES
 0.000008000000 s,  0.000047756646 % : MCPU: SET DEVICE
 0.000000000000 s,  0.000000000000 % : CPU/MCPU: INPUTS
16.751588821411 s, 99.999954223633 % : CPU/MCPU: KERNEL
Total time:
16.751596450806 s
Time spent in different stages of the application:
 0.000000000000 s,  0.000000000000 % : VARIABLES
 0.000444000005 s,  0.002607718576 % : INPUT ARGUMENTS
 0.000000000000 s,  0.000000000000 % : INPUTS
 0.000000000000 s,  0.000000000000 % : dim_cpu
 0.266074985266 s,  1.562722444534 % : SYS MEM: ALO
16.751653671265 s, 98.386489868164 % : KERNEL: COMPUTE
 0.008204000071 s,  0.048184067011 % : SYS MEM: FRE
Total time:
17.026376724243 s
===========================================

