251480216 142607 225836945 2589390 905721 111080 2112693 563235 2265742 6743987 9200810 918478 19396 43416 23690 1849 794 303 73 7 0
236115253 56562 211694302 1244713 884832 95870 2085995 518537 2246923 7169679 10027269 3767 18828 42438 23547 1907 7 0 8 69 0
236113985 56188 211684288 1246189 884580 95794 2086820 537043 2332700 7200479 9899203 3766 18828 42440 23550 1854 0 0 1 262 0
235528621 65058 210600547 1436070 1032214 111918 2432506 583041 2345357 7176583 9639230 4396 21963 49513 27471 2047 3 0 0 638 66
236114375 56080 211695152 1244170 884568 95765 2086096 516566 2206277 6993434 10245392 3766 18828 42440 23549 1852 0 0 0 364 76
235533873 65176 210600863 1438147 1031991 111771 2434012 601827 2466150 7355086 9322977 4393 21969 49510 27475 2221 4 0 0 213 88
236111608 55815 211692928 1243878 884826 95870 2085996 516571 2205017 6988479 10250995 3767 18828 42438 23547 1863 0 0 0 681 109
236441162 63753 211572444 1472349 1031661 109191 2423102 560546 2337769 7161510 9600869 4392 21961 49515 27473 1888 0 0 0 137 2602
242861959 0 217804050 1871935 885638 98704 2097295 559272 2326696 7088316 9487968 461326 18828 42440 23576 1849 30 244 38 0 93754
236116475 0 211702218 1243738 884824 95870 2085995 516571 2199452 6969369 10271454 3767 18828 42438 23547 1907 7 0 0 326 56164
235529059 0 210591763 1438070 1031969 111813 2433386 603507 2460185 7321070 9366307 4394 21963 49515 27473 2199 0 0 1 1223 64221
236116847 0 211697949 1244112 884824 95899 2085940 516577 2214959 7045795 10183710 3768 18828 42438 23548 1702 3 0 0 660 56135
235853868 0 210999648 1427746 1031411 103778 2269083 559070 2339821 7205660 9749793 4392 21966 48993 27474 1854 0 0 0 364 62815
235790196 0 211289170 1254763 885150 103758 2251025 559323 2340066 7168581 9788171 3767 18831 42957 23550 2219 4 0 0 213 58648
236115670 0 211697630 1244232 884828 95870 2085996 516572 2220611 7084819 10138187 3767 18828 42438 23547 1863 0 0 0 681 55801
243186606 0 217683084 2099189 1032716 112090 2434349 601280 2394916 6963268 9198959 461952 21961 49515 27502 1888 20 239 38 137 103503
236115416 0 211694711 1244958 884573 95812 2086044 518538 2246922 7168192 10028528 3766 18828 42440 23547 1849 10 5 0 0 56693
236114100 0 211683917 1245960 884841 95870 2086774 537944 2333489 7200478 9897944 3767 18828 42438 23547 1907 7 0 0 326 56063
235528680 0 210600998 1436300 1031956 111813 2432607 582134 2344578 7176583 9640553 4395 21963 49515 27473 2199 0 0 1 1223 64389
236114359 0 211695161 1243916 884823 95899 2085940 516577 2206258 6993787 10245044 3767 18828 42438 23548 1702 3 0 0 660 56008
235533751 0 210600846 1438147 1031994 111721 2434067 601821 2466160 7354733 9323215 4393 21969 49510 27474 2139 0 0 0 411 65151
236111612 0 211692664 1244134 884565 95815 2086041 516572 2205016 6988478 10251274 3766 18828 42440 23550 1934 4 0 0 166 56365
235533693 0 210608225 1436578 1032217 111939 2433285 593056 2386565 7161596 9599380 4395 21963 49514 27471 2179 0 0 0 757 64573
243768508 0 218765477 1908676 885342 96017 2087063 526760 2277901 7090284 9488038 461324 18826 42439 23578 1572 20 239 38 61 94853
236117516 0 211703948 1243982 884565 95812 2086044 516572 2199451 6967317 10272837 3766 18828 42440 23547 1849 10 5 0 0 56543
235529766 0 210592703 1437816 1032227 111939 2433285 603512 2460176 7322263 9364860 4395 21963 49514 27471 2210 7 0 0 485 64940
236115739 0 211696175 1244371 884569 95744 2086096 516566 2214978 7046456 10183701 3767 18828 42439 23549 1896 0 0 1 1064 55539
235849869 0 210995233 1427740 1031410 103814 2271251 559079 2339869 7203805 9749793 4392 21966 48999 27475 1705 3 0 0 660 62675
235794780 0 211294868 1254508 885409 103806 2248756 559319 2340009 7168581 9789355 3768 18831 42949 23547 2136 0 0 0 411 58527
236114773 0 211695810 1244503 884567 95815 2086041 516573 2221842 7085689 10137003 3766 18828 42440 23550 1934 4 0 0 166 56242
235533165 0 210599382 1437687 1032226 111939 2433286 603511 2454443 7281775 9407821 4395 21963 49514 27471 2179 0 0 0 757 64816
243770251 1 218778454 1908387 885346 96026 2087061 516302 2186164 6848814 9820902 461324 18826 42439 23578 1572 20 239 38 61 94697
236113352 3 211682339 1246261 884583 95812 2087252 539501 2333528 7200480 9896708 3766 18828 42440 23547 1849 10 5 0 0 56440
235530000 3 210603178 1435996 1032213 111939 2432077 580583 2344529 7176582 9641749 4396 21963 49514 27471 2210 7 0 0 485 65105
236114044 3 211694835 1244172 884568 95744 2086096 516566 2206277 6993787 10245044 3766 18828 42439 23549 1896 0 0 1 1064 55409
235533783 4 210600960 1438145 1031991 111750 2434012 601827 2466150 7354734 9323163 4393 21969 49510 27475 1995 3 0 0 741 64961
236111273 3 211692122 1243881 884826 95870 2085995 516571 2205017 6988477 10251467 3767 18828 42438 23547 1846 0 0 0 330 56288
235533711 4 210608011 1436847 1031959 111834 2433385 593051 2388130 7161596 9598043 4394 21963 49515 27473 2203 4 0 0 253 65046
236115845 3 211688744 1245362 884834 95920 2085942 527033 2288605 7207832 9944386 3768 18828 42439 23548 1910 0 0 0 670 56021
243770625 3 218778920 1909349 885367 96021 2087061 516301 2187183 6850076 9817599 461323 18826 42439 23578 1572 20 239 38 61 94649
235530037 0 210593283 1438067 1031971 111831 2433389 603507 2460185 7323058 9363759 4394 21963 49515 27470 2130 10 5 0 0 65500
236113765 0 211692392 1244136 884825 95920 2085940 516577 2215816 7047325 10183751 3768 18828 42439 23548 1929 7 0 0 485 56079
235847588 0 210993764 1427719 1031414 103757 2273326 559070 2339086 7201834 9749734 4392 21966 49005 27474 1898 0 0 1 1064 62084
235799246 0 211300347 1254762 885146 103737 2246782 559323 2339944 7168582 9790460 3767 18831 42944 23550 1993 3 0 0 741 58334
236112996 0 211692795 1244273 884829 95870 2085995 516574 2223785 7086014 10135937 3767 18828 42438 23547 1846 0 0 0 330 56168
235534841 0 210602127 1437920 1031967 111834 2433386 603504 2452510 7281449 9409045 4394 21963 49515 27473 2203 4 0 0 253 65294
236112261 0 211692064 1243757 884822 95920 2085941 516577 2199177 6972483 10274508 3768 18828 42439 23548 1910 0 0 0 670 55849
243772044 0 218766217 1913922 885384 96026 2088269 539374 2321536 7076810 9441839 461323 18826 42439 23578 1572 20 239 38 61 94571
235530036 0 210603345 1436234 1031957 111831 2432181 580433 2343509 7176583 9642807 4395 21963 49515 27470 2130 10 5 0 0 65668
236114573 0 211695352 1243918 884823 95920 2085940 516577 2206258 6993787 10245044 3767 18828 42439 23548 1929 7 0 0 485 55951
235533575 0 210600745 1438146 1031994 111700 2434067 601821 2466160 7354733 9323161 4393 21969 49508 27474 2005 0 0 1 1354 64344
236111091 0 211691862 1244133 884565 95794 2086041 516572 2205016 6988479 10251575 3766 18828 42441 23550 1886 3 0 0 451 56129
235532403 0 210605682 1436632 1032218 111939 2433285 594535 2388762 7161618 9596879 4395 21963 49514 27471 2154 0 0 0 364 64992
236117196 0 211691173 1245578 884578 95765 2086096 525543 2287983 7207809 9945484 3767 18828 42439 23549 1895 4 0 0 219 56486
236113353 0 211686883 1244979 884831 95920 2085941 520644 2258898 7200156 9988201 3767 18828 42439 23548 1910 0 0 0 670 55738
243187938 1 217683382 2104838 1032773 112088 2434354 599174 2388451 6973976 9192068 461951 21961 49514 27499 1909 20 244 38 61 103636
236112744 0 211690636 1244396 884570 95765 2086096 516566 2215835 7047999 10183798 3767 18828 42440 23549 1793 10 0 0 0 56696
235845013 0 210990982 1427710 1031411 103835 2275134 559079 2339124 7200162 9749678 4392 21966 49012 27475 1932 7 0 0 485 62629
235803049 0 211305078 1254510 885407 103785 2244873 559319 2339897 7168581 9791454 3768 18831 42935 23547 2002 0 0 1 1354 57707
236112536 0 211691984 1244533 884568 95794 2086041 516575 2223784 7087366 10134960 3766 18828 42441 23550 1886 3 0 0 451 56006
235534950 0 210602403 1437661 1032225 111939 2433285 603509 2452501 7280098 9410234 4395 21963 49514 27471 2154 0 0 0 364 65234
236112506 0 211692504 1244011 884567 95765 2086096 516566 2199196 6972483 10274304 3767 18828 42439 23549 1895 4 0 0 219 56313
235530785 0 210596874 1437827 1031989 111771 2434013 601642 2449783 7247653 9448284 4393 21969 49511 27475 2213 0 0 0 731 64657
243771276 1 218772369 1912384 885622 96237 2086284 518176 2215242 7005740 9636350 461326 18820 42442 23572 1606 20 244 38 0 94803
236114468 3 211695228 1244175 884568 95765 2086096 516566 2206277 6993787 10245051 3766 18828 42440 23549 1793 10 0 0 0 56566
235533977 3 210601111 1438145 1031991 111771 2434012 601827 2466150 7354733 9323187 4393 21969 49511 27475 2222 7 0 0 659 64811
236110963 3 211691687 1243879 884826 95849 2085995 516571 2205017 6988478 10251613 3767 18828 42436 23547 1712 0 0 1 1180 55574
235532075 4 210605083 1436898 1031960 111813 2433386 594530 2390095 7161633 9595818 4394 21963 49516 27473 2192 3 0 0 526 64788
236117297 3 211691553 1245311 884833 95920 2085940 525554 2286640 7207795 9946567 3768 18828 42439 23548 1848 0 0 0 289 56461
236113516 3 211687085 1245238 884576 95765 2086096 520633 2258917 7201186 9987118 3766 18828 42439 23549 1895 4 0 0 219 56199
235529504 3 210598688 1437276 1031985 111771 2434013 597760 2421004 7173112 9552752 4393 21969 49511 27475 2213 0 0 0 731 64848
243771172 4 218767236 1919692 885747 96357 2086294 517994 2183262 6848315 9823232 461327 18820 42445 23572 1870 20 244 38 0 94703
235861597 0 210962908 1475938 1032205 104534 2268531 559070 2338947 7199680 9750044 5002 21966 49009 27474 3055 10 0 0 0 63224
235790909 0 211233427 1311037 886080 104637 2251718 559323 2340083 7168706 9784027 3773 18831 42981 23550 3811 7 0 0 659 58259
236117945 0 211652589 1292554 885622 96603 2086058 516572 2220618 7075307 10143569 3772 18828 42456 23547 3214 0 0 1 1180 55455
235533769 0 210542130 1494299 1032897 112695 2433452 603516 2455684 7292451 9393343 5011 21963 49537 27473 3761 3 0 0 526 65028
236120064 0 211656617 1292156 885617 96673 2086005 516577 2198111 6964509 10274733 4568 18828 42457 23548 3079 0 0 0 309 56277
235533858 0 210545410 1494003 1032909 112598 2434142 601140 2443729 7230924 9466558 4400 21969 49531 27474 3701 4 0 0 355 65011
236114704 0 211645275 1292851 885368 96570 2086097 517262 2236501 7141758 10064435 3772 18828 42459 23550 3333 0 0 0 688 55957
243773952 35 218738550 1950396 886260 96859 2086339 517993 2189484 6867145 9796975 461330 18821 42457 23572 2778 20 192 82 77 94587
235531931 19 210597207 1438165 1031994 111721 2434067 601821 2466798 7360816 9318303 4393 21969 49510 27474 1979 12 0 0 25 65658
236112989 19 211695025 1244160 884565 95815 2086041 516572 2206104 6990660 10246990 3766 18828 42441 23550 1860 8 0 0 724 55861
235532269 4 210607846 1436258 1032215 111897 2433086 587598 2357115 7169125 9626300 4395 21963 49512 27471 2098 44 0 1 1241 64100
236116790 0 211688579 1245950 884581 95765 2086295 532480 2319719 7200248 9915961 3767 18828 42440 23549 1844 0 0 0 475 56309
236112036 54 211685578 1244808 884830 95920 2085940 519126 2250382 7180822 10017724 3767 18828 42439 23548 1791 0 0 0 418 56061
235530858 240 210599948 1437452 1031989 111721 2434068 599272 2429512 7193437 9522323 4393 21969 49509 27474 2147 0 0 0 347 65057
236114311 1 211698156 1244037 884564 95815 2086041 516572 2201522 6975316 10265311 3766 18828 42441 23550 1938 9 0 0 696 55748
243622589 20 218213356 2093877 1032162 104141 2216923 560495 2320047 7080346 9337910 461951 21958 48831 27499 1638 22 205 67 0 101141
235682336 0 211161609 1254440 885450 103806 2303429 559319 2340651 7161002 9762120 3768 18831 43121 23547 1976 12 0 0 0 59255
236113907 0 211694676 1244434 884567 95815 2086041 516572 2218522 7062305 10164041 3766 18828 42441 23550 1860 8 0 0 723 55758
235533261 0 210599330 1437748 1032226 111897 2433285 603512 2457341 7304176 9382658 4395 21963 49512 27471 2098 44 0 1 1221 64383
236112278 0 211692143 1244019 884567 95765 2086096 516566 2199481 6973071 10273548 3767 18828 42440 23549 1844 0 0 0 475 56119
235531247 0 210598611 1437707 1031988 111771 2434012 601146 2443719 7224491 9476869 4393 21969 49511 27475 2120 0 0 0 452 65013
236116576 0 211697580 1244510 884830 95870 2085996 517252 2235614 7143815 10063992 3767 18828 42437 23547 1818 0 0 0 313 56407
236117561 0 211625804 1308766 885809 98766 2096547 559923 2337129 7191243 9862630 4028 18828 44146 23550 1938 9 0 0 696 57749
243183751 2 217743075 2039651 1031553 109117 2423850 559892 2320041 7040582 9253167 461690 21961 47809 27499 1995 24 205 67 0 101571
236112719 3 211694656 1243902 884826 95870 2085995 516571 2206105 6990662 10247078 3767 18828 42438 23547 1619 10 0 0 0 56842
235532644 4 210608211 1436522 1031957 111834 2433187 587593 2358232 7169124 9625152 4394 21963 49516 27473 2193 8 0 0 886 64395
236116846 2 211688670 1245687 884836 95878 2086139 532491 2318592 7200248 9917095 3768 18828 42437 23548 1765 44 0 1 1058 55759
236111899 3 211685380 1245068 884575 95765 2086096 519115 2250401 7182002 10016590 3766 18828 42440 23549 1844 0 0 0 475 56002
235530578 4 210599735 1437448 1031986 111771 2434012 599278 2429502 7192256 9523452 4393 21969 49511 27475 2120 0 0 0 452 65214
236114303 3 211698119 1243782 884825 95870 2085996 516571 2201523 6975317 10265328 3767 18828 42437 23547 1818 0 0 0 313 56259
235532216 3 210596945 1438107 1031969 111834 2433386 603507 2462531 7344684 9338250 4394 21963 49516 27473 2233 9 0 0 696 64716
243772872 2 218778656 1910091 885381 96057 2087009 516305 2198169 6896663 9761698 461324 18826 42439 23576 1700 24 205 67 0 94680
236113695 0 211694437 1244179 884828 95870 2085995 516571 2218523 7063375 10162986 3767 18828 42438 23547 1619 10 0 0 0 56722
235533534 0 210599510 1438003 1031968 111834 2433386 603507 2457350 7303107 9383779 4394 21963 49516 27473 2193 8 0 0 886 64657
236112427 0 211692408 1243763 884822 95878 2085940 516577 2199462 6973071 10273485 3768 18828 42437 23548 1765 44 0 1 1058 55572
235531139 0 210598480 1437708 1031991 111721 2434068 601140 2443729 7225568 9475802 4393 21969 49510 27474 2191 0 0 0 554 64841
236115097 0 211695240 1244773 884569 95815 2086040 517253 2235613 7144681 10063992 3766 18828 42441 23550 1773 0 0 0 373 56390
236125122 0 211621606 1318383 886303 98866 2096505 559939 2337130 7192063 9862630 4029 18828 44534 23547 1819 0 0 0 313 58627
235520777 0 210668738 1363857 1030494 108838 2422877 560139 2340963 7181380 9677147 4133 21963 47419 27473 2232 9 0 0 696 62419
243769389 0 218775611 1909755 885376 96055 2087008 516305 2185184 6847100 9824217 461323 18826 42439 23576 1700 24 205 67 0 94618
235532472 0 210608029 1436275 1032215 111939 2433086 587598 2359341 7169125 9624033 4395 21963 49514 27471 1899 10 0 0 48 65531
236117071 0 211688763 1245934 884581 95765 2086295 532480 2317493 7200248 9918302 3767 18828 42440 23549 1913 8 0 0 838 55867
236112076 0 211685700 1244816 884830 95878 2085940 519126 2250382 7183115 10015383 3767 18828 42437 23548 1765 44 0 1 1058 55458
235530466 0 210599633 1437443 1031989 111721 2434068 599272 2429512 7191144 9524548 4393 21969 49510 27474 2191 0 0 0 554 65045
236113988 0 211697810 1244039 884564 95815 2086040 516572 2201522 6975315 10265334 3766 18828 42441 23550 1773 0 0 0 373 56246
235532135 0 210596739 1437853 1032227 111939 2433286 603512 2462522 7345897 9337159 4395 21963 49513 27471 2057 9 0 0 515 65078
236113679 0 211692491 1244305 884569 95765 2086096 516566 2211361 7018158 10217293 3767 18828 42440 23549 1994 0 0 0 494 56003
243773247 1 218780928 1910391 885404 96048 2087006 516308 2205339 6941734 9707389 461323 18826 42439 23576 1700 24 205 67 0 94539
235533247 0 210599113 1437747 1032226 111939 2433285 603512 2457341 7302041 9384955 4395 21963 49514 27471 1899 10 0 0 48 65788
236112818 0 211692865 1244017 884567 95765 2086096 516566 2199481 6973071 10273368 3767 18828 42440 23549 1913 8 0 0 838 55679
235531245 0 210598612 1437712 1031988 111729 2434012 601146 2443719 7226659 9474734 4393 21969 49509 27475 2096 44 0 1 1124 64323
236112679 0 211691171 1244532 884831 95870 2085996 517252 2236502 7145327 10064082 3767 18828 42438 23547 1860 0 0 0 488 56188
236135013 0 211626727 1318618 886041 98811 2096549 559940 2336241 7197378 9862540 4028 18828 44538 23550 1774 0 0 0 373 59077
235512883 0 210667289 1363604 1030752 108943 2422777 560144 2340954 7174328 9678217 4134 21963 47416 27471 2056 9 0 0 515 62311
236114498 0 211694725 1244228 884568 95765 2086096 516566 2208118 7003899 10233584 3766 18828 42440 23549 1994 0 0 0 494 55878
243187738 1 217688597 2102672 1032807 112064 2434154 587330 2337531 7012326 9213596 461951 21961 49514 27499 2054 24 205 67 0 103385
236116739 3 211688305 1245671 884836 95920 2086139 532491 2316367 7200248 9919553 3768 18828 42439 23548 1545 10 0 0 48 57020
236112511 3 211686262 1245073 884575 95765 2086096 519115 2250401 7184185 10014132 3766 18828 42440 23549 1913 8 0 0 838 55562
235530574 4 210599805 1437441 1031986 111729 2434012 599278 2429502 7190073 9525609 4393 21969 49509 27475 2096 44 0 1 1124 64524
236113881 3 211697689 1243783 884825 95870 2085996 516571 2201523 6975317 10265336 3767 18828 42438 23547 1860 0 0 0 488 56040
235531773 3 210596300 1438110 1031969 111834 2433385 603507 2462531 7347024 9336107 4394 21963 49516 27473 2043 0 0 0 403 65211
236113665 3 211692473 1244049 884824 95920 2085941 516577 2211342 7017030 10218437 3768 18828 42438 23548 1787 9 0 0 485 56206
235700805 4 210820184 1427629 1031467 103778 2345020 559070 2340298 7191056 9713974 4392 21966 49232 27474 1996 0 0 0 494 62771
243606242 2 218558801 1922296 885929 104047 2175428 560740 2322400 7052719 9378421 461325 18823 42722 23574 2052 24 205 67 0 96667
236112729 0 211692962 1243761 884822 95920 2085940 516577 2199462 6973071 10273193 3768 18828 42439 23548 1545 10 0 0 48 56835
235531564 0 210598888 1437714 1031991 111700 2434068 601140 2443729 7227700 9473703 4393 21969 49509 27474 2238 23 0 1 999 64325
236112130 0 211690109 1244791 884570 95794 2086040 517253 2236501 7145821 10064128 3766 18828 42440 23550 1771 29 0 0 963 55776
236143163 0 211629213 1318353 886302 98866 2096505 559939 2336242 7202635 9862494 4029 18828 44535 23547 1861 0 0 0 488 59326
235504966 0 210665577 1363863 1030494 108838 2422876 560139 2340963 7167536 9679252 4133 21963 47419 27473 2042 0 0 0 403 61995
236112626 0 211691454 1243996 884824 95920 2085941 516577 2209955 7004425 10232588 3767 18828 42438 23548 1787 9 0 0 485 56084
235531992 0 210597283 1438144 1031994 111721 2434067 601821 2465260 7355376 9325264 4393 21969 49510 27474 2351 0 0 0 494 64871
243775130 0 218780681 1913240 885397 96106 2086382 517987 2186802 6856672 9809054 461325 18820 42444 23574 1697 24 205 67 0 94653
236112471 0 211686436 1244821 884830 95920 2085940 519126 2250382 7185186 10012924 3767 18828 42439 23548 1545 10 0 0 48 56721
235530885 0 210600107 1437438 1031989 111700 2434068 599272 2429512 7189072 9526591 4393 21969 49509 27474 2238 23 0 1 999 64530
236113986 0 211697825 1244039 884564 95794 2086040 516572 2201522 6975316 10265337 3766 18828 42440 23550 1771 29 0 0 963 55630
235531551 0 210596061 1437854 1032227 111939 2433286 603512 2462522 7347327 9335821 4395 21963 49514 27471 2142 0 0 0 594 64923
236113437 0 211692212 1244303 884569 95765 2086095 516566 2211361 7016728 10218763 3767 18828 42440 23549 1761 0 0 0 297 56433
235696881 0 210815388 1427630 1031466 103835 2346798 559079 2340336 7191056 9712951 4392 21966 49237 27475 1790 9 0 0 485 62988
235952988 0 211483995 1254581 885352 103806 2173210 559319 2338761 7176154 9828111 3768 18831 42711 23547 2348 0 0 0 494 58000
95017545 50 84857204 605959 445857 53627 1040765 218030 911291 2845083 3966218 1935 9494 21224 11780 699 27 41 87 175 27999
number of instructions: 151403846574
