251472787 3026 243253644 244076283 249867947 251198366 251455813 251458369 891 18853116 34726191 36780947 36788860 36996478 36997498 6844463 67 6517686 6532894 6543153 6838438 6839078 6841517 0 1347675 2351609 2359051 2653337 2757655 2759502
236108728 0 228551974 229386606 235499302 235843276 236107036 236108608 0 10009275 10420158 12477360 12477384 12677016 12677016 1771575 0 1475487 1476435 1478619 1769847 1769895 1771563 0 1212813 1213806 1216140 1508469 1597161 1598751
236107880 0 228549135 229384007 235496064 235841929 236106188 236107772 0 10011710 10423869 12485887 12485911 12685543 12685543 1772797 0 1476709 1477657 1479841 1771069 1771117 1772769 0 1213999 1215001 1217335 1509673 1598365 1599955
235521306 0 227809546 228652077 234841690 235241102 235519330 235521166 0 11645506 12108102 14444925 14444954 14677857 14677857 2050787 0 1705351 1706457 1709003 2048769 2048827 2050773 0 1399376 1400415 1403138 1744069 1847543 1849398
236108060 0 228551006 229386042 235500192 235844166 236106368 236107928 0 10007687 10417737 12471799 12471833 12671455 12671455 1770778 0 1474690 1475638 1477822 1769050 1769098 1770766 0 1212040 1213027 1215361 1507684 1596376 1597966
235526348 0 227818096 228660152 234843173 235244476 235524374 235526207 0 11649133 12113627 14457626 14457668 14690558 14690558 2052607 0 1707171 1708277 1710825 2050591 2050647 2052577 0 1401144 1402196 1404919 1745863 1849337 1851192
236105293 0 228545812 229380796 235497497 235841471 236103601 236105185 0 10007615 10417629 12471547 12471583 12671203 12671203 1770742 0 1474654 1475602 1477786 1769014 1769062 1770730 0 1212004 1212991 1215325 1507648 1596340 1597930
236433952 16 228753365 229592284 235756521 236154208 236431953 236433797 0 12195678 13741784 16070243 16070306 16303295 16303299 2366406 4 2016769 2021401 2024514 2364367 2364429 2366376 0 1398263 1510246 1512884 1852915 1941612 1943467
242855539 11 234963822 235780375 241756780 242592568 242853142 242854708 0 13854248 20903646 22965720 22965759 23165419 23165419 3898843 7 3597863 3601095 3604985 3897055 3897118 3898755 0 1215977 1594414 1596894 1890135 1993611 1995201
236109950 0 228554514 229389765 235502426 235846400 236108258 236109830 0 10007333 10417193 12470559 12470583 12670215 12670215 1770600 0 1474512 1475460 1477644 1768872 1768920 1770588 0 1211870 1212855 1215189 1507510 1596202 1597792
235521954 0 227809637 228651792 234838929 235240232 235519980 235521828 0 11648983 12113402 14457101 14457129 14690033 14690033 2052532 0 1707096 1708202 1710750 2050516 2050572 2052502 0 1401069 1402121 1404844 1745788 1849262 1851117
236110532 0 228555459 229390422 235502273 235846247 236108838 236110410 0 10008080 10418333 12473175 12473200 12672831 12672831 1770975 0 1474887 1475835 1478017 1769245 1769295 1770963 0 1212233 1213221 1215555 1507879 1596571 1598161
235846553 0 228182378 229028264 235176155 235573104 235844583 235846403 0 10929657 11382721 13625204 13625238 13858128 13858128 2025782 0 1680477 1681582 1684088 2023774 2023822 2025768 0 1390348 1391356 1393961 1733988 1822680 1824535
235783671 0 228178711 229009944 235162654 235510982 235781975 235783548 0 10727545 11149229 13305559 13305601 13505223 13505223 1797795 0 1501576 1502525 1504751 1796059 1796115 1797767 0 1223020 1224053 1226505 1519747 1623221 1624811
236109355 0 228553157 229388155 235500863 235844837 236107663 236109247 0 10008321 10418701 12474019 12474055 12673675 12673675 1771096 0 1475008 1475956 1478140 1769368 1769416 1771084 0 1212350 1213339 1215673 1507998 1596690 1598280
243179396 27 235163311 235983848 242013694 242903198 243176729 243178573 0 16039601 24223475 26554730 26554808 26787825 26787829 4493147 11 4138658 4145552 4150367 4491088 4491149 4493098 0 1400916 1890339 1893123 2234062 2337543 2339398
236108996 0 228552351 229387047 235499573 235843543 236107280 236108846 0 10009263 10420140 12477318 12477342 12676974 12676974 1771569 0 1475481 1476424 1478606 1769822 1769871 1771506 0 1212807 1213800 1216134 1508463 1597155 1598745
236107575 0 228548604 229383365 235495709 235841632 236105883 236107455 0 10011760 10423944 12486062 12486086 12685718 12685718 1772822 0 1476734 1477682 1479866 1771094 1771142 1772810 0 1214024 1215026 1217360 1509698 1598390 1599980
235521575 0 227810021 228652676 234842012 235241366 235519601 235521449 0 11645456 12108027 14444750 14444778 14677682 14677682 2050762 0 1705326 1706432 1708980 2048746 2048802 2050732 0 1399351 1400390 1403113 1744044 1847518 1849373
236108044 0 228550972 229386013 235500171 235844145 236106350 236107922 0 10007689 10417740 12471806 12471831 12671462 12671462 1770779 0 1474691 1475639 1477821 1769049 1769099 1770767 0 1212041 1213028 1215362 1507685 1596377 1597967
235526436 0 227818406 228660272 234843261 235244564 235524462 235526282 0 11649133 12113627 14457626 14457666 14690558 14690558 2052607 0 1707171 1708277 1710825 2050591 2050647 2052593 0 1401144 1402196 1404919 1745863 1849337 1851192
236105087 0 228545300 229380348 235497291 235841265 236103395 236104968 0 10007615 10417629 12471547 12471583 12671203 12671203 1770742 0 1474654 1475602 1477786 1769014 1769062 1770714 0 1212004 1212991 1215325 1507648 1596340 1597930
235526378 0 227818825 228661418 234845767 235246370 235524404 235526252 0 11646519 12109641 14448472 14448514 14681404 14681404 2051295 0 1705859 1706965 1709513 2049279 2049335 2051281 0 1399872 1400914 1403637 1744571 1848045 1849900
243762298 27 235896841 236709663 242666737 243499612 243759913 243761493 0 14403421 22535206 24586936 24587008 24786755 24786759 4213961 11 3908662 3915522 3920000 4212190 4212243 4213914 0 1214375 1703753 1706148 1998486 2087185 2088775
236111096 0 228556409 229391764 235503577 235847547 236109380 236110946 0 10007319 10417172 12470510 12470534 12670166 12670166 1770593 0 1474505 1475448 1477630 1768846 1768895 1770530 0 1211863 1212848 1215182 1507503 1596196 1597785
235522136 0 227810086 228652151 234839111 235240414 235520162 235521998 0 11648983 12113402 14457101 14457129 14690033 14690033 2052532 0 1707096 1708202 1710750 2050516 2050572 2052502 0 1401069 1402121 1404844 1745788 1849262 1851117
236109739 0 228553959 229388901 235501475 235845449 236108047 236109631 0 10008088 10418345 12473203 12473227 12672859 12672859 1770979 0 1474891 1475839 1478023 1769251 1769299 1770967 0 1212237 1213225 1215559 1507883 1596575 1598165
235842554 0 228178162 229024048 235172060 235569009 235840582 235842414 0 10939504 11392674 13636352 13636377 13869276 13869276 2025886 0 1680581 1681686 1684190 2023876 2023926 2025872 0 1390450 1391458 1394063 1734090 1822782 1824637
235788465 0 228184453 229015686 235167553 235515881 235786769 235788329 0 10717686 11139258 13294369 13294409 13494033 13494033 1797685 0 1501466 1502415 1504641 1795949 1796005 1797673 0 1222912 1223945 1226397 1519639 1623113 1624703
236108248 0 228551087 229386085 235499726 235843700 236106556 236108129 0 10008351 10418746 12474124 12474160 12673780 12673780 1771111 0 1475023 1475971 1478155 1769383 1769431 1771083 0 1212365 1213354 1215688 1508013 1596705 1598295
235525850 0 227817319 228659404 234843075 235244378 235523876 235525724 0 11648728 12113013 14456208 14456250 14689140 14689140 2052404 0 1706968 1708074 1710622 2050388 2050444 2052390 0 1400945 1401996 1404719 1745662 1849136 1850991
243764041 27 235900613 236713944 242671730 243503905 243761656 243763236 0 14400106 22529438 24574616 24574687 24774435 24774439 4212297 11 3906929 3913833 3918321 4210529 4210579 4212250 0 1212763 1702128 1704523 1996848 2085547 2087137
236106932 0 228547390 229381985 235494963 235840982 236105216 236106782 0 10011859 10424099 12486409 12486433 12686065 12686065 1772872 0 1476784 1477727 1479909 1771125 1771174 1772809 0 1214070 1215073 1217407 1509746 1598438 1600028
235522370 0 227811410 228654211 234842901 235242155 235520396 235522232 0 11645357 12107872 14444403 14444431 14677335 14677335 2050712 0 1705276 1706382 1708930 2048696 2048752 2050682 0 1399305 1400343 1403066 1743996 1847470 1849325
236108044 0 228550978 229386018 235500172 235844146 236106352 236107936 0 10007691 10417743 12471813 12471837 12671469 12671469 1770780 0 1474692 1475640 1477824 1769052 1769100 1770768 0 1212042 1213029 1215363 1507686 1596378 1597968
235526468 0 227818607 228660311 234843292 235244595 235524492 235526324 0 11649131 12113624 14457619 14457649 14690551 14690551 2052606 0 1707170 1708276 1710822 2050588 2050646 2052592 0 1401143 1402195 1404918 1745862 1849336 1851191
236104958 0 228544924 229380170 235497160 235841134 236103266 236104826 0 10007617 10417632 12471554 12471589 12671210 12671210 1770743 0 1474655 1475603 1477787 1769015 1769063 1770731 0 1212005 1212992 1215326 1507649 1596341 1597931
235526186 0 227818493 228660912 234845547 235246168 235524212 235526049 0 11646547 12109683 14448570 14448612 14681502 14681502 2051309 0 1705873 1706979 1709527 2049293 2049349 2051279 0 1399886 1400928 1403651 1744585 1848059 1849914
236109530 0 228553140 229387638 235498834 235843490 236107838 236109422 0 10010570 10422133 12481895 12481931 12681551 12681551 1772225 0 1476137 1477085 1479269 1770497 1770545 1772213 0 1213443 1214441 1216775 1509109 1597803 1599391
243764415 27 235900720 236714382 242672066 243504241 243762030 243763610 0 14400144 22529021 24574275 24574344 24774094 24774098 4212316 11 3907101 3913828 3918322 4210547 4210598 4212269 0 1212782 1702147 1704542 1996867 2085566 2087156
235522512 0 227810794 228652852 234839480 235240779 235520514 235522340 0 11648981 12113399 14457094 14457122 14690026 14690026 2052531 0 1707095 1708196 1710742 2050496 2050553 2052466 0 1401068 1402120 1404843 1745787 1849261 1851116
236107240 0 228549487 229384429 235498942 235842916 236105548 236107124 0 10008127 10418410 12473340 12473364 12672996 12672996 1770999 0 1474911 1475859 1478043 1769271 1769319 1770971 0 1212253 1213242 1215576 1507901 1596593 1598183
235840588 0 228177292 229023178 235170035 235566984 235838618 235840462 0 10948639 11401887 13646626 13646650 13879550 13879550 2025968 0 1680663 1681768 1684274 2023960 2024008 2025954 0 1390534 1391541 1394146 1734172 1822864 1824719
235792931 0 228189797 229021030 235172114 235520442 235791233 235792805 0 10708510 11129977 13283951 13283981 13483615 13483615 1797582 0 1501363 1502312 1504536 1795844 1795902 1797570 0 1222811 1223844 1226296 1519538 1623012 1624602
236106681 0 228548222 229383220 235498117 235842091 236104989 236106549 0 10008398 10418823 12474289 12474324 12673945 12673945 1771135 0 1475047 1475995 1478179 1769407 1769455 1771123 0 1212385 1213375 1215709 1508035 1596727 1598317
235527316 0 227819863 228662129 234844579 235245882 235525342 235527179 0 11648685 12112942 14456057 14456099 14688989 14688989 2052382 0 1706946 1708052 1710600 2050366 2050422 2052352 0 1400927 1401977 1404700 1745642 1849116 1850971
236105946 0 228547100 229382107 235498388 235842362 236104254 236105838 0 10007372 10417258 12470696 12470732 12670352 12670352 1770620 0 1474532 1475480 1477664 1768892 1768940 1770608 0 1211886 1212872 1215206 1507528 1596221 1597810
243765834 27 235901819 236714659 242669097 243503355 243763449 243765029 0 14404617 22534651 24588749 24588818 24788568 24788572 4214561 11 3909205 3916058 3920555 4212793 4212843 4214514 0 1214959 1704341 1706736 1999078 2087778 2089367
235522511 0 227811637 228654367 234843061 235242277 235520513 235522339 0 11645329 12107830 14444305 14444333 14677237 14677237 2050698 0 1705262 1706363 1708909 2048663 2048720 2050633 0 1399291 1400329 1403052 1743982 1847456 1849311
236108048 0 228551010 229386022 235500174 235844148 236106356 236107932 0 10007693 10417746 12471820 12471844 12671476 12671476 1770781 0 1474693 1475641 1477825 1769053 1769101 1770753 0 1212043 1213030 1215364 1507687 1596379 1597969
235526470 0 227818616 228660317 234843296 235244599 235524494 235526342 0 11649131 12113624 14457619 14457647 14690551 14690551 2052606 0 1707170 1708276 1710824 2050590 2050646 2052592 0 1401143 1402195 1404918 1745862 1849337 1851191
236104881 0 228544651 229380063 235497083 235841057 236103189 236104757 0 10007615 10417629 12471547 12471573 12671203 12671203 1770742 0 1474654 1475602 1477784 1769012 1769062 1770730 0 1212004 1212991 1215325 1507648 1596340 1597930
235524983 0 227816400 228658653 234844272 235244932 235523009 235524829 0 11646624 12109805 14448840 14448881 14681772 14681772 2051348 0 1705912 1707018 1709566 2049332 2049388 2051334 0 1399921 1400964 1403687 1744622 1848096 1849951
236110776 0 228555306 229389955 235500152 235844769 236109084 236110661 0 10010493 10422011 12481625 12481661 12681281 12681281 1772186 0 1476098 1477046 1479230 1770458 1770506 1772158 0 1213408 1214405 1216739 1509072 1597764 1599354
236107038 0 228548292 229383205 235497090 235841149 236105346 236106930 0 10009807 10420969 12479223 12479259 12678879 12678879 1771842 0 1475754 1476702 1478886 1770114 1770162 1771830 0 1213072 1214067 1216401 1508732 1597426 1599014
243180623 27 235164126 235984782 242015188 242904603 243177932 243179777 0 16039320 24220094 26550793 26550866 26783888 26783892 4493006 11 4138365 4145313 4150175 4490931 4490990 4492922 0 1400779 1890201 1892985 2233923 2337405 2339259
236106324 0 228547773 229382715 235498016 235841990 236104632 236106193 0 10008137 10418425 12473375 12473399 12673031 12673031 1771004 0 1474916 1475864 1478048 1769276 1769324 1770976 0 1212258 1213247 1215581 1507906 1596598 1598188
235837488 0 228174210 229020096 235166862 235563811 235835518 235837354 0 10956978 11410308 13656020 13656044 13888944 13888944 2026050 0 1680745 1681850 1684356 2024042 2024090 2026020 0 1390616 1391623 1394228 1734254 1822946 1824801
235796944 0 228194594 229025827 235176216 235524544 235795246 235796834 0 10700157 11121535 13274508 13274536 13474172 13474172 1797493 0 1501274 1502223 1504449 1795757 1795813 1797481 0 1222722 1223755 1226207 1519449 1622925 1624513
236106326 0 228547471 229382469 235497746 235841720 236104634 236106202 0 10008412 10418844 12474338 12474364 12673994 12673994 1771142 0 1475054 1476002 1478184 1769412 1769462 1771130 0 1212392 1213382 1215716 1508042 1596734 1598324
235527530 0 227820235 228662636 234844803 235246106 235525556 235527376 0 11648675 12112927 14456022 14456063 14688954 14688954 2052377 0 1706941 1708047 1710595 2050361 2050417 2052363 0 1400922 1401972 1404695 1745637 1849112 1850966
236106086 0 228547474 229382346 235498530 235842504 236104394 236105971 0 10007370 10417255 12470689 12470725 12670345 12670345 1770619 0 1474531 1475479 1477663 1768891 1768939 1770591 0 1211885 1212871 1215205 1507527 1596219 1597809
235523365 0 227812380 228654753 234840816 235242119 235521391 235523239 0 11648497 12112660 14455399 14455441 14688331 14688331 2052288 0 1706852 1707958 1710506 2050272 2050328 2052274 0 1400833 1401883 1404606 1745548 1849023 1850877
243765066 27 235901164 236714361 242671430 243503601 243762657 243764238 0 14401447 22529654 24577484 24577551 24777303 24777307 4212970 11 3907728 3914446 3918954 4211182 4211234 4212888 0 1213416 1702786 1705181 1997511 2086212 2087800
236108048 0 228551008 229386020 235500170 235844144 236106356 236107917 0 10007697 10417752 12471834 12471858 12671490 12671490 1770783 0 1474695 1475643 1477827 1769055 1769103 1770755 0 1212045 1213032 1215366 1507689 1596381 1597971
235526452 0 227818481 228660296 234843281 235244584 235524478 235526318 0 11649129 12113621 14457612 14457640 14690544 14690544 2052605 0 1707169 1708275 1710823 2050589 2050645 2052575 0 1401142 1402194 1404917 1745861 1849335 1851190
236104858 0 228544588 229380032 235497061 235841035 236103164 236104748 0 10007615 10417629 12471547 12471571 12671203 12671203 1770742 0 1474654 1475602 1477786 1769014 1769062 1770730 0 1212004 1212991 1215325 1507648 1596342 1597930
235524760 0 227816010 228658123 234844023 235244698 235522786 235524614 0 11646648 12109841 14448924 14448955 14681856 14681856 2051360 0 1705924 1707030 1709576 2049342 2049400 2051346 0 1399933 1400976 1403699 1744634 1848108 1849963
236110982 0 228555664 229390459 235500382 235844984 236109290 236110850 0 10010469 10421975 12481541 12481577 12681197 12681197 1772174 0 1476086 1477034 1479218 1770446 1770494 1772162 0 1213396 1214393 1216727 1509060 1597753 1599342
236107096 0 228548498 229383279 235497140 235841206 236105404 236106981 0 10009815 10420981 12479251 12479287 12678907 12678907 1771846 0 1475758 1476706 1478890 1770118 1770166 1771818 0 1213076 1214071 1216405 1508736 1597428 1599018
235522084 0 227810179 228652804 234840613 235241824 235520110 235521958 0 11647399 12110987 14451554 14451596 14684486 14684486 2051737 0 1706301 1707407 1709955 2049721 2049777 2051723 0 1400298 1401344 1404067 1745005 1848480 1850334
243764962 27 235901024 236714549 242672553 243504785 243762515 243764096 0 14400151 22527886 24575109 24575176 24774928 24774932 4214715 11 3909370 3916135 3920679 4212918 4212972 4214626 0 1214711 1704232 1706628 1998953 2087655 2089243
235854024 0 228190179 229039453 235183048 235580377 235852030 235853875 0 10927376 11381972 13636959 13636983 13869883 13869883 2040401 0 1694866 1695971 1698553 2038393 2038441 2040371 0 1402182 1404113 1406724 1746750 1835448 1837303
235784345 0 228174990 229010089 235162523 235511293 235782621 235784229 0 10731050 11154622 13326455 13326483 13526119 13526119 1814965 0 1518478 1519427 1521743 1813229 1813285 1814937 0 1236967 1239068 1241527 1534769 1638250 1639840
236111726 0 228552970 229390942 235502613 235846966 236110011 236111616 0 10008873 10420820 12489064 12489088 12688720 12688720 1785769 0 1489453 1490401 1492661 1784041 1784089 1785757 0 1224270 1226171 1228511 1520836 1609535 1611124
235526223 0 227811970 228657933 234842594 235244338 235524221 235526073 0 11649491 12115681 14474133 14474164 14707065 14707065 2069566 0 1723859 1724965 1727601 2067545 2067603 2069549 0 1414848 1416979 1419709 1760652 1864126 1865988
236113560 0 228556579 229394955 235505420 235849773 236111844 236113428 0 10007881 10419306 12485590 12485626 12685246 12685246 1785271 0 1488954 1489902 1492163 1783543 1783591 1785259 0 1223789 1225686 1228026 1520347 1609040 1610635
235526360 0 227812655 228658320 234843247 235244992 235524358 235526227 0 11648975 12114881 14472359 14472401 14705291 14705291 2069319 0 1723616 1724722 1727359 2067303 2067359 2069289 0 1414644 1416761 1419491 1760432 1863906 1865768
236108245 0 228546101 229384243 235498520 235842874 236106533 236108137 0 10009496 10421787 12491213 12491249 12690869 12690869 1786070 0 1489751 1490699 1492960 1784342 1784390 1786058 0 1224524 1226440 1228780 1521108 1609801 1611396
243767637 28 235902510 236718482 242674499 243506987 243765213 243766810 0 14400871 22530626 24587147 24587214 24786966 24786970 4224670 11 3919274 3925963 3930513 4222880 4222933 4224587 0 1222814 1712948 1715348 2007674 2096374 2097968
235524616 0 227814544 228656749 234841403 235242706 235522642 235524470 0 11649171 12113684 14457759 14457787 14690691 14690691 2052626 0 1707190 1708296 1710844 2050610 2050666 2052596 0 1401163 1402215 1404938 1745882 1849356 1851211
236106464 0 228547991 229383003 235498618 235842592 236104772 236106352 0 10007665 10417704 12471722 12471746 12671378 12671378 1770767 0 1474679 1475627 1477811 1769039 1769087 1770739 0 1212029 1213016 1215350 1507673 1596365 1597955
235525059 0 227816614 228659089 234845073 235245023 235523083 235524931 0 11645881 12108671 14446238 14446266 14679170 14679170 2050975 0 1705539 1706645 1709191 2048957 2049015 2050961 0 1399560 1400600 1403323 1744255 1847729 1849584
236110685 0 228555063 229389495 235499335 235844662 236108993 236110557 0 10011234 10423142 12484220 12484247 12683876 12683876 1772558 0 1476470 1477418 1479602 1770830 1770878 1772546 0 1213768 1214768 1217102 1509438 1598130 1599720
236105826 0 228546010 229381037 235496214 235840188 236104134 236105694 0 10009466 10420451 12478029 12478065 12677685 12677685 1771671 0 1475583 1476531 1478715 1769943 1769991 1771659 0 1212905 1213899 1216233 1508563 1597255 1598845
235523333 0 227812628 228655015 234841516 235242819 235521359 235523199 0 11647750 12111520 14452783 14452825 14685715 14685715 2051913 0 1706477 1707583 1710131 2049897 2049953 2051883 0 1400470 1401517 1404240 1745179 1848653 1850508
236107786 0 228550564 229385639 235500178 235844152 236106094 236107678 0 10007422 10417333 12470871 12470907 12670527 12670527 1770645 0 1474557 1475505 1477689 1768917 1768965 1770633 0 1211911 1212897 1215231 1507553 1596245 1597835
243614959 30 235663303 236488684 242462368 243347514 243612274 243614115 1 15086534 23255445 25460533 25460600 25693620 25693624 4464813 11 4110263 4117261 4122049 4462742 4462797 4464713 0 1388619 1878006 1880672 2220702 2309401 2311256
235676021 0 228055917 228885750 235052605 235400933 235674325 235675893 0 10963230 11387508 13572633 13572661 13772297 13772297 1800355 0 1504136 1505085 1507311 1798619 1798675 1800343 0 1225544 1226576 1229028 1522269 1625743 1627333
236107382 0 228549426 229384550 235499000 235842974 236105690 236107270 0 10008213 10418539 12473638 12473662 12673294 12673294 1771042 0 1474954 1475902 1478086 1769314 1769362 1771014 0 1212296 1213285 1215619 1507944 1596636 1598226
235526051 0 227817775 228659651 234843151 235244454 235524075 235525923 0 11648848 12113193 14456631 14456659 14689563 14689563 2052464 0 1707028 1708134 1710680 2050446 2050504 2052450 0 1401005 1402056 1404779 1745722 1849196 1851051
236106173 0 228547278 229382619 235498601 235842575 236104481 236106045 0 10007386 10417279 12470745 12470772 12670401 12670401 1770627 0 1474539 1475487 1477671 1768899 1768947 1770615 0 1211893 1212879 1215213 1507535 1596227 1597817
235524037 0 227813870 228656117 234841724 235243027 235522063 235523883 0 11648256 12112292 14454555 14454597 14687487 14687487 2052167 0 1706731 1707837 1710385 2050151 2050207 2052153 0 1400716 1401765 1404488 1745429 1848903 1850758
236110051 0 228554231 229389159 235501015 235844989 236108359 236109939 0 10008875 10419545 12475959 12475995 12675615 12675615 1771374 0 1475286 1476234 1478418 1769646 1769694 1771346 0 1212620 1213611 1215945 1508272 1596964 1598554
236110735 0 228550363 229388961 235497043 235845100 236109034 236110618 0 10053245 10481591 12582400 12582436 12782056 12782056 1842947 0 1546351 1547375 1549720 1841210 1841258 1842934 0 1284110 1285121 1287455 1579802 1668494 1670085
243176422 28 235161699 235978461 242014269 242899686 243173742 243175587 0 15996357 24161156 26450236 26450307 26683331 26683335 4422140 11 4068003 4074923 4079566 4420071 4420133 4422041 0 1329972 1819380 1822164 2163088 2266569 2268423
236106404 0 228547749 229382922 235498560 235842534 236104712 236106276 0 10007663 10417701 12471715 12471739 12671371 12671371 1770766 0 1474678 1475626 1477810 1769038 1769086 1770754 0 1212028 1213015 1215349 1507672 1596364 1597954
235525119 0 227816845 228659169 234845120 235245092 235523145 235524989 0 11645897 12108695 14446294 14446322 14679226 14679226 2050984 0 1705548 1706654 1709202 2048968 2049024 2050954 0 1399569 1400609 1403332 1744264 1847738 1849593
236110636 0 228554849 229389429 235499299 235844604 236108942 236110526 0 10011218 10423118 12484164 12484188 12683820 12683820 1772549 0 1476461 1477409 1479591 1770819 1770869 1772537 0 1213759 1214759 1217093 1509429 1598121 1599711
236105794 0 228545956 229380989 235496172 235840146 236104102 236105666 0 10009476 10420466 12478064 12478091 12677720 12677720 1771676 0 1475588 1476536 1478720 1769948 1769996 1771664 0 1212910 1213904 1216238 1508568 1597260 1598850
235523368 0 227812689 228655068 234841561 235242864 235521394 235523214 0 11647740 12111505 14452748 14452790 14685680 14685680 2051908 0 1706472 1707578 1710126 2049892 2049948 2051894 0 1400465 1401512 1404235 1745174 1848648 1850503
236107778 0 228550550 229385627 235500168 235844142 236106086 236107666 0 10007424 10417336 12470878 12470914 12670534 12670534 1770646 0 1474558 1475506 1477690 1768918 1768966 1770618 0 1211912 1212898 1215232 1507554 1596246 1597836
235524586 0 227814903 228656742 234841489 235242792 235522612 235524460 0 11649055 12113510 14457354 14457395 14690285 14690285 2052568 0 1707132 1708238 1710786 2050552 2050608 2052554 0 1401105 1402157 1404880 1745824 1849298 1851153
243766347 28 235904448 236717665 242673439 243505610 243763940 243765521 0 14400707 22529637 24576002 24576068 24775822 24775826 4212599 11 3907276 3914124 3918597 4210812 4210863 4212501 0 1213057 1702424 1704819 1997146 2085845 2087435
236107380 0 228549421 229384545 235498994 235842968 236105688 236107252 0 10008215 10418542 12473648 12473672 12673304 12673304 1771043 0 1474955 1475903 1478087 1769315 1769363 1771031 0 1212297 1213286 1215620 1507945 1596637 1598227
235526009 0 227817570 228659601 234843114 235244417 235524035 235525879 0 11648848 12113193 14456628 14456656 14689560 14689560 2052464 0 1707028 1708134 1710682 2050448 2050504 2052434 0 1401005 1402056 1404779 1745722 1849196 1851051
236106217 0 228547488 229382674 235498644 235842618 236104523 236106107 0 10007384 10417276 12470738 12470762 12670394 12670394 1770626 0 1474538 1475486 1477668 1768896 1768946 1770614 0 1211892 1212878 1215212 1507534 1596226 1597816
235524034 0 227813864 228656111 234841717 235243020 235522060 235523884 0 11648260 12112298 14454569 14454602 14687501 14687501 2052169 0 1706733 1707839 1710387 2050153 2050209 2052155 0 1400718 1401767 1404490 1745431 1848905 1850760
236108887 0 228552081 229387009 235499839 235843813 236107195 236108755 0 10008887 10419563 12476001 12476037 12675657 12675657 1771380 0 1475292 1476240 1478424 1769652 1769700 1771368 0 1212626 1213617 1215951 1508278 1596970 1598560
236118229 0 228554738 229394377 235501380 235852599 236116511 236118108 0 10056466 10484889 12590212 12590248 12789868 12789868 1849749 0 1550015 1551040 1553385 1847995 1848043 1849720 0 1287800 1288811 1291145 1586586 1675278 1676887
235513515 0 227809204 228646684 234838973 235233031 235511567 235513398 0 11600712 12047025 14340468 14340509 14573399 14573399 1973816 0 1632026 1633055 1635442 1971826 1971882 1973803 0 1325556 1326586 1329309 1667137 1770611 1772447
243762864 28 235897739 236711306 242670582 243502753 243760457 243762038 0 14400071 22528679 24573784 24573850 24773604 24773608 4212280 11 3906966 3913787 3918290 4210494 4210544 4212182 0 1212746 1702111 1704506 1996831 2085530 2087120
235525157 0 227817039 228659210 234845140 235245136 235523183 235525007 0 11645915 12108722 14446357 14446385 14679289 14679289 2050992 0 1705556 1706662 1709210 2048976 2049032 2050978 0 1399577 1400617 1403340 1744272 1847746 1849601
236110546 0 228554571 229389322 235499228 235844509 236108854 236110438 0 10011202 10423094 12484108 12484132 12683764 12683764 1772542 0 1476454 1477402 1479586 1770814 1770862 1772514 0 1213752 1214752 1217086 1509422 1598114 1599704
236105866 0 228546141 229381078 235496235 235840209 236104172 236105756 0 10009482 10420475 12478085 12478109 12677741 12677741 1771679 0 1475591 1476539 1478721 1769949 1769999 1771667 0 1212913 1213907 1216241 1508571 1597263 1598853
235523361 0 227812649 228655064 234841562 235242865 235521387 235523211 0 11647732 12111493 14452720 14452753 14685652 14685652 2051904 0 1706468 1707574 1710122 2049888 2049944 2051890 0 1400461 1401508 1404231 1745170 1848644 1850499
236107778 0 228550544 229385626 235500168 235844142 236106086 236107646 0 10007424 10417336 12470878 12470914 12670534 12670534 1770646 0 1474558 1475506 1477690 1768918 1768966 1770634 0 1211912 1212898 1215232 1507554 1596246 1597836
235524505 0 227814730 228656629 234841404 235242707 235522531 235524375 0 11649059 12113516 14457367 14457409 14690299 14690299 2052570 0 1707134 1708240 1710788 2050554 2050610 2052540 0 1401107 1402159 1404882 1745826 1849300 1851155
236107154 0 228549146 229384204 235499022 235842996 236105462 236107046 0 10007956 10418147 12472742 12472777 12672397 12672397 1770913 0 1474825 1475773 1477957 1769185 1769233 1770901 0 1212171 1213159 1215493 1507817 1596509 1598099
243766722 28 235905086 236718193 242673562 243505733 243764315 243765896 0 14400964 22529934 24576807 24576873 24776627 24776631 4212728 11 3907330 3914233 3918717 4210941 4210992 4212630 0 1213182 1702550 1704945 1997273 2085972 2087562
235525932 0 227817297 228659496 234843037 235244340 235523958 235525782 0 11648848 12113193 14456628 14456656 14689560 14689560 2052464 0 1707028 1708134 1710682 2050448 2050504 2052450 0 1401005 1402056 1404779 1745722 1849196 1851051
236106293 0 228547767 229382785 235498725 235842699 236104601 236106185 0 10007382 10417273 12470731 12470755 12670387 12670387 1770625 0 1474537 1475485 1477669 1768897 1768945 1770597 0 1211891 1212877 1215211 1507533 1596225 1597815
235524035 0 227813856 228656103 234841709 235243012 235522059 235523907 0 11648266 12112307 14454590 14454618 14687522 14687522 2052172 0 1706736 1707842 1710388 2050154 2050212 2052158 0 1400721 1401770 1404493 1745434 1848908 1850763
236106574 0 228547937 229382865 235497500 235841474 236104882 236106442 0 10008918 10419616 12476110 12476139 12675766 12675766 1771396 0 1475308 1476256 1478440 1769668 1769716 1771384 0 1212638 1213630 1215964 1508292 1596984 1598574
236128435 0 228559446 229399085 235504145 235862803 236126677 236128294 0 10063942 10492377 12597700 12597736 12797356 12797356 1857206 0 1549993 1551018 1553363 1855412 1855460 1857185 0 1287782 1288792 1291126 1594005 1682697 1684346
235505621 0 227808642 228646122 234838552 235225171 235503713 235505500 0 11593199 12039475 14332849 14332891 14565781 14565781 1966340 0 1632029 1633058 1635445 1964390 1964446 1966319 0 1325559 1326589 1329312 1659701 1763175 1764971
236107973 0 228550629 229385767 235499989 235843963 236106281 236107865 0 10007803 10417911 12472206 12472241 12671861 12671861 1770836 0 1474748 1475696 1477880 1769108 1769156 1770824 0 1212098 1213085 1215419 1507742 1596434 1598024
243180213 28 235164285 235984906 242015880 242904097 243177524 243179369 0 16038201 24219197 26547679 26547749 26780775 26780779 4492445 11 4137753 4144774 4149612 4490368 4490429 4492345 0 1400234 1889652 1892436 2233370 2336851 2338706
236110424 0 228554251 229389164 235499122 235844379 236108732 236110292 0 10011186 10423070 12484052 12484076 12683708 12683708 1772534 0 1476446 1477394 1479578 1770806 1770854 1772522 0 1213744 1214744 1217078 1509414 1598106 1599696
236105986 0 228546493 229381247 235496354 235840328 236104294 236105878 0 10009486 10420481 12478099 12478123 12677755 12677755 1771681 0 1475593 1476541 1478725 1769953 1770001 1771653 0 1212915 1213909 1216243 1508573 1597266 1598855
235523364 0 227812648 228655063 234841568 235242871 235521388 235523236 0 11647726 12111484 14452699 14452727 14685631 14685631 2051901 0 1706465 1707571 1710117 2049883 2049941 2051887 0 1400458 1401505 1404228 1745167 1848641 1850496
236107776 0 228550541 229385623 235500164 235844138 236106084 236107644 0 10007426 10417339 12470885 12470914 12670541 12670541 1770647 0 1474559 1475507 1477691 1768919 1768967 1770635 0 1211913 1212899 1215233 1507555 1596247 1597837
235524458 0 227814510 228656564 234841355 235242658 235522484 235524304 0 11649061 12113519 14457374 14457416 14690306 14690306 2052571 0 1707135 1708241 1710789 2050555 2050611 2052541 0 1401108 1402160 1404883 1745827 1849301 1851156
236107140 0 228549122 229384186 235499010 235842984 236105448 236107032 0 10007954 10418144 12472734 12472770 12672390 12672390 1770912 0 1474824 1475772 1477956 1769184 1769232 1770900 0 1212170 1213158 1215492 1507816 1596508 1598098
235693280 0 228009252 228853235 235019447 235416396 235691310 235693154 0 11270789 11727584 14011675 14011710 14244597 14244598 2029467 0 1684162 1685267 1687773 2027459 2027507 2029453 0 1393983 1394989 1397594 1737619 1826311 1828166
243599717 28 235713438 236524779 242497495 243334020 243597306 243598891 0 14779023 22914757 25020975 25021045 25220804 25220807 4235725 11 3930227 3937121 3941623 4233929 4233989 4235627 0 1220204 1709617 1712130 2005376 2108857 2110447
236106414 0 228548112 229382951 235498848 235842822 236104722 236106282 0 10007380 10417270 12470724 12470748 12670380 12670380 1770624 0 1474536 1475484 1477668 1768896 1768944 1770612 0 1211890 1212876 1215210 1507532 1596224 1597814
235524039 0 227813865 228656112 234841712 235243015 235522065 235523913 0 11648270 12112313 14454604 14454632 14687536 14687536 2052174 0 1706738 1707844 1710392 2050158 2050214 2052144 0 1400723 1401772 1404495 1745436 1848913 1850765
236105920 0 228546668 229381596 235496837 235840811 236104226 236105810 0 10008924 10419625 12476131 12476155 12675787 12675787 1771399 0 1475311 1476259 1478441 1769669 1769719 1771387 0 1212641 1213633 1215967 1508295 1596987 1598577
236136690 0 228561250 229400889 235505213 235871034 236134892 236136549 0 10071169 10499636 12605007 12605036 12804663 12804663 1864401 0 1549985 1551010 1553355 1862567 1862615 1864388 0 1287774 1288784 1291118 1601160 1689852 1691541
235498019 0 227808102 228645582 234838147 235217603 235496151 235497874 0 11585962 12032201 14325507 14325549 14558439 14558439 1959140 0 1632032 1633061 1635448 1957230 1957286 1959111 0 1325562 1326592 1329315 1652541 1756015 1757771
236106101 0 228547250 229382388 235498077 235842051 236104409 236105993 0 10007848 10417985 12472363 12472399 12672019 12672019 1770859 0 1474771 1475719 1477903 1769131 1769179 1770847 0 1212117 1213105 1215439 1507763 1596455 1598045
235524362 0 227814047 228656241 234841193 235242496 235522388 235524236 0 11649127 12113618 14457607 14457647 14690536 14690537 2052604 0 1707168 1708274 1710822 2050588 2050644 2052590 0 1401141 1402193 1404916 1745860 1849334 1851189
243768710 28 235908188 236721578 242676284 243508455 243766303 243767884 0 14400215 22527149 24572541 24572606 24772363 24772366 4212352 11 3906953 3913824 3918334 4210565 4210616 4212254 0 1212818 1702183 1704578 1996903 2085602 2087192
236106156 0 228546909 229381613 235496518 235840492 236104464 236106024 0 10009492 10420490 12478120 12478144 12677776 12677776 1771684 0 1475596 1476544 1478728 1769956 1770004 1771672 0 1212918 1213912 1216246 1508576 1597269 1598858
235523360 0 227812653 228655068 234841573 235242876 235521386 235523234 0 11647720 12111475 14452678 14452706 14685610 14685610 2051898 0 1706462 1707568 1710116 2049882 2049938 2051868 0 1400455 1401502 1404225 1745164 1848642 1850493
236107776 0 228550536 229385618 235500161 235844135 236106082 236107666 0 10007426 10417339 12470885 12470909 12670541 12670541 1770647 0 1474559 1475507 1477689 1768917 1768967 1770635 0 1211913 1212899 1215233 1507555 1596247 1597837
235524446 0 227814426 228656547 234841343 235242646 235522472 235524292 0 11649061 12113519 14457374 14457409 14690306 14690306 2052571 0 1707135 1708241 1710789 2050555 2050611 2052557 0 1401108 1402160 1404883 1745827 1849301 1851156
236107122 0 228549024 229384162 235498994 235842968 236105430 236106990 0 10007952 10418141 12472727 12472763 12672383 12672383 1770911 0 1474823 1475771 1477955 1769183 1769231 1770883 0 1212169 1213157 1215491 1507815 1596507 1598097
235689356 0 228004694 228848536 235015435 235412384 235687386 235689230 0 11278908 11735797 14020900 14020936 14253824 14253824 2029559 0 1684254 1685359 1687865 2027551 2027599 2029545 0 1394073 1395079 1397684 1737709 1826401 1828256
235946358 0 228366935 229200011 235328944 235677272 235944662 235946250 0 10378209 10796019 12909567 12909607 13109228 13109229 1793975 0 1497756 1498705 1500931 1792239 1792295 1793963 0 1219256 1220290 1222742 1515985 1619459 1621049
95014333 1529 91862194 92203896 94721467 94890579 95005912 95007262 0 4990851 5186601 6172023 6172978 6276544 6277249 879397 32 725263 726245 727628 873441 873901 875200 0 598931 606816 608871 754168 783853 785344
number of instructions: 151403846574
