omp threads,kernel time,serial time,speedup
1,9.001312,9.001312,1
2,4.592554,9.001312,1.95997956692507
3,3.184689,9.001312,2.82643360152279
4,2.51435,9.001312,3.57997573925667
5,2.1145,9.001312,4.25694585008276
6,1.934034,9.001312,4.65416430114465
7,1.599203,9.001312,5.62862375820956
8,1.437865,9.001312,6.26019271628421
9,1.356176,9.001312,6.63727421809559
10,1.403845,9.001312,6.41189874950582
11,1.213088,9.001312,7.42016407713208
12,1.313176,9.001312,6.85461202458772
13,1.198816,9.001312,7.50850172169874
14,1.207709,9.001312,7.45321265304805
15,1.12813,9.001312,7.97896696302731
16,0.965841,9.001312,9.31966234607974
17,0.982991,9.001312,9.15706451025493
18,1.194036,9.001312,7.53855997641612
19,1.138111,9.001312,7.90899305955219
20,1.027522,9.001312,8.76021340662292
21,1.154016,9.001312,7.79998890829937
22,1.217758,9.001312,7.39170836898629
23,1.128919,9.001312,7.9733904735415
24,1.159558,9.001312,7.76270958416914
25,1.224664,9.001312,7.35002580299576
26,1.182264,9.001312,7.61362267649188
27,1.189578,9.001312,7.5668110876294
28,1.107629,9.001312,8.12664890500339
29,1.340159,9.001312,6.71660004521852
30,1.36254,9.001312,6.60627357728947
31,1.374554,9.001312,6.54853283319535
32,1.106457,9.001312,8.13525695078977
33,1.461946,9.001312,6.15707556913867
34,1.60753,9.001312,5.59946750604965
35,1.681609,9.001312,5.35279723169893
36,1.297626,9.001312,6.93675373335615
37,1.597448,9.001312,5.6348075179912
38,1.437849,9.001312,6.26026237803831
39,1.418894,9.001312,6.34389320132441
40,1.446113,9.001312,6.2244872980189
41,1.502713,9.001312,5.99004067975721
42,1.380338,9.001312,6.52109265991373
43,1.571581,9.001312,5.72755206381345
44,1.675327,9.001312,5.37286869966281
45,1.162052,9.001312,7.74604923015493
46,1.51989,9.001312,5.92234438018541
47,1.629177,9.001312,5.525066950982
48,1.433659,9.001312,6.27855856936691
49,1.48764,9.001312,6.05073270414885
50,1.639132,9.001312,5.49151136089101
51,1.470983,9.001312,6.1192495086619
52,1.612746,9.001312,5.58135751073015
53,1.684235,9.001312,5.34445133844149
54,1.498634,9.001312,6.00634444434065
55,1.668973,9.001312,5.39332391836177
56,1.59504,9.001312,5.64331427425018
