1000000000,96464,89725,90760,92258,110609,89818,90845,91101,254267,91180,91657,89969,54310926,172909,91261
1000000000,644798,650739,644131,652390,645045,646757,644096,646034,802562,645116,644050,644373,140210341,1196831,643902
1000000000,682085,698092,681939,698344,682124,699389,681939,700395,1041821,691729,681941,689478,143061789,1282279,707757
1000000000,697925,705224,697000,708275,698533,705581,696766,704110,1038702,703911,696574,701118,143998857,1274023,718005
1000000000,703906,708074,703445,714314,704266,707275,703443,709957,1095035,704469,703451,703531,144756796,1306430,703314
1000000000,739399,743717,739041,743610,739749,741637,739041,741094,1094413,741499,739048,740050,144595432,1331592,739986
1000000000,746825,759201,746467,763710,747201,760988,746467,762020,1077275,754256,746474,751709,144678440,1336263,764033
1000000000,654785,656030,654432,655943,655157,655379,654425,655351,1094620,655234,654428,654568,144722043,1256487,654444
1000000000,661894,662793,661556,662689,662247,662281,661556,662202,1094508,662514,661564,661551,144727118,1266768,661580
1000000000,691597,698020,691268,698627,691937,698408,691268,698675,1086990,696341,691276,695008,144819400,1288383,698638
1000000000,619401,619158,619104,619139,619720,619178,619104,619138,1094355,619323,619112,619096,144696927,1217494,619128
1000000000,641692,641870,641402,641787,641966,641642,641402,641649,1094341,641986,641410,641394,144712785,1243708,641426
1000000000,650326,650499,650009,650452,650591,650235,650005,650270,1093457,650706,650010,649992,144972287,1255080,650026
1000000000,634833,634965,634553,634878,635065,634675,634553,634647,1094303,635046,634561,634545,144707914,1234486,634577
1000000000,645495,645827,645218,645708,645722,645369,645218,645350,1094363,645917,645226,645210,144715499,1247400,645242
1000000000,646975,647344,646671,647370,647232,646964,646671,646951,1093433,647290,646680,646662,144969921,1241610,646698
1000000000,654376,654653,654108,654495,654604,654255,654108,654196,1094411,654849,654116,654100,144721820,1259496,654132
1000000000,641259,641348,640990,641208,641448,641086,640985,641036,1094339,641633,640992,640976,144712489,1240594,641008
1000000000,621276,621051,620987,621018,621489,621042,620987,620982,1093293,621245,620996,620978,144951655,1218734,621014
1000000000,627401,627339,627195,627250,627622,627263,627195,627214,1094263,627584,627203,627187,144702682,1226190,627219
1000000000,664673,664917,664496,664761,664904,664585,664496,664572,1094467,665366,664504,664488,144729208,1273520,664520
1000000000,626663,626629,626466,626551,626925,626535,626466,626488,1093324,626859,626475,626457,144955552,1224571,626493
1000000000,649870,650082,649694,649929,650102,649762,649694,649725,1094388,650413,649702,649686,144718682,1254463,649718
1000000000,653653,654019,653485,653840,653894,653586,653483,653563,1094407,654243,653490,653474,144721375,1248807,653506
1000000000,637659,637678,637477,637577,637934,637533,637477,637465,1093383,637974,637486,637468,144963382,1238884,637504
1000000000,682863,683301,682699,683030,683227,682759,682697,682719,1094711,683897,682704,682694,144741723,1293754,682718
1000000000,639161,639090,639009,639055,639423,639061,639009,638997,1094324,639461,639017,639001,144711082,1243810,639033
1000000000,621342,621229,621173,621204,621635,621231,621173,621156,1093286,621539,621182,621164,144951786,1216177,621200
1000000000,652458,652488,652305,652390,652701,652347,652301,652286,1094396,652994,652305,652290,144720533,1259072,652321
1000000000,652405,652628,652247,652431,652647,652303,652247,652243,1094390,653028,652255,652239,144720498,1245634,652271
1000000000,669976,670142,669797,669960,670247,669858,669797,669788,1093553,670783,669806,669788,144986366,1279848,669824
1000000000,618347,618259,618187,618213,618587,618224,618187,618168,1094206,618510,618195,618179,144696277,1211496,618211
1000000000,626197,626080,626041,626053,626447,626083,626041,626027,1094254,626317,626049,626033,144701861,1226900,626065
1000000000,633959,633883,633789,633837,634239,633842,633789,633774,1093355,634267,633798,633780,144960760,1234104,633816
1000000000,658507,658595,658356,658441,658756,658407,658356,658346,1094425,659147,658364,658348,144724842,1265767,658380
1000000000,618641,618526,618488,618509,618898,618542,618488,618472,1094213,618820,618496,618479,144696488,1212596,618512
1000000000,648204,648151,648034,648087,648487,648095,648034,648018,1093435,648691,648043,648025,144970889,1253545,648061
1000000000,663835,663893,663684,663758,664084,663742,663684,663682,1094455,664564,663692,663676,144728631,1261870,663708
1000000000,655594,655622,655442,655532,655847,655495,655442,655427,1094411,656216,655450,655435,144722770,1261690,655466
1000000000,635647,635623,635474,635527,635927,635528,635474,635456,1093369,636079,635483,635465,144961957,1232606,635501
1000000000,621080,620943,620928,620929,621328,620969,620928,620912,1094222,621151,620936,620920,144698225,1219919,620952
1000000000,620166,620035,620015,620011,620415,620059,620015,619999,1094215,620263,620023,620007,144697576,1218198,620039
1000000000,664871,664956,664701,664794,665151,664760,664701,664683,1093523,665630,664710,664692,144982744,1271565,664728
1000000000,639485,639383,639332,639351,639734,639389,639332,639316,1094327,639826,639340,639324,144711312,1243358,639356
1000000000,628954,628859,628796,628818,629228,628844,628796,628777,1093862,629292,628804,628786,144822400,1225575,628821
1000000000,648782,648705,648622,648610,649040,648678,648622,648606,1093833,649229,648631,648615,144852729,1251203,648647
305344602,210875,210936,210837,210832,210937,210853,210837,210833,334646,211279,210839,210835,44085737,390638,210843
