omp threads,PACKAGE_ENERGY:PACKAGE0,PACKAGE_ENERGY:PACKAGE1,DRAM_ENERGY:PACKAGE0,DRAM_ENERGY:PACKAGE1,TOTAL_ENERGY,TOTAL_TIME,POWER
1,992.810058593,982.098144531,94.322769165,88.402297973,2157.633270262,10.951794098015,197.011854948321
2,924.501892089,926.574768066,86.960067749,85.398315429,2023.435043333,9.866297220986,205.085555199888
4,925.769226074,928.871765136,90.489700317,84.517410278,2029.648101805,9.905060283956,204.910222009709
6,919.704528808,922.89263916,91.243759155,84.024047851,2017.864974974,9.813660411979,205.617974360605
8,904.107849121,907.907897949,85.967590332,85.289047241,1983.272384643,9.655516714032,205.403029519977
10,900.560119628,904.047180175,85.081314086,83.7756958,1973.464309689,9.612641900952,205.298848123476
12,943.198425292,944.257385253,91.49583435,84.328765869,2063.280410764,10.12511074997,203.778552325472
14,903.880187988,905.953918457,86.94013977,83.389083862,1980.163330077,9.651844081993,205.159067350803
16,865.029907226,867.480041503,81.931579589,79.180343627,1893.621871945,9.158239006996,206.767029174323
18,901.388183593,901.883300781,89.386245727,81.927368164,1974.585098265,9.614002692048,205.386368353977
20,908.646972656,908.839172363,88.9009552,80.931091308,1987.318191527,9.714429431013,204.573846116231
22,982.252746582,977.17590332,93.426239013,88.620986938,2141.475875853,10.647068748949,201.132905811693
24,864.010742187,867.088989257,82.005447387,78.119506835,1891.224685666,9.151074181951,206.666960409534
26,911.632019042,916.984863281,85.890090942,85.66229248,2000.169265745,9.784270012984,204.427030641091
28,891.658874511,891.136352539,88.408676147,79.066741943,1950.27064514,9.508042748959,205.117992906949
30,911.783325195,914.024108886,93.469482421,84.471069335,2003.747985837,9.757437098015,205.355972650309
32,909.069213867,910.312805175,87.032180786,81.348358154,1987.762557982,9.662125014991,205.727265471926
34,943.160583496,943.791503906,91.845672607,84.657165527,2063.454925536,10.138390611974,203.528844420241
36,946.683105468,947.831176757,90.313034057,86.450180053,2071.277496335,10.195973555034,203.146613234638
38,910.31463623,909.033691406,92.026031494,82.749084472,1994.123443602,9.721002152015,205.135582979853
40,976.361206054,977.004333496,92.901046752,84.144302368,2130.41088867,10.580019623972,201.361714286698
42,925.885253906,926.59588623,89.067855834,86.476272583,2028.025268553,9.923977170023,204.356099757963
44,940.181030273,939.843139648,91.635147094,85.552581787,2057.211898802,10.134668220999,202.987592089055
46,903.81842041,904.8671875,87.329116821,82.570419311,1978.585144042,9.664689739991,204.723089646099
48,902.644165039,905.345275878,84.232009887,82.033126831,1974.254577635,9.643479143968,204.724306255168
50,907.33795166,906.174316406,87.900375366,81.140762329,1982.553405761,9.687820014951,204.643913976654
52,892.163330078,894.765563964,85.968154907,82.221649169,1955.118698118,9.517092470021,205.432352819578
54,955.162841796,954.16217041,91.596206665,86.000427246,2086.921646117,10.28905957198,202.829192650441
56,911.078430175,908.413574218,93.509613037,75.97579956,1988.97741699,9.732861264958,204.356906242059
