1000000000,280621453,6587704,144489368,585919546,0,24800,30941,14690,251292078,9287666,4905663,4047721
1000000000,267835925,2067268,152178281,570719137,0,96,11064,1104,265711573,5773911,5434689,168873
1000000000,268502760,1822198,151286882,571007465,0,84,9681,966,266544049,5692434,5309064,148262
1000000000,267837141,2067232,152179310,570717736,0,96,11064,1104,265716330,5769978,5433998,169112
1000000000,268501937,1824038,151280310,571014868,0,84,9681,966,266525832,5708775,5310335,148036
1000000000,268509277,1821824,151285619,571006811,0,84,9681,966,266550272,5690375,5306897,148182
1000000000,270328028,3239411,150777770,574485644,0,316,10728,966,261933360,6469259,5365226,955489
1000000000,271757284,3090360,149727015,574493775,0,192,10083,1104,262404918,6805083,5242936,1313755
1000000000,268509607,1821186,151286360,571005759,0,84,9681,966,266552333,5689074,5306774,147856
1000000000,267885850,2057951,152100987,570749567,0,84,10689,966,265804319,5742533,5421145,168466
1000000000,268452636,1833805,151358221,570983577,0,96,10056,1104,266436326,5737212,5323342,148925
1000000000,268507456,1821787,151286233,571006770,0,84,9681,966,266549069,5690561,5307504,148019
1000000000,267831582,2068399,152175527,570723554,0,96,11064,1104,265698012,5783472,5436693,169206
1000000000,274254742,4262357,148328468,578256567,0,412,9747,966,258640300,7491173,5170977,2100281
1000000000,268504672,1820770,151287427,571006175,0,84,9681,966,266547197,5690809,5308609,147939
1000000000,268042865,2052368,151874272,570847553,0,84,10689,966,265980101,5733252,5383812,168027
1000000000,268296498,1838412,151585374,570884696,0,96,10056,1104,266262262,5745645,5360505,149121
1000000000,268509530,1822212,151285602,571006744,0,84,9681,966,266551015,5690012,5306684,148099
1000000000,267831395,2068763,152175766,570723441,0,96,11064,1104,265698701,5782811,5436621,169124
1000000000,268505810,1821967,151284661,571008892,0,84,9681,966,266542262,5695801,5308435,148105
1000000000,274256601,4261775,148330081,578254303,0,412,9747,966,258646749,7486283,5170073,2100277
1000000000,268194414,2047302,151647343,570947246,0,84,10689,966,266149269,5726652,5348432,168075
1000000000,268144939,1842037,151813192,570783862,0,96,10056,1104,266094261,5751441,5396097,148750
1000000000,268504387,1822225,151286552,571007393,0,84,9681,966,266545623,5691820,5308506,148262
1000000000,267834399,2068564,152175700,570722476,0,96,11064,1104,265703102,5780574,5435490,169122
1000000000,268508148,1823116,151283140,571009912,0,84,9681,966,266542681,5696788,5307529,148106
1000000000,268503455,1821643,151286147,571008039,0,84,9681,966,266542465,5694272,5309130,148103
1000000000,274098972,4483323,148463645,578293979,0,412,10755,966,258421969,7512757,5173901,2120376
1000000000,267988124,1846188,152042040,570683996,0,96,10056,1104,265919976,5759258,5433467,148866
1000000000,268509191,1821201,151286404,571005843,0,84,9681,966,266551831,5689300,5306921,147857
1000000000,267834002,2068797,152176277,570722088,0,96,11064,1104,265704291,5779063,5435463,169282
1000000000,268503390,1822945,151283277,571011117,0,84,9681,966,266535534,5700717,5309402,148109
1000000000,268505464,1822497,151285616,571008101,0,84,9681,966,266544881,5693235,5308221,148102
1000000000,267834309,2068021,152174862,570723276,0,96,11064,1104,265700118,5783228,5435855,169125
1000000000,274255541,4262049,148330017,578254950,0,412,9747,966,258643755,7488275,5170490,2100279
1000000000,268507953,1820711,151286844,571005676,0,84,9681,966,266550707,5689550,5307442,147937
1000000000,267833364,2067492,152178033,570720191,0,96,11064,1104,265707091,5776510,5435683,168956
1000000000,268506398,1823767,151281403,571012309,0,84,9681,966,266535680,5702165,5308406,148193
1000000000,268503668,1821943,151286356,571007724,0,84,9681,966,266543711,5693359,5308904,148102
1000000000,267832128,2069490,152174615,570724505,0,96,11064,1104,265697280,5784559,5436380,169125
1000000000,268505818,1821059,151286129,571007162,0,84,9681,966,266545642,5692773,5308348,148102
1000000000,274256136,4261786,148331195,578253651,0,412,9747,966,258646421,7486105,5170117,2100277
1000000000,267836665,2065923,152179716,570717215,0,96,11064,1104,265715570,5770561,5434451,168951
1000000000,268502441,1823892,151280569,571014279,0,84,9681,966,266527325,5707937,5310092,147954
1000000000,268506633,1822344,151285806,571007510,0,84,9681,966,266547129,5691773,5307755,148183
1000000000,267835075,2068935,152174334,570723705,0,96,11064,1104,265700682,5783128,5435410,169205
1000000000,268505723,1822627,151285224,571008462,0,84,9681,966,266544279,5693994,5308175,148022
1000000000,268505663,1821614,151284425,571009039,0,84,9681,966,266541116,5696846,5308624,148106
1000000000,273607570,4497503,149189540,577975442,0,412,10755,966,257878691,7532682,5289790,2120482
1000000000,268482377,1831509,151317944,571000026,0,96,10056,1104,266470192,5734396,5316289,148756
1000000000,268502567,1821837,151286964,571007374,0,84,9681,966,266543635,5693017,5309227,147939
1000000000,267834888,2068867,152174589,570723493,0,96,11064,1104,265701039,5782690,5435448,169205
1000000000,268503726,1822768,151285062,571009223,0,84,9681,966,266540881,5695862,5308942,148186
1000000000,268508772,1822853,151283901,571008920,0,84,9681,966,266545537,5694577,5307198,148023
1000000000,267832470,2067829,152175834,570722814,0,96,11064,1104,265699797,5782473,5436422,169124
1000000000,274253745,4261401,148331588,578253854,0,412,9747,966,258643320,7487659,5171067,2100278
1000000000,268506791,1820791,151286901,571006068,0,84,9681,966,266549050,5690315,5307884,147938
1000000000,267835688,2068739,152174876,570722888,0,96,11064,1104,265703007,5781550,5435101,169042
1000000000,268505699,1822433,151284423,571009159,0,84,9681,966,266541906,5696178,5308385,148105
859912603,230904690,1562373,130074809,491022150,0,72,8298,828,229221788,4893988,4561930,126982
