1000000000 1745475901 706661317 1136756769 1165533398 268089313 403036797 561663466 679967064 810020171 916789590 999805759
1000000000 1774961040 783557770 1224439527 1235930713 279833875 457231946 649489096 778895844 923483743 1022673990 1101880996
1000000000 1775029047 783600876 1224496125 1235987185 279830834 457233770 649509595 778936856 923544810 1022730944 1101945607
1000000000 1775026271 783593971 1224490679 1235981538 279829630 457230645 649504597 778929752 923535739 1022723250 1101938104
1000000000 1775092846 783652034 1224560596 1236051612 279829708 457238763 649533782 778982835 923604795 1022791841 1102015617
1000000000 1775022118 783551856 1224472752 1235964407 279816747 457219164 649479562 778910804 923502144 1022690671 1101907064
1000000000 1774990050 783564498 1224447196 1235938041 279830352 457231837 649487506 778900954 923492385 1022681729 1101894089
1000000000 1775067669 783620842 1224523608 1236014444 279828373 457232242 649515237 778953570 923568643 1022754844 1101976881
1000000000 1775086801 783628998 1224534419 1236024733 279827739 457232693 649518276 778960805 923579247 1022764746 1101988549
1000000000 1775065849 783593695 1224505330 1235996118 279822721 457222705 649499087 778934614 923545507 1022732492 1101953789
1000000000 1774952124 783540123 1224423574 1235914494 279832213 457226767 649476011 778879474 923461125 1022652809 1101862167
1000000000 1774980186 783537328 1224453148 1235945263 279821611 457223360 649478821 778901780 923485434 1022673356 1101882620
1000000000 1775080682 783582651 1224541375 1236034098 279809765 457219551 649499725 778961388 923565929 1022749108 1101969539
1000000000 1774987045 783567650 1224463590 1235954697 279831065 457230801 649492512 778910027 923503242 1022693853 1101904892
1000000000 1775035953 783598165 1224506550 1235998228 279827424 457230752 649505392 778939762 923542674 1022733116 1101951415
1000000000 1775022310 783600747 1224495663 1235986804 279832205 457236851 649508190 778937931 923539051 1022727811 1101943929
1000000000 1775007504 783586512 1224479943 1235970956 279832582 457234649 649500463 778924171 923521647 1022711197 1101925343
389993445 692195422 305590586 477528658 482011193 109143613 178331451 253312805 303772203 360164023 398867305 429732788
number of instructions: 17389993445
