1000014377 144162945 138530557 132904157 126510279
1000001072 142269027 140524972 137345108 131671365
1000000938 141620491 140021757 137135574 131964382
1000001072 142267356 140525758 137350479 131684758
1000000938 141628720 140019843 137113935 131905311
1000000938 141623590 140025158 137137770 131965073
1000000938 143052884 140436925 136451576 130313059
1000001072 142413469 139614816 136027671 130460032
1000000938 141623751 140025678 137139288 131969473
1000000938 142193703 140468858 137329447 131718065
1000001072 141702344 140076048 137134634 131871010
1000000938 141622748 140024435 137137220 131965344
1000001072 142270497 140521727 137332677 131640368
1000000938 143196431 139530187 135146755 129131698
1000000938 141621105 140023312 137136460 131966187
1000000938 142052068 140354362 137277534 131781659
1000001072 141844396 140191310 137187033 131808677
1000000938 141623868 140025266 137138708 131967239
1000001072 142270254 140521726 137333690 131643176
1000000938 141624185 140023068 137130322 131947732
1000000938 143195176 139531901 135153003 129147389
1000000938 141906549 140236077 137222191 131841134
1000001072 141989783 140310117 137242420 131750336
1000000938 141621117 140022621 137136120 131964515
1000001072 142271139 140523302 137336952 131649534
1000000938 141626454 140023918 137129795 131943601
1000000938 141621843 140022175 137132159 131954971
1000000938 143334290 139627080 135187225 129091866
1000001072 142132401 140426427 137295233 131688240
1000000938 141623579 140025464 137138975 131968971
1000001072 142269823 140523142 137339043 131655386
1000000938 141625398 140021302 137124624 131933600
1000000938 141622839 140023107 137134183 131958272
1000001072 142272250 140523060 137332969 131639035
1000000938 143195660 139531828 135150128 129140043
1000000938 141622655 140024861 137138408 131968692
1000001072 142268609 140523430 137341823 131664400
1000000938 141628011 140022444 137123042 131926221
1000000938 141621774 140022283 137133961 131959432
1000001072 142271683 140521792 137331774 131636913
1000000938 141622607 140023419 137134154 131958647
1000000938 143195140 139532961 135152823 129146703
1000001072 142267400 140525722 137348862 131681608
1000000938 141628942 140020138 137115543 131909245
1000000938 141622760 140023750 137136219 131962804
1000001072 142272743 140523233 137333819 131640114
1000000938 141623532 140023201 137133123 131955149
1000000938 141624650 140022893 137129006 131944363
1000000938 143788804 139999694 135362213 128909722
1000001072 141677362 140056589 137126213 131884134
1000000938 141621185 140021887 137134393 131961749
1000001072 142272440 140523209 137334400 131641879
1000000938 141622942 140021935 137130873 131950502
1000000938 141625838 140024536 137132516 131950699
1000001072 142270649 140522308 137333852 131643156
1000000938 143194455 139531715 135150752 129143254
1000000938 141622210 140024296 137137098 131966143
1000001072 142272745 140523795 137335964 131645609
1000000938 141624536 140022875 137130467 131947875
733935808 103854739 102698248 100614464 96876830
number of instructions: 59733935138
