98688,1603,1297,118
76896,1371,215,25
78126,1459,215,25
78308,1285,218,27
77030,1340,215,25
76056,1394,215,25
78705,1248,215,25
77390,1306,218,27
76192,1357,215,25
76966,1435,215,25
77799,1267,218,27
1346026,24689,681,75
189514,4427,9,1
189054,4423,9,1
189109,4419,9,1
189269,4427,9,1
188985,4423,9,1
189387,4427,9,1
188916,4419,9,1
189228,4423,9,1
188951,4427,9,1
189383,4423,9,1
189124,4419,9,1
189092,4427,9,1
206849,5081,551,51
207843,5420,840,87
number,of,instructions:,25566859735
