1000000000,1990388,422753,630922,423017,5730331,613119,736161,423443,8968180,844971,945928,526418,267426206,1675266,1158687
1000000000,1626069,446682,496509,332302,4785541,611138,579254,332275,7417775,778862,744943,578657,275711198,1371014,1137862
1000000000,1605355,505261,505342,338219,5045938,672233,589646,338476,7882561,970866,994143,610421,275183020,1642568,1259067
1000000000,1696545,508474,507604,339768,5335085,706588,682959,340039,8249519,847256,1096778,759022,274974951,1685297,1267220
1000000000,1773666,498924,497969,333543,5335927,697848,875323,429164,8092648,831139,1075933,744583,275593739,1653248,1243128
1000000000,1970702,555826,683677,328615,5285345,653364,895653,489735,7968636,818401,1059461,733195,276083161,1627876,1224110
1000000000,2123980,512024,848298,510559,5509707,681031,933745,510467,8305960,852946,1104367,764251,274751029,1696588,1275975
1000000000,2078388,501281,830520,499843,5395220,666883,914195,499903,8134019,835395,1081431,748387,275426908,1661701,1249487
1000000000,2044278,493055,816878,491624,5306596,655936,899178,491667,8000364,821669,1063660,736096,275963925,1634390,1228955
1000000000,2063883,497587,824541,496122,5354626,661966,907595,496158,8072910,829005,1073394,742824,275669974,1648935,1240208
1000000000,2094099,504881,836478,503424,5434018,671672,920753,503467,8192405,841402,1089189,753758,275197757,1673636,1258456
1000000000,2078823,770235,1020549,752050,4890128,910052,1090510,751725,8894325,1054240,1631861,961013,264363183,1792928,2621545
1000000000,484313,965872,483960,726302,614263,965394,483960,725995,17474733,967918,6148939,725940,223017267,1123784,18100100
1000000000,484063,965255,483911,725957,613834,965212,483911,725878,17509202,967738,6160219,725867,223028375,1123690,18132511
1000000000,483784,964840,483784,725762,612917,964890,483784,725688,17586871,967461,6179133,725678,223057958,1123268,18216480
1000000000,483855,965045,483855,725797,613540,965092,483855,725785,17551786,967744,6164084,725783,223040299,1123698,18167172
1000000000,483885,964986,483885,725863,613255,964986,483885,725837,17521322,967713,6160637,725827,223035582,1123528,18151682
1000000000,483909,965052,483909,725875,613474,965018,483909,725862,17506067,967776,6152877,725861,223028486,1123610,18132625
1000000000,483807,965001,483807,725712,613368,964943,483807,725713,17587901,967680,6182187,725713,223052186,1123648,18200312
1000000000,483808,964888,483808,725713,613142,964859,483808,725713,17578560,967561,6180329,725713,223051330,1123466,18198641
1000000000,483788,964798,483788,725685,613217,964765,483788,725681,17600262,967500,6181173,725681,223057718,1123428,18214793
1000000000,483933,964971,483933,725900,613312,964967,483933,725897,17477892,967735,6146465,725897,223022978,1123512,18116755
1000000000,483857,964784,483857,725795,613154,964796,483857,725788,17553191,967603,6165927,725788,223040407,1123308,18167288
1000000000,483834,964825,483834,725748,613084,964832,483834,725749,17568311,967570,6172853,725749,223046390,1123369,18183425
1000000000,926576,546728,896174,463516,9803665,1032629,1018265,498052,37071107,3945271,5419052,2801536,173853604,6539108,10483039
566859813,415646,459037,424906,360120,2028004,546551,453514,379802,5941775,985636,859324,708449,122485917,1640994,5685062
