151595072,1873910,150170161,150517877,151207438,151564354,151583682,151583913,312624,128218091,132077114,135156650,136792693,137825787,137834870,18797449,311828,18229658,18561031,18779040,18782980,18794761,18794934,0,2622875,9958642,12551521,14112207,14218404,14218406
152251619,1365543,149792722,150048674,150575723,151104193,152027859,152044228,246063,133003373,136382492,138766248,140004257,141145994,141154646,14995526,246063,14551427,14811934,14982814,14985699,14995308,14995444,0,2063793,7843087,9888105,11123273,11207525,11207528
152398985,1335881,149131642,149396306,149928136,150114375,150260613,150293237,249969,132584920,136173236,138594945,139854064,140967976,140984264,15237620,249969,14785216,15050859,15224444,15227371,15237391,15237522,0,2098464,7969760,10047676,11303528,11389497,11389497
152388114,1344614,149083815,149345504,149853688,150025289,150042681,150059058,251604,132448151,136058849,138496282,139762158,140865814,140873958,15332565,251604,14878365,15144958,15319641,15322573,15332376,15332515,0,2110323,8019725,10110781,11373100,11459305,11459305
152415206,1319043,149173712,149430422,149928970,150097311,150114442,150130812,246819,132853310,136299469,138786648,140028899,141111892,141120036,15041936,246819,14596318,14857855,15029239,15032116,15041749,15041886,0,2070373,7867426,9918787,11157760,11242334,11242334
152439094,1298827,149247203,149500031,149990916,150156689,150173720,150190089,243036,133174117,136500853,139017428,140241500,141307980,141316124,14814556,243036,14375280,14632995,14801735,14804583,14814327,14814462,0,2039816,7748174,9768352,10989559,11073128,11073128
152377663,1353862,149050593,149314120,149825796,149998582,150018997,150051628,253335,132301354,135767962,138391049,139665569,140778031,140794319,15438274,253335,14980355,15249381,15425260,15428211,15438078,15438219,0,2125266,8075538,10181055,11451543,11538372,11538372
152407595,1325778,149149521,149407542,149908640,150077842,150095058,150111427,248079,132744539,136139745,138708411,139957531,141046382,141054526,15119786,248079,14671871,14934745,15107011,15109910,15119599,15119736,0,2081125,7907764,9969678,11215763,11300769,11300769
152432635,1304001,149228131,149481928,149974764,150141182,150158137,150174514,244005,133094868,136433864,138960353,140187988,141258352,141266496,14869561,244005,14429039,14687610,14857017,14859859,14869372,14869511,0,2046620,7777600,9805505,11029666,11113278,11113278
152420585,1315872,149186798,149442966,149940265,150108216,150128359,150160986,246225,132903434,136273820,138823421,140063596,141145326,141161614,15009349,246225,14563745,14825432,14996365,14999253,15009115,15009251,0,2067031,7850471,9897251,11134134,11218824,11218824
152397489,1335302,149116031,149375931,149880599,150051018,150068323,150084698,249861,132594395,136013742,138600868,139858437,140954799,140962943,15227367,249861,14776262,15041038,15214517,15217430,15227174,15227317,0,2095870,7964420,10041056,11295298,11380911,11380911
169090811,1122467,157457116,158675160,159130867,159275686,167076845,167116656,209274,114726284,120580743,122822024,125814839,137553400,137561806,23384537,209270,21550299,23147535,23309761,23357696,23383618,23383734,0,4015662,9439271,11179166,13250365,13826057,13826057
265767068,0,265141618,265141618,265141636,265166860,265318474,265650608,0,17938780,18140430,18503400,18705050,18705050,18705050,604950,0,604950,604950,604950,604950,604950,604950,0,0,80660,80660,80660,80660,80660
265773929,0,265148898,265148898,265148912,265174379,265325581,265657683,0,17971208,18172838,18535772,18737402,18737402,18737402,604889,0,604889,604889,604889,604889,604889,604889,0,0,80652,80652,80652,80652,80652
265792008,0,265167379,265167390,265167402,265193274,265343354,265676838,0,18055222,18256799,18619637,18821214,18821214,18821214,604731,0,604731,604731,604731,604731,604731,604731,0,0,80632,80632,80632,80632,80632
265781277,0,265156352,265156352,265156372,265181825,265333043,265665404,0,18005885,18207491,18570382,18771988,18771988,18771988,604819,0,604819,604819,604819,604819,604819,604819,0,0,80642,80642,80642,80642,80642
265778231,0,265153194,265153194,265153208,265178787,265329857,265662553,0,17990390,18192009,18554923,18756542,18756542,18756542,604856,0,604856,604856,604856,604856,604856,604856,0,0,80648,80648,80648,80648,80648
265773974,0,265148622,265148628,265148636,265173887,265325345,265657944,0,17971318,18172946,18535877,18737505,18737505,18737505,604885,0,604885,604885,604885,604885,604885,604885,0,0,80650,80650,80650,80650,80650
265788497,0,265163899,265163899,265163920,265189573,265340025,265673393,0,18039047,18240634,18603490,18805077,18805077,18805077,604760,0,604760,604760,604760,604760,604760,604760,0,0,80636,80636,80636,80636,80636
265788029,0,265163257,265163259,265163272,265188954,265339183,265672627,0,18037370,18238956,18601811,18803398,18803398,18803398,604760,0,604760,604760,604760,604760,604760,604760,0,0,80634,80634,80634,80634,80634
265791778,0,265167231,265167232,265167248,265193076,265343450,265676558,0,18053533,18255112,18617954,18819532,18819532,18819532,604735,0,604735,604735,604735,604735,604735,604735,0,0,80632,80632,80632,80632,80632
265770588,0,265145292,265145296,265145310,265170759,265322242,265654446,0,17955440,18157078,18520027,18721665,18721665,18721665,604915,0,604915,604915,604915,604915,604915,604915,0,0,80654,80654,80654,80654,80654
265781335,0,265156445,265156445,265156463,265182346,265333045,265665659,0,18006006,18207614,18570508,18772115,18772115,18772115,604823,0,604823,604823,604823,604823,604823,604823,0,0,80644,80644,80644,80644,80644
265784911,0,265160185,265160187,265160200,265186070,265336417,265669774,0,18022145,18223741,18586615,18788213,18788213,18788213,604791,0,604791,604791,604791,604791,604791,604791,0,0,80638,80638,80638,80638,80638
238806505,9468953,233387251,236568795,236569520,236578355,236627834,236737919,2775263,43232148,80382813,110396379,117601913,118048181,118048181,109338813,3123100,108003947,109337506,109338151,109338272,109338272,109338407,10,16780889,67225596,92211385,98011488,98011491,98011491
132282765,1524426,131122366,131643307,131646498,131651541,131742319,131849964,362270,11179623,17889088,23175256,24529549,24715169,24780709,19575774,541006,19308622,19572827,19574919,19575124,19575124,19575164,10,3042021,11854052,16183924,17179436,17212221,17245018
