10000000000 2641533070 895560170 1486573377 6209764795 0 118670385 257407339 6704 645473751 305284785 42401627 781440904
10000000000 2681346753 691405995 1260781155 6208512328 0 152203162 205335099 0 785767994 179554293 54067694 957830844
10000000000 2683017625 692739129 1258883932 6200469938 0 152703288 205536780 0 789542406 179902685 53762649 962309100
10000000000 2683218037 693348443 1258515612 6198751302 0 152771511 205546545 0 790366237 179956255 53666272 963324611
10000000000 2682092901 692538687 1259778244 6204049392 0 152436217 205405945 0 787889798 179721692 53861061 960375210
10000000000 2684696091 694153327 1256960824 6192279597 0 153207063 205735936 0 793396734 180253349 53446699 966870224
10000000000 2682821643 692750748 1259044497 6201109303 0 152647876 205509208 0 789241893 179868045 53775336 961984551
10000000000 2684417032 694067283 1257238180 6193406663 0 153125381 205697155 0 792876171 180197717 53479698 966258076
10000000000 2682965366 692926317 1258852065 6200286415 0 152692444 205526474 0 789618753 179901923 53740217 962463757
10000000000 2686939644 696038414 1254386741 6181330749 0 153880179 206003044 0 798544034 180722766 53024657 972974007
10000000000 2683287496 692890080 1258580412 6199238244 0 152782931 205574133 0 790106271 179960357 53720475 963003856
10000000000 2681285665 691971678 1260674285 6207812612 0 152196072 205305535 0 786127038 179554796 53998487 958287779
10000000000 2683348348 693386288 1258393664 6198248847 0 152809132 205563458 0 790605138 179980486 53651658 963589191
10000000000 2682520918 692936647 1259299358 6201958949 0 152564618 205451537 0 788896799 179807102 53777317 961517649
10000000000 2682008021 692494956 1259882490 6204457423 0 152410800 205392288 0 787713827 179701306 53874539 960133292
10000000000 2678924798 690149611 1263331420 6219061291 0 151490738 205019362 0 780845489 179065134 54420998 952037566
10000000000 2685026995 694429918 1256608077 6190738612 0 153305212 205770738 0 794145918 180316740 53386679 967699678
10000000000 2687821214 696360914 1253464919 6177627671 0 154137692 206128232 0 800235996 180904409 52911114 975028697
10000000000 2683905973 693655896 1257813173 6195853169 0 152972882 205636767 0 791720957 180092598 53572995 964902678
10000000000 2682462341 692696676 1259402714 6202504457 0 152544160 205454642 0 788613206 179794655 53811827 961214486
10000000000 2683693060 693370668 1258069897 6197017019 0 152907632 205618347 0 791151929 180049540 53625533 964262815
9350829446 2506994351 646748501 1179124906 5806106248 0 142244996 191955105 0 734480673 167849150 50550170 895354306
number of instructions: 219350829446
