2641533319 100409 1333663862 346489970 403908002 227015696 264472548 11534348 15485568 33121570 5600801 13359 96284 170 63 7667 22403 192 407 0 0
2681346753 33510 1468415790 402565569 183356784 203641280 338907295 14739535 19826125 42434318 7238270 10603 130037 217 83 35 46932 0 368 2 0
2683017625 33580 1467718488 402147627 183528335 204419149 340372935 14815741 19893595 42660723 7238260 10618 130620 216 94 23 47249 1 4 367 0
2683218037 33630 1467576906 401900331 183574806 204545657 340700571 14813379 19915757 42727821 7239635 10677 131110 204 91 29 47062 0 0 371 0
2682092901 33576 1468032936 402150107 183464470 204049994 339689825 14787093 19869517 42567882 7258814 10469 130397 218 80 25 47126 0 1 371 0
2684696091 33810 1467015064 401692650 183703259 205182961 341925570 14840209 19976130 42908980 7227398 10617 131267 244 90 26 47443 0 0 332 41
2682821643 33514 1467776448 402120452 183518696 204331725 340262332 14804761 19922158 42646841 7215520 10548 130918 251 92 21 46995 1 0 0 370
2684417032 33829 1467113119 401704671 183682911 205078356 341688244 14861201 19987706 42877906 7199042 10675 131272 254 70 25 47377 0 0 0 374
2682965366 29262 1467714409 402055372 183534608 204419169 340384656 14778157 19898852 42727546 7229104 17168 124030 425 73 7664 32887 0 1 0 11983
2686939644 15201 1465988518 401106823 183963200 206127573 344085040 14927420 20128938 43228850 7161193 909 133396 8748 111 30 47693 2 0 0 15999
2683287496 15077 1467532758 402120526 183577553 204413475 340744698 14814203 19915245 42713128 7236088 903 131010 9770 101 26 47125 1 0 0 15809
2681285665 14958 1468277292 402340077 183410616 203582931 339133691 14740566 19828535 42497282 7256156 784 131130 8827 115 29 46930 2 0 0 15744
2683348348 15077 1467452916 401915133 183608427 204497844 340949121 14827305 19913222 42741064 7223554 804 133520 7222 107 34 47123 3 0 0 15872
2682520918 15025 1467775349 402039665 183534050 204164525 340215179 14770085 19874559 42660412 7267526 978 129061 11449 94 32 47120 1 0 0 15808
2682008021 15010 1467991217 402180892 183480013 203910235 339760086 14777485 19832302 42581399 7275243 932 130988 9351 92 32 46999 0 0 0 15745
2678924798 14839 1469250795 402903840 183172861 202515165 337038572 14661052 19695795 42174449 7294958 913 128818 10264 93 31 46610 1 0 0 15742
2685026995 15132 1466803940 401627292 183760297 205252026 342335567 14874208 20003327 42904109 7245207 997 132086 9352 103 37 47441 0 1 0 15873
2687821214 15267 1465662571 401042417 184034194 206454264 344781656 14949041 20182086 43317053 7175229 1036 132551 9654 96 24 47946 2 0 0 16127
2683905973 15079 1467242895 401851973 183655440 204729798 341371893 14839842 19963306 42785601 7244847 965 130948 10155 90 18 47249 2 0 0 15872
2682462341 15073 1467820070 402133498 183518161 204100892 340140760 14794868 19860393 42621960 7252149 1043 127048 13495 93 25 47003 1 0 0 15809
2683693060 15078 1467340825 401951444 183628497 204615402 341174947 14808910 19924655 42744522 7283392 1156 127486 13562 104 19 47251 1 0 0 15809
2506994351 16916 1373106602 376318951 171463704 190296836 316837845 13771808 18511987 39671631 6809027 8174 116408 7572 67 26 38620 2 0 0 18175
number of instructions: 219350829446
