Analysis type: all
Measuring ALL characteristics...
interval size: 100000000
Returning data for each interval of 100000000 instructions...
ITYPES spec file: itypes_default.spec
append pid: yes
All done reading config
interval_size: 100000000, mode: 1
==> found 11 groups
   group 0 (#: 1): mem_read [SPECIAL]; 
   group 1 (#: 1): mem_write [SPECIAL]; 
   group 2 (#: 5): COND_BR [CAT]; UNCOND_BR [CAT]; LEAVE [OPCODE]; RET_NEAR [OPCODE]; CALL_NEAR [OPCODE]; 
   group 3 (#: 5): LOGICAL [CAT]; DATAXFER [CAT]; BINARY [CAT]; FLAGOP [CAT]; BITBYTE [CAT]; 
   group 4 (#: 2): X87_ALU [CAT]; FCMOV [CAT]; 
   group 5 (#: 2): POP [CAT]; PUSH [CAT]; 
   group 6 (#: 1): SHIFT [CAT]; 
   group 7 (#: 1): STRINGOP [CAT]; 
   group 8 (#: 2): MMX [CAT]; SSE [CAT]; 
   group 9 (#: 8): INTERRUPT [CAT]; ROTATE [CAT]; SEMAPHORE [CAT]; CMOV [CAT]; SYSTEM [CAT]; MISC [CAT]; PREFETCH [CAT]; SYSCALL [CAT]; 
   group 10 (#: 2): WIDENOP [CAT]; NOP [CAT]; 
=>> PBS: job killed: walltime 18038 exceeded limit 18000
