make: Warning: File `Makefile' has modification time 1.7e+02 s in the future
bucketsort.cu:10:21: fatal error: GL/glew.h: No such file or directory
compilation terminated.
make: *** [hybridsort] Error 1
