100009484,14368041,14274960,14126741,13850080
100000000,14336658,14325167,14301084,14250240
100000000,14284967,14284095,14284094,14284095
100000000,14284967,14284094,14284095,14284095
100000000,14284967,14284095,14284095,14284095
100000000,14284967,14284095,14284095,14284095
100000000,14284967,14284097,14284097,14284096
100000000,14284967,14284095,14284095,14284095
100000000,14284967,14284095,14284094,14284095
100000000,14284967,14284094,14284095,14284095
100000000,14284967,14284095,14284095,14284095
100000000,14284967,14284095,14284095,14284095
100000000,14284967,14284097,14284097,14284096
100000000,14284967,14284095,14284095,14284095
100000000,14284967,14284095,14284094,14284095
100000000,14284967,14284094,14284095,14284095
100000000,14284967,14284095,14284095,14284095
100000000,14284967,14284095,14284095,14284095
100000000,14284967,14284097,14284097,14284096
100000000,14284967,14284095,14284095,14284095
100000000,13786009,9263586,6102784,4072460
100000000,13769879,9210544,6022935,3975174
100000000,13768493,9208921,6021012,3973005
100000000,13767876,9208137,6020027,3971869
100000000,13767395,9207569,6019352,3971098
100000000,13767043,9207174,6018891,3970591
100000000,13766839,9206911,6018568,3970212
100000000,13766635,9206654,6018237,3969833
100000000,13766422,9206429,6017998,3969569
100000000,13766389,9206368,6017905,3969453
100000000,13766224,9206172,6017673,3969194
100000000,13766041,9205968,6017439,3968934
100000000,13766081,9205996,6017455,3968939
100000000,13766012,9205907,6017343,3968815
100000000,13765871,9205773,6017212,3968680
100000000,13765870,9205731,6017130,3968563
100000000,13765738,9205602,6016992,3968428
100000000,13765733,9205600,6016994,3968429
100000000,13765665,9205511,6016890,3968301
100000000,13765664,9205512,6016885,3968303
100000000,13765597,9205426,6016778,3968175
100000000,13765528,9205340,6016664,3968048
100000000,13765594,9205426,6016779,3968177
100000000,13765461,9205253,6016560,3967921
100000000,13765528,9205339,6016668,3968048
100000000,13765460,9205250,6016558,3967930
100000000,13765315,9205118,6016428,3967785
100000000,13765461,9205256,6016556,3967925
100000000,13765391,9205161,6016449,3967793
100000000,13765247,9205029,6016322,3967664
100000000,13765391,9205166,6016450,3967794
100000000,13769510,9209120,6020269,3971541
100000000,13784088,9223073,6033823,3984831
100000000,13784156,9223160,6033929,3984949
100000000,13784155,9223160,6033933,3984948
100000000,13784158,9223159,6033929,3984948
100000000,13784223,9223245,6034042,3985068
100000000,13784155,9223159,6033930,3984949
100000000,13784291,9223326,6034149,3985197
100000000,13784222,9223246,6034038,3985077
100000000,13784290,9223331,6034143,3985193
100000000,13784394,9223436,6034266,3985328
100000000,13784330,9223352,6034153,3985201
100000000,13784427,9223500,6034361,3985444
100000000,13784497,9223545,6034385,3985461
100000000,13784427,9223498,6034358,3985444
100000000,13784568,9223632,6034492,3985578
100000000,13784559,9223664,6034575,3985697
100000000,13784637,9223717,6034593,3985703
100000000,13784769,9223883,6034812,3985955
100000000,13784768,9223883,6034813,3985955
100000000,13784838,9223972,6034916,3986075
100000000,13784972,9224135,6035135,3986329
100000000,13785047,9224188,6035154,3986329
100000000,13785186,9224399,6035460,3986713
100000000,13785306,9224515,6035576,3986829
100000000,13785451,9224693,6035804,3987080
100000000,13785795,9225081,6036242,3987592
100000000,13785931,9225251,6036463,3987834
100000000,13786340,9225759,6037113,3988592
100000000,13786951,9226439,6037897,3989473
100000000,13787840,9227509,6039207,3990977
100000000,13790160,9230237,6042515,3994748
58821577,8408980,5835458,4067212,3011977
number,of,instructions:,8358821503
