14048517,219597,1020,102
3455507,67524,107,20
894723,14842,2,1
894723,14841,2,1
894723,14841,2,1
894724,14841,2,1
894722,14840,2,1
894724,14841,2,1
894723,14842,2,1
894724,14841,2,1
894723,14841,2,1
894723,14841,2,1
894723,14840,2,1
894723,14841,2,1
894724,14842,2,1
894723,14841,2,1
894724,14841,2,1
894723,14841,2,1
894722,14840,2,1
894723,14841,2,1
549648,25555,277,39
536734,22297,95,14
538683,10285,95,14
540254,21856,95,14
541662,25280,95,14
542942,14250,95,14
544094,29728,95,14
545150,32832,95,14
546174,17450,95,14
547124,18505,95,14
548017,37632,95,14
548863,20138,95,14
549694,41440,95,14
550494,21770,95,14
551294,33527,95,14
551998,34812,95,14
552720,23978,95,14
553438,49248,95,14
554110,25354,95,14
554782,26026,95,14
555422,53280,95,14
556030,27274,95,14
556670,27914,95,14
557246,28490,95,14
557854,57760,95,14
558430,29674,95,14
559006,30218,95,14
559550,61504,95,14
560094,31338,95,14
560638,31850,95,14
561150,32394,95,14
561579,65539,144,21
561502,32650,95,14
560990,32138,95,14
560446,31594,95,14
559902,61780,95,14
559358,30506,95,14
558782,29930,95,14
558238,29386,95,14
557630,57460,95,14
557054,28202,95,14
556435,27594,95,14
555775,53588,95,14
555198,26346,95,14
554494,25674,95,14
553847,49588,95,14
553150,24330,95,14
552478,23626,95,14
551710,45428,95,14
550974,22154,95,14
550174,21354,95,14
549374,41044,95,14
548542,19722,95,14
547614,37268,95,14
546750,17930,95,14
545726,33332,95,14
544702,15914,95,14
543582,29172,95,14
542366,17120,95,14
541086,21121,95,14
539550,21108,95,14
537822,17364,95,14
535614,17342,95,14
290550,36950,619,77
