100000000,29361,23757,24508,25737,41987,23844,24661,24733,67229,24989,25390,23818,14290554,41578,25065
100000000,4726,4561,4512,4564,5723,4519,4511,4533,41105,4560,4505,4506,14277261,8889,4458
100000000,872,872,872,872,872,872,872,872,872,872,872,872,14285839,1744,872
100000000,872,872,872,872,872,872,872,872,872,872,872,872,14285839,1744,872
100000000,872,872,872,872,872,872,872,872,872,872,872,872,14285838,1744,872
100000000,872,872,872,872,872,872,872,872,872,872,872,872,14285839,1744,872
100000000,871,871,871,871,871,871,871,871,871,871,871,871,14285839,1742,871
100000000,872,872,872,872,872,872,872,872,872,872,872,872,14285839,1744,872
100000000,872,872,872,872,872,872,872,872,872,872,872,872,14285839,1744,872
100000000,872,872,872,872,872,872,872,872,872,872,872,872,14285839,1744,872
100000000,872,872,872,872,872,872,872,872,872,872,872,872,14285838,1744,872
100000000,872,872,872,872,872,872,872,872,872,872,872,872,14285839,1744,872
100000000,871,871,871,871,871,871,871,871,871,871,871,871,14285839,1742,871
100000000,872,872,872,872,872,872,872,872,872,872,872,872,14285839,1744,872
100000000,872,872,872,872,872,872,872,872,872,872,872,872,14285839,1744,872
100000000,872,872,872,872,872,872,872,872,872,872,872,872,14285839,1744,872
100000000,872,872,872,872,872,872,872,872,872,872,872,872,14285838,1744,872
100000000,872,872,872,872,872,872,872,872,872,872,872,872,14285839,1744,872
100000000,871,871,871,871,871,871,871,871,871,871,871,871,14285839,1742,871
100000000,872,872,872,872,872,872,872,872,872,872,872,872,14285839,1744,872
100000000,84131,131695,66004,66422,184485,131699,82328,66228,384723,327920,327861,328001,3560602,655415,589865
100000000,82721,132263,66132,66132,182330,132263,82646,66132,382676,330359,330359,330359,3474272,660717,594661
100000000,82700,132250,66125,66125,182208,132250,82642,66125,382080,330383,330383,330383,3473299,660766,594699
100000000,82683,132235,66117,66117,182128,132235,82634,66117,381760,330396,330396,330396,3472759,660793,594724
100000000,82676,132230,66115,66115,182085,132230,82633,66115,381551,330406,330406,330406,3472416,660811,594739
100000000,82673,132229,66115,66115,182060,132229,82634,66115,381411,330411,330411,330411,3472194,660823,594747
100000000,82667,132224,66112,66112,182033,132224,82631,66112,381305,330416,330416,330416,3472013,660832,594756
100000000,82661,132219,66109,66109,182006,132219,82628,66109,381198,330420,330420,330420,3471833,660840,594764
100000000,82662,132221,66111,66111,181999,132221,82631,66111,381131,330424,330424,330424,3471731,660848,594768
100000000,82658,132218,66109,66109,181986,132218,82628,66109,381094,330425,330425,330425,3471667,660849,594771
100000000,82656,132216,66108,66108,181972,132216,82628,66108,381024,330428,330428,330428,3471549,660856,594776
100000000,82654,132214,66107,66107,181958,132214,82628,66107,380953,330430,330430,330430,3471433,660861,594779
100000000,82652,132213,66106,66106,181954,132213,82626,66106,380953,330431,330431,330431,3471430,660862,594782
100000000,82650,132210,66105,66105,181945,132210,82625,66105,380917,330432,330432,330432,3471370,660864,594784
100000000,82653,132215,66108,66108,181947,132215,82629,66108,380885,330434,330434,330434,3471326,660868,594784
100000000,82647,132209,66104,66104,181929,132209,82624,66104,380846,330435,330435,330435,3471256,660869,594789
100000000,82648,132210,66105,66105,181927,132210,82626,66105,380814,330437,330437,330437,3471200,660874,594790
100000000,82649,132211,66106,66106,181929,132211,82627,66106,380813,330436,330436,330436,3471206,660873,594789
100000000,82647,132210,66105,66105,181920,132210,82626,66105,380779,330439,330439,330439,3471147,660877,594793
100000000,82647,132210,66105,66105,181920,132210,82626,66105,380778,330438,330438,330438,3471147,660877,594792
100000000,82644,132208,66104,66104,181910,132208,82624,66104,380742,330439,330439,330439,3471085,660877,594794
100000000,82644,132206,66103,66103,181903,132206,82625,66103,380708,330442,330442,330442,3471027,660884,594799
100000000,82645,132208,66104,66104,181911,132208,82625,66104,380742,330439,330439,330439,3471087,660879,594795
100000000,82641,132204,66102,66102,181893,132204,82623,66102,380672,330443,330443,330443,3470966,660885,594801
100000000,82643,132207,66103,66103,181902,132207,82624,66103,380707,330441,330441,330441,3471026,660882,594798
100000000,82641,132204,66102,66102,181893,132204,82623,66102,380671,330442,330442,330442,3470967,660885,594800
100000000,82644,132209,66105,66105,181895,132209,82627,66105,380640,330445,330445,330445,3470923,660888,594801
100000000,82641,132204,66102,66102,181893,132204,82623,66102,380671,330442,330442,330442,3470966,660886,594800
100000000,82639,132203,66101,66101,181884,132203,82622,66101,380636,330444,330444,330444,3470907,660888,594804
100000000,82642,132207,66104,66104,181886,132207,82626,66104,380604,330446,330446,330446,3470863,660891,594804
100000000,82639,132203,66101,66101,181884,132203,82622,66101,380636,330444,330444,330444,3470906,660888,594803
100000000,82671,132232,66190,66287,181952,132232,82690,66237,380667,330483,330490,330539,3471076,660917,594825
100000000,82652,132224,66112,66131,181908,132224,82636,66123,380663,330499,330499,330502,3471419,660999,594902
100000000,82654,132226,66113,66113,181917,132226,82637,66113,380699,330498,330498,330498,3471478,660996,594900
100000000,82654,132226,66113,66113,181917,132226,82637,66113,380699,330498,330498,330498,3471477,660996,594900
100000000,82654,132226,66113,66113,181917,132226,82637,66113,380699,330498,330498,330498,3471478,660996,594900
100000000,82656,132228,66114,66114,181926,132228,82638,66114,380735,330497,330497,330497,3471537,660993,594897
100000000,82654,132226,66113,66113,181917,132226,82637,66113,380699,330498,330498,330498,3471478,660996,594900
100000000,82658,132230,66115,66115,181935,132230,82639,66115,380770,330495,330495,330495,3471597,660990,594894
100000000,82656,132228,66114,66114,181926,132228,82638,66114,380734,330496,330496,330496,3471537,660993,594896
100000000,82658,132229,66115,66115,181935,132229,82639,66115,380770,330495,330495,330495,3471597,660990,594894
100000000,82658,132230,66115,66115,181940,132230,82638,66115,380805,330494,330494,330494,3471655,660987,594893
100000000,82655,132225,66112,66112,181928,132225,82636,66112,380767,330494,330494,330494,3471582,660989,594895
100000000,82662,132233,66117,66117,181953,132233,82641,66117,380842,330493,330493,330493,3471716,660985,594889
100000000,82658,132228,66114,66114,181943,132228,82637,66114,380838,330492,330492,330492,3471703,660984,594892
100000000,82661,132233,66116,66116,181952,132233,82640,66116,380840,330491,330491,330491,3471713,660983,594887
100000000,82659,132228,66114,66114,181951,132228,82637,66114,380873,330490,330490,330490,3471759,660980,594888
100000000,82666,132237,66119,66119,181971,132237,82643,66119,380913,330490,330490,330490,3471836,660979,594884
100000000,82661,132231,66115,66115,181960,132231,82638,66115,380908,330488,330488,330488,3471818,660977,594884
100000000,82665,132234,66117,66117,181978,132234,82640,66117,380980,330486,330486,330486,3471939,660972,594880
100000000,82665,132234,66117,66117,181978,132234,82640,66117,380980,330486,330486,330486,3471938,660972,594880
100000000,82667,132236,66118,66118,181987,132236,82641,66118,381015,330484,330484,330484,3471997,660968,594876
100000000,82671,132239,66120,66120,182005,132239,82643,66120,381087,330482,330482,330482,3472118,660964,594872
100000000,82666,132233,66116,66116,181994,132233,82638,66116,381083,330481,330481,330481,3472100,660961,594874
100000000,82676,132245,66123,66123,182031,132245,82645,66123,381193,330477,330477,330477,3472296,660954,594862
100000000,82675,132240,66120,66120,182031,132240,82643,66120,381225,330475,330475,330475,3472338,660951,594862
100000000,82678,132244,66122,66122,182048,132244,82644,66122,381296,330472,330472,330472,3472458,660944,594856
100000000,82681,132245,66122,66122,182073,132245,82643,66122,381435,330466,330466,330466,3472680,660932,594848
100000000,82685,132248,66124,66124,182091,132248,82645,66124,381506,330463,330463,330463,3472799,660926,594842
100000000,82696,132259,66130,66130,182144,132259,82650,66130,381719,330454,330454,330454,3473157,660907,594824
100000000,82702,132259,66129,66129,182187,132259,82649,66129,381961,330443,330443,330443,3473541,660887,594810
100000000,82720,132274,66137,66137,182283,132274,82655,66137,382384,330425,330425,330425,3474239,660850,594778
100000000,82760,132302,66151,66151,182509,132302,82665,66151,383436,330379,330379,330379,3475962,660758,594702
58821577,66462,68005,39401,37003,291978,68206,47259,36361,700934,164184,197449,161974,3348976,360280,347545
number,of,instructions:,8358821503
