64446 1096 1603 161
56016 903 248 35
56945 918 247 35
56739 915 247 35
56576 914 247 35
56180 905 247 35
1040625 16362 635 80
1039987 16264 145 15
1039987 16264 145 15
1039987 16264 145 15
1039987 16264 145 15
1039987 16264 145 15
1039987 16264 145 15
1039987 16264 145 15
1039987 16264 145 15
1039987 16264 145 15
1039987 16264 145 15
1039987 16264 145 15
1039987 16264 145 15
1039987 16264 145 15
1039987 16264 145 15
1039987 16264 145 15
1039987 16264 145 15
1039987 16264 145 15
1039987 16264 145 15
1039987 16264 145 15
1039987 16264 145 15
1039987 16264 145 15
1039987 16264 145 15
1039987 16264 145 15
1039987 16264 145 15
1039987 16264 145 15
1039987 16264 145 15
1039987 16264 145 15
1039987 16264 145 15
1039987 16264 145 15
1039987 16264 145 15
1039987 16264 145 15
1039987 16264 145 15
1039987 16264 145 15
1039987 16264 145 15
1039987 16264 145 15
1039987 16264 145 15
1039987 16264 145 15
1039987 16264 145 15
1039987 16264 145 15
1039987 16264 145 15
1039987 16264 145 15
1039987 16264 145 15
1039987 16264 145 15
1039987 16264 145 15
1039987 16264 145 15
1039987 16264 145 15
1039987 16264 145 15
1039987 16264 145 15
1039987 16264 145 15
1039987 16264 145 15
1039987 16264 145 15
1039987 16264 145 15
1039987 16264 145 15
1039987 16264 145 15
1039987 16264 145 15
1039987 16264 145 15
1039987 16264 145 15
1039987 16264 145 15
1039987 16264 145 15
1039987 16264 145 15
1039987 16264 145 15
1039987 16264 145 15
1039987 16264 145 15
1039987 16264 145 15
1039987 16264 145 15
1039987 16264 145 15
1039987 16264 145 15
1039987 16264 145 15
1039987 16264 145 15
1039987 16264 145 15
1039987 16264 145 15
1039987 16264 145 15
1039987 16264 145 15
1039987 16264 145 15
1039987 16264 145 15
1039987 16264 145 15
1039987 16264 145 15
1039987 16264 145 15
1039987 16264 145 15
1039987 16264 145 15
1039987 16264 145 15
1039987 16264 145 15
1039987 16264 145 15
1039987 16264 145 15
1039987 16264 145 15
1039987 16264 145 15
1039987 16264 145 15
1039987 16264 145 15
1039987 16264 145 15
1039987 16264 145 15
1039987 16264 145 15
1039987 16264 145 15
1039987 16264 145 15
1039987 16264 145 15
1039987 16264 145 15
1039987 16264 145 15
1039987 16264 145 15
1039987 16264 145 15
1039987 16264 145 15
1039987 16264 145 15
1039987 16264 145 15
1039987 16264 145 15
1039987 16264 145 15
1039987 16264 145 15
1039987 16264 145 15
1039987 16264 145 15
905182 14159 131 15
number of instructions: 113144110611
