1000000000 8910137 2077635 3577671 1455863 33539909 2993579 4284619 1556754 56345159 5831990 4482126 3809253 170907852 8279533 7694999
1000000000 9042645 2036760 3631056 1413212 34005193 2916694 4241816 1532926 56342253 5725076 4397556 3806554 170558262 7941922 7370823
1000000000 8617663 2086169 3563658 1422637 34111303 2991519 4233947 1527517 56955397 5770062 4432399 3814293 171563691 7858601 7530782
1000000000 8576521 2059606 3571583 1396629 34133985 2888678 4226696 1505369 56991547 5736725 4382661 3797659 171671256 7740312 7504599
1000000000 8483145 1976044 3517719 1340497 34159499 2770247 4159965 1446950 57080489 5683829 4295836 3726311 171753106 7619897 7473761
1000000000 8663795 1945904 3546072 1350744 34133066 2732549 4231073 1469031 56738073 5668084 4320448 3731162 171267208 7714402 7444383
1000000000 4435594 975342 2167841 685572 16491879 1325192 2506220 730975 26735688 2641280 2596022 1740373 92870031 4874862 4044386
1000000000 1040684 79264 1040232 79004 3023645 79869 1117620 79565 3103401 83104 1117661 82515 30666578 2231673 1120046
1000000000 1057103 81010 1056710 80782 3071646 81705 1137164 81470 3154218 85665 1137202 85155 30469690 2271055 1139319
1000000000 1034355 76231 1033917 76020 3006900 76878 1108296 76687 3083970 80174 1108340 79677 30708625 2213086 1111009
1000000000 1057321 81928 1056961 81704 3071549 82469 1137868 82269 3154467 86149 1137906 85617 30471161 2272178 1139896
1000000000 1068745 79807 1068411 79591 3106693 80526 1147151 80326 3187758 84249 1147187 83726 29531760 2290763 1149461
1000000000 1036401 78734 1036042 78513 3011372 79298 1113001 79096 3090849 82600 1113026 82067 30700242 2222455 1115438
1000000000 1056959 81127 1056739 80928 3071324 81807 1137332 81616 3154302 85819 1137332 85304 30470190 2271429 1139506
1000000000 1034200 76454 1033962 76263 3006504 77091 1108584 76941 3084111 80437 1108584 79939 30709449 2213707 1111317
1000000000 1057081 81522 1056880 81316 3071503 82019 1137334 81876 3154236 85710 1137334 85180 30469796 2271147 1139383
1000000000 1070131 79873 1069960 79680 3111928 80538 1149117 80416 3193465 84426 1149117 83902 29516562 2294945 1151289
1000000000 1034702 78512 1034490 78313 3005770 79042 1110956 78912 3085118 82386 1110956 81852 30715313 2218181 1113564
1000000000 1056953 81283 1056777 81155 3071193 81928 1137593 81825 3154422 86039 1137593 85524 30470887 2271951 1139767
1000000000 1034209 76621 1034009 76506 3006359 77305 1108886 77209 3084249 80694 1108886 80196 30710248 2214311 1111618
1000000000 1056968 81081 1056802 80954 3071677 81612 1136813 81507 3153996 85269 1136813 84739 30468412 2270106 1138863
1000000000 1070146 80135 1069999 80018 3111701 80856 1149599 80759 3193699 84847 1149599 84324 29517902 2295946 1151771
1000000000 1034561 77587 1034374 77470 3006145 78177 1109971 78070 3084654 81538 1109971 81003 30712636 2216173 1112579
1000000000 1057038 81825 1056877 81714 3070910 82478 1138254 82379 3154727 86599 1138254 86084 30472641 2273273 1140428
1000000000 1034230 76906 1034059 76807 3006186 77615 1109245 77519 3084413 80998 1109245 80500 30711207 2215029 1111972
1000000000 1056868 80660 1056723 80556 3071869 81212 1136275 81107 3153749 84812 1136275 84282 30466982 2269031 1138330
1000000000 1070207 80521 1070082 80422 3111477 81258 1150139 81161 3193946 85307 1150139 84784 29519340 2297029 1152311
1000000000 1034365 76619 1034203 76514 3006576 77221 1108842 77114 3084138 80581 1108842 80046 30709633 2213913 1111450
1000000000 1057127 82455 1056989 82357 3070612 83097 1138986 83006 3155061 87219 1138986 86704 30474584 2274736 1141160
1000000000 1034658 76764 1034511 76691 3008630 77455 1110036 77385 3086792 80941 1110036 80444 30700961 2216609 1112367
1000000000 1056339 80616 1056248 80600 3069441 81219 1135347 81192 3151309 84752 1135347 84221 30476869 2267177 1137798
1000000000 1070236 80822 1070166 80810 3111238 81564 1150676 81542 3194190 85763 1150676 85240 29520762 2298102 1152848
1000000000 1033984 75453 1033890 75437 3006968 76062 1107556 76035 3083592 79454 1107556 78965 30706423 2211416 1110164
1000000000 1057329 83184 1057246 83170 3070291 83828 1139930 83803 3155451 88055 1139930 87496 30476893 2276552 1142104
1000000000 1038766 76969 1038675 76955 3020795 77692 1114486 77667 3099272 81232 1114486 80733 30650682 2225506 1116817
1000000000 1052148 80241 1052062 80225 3057316 80838 1130728 80811 3138751 84319 1130728 83788 30526690 2257940 1133179
1000000000 1070312 81197 1070244 81185 3111039 81945 1151187 81923 3194424 86196 1151187 85673 29522121 2299124 1153359
1000000000 1033778 74442 1033686 74426 3007411 75051 1106341 75024 3083046 78443 1106341 77954 30703253 2209030 1108971
1000000000 1057440 83859 1057359 83845 3070008 84484 1140699 84459 3155802 88678 1140699 88126 30478916 2278059 1142851
1000000000 1042963 77305 1042874 77291 3032959 78047 1119040 78022 3111791 81620 1119040 81114 30600649 2234601 1121371
1000000000 1047959 79799 1047875 79783 3045196 80403 1126100 80376 3126190 83878 1126100 83347 30576489 2248683 1128551
1000000000 1070389 81635 1070322 81623 3110837 82376 1151701 82354 3194658 86632 1151701 86109 29523486 2300153 1153873
1000000000 1033651 74298 1033563 74283 3007353 74948 1106119 74922 3082993 78340 1106119 77853 30702940 2208793 1108854
1000000000 1057486 83676 1057408 83661 3070233 84241 1140478 84215 3155654 88404 1140478 87853 30478066 2277415 1142525
1000000000 1047142 77636 1047057 77622 3045114 78397 1123597 78372 3124319 82002 1123597 81493 30550648 2243709 1125928
1000000000 1043762 79319 1043681 79303 3033091 79923 1121425 79896 3113605 83398 1121425 82867 30626163 2239334 1123876
1000000000 1070400 81709 1070336 81697 3110802 82448 1151798 82426 3194704 86713 1151798 86190 29523741 2300344 1153970
1000000000 1033723 74704 1033635 74689 3007168 75356 1106588 75330 3083207 78739 1106588 78252 30704190 2209734 1109323
1000000000 1057405 83336 1057327 83321 3070412 83908 1140009 83882 3155443 88000 1140009 87454 30476833 2276480 1142056
1000000000 1051326 77974 1051245 77961 3057118 78728 1128174 78704 3136694 82403 1128174 81891 30504147 2252859 1130504
1000000000 1039582 78893 1039497 78876 3021106 79497 1116813 79469 3101211 82973 1116813 82440 30672556 2230110 1119265
1000000000 1070390 81678 1070326 81666 3110827 82411 1151735 82389 3194676 86660 1151735 86137 29523573 2300218 1153907
1000000000 1033810 75163 1033722 75148 3006946 75821 1107156 75795 3083466 79220 1107156 78733 30705701 2210869 1109891
1000000000 1057319 82952 1057241 82937 3070598 83535 1139515 83509 3155221 87575 1139515 87034 30475537 2275498 1141562
1000000000 1055520 78358 1055439 78345 3069255 79101 1132776 79077 3149240 82828 1132776 82311 30470447 2262057 1135106
1000000000 1035403 78502 1035318 78485 3008961 79106 1112244 79078 3088677 82582 1112244 82049 30706324 2220971 1114696
1000000000 1070371 81683 1070307 81671 3110842 82421 1151675 82399 3194652 86605 1151675 86088 29523436 2300106 1153847
1000000000 1033900 75549 1033812 75534 3006747 76202 1107677 76176 3083700 79666 1107677 79173 30707065 2211905 1110412
1000000000 1057241 82608 1057163 82593 3070786 83191 1139023 83165 3154998 87157 1139023 86618 30474237 2274516 1141070
1000000000 1056321 78401 1056243 78389 3072543 79136 1133994 79113 3152772 82973 1133994 82455 30461293 2264723 1136168
1000000000 1034585 78274 1034497 78256 3005726 78886 1110894 78857 3085083 82326 1110894 81792 30715119 2218038 1113502
1000000000 1070413 81981 1070349 81969 3110699 82703 1152020 82681 3194812 86896 1152020 86382 29524370 2300805 1154192
1000000000 1033953 75780 1033865 75765 3006646 76449 1107956 76423 3083825 79904 1107956 79408 30707790 2212454 1110691
1000000000 1057148 82207 1057070 82192 3070985 82777 1138491 82751 3154758 86701 1138491 86166 30472843 2273457 1140538
1000000000 1056391 78787 1056313 78773 3072338 79535 1134503 79511 3153009 83415 1134503 82894 30462660 2265757 1136677
1000000000 1034446 77387 1034358 77371 3006141 77999 1109853 77971 3084598 81438 1109853 80903 30712318 2215935 1112461
1000000000 1070530 82675 1070466 82663 3110386 83386 1152816 83364 3195179 87570 1152816 87058 29526495 2302401 1154988
1000000000 1033997 75988 1033909 75973 3006540 76668 1108224 76642 3083946 80132 1108224 79634 30708491 2212987 1110959
1000000000 1057048 81750 1056970 81735 3071202 82327 1137905 82301 3154494 86197 1137905 85664 30471311 2272288 1139952
1000000000 1056492 79244 1056414 79230 3072116 79985 1135089 79961 3153273 83919 1135089 83396 30464193 2266926 1137263
1000000000 1034261 76354 1034173 76338 3006616 76966 1108634 76938 3084042 80405 1108634 79870 30709080 2213497 1111242
1000000000 1070661 83418 1070597 83406 3110047 84123 1153678 84101 3195571 88300 1153678 87788 29528784 2304124 1155850
1000000000 1034049 76274 1033961 76259 3006403 76962 1108579 76936 3084110 80433 1108579 79935 30709437 2213697 1111312
1000000000 1056964 81354 1056886 81339 3071409 81928 1137368 81902 3154249 85740 1137368 85209 30469886 2271215 1139417
1000000000 1056578 79644 1056500 79630 3071907 80386 1135628 80362 3153518 84378 1135628 83853 30465622 2268004 1137802
1000000000 1033942 75251 1033854 75235 3007053 75860 1107317 75833 3083481 79252 1107317 78763 30705791 2210939 1109925
1000000000 1070937 84304 1070874 84292 3109708 84991 1154734 84968 3196014 89231 1154734 88673 29531384 2306161 1156906
1000000000 1034080 76491 1034003 76476 3006291 77200 1108840 77174 3084228 80655 1108840 80157 30710127 2214218 1111573
1000000000 1056874 80998 1056808 80983 3071597 81567 1136858 81541 3154017 85308 1136858 84777 30468530 2270195 1138907
1000000000 1056644 80000 1056578 79986 3071695 80747 1136138 80723 3153750 84810 1136138 84285 30466978 2269024 1138312
1000000000 1033649 74311 1033573 74295 3007340 74955 1106132 74928 3082993 78347 1106132 77858 30702952 2208804 1108858
1000000000 1071152 84913 1071094 84901 3109563 85557 1155514 85534 3196316 89793 1155514 89235 29533146 2307487 1157568
1000000000 1034136 76814 1034060 76799 3006134 77535 1109240 77509 3084411 80994 1109240 80496 30711191 2215019 1111969
1000000000 1056794 80604 1056728 80589 3071805 81165 1136324 81139 3153774 84854 1136324 84323 30467113 2269126 1138377
1000000000 1056718 80345 1056652 80331 3071509 81087 1136614 81063 3153966 85215 1136614 84690 30468240 2269976 1138788
1000000000 1033648 74351 1033572 74336 3007313 75010 1106175 74984 3083019 78388 1106175 77901 30703092 2208906 1108910
1000000000 1071115 84676 1071057 84663 3109689 85296 1155224 85272 3196179 89542 1155224 88982 29532347 2306889 1157269
1000000000 1034199 76632 1034126 76618 3007510 77338 1109569 77313 3085637 80859 1109569 80362 30705321 2215674 1111900
1000000000 1056701 80675 1056632 80659 3070499 81271 1135807 81244 3152461 84829 1135807 84297 30472491 2268097 1138258
1000000000 1056713 80239 1056647 80225 3071530 80985 1136565 80961 3153943 85174 1136565 84649 30468103 2269877 1138739
1000000000 1033731 74822 1033655 74807 3007100 75475 1106722 75449 3083270 78852 1106722 78365 30704546 2210001 1109457
1000000000 1071050 84367 1070992 84354 3109844 84972 1154817 84948 3195993 89196 1154817 88638 29531273 2306077 1156862
1000000000 1038372 76941 1038299 76927 3019679 77662 1114084 77637 3098147 81205 1114084 80706 30655216 2224701 1116415
1000000000 1052509 80286 1052440 80270 3058390 80883 1131148 80856 3139885 84362 1131148 83830 30522206 2258779 1133599
1000000000 1056701 80150 1056635 80136 3071561 80888 1136488 80864 3153909 85109 1136488 84584 30467900 2269723 1138662
1000000000 1033827 75300 1033751 75285 3006854 75960 1107350 75934 3083556 79384 1107350 78897 30706212 2211256 1110085
1000000000 1070961 84021 1070903 84008 3110010 84606 1154365 84582 3195795 88805 1154365 88251 29530107 2305185 1156410
1000000000 1042569 77287 1042496 77273 3031837 78028 1118644 78003 3110669 81596 1118644 81093 30605204 2233811 1120975
1000000000 1048324 79854 1048255 79838 3046263 80458 1126535 80431 3127330 83934 1126535 83402 30572044 2249553 1128986
1000000000 1056712 80307 1056646 80293 3071498 81046 1136631 81022 3153978 85226 1136631 84707 30468297 2270015 1138805
1000000000 1033893 75575 1033817 75560 3006720 76227 1107712 76201 3083718 79695 1107712 79202 30707158 2211974 1110447
1000000000 1070886 83698 1070828 83685 3110178 84265 1153921 84241 3195594 88426 1153921 87876 29528940 2304301 1155966
1000000000 1046752 77610 1046679 77596 3043993 78369 1123196 78344 3123194 81975 1123196 81468 30555190 2242910 1125527
1000000000 1044128 79363 1044059 79347 3034166 79967 1121848 79940 3114742 83443 1121848 82911 30621683 2240178 1124299
1000000000 1056751 80586 1056685 80572 3071363 81306 1136958 81282 3154131 85502 1136958 84986 30469189 2270680 1139132
1000000000 1033942 75787 1033866 75772 3006628 76458 1107964 76432 3083829 79910 1107964 79414 30707808 2212468 1110699
1000000000 1070801 83350 1070743 83337 3110357 83923 1153444 83899 3195381 88015 1153444 87472 29527694 2303355 1155489
1000000000 1050940 77956 1050871 77943 3055996 78709 1127780 78685 3135570 82384 1127780 81871 30507240 2252070 1130110
1000000000 1039944 78916 1039871 78899 3022190 79520 1117211 79492 3102336 82996 1117211 82463 30669470 2230905 1119663
1000000000 1056770 80741 1056704 80727 3071302 81451 1137107 81427 3154200 85627 1137107 85113 30469590 2270980 1139281
1000000000 1034004 76081 1033928 76066 3006481 76762 1108345 76736 3084001 80234 1108345 79736 30708814 2213228 1111080
1000000000 1070718 82981 1070660 82968 3110536 83565 1152967 83541 3195167 87605 1152967 87067 29526448 2302408 1155012
1000000000 1055131 78325 1055062 78312 3068143 79067 1132365 79043 3148110 82794 1132365 82276 30473492 2261232 1134695
144110611 151468 12730 151461 12727 439323 12817 164245 12813 452418 13481 164245 13399 4179684 328124 164523
number of instructions: 113144110611
