263213071 15445240 250395248 257691405 262741827 262753829 262769018 262774671 15263 86339257 126361830 162650005 170392197 173526884 178464179 133809527 2708780 128590243 130381494 133743242 133744823 133745526 133745607 0 10260676 87280639 114335539 117971846 117971965 117971985
262290078 15384730 248909139 256865198 261975939 261977666 261985011 261985011 0 86053635 126292030 162566755 170236767 173331072 178211410 133900598 2678621 128329106 130231289 133841081 133841085 133841085 133841085 0 10498203 87373591 114602815 118252924 118252924 118252924
263362580 15604827 251266266 257901522 262735593 262736541 262743908 262743908 0 86285528 126295264 162772724 170557349 173703155 178664716 133494759 2723203 128695127 130444667 133434247 133434263 133434263 133434263 0 10115290 86796787 113904394 117586294 117586294 117586294
263282573 15522334 251201944 257845126 262665380 262666243 262673605 262673605 0 86284769 126609842 163157115 170916443 174050845 178994429 133339904 2713333 128520222 130277424 133279596 133279628 133279628 133279628 0 10109311 86595543 113809728 117485155 117485155 117485155
263099735 15473729 251014000 257688856 262482522 262483221 262490415 262490415 0 86235901 126723524 163302686 171045892 174171275 179100631 133214011 2705525 128375824 130145813 133153896 133153907 133153907 133153907 0 10115340 86453447 113729813 117405253 117405253 117405253
262692091 15357839 250037618 257279906 262230681 262231092 262238133 262238133 0 86165730 126780693 163265423 170954840 174058231 178952899 133425877 2686487 128224842 130061337 133366179 133366197 133366197 133366197 0 10290452 86742924 114075157 117729295 117729295 117729295
295453872 6867043 224973782 260896005 268210006 269879975 279750268 293705138 177 83984929 121558116 186127100 191337963 192727170 194917843 115776523 1202419 99919485 114380812 115748841 115749139 115749143 115749143 0 42745044 87047192 103664207 105266588 105266596 105266596
317986144 168 201658719 260767982 269979247 272920096 290254758 315142450 0 81025845 116057545 202281285 205459364 205459553 205459553 100901969 147 76940827 100901837 100901837 100901837 100901837 100901837 0 67453111 86003476 94190570 94190759 94190759 94190759
320710162 152 203794393 262547453 271772054 274803494 292906120 318055262 0 81234100 116197868 203816631 207048911 207049082 207049082 99870959 133 78172645 99870845 99870845 99870845 99870845 99870845 0 66999163 85578695 93899450 93899621 93899621 93899621
318360335 176 200733025 261445387 270532610 273543660 291091906 315717691 0 80601360 115448604 201176877 204332482 204332680 204332680 101361140 154 76491438 101361004 101361004 101361004 101361004 101361004 0 67500484 86524687 94662674 94662872 94662872 94662872
320708617 152 203792873 262559359 271857894 274832858 292529440 317846072 0 81233878 116197399 203813845 207046828 207046999 207046999 99872342 133 78173613 99872228 99872228 99872228 99872228 99872228 0 66999018 85579719 93900667 93900838 93900838 93900838
322442013 144 204788704 263612410 272944469 276010748 294132334 319745608 0 80601913 115923701 204529781 207794169 207794331 207794331 100393505 126 78345216 100393388 100393388 100393388 100393388 100393388 0 67073697 85987146 94399491 94399653 94399653 94399653
318237043 168 201013488 261249614 270427234 273354562 290606534 315400035 0 80734272 115638805 201515364 204680467 204680656 204680656 101223482 147 76635862 101223351 101223351 101223351 101223351 101223351 0 67486181 86366406 94520451 94520640 94520640 94520640
320709589 152 203793747 262546892 271769545 274804947 292924462 318054170 0 81234066 116197762 203815769 207048292 207048463 207048463 99871460 133 78173006 99871346 99871346 99871346 99871346 99871346 0 66999143 85579073 93899895 93900066 93900066 93900066
318359378 176 200731953 261444601 270524511 273535472 291089190 315717735 0 80601300 115448444 201175499 204331510 204331708 204331708 101361975 154 76492038 101361839 101361839 101361839 101361839 101361839 0 67500449 86525313 94663415 94663613 94663613 94663613
320710174 152 203794607 262561097 271868386 274839031 292502260 317844561 0 81233989 116197691 203816177 207048493 207048664 207048664 99870977 133 78172633 99870863 99870863 99870863 99870863 99870863 0 66999083 85578694 93899456 93899627 93899627 93899627
322326293 136 205077425 263391104 272735549 275779853 293934274 319627642 0 80735501 116115573 204880348 208150913 208151066 208151066 100249039 119 78484782 100248927 100248927 100248927 100248927 100248927 0 67059764 85823777 94251240 94251393 94251393 94251393
318352922 176 200724961 261471415 270637504 273589440 290826131 315524447 0 80600681 115446942 201164991 204323851 204324049 204324049 101367795 154 76496183 101367659 101367659 101367659 101367659 101367659 0 67500104 86529659 94668565 94668763 94668763 94668763
320708786 152 203792839 262546083 271766580 274804750 292931701 318049697 0 81234019 116197623 203814587 207047453 207047624 207047624 99872178 133 78173524 99872064 99872064 99872064 99872064 99872064 0 66999123 85579613 93900533 93900704 93900704 93900704
318358462 176 200730927 261442771 270512995 273520566 291056475 315716409 0 80601238 115448271 201174125 204330529 204330727 204330727 101362793 154 76492626 101362657 101362657 101362657 101362657 101362657 0 67500419 86525926 94664141 94664339 94664339 94664339
320711765 152 203796404 262562382 271881670 274851489 292507586 317845617 0 81234085 116197977 203818545 207050179 207050350 207050350 99869545 133 78171601 99869431 99869431 99869431 99869431 99869431 0 66999123 85577619 93898184 93898355 93898355 93898355
322324629 136 205075424 263394190 272740107 275768387 293888142 319627667 0 80735500 116115435 204878294 208149535 208149688 208149688 100250514 119 78485867 100250402 100250402 100250402 100250402 100250402 0 67059796 85824897 94252559 94252712 94252712 94252712
318356109 176 200728657 261469945 270632183 273602960 290905761 315533218 0 80600780 115447360 201169336 204326865 204327063 204327063 101364958 154 76494116 101364822 101364822 101364822 101364822 101364822 0 67500121 86527516 94666036 94666234 94666234 94666234
320706787 152 203790604 262544377 271764643 274801658 292923480 318040666 0 81233893 116197259 203811574 207045303 207045474 207045474 99873987 133 78174828 99873873 99873873 99873873 99873873 99873873 0 66999069 85580971 93902140 93902311 93902311 93902311
318357332 176 200729614 261441668 270501376 273498526 290985842 315717962 0 80601202 115448111 201172542 204329420 204329618 204329618 101363805 154 76493363 101363669 101363669 101363669 101363669 101363669 0 67500414 86526692 94665043 94665241 94665241 94665241
320713421 152 203798307 262563970 271896465 274873829 292550034 317843718 0 81234158 116198238 203820951 207051880 207052051 207052051 99868048 133 78170514 99867934 99867934 99867934 99867934 99867934 0 66999142 85576489 93896851 93897022 93897022 93897022
322322998 136 205073581 263397405 272745606 275772164 293893650 319626635 0 80735401 116115138 204875828 208147771 208147924 208147924 100251974 119 78486922 100251862 100251862 100251862 100251862 100251862 0 67059750 85825997 94253857 94254010 94254010 94254010
318359545 176 200732489 261465390 270619553 273601341 290957013 315556025 0 80601000 115447986 201174476 204330530 204330728 204330728 101361892 154 76491910 101361756 101361756 101361756 101361756 101361756 0 67500224 86525211 94663314 94663512 94663512 94663512
320704562 152 203788143 262545108 271769708 274799329 292892619 318018855 0 81233743 116196846 203808238 207042923 207043094 207043094 99875973 133 78176254 99875859 99875859 99875859 99875859 99875859 0 66998998 85582462 93903902 93904073 93904073 93904073
318493047 168 200831149 261528748 270584528 273557041 291015713 315848583 0 80613086 115457259 201253898 204413651 204413840 204413840 101313901 147 76556337 101313770 101313770 101313770 101313770 101313770 0 67479114 86507383 94652526 94652715 94652715 94652715
320578117 160 203697213 262477453 271816352 274816059 292493264 317713693 0 81222315 116189181 203740223 206968100 206968280 206968280 99917597 140 78107290 99917478 99917478 99917478 99917478 99917478 0 67020468 85595534 93909055 93909235 93909235 93909235
322321372 136 205071772 263400036 272749300 275779678 293926558 319627691 0 80735283 116114825 204873377 208146019 208146172 208146172 100253419 119 78487957 100253307 100253307 100253307 100253307 100253307 0 67059689 85827080 94255138 94255291 94255291 94255291
318362749 176 200735681 261455344 270605245 273593241 290992483 315582751 0 80601588 115449170 201180846 204335382 204335580 204335580 101358945 154 76489873 101358809 101358809 101358809 101358809 101358809 0 67500604 86523045 94660731 94660929 94660929 94660929
320702374 152 203786089 262552652 271777185 274801563 292850203 317990947 0 81233226 116195862 203803445 207039206 207039377 207039377 99877995 133 78177626 99877881 99877881 99877881 99877881 99877881 0 66998648 85583933 93905664 93905835 93905835 93905835
319181389 168 201363665 261985837 271076923 274059046 291590781 316530732 0 80661910 115487641 201632090 204804609 204804798 204804798 101056698 147 76860994 101056567 101056567 101056567 101056567 101056567 0 67365139 86403090 94581223 94581412 94581412 94581412
319890311 160 203165315 262020199 271325539 274310947 291895187 317031558 0 81173513 116158879 203362790 206577676 206577856 206577856 100174328 140 77802291 100174209 100174209 100174209 100174209 100174209 0 67134453 85699471 93979938 93980118 93980118 93980118
322319821 136 205070027 263402984 272753541 275788317 293968273 319628277 0 80735183 116114541 204871044 208144353 208144506 208144506 100254805 119 78488953 100254693 100254693 100254693 100254693 100254693 0 67059639 85828120 94256368 94256521 94256521 94256521
318366371 176 200739742 261448605 270590931 273579279 290999459 315600097 0 80601830 115449843 201186283 204339262 204339460 204339460 101355710 154 76487548 101355574 101355574 101355574 101355574 101355574 0 67500724 86520619 94657860 94658058 94658058 94658058
320699969 152 203783308 262555480 271786540 274809955 292823277 317974869 0 81233143 116195534 203800140 207036908 207037079 207037079 99880141 133 78179187 99880027 99880027 99880027 99880027 99880027 0 66998633 85585553 93907576 93907747 93907747 93907747
319869528 168 201896028 262444053 271568453 274561088 292167092 317211012 0 80710652 115517881 202009723 205195116 205195305 205195305 100799670 147 77165761 100799539 100799539 100799539 100799539 100799539 0 67251099 86298919 94510069 94510258 94510258 94510258
319202534 160 202633426 261563580 270836238 273806650 291297194 316348918 0 81124728 116128593 202985387 206187271 206187451 206187451 100431051 140 77497289 100430932 100430932 100430932 100430932 100430932 0 67248453 85803405 94050815 94050995 94050995 94050995
322318262 136 205068285 263402328 272746980 275790497 294019640 319629528 0 80735076 116114250 204868705 208142684 208142837 208142837 100256194 119 78489952 100256082 100256082 100256082 100256082 100256082 0 67059586 85829163 94257601 94257754 94257754 94257754
318366725 176 200740146 261450032 270591935 273582953 291018075 315637872 0 80601846 115449904 201186822 204339650 204339848 204339848 101355392 154 76487315 101355256 101355256 101355256 101355256 101355256 0 67500731 86520378 94657576 94657774 94657774 94657774
320700917 152 203784347 262553714 271789033 274804473 292769445 317937083 0 81233231 116195746 203801654 207038004 207038175 207038175 99879276 133 78178572 99879162 99879162 99879162 99879162 99879162 0 66998674 85584907 93906811 93906982 93906982 93906982
320557562 168 202428216 262901667 272060818 275065013 292748934 317892412 0 80759441 115548185 202387412 205585706 205585895 205585895 100542741 147 77470612 100542610 100542610 100542610 100542610 100542610 0 67137104 86194829 94439008 94439197 94439197 94439197
318514897 160 202101716 261107063 270345483 273299483 290703298 315666975 0 81075939 116098325 202608207 205797026 205797206 205797206 100687620 140 77192173 100687501 100687501 100687501 100687501 100687501 0 67362438 85907221 94121554 94121734 94121734 94121734
322317967 136 205067957 263401613 272744426 275795747 294066810 319634676 0 80735051 116114193 204868262 208142370 208142523 208142523 100256474 119 78490152 100256362 100256362 100256362 100256362 100256362 0 67059583 85829372 94257849 94258002 94258002 94258002
318365305 176 200738507 261449069 270581556 273576837 291028858 315653850 0 80601765 115449648 201184679 204338116 204338314 204338314 101356659 154 76488232 101356523 101356523 101356523 101356523 101356523 0 67500690 86521332 94658703 94658901 94658901 94658901
320702283 152 203785885 262554749 271801216 274808584 292720966 317915684 0 81233345 116196042 203803832 207039585 207039756 207039756 99878055 133 78177696 99877941 99877941 99877941 99877941 99877941 0 66998739 85583992 93905728 93905899 93905899 93905899
321042550 160 202984699 263155836 272349330 275365942 293130363 318371635 0 80860667 115662416 202848932 206060148 206060328 206060328 100271780 140 77775291 100271661 100271661 100271661 100271661 100271661 0 67040616 86034747 94311934 94312114 94312114 94312114
318030072 168 201545445 260852344 270057558 272996495 290315921 315187475 0 80974696 115984079 202146810 205322648 205322837 205322837 100958437 147 76887385 100958306 100958306 100958306 100958306 100958306 0 67458908 86067192 94248498 94248687 94248687 94248687
322318164 136 205068171 263402309 272741566 275800157 294104359 319638348 0 80735069 116114233 204868551 208142576 208142729 208142729 100256306 119 78490034 100256194 100256194 100256194 100256194 100256194 0 67059596 85829247 94257701 94257854 94257854 94257854
318363577 176 200736568 261448508 270574859 273573594 291047753 315681906 0 80601651 115449327 201182083 204336262 204336460 204336460 101358204 154 76489342 101358068 101358068 101358068 101358068 101358068 0 67500634 86522492 94660074 94660272 94660272 94660272
320703719 152 203787466 262555031 271809563 274810264 292667616 317885142 0 81233468 116196359 203806138 207041261 207041432 207041432 99876755 133 78176766 99876641 99876641 99876641 99876641 99876641 0 66998807 85583021 93904576 93904747 93904747 93904747
320791738 160 203630065 262674399 271902728 274930346 292778909 318114212 0 81152212 116081119 203614837 206839007 206839187 206839187 99950213 140 78080213 99950094 99950094 99950094 99950094 99950094 0 67007528 85671771 93982003 93982183 93982183 93982183
318280853 168 200900079 261334022 270505896 273431049 290669063 315445394 0 80683116 115565319 201380709 204543622 204543811 204543811 101280056 147 76582495 101279925 101279925 101279925 101279925 101279925 0 67491975 86430202 94578473 94578662 94578662 94578662
322318275 136 205068257 263401606 272737760 275803575 294133307 319639140 0 80735113 116114306 204868865 208142826 208142979 208142979 100256187 119 78489955 100256075 100256075 100256075 100256075 100256075 0 67059619 85829161 94257598 94257751 94257751 94257751
318362058 176 200734900 261447673 270557519 273559618 291062443 315700472 0 80601517 115448993 201179663 204334507 204334705 204334705 101359570 154 76490318 101359434 101359434 101359434 101359434 101359434 0 67500563 86523514 94661284 94661482 94661482 94661482
320705196 152 203789109 262556319 271829630 274820363 292620110 317865842 0 81233580 116196653 203808394 207042879 207043050 207043050 99875437 133 78175823 99875323 99875323 99875323 99875323 99875323 0 66998864 85582033 93903408 93903579 93903579 93903579
320719800 152 203805282 262538604 271772954 274771555 292621916 318039028 0 81234687 116199575 203830931 207059080 207059251 207059251 99862331 133 78166427 99862217 99862217 99862217 99862217 99862217 0 66999423 85572209 93891786 93891957 93891957 93891957
318353209 176 200725351 261471143 270637462 273593601 290839789 315524866 0 80600650 115446916 201165206 204323964 204324162 204324162 101367560 154 76496003 101367424 101367424 101367424 101367424 101367424 0 67500079 86529477 94668352 94668550 94668550 94668550
322317164 136 205066978 263399920 272734799 275802806 294145892 319634405 0 80735070 116114154 204867341 208141767 208141920 208141920 100257167 119 78490665 100257055 100257055 100257055 100257055 100257055 0 67059608 85829903 94258470 94258623 94258623 94258623
318361275 176 200734057 261446930 270546383 273552873 291079815 315711340 0 80601433 115448795 201178343 204333536 204333734 204333734 101360277 154 76490820 101360141 101360141 101360141 101360141 101360141 0 67500510 86524038 94661909 94662107 94662107 94662107
320706751 152 203790811 262557505 271842851 274825936 292573975 317853074 0 81233721 116196997 203810865 207044670 207044841 207044841 99874046 133 78174832 99873932 99873932 99873932 99873932 99873932 0 66998943 85580995 93902177 93902348 93902348 93902348
320718199 152 203803453 262541327 271778464 274763581 292577098 318039088 0 81234611 116199324 203828645 207057471 207057642 207057642 99863761 133 78167462 99863647 99863647 99863647 99863647 99863647 0 66999398 85573286 93893058 93893229 93893229 93893229
318356485 176 200729082 261469597 270630084 273603297 290917355 315536616 0 80600801 115447422 201169869 204327242 204327440 204327440 101364642 154 76493890 101364506 101364506 101364506 101364506 101364506 0 67500134 86527279 94665756 94665954 94665954 94665954
322314729 136 205064222 263398625 272735542 275803678 294141839 319625147 0 80734930 116113727 204863720 208139188 208139341 208139341 100259346 119 78492239 100259234 100259234 100259234 100259234 100259234 0 67059544 85831541 94260407 94260560 94260560 94260560
318360483 176 200733208 261445282 270533897 273544496 291090909 315717478 0 80601360 115448626 201177115 204332654 204332852 204332852 101360986 154 76491324 101360850 101360850 101360850 101360850 101360850 0 67500474 86524568 94662536 94662734 94662734 94662734
320708449 152 203792671 262559242 271856513 274831795 292532375 317846318 0 81233875 116197372 203813584 207046641 207046812 207046812 99872509 133 78173735 99872395 99872395 99872395 99872395 99872395 0 66999023 85579846 93900816 93900987 93900987 93900987
320716502 152 203801595 262544604 271783584 274766441 292583685 318037466 0 81234456 116198948 203825928 207055502 207055673 207055673 99865299 133 78168560 99865185 99865185 99865185 99865185 99865185 0 66999318 85574436 93894420 93894591 93894591 93894591
318360181 176 200733199 261464582 270617385 273600139 290963504 315560323 0 80601045 115448105 201175424 204331206 204331404 204331404 101361324 154 76491502 101361188 101361188 101361188 101361188 101361188 0 67500244 86524786 94662810 94663008 94663008 94663008
322312111 136 205061315 263399881 272740824 275804016 294115059 319602392 0 80734758 116113243 204859791 208136385 208136538 208136538 100261694 119 78493927 100261582 100261582 100261582 100261582 100261582 0 67059464 85833304 94262491 94262644 94262644 94262644
318359395 176 200731966 261444427 270524642 273536129 291090151 315717843 0 80601305 115448446 201175516 204331520 204331718 204331718 101361964 154 76492032 101361828 101361828 101361828 101361828 101361828 0 67500454 86525306 94663406 94663604 94663604 94663604
320710073 152 203794507 262560877 271868015 274838533 292502369 317844137 0 81233971 116197667 203816035 207048395 207048566 207048566 99871046 133 78172677 99870932 99870932 99870932 99870932 99870932 0 66999067 85578745 93899516 93899687 93899687 93899687
320714890 152 203799785 262547221 271789006 274774837 292615723 318039679 0 81234349 116198639 203823446 207053717 207053888 207053888 99866752 133 78169608 99866638 99866638 99866638 99866638 99866638 0 66999264 85575528 93895710 93895881 93895881 93895881
318363468 176 200736480 261453288 270602660 273591169 290996858 315585993 0 80601643 115449305 201181929 204336152 204336350 204336350 101358294 154 76489407 101358158 101358158 101358158 101358158 101358158 0 67500629 86522559 94660154 94660352 94660352 94660352
322309597 136 205058906 263408244 272747519 275807503 294077685 319575991 0 80734212 116112190 204854483 208132297 208132450 208132450 100264012 119 78495510 100263900 100263900 100263900 100263900 100263900 0 67059099 85834995 94264515 94264668 94264668 94264668
318358615 176 200731087 261443009 270514339 273522189 291060989 315716671 0 80601252 115448295 201174316 204330659 204330857 204330857 101362678 154 76492546 101362542 101362542 101362542 101362542 101362542 0 67500434 86525843 94664040 94664238 94664238 94664238
320711622 152 203796245 262562247 271880651 274850097 292505520 317845752 0 81234076 116197957 203818358 207050052 207050223 207050223 99869669 133 78171690 99869555 99869555 99869555 99869555 99869555 0 66999118 85577711 93898294 93898465 93898465 93898465
320713341 152 203798047 262549864 271792734 274782742 292659451 318040009 0 81234244 116198347 203821121 207052058 207052229 207052229 99868129 133 78170595 99868015 99868015 99868015 99868015 99868015 0 66999213 85576562 93896932 93897103 93897103 93897103
318366709 176 200740129 261447875 270587605 273576358 290999447 315604998 0 80601848 115449903 201186803 204339635 204339833 204339833 101355401 154 76487324 101355265 101355265 101355265 101355265 101355265 0 67500729 86520385 94657585 94657783 94657783 94657783
322307593 136 205056645 263410786 272756962 275814154 294055580 319556277 0 80734087 116111821 204851460 208130136 208130289 208130289 100265804 119 78496802 100265692 100265692 100265692 100265692 100265692 0 67059039 85836344 94266107 94266260 94266260 94266260
318357366 176 200729676 261441807 270502269 273501342 290993974 315717899 0 80601185 115448099 201172548 204329417 204329615 204329615 101363770 154 76493333 101363634 101363634 101363634 101363634 101363634 0 67500399 86526663 94665010 94665208 94665208 94665208
320713261 152 203798096 262563890 271895116 274870870 292545028 317844124 0 81234170 116198231 203820746 207051742 207051913 207051913 99868218 133 78170644 99868104 99868104 99868104 99868104 99868104 0 66999163 85576619 93897005 93897176 93897176 93897176
320711903 152 203796443 262549587 271787507 274785208 292714385 318042545 0 81234144 116198075 203818945 207050500 207050671 207050671 99869402 133 78171508 99869288 99869288 99869288 99869288 99869288 0 66999157 85577517 93898061 93898232 93898232 93898232
318366556 176 200739942 261449755 270589886 273581126 291018398 315640825 0 80601846 115449878 201186558 204339458 204339656 204339656 101355553 154 76487436 101355417 101355417 101355417 101355417 101355417 0 67500735 86520501 94657721 94657919 94657919 94657919
322308498 136 205057677 263408854 272757740 275806896 294008676 319517650 0 80734136 116111985 204852834 208131121 208131274 208131274 100264995 119 78496218 100264883 100264883 100264883 100264883 100264883 0 67059064 85835734 94265388 94265541 94265541 94265541
318431163 168 200783337 261487067 270539892 273511066 290963298 315787234 0 80608699 115454558 201220079 204378595 204378784 204378784 101336921 147 76528734 101336790 101336790 101336790 101336790 101336790 0 67489402 86516657 94658800 94658989 94658989 94658989
320640026 160 203745045 262518542 271860058 274861412 292546913 317775031 0 81226709 116191888 203774070 207003175 207003355 207003355 99894562 140 78134883 99894443 99894443 99894443 99894443 99894443 0 67010185 85586250 93902768 93902948 93902948 93902948
320712061 152 203796634 262549976 271783818 274786578 292766296 318047548 0 81234142 116198093 203819166 207050656 207050827 207050827 99869267 133 78171408 99869153 99869153 99869153 99869153 99869153 0 66999158 85577413 93897940 93898111 93898111 93898111
318364893 176 200738050 261448267 270577539 273573113 291030564 315658511 0 80601734 115449569 201184066 204337679 204337877 204337877 101357026 154 76488494 101356890 101356890 101356890 101356890 101356890 0 67500674 86521605 94659028 94659226 94659226 94659226
322309717 136 205059059 263409737 272770850 275814500 293970320 319495231 0 80734231 116112230 204854703 208132463 208132616 208132616 100263905 119 78495438 100263793 100263793 100263793 100263793 100263793 0 67059114 85834920 94264422 94264575 94264575 94264575
319119302 168 201315632 261944798 271032738 274013982 291539194 316469491 0 80657505 115484897 201597974 204769341 204769530 204769530 101079894 147 76833517 101079763 101079763 101079763 101079763 101079763 0 67375417 86412494 94587653 94587842 94587842 94587842
319952342 160 203213273 262061460 271369952 274356334 291948459 317092952 0 81177922 116161616 203396817 206612879 206613059 206613059 100151189 140 77829810 100151070 100151070 100151070 100151070 100151070 0 67124178 85690110 93973559 93973739 93973739 93973739
320712301 152 203796899 262549758 271779361 274789001 292810938 318050098 0 81234159 116198137 203819514 207050903 207051074 207051074 99869060 133 78171261 99868946 99868946 99868946 99868946 99868946 0 66999170 85577259 93897757 93897928 93897928 93897928
318362987 176 200735916 261448175 270572494 273572068 291050131 315684143 0 80601605 115449215 201181208 204335641 204335839 204335839 101358734 154 76489722 101358598 101358598 101358598 101358598 101358598 0 67500614 86522887 94660544 94660742 94660742 94660742
322310969 136 205060390 263409085 272778952 275816375 293928905 319469216 0 80734381 116112563 204856844 208134042 208134195 208134195 100262778 119 78494641 100262666 100262666 100262666 100262666 100262666 0 67059204 85834080 94263427 94263580 94263580 94263580
319807400 168 201847942 262402842 271524244 274515807 292114854 317149403 0 80706254 115515146 201975596 205159849 205160038 205160038 100822895 147 77138306 100822764 100822764 100822764 100822764 100822764 0 67261383 86308347 94516525 94516714 94516714 94516714
319264519 160 202681346 261604844 270880214 273852075 291352073 316410497 0 81129125 116131317 203019353 206222432 206222612 206222612 100407939 140 77524827 100407820 100407820 100407820 100407820 100407820 0 67238166 85794063 94044460 94044640 94044640 94044640
320711804 152 203796311 262548450 271774667 274791970 292849459 318051977 0 81234156 116198096 203818914 207050504 207050675 207050675 99869494 133 78171580 99869380 99869380 99869380 99869380 99869380 0 66999176 85577588 93898145 93898316 93898316 93898316
318361955 176 200734780 261447713 270557249 273560304 291067826 315705905 0 80601512 115448976 201179502 204334393 204334591 204334591 101359674 154 76490392 101359538 101359538 101359538 101359538 101359538 0 67500564 86523591 94661376 94661574 94661574 94661574
322312274 136 205061833 263409961 272796534 275825946 293887829 319446603 0 80734488 116112839 204858901 208135529 208135682 208135682 100261602 119 78493800 100261490 100261490 100261490 100261490 100261490 0 67059259 85833200 94262385 94262538 94262538 94262538
320495448 168 202380151 262860353 272016340 275019291 292696101 317830831 0 80755041 115545450 202353310 205550457 205550646 205550646 100565947 147 77443141 100565816 100565816 100565816 100565816 100565816 0 67147383 86204241 94445446 94445635 94445635 94445635
318576924 160 202149677 261148321 270389902 273345406 290756400 315728689 0 81080339 116101059 202642229 205832229 205832409 205832409 100664491 140 77219701 100664372 100664372 100664372 100664372 100664372 0 67352164 85897867 94115185 94115365 94115365 94115365
320710745 152 203795077 262547560 271773132 274798482 292882569 318053571 0 81234127 116197956 203817463 207049494 207049665 207049665 99870431 133 78172262 99870317 99870317 99870317 99870317 99870317 0 66999168 85578296 93898980 93899151 93899151 93899151
318361252 176 200734027 261446409 270543176 273550245 291082421 315713221 0 80601432 115448792 201178306 204333511 204333709 204333709 101360311 154 76490844 101360175 101360175 101360175 101360175 101360175 0 67500519 86524066 94661939 94662137 94662137 94662137
322313648 136 205063331 263411363 272810600 275831688 293851536 319437460 0 80734619 116113155 204861128 208137151 208137304 208137304 100260369 119 78492922 100260257 100260257 100260257 100260257 100260257 0 67059334 85832279 94261294 94261447 94261447 94261447
321065109 160 202926434 263199353 272389877 275405448 293162045 318394555 0 80834354 115624629 202779753 205989827 205990007 205990007 100300829 140 77747815 100300710 100300710 100300710 100300710 100300710 0 67043585 86067517 94341731 94341911 94341911 94341911
318007498 168 201603709 260809035 270017224 272957108 290284913 315164537 0 81000997 116021860 202215978 205392964 205393153 205393153 100929395 147 76914863 100929264 100929264 100929264 100929264 100929264 0 67455932 86034425 94218706 94218895 94218895 94218895
320710275 152 203794522 262547311 271771802 274803239 292907228 318055276 0 81234107 116197888 203816802 207049032 207049203 207049203 99870851 133 78172567 99870737 99870737 99870737 99870737 99870737 0 66999163 85578614 93899354 93899525 93899525 93899525
318360111 176 200732779 261445362 270532396 273543788 291093244 315717400 0 80601343 115448561 201176554 204332252 204332450 204332450 101361327 154 76491570 101361191 101361191 101361191 101361191 101361191 0 67500469 86524825 94662839 94663037 94663037 94663037
322315033 136 205064846 263413099 272821756 275837327 293818900 319432967 0 80734747 116113466 204863348 208138762 208138915 208138915 100259120 119 78492033 100259008 100259008 100259008 100259008 100259008 0 67059404 85831347 94260189 94260342 94260342 94260342
320814353 160 203571859 262717784 271943096 274969394 292810273 318136903 0 81125902 116043342 203545737 206768744 206768924 206768924 99979221 140 78052707 99979102 99979102 99979102 99979102 99979102 0 67010505 85704511 94011763 94011943 94011943 94011943
45922285 16 29105403 37609391 38961365 39372292 41938805 45495301 0 11494275 16666596 29211078 29675963 29675981 29675981 14809968 14 11005850 14809951 14809951 14809951 14809951 14809951 0 9801439 12542240 13734588 13734606 13734606 13734606
number of instructions: 113144110611
