omp threads,PACKAGE_ENERGY:PACKAGE0,PACKAGE_ENERGY:PACKAGE1,DRAM_ENERGY:PACKAGE0,DRAM_ENERGY:PACKAGE1,TOTAL_ENERGY,TIME,POWER
1,168.03540039,149.303955078,24.410202026,20.898315429,362.647872923,3.748545885086,96.743613134317
2,88.667114257,89.116027832,13.753601074,12.54170227,204.078445433,2.103741884232,97.007359582777
3,79.440185546,83.797851562,10.404113769,9.061294555,182.703445432,1.591541051865,114.796564762151
4,83.552734375,73.679138183,10.354187011,9.073898315,176.659957884,1.609187960625,109.78205294018
5,70.326049804,57.972290039,8.86932373,7.760635375,144.928298948,1.368564009666,105.898078514664
6,66.011474609,69.447021484,8.957565307,7.905044555,152.321105955,1.399911999702,108.807629327683
7,52.827514648,56.433349609,7.251571655,6.292861938,122.80529785,1.1148250103,110.156568712957
8,62.997680664,61.005187988,8.212524414,7.214599609,139.429992675,1.285141944885,108.493846325628
9,58.202270507,48.488708496,6.741897583,5.877716064,119.31059265,1.037112951279,115.041078701118
10,88.033081054,65.932250976,10.964828491,9.916870117,174.847030638,1.779114961624,98.277533722938
11,59.45123291,54.680358886,7.455734252,6.590301513,128.177627561,1.168735027313,109.672102371795
12,62.637390136,59.727844238,7.530853271,6.66770935,136.563796995,1.189762949944,114.782358117203
13,51.967651367,56.436218261,7.113555908,6.268463134,121.78588867,1.118577957153,108.875637939383
14,48.248718261,51.620239257,6.354217529,5.561264038,111.784439085,0.986204981804,113.348077881874
15,52.438842773,45.963989257,6.295455932,5.462203979,110.160491941,0.973653018475,113.141427028685
16,42.269226074,45.173706054,5.846023559,5.097915649,98.386871336,0.900695025921,109.234389559784
17,43.966735839,52.036560058,6.407684326,5.627578735,108.038558958,0.998329997063,108.21928548263
18,47.642822265,47.956298828,6.044265747,5.308929443,106.952316283,0.941321015358,113.619386519622
19,50.493835449,47.309814453,6.520263671,5.761489868,110.085403441,1.024629950523,107.439181711182
20,56.437194824,46.796691894,7.142395019,6.364105224,116.740386961,1.131332993507,103.188351821225
21,63.5859375,49.572021484,7.543930053,6.732940673,127.43482971,1.201336026192,106.077589393514
22,43.522521972,41.959350585,5.585083007,4.864700317,95.931655881,0.863870978355,111.048592075207
23,65.663208007,48.437255859,8.416915893,7.594909667,130.112289426,1.355893015862,95.960586789607
24,53.545410156,49.435424804,6.712982177,5.943969726,115.637786863,1.058845043182,109.211246355226
25,49.998474121,39.654052734,6.283569335,5.538330078,101.474426268,0.985713005066,102.945203874239
26,44.114929199,45.733459472,6.174377441,5.435165405,101.457931517,0.966287970543,104.997614179131
27,49.512695312,53.673339843,7.366516113,6.607269287,117.159820555,1.173491001129,99.838703869282
28,30.619934082,35.555603027,5.275024414,4.605224609,76.055786132,0.81346899271,93.495617919764
29,44.10772705,37.192199707,6.467727661,5.710128784,93.477783202,1.013185977936,92.261228676345
30,49.322692871,38.965270996,6.208709716,5.450241088,99.946914671,0.972410023212,102.782686608698
31,35.061767578,30.663940429,5.220336914,4.529769897,75.475814818,0.80032402277,94.306571676779
32,38.991760253,37.165344238,5.264495849,4.561599731,85.983200071,0.80639398098,106.626788020558
33,36.743469238,33.539855957,5.196395874,4.503463745,79.983184814,0.796660006046,100.398142503657
34,34.906555175,31.7109375,5.227157592,4.508605957,76.353256224,0.799090981483,95.55014133967
35,36.650634765,33.122924804,5.076797485,4.419662475,79.270019529,0.77917098999,101.736358960173
36,31.442871093,30.779235839,5.074981689,4.386047363,71.683135984,0.775125980377,92.479336003055
37,35.851074218,30.855041503,5.683349609,4.977493286,77.366958616,0.880596995354,87.857395635247
38,40.514099121,39.875488281,6.190795898,5.462249755,92.042633055,0.966361999512,95.246536082242
39,31.845031738,35.603149414,5.516830444,4.774398803,77.739410399,0.846104979515,91.879154810736
40,34.436828613,36.194030761,5.902282714,5.211959838,81.745101926,0.917870998383,89.059467038448
41,31.983642578,29.961853027,5.710754394,4.981246948,72.637496947,0.883054971695,82.25704998589
42,36.896972656,30.552001953,6.321578979,5.522979736,79.293533324,0.987375020981,80.307412724733
43,40.268249511,37.303771972,6.396377563,5.624084472,89.592483518,1.001307010651,89.475538036815
44,50.557495117,45.238037109,8.64930725,7.818786621,112.263626097,1.395555973053,80.443657054763
45,38.187683105,35.614868164,6.473297119,5.74923706,86.025085448,1.01987695694,84.34849406357
46,45.166931152,38.813842773,6.65586853,5.90548706,96.542129515,1.046856045723,92.221017311246
47,50.035583496,38.502807617,8.512054443,7.6769104,104.727355956,1.372761964798,76.289523341661
48,42.328552246,35.594299316,7.62385559,6.492904663,92.039611815,1.21716105938,75.618268515685
49,33.682250976,34.858764648,6.47932434,5.915878295,80.936218259,1.050569057465,77.040359873465
50,41.768615722,40.042663574,8.059280395,7.264266967,97.134826658,1.292736053467,75.138947658734
51,29.643005371,27.544006347,5.622619628,4.775878906,67.585510252,0.863434970379,78.275159763732
52,45.189025878,39.683898925,8.999099731,7.647781372,101.519805906,1.46498799324,69.297363783475
53,31.777221679,37.296630859,5.758529663,5.041870117,79.874252318,0.892175018787,89.527559767995
54,38.621643066,36.138366699,7.866119384,7.201293945,89.827423094,1.33164703846,67.455880199228
55,37.22680664,34.166442871,7.400054931,6.617034912,85.410339354,1.203330039978,70.978315604553
56,32.766662597,29.991455078,6.071640014,4.843597412,73.673355101,1.119632959366,65.801345418349
