PACKAGE_ENERGY:PACKAGE0,PACKAGE_ENERGY:PACKAGE1,DRAM_ENERGY:PACKAGE0,DRAM_ENERGY:PACKAGE1,TOTAL_ENERGY,TOTAL_TIME,POWER
6.931762695000,5.218811035000,3.471664428000,3.649551391000,19.271789549000,0.274488000000,70.209952890472
4.494262695000,3.037292480000,2.018768310000,2.116409301000,11.666732786000,0.159651000000,73.076477980094
3.539062500000,2.139160156000,1.419525146000,1.482727050000,8.580474852000,0.111585000000,76.896310902003
3.977661132000,1.851989746000,1.199111938000,1.256393432000,8.285156248000,0.094703000000,87.485678890848
4.565002441000,1.980346679000,1.325500488000,1.364868164000,9.235717772000,0.103776000000,88.996663698736
9.327819824000,6.296875000000,3.175506591000,2.808654785000,21.608856200000,0.213317000000,101.299269162795
13.436401367000,11.822570800000,4.559753417000,4.078948974000,33.897674558000,0.306157000000,110.719906969300
17.968566894000,16.012451171000,5.909088134000,5.535324096000,45.425430295000,0.414097000000,109.697559496929
