1000000000 215258643 151942590 218301834 621937281 532160 59544206 7580715 6644 9712372 67842163 2781380 11767820
1000000000 215244154 151954708 218301626 621923712 532304 59550763 7577040 0 9714568 67848560 2781231 11770196
1000000000 215244866 151956169 218301083 621925531 532318 59549663 7577256 0 9714860 67847460 2781611 11770218
1000000000 214988245 151863145 218263243 621573085 529258 59556952 7591546 0 9660805 68301152 2795274 11728685
1000000000 210975005 150422852 217665068 616067515 481575 59651356 7818940 0 8818876 75405820 3013789 11077061
1000000000 210972460 150421584 217667259 616063696 481560 59652008 7818773 0 8818625 75408375 3012884 11076820
1000000000 210972351 150421945 217666944 616065063 481562 59651616 7818824 0 8818653 75407280 3013179 11076879
1000000000 210973306 150421820 217666723 616064358 481564 59651946 7818791 0 8818679 75408030 3013054 11076855
1000000000 340406659 54682043 94371324 615392695 142002 17591038 2305981 0 176281439 89760649 888523 3266349
1000000000 394272916 13926731 43051548 614174947 0 70 106 0 246816008 95957261 53 7
1000000000 394693089 13923074 42778611 614537571 0 60 104 0 246751440 95932156 52 6
1000000000 394272925 13926724 43051548 614174945 0 70 104 0 246816010 95957264 52 7
1000000000 394693082 13923073 42778610 614537565 0 60 106 0 246751442 95932158 53 6
1000000000 394272926 13926724 43051548 614174945 0 70 104 0 246816011 95957263 52 7
1000000000 394693089 13923074 42778611 614537571 0 60 104 0 246751441 95932155 52 6
1000000000 394272925 13926724 43051548 614174945 0 70 104 0 246816009 95957265 52 7
1000000000 394638002 13923073 42833690 614482484 0 60 106 0 246751443 95932158 53 6
1000000000 394328005 13926724 42996468 614230025 0 70 104 0 246816011 95957263 52 7
1000000000 394480571 13923074 42991129 614325053 0 60 104 0 246751441 95932155 52 6
1000000000 394485433 13926731 42839032 614387467 0 70 106 0 246816000 95957265 53 7
1000000000 394365053 13924601 43045259 614233522 0 70 104 0 246778362 95942624 52 7
1000000000 394600965 13925189 42784897 614478984 0 60 104 0 246789100 95946797 52 6
1000000000 394272914 13926739 43051551 614174959 0 70 106 0 246815994 95957260 53 7
1000000000 394693090 13923066 42778610 614537560 0 60 104 0 246751448 95932160 52 6
1000000000 394272926 13926725 43051547 614174941 0 70 104 0 246816018 95957261 52 7
1000000000 394693092 13923065 42778609 614537566 0 60 104 0 246751443 95932160 52 6
1000000000 394272914 13926739 43051551 614174958 0 70 106 0 246815995 95957260 53 7
1000000000 394693089 13923066 42778610 614537560 0 60 104 0 246751448 95932160 52 6
1000000000 394272927 13926725 43051546 614174942 0 70 104 0 246816018 95957261 52 7
1000000000 394661436 13923072 42810257 614505924 0 60 106 0 246751434 95932160 53 6
1000000000 394304569 13926732 43019904 614206599 0 70 104 0 246816004 95957260 52 7
1000000000 394504007 13923066 42967692 614348478 0 60 104 0 246751448 95932160 52 6
1000000000 394462001 13926731 42862466 614364033 0 70 106 0 246816004 95957261 53 7
1000000000 394379374 13924275 43044283 614242637 0 70 104 0 246772501 95940346 52 7
1000000000 394586640 13925523 42785876 614469878 0 60 104 0 246794950 95949074 52 6
1000000000 394283156 13926485 43050848 614181440 0 70 104 0 246811839 95955640 52 7
1000000000 394682852 13923312 42779310 614531070 0 60 106 0 246755614 95933781 53 6
1000000000 394272922 13926725 43051547 614174940 0 70 104 0 246816014 95957266 52 7
1000000000 394693091 13923073 42778612 614537575 0 60 104 0 246751437 95932154 52 6
1000000000 394272917 13926731 43051548 614174948 0 70 106 0 246816007 95957261 53 7
1000000000 394693091 13923066 42778610 614537562 0 60 104 0 246751446 95932160 52 6
1000000000 394272923 13926725 43051547 614174940 0 70 104 0 246816014 95957266 52 7
1000000000 394684875 13923080 42786820 614529371 0 60 106 0 246751434 95932150 53 6
1000000000 394281133 13926724 43043340 614183153 0 70 104 0 246816009 95957265 52 7
1000000000 394527444 13923066 42944257 614371915 0 60 104 0 246751446 95932160 52 6
1000000000 394438570 13926725 42885900 614340587 0 70 104 0 246816015 95957265 52 7
1000000000 394393691 13923948 43043306 614251746 0 70 106 0 246766644 95938068 53 7
1000000000 394572316 13925856 42786854 614460777 0 60 104 0 246800799 95951348 52 6
1000000000 394297479 13926159 43049872 614190557 0 70 104 0 246805975 95953363 52 7
1000000000 394668529 13923638 42780286 614521953 0 60 106 0 246761478 95936058 53 6
1000000000 394272923 13926732 43051549 614174950 0 70 104 0 246816008 95957260 52 7
1000000000 394693091 13923066 42778610 614537565 0 60 104 0 246751443 95932160 52 6
1000000000 394272916 13926732 43051549 614174945 0 70 106 0 246816009 95957261 53 7
1000000000 394693092 13923065 42778609 614537566 0 60 104 0 246751443 95932160 52 6
1000000000 394272923 13926732 43051549 614174950 0 70 104 0 246816008 95957260 52 7
1000000000 394693090 13923066 42778610 614537564 0 60 104 0 246751444 95932160 52 6
1000000000 394272917 13926732 43051548 614174946 0 70 106 0 246816009 95957261 53 7
1000000000 394550880 13923065 42920821 614395354 0 60 104 0 246751443 95932160 52 6
1000000000 394415135 13926732 42909338 614317162 0 70 104 0 246816007 95957260 52 7
1000000000 394408011 13923616 43042329 614260852 0 70 106 0 246760785 95935798 53 7
1000000000 394557996 13926181 42787829 614451657 0 60 104 0 246806669 95953623 52 6
1000000000 394311798 13925834 43048897 614199674 0 70 104 0 246800108 95951088 52 7
1000000000 394654209 13923964 42781262 614512836 0 60 106 0 246767344 95938333 53 6
1000000000 394272921 13926732 43051549 614174954 0 70 104 0 246816000 95957264 52 7
1000000000 394693094 13923065 42778609 614537562 0 60 104 0 246751451 95932156 52 6
1000000000 394272922 13926725 43051549 614174945 0 70 104 0 246816005 95957268 52 7
1000000000 394693085 13923073 42778609 614537565 0 60 106 0 246751448 95932153 53 6
1000000000 394272921 13926732 43051550 614174954 0 70 104 0 246816000 95957263 52 7
1000000000 394693094 13923065 42778609 614537562 0 60 104 0 246751450 95932157 52 6
1000000000 394272913 13926732 43051549 614174947 0 70 106 0 246816002 95957266 53 7
1000000000 394574319 13923065 42897384 614418787 0 60 104 0 246751452 95932155 52 6
1000000000 394391695 13926733 42932775 614293729 0 70 104 0 246816000 95957263 52 7
1000000000 394422337 13923282 43041350 614269955 0 70 106 0 246754938 95933521 53 7
1000000000 394543671 13926515 42788808 614442555 0 60 104 0 246812514 95955901 52 6
1000000000 394326125 13925500 43047918 614208777 0 70 104 0 246794262 95948810 52 7
1000000000 394639889 13924298 42782241 614503738 0 60 104 0 246773190 95940609 52 6
1000000000 394272915 13926731 43051550 614174949 0 70 106 0 246816000 95957265 53 7
1000000000 394693093 13923066 42778608 614537562 0 60 104 0 246751452 95932156 52 6
1000000000 394272925 13926724 43051548 614174945 0 70 104 0 246816009 95957265 52 7
1000000000 394693082 13923080 42778612 614537577 0 60 106 0 246751434 95932152 53 6
1000000000 394272921 13926725 43051549 614174941 0 70 104 0 246816009 95957268 52 7
1000000000 394693093 13923066 42778608 614537562 0 60 104 0 246751452 95932156 52 6
1000000000 394272915 13926731 43051550 614174949 0 70 106 0 246816000 95957265 53 7
1000000000 394597753 13923073 42873949 614442234 0 60 104 0 246751443 95932152 52 6
1000000000 394368261 13926725 42956210 614270280 0 70 104 0 246816009 95957268 52 7
1000000000 394440316 13923066 43031385 614284785 0 60 104 0 246751452 95932156 52 6
1000000000 394525692 13926731 42798773 614427726 0 70 106 0 246816000 95957265 53 7
1000000000 394340445 13925175 43046941 614217888 0 70 104 0 246788406 95946532 52 7
1000000000 394625568 13924623 42783218 614494626 0 60 104 0 246779046 95942888 52 6
1000000000 394272919 13926731 43051548 614174951 0 70 106 0 246816004 95957261 53 7
1000000000 394693089 13923066 42778610 614537560 0 60 104 0 246751448 95932160 52 6
1000000000 394272924 13926732 43051549 614174955 0 70 104 0 246816003 95957260 52 7
1000000000 394693086 13923072 42778609 614537565 0 60 106 0 246751448 95932153 53 6
1000000000 394272922 13926725 43051549 614174945 0 70 104 0 246816005 95957268 52 7
1000000000 394693090 13923066 42778610 614537560 0 60 104 0 246751448 95932160 52 6
1000000000 394272924 13926732 43051549 614174956 0 70 104 0 246816002 95957260 52 7
1000000000 394621183 13923072 42850512 614465662 0 60 106 0 246751448 95932153 53 6
1000000000 394344825 13926725 42979646 614246848 0 70 104 0 246816005 95957268 52 7
1000000000 394463748 13923066 43007951 614308218 0 60 104 0 246751449 95932160 52 6
1000000000 394502257 13926739 42822208 614404300 0 70 106 0 246816000 95957256 53 7
1000000000 394354771 13924834 43045962 614226984 0 70 104 0 246782558 95944263 52 7
1000000000 394611245 13924956 42784196 614485523 0 60 104 0 246784897 95945162 52 6
1000000000 394272917 13926731 43051548 614174948 0 70 106 0 246816007 95957261 53 7
1000000000 394693089 13923074 42778611 614537570 0 60 104 0 246751442 95932155 52 6
1000000000 394272925 13926724 43051548 614174945 0 70 104 0 246816009 95957265 52 7
1000000000 394693091 13923066 42778610 614537563 0 60 104 0 246751445 95932160 52 6
1000000000 394272917 13926731 43051548 614174948 0 70 106 0 246816007 95957261 53 7
1000000000 394693089 13923074 42778611 614537569 0 60 104 0 246751443 95932155 52 6
1000000000 394272924 13926724 43051548 614174945 0 70 104 0 246816009 95957265 52 7
1000000000 394644616 13923073 42827077 614489099 0 60 106 0 246751443 95932156 53 6
1000000000 394321392 13926724 43003081 614223412 0 70 104 0 246816009 95957265 52 7
1000000000 394487184 13923074 42984516 614331664 0 60 104 0 246751443 95932155 52 6
1000000000 394478820 13926731 42845645 614380854 0 70 106 0 246816000 95957265 53 7
1000000000 394369093 13924509 43044983 614236096 0 70 104 0 246776706 95941982 52 7
1000000000 394596925 13925281 42785173 614476411 0 60 104 0 246790755 95947439 52 6
1000000000 394272914 13926739 43051551 614174959 0 70 106 0 246815994 95957260 53 7
1000000000 394693089 13923066 42778610 614537559 0 60 104 0 246751449 95932160 52 6
1000000000 394272928 13926724 43051546 614174943 0 70 104 0 246816017 95957261 52 7
1000000000 394693090 13923066 42778610 614537564 0 60 104 0 246751444 95932160 52 6
1000000000 394272914 13926739 43051551 614174959 0 70 106 0 246815994 95957260 53 7
1000000000 394693090 13923066 42778609 614537560 0 60 104 0 246751449 95932160 52 6
1000000000 394272928 13926724 43051547 614174943 0 70 104 0 246816016 95957261 52 7
1000000000 394668048 13923073 42803643 614512536 0 60 106 0 246751436 95932160 53 6
1000000000 394297956 13926732 43026518 614199987 0 70 104 0 246816002 95957260 52 7
1000000000 394510620 13923066 42961078 614355090 0 60 104 0 246751450 95932160 52 6
1000000000 394455388 13926731 42869080 614357420 0 70 106 0 246816003 95957261 53 7
1000000000 394383414 13924176 43044007 614245197 0 70 104 0 246770853 95939710 52 7
1000000000 394582599 13925622 42786152 614467318 0 60 104 0 246796598 95949710 52 6
1000000000 394287198 13926393 43050572 614184012 0 70 104 0 246810184 95954999 52 7
1000000000 394678810 13923404 42779586 614528498 0 60 106 0 246757269 95934422 53 6
1000000000 394272924 13926725 43051547 614174941 0 70 104 0 246816015 95957264 52 7
1000000000 394693089 13923073 42778612 614537574 0 60 104 0 246751436 95932156 52 6
1000000000 394272918 13926731 43051548 614174948 0 70 106 0 246816007 95957261 53 7
1000000000 394693091 13923066 42778610 614537563 0 60 104 0 246751445 95932160 52 6
1000000000 394272923 13926725 43051547 614174940 0 70 104 0 246816016 95957264 52 7
1000000000 394691488 13923080 42780207 614535982 0 60 106 0 246751434 95932152 53 6
1000000000 394274519 13926724 43049953 614176540 0 70 104 0 246816009 95957265 52 7
1000000000 394534057 13923066 42937644 614378529 0 60 104 0 246751445 95932160 52 6
1000000000 394431958 13926725 42892513 614333974 0 70 104 0 246816016 95957264 52 7
1000000000 394397730 13923857 43043031 614254318 0 70 106 0 246764988 95937427 53 7
1000000000 394568277 13925947 42787129 614458205 0 60 104 0 246802454 95951990 52 6
1000000000 394301520 13926067 43049596 614193128 0 70 104 0 246804324 95952719 52 7
1000000000 394664488 13923730 42780562 614519382 0 60 106 0 246763129 95936702 53 6
1000000000 394272923 13926732 43051549 614174951 0 70 104 0 246816007 95957260 52 7
1000000000 394693091 13923066 42778610 614537565 0 60 104 0 246751443 95932160 52 6
1000000000 394272917 13926731 43051548 614174945 0 70 106 0 246816010 95957261 53 7
1000000000 394693090 13923066 42778610 614537564 0 60 104 0 246751444 95932160 52 6
1000000000 394272923 13926732 43051549 614174952 0 70 104 0 246816006 95957260 52 7
1000000000 394693091 13923066 42778610 614537564 0 60 104 0 246751444 95932160 52 6
1000000000 394272918 13926731 43051548 614174946 0 70 106 0 246816009 95957261 53 7
1000000000 394557492 13923066 42914208 614401966 0 60 104 0 246751444 95932160 52 6
1000000000 394408520 13926732 42915951 614310550 0 70 104 0 246816006 95957260 52 7
1000000000 394412054 13923524 43042053 614263423 0 70 106 0 246759134 95935154 53 7
1000000000 394553955 13926273 42788105 614449086 0 60 104 0 246808320 95954267 52 6
1000000000 394315841 13925735 43048619 614202231 0 70 104 0 246798470 95950447 52 7
1000000000 394650163 13924070 42781542 614510292 0 60 106 0 246768968 95938973 53 6
1000000000 394272924 13926725 43051547 614174940 0 70 104 0 246816016 95957264 52 7
1000000000 394693093 13923065 42778609 614537563 0 60 104 0 246751449 95932157 52 6
1000000000 394272923 13926725 43051549 614174945 0 70 104 0 246816005 95957268 52 7
1000000000 394693081 13923080 42778612 614537577 0 60 106 0 246751434 95932152 53 6
1000000000 394272925 13926725 43051547 614174940 0 70 104 0 246816016 95957264 52 7
1000000000 394693092 13923065 42778609 614537564 0 60 104 0 246751448 95932157 52 6
1000000000 394272915 13926732 43051549 614174947 0 70 106 0 246816004 95957264 53 7
1000000000 394580928 13923073 42890774 614425412 0 60 104 0 246751436 95932156 52 6
1000000000 394385086 13926725 42939385 614287102 0 70 104 0 246816016 95957264 52 7
1000000000 394426380 13923190 43041074 614272527 0 70 106 0 246753286 95932877 53 7
1000000000 394539628 13926607 42789084 614439984 0 60 104 0 246814166 95956544 52 6
1000000000 394330166 13925408 43047642 614211349 0 70 104 0 246792609 95948167 52 7
1000000000 394635848 13924390 42782517 614501166 0 60 104 0 246774843 95941252 52 6
1000000000 394272914 13926731 43051550 614174948 0 70 106 0 246816000 95957266 53 7
1000000000 394693094 13923066 42778608 614537562 0 60 104 0 246751452 95932156 52 6
1000000000 394272920 13926732 43051550 614174953 0 70 104 0 246816000 95957264 52 7
1000000000 394693087 13923072 42778610 614537571 0 60 106 0 246751441 95932153 53 6
1000000000 394272921 13926725 43051548 614174940 0 70 104 0 246816011 95957268 52 7
1000000000 394693093 13923066 42778609 614537561 0 60 104 0 246751452 95932156 52 6
1000000000 394272916 13926738 43051550 614174960 0 70 106 0 246815997 95957257 53 7
1000000000 394604365 13923066 42867336 614448838 0 60 104 0 246751444 95932160 52 6
1000000000 394361647 13926725 42962822 614263666 0 70 104 0 246816011 95957268 52 7
1000000000 394446930 13923066 43024773 614291398 0 60 104 0 246751452 95932155 52 6
1000000000 394519079 13926738 42805386 614421124 0 70 106 0 246815996 95957258 53 7
1000000000 394344488 13925076 43046665 614220450 0 70 104 0 246786756 95945896 52 7
1000000000 394621525 13924715 42783493 614492053 0 60 104 0 246780700 95943532 52 6
1000000000 394272918 13926731 43051549 614174951 0 70 106 0 246816003 95957261 53 7
1000000000 394693090 13923073 42778610 614537571 0 60 104 0 246751445 95932152 52 6
1000000000 394272923 13926725 43051549 614174944 0 70 104 0 246816006 95957268 52 7
1000000000 394693086 13923072 42778609 614537566 0 60 106 0 246751447 95932153 53 6
1000000000 394272923 13926725 43051549 614174945 0 70 104 0 246816005 95957268 52 7
1000000000 394693090 13923073 42778610 614537570 0 60 104 0 246751446 95932152 52 6
1000000000 394272923 13926725 43051549 614174944 0 70 104 0 246816006 95957268 52 7
1000000000 394627795 13923072 42843899 614472277 0 60 106 0 246751446 95932153 53 6
1000000000 394338213 13926725 42986259 614240234 0 70 104 0 246816006 95957268 52 7
1000000000 394470363 13923073 43001338 614314843 0 60 104 0 246751445 95932152 52 6
1000000000 394495643 13926732 42828821 614397674 0 70 106 0 246816005 95957264 53 7
1000000000 394358813 13924742 43045686 614229557 0 70 104 0 246780905 95943619 52 7
1000000000 394607202 13925048 42784472 614482951 0 60 104 0 246786549 95945806 52 6
1000000000 394272913 13926739 43051550 614174956 0 70 106 0 246815998 95957260 53 7
1000000000 394693094 13923066 42778609 614537562 0 60 104 0 246751452 95932155 52 6
1000000000 394272925 13926724 43051548 614174946 0 70 104 0 246816007 95957266 52 7
1000000000 394693090 13923066 42778610 614537561 0 60 104 0 246751447 95932160 52 6
1000000000 394272913 13926739 43051550 614174956 0 70 106 0 246815998 95957260 53 7
1000000000 394693093 13923066 42778609 614537562 0 60 104 0 246751452 95932155 52 6
1000000000 394272925 13926724 43051548 614174946 0 70 104 0 246816007 95957266 52 7
1000000000 394651229 13923073 42820464 614495710 0 60 106 0 246751445 95932156 53 6
1000000000 394314779 13926724 43009694 614216800 0 70 104 0 246816008 95957265 52 7
1000000000 394493796 13923074 42977903 614338277 0 60 104 0 246751444 95932154 52 6
1000000000 394472207 13926731 42852257 614374241 0 70 106 0 246816000 95957266 53 7
1000000000 394373134 13924417 43044710 614238667 0 70 104 0 246775050 95941340 52 7
1000000000 394592885 13925373 42785447 614473841 0 60 104 0 246792409 95948081 52 6
1000000000 394276913 13926642 43051277 614177491 0 70 104 0 246814373 95956626 52 7
1000000000 394689090 13923163 42778883 614535026 0 60 106 0 246753072 95932794 53 6
1000000000 394272927 13926724 43051547 614174944 0 70 104 0 246816015 95957261 52 7
1000000000 394693091 13923066 42778610 614537564 0 60 104 0 246751444 95932160 52 6
1000000000 394272913 13926739 43051551 614174958 0 70 106 0 246815995 95957260 53 7
1000000000 394693090 13923066 42778609 614537559 0 60 104 0 246751450 95932160 52 6
1000000000 394272927 13926724 43051547 614174945 0 70 104 0 246816014 95957261 52 7
1000000000 394674663 13923073 42797029 614519148 0 60 106 0 246751438 95932160 53 6
1000000000 394291342 13926732 43033132 614193373 0 70 104 0 246816002 95957260 52 7
1000000000 394517234 13923066 42954464 614361704 0 60 104 0 246751450 95932160 52 6
1000000000 394448782 13926724 42875692 614350800 0 70 104 0 246816014 95957261 52 7
1000000000 394387449 13924091 43043733 614247777 0 70 106 0 246769188 95939066 53 7
1000000000 394578557 13925714 42786428 614464744 0 60 104 0 246798252 95950354 52 6
1000000000 394291238 13926301 43050297 614186585 0 70 104 0 246808528 95954357 52 7
1000000000 394674769 13923496 42779861 614525926 0 60 106 0 246758924 95935064 53 6
1000000000 394272925 13926725 43051547 614174940 0 70 104 0 246816016 95957264 52 7
1000000000 394693090 13923073 42778612 614537574 0 60 104 0 246751436 95932156 52 6
1000000000 394272917 13926731 43051548 614174950 0 70 106 0 246816005 95957261 53 7
1000000000 394693090 13923066 42778610 614537561 0 60 104 0 246751447 95932160 52 6
1000000000 394272924 13926725 43051547 614174940 0 70 104 0 246816016 95957264 52 7
1000000000 394693090 13923073 42778612 614537574 0 60 104 0 246751436 95932156 52 6
1000000000 394272917 13926731 43051548 614174950 0 70 106 0 246816005 95957261 53 7
1000000000 394540670 13923066 42931031 614385140 0 60 104 0 246751447 95932160 52 6
1000000000 394425345 13926725 42899126 614327362 0 70 104 0 246816016 95957263 52 7
1000000000 394401771 13923765 43042755 614256890 0 70 106 0 246763332 95936787 53 7
1000000000 394564236 13926039 42787405 614455633 0 60 104 0 246804109 95952631 52 6
1000000000 394305561 13925976 43049321 614195697 0 70 104 0 246802673 95952076 52 7
1000000000 394660447 13923821 42780837 614516814 0 60 106 0 246764779 95937345 53 6
1000000000 394272921 13926732 43051549 614174951 0 70 104 0 246816007 95957260 52 7
1000000000 394693092 13923066 42778610 614537563 0 60 104 0 246751445 95932160 52 6
1000000000 394272921 13926725 43051548 614174940 0 70 104 0 246816011 95957268 52 7
1000000000 394693087 13923072 42778610 614537571 0 60 106 0 246751441 95932153 53 6
1000000000 394272922 13926732 43051549 614174951 0 70 104 0 246816007 95957260 52 7
1000000000 394693092 13923066 42778610 614537564 0 60 104 0 246751444 95932160 52 6
1000000000 394272916 13926731 43051548 614174947 0 70 106 0 246816008 95957261 53 7
1000000000 394564107 13923066 42907595 614408578 0 60 104 0 246751445 95932160 52 6
1000000000 394401907 13926732 42922564 614303937 0 70 104 0 246816006 95957260 52 7
1000000000 394416095 13923432 43041777 614265994 0 70 106 0 246757483 95934510 53 7
1000000000 394549912 13926365 42788381 614446516 0 60 104 0 246809970 95954911 52 6
1000000000 394319885 13925643 43048343 614204804 0 70 104 0 246796816 95949804 52 7
1000000000 394646121 13924162 42781818 614507717 0 60 106 0 246770624 95939616 53 6
1000000000 394272924 13926725 43051547 614174941 0 70 104 0 246816016 95957263 52 7
1000000000 394693092 13923065 42778609 614537563 0 60 104 0 246751448 95932158 52 6
1000000000 394272923 13926725 43051549 614174944 0 70 104 0 246816006 95957268 52 7
1000000000 394693083 13923080 42778612 614537577 0 60 106 0 246751434 95932152 53 6
1000000000 394272923 13926725 43051547 614174941 0 70 104 0 246816016 95957263 52 7
1000000000 394693093 13923065 42778609 614537564 0 60 104 0 246751447 95932158 52 6
1000000000 394272915 13926732 43051549 614174946 0 70 106 0 246816005 95957264 53 7
1000000000 394587541 13923073 42884161 614432025 0 60 104 0 246751436 95932156 52 6
1000000000 394378472 13926725 42945998 614280490 0 70 104 0 246816016 95957263 52 7
1000000000 394430419 13923099 43040799 614275097 0 70 106 0 246751632 95932236 53 7
1000000000 394535590 13926698 42789359 614437414 0 60 104 0 246815820 95957185 52 6
1000000000 394334207 13925316 43047366 614213919 0 70 104 0 246790958 95947524 52 7
1000000000 394631806 13924482 42782793 614498595 0 60 104 0 246776494 95941896 52 6
1000000000 394272915 13926731 43051549 614174949 0 70 106 0 246816000 95957266 53 7
1000000000 394693093 13923066 42778609 614537562 0 60 104 0 246751452 95932155 52 6
1000000000 394272921 13926732 43051549 614174953 0 70 104 0 246816000 95957265 52 7
1000000000 394693086 13923072 42778611 614537570 0 60 106 0 246751441 95932153 53 6
1000000000 394272921 13926725 43051548 614174940 0 70 104 0 246816011 95957268 52 7
1000000000 394693093 13923066 42778609 614537562 0 60 104 0 246751452 95932155 52 6
1000000000 394272916 13926738 43051550 614174960 0 70 106 0 246815996 95957258 53 7
1000000000 394610979 13923066 42860723 614455451 0 60 104 0 246751444 95932160 52 6
1000000000 394355034 13926725 42969434 614257053 0 70 104 0 246816012 95957268 52 7
1000000000 394453542 13923066 43018161 614298010 0 60 104 0 246751452 95932155 52 6
1000000000 394512467 13926738 42811999 614414512 0 70 106 0 246815995 95957258 53 7
1000000000 394348530 13924984 43046389 614223023 0 70 104 0 246785103 95945252 52 7
1000000000 394617483 13924807 42783768 614489480 0 60 104 0 246782354 95944176 52 6
1000000000 394272917 13926731 43051550 614174951 0 70 106 0 246816002 95957261 53 7
1000000000 394693092 13923073 42778610 614537571 0 60 104 0 246751445 95932152 52 6
1000000000 394272923 13926725 43051549 614174943 0 70 104 0 246816007 95957268 52 7
1000000000 394693084 13923072 42778609 614537567 0 60 106 0 246751446 95932153 53 6
1000000000 394272923 13926725 43051549 614174944 0 70 104 0 246816006 95957268 52 7
1000000000 394693091 13923073 42778610 614537572 0 60 104 0 246751444 95932152 52 6
1000000000 394272923 13926725 43051549 614174942 0 70 104 0 246816008 95957268 52 7
1000000000 394634408 13923072 42837286 614478891 0 60 106 0 246751445 95932153 53 6
1000000000 394331600 13926725 42992872 614233620 0 70 104 0 246816007 95957268 52 7
1000000000 394476976 13923073 42994725 614321458 0 60 104 0 246751443 95932152 52 6
1000000000 394489029 13926732 42835434 614391060 0 70 106 0 246816007 95957263 53 7
1000000000 394362855 13924650 43045410 614232128 0 70 104 0 246779253 95942976 52 7
1000000000 394603162 13925140 42784748 614480379 0 60 104 0 246788201 95946450 52 6
1000000000 394272912 13926739 43051549 614174957 0 70 106 0 246815998 95957260 53 7
1000000000 394693093 13923066 42778610 614537561 0 60 104 0 246751452 95932155 52 6
1000000000 394272925 13926724 43051548 614174946 0 70 104 0 246816007 95957266 52 7
1000000000 394693091 13923066 42778610 614537561 0 60 104 0 246751447 95932160 52 6
1000000000 394272913 13926739 43051549 614174957 0 70 106 0 246815998 95957260 53 7
1000000000 394693093 13923066 42778610 614537561 0 60 104 0 246751452 95932155 52 6
1000000000 394272925 13926724 43051548 614174947 0 70 104 0 246816006 95957266 52 7
1000000000 394657841 13923073 42813851 614502323 0 60 106 0 246751446 95932155 53 6
1000000000 394308163 13926732 43016308 614210195 0 70 104 0 246816000 95957264 52 7
1000000000 394500414 13923066 42971289 614344882 0 60 104 0 246751452 95932155 52 6
1000000000 394465593 13926731 42858869 614367628 0 70 106 0 246816000 95957267 53 7
1000000000 394377177 13924325 43044435 614241240 0 70 104 0 246773396 95940696 52 7
1000000000 394588837 13925473 42785724 614471275 0 60 104 0 246794056 95948723 52 6
1000000000 394280962 13926534 43050999 614180048 0 70 104 0 246812731 95955989 52 7
1000000000 394685046 13923263 42779159 614532462 0 60 106 0 246754721 95933433 53 6
1000000000 394272926 13926724 43051548 614174944 0 70 104 0 246816014 95957261 52 7
1000000000 394693088 13923074 42778611 614537572 0 60 104 0 246751438 95932157 52 6
1000000000 394272918 13926731 43051550 614174949 0 70 106 0 246816002 95957263 53 7
1000000000 394693090 13923066 42778608 614537561 0 60 104 0 246751450 95932159 52 6
1000000000 394272926 13926724 43051548 614174944 0 70 104 0 246816013 95957262 52 7
1000000000 394681277 13923080 42790417 614525773 0 60 106 0 246751433 95932152 53 6
1000000000 394284728 13926725 43039744 614186747 0 70 104 0 246816008 95957268 52 7
1000000000 394523847 13923066 42947851 614368318 0 60 104 0 246751450 95932159 52 6
1000000000 394442170 13926724 42882305 614344187 0 70 104 0 246816013 95957262 52 7
1000000000 394391490 13923999 43043457 614250350 0 70 106 0 246767535 95938422 53 7
1000000000 394574514 13925806 42786704 614462171 0 60 104 0 246799905 95950998 52 6
1000000000 394295280 13926209 43050022 614189159 0 70 104 0 246806873 95953713 52 7
1000000000 394670729 13923588 42780136 614523351 0 60 106 0 246760580 95935708 53 6
1000000000 394272923 13926732 43051549 614174955 0 70 104 0 246816003 95957260 52 7
1000000000 394693089 13923066 42778610 614537561 0 60 104 0 246751447 95932160 52 6
1000000000 394272918 13926731 43051548 614174948 0 70 106 0 246816007 95957261 53 7
1000000000 394693091 13923066 42778610 614537561 0 60 104 0 246751447 95932160 52 6
1000000000 394272923 13926732 43051549 614174955 0 70 104 0 246816003 95957260 52 7
1000000000 394693089 13923066 42778610 614537561 0 60 104 0 246751447 95932160 52 6
1000000000 394272919 13926731 43051548 614174949 0 70 106 0 246816006 95957261 53 7
1000000000 394547282 13923066 42924418 614391753 0 60 104 0 246751447 95932160 52 6
1000000000 394418732 13926732 42905741 614320763 0 70 104 0 246816003 95957260 52 7
1000000000 394405812 13923666 43042478 614259448 0 70 106 0 246761690 95936148 53 7
1000000000 394560196 13926131 42787680 614453062 0 60 104 0 246805763 95953273 52 6
1000000000 394309602 13925884 43049045 614198269 0 70 104 0 246801019 95951434 52 7
1000000000 394656401 13923921 42781114 614514248 0 60 106 0 246766428 95937985 53 6
1000000000 394272927 13926724 43051548 614174944 0 70 104 0 246816013 95957262 52 7
1000000000 394693091 13923066 42778610 614537564 0 60 104 0 246751444 95932160 52 6
1000000000 394272922 13926725 43051547 614174940 0 70 104 0 246816013 95957267 52 7
1000000000 394693082 13923080 42778612 614537578 0 60 106 0 246751434 95932151 53 6
1000000000 394272926 13926724 43051548 614174944 0 70 104 0 246816012 95957263 52 7
1000000000 394693092 13923066 42778610 614537564 0 60 104 0 246751444 95932160 52 6
1000000000 394272916 13926731 43051548 614174946 0 70 106 0 246816009 95957261 53 7
1000000000 394570717 13923074 42900982 614415200 0 60 104 0 246751439 95932157 52 6
1000000000 394395297 13926724 42929177 614297316 0 70 104 0 246816011 95957263 52 7
1000000000 394420137 13923333 43041501 614268554 0 70 106 0 246755835 95933874 53 7
1000000000 394545871 13926464 42788657 614443955 0 60 104 0 246811619 95955547 52 6
1000000000 394323923 13925551 43048067 614207375 0 70 104 0 246795161 95949164 52 7
1000000000 394642090 13924247 42782092 614505141 0 60 104 0 246772289 95940256 52 6
1000000000 394272915 13926732 43051549 614174945 0 70 106 0 246816007 95957263 53 7
1000000000 394693093 13923065 42778609 614537565 0 60 104 0 246751446 95932158 52 6
1000000000 394272923 13926725 43051549 614174942 0 70 104 0 246816008 95957268 52 7
1000000000 394693081 13923080 42778612 614537579 0 60 106 0 246751432 95932152 53 6
1000000000 394272925 13926725 43051547 614174939 0 70 104 0 246816018 95957263 52 7
1000000000 394693093 13923065 42778609 614537566 0 60 104 0 246751445 95932158 52 6
1000000000 394272914 13926732 43051549 614174945 0 70 106 0 246816007 95957263 53 7
1000000000 394594153 13923073 42877548 614438639 0 60 104 0 246751434 95932157 52 6
1000000000 394371862 13926725 42952611 614273876 0 70 104 0 246816018 95957262 52 7
1000000000 394436718 13923065 43034983 614281191 0 60 104 0 246751445 95932159 52 6
1000000000 394529289 13926732 42795175 614431319 0 70 106 0 246816007 95957263 53 7
1000000000 394338250 13925225 43047090 614216491 0 70 104 0 246789306 95946880 52 7
1000000000 394627765 13924573 42783069 614496024 0 60 104 0 246778146 95942539 52 6
1000000000 394272914 13926731 43051548 614174949 0 70 106 0 246816000 95957267 53 7
1000000000 394693093 13923066 42778610 614537561 0 60 104 0 246751452 95932155 52 6
1000000000 394272921 13926732 43051549 614174955 0 70 104 0 246816000 95957263 52 7
1000000000 394693086 13923072 42778611 614537570 0 60 106 0 246751439 95932155 53 6
1000000000 394272922 13926725 43051547 614174940 0 70 104 0 246816013 95957267 52 7
1000000000 394693093 13923066 42778610 614537561 0 60 104 0 246751452 95932155 52 6
1000000000 394272921 13926732 43051549 614174954 0 70 104 0 246816000 95957264 52 7
1000000000 394617586 13923072 42854111 614462071 0 60 106 0 246751438 95932155 53 6
1000000000 394348421 13926725 42976047 614250439 0 70 104 0 246816014 95957267 52 7
1000000000 394460156 13923066 43011548 614304623 0 60 104 0 246751452 95932155 52 6
1000000000 394505853 13926738 42818612 614407900 0 70 106 0 246815993 95957259 53 7
1000000000 394352572 13924885 43046111 614225581 0 70 104 0 246783463 95944612 52 7
1000000000 394613441 13924906 42784046 614486922 0 60 104 0 246783996 95944814 52 6
1000000000 394272918 13926731 43051550 614174949 0 70 106 0 246816002 95957263 53 7
1000000000 394693090 13923073 42778610 614537573 0 60 104 0 246751443 95932152 52 6
1000000000 394272922 13926725 43051549 614174943 0 70 104 0 246816007 95957268 52 7
1000000000 394693092 13923066 42778608 614537560 0 60 104 0 246751452 95932158 52 6
1000000000 394272917 13926731 43051550 614174949 0 70 106 0 246816002 95957263 53 7
1000000000 394693091 13923073 42778610 614537574 0 60 104 0 246751442 95932152 52 6
1000000000 394272921 13926725 43051549 614174942 0 70 104 0 246816008 95957268 52 7
1000000000 394641023 13923072 42830673 614485504 0 60 106 0 246751445 95932153 53 6
1000000000 394324986 13926725 42999485 614227006 0 70 104 0 246816008 95957268 52 7
1000000000 394483590 13923073 42988112 614328072 0 60 104 0 246751442 95932152 52 6
1000000000 394482417 13926732 42842047 614384446 0 70 106 0 246816009 95957262 53 7
1000000000 394366896 13924558 43045134 614234699 0 70 104 0 246777601 95942333 52 7
1000000000 394599118 13925232 42785024 614477809 0 60 104 0 246789851 95947094 52 6
1000000000 394272914 13926739 43051549 614174956 0 70 106 0 246816000 95957259 53 7
1000000000 394693094 13923066 42778610 614537561 0 60 104 0 246751452 95932155 52 6
1000000000 394272924 13926724 43051548 614174947 0 70 104 0 246816005 95957267 52 7
1000000000 394693089 13923066 42778610 614537561 0 60 104 0 246751447 95932160 52 6
1000000000 394272915 13926739 43051549 614174957 0 70 106 0 246816000 95957258 53 7
1000000000 394693094 13923066 42778610 614537561 0 60 104 0 246751452 95932155 52 6
1000000000 394272924 13926724 43051548 614174947 0 70 104 0 246816004 95957268 52 7
1000000000 394664455 13923073 42807238 614508935 0 60 106 0 246751448 95932154 53 6
1000000000 394301549 13926732 43022921 614203582 0 70 104 0 246816000 95957264 52 7
1000000000 394507028 13923066 42964675 614351496 0 60 104 0 246751452 95932155 52 6
1000000000 394458979 13926731 42865483 614361014 0 70 106 0 246816000 95957267 53 7
1000000000 394381219 13924233 43044159 614243814 0 70 104 0 246771741 95940053 52 7
1000000000 394584796 13925565 42786000 614468701 0 60 104 0 246795711 95949366 52 6
1000000000 394285002 13926442 43050723 614182619 0 70 104 0 246811079 95955346 52 7
1000000000 394681005 13923355 42779435 614529892 0 60 106 0 246756373 95934075 53 6
1000000000 394272926 13926724 43051548 614174944 0 70 104 0 246816012 95957263 52 7
1000000000 394693089 13923074 42778611 614537571 0 60 104 0 246751440 95932156 52 6
1000000000 394272915 13926731 43051550 614174950 0 70 106 0 246816000 95957264 53 7
1000000000 394693092 13923066 42778608 614537560 0 60 104 0 246751452 95932158 52 6
1000000000 394272926 13926724 43051548 614174945 0 70 104 0 246816011 95957263 52 7
1000000000 394687890 13923080 42783804 614532386 0 60 106 0 246751433 95932152 53 6
1000000000 394278113 13926725 43046357 614180134 0 70 104 0 246816008 95957268 52 7
1000000000 394530463 13923066 42941238 614374930 0 60 104 0 246751452 95932158 52 6
1000000000 394435555 13926724 42888918 614337575 0 70 104 0 246816011 95957263 52 7
1000000000 394395533 13923907 43043181 614252921 0 70 106 0 246765884 95937778 53 7
1000000000 394570471 13925898 42786980 614459599 0 60 104 0 246801557 95951642 52 6
1000000000 394299324 13926117 43049746 614191732 0 70 104 0 246805220 95953069 52 7
1000000000 394666684 13923680 42780412 614520779 0 60 106 0 246762232 95936352 53 6
1000000000 394272924 13926732 43051549 614174954 0 70 104 0 246816004 95957260 52 7
1000000000 394693090 13923066 42778610 614537560 0 60 104 0 246751448 95932160 52 6
1000000000 394272918 13926731 43051548 614174950 0 70 106 0 246816005 95957261 53 7
1000000000 394693089 13923066 42778610 614537561 0 60 104 0 246751447 95932160 52 6
1000000000 394272925 13926732 43051549 614174954 0 70 104 0 246816004 95957260 52 7
1000000000 394693089 13923066 42778610 614537560 0 60 104 0 246751448 95932160 52 6
1000000000 394272919 13926731 43051548 614174951 0 70 106 0 246816004 95957261 53 7
1000000000 394553894 13923066 42917805 614398365 0 60 104 0 246751448 95932160 52 6
1000000000 394412119 13926732 42912354 614314149 0 70 104 0 246816004 95957260 52 7
1000000000 394409854 13923574 43042203 614262023 0 70 106 0 246760034 95935504 53 7
1000000000 394556154 13926223 42787955 614450488 0 60 104 0 246807418 95953917 52 6
1000000000 394313642 13925792 43048769 614200841 0 70 104 0 246799364 95950793 52 7
1000000000 394652363 13924013 42781390 614511676 0 60 106 0 246768084 95938625 53 6
1000000000 394272925 13926724 43051548 614174945 0 70 104 0 246816011 95957263 52 7
1000000000 394693092 13923066 42778610 614537563 0 60 104 0 246751445 95932160 52 6
1000000000 394272922 13926725 43051547 614174940 0 70 104 0 246816014 95957266 52 7
1000000000 394693083 13923080 42778612 614537578 0 60 106 0 246751434 95932151 53 6
1000000000 394272925 13926724 43051548 614174945 0 70 104 0 246816010 95957264 52 7
1000000000 394693091 13923066 42778610 614537562 0 60 104 0 246751446 95932160 52 6
1000000000 394272917 13926731 43051548 614174948 0 70 106 0 246816007 95957261 53 7
1000000000 394577331 13923074 42894369 614421813 0 60 104 0 246751441 95932155 52 6
1000000000 394388683 13926724 42935790 614290703 0 70 104 0 246816009 95957265 52 7
1000000000 394424178 13923241 43041225 614271126 0 70 106 0 246754183 95933230 53 7
1000000000 394541829 13926556 42788933 614441383 0 60 104 0 246813271 95956191 52 6
1000000000 394327965 13925459 43047793 614209947 0 70 104 0 246793507 95948520 52 7
1000000000 394638049 13924339 42782366 614502569 0 60 104 0 246773943 95940900 52 6
1000000000 394272916 13926732 43051549 614174944 0 70 106 0 246816009 95957262 53 7
1000000000 394693092 13923065 42778609 614537566 0 60 104 0 246751444 95932159 52 6
1000000000 394272923 13926732 43051549 614174950 0 70 104 0 246816008 95957260 52 7
1000000000 394693081 13923073 42778612 614537569 0 60 106 0 246751434 95932160 53 6
1000000000 394272926 13926725 43051547 614174941 0 70 104 0 246816018 95957261 52 7
1000000000 394693092 13923065 42778609 614537566 0 60 104 0 246751443 95932160 52 6
1000000000 394272914 13926739 43051551 614174958 0 70 106 0 246815995 95957260 53 7
1000000000 394600766 13923066 42870933 614445237 0 60 104 0 246751448 95932160 52 6
1000000000 394365250 13926725 42959223 614267265 0 70 104 0 246816018 95957261 52 7
1000000000 394443330 13923065 43028371 614287804 0 60 104 0 246751443 95932160 52 6
1000000000 394522675 13926739 42801790 614424719 0 70 106 0 246815995 95957260 53 7
1000000000 394342291 13925126 43046813 614219049 0 70 104 0 246787664 95946241 52 7
1000000000 394623726 13924664 42783343 614493453 0 60 104 0 246779802 95943180 52 6
1000000000 394272913 13926732 43051549 614174949 0 70 106 0 246816000 95957266 53 7
1000000000 394693092 13923073 42778612 614537575 0 60 104 0 246751437 95932154 52 6
1000000000 394272923 13926725 43051547 614174940 0 70 104 0 246816015 95957265 52 7
1000000000 394693085 13923072 42778611 614537570 0 60 106 0 246751438 95932156 53 6
1000000000 394272922 13926725 43051547 614174940 0 70 104 0 246816014 95957266 52 7
1000000000 394693091 13923073 42778612 614537575 0 60 104 0 246751437 95932154 52 6
1000000000 394272924 13926725 43051547 614174941 0 70 104 0 246816015 95957264 52 7
1000000000 394624197 13923072 42847498 614468682 0 60 106 0 246751438 95932157 53 6
1000000000 394341810 13926725 42982660 614243827 0 70 104 0 246816014 95957266 52 7
1000000000 394466766 13923073 43004937 614311251 0 60 104 0 246751436 95932154 52 6
1000000000 394499242 13926731 42825223 614401273 0 70 106 0 246816007 95957261 53 7
1000000000 394356612 13924793 43045835 614228152 0 70 104 0 246781809 95943971 52 7
1000000000 394609402 13924998 42784322 614484350 0 60 104 0 246785652 95945454 52 6
1000000000 394272916 13926739 43051550 614174958 0 70 106 0 246816000 95957256 53 7
1000000000 394693091 13923065 42778610 614537565 0 60 104 0 246751443 95932160 52 6
1000000000 394272922 13926725 43051549 614174941 0 70 104 0 246816009 95957268 52 7
1000000000 394693093 13923066 42778608 614537562 0 60 104 0 246751452 95932156 52 6
1000000000 394272916 13926738 43051550 614174957 0 70 106 0 246816000 95957257 53 7
1000000000 394693091 13923066 42778610 614537565 0 60 104 0 246751443 95932160 52 6
1000000000 394272921 13926725 43051549 614174941 0 70 104 0 246816009 95957268 52 7
1000000000 394647636 13923072 42824060 614492119 0 60 106 0 246751443 95932153 53 6
1000000000 394318374 13926732 43006098 614220401 0 70 104 0 246816008 95957260 52 7
1000000000 394490201 13923066 42981499 614334675 0 60 104 0 246751444 95932160 52 6
1000000000 394475806 13926732 42848659 614377835 0 70 106 0 246816009 95957261 53 7
1000000000 394370937 13924466 43044859 614237269 0 70 104 0 246775949 95941690 52 7
1000000000 394595078 13925331 42785300 614475247 0 60 104 0 246791501 95947730 52 6
1000000000 394274717 13926684 43051426 614176087 0 70 104 0 246815273 95956981 52 7
1000000000 394691290 13923113 42778732 614536422 0 60 106 0 246752181 95932440 53 6
1000000000 394272923 13926725 43051549 614174946 0 70 104 0 246816004 95957268 52 7
1000000000 394693091 13923073 42778610 614537570 0 60 104 0 246751446 95932152 52 6
1000000000 394272914 13926732 43051549 614174948 0 70 106 0 246816002 95957265 53 7
1000000000 394693094 13923065 42778609 614537562 0 60 104 0 246751451 95932156 52 6
1000000000 394272922 13926725 43051549 614174945 0 70 104 0 246816005 95957268 52 7
1000000000 394671070 13923073 42800624 614515550 0 60 106 0 246751448 95932153 53 6
1000000000 394294936 13926732 43029535 614196969 0 70 104 0 246816000 95957263 52 7
1000000000 394513641 13923065 42958062 614358109 0 60 104 0 246751450 95932157 52 6
1000000000 394452375 13926725 42872096 614354398 0 70 104 0 246816005 95957268 52 7
1000000000 394385250 13924148 43043883 614246387 0 70 106 0 246770086 95939408 53 7
1000000000 394580755 13925657 42786276 614466131 0 60 104 0 246797363 95950008 52 6
1000000000 394289044 13926350 43050447 614185188 0 70 104 0 246809428 95954704 52 7
1000000000 394676964 13923447 42779711 614527322 0 60 106 0 246758024 95934718 53 6
1000000000 394272925 13926724 43051548 614174945 0 70 104 0 246816010 95957264 52 7
1000000000 394693089 13923074 42778611 614537570 0 60 104 0 246751442 95932155 52 6
1000000000 394272915 13926731 43051550 614174949 0 70 106 0 246816000 95957265 53 7
1000000000 394693093 13923066 42778608 614537562 0 60 104 0 246751452 95932156 52 6
1000000000 394272925 13926724 43051548 614174945 0 70 104 0 246816009 95957265 52 7
1000000000 394693089 13923074 42778611 614537569 0 60 104 0 246751443 95932155 52 6
1000000000 394272914 13926731 43051550 614174949 0 70 106 0 246816000 95957265 53 7
1000000000 394537076 13923066 42934625 614381545 0 60 104 0 246751452 95932156 52 6
1000000000 394428942 13926724 42895531 614330962 0 70 104 0 246816009 95957265 52 7
1000000000 394399574 13923815 43042905 614255491 0 70 106 0 246764234 95937134 53 7
1000000000 394566430 13925990 42787256 614457027 0 60 104 0 246803209 95952286 52 6
1000000000 394303366 13926025 43049470 614194305 0 70 104 0 246803567 95952425 52 7
1000000000 394662642 13923772 42780688 614518206 0 60 106 0 246763885 95936996 53 6
1000000000 394272924 13926732 43051549 614174955 0 70 104 0 246816003 95957260 52 7
1000000000 394693089 13923066 42778610 614537559 0 60 104 0 246751449 95932160 52 6
1000000000 394272919 13926731 43051548 614174951 0 70 106 0 246816004 95957261 53 7
1000000000 394693089 13923066 42778610 614537560 0 60 104 0 246751448 95932160 52 6
1000000000 394272924 13926732 43051549 614174955 0 70 104 0 246816003 95957260 52 7
1000000000 394693090 13923066 42778609 614537560 0 60 104 0 246751449 95932160 52 6
1000000000 394272918 13926731 43051549 614174950 0 70 106 0 246816004 95957261 53 7
1000000000 394560508 13923066 42911191 614404979 0 60 104 0 246751448 95932160 52 6
1000000000 394405506 13926732 42918968 614307537 0 70 104 0 246816002 95957260 52 7
1000000000 394413897 13923482 43041927 614264595 0 70 106 0 246758382 95934860 53 7
1000000000 394552111 13926315 42788231 614447915 0 60 104 0 246809071 95954561 52 6
1000000000 394317687 13925692 43048492 614203405 0 70 104 0 246797719 95950151 52 7
1000000000 394648318 13924113 42781667 614509113 0 60 106 0 246769730 95939265 53 6
1000000000 394272925 13926724 43051548 614174945 0 70 104 0 246816009 95957265 52 7
1000000000 394693091 13923066 42778610 614537562 0 60 104 0 246751446 95932160 52 6
1000000000 394272924 13926725 43051547 614174941 0 70 104 0 246816015 95957264 52 7
1000000000 394693082 13923080 42778612 614537577 0 60 106 0 246751434 95932152 53 6
1000000000 394272925 13926724 43051548 614174945 0 70 104 0 246816009 95957265 52 7
1000000000 394693091 13923066 42778610 614537563 0 60 104 0 246751445 95932160 52 6
1000000000 394272917 13926731 43051548 614174948 0 70 106 0 246816007 95957261 53 7
1000000000 394583944 13923074 42887756 614428424 0 60 104 0 246751443 95932155 52 6
1000000000 394382069 13926724 42942403 614284090 0 70 104 0 246816009 95957265 52 7
1000000000 394428221 13923149 43040949 614273699 0 70 106 0 246752530 95932586 53 7
1000000000 394537787 13926648 42789209 614438812 0 60 104 0 246814922 95956835 52 6
1000000000 394332007 13925367 43047517 614212519 0 70 104 0 246791855 95947876 52 7
1000000000 394634007 13924431 42782642 614499996 0 60 104 0 246775596 95941544 52 6
1000000000 394272917 13926731 43051548 614174945 0 70 106 0 246816010 95957261 53 7
1000000000 394693091 13923066 42778610 614537565 0 60 104 0 246751443 95932160 52 6
1000000000 394272923 13926732 43051549 614174951 0 70 104 0 246816007 95957260 52 7
1000000000 394693080 13923073 42778612 614537567 0 60 106 0 246751436 95932160 53 6
1000000000 394272928 13926724 43051546 614174943 0 70 104 0 246816017 95957261 52 7
1000000000 394693090 13923066 42778610 614537564 0 60 104 0 246751444 95932160 52 6
1000000000 394272914 13926739 43051551 614174959 0 70 106 0 246815994 95957260 53 7
1000000000 394607381 13923066 42864318 614451851 0 60 104 0 246751449 95932160 52 6
1000000000 394358637 13926724 42965838 614260652 0 70 104 0 246816016 95957261 52 7
1000000000 394449942 13923066 43021758 614294416 0 60 104 0 246751444 95932160 52 6
1000000000 394516062 13926739 42808403 614418107 0 70 106 0 246815994 95957260 53 7
1000000000 394346331 13925034 43046537 614221620 0 70 104 0 246786010 95945600 52 7
1000000000 394619686 13924756 42783619 614490882 0 60 104 0 246781456 95943821 52 6
1000000000 394272914 13926732 43051549 614174948 0 70 106 0 246816002 95957265 53 7
1000000000 394693090 13923073 42778612 614537575 0 60 104 0 246751436 95932155 52 6
1000000000 394272924 13926725 43051547 614174940 0 70 104 0 246816016 95957264 52 7
1000000000 394693084 13923072 42778611 614537570 0 60 106 0 246751437 95932157 53 6
1000000000 394272924 13926725 43051547 614174941 0 70 104 0 246816015 95957264 52 7
1000000000 394693089 13923073 42778612 614537574 0 60 104 0 246751436 95932156 52 6
1000000000 394272925 13926725 43051547 614174940 0 70 104 0 246816016 95957264 52 7
1000000000 394630810 13923072 42840885 614475297 0 60 106 0 246751436 95932157 53 6
1000000000 394335197 13926725 42989273 614237214 0 70 104 0 246816016 95957264 52 7
1000000000 394473378 13923073 42998324 614317862 0 60 104 0 246751436 95932156 52 6
1000000000 394492629 13926731 42831836 614394660 0 70 106 0 246816007 95957261 53 7
1000000000 394360653 13924701 43045561 614230725 0 70 104 0 246780153 95943328 52 7
1000000000 394605362 13925090 42784596 614481778 0 60 104 0 246787308 95946096 52 6
1000000000 394272917 13926738 43051550 614174959 0 70 106 0 246815998 95957257 53 7
1000000000 394693090 13923066 42778610 614537564 0 60 104 0 246751444 95932160 52 6
1000000000 394272921 13926725 43051549 614174940 0 70 104 0 246816010 95957268 52 7
1000000000 394693094 13923066 42778608 614537562 0 60 104 0 246751452 95932156 52 6
1000000000 394272916 13926738 43051550 614174959 0 70 106 0 246815998 95957257 53 7
1000000000 394693091 13923066 42778610 614537565 0 60 104 0 246751443 95932160 52 6
1000000000 394272921 13926725 43051548 614174940 0 70 104 0 246816011 95957268 52 7
1000000000 394654248 13923072 42817448 614498731 0 60 106 0 246751443 95932153 53 6
1000000000 394311761 13926732 43012711 614213790 0 70 104 0 246816006 95957260 52 7
1000000000 394496815 13923066 42974886 614341288 0 60 104 0 246751444 95932160 52 6
1000000000 394469194 13926731 42855272 614371222 0 70 106 0 246816009 95957261 53 7
1000000000 394374974 13924376 43044584 614239839 0 70 104 0 246774296 95941048 52 7
1000000000 394591038 13925422 42785575 614472677 0 60 104 0 246793154 95948372 52 6
1000000000 394278759 13926592 43051150 614178656 0 70 104 0 246813624 95956337 52 7
1000000000 394687250 13923205 42779008 614533853 0 60 106 0 246753830 95933084 53 6
1000000000 394272922 13926725 43051549 614174945 0 70 104 0 246816005 95957268 52 7
1000000000 394693090 13923073 42778610 614537571 0 60 104 0 246751445 95932152 52 6
1000000000 394272916 13926732 43051549 614174947 0 70 106 0 246816004 95957264 53 7
1000000000 394693093 13923065 42778609 614537563 0 60 104 0 246751449 95932157 52 6
1000000000 394272923 13926725 43051549 614174945 0 70 104 0 246816005 95957268 52 7
1000000000 394677679 13923080 42794014 614522175 0 60 106 0 246751434 95932152 53 6
1000000000 394288327 13926725 43036145 614190342 0 70 104 0 246816016 95957264 52 7
1000000000 394520252 13923065 42951449 614364724 0 60 104 0 246751448 95932157 52 6
1000000000 394445763 13926725 42878709 614347784 0 70 104 0 246816006 95957268 52 7
1000000000 394389292 13924049 43043605 614248947 0 70 106 0 246768442 95938770 53 7
1000000000 394576714 13925756 42786554 614463570 0 60 104 0 246799008 95950646 52 6
1000000000 394293083 13926259 43050172 614187759 0 70 104 0 246807774 95954062 52 7
1000000000 394672925 13923538 42779986 614524752 0 60 106 0 246759678 95935359 53 6
1000000000 394272920 13926732 43051550 614174953 0 70 104 0 246816000 95957264 52 7
1000000000 394693094 13923066 42778609 614537562 0 60 104 0 246751452 95932155 52 6
1000000000 394272914 13926731 43051550 614174948 0 70 106 0 246816000 95957266 53 7
1000000000 394693094 13923066 42778608 614537562 0 60 104 0 246751452 95932156 52 6
1000000000 394272920 13926732 43051550 614174953 0 70 104 0 246816000 95957264 52 7
1000000000 394693093 13923066 42778609 614537562 0 60 104 0 246751452 95932155 52 6
1000000000 394272915 13926731 43051549 614174949 0 70 106 0 246816000 95957266 53 7
1000000000 394543689 13923066 42928013 614388157 0 60 104 0 246751452 95932156 52 6
1000000000 394422324 13926732 42902146 614324357 0 70 104 0 246816000 95957264 52 7
1000000000 394403621 13923715 43042627 614258054 0 70 106 0 246762592 95936491 53 7
1000000000 394562387 13926082 42787531 614454457 0 60 104 0 246804860 95952930 52 6
1000000000 394307408 13925933 43049195 614196876 0 70 104 0 246801915 95951781 52 7
1000000000 394658601 13923871 42780964 614515646 0 60 106 0 246765533 95937632 53 6
1000000000 394272923 13926725 43051549 614174944 0 70 104 0 246816006 95957268 52 7
1000000000 394693090 13923066 42778609 614537559 0 60 104 0 246751450 95932160 52 6
1000000000 394272927 13926724 43051547 614174944 0 70 104 0 246816015 95957261 52 7
1000000000 394693081 13923080 42778612 614537578 0 60 106 0 246751433 95932152 53 6
1000000000 394272923 13926725 43051549 614174944 0 70 104 0 246816006 95957268 52 7
1000000000 394693090 13923066 42778609 614537559 0 60 104 0 246751450 95932160 52 6
1000000000 394272919 13926731 43051549 614174952 0 70 106 0 246816002 95957261 53 7
1000000000 394567122 13923073 42904578 614411602 0 60 104 0 246751446 95932152 52 6
1000000000 394398891 13926725 42925581 614300912 0 70 104 0 246816006 95957268 52 7
1000000000 394417940 13923390 43041651 614267168 0 70 106 0 246756729 95934216 53 7
1000000000 394548068 13926407 42788507 614445343 0 60 104 0 246810723 95955205 52 6
1000000000 394321729 13925600 43048216 614205976 0 70 104 0 246796068 95949507 52 7
1000000000 394644285 13924198 42781943 614506538 0 60 104 0 246771384 95939913 52 6
1000000000 394272917 13926731 43051548 614174949 0 70 106 0 246816006 95957261 53 7
1000000000 394693090 13923066 42778610 614537562 0 60 104 0 246751446 95932160 52 6
1000000000 394272924 13926732 43051549 614174953 0 70 104 0 246816005 95957260 52 7
1000000000 394693083 13923073 42778610 614537565 0 60 106 0 246751445 95932155 53 6
1000000000 394272925 13926724 43051548 614174946 0 70 104 0 246816007 95957266 52 7
1000000000 394693090 13923066 42778610 614537561 0 60 104 0 246751447 95932160 52 6
1000000000 394272913 13926739 43051550 614174956 0 70 106 0 246815998 95957260 53 7
1000000000 394590561 13923066 42881141 614435030 0 60 104 0 246751452 95932155 52 6
1000000000 394375457 13926724 42949016 614277478 0 70 104 0 246816007 95957266 52 7
1000000000 394433120 13923066 43038581 614277590 0 60 104 0 246751447 95932160 52 6
1000000000 394532883 13926739 42791579 614434927 0 70 106 0 246815998 95957260 53 7
1000000000 394336055 13925267 43047239 614215085 0 70 104 0 246790210 95947233 52 7
1000000000 394629964 13924523 42782918 614497423 0 60 104 0 246777249 95942188 52 6
1000000000 394272917 13926731 43051548 614174946 0 70 106 0 246816009 95957261 53 7
1000000000 394693091 13923066 42778610 614537565 0 60 104 0 246751443 95932160 52 6
1000000000 394272921 13926732 43051549 614174951 0 70 104 0 246816007 95957260 52 7
1000000000 394693082 13923073 42778611 614537566 0 60 106 0 246751438 95932160 53 6
1000000000 394272927 13926724 43051547 614174944 0 70 104 0 246816015 95957261 52 7
1000000000 394693091 13923066 42778610 614537564 0 60 104 0 246751444 95932160 52 6
1000000000 394272913 13926739 43051551 614174958 0 70 106 0 246815995 95957260 53 7
1000000000 394613994 13923066 42857705 614458463 0 60 104 0 246751450 95932160 52 6
1000000000 394352023 13926724 42972451 614254041 0 70 104 0 246816014 95957261 52 7
1000000000 394456557 13923066 43015145 614301028 0 60 104 0 246751445 95932160 52 6
1000000000 394509448 13926739 42815016 614411493 0 70 106 0 246815995 95957260 53 7
1000000000 394350372 13924942 43046262 614224193 0 70 104 0 246784354 95944958 52 7
1000000000 394615644 13924848 42783894 614488311 0 60 104 0 246783110 95944463 52 6
1000000000 394272916 13926732 43051549 614174947 0 70 106 0 246816004 95957264 53 7
1000000000 394693090 13923073 42778612 614537574 0 60 104 0 246751436 95932156 52 6
1000000000 394272924 13926725 43051547 614174941 0 70 104 0 246816016 95957263 52 7
1000000000 394693083 13923072 42778611 614537570 0 60 106 0 246751436 95932158 53 6
1000000000 394272925 13926725 43051547 614174940 0 70 104 0 246816016 95957264 52 7
1000000000 394693090 13923073 42778612 614537574 0 60 104 0 246751436 95932156 52 6
1000000000 394272923 13926725 43051547 614174941 0 70 104 0 246816016 95957263 52 7
1000000000 394637423 13923072 42834272 614481909 0 60 106 0 246751436 95932158 53 6
1000000000 394328585 13926725 42995886 614230601 0 70 104 0 246816016 95957264 52 7
1000000000 394479991 13923073 42991711 614324475 0 60 104 0 246751436 95932156 52 6
1000000000 394486016 13926731 42838449 614388049 0 70 106 0 246816005 95957261 53 7
1000000000 394364696 13924609 43045285 614233297 0 70 104 0 246778501 95942684 52 7
1000000000 394601319 13925182 42784872 614479205 0 60 104 0 246788962 95946739 52 6
1000000000 394272915 13926738 43051550 614174960 0 70 106 0 246815996 95957258 53 7
1000000000 394693092 13923066 42778610 614537563 0 60 104 0 246751445 95932160 52 6
1000000000 394272921 13926725 43051548 614174940 0 70 104 0 246816011 95957268 52 7
1000000000 394693093 13923066 42778609 614537562 0 60 104 0 246751452 95932155 52 6
1000000000 394272915 13926738 43051550 614174960 0 70 106 0 246815996 95957258 53 7
1000000000 394693092 13923066 42778610 614537563 0 60 104 0 246751445 95932160 52 6
1000000000 394272921 13926725 43051548 614174940 0 70 104 0 246816011 95957268 52 7
1000000000 394660862 13923072 42810835 614505346 0 60 106 0 246751441 95932153 53 6
1000000000 394305147 13926732 43019324 614207176 0 70 104 0 246816007 95957260 52 7
1000000000 394503429 13923066 42968273 614347901 0 60 104 0 246751444 95932160 52 6
1000000000 394462579 13926731 42861885 614364610 0 70 106 0 246816008 95957261 53 7
1000000000 394379018 13924284 43044308 614242411 0 70 104 0 246772642 95940406 52 7
1000000000 394586996 13925514 42785851 614470104 0 60 104 0 246794809 95949014 52 6
1000000000 394282801 13926493 43050874 614181217 0 70 104 0 246811975 95955701 52 7
1000000000 394683206 13923304 42779284 614531293 0 60 106 0 246755478 95933720 53 6
1000000000 394272923 13926725 43051549 614174944 0 70 104 0 246816006 95957268 52 7
1000000000 394693092 13923073 42778610 614537571 0 60 104 0 246751445 95932152 52 6
1000000000 394272915 13926732 43051549 614174947 0 70 106 0 246816005 95957263 53 7
1000000000 394693092 13923065 42778609 614537563 0 60 104 0 246751448 95932158 52 6
1000000000 394272923 13926725 43051549 614174944 0 70 104 0 246816006 95957268 52 7
1000000000 394684294 13923080 42787401 614528788 0 60 106 0 246751434 95932152 53 6
1000000000 394281712 13926725 43042758 614183730 0 70 104 0 246816016 95957263 52 7
1000000000 394526866 13923065 42944836 614371337 0 60 104 0 246751447 95932158 52 6
1000000000 394439150 13926725 42885322 614341170 0 70 104 0 246816007 95957268 52 7
1000000000 394393332 13923957 43043331 614251519 0 70 106 0 246766786 95938128 53 7
1000000000 394572673 13925848 42786828 614460999 0 60 104 0 246800664 95951287 52 6
1000000000 394297125 13926167 43049896 614190333 0 70 104 0 246806118 95953420 52 7
1000000000 394668884 13923630 42780262 614522178 0 60 106 0 246761334 95936001 53 6
1000000000 394272920 13926732 43051549 614174953 0 70 104 0 246816000 95957265 52 7
1000000000 394693093 13923066 42778610 614537561 0 60 104 0 246751452 95932155 52 6
1000000000 394272915 13926731 43051549 614174949 0 70 106 0 246816000 95957266 53 7
1000000000 394693093 13923066 42778609 614537562 0 60 104 0 246751452 95932155 52 6
1000000000 394272921 13926732 43051549 614174953 0 70 104 0 246816000 95957265 52 7
1000000000 394693093 13923066 42778610 614537561 0 60 104 0 246751452 95932155 52 6
1000000000 394272914 13926731 43051549 614174949 0 70 106 0 246816000 95957266 53 7
1000000000 394550302 13923066 42921400 614394771 0 60 104 0 246751452 95932155 52 6
1000000000 394415713 13926732 42908758 614317745 0 70 104 0 246816000 95957264 52 7
1000000000 394407659 13923624 43042353 614260623 0 70 106 0 246760938 95935850 53 7
1000000000 394558348 13926173 42787805 614451887 0 60 104 0 246806514 95953572 52 6
1000000000 394311449 13925841 43048920 614199447 0 70 104 0 246800263 95951137 52 7
1000000000 394654560 13923963 42781240 614513075 0 60 106 0 246767184 95938276 53 6
1000000000 394272923 13926725 43051549 614174943 0 70 104 0 246816007 95957268 52 7
1000000000 394693090 13923066 42778608 614537560 0 60 104 0 246751450 95932160 52 6
1000000000 394272926 13926724 43051548 614174944 0 70 104 0 246816014 95957261 52 7
1000000000 394693083 13923080 42778612 614537578 0 60 106 0 246751433 95932152 53 6
1000000000 394272923 13926725 43051549 614174943 0 70 104 0 246816007 95957268 52 7
1000000000 394693090 13923066 42778608 614537561 0 60 104 0 246751450 95932159 52 6
1000000000 394272917 13926731 43051550 614174950 0 70 106 0 246816002 95957262 53 7
1000000000 394573736 13923073 42897965 614418217 0 60 104 0 246751444 95932152 52 6
1000000000 394392278 13926725 42932194 614294297 0 70 104 0 246816008 95957268 52 7
1000000000 394421981 13923298 43041375 614269740 0 70 106 0 246755077 95933572 53 7
1000000000 394544027 13926499 42788783 614442771 0 60 104 0 246812375 95955849 52 6
1000000000 394325770 13925509 43047941 614208546 0 70 104 0 246794416 95948864 52 7
1000000000 394640243 13924289 42782218 614503969 0 60 104 0 246773035 95940556 52 6
1000000000 394272918 13926731 43051548 614174949 0 70 106 0 246816006 95957261 53 7
1000000000 394693091 13923066 42778610 614537561 0 60 104 0 246751447 95932160 52 6
1000000000 394272923 13926732 43051549 614174955 0 70 104 0 246816003 95957260 52 7
1000000000 394693082 13923073 42778610 614537563 0 60 106 0 246751447 95932155 53 6
1000000000 394272925 13926724 43051548 614174946 0 70 104 0 246816007 95957266 52 7
1000000000 394693091 13923066 42778610 614537561 0 60 104 0 246751447 95932160 52 6
1000000000 394272913 13926739 43051549 614174957 0 70 106 0 246815998 95957260 53 7
1000000000 394597174 13923066 42874529 614441642 0 60 104 0 246751452 95932155 52 6
1000000000 394368844 13926724 42955629 614270866 0 70 104 0 246816006 95957266 52 7
1000000000 394439732 13923066 43031968 614284203 0 60 104 0 246751447 95932160 52 6
1000000000 394526272 13926739 42798191 614428315 0 70 106 0 246815999 95957259 53 7
1000000000 394340095 13925175 43046964 614217655 0 70 104 0 246788558 95946590 52 7
1000000000 394625923 13924615 42783194 614494853 0 60 104 0 246778899 95942832 52 6
1000000000 394272915 13926731 43051548 614174946 0 70 106 0 246816009 95957261 53 7
1000000000 394693088 13923074 42778611 614537571 0 60 104 0 246751438 95932158 52 6
1000000000 394272927 13926724 43051548 614174944 0 70 104 0 246816013 95957262 52 7
1000000000 394693081 13923073 42778610 614537566 0 60 106 0 246751439 95932160 53 6
1000000000 394272926 13926724 43051548 614174944 0 70 104 0 246816014 95957261 52 7
1000000000 394693088 13923074 42778611 614537572 0 60 104 0 246751438 95932157 52 6
1000000000 394272926 13926724 43051548 614174944 0 70 104 0 246816012 95957263 52 7
1000000000 394620599 13923073 42851093 614465083 0 60 106 0 246751440 95932159 53 6
1000000000 394345409 13926724 42979065 614247427 0 70 104 0 246816013 95957262 52 7
1000000000 394463167 13923074 43008532 614307650 0 60 104 0 246751439 95932157 52 6
1000000000 394502838 13926731 42821629 614404870 0 70 106 0 246816002 95957263 53 7
1000000000 394354417 13924842 43045984 614226756 0 70 104 0 246782712 95944315 52 7
1000000000 394611600 13924948 42784172 614485749 0 60 104 0 246784751 95945106 52 6
1000000000 394272914 13926739 43051551 614174960 0 70 106 0 246815993 95957260 53 7
1000000000 394693090 13923066 42778610 614537561 0 60 104 0 246751447 95932160 52 6
1000000000 394272924 13926725 43051547 614174940 0 70 104 0 246816017 95957263 52 7
1000000000 394693093 13923065 42778609 614537565 0 60 104 0 246751446 95932158 52 6
1000000000 394272915 13926739 43051551 614174960 0 70 106 0 246815993 95957260 53 7
1000000000 394693089 13923066 42778610 614537561 0 60 104 0 246751447 95932160 52 6
1000000000 394272925 13926725 43051547 614174939 0 70 104 0 246816018 95957263 52 7
1000000000 394644036 13923072 42827659 614488522 0 60 106 0 246751436 95932158 53 6
1000000000 394321971 13926732 43002501 614224003 0 70 104 0 246816003 95957260 52 7
1000000000 394486603 13923066 42985096 614331075 0 60 104 0 246751447 95932160 52 6
1000000000 394479405 13926731 42845062 614381435 0 70 106 0 246816006 95957261 53 7
1000000000 394368738 13924517 43045009 614235870 0 70 104 0 246776848 95942040 52 7
1000000000 394597276 13925281 42785150 614476646 0 60 104 0 246790602 95947380 52 6
1000000000 394272916 13926731 43051548 614174946 0 70 106 0 246816009 95957261 53 7
1000000000 394693092 13923066 42778610 614537564 0 60 104 0 246751444 95932160 52 6
1000000000 394272921 13926725 43051547 614174939 0 70 104 0 246816013 95957268 52 7
1000000000 394693092 13923073 42778612 614537576 0 60 104 0 246751438 95932152 52 6
1000000000 394272917 13926731 43051548 614174946 0 70 106 0 246816009 95957261 53 7
1000000000 394693091 13923066 42778610 614537564 0 60 104 0 246751444 95932160 52 6
1000000000 394272922 13926725 43051547 614174940 0 70 104 0 246816013 95957267 52 7
1000000000 394667471 13923080 42804223 614511967 0 60 106 0 246751434 95932151 53 6
1000000000 394298537 13926724 43025937 614200555 0 70 104 0 246816012 95957263 52 7
1000000000 394510042 13923066 42961660 614354514 0 60 104 0 246751444 95932160 52 6
1000000000 394455966 13926731 42868498 614357996 0 70 106 0 246816009 95957261 53 7
1000000000 394383057 13924192 43044033 614244982 0 70 104 0 246770987 95939765 52 7
1000000000 394582957 13925606 42786126 614467534 0 60 104 0 246796463 95949655 52 6
1000000000 394286843 13926401 43050598 614183790 0 70 104 0 246810322 95955057 52 7
1000000000 394679165 13923396 42779560 614528719 0 60 106 0 246757132 95934364 53 6
1000000000 394272921 13926733 43051550 614174951 0 70 104 0 246816005 95957261 52 7
1000000000 394693092 13923065 42778609 614537565 0 60 104 0 246751445 95932159 52 6
1000000000 394272915 13926732 43051549 614174945 0 70 106 0 246816007 95957263 53 7
1000000000 394693093 13923065 42778609 614537565 0 60 104 0 246751446 95932158 52 6
1000000000 394272922 13926733 43051550 614174950 0 70 104 0 246816006 95957261 52 7
1000000000 394690906 13923072 42780787 614535395 0 60 106 0 246751434 95932159 53 6
1000000000 394275101 13926725 43049371 614177115 0 70 104 0 246816018 95957263 52 7
1000000000 394533479 13923065 42938223 614377952 0 60 104 0 246751445 95932158 52 6
1000000000 394432536 13926725 42891935 614334556 0 70 104 0 246816008 95957268 52 7
1000000000 394397376 13923865 43043055 614254092 0 70 106 0 246765133 95937484 53 7
1000000000 394568631 13925940 42787104 614458426 0 60 104 0 246802318 95951930 52 6
1000000000 394301164 13926075 43049620 614192904 0 70 104 0 246804462 95952781 52 7
1000000000 394664843 13923722 42780538 614519606 0 60 106 0 246762990 95936641 53 6
1000000000 394272921 13926732 43051549 614174954 0 70 104 0 246816000 95957264 52 7
1000000000 394693094 13923066 42778610 614537561 0 60 104 0 246751452 95932155 52 6
1000000000 394272914 13926731 43051548 614174949 0 70 106 0 246816000 95957267 53 7
1000000000 394693093 13923066 42778610 614537561 0 60 104 0 246751452 95932155 52 6
1000000000 394272921 13926732 43051549 614174955 0 70 104 0 246816000 95957263 52 7
1000000000 394693094 13923066 42778610 614537561 0 60 104 0 246751452 95932155 52 6
1000000000 394272914 13926731 43051548 614174949 0 70 106 0 246816000 95957267 53 7
1000000000 394556915 13923066 42914788 614401383 0 60 104 0 246751452 95932155 52 6
1000000000 394409099 13926732 42915371 614311132 0 70 104 0 246816000 95957264 52 7
1000000000 394411700 13923532 43042077 614263197 0 70 106 0 246759282 95935208 53 7
1000000000 394554307 13926265 42788081 614449313 0 60 104 0 246808170 95954214 52 6
1000000000 394315491 13925749 43048644 614202017 0 70 104 0 246798612 95950494 52 7
1000000000 394650518 13924055 42781516 614510506 0 60 106 0 246768833 95938920 53 6
1000000000 394272922 13926725 43051549 614174942 0 70 104 0 246816008 95957268 52 7
1000000000 394693091 13923066 42778608 614537561 0 60 104 0 246751451 95932158 52 6
1000000000 394272926 13926724 43051548 614174944 0 70 104 0 246816012 95957263 52 7
1000000000 394693082 13923080 42778612 614537578 0 60 106 0 246751433 95932152 53 6
1000000000 394272922 13926725 43051549 614174943 0 70 104 0 246816007 95957268 52 7
1000000000 394693092 13923066 42778608 614537560 0 60 104 0 246751452 95932158 52 6
1000000000 394272917 13926731 43051550 614174949 0 70 106 0 246816002 95957263 53 7
1000000000 394580349 13923073 42891352 614424832 0 60 104 0 246751442 95932152 52 6
1000000000 394385663 13926725 42938807 614287684 0 70 104 0 246816008 95957268 52 7
1000000000 394426023 13923199 43041098 614272298 0 70 106 0 246753432 95932936 53 7
1000000000 394539986 13926598 42789060 614440212 0 60 104 0 246814021 95956485 52 6
1000000000 394329812 13925417 43047665 614211119 0 70 104 0 246792761 95948222 52 7
1000000000 394636201 13924381 42782494 614501396 0 60 104 0 246774690 95941198 52 6
1000000000 394272919 13926731 43051548 614174950 0 70 106 0 246816005 95957261 53 7
1000000000 394693089 13923066 42778610 614537561 0 60 104 0 246751447 95932160 52 6
1000000000 394272924 13926732 43051549 614174954 0 70 104 0 246816004 95957260 52 7
1000000000 394693084 13923073 42778610 614537563 0 60 106 0 246751448 95932154 53 6
1000000000 394272924 13926724 43051548 614174947 0 70 104 0 246816005 95957267 52 7
1000000000 394693089 13923066 42778610 614537561 0 60 104 0 246751447 95932160 52 6
1000000000 394272915 13926739 43051549 614174957 0 70 106 0 246816000 95957258 53 7
1000000000 394603788 13923066 42867916 614448255 0 60 104 0 246751452 95932155 52 6
1000000000 394362230 13926724 42962242 614264253 0 70 104 0 246816004 95957268 52 7
1000000000 394446344 13923066 43025355 614290815 0 60 104 0 246751448 95932160 52 6
1000000000 394519660 13926739 42804804 614421702 0 70 106 0 246816000 95957258 53 7
1000000000 394344136 13925083 43046688 614220226 0 70 104 0 246786906 95945947 52 7
1000000000 394621881 13924707 42783470 614492282 0 60 104 0 246780550 95943476 52 6
1000000000 394272917 13926731 43051548 614174946 0 70 106 0 246816009 95957261 53 7
1000000000 394693088 13923074 42778611 614537571 0 60 104 0 246751439 95932157 52 6
1000000000 394272925 13926724 43051548 614174945 0 70 104 0 246816011 95957263 52 7
1000000000 394693082 13923073 42778610 614537566 0 60 106 0 246751441 95932158 53 6
1000000000 394272926 13926724 43051548 614174944 0 70 104 0 246816012 95957263 52 7
1000000000 394693089 13923074 42778611 614537571 0 60 104 0 246751440 95932156 52 6
1000000000 394272925 13926724 43051548 614174945 0 70 104 0 246816010 95957264 52 7
1000000000 394627212 13923073 42844480 614471695 0 60 106 0 246751442 95932158 53 6
1000000000 394338796 13926724 42985678 614240815 0 70 104 0 246816011 95957263 52 7
1000000000 394469781 13923074 43001919 614314263 0 60 104 0 246751441 95932155 52 6
1000000000 394496222 13926731 42828242 614398257 0 70 106 0 246816000 95957265 53 7
1000000000 394358461 13924751 43045708 614229326 0 70 104 0 246781062 95943671 52 7
1000000000 394607557 13925039 42784448 614483179 0 60 104 0 246786401 95945750 52 6
1000000000 394272915 13926739 43051551 614174960 0 70 106 0 246815993 95957260 53 7
1000000000 394693089 13923066 42778610 614537560 0 60 104 0 246751448 95932160 52 6
1000000000 394272926 13926725 43051547 614174940 0 70 104 0 246816018 95957262 52 7
1000000000 394693092 13923065 42778609 614537566 0 60 104 0 246751444 95932159 52 6
1000000000 394272914 13926739 43051551 614174959 0 70 106 0 246815994 95957260 53 7
1000000000 394693090 13923066 42778610 614537560 0 60 104 0 246751448 95932160 52 6
1000000000 394272926 13926725 43051547 614174941 0 70 104 0 246816018 95957261 52 7
1000000000 394650646 13923072 42821046 614495135 0 60 106 0 246751434 95932160 53 6
1000000000 394315360 13926732 43009114 614217389 0 70 104 0 246816004 95957260 52 7
1000000000 394493216 13923066 42978483 614337687 0 60 104 0 246751448 95932160 52 6
1000000000 394472792 13926731 42851675 614374824 0 70 106 0 246816004 95957261 53 7
1000000000 394372779 13924425 43044733 614238441 0 70 104 0 246775197 95941396 52 7
1000000000 394593234 13925373 42785426 614474073 0 60 104 0 246792255 95948024 52 6
1000000000 394276561 13926642 43051300 614177258 0 70 104 0 246814522 95956687 52 7
1000000000 394689447 13923155 42778858 614535253 0 60 106 0 246752930 95932734 53 6
1000000000 394272922 13926725 43051547 614174940 0 70 104 0 246816014 95957266 52 7
1000000000 394693092 13923073 42778612 614537575 0 60 104 0 246751437 95932154 52 6
1000000000 394272916 13926731 43051548 614174947 0 70 106 0 246816008 95957261 53 7
1000000000 394693092 13923066 42778610 614537563 0 60 104 0 246751445 95932160 52 6
1000000000 394272922 13926725 43051547 614174940 0 70 104 0 246816014 95957266 52 7
1000000000 394674085 13923080 42797610 614518580 0 60 106 0 246751434 95932151 53 6
1000000000 394291923 13926724 43032550 614193943 0 70 104 0 246816010 95957264 52 7
1000000000 394516654 13923066 42955047 614361125 0 60 104 0 246751446 95932160 52 6
1000000000 394449360 13926725 42875110 614351377 0 70 104 0 246816014 95957266 52 7
1000000000 394387092 13924106 43043759 614247563 0 70 106 0 246769326 95939116 53 7
1000000000 394578916 13925698 42786401 614464961 0 60 104 0 246798117 95950299 52 6
1000000000 394290884 13926309 43050322 614186360 0 70 104 0 246808672 95954413 52 7
1000000000 394675123 13923488 42779836 614526149 0 60 106 0 246758782 95935008 53 6
1000000000 394272923 13926733 43051549 614174951 0 70 104 0 246816007 95957260 52 7
1000000000 394693091 13923065 42778610 614537565 0 60 104 0 246751443 95932160 52 6
1000000000 394272916 13926732 43051549 614174944 0 70 106 0 246816009 95957262 53 7
1000000000 394693092 13923065 42778609 614537566 0 60 104 0 246751444 95932159 52 6
1000000000 394272923 13926732 43051549 614174950 0 70 104 0 246816008 95957260 52 7
1000000000 394693091 13923066 42778610 614537565 0 60 104 0 246751443 95932160 52 6
1000000000 394272916 13926732 43051549 614174945 0 70 106 0 246816009 95957261 53 7
1000000000 394540091 13923065 42931610 614384565 0 60 104 0 246751443 95932160 52 6
1000000000 394425924 13926732 42898548 614327951 0 70 104 0 246816008 95957260 52 7
1000000000 394401417 13923766 43042779 614256657 0 70 106 0 246763480 95936848 53 7
1000000000 394564590 13926032 42787379 614455853 0 60 104 0 246803973 95952573 52 6
1000000000 394305204 13925983 43049347 614195476 0 70 104 0 246802806 95952138 52 7
1000000000 394660801 13923821 42780814 614517047 0 60 106 0 246764632 95937282 53 6
1000000000 394272923 13926725 43051547 614174940 0 70 104 0 246816014 95957266 52 7
1000000000 394693094 13923065 42778609 614537562 0 60 104 0 246751452 95932155 52 6
1000000000 394272923 13926725 43051549 614174946 0 70 104 0 246816004 95957268 52 7
1000000000 394693082 13923080 42778612 614537578 0 60 106 0 246751433 95932152 53 6
1000000000 394272923 13926725 43051547 614174940 0 70 104 0 246816015 95957265 52 7
1000000000 394693094 13923065 42778609 614537562 0 60 104 0 246751451 95932156 52 6
1000000000 394272913 13926732 43051549 614174948 0 70 106 0 246816001 95957266 53 7
1000000000 394563526 13923073 42908177 614408010 0 60 104 0 246751437 95932154 52 6
1000000000 394402489 13926725 42921982 614304506 0 70 104 0 246816015 95957264 52 7
1000000000 394415739 13923440 43041801 614265767 0 70 106 0 246757626 95934570 53 7
1000000000 394550268 13926357 42788357 614446742 0 60 104 0 246809826 95954853 52 6
1000000000 394319531 13925650 43048368 614204582 0 70 104 0 246796958 95949859 52 7
1000000000 394646477 13924154 42781792 614507942 0 60 106 0 246770485 95939556 53 6
1000000000 394272921 13926725 43051549 614174941 0 70 104 0 246816009 95957268 52 7
1000000000 394693093 13923066 42778608 614537561 0 60 104 0 246751452 95932157 52 6
1000000000 394272921 13926732 43051551 614174953 0 70 104 0 246816000 95957263 52 7
1000000000 394693086 13923072 42778609 614537570 0 60 106 0 246751443 95932153 53 6
1000000000 394272922 13926725 43051549 614174941 0 70 104 0 246816009 95957268 52 7
1000000000 394693093 13923066 42778608 614537562 0 60 104 0 246751452 95932156 52 6
1000000000 394272916 13926738 43051550 614174957 0 70 106 0 246816000 95957257 53 7
1000000000 394586962 13923066 42884739 614431436 0 60 104 0 246751443 95932160 52 6
1000000000 394379050 13926725 42945420 614281070 0 70 104 0 246816009 95957268 52 7
1000000000 394430064 13923107 43040823 614274873 0 70 106 0 246751776 95932292 53 7
1000000000 394535946 13926697 42789335 614437647 0 60 104 0 246815675 95957121 52 6
1000000000 394333850 13925318 43047389 614213682 0 70 104 0 246791107 95947589 52 7
1000000000 394632162 13924473 42782770 614498823 0 60 104 0 246776346 95941839 52 6
1000000000 394272918 13926731 43051548 614174951 0 70 106 0 246816004 95957261 53 7
1000000000 394693092 13923073 42778610 614537570 0 60 104 0 246751446 95932152 52 6
1000000000 394272922 13926725 43051549 614174945 0 70 104 0 246816005 95957268 52 7
1000000000 394693085 13923072 42778609 614537564 0 60 106 0 246751449 95932153 53 6
1000000000 394272923 13926725 43051549 614174946 0 70 104 0 246816004 95957268 52 7
1000000000 394693091 13923073 42778610 614537570 0 60 104 0 246751446 95932152 52 6
1000000000 394272914 13926732 43051549 614174948 0 70 106 0 246816002 95957265 53 7
1000000000 394610401 13923065 42861302 614454869 0 60 104 0 246751451 95932156 52 6
1000000000 394355615 13926725 42968856 614257638 0 70 104 0 246816005 95957268 52 7
1000000000 394452960 13923073 43018741 614297440 0 60 104 0 246751445 95932152 52 6
1000000000 394513046 13926732 42811418 614415079 0 70 106 0 246816003 95957264 53 7
1000000000 394348178 13924991 43046412 614222796 0 70 104 0 246785254 95945305 52 7
1000000000 394617838 13924799 42783746 614489711 0 60 104 0 246782201 95944120 52 6
1000000000 394272912 13926739 43051551 614174956 0 70 106 0 246815997 95957260 53 7
1000000000 394693093 13923066 42778608 614537562 0 60 104 0 246751452 95932156 52 6
1000000000 394272925 13926724 43051548 614174945 0 70 104 0 246816009 95957265 52 7
1000000000 394693083 13923073 42778610 614537565 0 60 106 0 246751443 95932157 53 6
1000000000 394272925 13926724 43051548 614174945 0 70 104 0 246816010 95957264 52 7
1000000000 394693089 13923074 42778611 614537570 0 60 104 0 246751442 95932155 52 6
1000000000 394272925 13926724 43051548 614174945 0 70 104 0 246816009 95957265 52 7
1000000000 394633826 13923073 42837867 614478309 0 60 106 0 246751443 95932156 53 6
1000000000 394332182 13926724 42992291 614234202 0 70 104 0 246816009 95957265 52 7
1000000000 394476394 13923074 42995306 614320874 0 60 104 0 246751443 95932155 52 6
1000000000 394489609 13926731 42834855 614391644 0 70 106 0 246816000 95957265 53 7
1000000000 394362501 13924659 43045433 614231899 0 70 104 0 246779406 95943029 52 7
1000000000 394603517 13925131 42784723 614480608 0 60 104 0 246788055 95946392 52 6
1000000000 394272914 13926739 43051551 614174958 0 70 106 0 246815995 95957260 53 7
1000000000 394693090 13923066 42778610 614537560 0 60 104 0 246751448 95932160 52 6
1000000000 394272927 13926724 43051546 614174942 0 70 104 0 246816018 95957261 52 7
1000000000 394693091 13923066 42778610 614537565 0 60 104 0 246751443 95932160 52 6
1000000000 394272914 13926739 43051551 614174959 0 70 106 0 246815994 95957260 53 7
1000000000 394693089 13923066 42778610 614537559 0 60 104 0 246751449 95932160 52 6
1000000000 394272928 13926724 43051546 614174943 0 70 104 0 246816017 95957261 52 7
1000000000 394657258 13923073 42814434 614501746 0 60 106 0 246751435 95932160 53 6
1000000000 394308746 13926732 43015727 614210777 0 70 104 0 246816003 95957260 52 7
1000000000 394499831 13923066 42971868 614344301 0 60 104 0 246751449 95932160 52 6
1000000000 394466177 13926731 42858290 614368209 0 70 106 0 246816004 95957261 53 7
1000000000 394376821 13924333 43044457 614241013 0 70 104 0 246773545 95940752 52 7
1000000000 394589193 13925465 42785702 614471503 0 60 104 0 246793905 95948668 52 6
1000000000 394280603 13926550 43051024 614179829 0 70 104 0 246812871 95956043 52 7
1000000000 394685405 13923247 42779134 614532681 0 60 106 0 246754582 95933378 53 6
1000000000 394272923 13926725 43051547 614174940 0 70 104 0 246816015 95957265 52 7
1000000000 394693090 13923073 42778612 614537575 0 60 104 0 246751436 95932155 52 6
1000000000 394272917 13926731 43051548 614174948 0 70 106 0 246816007 95957261 53 7
1000000000 394693091 13923066 42778610 614537562 0 60 104 0 246751446 95932160 52 6
1000000000 394272924 13926725 43051547 614174941 0 70 104 0 246816015 95957264 52 7
1000000000 394680697 13923080 42790997 614525192 0 60 106 0 246751434 95932152 53 6
1000000000 394285310 13926724 43039163 614187330 0 70 104 0 246816009 95957265 52 7
1000000000 394523267 13923066 42948434 614367739 0 60 104 0 246751445 95932160 52 6
1000000000 394442747 13926725 42881723 614344764 0 70 104 0 246816016 95957264 52 7
1000000000 394391139 13924006 43043480 614250122 0 70 106 0 246767687 95938475 53 7
1000000000 394574868 13925798 42786680 614462400 0 60 104 0 246799756 95950942 52 6
1000000000 394294927 13926217 43050046 614188934 0 70 104 0 246807018 95953769 52 7
1000000000 394671081 13923580 42780112 614523577 0 60 106 0 246760434 95935652 53 6
1000000000 394272924 13926732 43051549 614174951 0 70 104 0 246816007 95957260 52 7
1000000000 394693090 13923066 42778610 614537564 0 60 104 0 246751444 95932160 52 6
1000000000 394272917 13926731 43051548 614174945 0 70 106 0 246816010 95957261 53 7
1000000000 394693091 13923066 42778610 614537565 0 60 104 0 246751443 95932160 52 6
1000000000 394272923 13926732 43051549 614174951 0 70 104 0 246816007 95957260 52 7
1000000000 394693091 13923066 42778610 614537565 0 60 104 0 246751443 95932160 52 6
1000000000 394272917 13926731 43051548 614174945 0 70 106 0 246816010 95957261 53 7
1000000000 394546702 13923066 42924998 614391176 0 60 104 0 246751444 95932160 52 6
1000000000 394419311 13926732 42905161 614321340 0 70 104 0 246816006 95957260 52 7
1000000000 394405459 13923674 43042503 614259227 0 70 106 0 246761830 95936204 53 7
1000000000 394560550 13926123 42787655 614453283 0 60 104 0 246805623 95953217 52 6
1000000000 394309245 13925892 43049071 614198048 0 70 104 0 246801154 95951494 52 7
1000000000 394656759 13923913 42781090 614514475 0 60 106 0 246766284 95937926 53 6
1000000000 394272923 13926725 43051547 614174940 0 70 104 0 246816016 95957264 52 7
1000000000 394693094 13923065 42778609 614537562 0 60 104 0 246751450 95932157 52 6
1000000000 394272922 13926725 43051549 614174945 0 70 104 0 246816005 95957268 52 7
1000000000 394693082 13923080 42778612 614537578 0 60 106 0 246751433 95932152 53 6
1000000000 394272924 13926725 43051547 614174940 0 70 104 0 246816016 95957264 52 7
1000000000 394693093 13923065 42778609 614537563 0 60 104 0 246751449 95932157 52 6
1000000000 394272915 13926732 43051549 614174948 0 70 106 0 246816003 95957264 53 7
1000000000 394570137 13923073 42901564 614414622 0 60 104 0 246751436 95932156 52 6
1000000000 394395877 13926725 42928595 614297892 0 70 104 0 246816016 95957264 52 7
1000000000 394419780 13923348 43041527 614268341 0 70 106 0 246755970 95933926 53 7
1000000000 394546227 13926449 42788631 614444170 0 60 104 0 246811482 95955495 52 6
1000000000 394323573 13925558 43048092 614207153 0 70 104 0 246795305 95949217 52 7
1000000000 394642441 13924240 42782067 614505361 0 60 104 0 246772147 95940203 52 6
1000000000 394272915 13926731 43051550 614174949 0 70 106 0 246816000 95957265 53 7
1000000000 394693093 13923066 42778608 614537562 0 60 104 0 246751452 95932156 52 6
1000000000 394272920 13926732 43051550 614174953 0 70 104 0 246816000 95957264 52 7
1000000000 394693087 13923072 42778610 614537570 0 60 106 0 246751442 95932153 53 6
114009263 44865919 1588517 4963391 69948408 0 10 12 0 28152351 10945084 6 1
number of instructions: 971114009263
