64339 1096 1616 161
56034 904 244 35
55981 903 244 35
56058 906 256 35
56083 904 245 35
56041 903 244 35
56038 904 257 35
901152 14171 536 71
901140 14093 131 15
901140 14093 131 15
901140 14093 131 15
901140 14093 131 15
901140 14093 131 15
901140 14093 131 15
901140 14093 131 15
901140 14093 131 15
901140 14093 131 15
901140 14093 131 15
901140 14093 131 15
901140 14093 131 15
901140 14093 131 15
901140 14093 131 15
901140 14093 131 15
901140 14093 131 15
901140 14093 131 15
901201 14109 196 26
901144 14096 158 19
901141 14093 152 16
901141 14093 152 16
901141 14093 152 16
901141 14093 152 16
901141 14093 152 16
901141 14093 152 16
901141 14093 152 16
901141 14093 152 16
901141 14093 152 16
901141 14093 152 16
901141 14093 152 16
901141 14093 152 16
901141 14093 152 16
901141 14093 152 16
901141 14093 152 16
901141 14093 152 16
901141 14093 152 16
901141 14093 152 16
901141 14093 152 16
901141 14093 152 16
901141 14093 152 16
901141 14093 152 16
901141 14093 152 16
901141 14093 152 16
901141 14093 152 16
901141 14093 152 16
901141 14093 152 16
901141 14093 152 16
901141 14093 152 16
901141 14093 152 16
901141 14093 152 16
901141 14093 152 16
901141 14093 152 16
901141 14093 152 16
901141 14093 152 16
901141 14093 152 16
901141 14093 152 16
901141 14093 152 16
901141 14093 152 16
901141 14093 152 16
901141 14093 152 16
901141 14093 152 16
901141 14093 152 16
901141 14093 152 16
901141 14093 152 16
901141 14093 152 16
901141 14093 152 16
901141 14093 152 16
901141 14093 152 16
901141 14093 152 16
901141 14093 152 16
901141 14093 152 16
901141 14093 152 16
901141 14093 152 16
901141 14093 152 16
901141 14093 152 16
901141 14093 152 16
901141 14093 152 16
901141 14093 152 16
901141 14093 152 16
901141 14093 152 16
901141 14093 152 16
901141 14093 152 16
901141 14093 152 16
901141 14093 152 16
901141 14093 152 16
901141 14093 152 16
901141 14093 152 16
901141 14093 152 16
901141 14093 152 16
901141 14093 152 16
901141 14093 152 16
901141 14093 152 16
901141 14093 152 16
901141 14093 152 16
901141 14093 152 16
901141 14093 152 16
901141 14093 152 16
901141 14093 152 16
901141 14093 152 16
651329 10192 137 16
number of instructions: 107137310939
