262894675 15475104 250087376 257381276 262372724 262385385 262400832 262406485 15263 86093335 126148410 161967825 170211765 173341672 178269552 133720457 2703615 128515512 130353579 133654727 133655854 133656557 133656638 0 10249239 87152701 114261675 117911934 117912053 117912073
262183266 15338534 249021398 256762701 261794672 261795458 261802662 261802662 0 85883278 126187105 162018344 170209229 173304430 178186183 133767702 2679395 128313526 130219250 133708178 133708178 133708178 133708178 0 10400351 87194602 114445122 118115612 118115612 118115612
262165522 15320812 248922011 256743216 261807270 261807972 261815134 261815134 0 85905912 126224120 162031739 170214436 173306813 178184110 133813127 2676953 128303517 130211385 133753659 133753659 133753659 133753659 0 10421247 87258179 114507523 118173859 118173859 118173859
262482825 15339515 249504021 257056705 262090177 262090758 262097880 262097880 0 86035206 126611692 162517401 170699541 173796100 178679994 133623157 2680572 128249581 130120443 133563607 133563607 133563607 133563607 0 10326830 86995361 114307438 117960283 117960283 117960283
262564877 15352871 249706467 257141648 262157904 262158610 262165777 262165777 0 86070120 126762921 162714292 170897465 173995299 178881199 133509475 2681673 128189638 130047621 133449901 133449901 133449901 133449901 0 10287577 86856245 114198117 117843957 117843957 117843957
262496539 15349013 249624706 257079720 262087679 262088378 262095537 262095537 0 86048459 126742313 162691079 170872089 173967753 178850237 133497566 2679803 128170075 130032054 133438034 133438034 133438034 133438034 0 10294803 86847691 114193347 117842796 117842796 117842796
262474183 15329052 249613046 257063552 262051671 262052335 262059481 262059481 0 86023251 126716643 162679627 170860920 173956390 178838567 133473438 2679627 128164287 130030774 133413910 133413910 133413910 133413910 0 10290773 86810908 114165265 117817642 117817642 117817642
257604644 12291096 237054129 249043985 253812526 254020164 255280465 257070585 112 77844827 124915132 166857567 174124977 176612625 180535980 121067743 2153379 114686233 118454331 121019447 121019481 121019485 121019485 0 12833461 81489313 105122238 108021713 108021717 108021717
241846765 128 178270649 220521905 224693123 225763848 232118013 241075353 0 35800205 108237519 174726567 178321705 178321849 178321849 72455381 112 59640637 72455304 72455304 72455304 72455304 72455304 0 18335627 60873383 70119235 70119379 70119379 70119379
241336516 96 180234376 219555492 223818164 224910644 231446774 240552204 0 34748644 108734650 176646486 180319584 180319692 180319692 71846382 84 60069025 71846330 71846330 71846330 71846330 71846330 0 17354952 60016277 69460286 69460394 69460394 69460394
240765734 112 179195489 219296301 223494565 224558340 230934890 239986185 0 36018321 108941491 175878126 179498073 179498199 179498199 71722206 98 60030752 71722152 71722152 71722152 71722152 71722152 0 17964383 60062130 69370384 69370510 69370510 69370510
240765739 112 179195508 219295521 223493100 224554700 230924230 239984980 0 36018299 108941494 175878204 179498110 179498236 179498236 71722053 98 60030624 71721999 71721999 71721999 71721999 71721999 0 17964351 60062000 69370241 69370367 69370367 69370367
241336184 96 180234138 219554175 223809457 224877837 231311292 240536717 0 34748567 108734693 176646961 180319876 180319984 180319984 71845658 84 60068411 71845606 71845606 71845606 71845606 71845606 0 17354820 60015640 69459606 69459714 69459714 69459714
240765600 112 179195624 219295357 223490156 224549566 230902086 239981581 0 36018104 108941543 175878953 179498502 179498628 179498628 71720753 98 60029529 71720699 71720699 71720699 71720699 71720699 0 17964099 60060868 69369023 69369149 69369149 69369149
240765682 112 179195954 219294814 223485953 224552483 230942463 239987443 0 36017913 108941571 175879538 179498775 179498901 179498901 71719630 98 60028581 71719576 71719576 71719576 71719576 71719576 0 17963875 60059902 69367970 69368096 69368096 69368096
241336614 96 180234303 219556015 223812602 224898672 231423237 240551722 0 34748776 108734615 176645971 180319313 180319421 180319421 71847277 84 60069780 71847225 71847225 71847225 71847225 71847225 0 17355125 60017054 69461125 69461233 69461233 69461233
240765686 112 179195475 219296788 223493047 224555372 230934812 239987732 0 36018283 108941502 175878290 179498160 179498286 179498286 71721921 98 60030512 71721867 71721867 71721867 71721867 71721867 0 17964328 60061883 69370117 69370243 69370243 69370243
240765786 112 179195593 219295893 223491962 224551742 230921072 239986027 0 36018271 108941494 175878263 179498132 179498258 179498258 71721927 98 60030518 71721873 71721873 71721873 71721873 71721873 0 17964324 60061893 69370123 69370249 69370249 69370249
241336184 96 180234084 219554220 223808357 224877492 231307357 240541377 0 34748610 108734685 176646825 180319805 180319913 180319913 71845899 84 60068617 71845847 71845847 71845847 71845847 71845847 0 17354866 60015847 69459833 69459941 69459941 69459941
240765633 112 179195892 219294925 223488874 224549899 230905614 239985194 0 36017923 108941576 175879533 179498787 179498913 179498913 71719684 98 60028625 71719630 71719630 71719630 71719630 71719630 0 17963888 60059946 69368020 69368146 69368146 69368146
240765515 112 179196107 219294778 223488532 224560947 230940607 239989726 0 36017666 108941638 175880489 179499278 179499404 179499404 71717991 98 60027197 71717937 71717937 71717937 71717937 71717937 0 17963559 60058477 69366433 69366559 69366559 69366559
241844256 128 178267805 220518243 224684641 225754226 232109946 241071857 0 35800425 108237706 174727524 178322610 178322754 178322754 72454777 112 59640131 72454713 72454713 72454713 72454713 72454713 0 18335581 60872774 70118665 70118809 70118809 70118809
241339748 96 180238490 219559199 223824631 224925036 231473311 240557491 0 34748032 108734470 176646330 180318950 180319058 180319058 71845201 84 60068039 71845149 71845149 71845149 71845149 71845149 0 17354621 60015364 69459183 69459291 69459291 69459291
240765729 112 179195495 219296226 223493810 224558830 230941045 239986290 0 36018313 108941493 175878170 179498095 179498221 179498221 71722119 98 60030680 71722065 71722065 71722065 71722065 71722065 0 17964364 60062058 69370303 69370429 69370429 69370429
240765755 112 179195477 219296082 223493941 224556076 230927001 239986006 0 36018335 108941486 175878066 179498040 179498166 179498166 71722304 98 60030835 71722250 71722250 71722250 71722250 71722250 0 17964401 60062216 69370476 69370602 69370602 69370602
241336587 105 180234464 219554106 223810432 224879151 231315111 240538121 0 34748506 108735113 176647370 180320225 180320335 180320335 71846150 84 60068788 71845933 71846019 71846019 71846019 71846019 0 17354782 60016094 69460100 69460208 69460208 69460208
240791822 112 179228112 219324938 223518826 224578166 230931621 240006921 0 36014972 108973747 175904596 179524060 179524186 179524186 71767670 98 60077015 71767610 71767610 71767610 71767610 71767610 0 17963728 60103994 69415840 69415966 69415966 69415966
240996524 112 179485292 219551358 223738505 224799955 231160405 240216795 0 35987858 109226758 176114624 179729020 179729146 179729146 72119390 98 60435761 72119336 72119336 72119336 72119336 72119336 0 17957324 60428139 69767410 69767536 69767536 69767536
242171092 96 181276359 220484025 224720230 225804985 232308200 241389290 0 34643649 109766785 177492505 181150016 181150124 181150124 73293538 84 61541681 73293486 73293486 73293486 73293486 73293486 0 17337860 61352689 70913158 70913266 70913266 70913266
242820080 112 181763902 221582298 225732601 226786191 233097261 242049291 0 35756646 111480081 177961585 181542260 181542386 181542386 75285412 98 63657498 75285358 75285358 75285358 75285358 75285358 0 17915475 63349328 72939346 72939472 72939472 72939472
244786337 112 184223428 223770181 227877368 228917543 235141973 244020938 0 35505090 113909051 179955751 183498637 183498763 183498763 78696627 98 67129733 78696573 78696573 78696573 78696573 78696573 0 17866129 66495187 76352833 76352959 76352959 76352959
247843561 96 188359004 226788584 230903784 231942944 238167039 247076809 0 33930374 116785539 183249466 186798568 186798676 186798676 83119436 84 71542239 83119384 83119384 83119384 83119384 83119384 0 17222171 70431069 80781982 80782090 80782090 80782090
250512036 112 191378164 230142814 234130557 235156652 241266517 249785427 0 34779286 120985943 185759685 189194687 189194813 189194813 88628593 98 77237664 88628539 88628539 88628539 88628539 88628539 0 17735965 75661631 86307573 86307699 86307699 86307699
254811840 104 196989788 234789500 238688335 239666260 245558445 254079350 0 33901453 126132947 190308489 193683270 193683387 193683387 96019435 91 84725203 96019386 96019386 96019386 96019386 96019386 0 17648495 82469334 93764342 93764459 93764459 93764459
256200753 88 200839968 236201765 240118378 241111973 247110697 255476002 0 33284201 129325140 193783737 197157285 197157384 197157384 98821717 77 88694315 98821670 98821670 98821670 98821670 98821670 0 16626056 84802467 96459320 96459419 96459419 96459419
266493183 112 211362296 247926196 251554594 252494624 258014280 265824000 0 32740167 140731619 201967346 205096277 205096403 205096403 116350322 98 105454283 116350268 116350268 116350268 116350268 116350268 0 17347714 101232170 114064020 114064146 114064146 114064146
267491607 80 215173406 248620179 252306134 253226359 258804504 266796389 0 31533624 143125853 205424320 208606554 208606644 208606644 118323985 70 108506625 118323943 118323943 118323943 118323943 118323943 0 16409736 102805366 116096123 116096213 116096213 116096213
276098569 80 225913136 258190867 261692297 262573912 267915052 275453587 0 30457325 153778100 214155472 217175707 217175797 217175797 133234266 70 123680031 133234224 133234224 133234224 133234224 133234224 0 16247282 116585884 131086336 131086426 131086426 131086426
280520054 96 231193535 263522401 266843950 267687005 272737975 279903255 0 31016158 160089748 218434252 221300043 221300151 221300151 141854072 84 132549705 141854028 141854028 141854028 141854028 141854028 0 16579248 124598590 139540892 139541000 139541000 139541000
286081411 80 238388710 269296044 272576819 273414309 278411699 285472739 0 29190838 166119165 224281750 227111596 227111686 227111686 150544883 70 141298723 150544841 150544841 150544841 150544841 150544841 0 16021258 132561667 148440369 148440459 148440459 148440459
290626565 80 244066189 274350528 277529033 278338983 283149423 290030128 0 28616774 171740060 228892657 231635945 231636035 231636035 158422786 70 149316601 158422744 158422744 158422744 158422744 158422744 0 15923564 139835803 156345186 156345276 156345276 156345276
296835323 96 251618433 281691170 284653174 285420829 289954774 296297199 0 28911707 180228419 234974210 237527016 237527124 237527124 170187908 84 161390986 170187864 170187864 170187864 170187864 170187864 0 16136204 150700532 167845458 167845566 167845566 167845566
298685192 64 256418677 283298719 286304975 287047625 291608240 298120720 0 27669306 183736925 239310051 241905574 241905646 241905646 173556135 56 165854937 173556103 173556103 173556103 173556103 173556103 0 15331931 153656671 171481671 171481743 171481743 171481743
304261911 80 261110886 289523884 292407349 293158939 297562499 303734189 0 26882111 188591824 242721264 245205072 245205162 245205162 182077100 70 173391810 182077058 182077058 182077058 182077058 182077058 0 15605362 161657772 180044686 180044776 180044776 180044776
306028652 64 265593439 291467039 294308330 295016300 299323975 305490885 0 26739511 192817152 246760380 249216092 249216164 249216164 186289639 56 178814731 186289607 186289607 186289607 186289607 186289607 0 15171843 165408755 184254937 184255009 184255009 184255009
307941675 64 267985292 293593677 296390348 297092288 301293643 307421363 0 26495862 195182319 248704324 251121919 251121991 251121991 189601104 56 182186141 189601072 189601072 189601072 189601072 189601072 0 15127916 168464813 187575754 187575826 187575826 187575826
309293230 80 267399360 295124803 297907313 298624083 302883223 308782408 0 26241958 194810459 247822378 250212403 250212493 250212493 190817575 70 182286550 190817533 190817533 190817533 190817533 190817533 0 15490291 169716102 188801983 188802073 188802073 188802073
308856993 64 269129677 294615510 297393321 298092286 302338006 308338101 0 26378656 196312886 249630673 252032284 252032356 252032356 191198311 56 183810908 191198279 191198279 191198279 191198279 191198279 0 15106099 169934127 189173211 189173283 189173283 189173283
308935353 88 267154757 294862502 297604443 298299418 302422093 308423678 0 26772744 194892212 247619862 249990814 249990913 249990913 190989765 77 182487550 190989726 190989726 190989726 190989726 190989726 0 15993364 169932474 188939459 188939558 188939558 188939558
308303613 72 268078896 294313513 297061172 297769912 301982312 307801147 0 26998240 195877948 248687234 251047034 251047115 251047115 190487601 63 183168306 190487564 190487564 190487564 190487564 190487564 0 14875927 169167248 188068739 188068820 188068820 188068820
308858695 64 269131808 294616772 297393898 298091018 302328108 308336878 0 26378427 196314883 249632288 252033874 252033946 252033946 191201219 56 183813866 191201187 191201187 191201187 191201187 191201187 0 15106031 169936772 189176081 189176153 189176153 189176153
308916747 72 269010257 294681196 297455564 298156454 302326464 308399659 0 26363370 196208382 249497735 251896331 251896412 251896412 191193942 63 183709967 191193905 191193905 191193905 191193905 191193905 0 15137354 169942386 189169983 189170064 189170064 189170064
309430532 72 267766449 295275648 298055406 298768296 303019791 308919651 0 26231084 195158375 248158104 250545819 250545900 250545900 191158195 63 182730717 191158158 191158158 191158158 191158158 191158158 0 15453121 170018015 189142166 189142247 189142247 189142247
308858667 64 269131794 294617344 297395095 298094030 302339760 308339820 0 26378420 196314950 249632383 252033958 252034030 252034030 191201264 56 183813916 191201232 191201232 191201232 191201232 191201232 0 15106029 169936817 189176128 189176200 189176200 189176200
309490332 80 267647761 295340230 298100975 298809815 302969935 308977995 0 26215353 195054243 248027223 250410926 250411016 250411016 191150039 70 182626554 191149997 191149997 191149997 191149997 191149997 0 15483654 170023470 189135435 189135525 189135525 189135525
308857121 64 269129211 294616353 297408524 298111364 302360509 308337804 0 26379045 196312686 249628885 252031410 252031482 252031482 191201998 56 183814080 191201966 191201966 191201966 191201966 191201966 0 15106754 169936892 189176634 189176706 189176706 189176706
308858598 64 269131661 294616756 297395267 298095197 302347516 308342656 0 26378458 196314801 249632162 252033790 252033862 252033862 191201268 56 183813890 191201236 191201236 191201236 191201236 191201236 0 15106065 169936790 189176120 189176192 189176192 189176192
308565126 88 266453674 294658889 297368260 298058325 302138516 308059701 0 27184823 194604613 246995275 249338097 249338196 249338196 190516976 77 182060326 190516937 190516937 190516937 190516937 190516937 0 15840035 169422664 188205008 188205107 188205107 188205107
308673784 72 268779897 294517424 297297508 298010408 302262263 308162888 0 26586176 196165484 249311731 251699687 251699768 251699768 190960409 63 183595534 190960372 190960372 190960372 190960372 190960372 0 15029276 169677060 188803203 188803284 188803284 188803284
308858628 64 269131723 294617280 297394946 298093921 302339746 308339796 0 26378440 196314898 249632288 252033889 252033961 252033961 191201319 56 183813956 191201287 191201287 191201287 191201287 191201287 0 15106048 169936851 189176177 189176249 189176249 189176249
309490388 80 267647846 295340296 298101196 298810101 302970456 308978041 0 26215336 195054318 248027331 250411007 250411097 250411097 191150018 70 182626548 191149976 191149976 191149976 191149976 191149976 0 15483635 170023466 189135420 189135510 189135510 189135510
308857097 64 269129188 294616314 297408400 298111180 302359940 308337630 0 26379044 196312661 249628868 252031393 252031465 252031465 191201976 56 183814058 191201944 191201944 191201944 191201944 191201944 0 15106754 169936873 189176612 189176684 189176684 189176684
308858588 64 269131644 294616760 297395276 298095191 302347556 308342801 0 26378462 196314786 249632130 252033767 252033839 252033839 191201292 56 183813909 191201260 191201260 191201260 191201260 191201260 0 15106071 169936806 189176142 189176214 189176214 189176214
309490339 80 267647698 295341162 298105592 298825952 303024192 308981902 0 26215387 195053912 248026760 250410543 250410633 250410633 191149954 70 182626409 191149912 191149912 191149912 191149912 191149912 0 15483723 170023335 189135326 189135416 189135416 189135416
308857076 64 269129240 294615628 297403749 298094444 302294764 308329839 0 26379013 196313075 249629420 252031867 252031939 252031939 191202132 56 183814274 191202100 191202100 191202100 191202100 191202100 0 15106689 169937071 189176792 189176864 189176864 189176864
308858530 64 269131517 294616877 297395248 298095228 302356768 308346488 0 26378498 196314584 249631836 252033535 252033607 252033607 191201282 56 183813859 191201250 191201250 191201250 191201250 191201250 0 15106119 169936757 189176116 189176188 189176188 189176188
308381996 96 266104707 294560243 297257367 297957492 302035972 307882217 0 27391873 194457760 246678645 249006762 249006870 249006870 190275316 84 181841789 190275272 190275272 190275272 190275272 190275272 0 15762457 169162849 187831538 187831646 187831646 187831646
308857118 64 269129213 294616340 297408386 298110851 302359136 308337506 0 26379041 196312682 249628889 252031411 252031483 252031483 191201986 56 183814073 191201954 191201954 191201954 191201954 191201954 0 15106747 169936888 189176624 189176696 189176696 189176696
308858568 64 269131614 294616765 297395311 298095186 302347776 308342921 0 26378468 196314762 249632090 252033739 252033811 252033811 191201320 56 183813927 191201288 191201288 191201288 191201288 191201288 0 15106085 169936820 189176166 189176238 189176238 189176238
309490311 80 267647651 295341139 298105524 298826024 303024489 308981879 0 26215400 195053874 248026704 250410499 250410589 250410589 191149951 70 182626401 191149909 191149909 191149909 191149909 191149909 0 15483730 170023326 189135321 189135411 189135411 189135411
308857093 64 269129276 294615625 297403706 298094276 302294301 308329831 0 26379000 196313100 249629467 252031902 252031974 252031974 191202117 56 183814264 191202085 191202085 191202085 191202085 191202085 0 15106681 169937064 189176779 189176851 189176851 189176851
308858530 64 269131515 294616857 297395233 298095258 302356718 308346458 0 26378500 196314586 249631840 252033537 252033609 252033609 191201279 56 183813856 191201247 191201247 191201247 191201247 191201247 0 15106120 169936754 189176113 189176185 189176185 189176185
309490178 80 267647418 295341586 298107556 298834981 303062106 308983471 0 26215458 195053621 248026316 250410208 250410298 250410298 191150036 70 182626426 191149994 191149994 191149994 191149994 191149994 0 15483806 170023341 189135382 189135472 189135472 189135472
308858028 64 269130878 294615045 297400651 298084691 302246451 308326381 0 26378606 196314658 249631838 252033657 252033729 252033729 191201727 56 183814249 191201695 191201695 191201695 191201695 191201695 0 15106208 169937097 189176539 189176611 189176611 189176611
308857784 64 269130264 294617181 297396752 298096932 302364552 308347757 0 26378800 196313451 249630103 252032263 252032335 252032335 191201616 56 183813913 191201584 191201584 191201584 191201584 191201584 0 15106475 169936770 189176338 189176410 189176410 189176410
308382028 96 266104659 294560690 297261724 297973074 302094619 307886934 0 27391912 194457374 246678101 249006308 249006416 249006416 190275198 84 181841611 190275154 190275154 190275154 190275154 190275154 0 15762523 169162684 187831396 187831504 187831504 187831504
308857085 64 269129264 294615607 297403683 298094228 302293938 308329863 0 26379003 196313097 249629462 252031896 252031968 252031968 191202121 56 183814268 191202089 191202089 191202089 191202089 191202089 0 15106681 169937067 189176783 189176855 189176855 189176855
308858539 64 269131534 294616921 297395257 298095237 302356807 308346282 0 26378492 196314594 249631856 252033551 252033623 252033623 191201278 56 183813855 191201246 191201246 191201246 191201246 191201246 0 15106118 169936756 189176112 189176184 189176184 189176184
309490125 80 267647329 295341499 298107434 298834894 303062434 308983613 0 26215481 195053543 248026206 250410125 250410215 250410215 191150030 70 182626405 191149988 191149988 191149988 191149988 191149988 0 15483827 170023319 189135370 189135460 189135460 189135460
308858077 64 269130955 294615068 297400709 298084729 302246084 308326295 0 26378588 196314731 249631942 252033734 252033806 252033806 191201713 56 183814250 191201681 191201681 191201681 191201681 191201681 0 15106186 169937102 189176531 189176603 189176603 189176603
308857764 64 269130230 294617176 297396707 298096937 302364622 308347882 0 26378809 196313414 249630042 252032222 252032294 252032294 191201639 56 183813926 191201607 191201607 191201607 191201607 191201607 0 15106490 169936777 189176357 189176429 189176429 189176429
309490128 80 267647346 295341591 298108696 298839426 303088731 308985556 0 26215472 195053586 248026272 250410177 250410267 250410267 191150025 70 182626410 191149983 191149983 191149983 191149983 191149983 0 15483813 170023327 189135369 189135459 189135459 189135459
308859089 64 269132595 294614851 297395577 298080607 302237962 308326817 0 26378212 196316003 249633920 252035147 252035219 252035219 191201216 56 183814088 191201184 191201184 191201184 191201184 191201184 0 15105757 169936996 189176168 189176240 189176240 189176240
308856892 64 269128816 294617194 297399730 298095395 302343120 308344900 0 26379137 196312313 249628328 252030995 252031067 252031067 191202069 56 183814066 191202037 191202037 191202037 191202037 191202037 0 15106861 169936870 189176671 189176743 189176743 189176743
308381662 96 266104019 294561099 297264073 297982013 302138183 307889393 0 27392070 194456702 246677093 249005550 249005658 249005658 190275331 84 181841589 190275287 190275287 190275287 190275287 190275287 0 15762718 169162645 187831467 187831575 187831575 187831575
308858115 64 269131016 294615052 297400708 298084688 302245883 308326273 0 26378576 196314783 249632024 252033794 252033866 252033866 191201693 56 183814245 191201661 191201661 191201661 191201661 191201661 0 15106169 169937097 189176517 189176589 189176589 189176589
308857744 64 269130202 294617196 297396787 298096957 302364422 308347847 0 26378812 196313389 249630013 252032199 252032271 252032271 191201627 56 183813909 191201595 191201595 191201595 191201595 191201595 0 15106494 169936765 189176343 189176415 189176415 189176415
309490121 80 267647338 295341584 298108799 298839574 303089024 308985634 0 26215474 195053587 248026263 250410171 250410261 250410261 191150069 70 182626449 191150027 191150027 191150027 191150027 191150027 0 15483821 170023360 189135411 189135501 189135501 189135501
308859075 64 269132572 294614872 297395438 298080548 302238303 308326813 0 26378215 196315977 249633889 252035124 252035196 252035196 191201198 56 183814065 191201166 191201166 191201166 191201166 191201166 0 15105761 169936976 189176148 189176220 189176220 189176220
308856919 64 269128864 294617216 297399842 298095392 302342687 308344842 0 26379125 196312351 249628388 252031040 252031112 252031112 191202053 56 183814060 191202021 191202021 191202021 191202021 191202021 0 15106851 169936865 189176659 189176731 189176731 189176731
309489988 80 267647110 295341531 298111121 298845441 303111126 308986556 0 26215527 195053388 248025965 250409951 250410041 250410041 191150103 70 182626438 191150061 191150061 191150061 191150061 191150061 0 15483876 170023345 189135427 189135517 189135517 189135517
308858622 64 269131749 294615604 297394075 298083955 302268810 308329175 0 26378432 196315014 249632446 252034028 252034100 252034100 191201339 56 183813991 191201307 191201307 191201307 191201307 191201307 0 15106032 169936883 189176203 189176275 189176275 189176275
308857322 64 269129594 294616859 297399095 298085880 302284800 308340285 0 26378933 196313234 249629703 252032046 252032118 252032118 191201940 56 183814137 191201908 191201908 191201908 191201908 191201908 0 15106610 169936962 189176622 189176694 189176694 189176694
308381717 96 266104123 294560919 297266108 297988018 302172903 307893223 0 27392043 194456826 246677278 249005690 249005798 249005798 190275319 84 181841607 190275275 190275275 190275275 190275275 190275275 0 15762682 169162660 187831467 187831575 187831575 187831575
308859071 64 269132563 294614893 297395284 298080464 302238514 308326804 0 26378221 196315976 249633888 252035119 252035191 252035191 191201192 56 183814064 191201160 191201160 191201160 191201160 191201160 0 15105757 169936976 189176144 189176216 189176216 189176216
308856918 64 269128866 294617235 297399956 298095431 302342346 308344766 0 26379120 196312352 249628390 252031043 252031115 252031115 191202065 56 183814067 191202033 191202033 191202033 191202033 191202033 0 15106853 169936873 189176669 189176741 189176741 189176741
309489941 80 267647028 295341484 298111009 298845419 303111329 308986554 0 26215549 195053314 248025844 250409866 250409956 250409956 191150134 70 182626449 191150092 191150092 191150092 191150092 191150092 0 15483904 170023350 189135450 189135540 189135540 189135540
308858654 64 269131808 294615591 297394197 298084037 302269182 308329242 0 26378416 196315066 249632530 252034087 252034159 252034159 191201325 56 183813992 191201293 191201293 191201293 191201293 191201293 0 15106013 169936885 189176195 189176267 189176267 189176267
308857344 64 269129629 294616891 297399062 298085757 302284067 308340262 0 26378927 196313264 249629744 252032075 252032147 252032147 191201944 56 183814151 191201912 191201912 191201912 191201912 191201912 0 15106599 169936972 189176630 189176702 189176702 189176702
309490009 80 267647146 295341027 298113417 298850742 303130062 308989327 0 26215525 195053353 248025920 250409913 250410003 250410003 191150067 70 182626397 191150025 191150025 191150025 191150025 191150025 0 15483881 170023308 189135389 189135479 189135479 189135479
308858387 64 269131338 294615844 297392875 298086090 302293870 308330685 0 26378527 196314603 249631838 252033566 252033638 252033638 191201419 56 183813981 191201387 191201387 191201387 191201387 191201387 0 15106145 169936864 189176247 189176319 189176319 189176319
308858439 64 269131465 294616576 297397167 298079222 302244567 308339032 0 26378486 196314916 249632273 252033929 252034001 252034001 191201466 56 183814078 191201434 191201434 191201434 191201434 191201434 0 15106085 169936955 189176314 189176386 189176386 189176386
308380757 96 266102538 294560999 297268753 297993183 302196733 307892193 0 27392416 194455514 246675243 249004220 249004328 249004328 190275784 84 181841732 190275740 190275740 190275740 190275740 190275740 0 15763116 169162734 187831796 187831904 187831904 187831904
308858690 64 269131871 294615687 297394298 298084188 302269543 308329328 0 26378400 196315119 249632623 252034151 252034223 252034223 191201278 56 183813965 191201246 191201246 191201246 191201246 191201246 0 15105986 169936865 189176156 189176228 189176228 189176228
308857283 64 269129537 294616820 297398996 298085586 302283371 308340101 0 26378945 196313185 249629623 252031988 252032060 252032060 191201988 56 183814170 191201956 191201956 191201956 191201956 191201956 0 15106631 169936985 189176664 189176736 189176736 189176736
309490045 80 267647198 295341028 298113508 298850903 303130378 308989473 0 26215516 195053402 248025986 250409963 250410053 250410053 191150068 70 182626408 191150026 191150026 191150026 191150026 191150026 0 15483870 170023318 189135394 189135484 189135484 189135484
308858439 64 269131419 294615871 297392857 298086087 302294227 308330777 0 26378509 196314668 249631937 252033642 252033714 252033714 191201386 56 183813963 191201354 191201354 191201354 191201354 191201354 0 15106125 169936849 189176220 189176292 189176292 189176292
42933745 16 36294645 40987406 41365875 41467495 42017645 42868545 0 3364414 26297509 33519689 33846274 33846292 33846292 26343857 14 24649200 26343847 26343847 26343847 26343847 26343847 0 2257779 23503365 26130981 26130999 26130999 26130999
number of instructions: 107137310939
