275858902,224984,191142362,105045,84036774,28905,23117,276920,11321,3483,2038,1658,1105,692,498,0,0,0,0,0,0
285861256,863242,262699710,445606,2408102,246919,1355,10139756,3416,6025,10615,17866,29294,45946,67151,87294,102307,128986,86935,210048,8260683
285684357,0,265096878,89181,334352,5,239,10484384,43,206,260,502,1087,2289,3853,8767,16218,32646,65892,130866,9416689
285282016,2531,263594131,169883,256095,440,1148,11373137,102768,46201,21579,8982,11113,2712,3870,8696,16055,101808,67081,137603,9356183
284698614,0,263702589,390557,281,328,432,10914373,95030,2211,278,535,17845,2220,3716,8457,15612,31419,63433,126155,9323143
284821380,1,263669881,321059,33037,313,391,11092992,104206,3029,278,530,15773,2214,3713,8468,15601,31407,63502,126154,9328831
284872927,2,263567596,255241,65819,339,432,11280465,102111,7039,477,529,15799,2199,3709,8463,15611,31345,63500,126195,9326056
284823920,0,263638233,439161,283,328,400,11097973,56411,645,268,551,17844,2217,3715,8459,15616,31415,63405,126087,9320909
284805621,0,263647618,432066,284,328,406,11071462,62070,559,266,549,17843,2210,3714,8469,15580,31403,63503,126036,9321255
284833105,1,263553861,357942,33065,354,437,11225646,70205,3216,297,539,17872,2197,3703,8453,15577,31342,63469,126089,9318840
284914473,0,263591716,474282,285,328,375,11231997,26459,225,284,535,17840,2221,3717,8460,15606,31425,63411,126077,9319230
284857297,0,263621095,452102,286,328,402,11147774,45081,374,281,534,17844,2211,3716,8472,15569,31387,63508,126028,9320305
284747386,0,263564883,442516,317,369,455,11103431,51075,416,285,533,19940,2218,3702,8451,15583,31341,63406,126070,9312395
284874856,0,263612094,458915,286,328,436,11173277,39611,396,284,534,17844,2217,3706,8465,15610,31398,63399,126075,9319981
284847514,0,263626110,448309,286,328,406,11132983,48627,422,281,533,17844,2211,3721,8467,15566,31401,63469,126093,9320457
284755914,0,263560487,445822,321,369,427,11111970,51597,1138,288,533,19938,2198,3703,8451,15588,31340,63426,126036,9312282
284824719,0,263637818,439468,286,328,406,11100739,54707,494,284,534,17845,2218,3705,8468,15627,31394,63434,126043,9320921
284858366,0,263620549,452520,284,328,406,11146862,47199,382,281,536,17843,2211,3720,8473,15564,31422,63482,126064,9320240
284821768,0,263526701,471368,318,369,475,11210814,28950,259,285,530,19936,2197,3707,8445,15573,31332,63418,126008,9311083
284893726,0,263602392,466231,285,328,401,11200852,33755,302,286,534,17846,2219,3702,8467,15610,31386,63426,126073,9319631
284798083,0,263651499,429137,285,328,408,11062832,62151,481,279,537,17844,2229,3719,8474,15580,31427,63504,126042,9321327
284807718,0,263533901,465917,318,369,455,11190068,33576,320,285,530,19935,2201,3708,8440,15576,31334,63396,126079,9311310
284836034,0,263631990,443857,285,328,380,11117695,50780,439,287,535,17848,2217,3705,8472,15609,31370,63424,126086,9320727
284826330,0,263637014,440090,289,328,433,11098878,57678,1198,281,537,17844,2209,3717,8474,15571,31421,63484,126091,9320793
284779489,0,263548382,454967,319,369,426,11149115,42207,365,285,529,19936,2202,3709,8440,15593,31347,63419,125995,9311884
284751325,0,263675056,411041,671,332,415,10994244,77039,715,287,536,17848,2221,3703,8472,15641,31385,63480,126092,9322147
284863434,0,263617950,454484,290,328,433,11158878,41037,310,278,536,17844,2205,3722,8473,15575,31386,63458,126067,9320180
284821296,0,263526914,471182,321,369,426,11207766,31500,263,285,528,19937,2205,3705,8444,15573,31350,63451,126006,9311071
284829367,0,263635455,441270,282,328,427,11108371,52466,398,287,537,17847,2218,3704,8465,15617,31415,63424,126054,9320802
284829491,0,263635375,441318,287,328,406,11102539,57585,1272,281,536,17843,2203,3720,8476,15570,31377,63470,126104,9320801
284696618,0,263590950,422825,316,369,452,11029754,66510,566,288,527,19937,2226,3708,8445,15583,31374,63434,126038,9313316
284916817,0,263590531,475189,287,328,407,11231544,29489,296,284,538,17845,2216,3702,8467,15606,31387,63422,126060,9319219
284896684,0,263600863,467380,288,328,400,11206792,31260,253,280,536,17842,2203,3721,8475,15555,31387,63452,126080,9319589
284788942,0,263543543,458635,318,369,460,11163181,38964,331,287,527,19939,2210,3709,8440,15584,31346,63395,126035,9311669
284813825,0,263643417,435245,284,328,410,11085889,57092,485,283,538,17845,2216,3698,8468,15645,31400,63465,126056,9321061
284916059,0,263590919,474893,289,328,403,11230913,29289,268,280,535,17843,2202,3721,8474,15552,31366,63486,126075,9319223
284752423,0,263562281,444469,317,369,423,11110877,49479,361,287,528,19941,2211,3710,8441,15586,31370,63411,126033,9312329
284800166,0,263650428,429946,283,328,406,11061405,65133,1301,286,537,17843,2215,3700,8470,15613,31433,63463,126061,9321315
284821305,0,263639599,438142,287,328,430,11095950,55583,472,280,535,17844,2221,3719,8475,15561,31359,63465,126079,9320976
284784620,0,263545740,456958,320,369,427,11153705,43446,412,287,529,19940,2210,3712,8440,15594,31366,63391,126015,9311759
284909789,0,263594149,472463,287,328,429,11225461,27564,245,284,538,17840,2214,3699,8476,15604,31423,63421,126052,9319312
284912132,0,263592937,473373,285,328,407,11228231,27521,223,279,533,17844,2203,3718,8467,15555,31353,63452,126090,9319333
284709685,0,263584230,427894,315,369,436,11047944,63288,563,287,529,19942,2211,3712,8441,15631,31347,63437,126030,9313079
284862604,0,263618364,454162,288,328,403,11157029,41961,308,284,539,17840,2214,3699,8477,15591,31415,63446,126092,9320164
284849476,0,263573755,464160,310,357,444,11186387,37439,310,282,536,18278,2203,3717,8459,15557,31356,63462,125999,9316465
284791055,0,263593812,444365,293,340,406,11113630,50760,649,288,526,19507,2209,3715,8453,15596,31386,63430,126050,9315640
43965542,0,40750743,52253,36,41,83,1656081,22299,696,44,86,2261,350,561,1315,2418,4873,9828,19500,1442074
