1000000000,96464,89728,90759,92259,110610,89819,90844,91105,254268,91180,91656,89971,54310930,172910,91261
1000000000,644798,650736,644131,652390,645045,646754,644096,646034,802562,645116,644050,644373,140210341,1196831,643902
1000000000,682085,698092,681939,698344,682124,699389,681939,700395,1041821,691729,681941,689478,143061788,1282279,707757
1000000000,697925,705224,697000,708275,698533,705581,696766,704110,1038702,703911,696574,701118,143998857,1274023,718005
1000000000,703906,708074,703445,714314,704266,707275,703443,709957,1095035,704469,703451,703531,144756797,1306430,703314
1000000000,739399,743717,739041,743610,739749,741637,739041,741094,1094413,741499,739048,740050,144595432,1331592,739986
1000000000,746825,759201,746467,763710,747201,760988,746467,762020,1077275,754256,746474,751709,144678439,1336263,764033
1000000000,654781,656029,654427,655942,655157,655378,654423,655350,1094618,655233,654427,654567,144722043,1256486,654443
1000000000,661894,662793,661556,662678,662246,662281,661556,662195,1094508,662514,661564,661548,144727118,1266767,661580
1000000000,691595,698020,691268,698627,691937,698408,691268,698675,1086990,696341,691276,695008,144819400,1288383,698638
1000000000,619401,619158,619104,619139,619720,619178,619104,619138,1094354,619323,619112,619096,144696927,1217494,619128
1000000000,641692,641870,641402,641787,641962,641642,641402,641649,1094341,641986,641410,641394,144712785,1243708,641426
1000000000,650320,650496,649996,650439,650577,650232,649996,650261,1093452,650699,650005,649987,144972286,1255076,650023
1000000000,634847,634966,634558,634879,635069,634676,634555,634648,1094306,635047,634562,634546,144707915,1234487,634578
1000000000,645503,645827,645218,645719,645722,645369,645218,645357,1094363,645917,645226,645213,144715498,1247401,645242
1000000000,646984,647344,646671,647370,647233,646964,646671,646951,1093433,647290,646680,646662,144969921,1241610,646698
1000000000,654384,654653,654108,654495,654604,654252,654108,654196,1094411,654849,654116,654100,144721821,1259496,654132
1000000000,641255,641347,640983,641207,641441,641079,640983,641035,1094338,641628,640991,640975,144712488,1240592,641007
1000000000,621275,621051,620987,621018,621489,621041,620987,620982,1093293,621245,620996,620978,144951655,1218734,621014
1000000000,627405,627340,627201,627251,627628,627264,627198,627215,1094264,627587,627204,627188,144702682,1226192,627220
1000000000,664673,664917,664496,664761,664904,664587,664496,664572,1094467,665368,664504,664488,144729209,1273520,664520
1000000000,626663,626629,626466,626551,626925,626531,626466,626488,1093324,626859,626475,626457,144955552,1224571,626493
1000000000,649870,650082,649694,649929,650102,649761,649694,649725,1094388,650413,649702,649686,144718682,1254463,649718
1000000000,653654,654019,653488,653840,653894,653584,653484,653563,1094407,654243,653490,653474,144721374,1248807,653506
1000000000,637659,637678,637477,637577,637934,637533,637477,637465,1093386,637974,637486,637468,144963383,1238884,637504
1000000000,682863,683301,682699,683030,683227,682758,682697,682719,1094706,683897,682704,682694,144741722,1293754,682718
1000000000,639167,639091,639015,639066,639424,639054,639014,639004,1094325,639458,639020,639004,144711083,1243811,639034
1000000000,621340,621228,621172,621203,621630,621222,621172,621155,1093283,621534,621181,621163,144951787,1216174,621199
1000000000,652449,652488,652297,652389,652701,652355,652297,652285,1094396,652998,652305,652289,144720532,1259072,652321
1000000000,652397,652628,652247,652431,652647,652303,652247,652243,1094390,653028,652255,652239,144720498,1245634,652271
1000000000,669967,670142,669797,669960,670247,669858,669797,669788,1093553,670783,669806,669788,144986366,1279848,669824
1000000000,618339,618259,618187,618213,618587,618224,618187,618168,1094206,618510,618195,618179,144696277,1211496,618211
1000000000,626191,626078,626039,626051,626439,626081,626039,626025,1094250,626315,626047,626031,144701860,1226898,626063
1000000000,633964,633884,633793,633838,634246,633851,633790,633775,1093358,634272,633799,633781,144960760,1234106,633817
1000000000,658510,658596,658357,658443,658762,658408,658357,658348,1094428,659148,658365,658350,144724842,1265769,658381
1000000000,618635,618523,618485,618507,618885,618531,618485,618470,1094206,618813,618493,618477,144696488,1212592,618509
1000000000,648202,648150,648033,648086,648483,648086,648033,648017,1093432,648686,648042,648024,144970889,1253543,648060
1000000000,663835,663893,663684,663758,664084,663742,663684,663682,1094455,664564,663692,663676,144728631,1261870,663708
1000000000,655593,655622,655442,655531,655846,655503,655442,655426,1094411,656220,655450,655434,144722769,1261690,655466
1000000000,635644,635622,635473,635526,635923,635519,635473,635455,1093366,636074,635482,635464,144961957,1232604,635500
1000000000,621080,620943,620928,620929,621328,620969,620928,620912,1094222,621151,620936,620920,144698226,1219920,620952
1000000000,620166,620035,620015,620011,620415,620059,620015,619999,1094215,620263,620023,620007,144697576,1218197,620039
1000000000,664874,664958,664703,664796,665155,664770,664703,664685,1093527,665636,664712,664694,144982743,1271569,664730
1000000000,639482,639381,639330,639349,639730,639379,639330,639314,1094323,639820,639338,639322,144711312,1243354,639354
1000000000,628959,628860,628805,628819,629233,628845,628801,628778,1093865,629293,628805,628787,144822423,1225577,628822
1000000000,648784,648707,648624,648612,649042,648680,648624,648608,1093835,649231,648633,648617,144852707,1251206,648649
154430906,116979,117025,116960,116939,117010,116970,116960,116958,169316,117283,116961,116959,22301203,208183,116963
number,of,instructions:,46154430906
