1000006575,222792326,177287485,146541335,133701784
1000000000,225611606,179502501,147969949,134943863
1000000000,225615380,179505573,147971901,134944693
1000000000,225610863,179504651,147976590,134952084
1000000000,225612436,179502016,147968107,134939408
1000000000,225618594,179507201,147968809,134939282
1000000000,225617661,179507455,147970166,134941449
1000000000,225611308,179501771,147965383,134936887
1000000000,225612967,179504807,147971889,134945310
1000000000,225618716,179506954,147969699,134940749
1000000000,225616667,179505443,147968189,134939067
1000000000,225609932,179506856,147979084,134956409
1000000000,225614456,179507594,147975963,134950460
1000000000,225617675,179506655,147970774,134942622
1000000000,225616423,179507224,147972641,134945391
1000000000,225618225,179509835,147975678,134948835
1000000000,225624259,179509905,147968322,134937100
781806608,176382082,140323922,115662436,105471127
