1000000000,1778917845,782833713,1225859347,1239251242,276536085,451948942,645325252,774658920,917703819,1017552792,1097482533
1000000000,1782094884,790816963,1235055651,1246699033,277615762,457386584,654313198,784779604,929281248,1028374637,1107938497
1000000000,1782102781,790828577,1235071098,1246714479,277615237,457387546,654320190,784790551,929297063,1028391821,1107955016
1000000000,1782050521,790792325,1235021327,1246664968,277616828,457387652,654302062,784756252,929245947,1028343005,1107900095
1000000000,1782125351,790820298,1235084864,1246728757,277607742,457383356,654316363,784796801,929301738,1028397501,1107961919
1000000000,1782125948,790846938,1235096427,1246739902,277615197,457391927,654330472,784810514,929319751,1028413818,1107980617
1000000000,1782119558,790841176,1235085816,1246729529,277614694,457390397,654326439,784803610,929311981,1028405430,1107971703
1000000000,1782129978,790822198,1235087144,1246731190,277608088,457380847,654315120,784796367,929300899,1028397127,1107964353
1000000000,1782084109,790814589,1235049357,1246692746,277615446,457387982,654311769,784776418,929274843,1028369740,1107932117
1000000000,1782123935,790847663,1235091382,1246734605,277615819,457392243,654328731,784807213,929315133,1028409371,1107977336
1000000000,1782131517,790844176,1235094604,1246738216,277612860,457388355,654326072,784808057,929316905,1028411354,1107979873
1000000000,1782038144,790783947,1235012713,1246656563,277617510,457386519,654297448,784749067,929231660,1028329922,1107888656
1000000000,1782072668,790813457,1235043790,1246687340,277617177,457391499,654312406,784775648,929268775,1028364653,1107926280
1000000000,1782120407,790838523,1235087040,1246730572,277613749,457389120,654324693,784804192,929308544,1028403324,1107970264
1000000000,1782102695,790830962,1235071240,1246715024,277615261,457390942,654321092,784794066,929295146,1028390171,1107955536
1000000000,1782089978,790830507,1235068795,1246712373,277616952,457391622,654321779,784792045,929291801,1028388083,1107952060
1000000000,1782160935,790878705,1235130350,1246773786,277615085,457394938,654344563,784835769,929354889,1028448675,1108021018
781806608,1393393451,618315171,965671739,974774164,217026633,357576341,511565167,613605967,726613277,804079059,866295304
number,of,instructions:,17781806608
