216997069,474182,191690271,196179943,201476022,211658682,216964083,216964651,22503,42869397,77248796,90035229,96078714,103544904,116341763,96813376,263537,88170187,90263069,94772308,96807130,96808453,96809661,0,33717716,77979063,88988731,91436806,91438575,91438576
217697606,9518,191996312,196395905,201578789,212170540,217690464,217690578,0,42227081,77135754,89491892,95314583,102638574,115935690,95007004,0,86302772,88462143,92889985,95005540,95006619,95006961,0,34111220,77861462,88215986,90685064,90685178,90685178
217699407,9520,192000406,196401388,201587674,212174575,217692308,217692422,0,42226698,77136357,89490339,95317235,102642035,115938675,95005863,0,86304267,88463857,92888899,95004443,95005519,95005861,0,34111222,77859897,88214328,90683464,90683578,90683578
217699529,9522,192006311,196408874,201587449,212174718,217692429,217692544,0,42227319,77133450,89491965,95319671,102637472,115940570,95013757,0,86314319,88473811,92896725,95012335,95013410,95013755,0,34111022,77864599,88219820,90688679,90688794,90688794
217696030,9517,191993927,196401515,201578061,212165799,217688763,217688877,0,42225495,77137462,89491343,95322324,102636090,115940930,95002820,0,86301568,88462172,92885293,95001394,95002476,95002818,0,34111325,77858288,88211936,90681694,90681808,90681808
217701450,9520,192006086,196405966,201582058,212173971,217694323,217694437,0,42225576,77136409,89489356,95316718,102631724,115939154,95001142,0,86304207,88463841,92884151,94999722,95000798,95001140,0,34111957,77857069,88211062,90680536,90680650,90680650
217699958,9519,192001942,196403082,201583773,212175041,217692842,217692957,0,42225607,77136190,89488711,95311575,102631196,115938861,95002293,0,86303929,88463503,92885349,95000870,95001946,95002291,0,34111645,77858205,88212368,90681766,90681881,90681881
217695512,9517,191991328,196394737,201580181,212169259,217688289,217688403,0,42224766,77136268,89489964,95314508,102637337,115942139,95000990,0,86299251,88460091,92883226,94999571,95000646,95000988,0,34110252,77857124,88210652,90680352,90680466,90680466
217700483,9520,192005220,196402038,201584936,212173289,217693384,217693498,0,42226901,77134479,89489797,95310301,102632671,115939266,95008835,0,86308599,88468085,92892188,95007415,95008491,95008833,0,34111085,77861418,88216131,90685217,90685331,90685331
217701612,9522,192005315,196402061,201580454,212175736,217694514,217694629,0,42226274,77136626,89489303,95309961,102632959,115938793,95001354,0,86302735,88462319,92884633,94999932,95001007,95001352,0,34111637,77857295,88211377,90680777,90680892,90680892
217700338,9517,192002681,196400754,201583055,212175462,217693203,217693317,0,42226139,77137465,89489498,95311544,102634242,115939462,95000827,0,86301946,88461844,92883864,94999404,95000483,95000825,0,34111310,77856707,88210544,90680142,90680256,90680256
217699359,9522,192008972,196406610,201584920,212178689,217692231,217692346,0,42228076,77132805,89492142,95312374,102634679,115943506,95014022,0,86316618,88476132,92896919,95012599,95013675,95014020,0,34110919,77864910,88220065,90688859,90688974,90688974
217701015,9517,192008266,196405191,201581365,212176435,217693918,217694032,0,42227191,77135895,89494369,95314137,102633202,115940828,95009258,0,86309957,88469390,92892234,95007838,95008914,95009256,0,34111652,77862331,88217183,90686254,90686368,90686368
217699990,9520,192003412,196401537,201575465,212174183,217692855,217692969,0,42226094,77136548,89493906,95315692,102634521,115940318,95001667,0,86301959,88461799,92884488,95000246,95001323,95001665,0,34111427,77857431,88211405,90680854,90680968,90680968
217700662,9519,192007232,196404860,201580014,212173536,217693546,217693661,0,42226568,77135987,89494315,95316230,102632311,115940353,95004574,0,86306448,88466138,92887187,95003150,95004227,95004572,0,34111590,77859423,88213723,90683017,90683132,90683132
217701948,9520,192010514,196407316,201581210,212176463,217694849,217694963,0,42227009,77135774,89494625,95313249,102632002,115941419,95006079,0,86308927,88468343,92888953,95004660,95005735,95006077,0,34111592,77859837,88214350,90683532,90683646,90683646
217703035,9517,192005881,196402346,201577820,212166436,217695938,217696052,0,42225835,77139342,89492880,95311353,102631213,115938472,94995448,0,86297177,88456609,92878696,94994028,94995104,94995446,0,34111940,77853666,88207336,90677050,90677164,90677164
170191480,7444,150080097,153529961,157599287,165859456,170185839,170185929,0,33010195,60310735,69961907,74508363,80247339,90615436,74259361,0,67447376,69137299,72604508,74258243,74259089,74259359,0,26666970,60861286,68954490,70885738,70885828,70885828
