1000009544 191425158 166237076 157408496 149732120
1000000000 191444501 165963643 157310991 149419289
1000000000 191484530 165955984 157312747 149394485
1000000000 191213919 165953108 157284915 149481356
1000000000 191132586 165915940 157246555 149450426
1000000000 191108532 165913994 157254556 149452654
1000000000 191090711 165917960 157267860 149463358
1000000030 186968881 152731096 136527677 121407554
1000000000 175344791 122540436 90277597 57742038
1000000000 176366237 122378578 89808865 57602034
1000000000 175344358 122540691 90278090 57742040
1000000000 176366760 122378287 89808309 57602025
1000000000 175344302 122540733 90278152 57742058
1000000000 176366722 122378260 89808336 57602007
1000000000 175343704 122541098 90278809 57742051
1000000000 176367399 122377877 89807605 57602012
1000000000 175343022 122541452 90279517 57742055
1000000000 176368101 122377559 89806888 57602027
1000000000 175243949 122440637 90190614 57707675
1000000000 176467126 122478368 89895838 57636398
1000000000 174992729 122185526 89964451 57619361
1000000000 176717869 122733747 90122507 57724703
1000000000 175036802 122279123 90065462 57788240
1000000000 176673840 122640103 90021443 57555835
1000000000 175258318 122419659 90080986 57773753
1000000000 176452651 122499400 90005557 57570317
1000000000 175479507 122560363 90096872 57759270
1000000000 176231788 122358531 89989333 57584879
1000000000 175683624 122527174 90030575 57722413
1000000000 175982898 122354584 90014810 57609939
1000000000 175531650 122350202 89830293 57661036
1000000000 175563794 122059291 89691048 57524119
1000000000 173934059 121375860 89102318 57526798
1000000000 175297508 121491000 88704533 57181331
1000000000 173216289 120776732 88321503 57198261
1000000000 172714132 119362157 86462646 56669300
1000000000 171252066 119149055 86516616 56703418
1000000000 170347546 118398994 85375897 56481636
1000000000 167992646 116451249 83521704 55888905
1000000000 166019224 114815644 81708255 55400963
1000000000 164670675 113719918 80184158 55061758
1000000000 161708296 111246973 77754935 54335391
1000000000 159826106 110670387 77105350 54280090
1000000000 159865462 109729165 76067234 53878642
1000000000 155649713 107207172 73273412 53250963
1000000000 157048666 107461738 73244308 53153661
1000000000 153596733 105522829 71406314 52734536
1000000000 152029801 104223915 69978193 52352592
1000000000 151158926 103491538 69194914 52134027
1000000000 151790057 103062097 68703860 51894680
1000000000 150289756 102785444 68412343 51925138
1000000000 150143726 102663242 68286621 51885084
1000000000 150137920 102658649 68281902 51883662
1000000000 150138130 102659944 68281859 51884853
1000000000 150137832 102658163 68281951 51883157
1000000000 150137913 102658328 68281821 51883513
1000000000 150137891 102658593 68281947 51883552
1000000000 150138347 102661552 68281885 51886165
1000000000 151227774 102580470 68206728 51741775
1000000000 150137880 102658669 68282113 51883370
1000000000 150137886 102658628 68281962 51883552
1000000000 150137899 102658270 68281847 51883428
1000000000 150138021 102659492 68281923 51884360
1000000000 150137928 102658692 68281926 51883661
1000000000 150137910 102658439 68281860 51883553
1000000000 150137910 102658364 68281848 51883488
1000000000 150137847 102658422 68281980 51883361
1000000000 150100133 102618707 68248354 51870425
1000000000 151321566 103294886 68707649 51945584
1000000000 150889363 102758545 68350234 51855865
1000000000 150137835 102658392 68282013 51883281
1000000000 150137879 102658312 68281886 51883394
1000000000 150137929 102658744 68281897 51883743
1000000000 150138129 102659916 68281864 51884821
1000000000 150137829 102658172 68281948 51883183
1000000000 150137901 102658227 68281831 51883414
1000000000 150137910 102658593 68281917 51883584
1000000000 150138318 102661522 68281903 51886112
1000000000 151227838 102580688 68206613 51742137
1000000000 150137828 102658506 68282237 51883057
1000000000 150137896 102658682 68281963 51883594
1000000000 150137877 102658167 68281844 51883347
1000000000 150138035 102659525 68281918 51884380
1000000000 150137944 102658752 68281903 51883754
1000000000 150137894 102658401 68281887 51883471
1000000000 150137899 102658294 68281850 51883448
1000000000 150137873 102658488 68281955 51883432
1000000000 150118778 102640313 68264886 51878511
1000000000 151247475 102602832 68223887 51750183
1000000000 150137798 102658044 68281984 51883011
1000000000 150137859 102658300 68281923 51883341
1000000000 150137912 102658533 68281886 51883577
1000000000 150138226 102660717 68281867 51885486
1000000000 150137723 102657323 68281952 51882469
1000000000 150137923 102658380 68281826 51883539
1000000000 150137890 102658398 68281888 51883469
1000000000 150138086 102659987 68281955 51884730
1000000000 150056466 102607461 68308298 51985562
1000000000 152108257 103403645 68714702 51802465
1000000000 150146070 102659442 68283317 51882373
1000000000 150137872 102658517 68281960 51883459
1000000000 150137886 102658188 68281843 51883353
1000000000 150138024 102659499 68281923 51884372
1000000000 150137967 102658869 68281902 51883861
1000000000 150137904 102658476 68281886 51883527
457843212 69053211 46601338 30970158 23593834
number of instructions: 105457843212
