213718391,14834,86547702,30258460,36378734,18055827,10848477,31525088,9907,2849,1718,1499,1025,382,71889,0,0,0,0,0,0
231127659,48277,85956754,40510778,60148567,23046802,385230,1857922,8885622,137,6,34394,838644,0,2530,96,4582371,4829529,0,0,0
231551869,0,85963509,40791077,60912888,23214683,7675,812491,9176610,0,0,35612,866138,0,0,0,4748671,5022515,0,0,0
231613770,0,85974460,40802458,60934145,23225419,7650,811575,9181183,0,0,35496,866624,0,0,0,4750904,5023856,0,0,0
231551728,0,85963482,40791050,60912829,23214669,7675,812493,9176600,0,0,35612,866142,0,0,0,4748666,5022510,0,0,0
231583787,0,85969096,40796796,60924017,23220247,7650,811990,9179033,0,0,35523,866450,0,0,0,4749807,5023178,0,0,0
231580863,0,85968673,40796559,60922610,23219760,7675,812083,9178689,0,0,35585,866340,0,0,0,4749732,5023157,0,0,0
231551731,0,85963474,40791053,60912837,23214674,7675,812492,9176598,0,0,35612,866140,0,0,0,4748666,5022510,0,0,0
231615115,0,85974727,40802717,60934689,23225537,7650,811565,9181316,0,0,35496,866622,0,0,0,4750922,5023874,0,0,0
231551729,0,85963481,40791051,60912829,23214670,7675,812493,9176600,0,0,35612,866142,0,0,0,4748666,5022510,0,0,0
231612920,0,85974288,40802304,60933797,23225337,7650,811580,9181122,0,0,35496,866648,0,0,0,4750873,5023825,0,0,0
231551729,0,85963481,40791051,60912829,23214670,7675,812493,9176600,0,0,35612,866142,0,0,0,4748666,5022510,0,0,0
231601337,0,85972220,40800122,60929934,23223286,7650,811740,9180315,0,0,35505,866562,0,0,0,4750435,5023568,0,0,0
231565509,0,85965982,40793647,60917592,23216925,7675,812317,9177599,0,0,35603,866200,0,0,0,4749153,5022816,0,0,0
231551730,0,85963483,40791053,60912831,23214667,7675,812493,9176598,0,0,35612,866142,0,0,0,4748666,5022510,0,0,0
231612920,0,85974285,40802303,60933796,23225340,7650,811580,9181124,0,0,35496,866648,0,0,0,4750873,5023825,0,0,0
231551729,0,85963484,40791052,60912830,23214667,7675,812493,9176598,0,0,35612,866142,0,0,0,4748666,5022510,0,0,0
231612920,0,85974285,40802303,60933796,23225340,7650,811580,9181124,0,0,35496,866648,0,0,0,4750873,5023825,0,0,0
231551731,0,85963475,40791052,60912838,23214673,7675,812492,9176601,0,0,35612,866140,0,0,0,4748664,5022509,0,0,0
231615117,0,85974727,40802718,60934689,23225538,7650,811565,9181313,0,0,35496,866622,0,0,0,4750924,5023875,0,0,0
231551728,0,85963483,40791052,60912830,23214667,7675,812493,9176598,0,0,35612,866142,0,0,0,4748666,5022510,0,0,0
231555610,0,85964162,40791745,60914192,23215333,7675,812427,9176905,0,0,35554,866250,0,0,0,4748804,5022563,0,0,0
231609038,0,85973606,40801610,60932434,23224674,7650,811646,9180817,0,0,35554,866540,0,0,0,4750735,5023772,0,0,0
231551730,0,85963474,40791050,60912836,23214676,7675,812492,9176599,0,0,35612,866140,0,0,0,4748666,5022510,0,0,0
231615118,0,85974728,40802720,60934691,23225535,7650,811565,9181315,0,0,35496,866622,0,0,0,4750922,5023874,0,0,0
231551727,0,85963482,40791050,60912831,23214668,7675,812493,9176600,0,0,35612,866142,0,0,0,4748665,5022509,0,0,0
231612922,0,85974287,40802305,60933795,23225339,7650,811580,9181122,0,0,35496,866648,0,0,0,4750874,5023826,0,0,0
231551728,0,85963481,40791051,60912831,23214669,7675,812493,9176600,0,0,35612,866142,0,0,0,4748665,5022509,0,0,0
231572798,0,85967196,40794784,60920149,23218371,7675,812156,9178187,0,0,35554,866362,0,0,0,4749433,5022931,0,0,0
231592408,0,85970675,40798683,60926705,23221692,7650,811907,9179604,0,0,35554,866427,0,0,0,4750103,5023408,0,0,0
231551867,0,85963510,40791075,60912889,23214681,7675,812493,9176610,0,0,35612,866142,0,0,0,4748669,5022511,0,0,0
231614423,0,85974590,40802582,60934410,23225474,7650,811574,9181235,0,0,35496,866621,0,0,0,4750922,5023869,0,0,0
231551728,0,85963481,40791051,60912829,23214669,7675,812493,9176600,0,0,35612,866142,0,0,0,4748666,5022510,0,0,0
231612921,0,85974287,40802305,60933797,23225339,7650,811580,9181122,0,0,35496,866647,0,0,0,4750873,5023825,0,0,0
231551732,0,85963475,40791052,60912836,23214673,7675,812492,9176598,0,0,35612,866141,0,0,0,4748667,5022511,0,0,0
231589639,0,85970152,40797899,60926045,23221203,7650,811911,9179471,0,0,35517,866476,0,0,0,4750007,5023308,0,0,0
231577203,0,85968057,40795868,60921474,23219003,7675,812147,9178445,0,0,35591,866288,0,0,0,4749580,5023075,0,0,0
231551727,0,85963482,40791051,60912828,23214670,7675,812493,9176598,0,0,35612,866142,0,0,0,4748666,5022510,0,0,0
231612923,0,85974286,40802305,60933799,23225339,7650,811580,9181124,0,0,35496,866646,0,0,0,4750873,5023825,0,0,0
231551729,0,85963476,40791051,60912836,23214671,7675,812492,9176598,0,0,35612,866142,0,0,0,4748666,5022510,0,0,0
231614365,0,85974571,40802582,60934385,23225466,7650,811568,9181263,0,0,35496,866642,0,0,0,4750895,5023847,0,0,0
231551870,0,85963510,40791077,60912888,23214683,7675,812491,9176610,0,0,35612,866138,0,0,0,4748671,5022515,0,0,0
231605605,0,85972968,40800922,60931309,23224103,7650,811673,9180602,0,0,35500,866598,0,0,0,4750609,5023671,0,0,0
231559655,0,85964927,40792543,60915563,23215965,7675,812399,9177163,0,0,35608,866174,0,0,0,4748952,5022686,0,0,0
231551728,0,85963476,40791051,60912835,23214671,7675,812492,9176598,0,0,35603,866164,0,0,0,4748666,5022497,0,0,0
231612924,0,85974286,40802306,60933801,23225337,7650,811580,9181122,0,0,35505,866626,0,0,0,4750873,5023838,0,0,0
231551727,0,85963482,40791050,60912827,23214670,7675,812493,9176600,0,0,35612,866142,0,0,0,4748666,5022510,0,0,0
231615116,0,85974727,40802718,60934689,23225538,7650,811565,9181315,0,0,35496,866622,0,0,0,4750922,5023874,0,0,0
231551731,0,85963482,40791051,60912833,23214672,7675,812492,9176598,0,0,35612,866140,0,0,0,4748666,5022510,0,0,0
231612921,0,85974280,40802305,60933803,23225338,7650,811580,9181123,0,0,35496,866648,0,0,0,4750873,5023825,0,0,0
231551727,0,85963482,40791050,60912827,23214670,7675,812493,9176600,0,0,35612,866142,0,0,0,4748666,5022510,0,0,0
231561380,0,85965203,40792773,60916234,23216291,7675,812342,9177341,0,0,35554,866276,0,0,0,4749005,5022686,0,0,0
231605465,0,85973006,40800998,60931286,23223914,7650,811716,9180573,0,0,35554,866488,0,0,0,4750582,5023698,0,0,0
231551730,0,85963476,40791051,60912836,23214673,7675,812492,9176598,0,0,35612,866140,0,0,0,4748667,5022510,0,0,0
231612920,0,85974285,40802303,60933796,23225340,7650,811580,9181124,0,0,35496,866648,0,0,0,4750873,5023825,0,0,0
231551728,0,85963482,40791052,60912830,23214668,7675,812493,9176598,0,0,35612,866142,0,0,0,4748666,5022510,0,0,0
231612924,0,85974286,40802304,60933799,23225339,7650,811580,9181131,0,0,35496,866648,0,0,0,4750867,5023824,0,0,0
231551727,0,85963482,40791051,60912828,23214670,7675,812487,9176610,0,0,35612,866142,0,0,0,4748660,5022510,0,0,0
231578492,0,85968203,40795801,60922163,23219328,7675,812074,9178606,0,0,35554,866388,0,0,0,4749645,5023055,0,0,0
231588353,0,85970000,40797969,60925363,23220880,7650,811989,9179289,0,0,35554,866374,0,0,0,4749955,5023330,0,0,0
231551729,0,85963482,40791051,60912831,23214669,7675,812493,9176600,0,0,35612,866142,0,0,0,4748665,5022509,0,0,0
231612920,0,85974285,40802304,60933795,23225340,7650,811580,9181122,0,0,35496,866648,0,0,0,4750874,5023826,0,0,0
231551731,0,85963483,40791052,60912831,23214668,7675,812493,9176600,0,0,35612,866142,0,0,0,4748665,5022510,0,0,0
231615114,0,85974728,40802716,60934690,23225536,7650,811565,9181316,0,0,35496,866622,0,0,0,4750922,5023873,0,0,0
231551731,0,85963474,40791053,60912837,23214674,7675,812492,9176598,0,0,35612,866140,0,0,0,4748666,5022510,0,0,0
231593253,0,85970756,40798594,60927137,23221963,7650,811849,9179715,0,0,35512,866528,0,0,0,4750159,5023390,0,0,0
235941869,46,120504340,33111320,36797820,21885038,3088937,15163505,2485177,310,0,9670,234584,0,0,0,1285970,1375152,0,0,0
18062513,24,10157797,2288413,2109772,1627042,321480,1555414,534,148,12,2,2,0,0,0,121,1752,0,0,0
number,of,instructions:,67076163223
