1000000000 1677457581 823931671 1191365265 1219073140 275802368 443870935 635821883 700325194 851722793 1070154923 1187553363
1000000000 1850937171 715656809 1339496904 1696107505 283582520 290357120 570677189 1124657260 1132230403 1143780850 1153308814
1000000000 1856717502 712749553 1349402849 1708887953 285003079 286686340 569905074 1135245429 1137858339 1143956265 1152505553
1000000000 1855628133 710443793 1343955062 1704986128 283815124 286692211 569134126 1132133694 1135302186 1140845641 1148957359
1000000000 1856417540 708968020 1274597363 1704054704 284083272 287442548 570437802 1131723280 1134536211 1137741723 1143211101
1000000000 1856206452 709298401 1291544900 1704393261 283954937 287204452 570069959 1131820462 1134687756 1138431331 1144493043
1000000000 1856107694 709133162 1307829560 1704033065 283745010 286885784 569541727 1131399081 1134330259 1138596903 1145245744
1000000000 1856209284 708989196 1274528993 1703930614 284062635 287567177 570542065 1131738883 1134697223 1137755843 1143223871
1000000000 1856239694 708986103 1274538923 1703948733 284065649 287548980 570526841 1131736602 1134673719 1137753784 1143222012
1000000000 1856182517 708810581 1290827851 1703603064 283856578 287211011 569980130 1131306600 1134282732 1137910922 1143966447
1000000000 1856058779 709004495 1274479846 1703840926 284047720 287657250 570617414 1131750140 1134813556 1137766042 1143233110
1000000000 1856153806 708994835 1274510895 1703897553 284057137 287600380 570569839 1131743028 1134740096 1137759601 1143227279
1000000000 1856333133 708482164 1273853783 1703221385 283976666 287489151 570379861 1131210141 1134177018 1137221532 1142684264
1000000000 1856124621 708997803 1274501294 1703880165 284054245 287617845 570584449 1131745215 1134762659 1137761579 1143229067
1000000000 1856170063 708993181 1274516348 1703907237 284058747 287590652 570561701 1131741805 1134727524 1137758499 1143226287
1000000000 1856318957 708483606 1273849175 1703212942 283975262 287497633 570386957 1131211201 1134187975 1137222497 1142685136
1000000000 1856207942 708989326 1274528627 1703929783 284062498 287567978 570542725 1131738951 1134698217 1137755912 1143223937
1000000000 1856152034 708995018 1274509976 1703896501 284056961 287601438 570570727 1131743170 1134741474 1137759721 1143227379
1000000000 1856209503 708494733 1273813478 1703147716 283964415 287563138 570441754 1131219389 1134272585 1137229915 1142691854
1000000000 1856093265 709000989 1274491082 1703861475 284051137 287636613 570600149 1131747561 1134786899 1137763701 1143230992
1000000000 1856252221 708984830 1274543005 1703956200 284066891 287541482 570520569 1131735666 1134664019 1137752932 1143221240
1000000000 1856232856 708492360 1273821114 1703161632 283966728 287549161 570430061 1131217640 1134254531 1137228331 1142690420
1000000000 1856189137 708991238 1274522501 1703918576 284060633 287579232 570552140 1131740356 1134712753 1137757185 1143225091
1000000000 1856205278 708989601 1274527698 1703928223 284062238 287569577 570544072 1131739179 1134700305 1137756105 1143224103
1000000000 1856279774 708487590 1273836416 1703189594 283971379 287521082 570406572 1131214130 1134218266 1137225161 1142687560
1000000000 1856329148 708977521 1274568357 1704000447 284074625 287495879 570482152 1131728024 1134602990 1137747584 1143216990
1000000000 1856143605 708995873 1274507449 1703891477 284056126 287606484 570574948 1131743797 1134747987 1137760293 1143227901
1000000000 1856210285 708494652 1273813857 1703148182 283964493 287562671 570441362 1131219326 1134271976 1137229863 1142691812
1000000000 1856200229 708990115 1274526114 1703925214 284061737 287572598 570546597 1131739551 1134704207 1137756454 1143224432
1000000000 1856200023 708990137 1274525826 1703925099 284061719 287572720 570546703 1131739579 1134704376 1137756471 1143224439
1000000000 1856417500 708473581 1273881543 1703271626 283985021 287438657 570337611 1131203793 1134111763 1137215794 1142679072
1000000000 1856054886 709004894 1274478324 1703838610 284047334 287659579 570619364 1131750437 1134816571 1137766306 1143233344
1000000000 1856088341 709001491 1274489513 1703858542 284050648 287639557 570602612 1131747925 1134790701 1137764036 1143231294
1000000000 1856264063 708489187 1273831300 1703180229 283969821 287530485 570414438 1131215305 1134230407 1137226216 1142688505
1000000000 1856226058 708987490 1274534405 1703940609 284064298 287557139 570533666 1131737625 1134684245 1137754704 1143222842
1000000000 1856056143 709004765 1274478911 1703839360 284047460 287658827 570618734 1131750343 1134815598 1137766223 1143233271
1000000000 1856324760 708483015 1273851139 1703216398 283975836 287494161 570384053 1131210763 1134183487 1137222103 1142684782
1000000000 1856248753 708985177 1274541912 1703954102 284066542 287543554 570522293 1131735898 1134666670 1137753145 1143221430
1000000000 1856213632 708988753 1274530340 1703933206 284063067 287564576 570539889 1131738557 1134693853 1137755548 1143223606
1000000000 1856271240 708488457 1273833616 1703184502 283970531 287526190 570410844 1131214762 1134224854 1137225728 1142688067
1000000000 1856066560 709003706 1274482392 1703845565 284048491 287652593 570613517 1131749557 1134807540 1137765514 1143232631
1000000000 1856062670 709004102 1274480995 1703843249 284048106 287654920 570615466 1131749855 1134810553 1137765779 1143232868
1000000000 1856395798 708475795 1273874323 1703258728 283982875 287451646 570348487 1131205449 1134128571 1137217284 1142680413
1000000000 1856144981 708995731 1274508055 1703892292 284056262 287605662 570574255 1131743682 1134746915 1137760200 1143227828
1000000000 1856167821 708764043 1274181764 1703539118 284012935 287591269 570516874 1131499767 1134532206 1137513429 1142978328
1000000000 1856259534 708719013 1274163506 1703544319 284014965 287533920 570462657 1131457861 1134430968 1137471749 1142936872
448014605 831711441 317421456 570743563 763121273 127233517 128771286 255518155 506811828 508105105 509505564 511953445
number of instructions: 46448014605
