-------------------------------------------

omp_num_threads=1

Configuration used: cores = 1, boxes1d = 20
PAPI measurements:(rapl)> > > > > > > > > > > >
Counting Energy Consumption:
PACKAGE_ENERGY_CNT:PACKAGE0 (J) 0.061791180000
PACKAGE_ENERGY_CNT:PACKAGE1 (J) 0.050459556000
DRAM_ENERGY_CNT:PACKAGE0 (J)    0.046595031000
DRAM_ENERGY_CNT:PACKAGE1 (J)    0.041448715000


Energy in total:
PACKAGE_ENERGY:PACKAGE0 (J) 3771.434326171000
PACKAGE_ENERGY:PACKAGE1 (J) 3079.806884765000
DRAM_ENERGY:PACKAGE0    (J) 710.983749389000
DRAM_ENERGY:PACKAGE1    (J) 632.457199096000

Total (kernel) time: 122.101654052734 (s)
Power (W) 67.113604831936
=============================================


Time spent in different stages of CPU/MCPU KERNEL:
 0.000001000000 s,  0.000000818895 % : CPU/MCPU: VARIABLES
 0.000008000000 s,  0.000006551159 % : MCPU: SET DEVICE
 0.014151000418 s,  0.011588180438 % : CPU/MCPU: INPUTS
122.101646423340 s, 99.988403320312 % : CPU/MCPU: KERNEL
Total time:
122.115806579590 s
===========================================

-------------------------------------------

omp_num_threads=2

Configuration used: cores = 2, boxes1d = 20
PAPI measurements:(rapl)> > > > > > > > > > > >
Counting Energy Consumption:
PACKAGE_ENERGY_CNT:PACKAGE0 (J) 0.031480668000
PACKAGE_ENERGY_CNT:PACKAGE1 (J) 0.031229574000
DRAM_ENERGY_CNT:PACKAGE0 (J)    0.023888819000
DRAM_ENERGY_CNT:PACKAGE1 (J)    0.021904093000


Energy in total:
PACKAGE_ENERGY:PACKAGE0 (J) 1921.427490234000
PACKAGE_ENERGY:PACKAGE1 (J) 1906.101928710000
DRAM_ENERGY:PACKAGE0    (J) 364.514450073000
DRAM_ENERGY:PACKAGE1    (J) 334.229934692000

Total (kernel) time: 61.131729125977 (s)
Power (W) 74.041318124366
=============================================


Time spent in different stages of CPU/MCPU KERNEL:
 0.000000000000 s,  0.000000000000 % : CPU/MCPU: VARIABLES
 0.000009000000 s,  0.000014718985 % : MCPU: SET DEVICE
 0.013779999688 s,  0.022536400706 % : CPU/MCPU: INPUTS
61.131732940674 s, 99.977455139160 % : CPU/MCPU: KERNEL
Total time:
61.145519256592 s
===========================================

-------------------------------------------

omp_num_threads=4

Configuration used: cores = 4, boxes1d = 20
PAPI measurements:(rapl)> > > > > > > > > > > >
Counting Energy Consumption:
PACKAGE_ENERGY_CNT:PACKAGE0 (J) 0.018561564000
PACKAGE_ENERGY_CNT:PACKAGE1 (J) 0.019271138000
DRAM_ENERGY_CNT:PACKAGE0 (J)    0.012839291000
DRAM_ENERGY_CNT:PACKAGE1 (J)    0.011439730000


Energy in total:
PACKAGE_ENERGY:PACKAGE0 (J) 1132.907958984000
PACKAGE_ENERGY:PACKAGE1 (J) 1176.216918945000
DRAM_ENERGY:PACKAGE0    (J) 195.912033081000
DRAM_ENERGY:PACKAGE1    (J) 174.556427001000

Total (kernel) time: 31.632747650146 (s)
Power (W) 84.709471578217
=============================================


Time spent in different stages of CPU/MCPU KERNEL:
 0.000000000000 s,  0.000000000000 % : CPU/MCPU: VARIABLES
 0.000010000000 s,  0.000031598789 % : MCPU: SET DEVICE
 0.014024999924 s,  0.044317301363 % : CPU/MCPU: INPUTS
31.632747650146 s, 99.955657958984 % : CPU/MCPU: KERNEL
Total time:
31.646781921387 s
===========================================

-------------------------------------------

omp_num_threads=8

Configuration used: cores = 8, boxes1d = 20
PAPI measurements:(rapl)> > > > > > > > > > > >
Counting Energy Consumption:
PACKAGE_ENERGY_CNT:PACKAGE0 (J) 0.012089117000
PACKAGE_ENERGY_CNT:PACKAGE1 (J) 0.012297120000
DRAM_ENERGY_CNT:PACKAGE0 (J)    0.006536523000
DRAM_ENERGY_CNT:PACKAGE1 (J)    0.005767754000


Energy in total:
PACKAGE_ENERGY:PACKAGE0 (J) 737.861145019000
PACKAGE_ENERGY:PACKAGE1 (J) 750.556640625000
DRAM_ENERGY:PACKAGE0    (J) 99.739425659000
DRAM_ENERGY:PACKAGE1    (J) 88.008941650000

Total (kernel) time: 15.833295822144 (s)
Power (W) 105.863376253528
=============================================


Time spent in different stages of CPU/MCPU KERNEL:
 0.000000000000 s,  0.000000000000 % : CPU/MCPU: VARIABLES
 0.000008000000 s,  0.000050482453 % : MCPU: SET DEVICE
 0.013787000440 s,  0.087000198662 % : CPU/MCPU: INPUTS
15.833295822144 s, 99.912948608398 % : CPU/MCPU: KERNEL
Total time:
15.847090721130 s
===========================================

-------------------------------------------

omp_num_threads=14

Configuration used: cores = 14, boxes1d = 20
PAPI measurements:(rapl)> > > > > > > > > > > >
Counting Energy Consumption:
PACKAGE_ENERGY_CNT:PACKAGE0 (J) 0.008985428000
PACKAGE_ENERGY_CNT:PACKAGE1 (J) 0.009115123000
DRAM_ENERGY_CNT:PACKAGE0 (J)    0.003848981000
DRAM_ENERGY_CNT:PACKAGE1 (J)    0.003337990000


Energy in total:
PACKAGE_ENERGY:PACKAGE0 (J) 548.427001953000
PACKAGE_ENERGY:PACKAGE1 (J) 556.342956542000
DRAM_ENERGY:PACKAGE0    (J) 58.730789184000
DRAM_ENERGY:PACKAGE1    (J) 50.933685302000

Total (kernel) time:  9.130079269409 (s)
Power (W) 133.014664730243
=============================================


Time spent in different stages of CPU/MCPU KERNEL:
 0.000001000000 s,  0.000010936270 % : CPU/MCPU: VARIABLES
 0.000009000000 s,  0.000098426441 % : MCPU: SET DEVICE
 0.013795999810 s,  0.150876790285 % : CPU/MCPU: INPUTS
 9.130079269409 s, 99.849014282227 % : CPU/MCPU: KERNEL
Total time:
9.143884658813 s
===========================================

-------------------------------------------

omp_num_threads=28

Configuration used: cores = 28, boxes1d = 20
PAPI measurements:(rapl)> > > > > > > > > > > >
Counting Energy Consumption:
PACKAGE_ENERGY_CNT:PACKAGE0 (J) 0.006981106000
PACKAGE_ENERGY_CNT:PACKAGE1 (J) 0.006522418000
DRAM_ENERGY_CNT:PACKAGE0 (J)    0.002046031000
DRAM_ENERGY_CNT:PACKAGE1 (J)    0.001780401000


Energy in total:
PACKAGE_ENERGY:PACKAGE0 (J) 426.092895507000
PACKAGE_ENERGY:PACKAGE1 (J) 398.096801757000
DRAM_ENERGY:PACKAGE0    (J) 31.219955444000
DRAM_ENERGY:PACKAGE1    (J) 27.166763305000

Total (kernel) time:  4.809473991394 (s)
Power (W) 183.507888303848
=============================================


Time spent in different stages of CPU/MCPU KERNEL:
 0.000000000000 s,  0.000000000000 % : CPU/MCPU: VARIABLES
 0.000008000000 s,  0.000165863719 % : MCPU: SET DEVICE
 0.013755000196 s,  0.285181909800 % : CPU/MCPU: INPUTS
 4.809473991394 s, 99.714653015137 % : CPU/MCPU: KERNEL
Total time:
4.823236942291 s
===========================================

-------------------------------------------

omp_num_threads=42

Configuration used: cores = 42, boxes1d = 20
PAPI measurements:(rapl)> > > > > > > > > > > >
Counting Energy Consumption:
PACKAGE_ENERGY_CNT:PACKAGE0 (J) 0.006040202000
PACKAGE_ENERGY_CNT:PACKAGE1 (J) 0.005462285000
DRAM_ENERGY_CNT:PACKAGE0 (J)    0.001606227000
DRAM_ENERGY_CNT:PACKAGE1 (J)    0.001399021000


Energy in total:
PACKAGE_ENERGY:PACKAGE0 (J) 368.664672851000
PACKAGE_ENERGY:PACKAGE1 (J) 333.391418457000
DRAM_ENERGY:PACKAGE0    (J) 24.509078979000
DRAM_ENERGY:PACKAGE1    (J) 21.347366333000

Total (kernel) time:  3.783704042435 (s)
Power (W) 197.666764691972
=============================================


Time spent in different stages of CPU/MCPU KERNEL:
 0.000000000000 s,  0.000000000000 % : CPU/MCPU: VARIABLES
 0.000007000000 s,  0.000184339471 % : MCPU: SET DEVICE
 0.013631000184 s,  0.358961611986 % : CPU/MCPU: INPUTS
 3.783704042435 s, 99.640853881836 % : CPU/MCPU: KERNEL
Total time:
3.797342061996 s
===========================================

-------------------------------------------

omp_num_threads=56

Configuration used: cores = 56, boxes1d = 20
PAPI measurements:(rapl)> > > > > > > > > > > >
Counting Energy Consumption:
PACKAGE_ENERGY_CNT:PACKAGE0 (J) 0.005115205000
PACKAGE_ENERGY_CNT:PACKAGE1 (J) 0.005133465000
DRAM_ENERGY_CNT:PACKAGE0 (J)    0.001312940000
DRAM_ENERGY_CNT:PACKAGE1 (J)    0.001158256000


Energy in total:
PACKAGE_ENERGY:PACKAGE0 (J) 312.207336425000
PACKAGE_ENERGY:PACKAGE1 (J) 313.321838378000
DRAM_ENERGY:PACKAGE0    (J) 20.033874511000
DRAM_ENERGY:PACKAGE1    (J) 17.673583984000

Total (kernel) time:  3.086128950119 (s)
Power (W) 214.908917941495
=============================================


Time spent in different stages of CPU/MCPU KERNEL:
 0.000000000000 s,  0.000000000000 % : CPU/MCPU: VARIABLES
 0.000010000000 s,  0.000322597829 % : MCPU: SET DEVICE
 0.013695999980 s,  0.441829949617 % : CPU/MCPU: INPUTS
 3.086128950119 s, 99.557846069336 % : CPU/MCPU: KERNEL
Total time:
3.099834918976 s
===========================================

