____________________________________________________________________________________________________

    with OMP_NUM_THREADS= 1 
 

Random number generator seed: 7
PAPI measurements:(rapl)> > > > > > > > > > > >
Counting Energy Consumption:
PACKAGE_ENERGY_CNT:PACKAGE0 (J) 0.026033419000
PACKAGE_ENERGY_CNT:PACKAGE1 (J) 0.019633520000
DRAM_ENERGY_CNT:PACKAGE0 (J)    0.039418836000
DRAM_ENERGY_CNT:PACKAGE1 (J)    0.016381660000


Energy in total:
PACKAGE_ENERGY:PACKAGE0 (J) 1588.953796386000
PACKAGE_ENERGY:PACKAGE1 (J) 1198.334960937000
DRAM_ENERGY:PACKAGE0    (J) 601.483703613000
DRAM_ENERGY:PACKAGE1    (J) 249.964294433000

Total train kernel time: 44.800285816193 (s)
Power (W) 81.221284397561
==================================================================



NUMBER OF OMP THREADS = 1
~~~~~~~~~~~~~~~~~~~~~~~~~~~~~~~~~~~~~~~~~~~~~~~~~~~~~~~~~~~~~~~~~~~~~~~~~~~~~~~~~~~~~~~~~~~~~~~~~~
Total execution [setup()] time         : 80.8655719757 (sec)
Initialization time [bpnn_initialize()]: 0.0000000000 (sec)
backprop_face() time: 0.0000000000 (sec)
*-------bpnn_create time: 0.0000000000 (sec)
*-------bpnn_train_kernel() time: 0.0000000000 (sec)
	+-------layerforward time [parallel section] : 13.4541509151 (sec)
        +-------error handle time 		     : 0.0000011921 (sec)
        +-------adjust weight time[parallel section] : 31.3461349010 (sec)
*-------deallocation time: 0.0000000000 (sec)
~~~~~~~~~~~~~~~~~~~~~~~~~~~~~~~~~~~~~~~~~~~~~~~~~~~~~~~~~~~~~~~~~~~~~~~~~~~~~~~~~~~~~~~~~~~~~~~~~~
====================================================================================================

____________________________________________________________________________________________________

    with OMP_NUM_THREADS= 2 
 

Random number generator seed: 7
PAPI measurements:(rapl)> > > > > > > > > > > >
Counting Energy Consumption:
PACKAGE_ENERGY_CNT:PACKAGE0 (J) 0.018116792000
PACKAGE_ENERGY_CNT:PACKAGE1 (J) 0.016788864000
DRAM_ENERGY_CNT:PACKAGE0 (J)    0.027461856000
DRAM_ENERGY_CNT:PACKAGE1 (J)    0.010260662000


Energy in total:
PACKAGE_ENERGY:PACKAGE0 (J) 1105.761230468000
PACKAGE_ENERGY:PACKAGE1 (J) 1024.710937500000
DRAM_ENERGY:PACKAGE0    (J) 419.034667968000
DRAM_ENERGY:PACKAGE1    (J) 156.565277099000

Total train kernel time: 27.359406948090 (s)
Power (W) 98.908288405862
==================================================================



NUMBER OF OMP THREADS = 1
~~~~~~~~~~~~~~~~~~~~~~~~~~~~~~~~~~~~~~~~~~~~~~~~~~~~~~~~~~~~~~~~~~~~~~~~~~~~~~~~~~~~~~~~~~~~~~~~~~
Total execution [setup()] time         : 65.3744990826 (sec)
Initialization time [bpnn_initialize()]: 0.0000000000 (sec)
backprop_face() time: 0.0000000000 (sec)
*-------bpnn_create time: 0.0000000000 (sec)
*-------bpnn_train_kernel() time: 0.0000000000 (sec)
	+-------layerforward time [parallel section] : 8.4393639565 (sec)
        +-------error handle time 		     : 0.0000000000 (sec)
        +-------adjust weight time[parallel section] : 18.9200429916 (sec)
*-------deallocation time: 0.0000000000 (sec)
~~~~~~~~~~~~~~~~~~~~~~~~~~~~~~~~~~~~~~~~~~~~~~~~~~~~~~~~~~~~~~~~~~~~~~~~~~~~~~~~~~~~~~~~~~~~~~~~~~
====================================================================================================

____________________________________________________________________________________________________

    with OMP_NUM_THREADS= 3 
 

Random number generator seed: 7
PAPI measurements:(rapl)> > > > > > > > > > > >
Counting Energy Consumption:
PACKAGE_ENERGY_CNT:PACKAGE0 (J) 0.015636701000
PACKAGE_ENERGY_CNT:PACKAGE1 (J) 0.014357065000
DRAM_ENERGY_CNT:PACKAGE0 (J)    0.023693418000
DRAM_ENERGY_CNT:PACKAGE1 (J)    0.007880515000


Energy in total:
PACKAGE_ENERGY:PACKAGE0 (J) 954.388488769000
PACKAGE_ENERGY:PACKAGE1 (J) 876.285705566000
DRAM_ENERGY:PACKAGE0    (J) 361.532867431000
DRAM_ENERGY:PACKAGE1    (J) 120.247116088000

Total train kernel time: 20.312359094620 (s)
Power (W) 113.844687713625
==================================================================



NUMBER OF OMP THREADS = 1
~~~~~~~~~~~~~~~~~~~~~~~~~~~~~~~~~~~~~~~~~~~~~~~~~~~~~~~~~~~~~~~~~~~~~~~~~~~~~~~~~~~~~~~~~~~~~~~~~~
Total execution [setup()] time         : 58.1735620499 (sec)
Initialization time [bpnn_initialize()]: 0.0000000000 (sec)
backprop_face() time: 0.0000000000 (sec)
*-------bpnn_create time: 0.0000000000 (sec)
*-------bpnn_train_kernel() time: 0.0000000000 (sec)
	+-------layerforward time [parallel section] : 5.5894081593 (sec)
        +-------error handle time 		     : 0.0000000000 (sec)
        +-------adjust weight time[parallel section] : 14.7229509354 (sec)
*-------deallocation time: 0.0000000000 (sec)
~~~~~~~~~~~~~~~~~~~~~~~~~~~~~~~~~~~~~~~~~~~~~~~~~~~~~~~~~~~~~~~~~~~~~~~~~~~~~~~~~~~~~~~~~~~~~~~~~~
====================================================================================================

____________________________________________________________________________________________________

    with OMP_NUM_THREADS= 4 
 

Random number generator seed: 7
PAPI measurements:(rapl)> > > > > > > > > > > >
Counting Energy Consumption:
PACKAGE_ENERGY_CNT:PACKAGE0 (J) 0.014929449000
PACKAGE_ENERGY_CNT:PACKAGE1 (J) 0.013287592000
DRAM_ENERGY_CNT:PACKAGE0 (J)    0.019581709000
DRAM_ENERGY_CNT:PACKAGE1 (J)    0.006409807000


Energy in total:
PACKAGE_ENERGY:PACKAGE0 (J) 911.221252441000
PACKAGE_ENERGY:PACKAGE1 (J) 811.010253906000
DRAM_ENERGY:PACKAGE0    (J) 298.793167114000
DRAM_ENERGY:PACKAGE1    (J) 97.805892944000

Total train kernel time: 16.422071933746 (s)
Power (W) 129.023339743808
==================================================================



NUMBER OF OMP THREADS = 1
~~~~~~~~~~~~~~~~~~~~~~~~~~~~~~~~~~~~~~~~~~~~~~~~~~~~~~~~~~~~~~~~~~~~~~~~~~~~~~~~~~~~~~~~~~~~~~~~~~
Total execution [setup()] time         : 54.3601899147 (sec)
Initialization time [bpnn_initialize()]: 0.0000000000 (sec)
backprop_face() time: 0.0000000000 (sec)
*-------bpnn_create time: 0.0000000000 (sec)
*-------bpnn_train_kernel() time: 0.0000000000 (sec)
	+-------layerforward time [parallel section] : 4.1931729317 (sec)
        +-------error handle time 		     : 0.0000000000 (sec)
        +-------adjust weight time[parallel section] : 12.2288990021 (sec)
*-------deallocation time: 0.0000000000 (sec)
~~~~~~~~~~~~~~~~~~~~~~~~~~~~~~~~~~~~~~~~~~~~~~~~~~~~~~~~~~~~~~~~~~~~~~~~~~~~~~~~~~~~~~~~~~~~~~~~~~
====================================================================================================

____________________________________________________________________________________________________

    with OMP_NUM_THREADS= 5 
 

Random number generator seed: 7
PAPI measurements:(rapl)> > > > > > > > > > > >
Counting Energy Consumption:
PACKAGE_ENERGY_CNT:PACKAGE0 (J) 0.013196927000
PACKAGE_ENERGY_CNT:PACKAGE1 (J) 0.011711897000
DRAM_ENERGY_CNT:PACKAGE0 (J)    0.016260018000
DRAM_ENERGY_CNT:PACKAGE1 (J)    0.005439012000


Energy in total:
PACKAGE_ENERGY:PACKAGE0 (J) 805.476501464000
PACKAGE_ENERGY:PACKAGE1 (J) 714.837463378000
DRAM_ENERGY:PACKAGE0    (J) 248.108184814000
DRAM_ENERGY:PACKAGE1    (J) 82.992736816000

Total train kernel time: 13.928760051727 (s)
Power (W) 132.920294383448
==================================================================



NUMBER OF OMP THREADS = 1
~~~~~~~~~~~~~~~~~~~~~~~~~~~~~~~~~~~~~~~~~~~~~~~~~~~~~~~~~~~~~~~~~~~~~~~~~~~~~~~~~~~~~~~~~~~~~~~~~~
Total execution [setup()] time         : 51.8530178070 (sec)
Initialization time [bpnn_initialize()]: 0.0000000000 (sec)
backprop_face() time: 0.0000000000 (sec)
*-------bpnn_create time: 0.0000000000 (sec)
*-------bpnn_train_kernel() time: 0.0000000000 (sec)
	+-------layerforward time [parallel section] : 3.4171788692 (sec)
        +-------error handle time 		     : 0.0000000000 (sec)
        +-------adjust weight time[parallel section] : 10.5115811825 (sec)
*-------deallocation time: 0.0000000000 (sec)
~~~~~~~~~~~~~~~~~~~~~~~~~~~~~~~~~~~~~~~~~~~~~~~~~~~~~~~~~~~~~~~~~~~~~~~~~~~~~~~~~~~~~~~~~~~~~~~~~~
====================================================================================================

____________________________________________________________________________________________________

    with OMP_NUM_THREADS= 6 
 

Random number generator seed: 7
PAPI measurements:(rapl)> > > > > > > > > > > >
Counting Energy Consumption:
PACKAGE_ENERGY_CNT:PACKAGE0 (J) 0.012661694000
PACKAGE_ENERGY_CNT:PACKAGE1 (J) 0.011571859000
DRAM_ENERGY_CNT:PACKAGE0 (J)    0.015550786000
DRAM_ENERGY_CNT:PACKAGE1 (J)    0.005260491000


Energy in total:
PACKAGE_ENERGY:PACKAGE0 (J) 772.808471679000
PACKAGE_ENERGY:PACKAGE1 (J) 706.290222167000
DRAM_ENERGY:PACKAGE0    (J) 237.286163330000
DRAM_ENERGY:PACKAGE1    (J) 80.268722534000

Total train kernel time: 13.483773946762 (s)
Power (W) 133.245602218171
==================================================================



NUMBER OF OMP THREADS = 1
~~~~~~~~~~~~~~~~~~~~~~~~~~~~~~~~~~~~~~~~~~~~~~~~~~~~~~~~~~~~~~~~~~~~~~~~~~~~~~~~~~~~~~~~~~~~~~~~~~
Total execution [setup()] time         : 51.4016001225 (sec)
Initialization time [bpnn_initialize()]: 0.0000000000 (sec)
backprop_face() time: 0.0000000000 (sec)
*-------bpnn_create time: 0.0000000000 (sec)
*-------bpnn_train_kernel() time: 0.0000000000 (sec)
	+-------layerforward time [parallel section] : 3.4011869431 (sec)
        +-------error handle time 		     : 0.0000000000 (sec)
        +-------adjust weight time[parallel section] : 10.0825870037 (sec)
*-------deallocation time: 0.0000000000 (sec)
~~~~~~~~~~~~~~~~~~~~~~~~~~~~~~~~~~~~~~~~~~~~~~~~~~~~~~~~~~~~~~~~~~~~~~~~~~~~~~~~~~~~~~~~~~~~~~~~~~
====================================================================================================

____________________________________________________________________________________________________

    with OMP_NUM_THREADS= 7 
 

Random number generator seed: 7
PAPI measurements:(rapl)> > > > > > > > > > > >
Counting Energy Consumption:
PACKAGE_ENERGY_CNT:PACKAGE0 (J) 0.014091078000
PACKAGE_ENERGY_CNT:PACKAGE1 (J) 0.012458666000
DRAM_ENERGY_CNT:PACKAGE0 (J)    0.016463444000
DRAM_ENERGY_CNT:PACKAGE1 (J)    0.005413603000


Energy in total:
PACKAGE_ENERGY:PACKAGE0 (J) 860.051147460000
PACKAGE_ENERGY:PACKAGE1 (J) 760.416625976000
DRAM_ENERGY:PACKAGE0    (J) 251.212219238000
DRAM_ENERGY:PACKAGE1    (J) 82.605026245000

Total train kernel time: 13.843928098679 (s)
Power (W) 141.165499054097
==================================================================



NUMBER OF OMP THREADS = 1
~~~~~~~~~~~~~~~~~~~~~~~~~~~~~~~~~~~~~~~~~~~~~~~~~~~~~~~~~~~~~~~~~~~~~~~~~~~~~~~~~~~~~~~~~~~~~~~~~~
Total execution [setup()] time         : 51.7516679764 (sec)
Initialization time [bpnn_initialize()]: 0.0000000000 (sec)
backprop_face() time: 0.0000000000 (sec)
*-------bpnn_create time: 0.0000000000 (sec)
*-------bpnn_train_kernel() time: 0.0000000000 (sec)
	+-------layerforward time [parallel section] : 3.4247200489 (sec)
        +-------error handle time 		     : 0.0000009537 (sec)
        +-------adjust weight time[parallel section] : 10.4192080498 (sec)
*-------deallocation time: 0.0000000000 (sec)
~~~~~~~~~~~~~~~~~~~~~~~~~~~~~~~~~~~~~~~~~~~~~~~~~~~~~~~~~~~~~~~~~~~~~~~~~~~~~~~~~~~~~~~~~~~~~~~~~~
====================================================================================================

____________________________________________________________________________________________________

    with OMP_NUM_THREADS= 8 
 

Random number generator seed: 7
PAPI measurements:(rapl)> > > > > > > > > > > >
Counting Energy Consumption:
PACKAGE_ENERGY_CNT:PACKAGE0 (J) 0.012595049000
PACKAGE_ENERGY_CNT:PACKAGE1 (J) 0.010849546000
DRAM_ENERGY_CNT:PACKAGE0 (J)    0.013643225000
DRAM_ENERGY_CNT:PACKAGE1 (J)    0.004356742000


Energy in total:
PACKAGE_ENERGY:PACKAGE0 (J) 768.740783691000
PACKAGE_ENERGY:PACKAGE1 (J) 662.203735351000
DRAM_ENERGY:PACKAGE0    (J) 208.179092407000
DRAM_ENERGY:PACKAGE1    (J) 66.478607177000

Total train kernel time: 11.052592992783 (s)
Power (W) 154.316929949358
==================================================================



NUMBER OF OMP THREADS = 1
~~~~~~~~~~~~~~~~~~~~~~~~~~~~~~~~~~~~~~~~~~~~~~~~~~~~~~~~~~~~~~~~~~~~~~~~~~~~~~~~~~~~~~~~~~~~~~~~~~
Total execution [setup()] time         : 49.1085720062 (sec)
Initialization time [bpnn_initialize()]: 0.0000000000 (sec)
backprop_face() time: 0.0000000000 (sec)
*-------bpnn_create time: 0.0000000000 (sec)
*-------bpnn_train_kernel() time: 0.0000000000 (sec)
	+-------layerforward time [parallel section] : 2.4924509525 (sec)
        +-------error handle time 		     : 0.0000000000 (sec)
        +-------adjust weight time[parallel section] : 8.5601420403 (sec)
*-------deallocation time: 0.0000000000 (sec)
~~~~~~~~~~~~~~~~~~~~~~~~~~~~~~~~~~~~~~~~~~~~~~~~~~~~~~~~~~~~~~~~~~~~~~~~~~~~~~~~~~~~~~~~~~~~~~~~~~
====================================================================================================

____________________________________________________________________________________________________

    with OMP_NUM_THREADS= 9 
 

Random number generator seed: 7
PAPI measurements:(rapl)> > > > > > > > > > > >
Counting Energy Consumption:
PACKAGE_ENERGY_CNT:PACKAGE0 (J) 0.011185184000
PACKAGE_ENERGY_CNT:PACKAGE1 (J) 0.010283817000
DRAM_ENERGY_CNT:PACKAGE0 (J)    0.012894766000
DRAM_ENERGY_CNT:PACKAGE1 (J)    0.004085994000


Energy in total:
PACKAGE_ENERGY:PACKAGE0 (J) 682.689453125000
PACKAGE_ENERGY:PACKAGE1 (J) 627.674377441000
DRAM_ENERGY:PACKAGE0    (J) 196.758514404000
DRAM_ENERGY:PACKAGE1    (J) 62.347320556000

Total train kernel time: 10.341101884842 (s)
Power (W) 151.770061160169
==================================================================



NUMBER OF OMP THREADS = 1
~~~~~~~~~~~~~~~~~~~~~~~~~~~~~~~~~~~~~~~~~~~~~~~~~~~~~~~~~~~~~~~~~~~~~~~~~~~~~~~~~~~~~~~~~~~~~~~~~~
Total execution [setup()] time         : 48.1466400623 (sec)
Initialization time [bpnn_initialize()]: 0.0000000000 (sec)
backprop_face() time: 0.0000000000 (sec)
*-------bpnn_create time: 0.0000000000 (sec)
*-------bpnn_train_kernel() time: 0.0000000000 (sec)
	+-------layerforward time [parallel section] : 2.3665390015 (sec)
        +-------error handle time 		     : 0.0000011921 (sec)
        +-------adjust weight time[parallel section] : 7.9745628834 (sec)
*-------deallocation time: 0.0000000000 (sec)
~~~~~~~~~~~~~~~~~~~~~~~~~~~~~~~~~~~~~~~~~~~~~~~~~~~~~~~~~~~~~~~~~~~~~~~~~~~~~~~~~~~~~~~~~~~~~~~~~~
====================================================================================================

____________________________________________________________________________________________________

    with OMP_NUM_THREADS= 10 
 

Random number generator seed: 7
PAPI measurements:(rapl)> > > > > > > > > > > >
Counting Energy Consumption:
PACKAGE_ENERGY_CNT:PACKAGE0 (J) 0.011307850000
PACKAGE_ENERGY_CNT:PACKAGE1 (J) 0.010402011000
DRAM_ENERGY_CNT:PACKAGE0 (J)    0.012855195000
DRAM_ENERGY_CNT:PACKAGE1 (J)    0.004065269000


Energy in total:
PACKAGE_ENERGY:PACKAGE0 (J) 690.176391601000
PACKAGE_ENERGY:PACKAGE1 (J) 634.888366699000
DRAM_ENERGY:PACKAGE0    (J) 196.154708862000
DRAM_ENERGY:PACKAGE1    (J) 62.031082153000

Total train kernel time: 10.322062015533 (s)
Power (W) 153.385103376864
==================================================================



NUMBER OF OMP THREADS = 1
~~~~~~~~~~~~~~~~~~~~~~~~~~~~~~~~~~~~~~~~~~~~~~~~~~~~~~~~~~~~~~~~~~~~~~~~~~~~~~~~~~~~~~~~~~~~~~~~~~
Total execution [setup()] time         : 48.3209300041 (sec)
Initialization time [bpnn_initialize()]: 0.0000000000 (sec)
backprop_face() time: 0.0000000000 (sec)
*-------bpnn_create time: 0.0000000000 (sec)
*-------bpnn_train_kernel() time: 0.0000000000 (sec)
	+-------layerforward time [parallel section] : 2.3989229202 (sec)
        +-------error handle time 		     : 0.0000009537 (sec)
        +-------adjust weight time[parallel section] : 7.9231390953 (sec)
*-------deallocation time: 0.0000000000 (sec)
~~~~~~~~~~~~~~~~~~~~~~~~~~~~~~~~~~~~~~~~~~~~~~~~~~~~~~~~~~~~~~~~~~~~~~~~~~~~~~~~~~~~~~~~~~~~~~~~~~
====================================================================================================

____________________________________________________________________________________________________

    with OMP_NUM_THREADS= 11 
 

Random number generator seed: 7
PAPI measurements:(rapl)> > > > > > > > > > > >
Counting Energy Consumption:
PACKAGE_ENERGY_CNT:PACKAGE0 (J) 0.011279521000
PACKAGE_ENERGY_CNT:PACKAGE1 (J) 0.010478103000
DRAM_ENERGY_CNT:PACKAGE0 (J)    0.013321207000
DRAM_ENERGY_CNT:PACKAGE1 (J)    0.004191754000


Energy in total:
PACKAGE_ENERGY:PACKAGE0 (J) 688.447326660000
PACKAGE_ENERGY:PACKAGE1 (J) 639.532653808000
DRAM_ENERGY:PACKAGE0    (J) 203.265487670000
DRAM_ENERGY:PACKAGE1    (J) 63.961090087000

Total train kernel time: 10.665438890457 (s)
Power (W) 149.567830692116
==================================================================



NUMBER OF OMP THREADS = 1
~~~~~~~~~~~~~~~~~~~~~~~~~~~~~~~~~~~~~~~~~~~~~~~~~~~~~~~~~~~~~~~~~~~~~~~~~~~~~~~~~~~~~~~~~~~~~~~~~~
Total execution [setup()] time         : 48.5833120346 (sec)
Initialization time [bpnn_initialize()]: 0.0000000000 (sec)
backprop_face() time: 0.0000000000 (sec)
*-------bpnn_create time: 0.0000000000 (sec)
*-------bpnn_train_kernel() time: 0.0000000000 (sec)
	+-------layerforward time [parallel section] : 2.3540589809 (sec)
        +-------error handle time 		     : 0.0000000000 (sec)
        +-------adjust weight time[parallel section] : 8.3113799095 (sec)
*-------deallocation time: 0.0000000000 (sec)
~~~~~~~~~~~~~~~~~~~~~~~~~~~~~~~~~~~~~~~~~~~~~~~~~~~~~~~~~~~~~~~~~~~~~~~~~~~~~~~~~~~~~~~~~~~~~~~~~~
====================================================================================================

____________________________________________________________________________________________________

    with OMP_NUM_THREADS= 12 
 

Random number generator seed: 7
PAPI measurements:(rapl)> > > > > > > > > > > >
Counting Energy Consumption:
PACKAGE_ENERGY_CNT:PACKAGE0 (J) 0.010853940000
PACKAGE_ENERGY_CNT:PACKAGE1 (J) 0.009546190000
DRAM_ENERGY_CNT:PACKAGE0 (J)    0.011858091000
DRAM_ENERGY_CNT:PACKAGE1 (J)    0.003828053000


Energy in total:
PACKAGE_ENERGY:PACKAGE0 (J) 662.471923828000
PACKAGE_ENERGY:PACKAGE1 (J) 582.653198242000
DRAM_ENERGY:PACKAGE0    (J) 180.940109252000
DRAM_ENERGY:PACKAGE1    (J) 58.411453247000

Total train kernel time:  9.687844038010 (s)
Power (W) 153.230861143589
==================================================================



NUMBER OF OMP THREADS = 1
~~~~~~~~~~~~~~~~~~~~~~~~~~~~~~~~~~~~~~~~~~~~~~~~~~~~~~~~~~~~~~~~~~~~~~~~~~~~~~~~~~~~~~~~~~~~~~~~~~
Total execution [setup()] time         : 47.5830140114 (sec)
Initialization time [bpnn_initialize()]: 0.0000000000 (sec)
backprop_face() time: 0.0000000000 (sec)
*-------bpnn_create time: 0.0000000000 (sec)
*-------bpnn_train_kernel() time: 0.0000000000 (sec)
	+-------layerforward time [parallel section] : 2.3660459518 (sec)
        +-------error handle time 		     : 0.0000009537 (sec)
        +-------adjust weight time[parallel section] : 7.3217980862 (sec)
*-------deallocation time: 0.0000000000 (sec)
~~~~~~~~~~~~~~~~~~~~~~~~~~~~~~~~~~~~~~~~~~~~~~~~~~~~~~~~~~~~~~~~~~~~~~~~~~~~~~~~~~~~~~~~~~~~~~~~~~
====================================================================================================

____________________________________________________________________________________________________

    with OMP_NUM_THREADS= 13 
 

Random number generator seed: 7
PAPI measurements:(rapl)> > > > > > > > > > > >
Counting Energy Consumption:
PACKAGE_ENERGY_CNT:PACKAGE0 (J) 0.010873000000
PACKAGE_ENERGY_CNT:PACKAGE1 (J) 0.010258258000
DRAM_ENERGY_CNT:PACKAGE0 (J)    0.012785031000
DRAM_ENERGY_CNT:PACKAGE1 (J)    0.004129019000


Energy in total:
PACKAGE_ENERGY:PACKAGE0 (J) 663.635253906000
PACKAGE_ENERGY:PACKAGE1 (J) 626.114379882000
DRAM_ENERGY:PACKAGE0    (J) 195.084091186000
DRAM_ENERGY:PACKAGE1    (J) 62.997360229000

Total train kernel time: 10.551559925079 (s)
Power (W) 146.692157007426
==================================================================



NUMBER OF OMP THREADS = 1
~~~~~~~~~~~~~~~~~~~~~~~~~~~~~~~~~~~~~~~~~~~~~~~~~~~~~~~~~~~~~~~~~~~~~~~~~~~~~~~~~~~~~~~~~~~~~~~~~~
Total execution [setup()] time         : 48.4352781773 (sec)
Initialization time [bpnn_initialize()]: 0.0000000000 (sec)
backprop_face() time: 0.0000000000 (sec)
*-------bpnn_create time: 0.0000000000 (sec)
*-------bpnn_train_kernel() time: 0.0000000000 (sec)
	+-------layerforward time [parallel section] : 2.4218189716 (sec)
        +-------error handle time 		     : 0.0000000000 (sec)
        +-------adjust weight time[parallel section] : 8.1297409534 (sec)
*-------deallocation time: 0.0000000000 (sec)
~~~~~~~~~~~~~~~~~~~~~~~~~~~~~~~~~~~~~~~~~~~~~~~~~~~~~~~~~~~~~~~~~~~~~~~~~~~~~~~~~~~~~~~~~~~~~~~~~~
====================================================================================================

____________________________________________________________________________________________________

    with OMP_NUM_THREADS= 14 
 

Random number generator seed: 7
PAPI measurements:(rapl)> > > > > > > > > > > >
Counting Energy Consumption:
PACKAGE_ENERGY_CNT:PACKAGE0 (J) 0.009447019000
PACKAGE_ENERGY_CNT:PACKAGE1 (J) 0.009337655000
DRAM_ENERGY_CNT:PACKAGE0 (J)    0.010120643000
DRAM_ENERGY_CNT:PACKAGE1 (J)    0.003600953000


Energy in total:
PACKAGE_ENERGY:PACKAGE0 (J) 576.600280761000
PACKAGE_ENERGY:PACKAGE1 (J) 569.925231933000
DRAM_ENERGY:PACKAGE0    (J) 154.428756713000
DRAM_ENERGY:PACKAGE1    (J) 54.946182250000

Total train kernel time:  9.272856950760 (s)
Power (W) 146.222513606865
==================================================================



NUMBER OF OMP THREADS = 1
~~~~~~~~~~~~~~~~~~~~~~~~~~~~~~~~~~~~~~~~~~~~~~~~~~~~~~~~~~~~~~~~~~~~~~~~~~~~~~~~~~~~~~~~~~~~~~~~~~
Total execution [setup()] time         : 47.1411769390 (sec)
Initialization time [bpnn_initialize()]: 0.0000000000 (sec)
backprop_face() time: 0.0000000000 (sec)
*-------bpnn_create time: 0.0000000000 (sec)
*-------bpnn_train_kernel() time: 0.0000000000 (sec)
	+-------layerforward time [parallel section] : 2.4212551117 (sec)
        +-------error handle time 		     : 0.0000000000 (sec)
        +-------adjust weight time[parallel section] : 6.8516018391 (sec)
*-------deallocation time: 0.0000000000 (sec)
~~~~~~~~~~~~~~~~~~~~~~~~~~~~~~~~~~~~~~~~~~~~~~~~~~~~~~~~~~~~~~~~~~~~~~~~~~~~~~~~~~~~~~~~~~~~~~~~~~
====================================================================================================

____________________________________________________________________________________________________

    with OMP_NUM_THREADS= 15 
 

Random number generator seed: 7
PAPI measurements:(rapl)> > > > > > > > > > > >
Counting Energy Consumption:
PACKAGE_ENERGY_CNT:PACKAGE0 (J) 0.008149780000
PACKAGE_ENERGY_CNT:PACKAGE1 (J) 0.007590246000
DRAM_ENERGY_CNT:PACKAGE0 (J)    0.007357388000
DRAM_ENERGY_CNT:PACKAGE1 (J)    0.002410933000


Energy in total:
PACKAGE_ENERGY:PACKAGE0 (J) 497.423095703000
PACKAGE_ENERGY:PACKAGE1 (J) 463.271850585000
DRAM_ENERGY:PACKAGE0    (J) 112.264831542000
DRAM_ENERGY:PACKAGE1    (J) 36.787918090000

Total train kernel time:  6.082165956497 (s)
Power (W) 182.459292274741
==================================================================



NUMBER OF OMP THREADS = 1
~~~~~~~~~~~~~~~~~~~~~~~~~~~~~~~~~~~~~~~~~~~~~~~~~~~~~~~~~~~~~~~~~~~~~~~~~~~~~~~~~~~~~~~~~~~~~~~~~~
Total execution [setup()] time         : 43.9055721760 (sec)
Initialization time [bpnn_initialize()]: 0.0000000000 (sec)
backprop_face() time: 0.0000000000 (sec)
*-------bpnn_create time: 0.0000000000 (sec)
*-------bpnn_train_kernel() time: 0.0000000000 (sec)
	+-------layerforward time [parallel section] : 1.8960909843 (sec)
        +-------error handle time 		     : 0.0000009537 (sec)
        +-------adjust weight time[parallel section] : 4.1860749722 (sec)
*-------deallocation time: 0.0000000000 (sec)
~~~~~~~~~~~~~~~~~~~~~~~~~~~~~~~~~~~~~~~~~~~~~~~~~~~~~~~~~~~~~~~~~~~~~~~~~~~~~~~~~~~~~~~~~~~~~~~~~~
====================================================================================================

____________________________________________________________________________________________________

    with OMP_NUM_THREADS= 16 
 

Random number generator seed: 7
PAPI measurements:(rapl)> > > > > > > > > > > >
Counting Energy Consumption:
PACKAGE_ENERGY_CNT:PACKAGE0 (J) 0.008087545000
PACKAGE_ENERGY_CNT:PACKAGE1 (J) 0.008223205000
DRAM_ENERGY_CNT:PACKAGE0 (J)    0.008219830000
DRAM_ENERGY_CNT:PACKAGE1 (J)    0.002618741000


Energy in total:
PACKAGE_ENERGY:PACKAGE0 (J) 493.652587890000
PACKAGE_ENERGY:PACKAGE1 (J) 501.904602050000
DRAM_ENERGY:PACKAGE0    (J) 125.424652099000
DRAM_ENERGY:PACKAGE1    (J) 39.958816528000

Total train kernel time:  6.600780725479 (s)
Power (W) 175.879294715207
==================================================================



NUMBER OF OMP THREADS = 1
~~~~~~~~~~~~~~~~~~~~~~~~~~~~~~~~~~~~~~~~~~~~~~~~~~~~~~~~~~~~~~~~~~~~~~~~~~~~~~~~~~~~~~~~~~~~~~~~~~
Total execution [setup()] time         : 45.0425949097 (sec)
Initialization time [bpnn_initialize()]: 0.0000000000 (sec)
backprop_face() time: 0.0000000000 (sec)
*-------bpnn_create time: 0.0000000000 (sec)
*-------bpnn_train_kernel() time: 0.0000000000 (sec)
	+-------layerforward time [parallel section] : 1.4127888680 (sec)
        +-------error handle time 		     : 0.0000011921 (sec)
        +-------adjust weight time[parallel section] : 5.1879918575 (sec)
*-------deallocation time: 0.0000000000 (sec)
~~~~~~~~~~~~~~~~~~~~~~~~~~~~~~~~~~~~~~~~~~~~~~~~~~~~~~~~~~~~~~~~~~~~~~~~~~~~~~~~~~~~~~~~~~~~~~~~~~
====================================================================================================

____________________________________________________________________________________________________

    with OMP_NUM_THREADS= 17 
 

Random number generator seed: 7
PAPI measurements:(rapl)> > > > > > > > > > > >
Counting Energy Consumption:
PACKAGE_ENERGY_CNT:PACKAGE0 (J) 0.008523845000
PACKAGE_ENERGY_CNT:PACKAGE1 (J) 0.008213060000
DRAM_ENERGY_CNT:PACKAGE0 (J)    0.008222408000
DRAM_ENERGY_CNT:PACKAGE1 (J)    0.002583360000


Energy in total:
PACKAGE_ENERGY:PACKAGE0 (J) 520.254211425000
PACKAGE_ENERGY:PACKAGE1 (J) 501.285400390000
DRAM_ENERGY:PACKAGE0    (J) 125.463989257000
DRAM_ENERGY:PACKAGE1    (J) 39.418945312000

Total train kernel time:  6.514471054077 (s)
Power (W) 182.121086506550
==================================================================



NUMBER OF OMP THREADS = 1
~~~~~~~~~~~~~~~~~~~~~~~~~~~~~~~~~~~~~~~~~~~~~~~~~~~~~~~~~~~~~~~~~~~~~~~~~~~~~~~~~~~~~~~~~~~~~~~~~~
Total execution [setup()] time         : 44.4504311085 (sec)
Initialization time [bpnn_initialize()]: 0.0000000000 (sec)
backprop_face() time: 0.0000000000 (sec)
*-------bpnn_create time: 0.0000000000 (sec)
*-------bpnn_train_kernel() time: 0.0000000000 (sec)
	+-------layerforward time [parallel section] : 1.4025418758 (sec)
        +-------error handle time 		     : 0.0000009537 (sec)
        +-------adjust weight time[parallel section] : 5.1119291782 (sec)
*-------deallocation time: 0.0000000000 (sec)
~~~~~~~~~~~~~~~~~~~~~~~~~~~~~~~~~~~~~~~~~~~~~~~~~~~~~~~~~~~~~~~~~~~~~~~~~~~~~~~~~~~~~~~~~~~~~~~~~~
====================================================================================================

____________________________________________________________________________________________________

    with OMP_NUM_THREADS= 18 
 

Random number generator seed: 7
PAPI measurements:(rapl)> > > > > > > > > > > >
Counting Energy Consumption:
PACKAGE_ENERGY_CNT:PACKAGE0 (J) 0.007654632000
PACKAGE_ENERGY_CNT:PACKAGE1 (J) 0.007371905000
DRAM_ENERGY_CNT:PACKAGE0 (J)    0.007165197000
DRAM_ENERGY_CNT:PACKAGE1 (J)    0.002341358000


Energy in total:
PACKAGE_ENERGY:PACKAGE0 (J) 467.201660156000
PACKAGE_ENERGY:PACKAGE1 (J) 449.945373535000
DRAM_ENERGY:PACKAGE0    (J) 109.332229614000
DRAM_ENERGY:PACKAGE1    (J) 35.726287841000

Total train kernel time:  5.896946191788 (s)
Power (W) 180.128072497128
==================================================================



NUMBER OF OMP THREADS = 1
~~~~~~~~~~~~~~~~~~~~~~~~~~~~~~~~~~~~~~~~~~~~~~~~~~~~~~~~~~~~~~~~~~~~~~~~~~~~~~~~~~~~~~~~~~~~~~~~~~
Total execution [setup()] time         : 43.7203209400 (sec)
Initialization time [bpnn_initialize()]: 0.0000000000 (sec)
backprop_face() time: 0.0000000000 (sec)
*-------bpnn_create time: 0.0000000000 (sec)
*-------bpnn_train_kernel() time: 0.0000000000 (sec)
	+-------layerforward time [parallel section] : 1.4050312042 (sec)
        +-------error handle time 		     : 0.0000009537 (sec)
        +-------adjust weight time[parallel section] : 4.4919149876 (sec)
*-------deallocation time: 0.0000000000 (sec)
~~~~~~~~~~~~~~~~~~~~~~~~~~~~~~~~~~~~~~~~~~~~~~~~~~~~~~~~~~~~~~~~~~~~~~~~~~~~~~~~~~~~~~~~~~~~~~~~~~
====================================================================================================

____________________________________________________________________________________________________

    with OMP_NUM_THREADS= 19 
 

Random number generator seed: 7
PAPI measurements:(rapl)> > > > > > > > > > > >
Counting Energy Consumption:
PACKAGE_ENERGY_CNT:PACKAGE0 (J) 0.007983899000
PACKAGE_ENERGY_CNT:PACKAGE1 (J) 0.007775036000
DRAM_ENERGY_CNT:PACKAGE0 (J)    0.007453451000
DRAM_ENERGY_CNT:PACKAGE1 (J)    0.002399791000


Energy in total:
PACKAGE_ENERGY:PACKAGE0 (J) 487.298522949000
PACKAGE_ENERGY:PACKAGE1 (J) 474.550537109000
DRAM_ENERGY:PACKAGE0    (J) 113.730636596000
DRAM_ENERGY:PACKAGE1    (J) 36.617904663000

Total train kernel time:  6.031350135803 (s)
Power (W) 184.402758300299
==================================================================



NUMBER OF OMP THREADS = 1
~~~~~~~~~~~~~~~~~~~~~~~~~~~~~~~~~~~~~~~~~~~~~~~~~~~~~~~~~~~~~~~~~~~~~~~~~~~~~~~~~~~~~~~~~~~~~~~~~~
Total execution [setup()] time         : 43.9195630550 (sec)
Initialization time [bpnn_initialize()]: 0.0000000000 (sec)
backprop_face() time: 0.0000000000 (sec)
*-------bpnn_create time: 0.0000000000 (sec)
*-------bpnn_train_kernel() time: 0.0000000000 (sec)
	+-------layerforward time [parallel section] : 1.4016010761 (sec)
        +-------error handle time 		     : 0.0000000000 (sec)
        +-------adjust weight time[parallel section] : 4.6297490597 (sec)
*-------deallocation time: 0.0000000000 (sec)
~~~~~~~~~~~~~~~~~~~~~~~~~~~~~~~~~~~~~~~~~~~~~~~~~~~~~~~~~~~~~~~~~~~~~~~~~~~~~~~~~~~~~~~~~~~~~~~~~~
====================================================================================================

____________________________________________________________________________________________________

    with OMP_NUM_THREADS= 20 
 

Random number generator seed: 7
PAPI measurements:(rapl)> > > > > > > > > > > >
Counting Energy Consumption:
PACKAGE_ENERGY_CNT:PACKAGE0 (J) 0.006450459000
PACKAGE_ENERGY_CNT:PACKAGE1 (J) 0.006302281000
DRAM_ENERGY_CNT:PACKAGE0 (J)    0.005319107000
DRAM_ENERGY_CNT:PACKAGE1 (J)    0.001853233000


Energy in total:
PACKAGE_ENERGY:PACKAGE0 (J) 393.704772949000
PACKAGE_ENERGY:PACKAGE1 (J) 384.660705566000
DRAM_ENERGY:PACKAGE0    (J) 81.163131713000
DRAM_ENERGY:PACKAGE1    (J) 28.278091430000

Total train kernel time:  4.665421009064 (s)
Power (W) 190.295088038833
==================================================================



NUMBER OF OMP THREADS = 1
~~~~~~~~~~~~~~~~~~~~~~~~~~~~~~~~~~~~~~~~~~~~~~~~~~~~~~~~~~~~~~~~~~~~~~~~~~~~~~~~~~~~~~~~~~~~~~~~~~
Total execution [setup()] time         : 42.4793469906 (sec)
Initialization time [bpnn_initialize()]: 0.0000000000 (sec)
backprop_face() time: 0.0000000000 (sec)
*-------bpnn_create time: 0.0000000000 (sec)
*-------bpnn_train_kernel() time: 0.0000000000 (sec)
	+-------layerforward time [parallel section] : 1.4086709023 (sec)
        +-------error handle time 		     : 0.0000000000 (sec)
        +-------adjust weight time[parallel section] : 3.2567501068 (sec)
*-------deallocation time: 0.0000000000 (sec)
~~~~~~~~~~~~~~~~~~~~~~~~~~~~~~~~~~~~~~~~~~~~~~~~~~~~~~~~~~~~~~~~~~~~~~~~~~~~~~~~~~~~~~~~~~~~~~~~~~
====================================================================================================

____________________________________________________________________________________________________

    with OMP_NUM_THREADS= 21 
 

Random number generator seed: 7
PAPI measurements:(rapl)> > > > > > > > > > > >
Counting Energy Consumption:
PACKAGE_ENERGY_CNT:PACKAGE0 (J) 0.006395915000
PACKAGE_ENERGY_CNT:PACKAGE1 (J) 0.006549396000
DRAM_ENERGY_CNT:PACKAGE0 (J)    0.006375448000
DRAM_ENERGY_CNT:PACKAGE1 (J)    0.002099617000


Energy in total:
PACKAGE_ENERGY:PACKAGE0 (J) 390.375671386000
PACKAGE_ENERGY:PACKAGE1 (J) 399.743408203000
DRAM_ENERGY:PACKAGE0    (J) 97.281616210000
DRAM_ENERGY:PACKAGE1    (J) 32.037612915000

Total train kernel time:  5.279134988785 (s)
Power (W) 174.164576330647
==================================================================



NUMBER OF OMP THREADS = 1
~~~~~~~~~~~~~~~~~~~~~~~~~~~~~~~~~~~~~~~~~~~~~~~~~~~~~~~~~~~~~~~~~~~~~~~~~~~~~~~~~~~~~~~~~~~~~~~~~~
Total execution [setup()] time         : 43.2688579559 (sec)
Initialization time [bpnn_initialize()]: 0.0000000000 (sec)
backprop_face() time: 0.0000000000 (sec)
*-------bpnn_create time: 0.0000000000 (sec)
*-------bpnn_train_kernel() time: 0.0000000000 (sec)
	+-------layerforward time [parallel section] : 1.4012188911 (sec)
        +-------error handle time 		     : 0.0000000000 (sec)
        +-------adjust weight time[parallel section] : 3.8779160976 (sec)
*-------deallocation time: 0.0000000000 (sec)
~~~~~~~~~~~~~~~~~~~~~~~~~~~~~~~~~~~~~~~~~~~~~~~~~~~~~~~~~~~~~~~~~~~~~~~~~~~~~~~~~~~~~~~~~~~~~~~~~~
====================================================================================================

____________________________________________________________________________________________________

    with OMP_NUM_THREADS= 22 
 

Random number generator seed: 7
PAPI measurements:(rapl)> > > > > > > > > > > >
Counting Energy Consumption:
PACKAGE_ENERGY_CNT:PACKAGE0 (J) 0.006764205000
PACKAGE_ENERGY_CNT:PACKAGE1 (J) 0.006761767000
DRAM_ENERGY_CNT:PACKAGE0 (J)    0.006728413000
DRAM_ENERGY_CNT:PACKAGE1 (J)    0.002203716000


Energy in total:
PACKAGE_ENERGY:PACKAGE0 (J) 412.854309082000
PACKAGE_ENERGY:PACKAGE1 (J) 412.705505371000
DRAM_ENERGY:PACKAGE0    (J) 102.667434692000
DRAM_ENERGY:PACKAGE1    (J) 33.626037597000

Total train kernel time:  5.565284013748 (s)
Power (W) 172.830943464141
==================================================================



NUMBER OF OMP THREADS = 1
~~~~~~~~~~~~~~~~~~~~~~~~~~~~~~~~~~~~~~~~~~~~~~~~~~~~~~~~~~~~~~~~~~~~~~~~~~~~~~~~~~~~~~~~~~~~~~~~~~
Total execution [setup()] time         : 43.5792667866 (sec)
Initialization time [bpnn_initialize()]: 0.0000000000 (sec)
backprop_face() time: 0.0000000000 (sec)
*-------bpnn_create time: 0.0000000000 (sec)
*-------bpnn_train_kernel() time: 0.0000000000 (sec)
	+-------layerforward time [parallel section] : 1.4067201614 (sec)
        +-------error handle time 		     : 0.0000000000 (sec)
        +-------adjust weight time[parallel section] : 4.1585638523 (sec)
*-------deallocation time: 0.0000000000 (sec)
~~~~~~~~~~~~~~~~~~~~~~~~~~~~~~~~~~~~~~~~~~~~~~~~~~~~~~~~~~~~~~~~~~~~~~~~~~~~~~~~~~~~~~~~~~~~~~~~~~
====================================================================================================

____________________________________________________________________________________________________

    with OMP_NUM_THREADS= 23 
 

Random number generator seed: 7
PAPI measurements:(rapl)> > > > > > > > > > > >
Counting Energy Consumption:
PACKAGE_ENERGY_CNT:PACKAGE0 (J) 0.008016764000
PACKAGE_ENERGY_CNT:PACKAGE1 (J) 0.007308622000
DRAM_ENERGY_CNT:PACKAGE0 (J)    0.007651238000
DRAM_ENERGY_CNT:PACKAGE1 (J)    0.002455820000


Energy in total:
PACKAGE_ENERGY:PACKAGE0 (J) 489.340576171000
PACKAGE_ENERGY:PACKAGE1 (J) 446.082885742000
DRAM_ENERGY:PACKAGE0    (J) 116.759826660000
DRAM_ENERGY:PACKAGE1    (J) 37.472839355000

Total train kernel time:  6.207467794418 (s)
Power (W) 175.539553972040
==================================================================



NUMBER OF OMP THREADS = 1
~~~~~~~~~~~~~~~~~~~~~~~~~~~~~~~~~~~~~~~~~~~~~~~~~~~~~~~~~~~~~~~~~~~~~~~~~~~~~~~~~~~~~~~~~~~~~~~~~~
Total execution [setup()] time         : 44.2038648129 (sec)
Initialization time [bpnn_initialize()]: 0.0000000000 (sec)
backprop_face() time: 0.0000000000 (sec)
*-------bpnn_create time: 0.0000000000 (sec)
*-------bpnn_train_kernel() time: 0.0000000000 (sec)
	+-------layerforward time [parallel section] : 1.4068169594 (sec)
        +-------error handle time 		     : 0.0000000000 (sec)
        +-------adjust weight time[parallel section] : 4.8006508350 (sec)
*-------deallocation time: 0.0000000000 (sec)
~~~~~~~~~~~~~~~~~~~~~~~~~~~~~~~~~~~~~~~~~~~~~~~~~~~~~~~~~~~~~~~~~~~~~~~~~~~~~~~~~~~~~~~~~~~~~~~~~~
====================================================================================================

____________________________________________________________________________________________________

    with OMP_NUM_THREADS= 24 
 

Random number generator seed: 7
PAPI measurements:(rapl)> > > > > > > > > > > >
Counting Energy Consumption:
PACKAGE_ENERGY_CNT:PACKAGE0 (J) 0.008651365000
PACKAGE_ENERGY_CNT:PACKAGE1 (J) 0.008181097000
DRAM_ENERGY_CNT:PACKAGE0 (J)    0.007985601000
DRAM_ENERGY_CNT:PACKAGE1 (J)    0.002525830000


Energy in total:
PACKAGE_ENERGY:PACKAGE0 (J) 528.037414550000
PACKAGE_ENERGY:PACKAGE1 (J) 499.334533691000
DRAM_ENERGY:PACKAGE0    (J) 121.850601196000
DRAM_ENERGY:PACKAGE1    (J) 38.541107177000

Total train kernel time:  6.346789121628 (s)
Power (W) 187.144024143875
==================================================================



NUMBER OF OMP THREADS = 1
~~~~~~~~~~~~~~~~~~~~~~~~~~~~~~~~~~~~~~~~~~~~~~~~~~~~~~~~~~~~~~~~~~~~~~~~~~~~~~~~~~~~~~~~~~~~~~~~~~
Total execution [setup()] time         : 44.1707689762 (sec)
Initialization time [bpnn_initialize()]: 0.0000000000 (sec)
backprop_face() time: 0.0000000000 (sec)
*-------bpnn_create time: 0.0000000000 (sec)
*-------bpnn_train_kernel() time: 0.0000000000 (sec)
	+-------layerforward time [parallel section] : 1.3993771076 (sec)
        +-------error handle time 		     : 0.0000000000 (sec)
        +-------adjust weight time[parallel section] : 4.9474120140 (sec)
*-------deallocation time: 0.0000000000 (sec)
~~~~~~~~~~~~~~~~~~~~~~~~~~~~~~~~~~~~~~~~~~~~~~~~~~~~~~~~~~~~~~~~~~~~~~~~~~~~~~~~~~~~~~~~~~~~~~~~~~
====================================================================================================

____________________________________________________________________________________________________

    with OMP_NUM_THREADS= 25 
 

Random number generator seed: 7
PAPI measurements:(rapl)> > > > > > > > > > > >
Counting Energy Consumption:
PACKAGE_ENERGY_CNT:PACKAGE0 (J) 0.006392444000
PACKAGE_ENERGY_CNT:PACKAGE1 (J) 0.006178219000
DRAM_ENERGY_CNT:PACKAGE0 (J)    0.005578856000
DRAM_ENERGY_CNT:PACKAGE1 (J)    0.001903554000


Energy in total:
PACKAGE_ENERGY:PACKAGE0 (J) 390.163818359000
PACKAGE_ENERGY:PACKAGE1 (J) 377.088562011000
DRAM_ENERGY:PACKAGE0    (J) 85.126586914000
DRAM_ENERGY:PACKAGE1    (J) 29.045928955000

Total train kernel time:  4.783682107925 (s)
Power (W) 184.256578165738
==================================================================



NUMBER OF OMP THREADS = 1
~~~~~~~~~~~~~~~~~~~~~~~~~~~~~~~~~~~~~~~~~~~~~~~~~~~~~~~~~~~~~~~~~~~~~~~~~~~~~~~~~~~~~~~~~~~~~~~~~~
Total execution [setup()] time         : 42.6221950054 (sec)
Initialization time [bpnn_initialize()]: 0.0000000000 (sec)
backprop_face() time: 0.0000000000 (sec)
*-------bpnn_create time: 0.0000000000 (sec)
*-------bpnn_train_kernel() time: 0.0000000000 (sec)
	+-------layerforward time [parallel section] : 1.4030771255 (sec)
        +-------error handle time 		     : 0.0000000000 (sec)
        +-------adjust weight time[parallel section] : 3.3806049824 (sec)
*-------deallocation time: 0.0000000000 (sec)
~~~~~~~~~~~~~~~~~~~~~~~~~~~~~~~~~~~~~~~~~~~~~~~~~~~~~~~~~~~~~~~~~~~~~~~~~~~~~~~~~~~~~~~~~~~~~~~~~~
====================================================================================================

____________________________________________________________________________________________________

    with OMP_NUM_THREADS= 26 
 

Random number generator seed: 7
PAPI measurements:(rapl)> > > > > > > > > > > >
Counting Energy Consumption:
PACKAGE_ENERGY_CNT:PACKAGE0 (J) 0.007636337000
PACKAGE_ENERGY_CNT:PACKAGE1 (J) 0.007129844000
DRAM_ENERGY_CNT:PACKAGE0 (J)    0.006897909000
DRAM_ENERGY_CNT:PACKAGE1 (J)    0.002337351000


Energy in total:
PACKAGE_ENERGY:PACKAGE0 (J) 466.085021972000
PACKAGE_ENERGY:PACKAGE1 (J) 435.171142578000
DRAM_ENERGY:PACKAGE0    (J) 105.253738403000
DRAM_ENERGY:PACKAGE1    (J) 35.665145874000

Total train kernel time:  5.895576000214 (s)
Power (W) 176.772388107496
==================================================================



NUMBER OF OMP THREADS = 1
~~~~~~~~~~~~~~~~~~~~~~~~~~~~~~~~~~~~~~~~~~~~~~~~~~~~~~~~~~~~~~~~~~~~~~~~~~~~~~~~~~~~~~~~~~~~~~~~~~
Total execution [setup()] time         : 43.7247099876 (sec)
Initialization time [bpnn_initialize()]: 0.0000000000 (sec)
backprop_face() time: 0.0000000000 (sec)
*-------bpnn_create time: 0.0000000000 (sec)
*-------bpnn_train_kernel() time: 0.0000000000 (sec)
	+-------layerforward time [parallel section] : 1.4022359848 (sec)
        +-------error handle time 		     : 0.0000009537 (sec)
        +-------adjust weight time[parallel section] : 4.4933400154 (sec)
*-------deallocation time: 0.0000000000 (sec)
~~~~~~~~~~~~~~~~~~~~~~~~~~~~~~~~~~~~~~~~~~~~~~~~~~~~~~~~~~~~~~~~~~~~~~~~~~~~~~~~~~~~~~~~~~~~~~~~~~
====================================================================================================

____________________________________________________________________________________________________

    with OMP_NUM_THREADS= 27 
 

Random number generator seed: 7
PAPI measurements:(rapl)> > > > > > > > > > > >
Counting Energy Consumption:
PACKAGE_ENERGY_CNT:PACKAGE0 (J) 0.007831148000
PACKAGE_ENERGY_CNT:PACKAGE1 (J) 0.007295763000
DRAM_ENERGY_CNT:PACKAGE0 (J)    0.007434914000
DRAM_ENERGY_CNT:PACKAGE1 (J)    0.002406857000


Energy in total:
PACKAGE_ENERGY:PACKAGE0 (J) 477.975341796000
PACKAGE_ENERGY:PACKAGE1 (J) 445.298034667000
DRAM_ENERGY:PACKAGE0    (J) 113.447784423000
DRAM_ENERGY:PACKAGE1    (J) 36.725723266000

Total train kernel time:  6.069130897522 (s)
Power (W) 176.869950949697
==================================================================



NUMBER OF OMP THREADS = 1
~~~~~~~~~~~~~~~~~~~~~~~~~~~~~~~~~~~~~~~~~~~~~~~~~~~~~~~~~~~~~~~~~~~~~~~~~~~~~~~~~~~~~~~~~~~~~~~~~~
Total execution [setup()] time         : 43.8971319199 (sec)
Initialization time [bpnn_initialize()]: 0.0000000000 (sec)
backprop_face() time: 0.0000000000 (sec)
*-------bpnn_create time: 0.0000000000 (sec)
*-------bpnn_train_kernel() time: 0.0000000000 (sec)
	+-------layerforward time [parallel section] : 1.4044840336 (sec)
        +-------error handle time 		     : 0.0000000000 (sec)
        +-------adjust weight time[parallel section] : 4.6646468639 (sec)
*-------deallocation time: 0.0000000000 (sec)
~~~~~~~~~~~~~~~~~~~~~~~~~~~~~~~~~~~~~~~~~~~~~~~~~~~~~~~~~~~~~~~~~~~~~~~~~~~~~~~~~~~~~~~~~~~~~~~~~~
====================================================================================================

____________________________________________________________________________________________________

    with OMP_NUM_THREADS= 28 
 

Random number generator seed: 7
PAPI measurements:(rapl)> > > > > > > > > > > >
Counting Energy Consumption:
PACKAGE_ENERGY_CNT:PACKAGE0 (J) 0.008416525000
PACKAGE_ENERGY_CNT:PACKAGE1 (J) 0.008491883000
DRAM_ENERGY_CNT:PACKAGE0 (J)    0.009096734000
DRAM_ENERGY_CNT:PACKAGE1 (J)    0.002881183000


Energy in total:
PACKAGE_ENERGY:PACKAGE0 (J) 513.703918457000
PACKAGE_ENERGY:PACKAGE1 (J) 518.303405761000
DRAM_ENERGY:PACKAGE0    (J) 138.805145263000
DRAM_ENERGY:PACKAGE1    (J) 43.963363647000

Total train kernel time:  7.232557058334 (s)
Power (W) 167.959384672696
==================================================================



NUMBER OF OMP THREADS = 1
~~~~~~~~~~~~~~~~~~~~~~~~~~~~~~~~~~~~~~~~~~~~~~~~~~~~~~~~~~~~~~~~~~~~~~~~~~~~~~~~~~~~~~~~~~~~~~~~~~
Total execution [setup()] time         : 45.0322728157 (sec)
Initialization time [bpnn_initialize()]: 0.0000000000 (sec)
backprop_face() time: 0.0000000000 (sec)
*-------bpnn_create time: 0.0000000000 (sec)
*-------bpnn_train_kernel() time: 0.0000000000 (sec)
	+-------layerforward time [parallel section] : 1.4005079269 (sec)
        +-------error handle time 		     : 0.0000000000 (sec)
        +-------adjust weight time[parallel section] : 5.8320491314 (sec)
*-------deallocation time: 0.0000000000 (sec)
~~~~~~~~~~~~~~~~~~~~~~~~~~~~~~~~~~~~~~~~~~~~~~~~~~~~~~~~~~~~~~~~~~~~~~~~~~~~~~~~~~~~~~~~~~~~~~~~~~
====================================================================================================

____________________________________________________________________________________________________

    with OMP_NUM_THREADS= 29 
 

Random number generator seed: 7
PAPI measurements:(rapl)> > > > > > > > > > > >
Counting Energy Consumption:
PACKAGE_ENERGY_CNT:PACKAGE0 (J) 0.007482289000
PACKAGE_ENERGY_CNT:PACKAGE1 (J) 0.007460411000
DRAM_ENERGY_CNT:PACKAGE0 (J)    0.007927891000
DRAM_ENERGY_CNT:PACKAGE1 (J)    0.002528450000


Energy in total:
PACKAGE_ENERGY:PACKAGE0 (J) 456.682678222000
PACKAGE_ENERGY:PACKAGE1 (J) 455.347351074000
DRAM_ENERGY:PACKAGE0    (J) 120.970016479000
DRAM_ENERGY:PACKAGE1    (J) 38.581085205000

Total train kernel time:  6.354976177216 (s)
Power (W) 168.620794334671
==================================================================



NUMBER OF OMP THREADS = 1
~~~~~~~~~~~~~~~~~~~~~~~~~~~~~~~~~~~~~~~~~~~~~~~~~~~~~~~~~~~~~~~~~~~~~~~~~~~~~~~~~~~~~~~~~~~~~~~~~~
Total execution [setup()] time         : 44.1633150578 (sec)
Initialization time [bpnn_initialize()]: 0.0000000000 (sec)
backprop_face() time: 0.0000000000 (sec)
*-------bpnn_create time: 0.0000000000 (sec)
*-------bpnn_train_kernel() time: 0.0000000000 (sec)
	+-------layerforward time [parallel section] : 1.4033260345 (sec)
        +-------error handle time 		     : 0.0000009537 (sec)
        +-------adjust weight time[parallel section] : 4.9516501427 (sec)
*-------deallocation time: 0.0000000000 (sec)
~~~~~~~~~~~~~~~~~~~~~~~~~~~~~~~~~~~~~~~~~~~~~~~~~~~~~~~~~~~~~~~~~~~~~~~~~~~~~~~~~~~~~~~~~~~~~~~~~~
====================================================================================================

____________________________________________________________________________________________________

    with OMP_NUM_THREADS= 30 
 

Random number generator seed: 7
PAPI measurements:(rapl)> > > > > > > > > > > >
Counting Energy Consumption:
PACKAGE_ENERGY_CNT:PACKAGE0 (J) 0.007005030000
PACKAGE_ENERGY_CNT:PACKAGE1 (J) 0.007280035000
DRAM_ENERGY_CNT:PACKAGE0 (J)    0.007131718000
DRAM_ENERGY_CNT:PACKAGE1 (J)    0.002314477000


Energy in total:
PACKAGE_ENERGY:PACKAGE0 (J) 427.553100585000
PACKAGE_ENERGY:PACKAGE1 (J) 444.338073730000
DRAM_ENERGY:PACKAGE0    (J) 108.821380615000
DRAM_ENERGY:PACKAGE1    (J) 35.316116333000

Total train kernel time:  5.829104900360 (s)
Power (W) 174.302691173088
==================================================================



NUMBER OF OMP THREADS = 1
~~~~~~~~~~~~~~~~~~~~~~~~~~~~~~~~~~~~~~~~~~~~~~~~~~~~~~~~~~~~~~~~~~~~~~~~~~~~~~~~~~~~~~~~~~~~~~~~~~
Total execution [setup()] time         : 43.8407931328 (sec)
Initialization time [bpnn_initialize()]: 0.0000000000 (sec)
backprop_face() time: 0.0000000000 (sec)
*-------bpnn_create time: 0.0000000000 (sec)
*-------bpnn_train_kernel() time: 0.0000000000 (sec)
	+-------layerforward time [parallel section] : 1.3977289200 (sec)
        +-------error handle time 		     : 0.0000000000 (sec)
        +-------adjust weight time[parallel section] : 4.4313759804 (sec)
*-------deallocation time: 0.0000000000 (sec)
~~~~~~~~~~~~~~~~~~~~~~~~~~~~~~~~~~~~~~~~~~~~~~~~~~~~~~~~~~~~~~~~~~~~~~~~~~~~~~~~~~~~~~~~~~~~~~~~~~
====================================================================================================

____________________________________________________________________________________________________

    with OMP_NUM_THREADS= 31 
 

Random number generator seed: 7
PAPI measurements:(rapl)> > > > > > > > > > > >
Counting Energy Consumption:
PACKAGE_ENERGY_CNT:PACKAGE0 (J) 0.007383608000
PACKAGE_ENERGY_CNT:PACKAGE1 (J) 0.007461792000
DRAM_ENERGY_CNT:PACKAGE0 (J)    0.007036438000
DRAM_ENERGY_CNT:PACKAGE1 (J)    0.002285656000


Energy in total:
PACKAGE_ENERGY:PACKAGE0 (J) 450.659667968000
PACKAGE_ENERGY:PACKAGE1 (J) 455.431640625000
DRAM_ENERGY:PACKAGE0    (J) 107.367523193000
DRAM_ENERGY:PACKAGE1    (J) 34.876342773000

Total train kernel time:  5.742233037949 (s)
Power (W) 182.565766249973
==================================================================



NUMBER OF OMP THREADS = 1
~~~~~~~~~~~~~~~~~~~~~~~~~~~~~~~~~~~~~~~~~~~~~~~~~~~~~~~~~~~~~~~~~~~~~~~~~~~~~~~~~~~~~~~~~~~~~~~~~~
Total execution [setup()] time         : 43.6292622089 (sec)
Initialization time [bpnn_initialize()]: 0.0000000000 (sec)
backprop_face() time: 0.0000000000 (sec)
*-------bpnn_create time: 0.0000000000 (sec)
*-------bpnn_train_kernel() time: 0.0000000000 (sec)
	+-------layerforward time [parallel section] : 1.3955419064 (sec)
        +-------error handle time 		     : 0.0000000000 (sec)
        +-------adjust weight time[parallel section] : 4.3466911316 (sec)
*-------deallocation time: 0.0000000000 (sec)
~~~~~~~~~~~~~~~~~~~~~~~~~~~~~~~~~~~~~~~~~~~~~~~~~~~~~~~~~~~~~~~~~~~~~~~~~~~~~~~~~~~~~~~~~~~~~~~~~~
====================================================================================================

____________________________________________________________________________________________________

    with OMP_NUM_THREADS= 32 
 

Random number generator seed: 7
PAPI measurements:(rapl)> > > > > > > > > > > >
Counting Energy Consumption:
PACKAGE_ENERGY_CNT:PACKAGE0 (J) 0.007208172000
PACKAGE_ENERGY_CNT:PACKAGE1 (J) 0.007200717000
DRAM_ENERGY_CNT:PACKAGE0 (J)    0.007510858000
DRAM_ENERGY_CNT:PACKAGE1 (J)    0.002393677000


Energy in total:
PACKAGE_ENERGY:PACKAGE0 (J) 439.951904296000
PACKAGE_ENERGY:PACKAGE1 (J) 439.496887207000
DRAM_ENERGY:PACKAGE0    (J) 114.606597900000
DRAM_ENERGY:PACKAGE1    (J) 36.524612426000

Total train kernel time:  6.024028062820 (s)
Power (W) 171.078220599538
==================================================================



NUMBER OF OMP THREADS = 1
~~~~~~~~~~~~~~~~~~~~~~~~~~~~~~~~~~~~~~~~~~~~~~~~~~~~~~~~~~~~~~~~~~~~~~~~~~~~~~~~~~~~~~~~~~~~~~~~~~
Total execution [setup()] time         : 43.9566879272 (sec)
Initialization time [bpnn_initialize()]: 0.0000000000 (sec)
backprop_face() time: 0.0000000000 (sec)
*-------bpnn_create time: 0.0000000000 (sec)
*-------bpnn_train_kernel() time: 0.0000000000 (sec)
	+-------layerforward time [parallel section] : 1.4036540985 (sec)
        +-------error handle time 		     : 0.0000009537 (sec)
        +-------adjust weight time[parallel section] : 4.6203739643 (sec)
*-------deallocation time: 0.0000000000 (sec)
~~~~~~~~~~~~~~~~~~~~~~~~~~~~~~~~~~~~~~~~~~~~~~~~~~~~~~~~~~~~~~~~~~~~~~~~~~~~~~~~~~~~~~~~~~~~~~~~~~
====================================================================================================

____________________________________________________________________________________________________

    with OMP_NUM_THREADS= 33 
 

Random number generator seed: 7
PAPI measurements:(rapl)> > > > > > > > > > > >
Counting Energy Consumption:
PACKAGE_ENERGY_CNT:PACKAGE0 (J) 0.007293534000
PACKAGE_ENERGY_CNT:PACKAGE1 (J) 0.006942259000
DRAM_ENERGY_CNT:PACKAGE0 (J)    0.006707582000
DRAM_ENERGY_CNT:PACKAGE1 (J)    0.002217793000


Energy in total:
PACKAGE_ENERGY:PACKAGE0 (J) 445.161987304000
PACKAGE_ENERGY:PACKAGE1 (J) 423.721862792000
DRAM_ENERGY:PACKAGE0    (J) 102.349578857000
DRAM_ENERGY:PACKAGE1    (J) 33.840835571000

Total train kernel time:  5.588239908218 (s)
Power (W) 179.855246201202
==================================================================



NUMBER OF OMP THREADS = 1
~~~~~~~~~~~~~~~~~~~~~~~~~~~~~~~~~~~~~~~~~~~~~~~~~~~~~~~~~~~~~~~~~~~~~~~~~~~~~~~~~~~~~~~~~~~~~~~~~~
Total execution [setup()] time         : 43.5538480282 (sec)
Initialization time [bpnn_initialize()]: 0.0000000000 (sec)
backprop_face() time: 0.0000000000 (sec)
*-------bpnn_create time: 0.0000000000 (sec)
*-------bpnn_train_kernel() time: 0.0000000000 (sec)
	+-------layerforward time [parallel section] : 1.3954110146 (sec)
        +-------error handle time 		     : 0.0000000000 (sec)
        +-------adjust weight time[parallel section] : 4.1928288937 (sec)
*-------deallocation time: 0.0000000000 (sec)
~~~~~~~~~~~~~~~~~~~~~~~~~~~~~~~~~~~~~~~~~~~~~~~~~~~~~~~~~~~~~~~~~~~~~~~~~~~~~~~~~~~~~~~~~~~~~~~~~~
====================================================================================================

____________________________________________________________________________________________________

    with OMP_NUM_THREADS= 34 
 

Random number generator seed: 7
PAPI measurements:(rapl)> > > > > > > > > > > >
Counting Energy Consumption:
PACKAGE_ENERGY_CNT:PACKAGE0 (J) 0.006088811000
PACKAGE_ENERGY_CNT:PACKAGE1 (J) 0.006126202000
DRAM_ENERGY_CNT:PACKAGE0 (J)    0.005884484000
DRAM_ENERGY_CNT:PACKAGE1 (J)    0.001980459000


Energy in total:
PACKAGE_ENERGY:PACKAGE0 (J) 371.631530761000
PACKAGE_ENERGY:PACKAGE1 (J) 373.913696289000
DRAM_ENERGY:PACKAGE0    (J) 89.790100097000
DRAM_ENERGY:PACKAGE1    (J) 30.219406127000

Total train kernel time:  5.005823850632 (s)
Power (W) 172.909546780151
==================================================================



NUMBER OF OMP THREADS = 1
~~~~~~~~~~~~~~~~~~~~~~~~~~~~~~~~~~~~~~~~~~~~~~~~~~~~~~~~~~~~~~~~~~~~~~~~~~~~~~~~~~~~~~~~~~~~~~~~~~
Total execution [setup()] time         : 42.9677038193 (sec)
Initialization time [bpnn_initialize()]: 0.0000000000 (sec)
backprop_face() time: 0.0000000000 (sec)
*-------bpnn_create time: 0.0000000000 (sec)
*-------bpnn_train_kernel() time: 0.0000000000 (sec)
	+-------layerforward time [parallel section] : 1.3951568604 (sec)
        +-------error handle time 		     : 0.0000000000 (sec)
        +-------adjust weight time[parallel section] : 3.6106669903 (sec)
*-------deallocation time: 0.0000000000 (sec)
~~~~~~~~~~~~~~~~~~~~~~~~~~~~~~~~~~~~~~~~~~~~~~~~~~~~~~~~~~~~~~~~~~~~~~~~~~~~~~~~~~~~~~~~~~~~~~~~~~
====================================================================================================

____________________________________________________________________________________________________

    with OMP_NUM_THREADS= 35 
 

Random number generator seed: 7
PAPI measurements:(rapl)> > > > > > > > > > > >
Counting Energy Consumption:
PACKAGE_ENERGY_CNT:PACKAGE0 (J) 0.007208546000
PACKAGE_ENERGY_CNT:PACKAGE1 (J) 0.007346049000
DRAM_ENERGY_CNT:PACKAGE0 (J)    0.007370627000
DRAM_ENERGY_CNT:PACKAGE1 (J)    0.002404825000


Energy in total:
PACKAGE_ENERGY:PACKAGE0 (J) 439.974731445000
PACKAGE_ENERGY:PACKAGE1 (J) 448.367248535000
DRAM_ENERGY:PACKAGE0    (J) 112.466842651000
DRAM_ENERGY:PACKAGE1    (J) 36.694717407000

Total train kernel time:  6.062090158463 (s)
Power (W) 171.146174490604
==================================================================



NUMBER OF OMP THREADS = 1
~~~~~~~~~~~~~~~~~~~~~~~~~~~~~~~~~~~~~~~~~~~~~~~~~~~~~~~~~~~~~~~~~~~~~~~~~~~~~~~~~~~~~~~~~~~~~~~~~~
Total execution [setup()] time         : 44.0256810188 (sec)
Initialization time [bpnn_initialize()]: 0.0000000000 (sec)
backprop_face() time: 0.0000000000 (sec)
*-------bpnn_create time: 0.0000000000 (sec)
*-------bpnn_train_kernel() time: 0.0000000000 (sec)
	+-------layerforward time [parallel section] : 1.3970081806 (sec)
        +-------error handle time 		     : 0.0000000000 (sec)
        +-------adjust weight time[parallel section] : 4.6650819778 (sec)
*-------deallocation time: 0.0000000000 (sec)
~~~~~~~~~~~~~~~~~~~~~~~~~~~~~~~~~~~~~~~~~~~~~~~~~~~~~~~~~~~~~~~~~~~~~~~~~~~~~~~~~~~~~~~~~~~~~~~~~~
====================================================================================================

____________________________________________________________________________________________________

    with OMP_NUM_THREADS= 36 
 

Random number generator seed: 7
PAPI measurements:(rapl)> > > > > > > > > > > >
Counting Energy Consumption:
PACKAGE_ENERGY_CNT:PACKAGE0 (J) 0.005773037000
PACKAGE_ENERGY_CNT:PACKAGE1 (J) 0.006111846000
DRAM_ENERGY_CNT:PACKAGE0 (J)    0.005638626000
DRAM_ENERGY_CNT:PACKAGE1 (J)    0.001950739000


Energy in total:
PACKAGE_ENERGY:PACKAGE0 (J) 352.358215332000
PACKAGE_ENERGY:PACKAGE1 (J) 373.037475585000
DRAM_ENERGY:PACKAGE0    (J) 86.038604736000
DRAM_ENERGY:PACKAGE1    (J) 29.765914916000

Total train kernel time:  4.915517807007 (s)
Power (W) 171.131555941046
==================================================================



NUMBER OF OMP THREADS = 1
~~~~~~~~~~~~~~~~~~~~~~~~~~~~~~~~~~~~~~~~~~~~~~~~~~~~~~~~~~~~~~~~~~~~~~~~~~~~~~~~~~~~~~~~~~~~~~~~~~
Total execution [setup()] time         : 42.9232230186 (sec)
Initialization time [bpnn_initialize()]: 0.0000000000 (sec)
backprop_face() time: 0.0000000000 (sec)
*-------bpnn_create time: 0.0000000000 (sec)
*-------bpnn_train_kernel() time: 0.0000000000 (sec)
	+-------layerforward time [parallel section] : 1.4012169838 (sec)
        +-------error handle time 		     : 0.0000011921 (sec)
        +-------adjust weight time[parallel section] : 3.5143008232 (sec)
*-------deallocation time: 0.0000000000 (sec)
~~~~~~~~~~~~~~~~~~~~~~~~~~~~~~~~~~~~~~~~~~~~~~~~~~~~~~~~~~~~~~~~~~~~~~~~~~~~~~~~~~~~~~~~~~~~~~~~~~
====================================================================================================

____________________________________________________________________________________________________

    with OMP_NUM_THREADS= 37 
 

Random number generator seed: 7
PAPI measurements:(rapl)> > > > > > > > > > > >
Counting Energy Consumption:
PACKAGE_ENERGY_CNT:PACKAGE0 (J) 0.006555614000
PACKAGE_ENERGY_CNT:PACKAGE1 (J) 0.006604723000
DRAM_ENERGY_CNT:PACKAGE0 (J)    0.006684986000
DRAM_ENERGY_CNT:PACKAGE1 (J)    0.002226610000


Energy in total:
PACKAGE_ENERGY:PACKAGE0 (J) 400.122924804000
PACKAGE_ENERGY:PACKAGE1 (J) 403.120300292000
DRAM_ENERGY:PACKAGE0    (J) 102.004791259000
DRAM_ENERGY:PACKAGE1    (J) 33.975372314000

Total train kernel time:  5.625168085098 (s)
Power (W) 166.968057569180
==================================================================



NUMBER OF OMP THREADS = 1
~~~~~~~~~~~~~~~~~~~~~~~~~~~~~~~~~~~~~~~~~~~~~~~~~~~~~~~~~~~~~~~~~~~~~~~~~~~~~~~~~~~~~~~~~~~~~~~~~~
Total execution [setup()] time         : 43.6130349636 (sec)
Initialization time [bpnn_initialize()]: 0.0000000000 (sec)
backprop_face() time: 0.0000000000 (sec)
*-------bpnn_create time: 0.0000000000 (sec)
*-------bpnn_train_kernel() time: 0.0000000000 (sec)
	+-------layerforward time [parallel section] : 1.4044561386 (sec)
        +-------error handle time 		     : 0.0000000000 (sec)
        +-------adjust weight time[parallel section] : 4.2207119465 (sec)
*-------deallocation time: 0.0000000000 (sec)
~~~~~~~~~~~~~~~~~~~~~~~~~~~~~~~~~~~~~~~~~~~~~~~~~~~~~~~~~~~~~~~~~~~~~~~~~~~~~~~~~~~~~~~~~~~~~~~~~~
====================================================================================================

____________________________________________________________________________________________________

    with OMP_NUM_THREADS= 38 
 

Random number generator seed: 7
PAPI measurements:(rapl)> > > > > > > > > > > >
Counting Energy Consumption:
PACKAGE_ENERGY_CNT:PACKAGE0 (J) 0.008228662000
PACKAGE_ENERGY_CNT:PACKAGE1 (J) 0.007596370000
DRAM_ENERGY_CNT:PACKAGE0 (J)    0.007948997000
DRAM_ENERGY_CNT:PACKAGE1 (J)    0.002570259000


Energy in total:
PACKAGE_ENERGY:PACKAGE0 (J) 502.237670898000
PACKAGE_ENERGY:PACKAGE1 (J) 463.645629882000
DRAM_ENERGY:PACKAGE0    (J) 121.292068481000
DRAM_ENERGY:PACKAGE1    (J) 39.219039916000

Total train kernel time:  6.474986791611 (s)
Power (W) 173.960881377613
==================================================================



NUMBER OF OMP THREADS = 1
~~~~~~~~~~~~~~~~~~~~~~~~~~~~~~~~~~~~~~~~~~~~~~~~~~~~~~~~~~~~~~~~~~~~~~~~~~~~~~~~~~~~~~~~~~~~~~~~~~
Total execution [setup()] time         : 45.4582281113 (sec)
Initialization time [bpnn_initialize()]: 0.0000000000 (sec)
backprop_face() time: 0.0000000000 (sec)
*-------bpnn_create time: 0.0000000000 (sec)
*-------bpnn_train_kernel() time: 0.0000000000 (sec)
	+-------layerforward time [parallel section] : 1.4099769592 (sec)
        +-------error handle time 		     : 0.0000011921 (sec)
        +-------adjust weight time[parallel section] : 5.0650098324 (sec)
*-------deallocation time: 0.0000000000 (sec)
~~~~~~~~~~~~~~~~~~~~~~~~~~~~~~~~~~~~~~~~~~~~~~~~~~~~~~~~~~~~~~~~~~~~~~~~~~~~~~~~~~~~~~~~~~~~~~~~~~
====================================================================================================

____________________________________________________________________________________________________

    with OMP_NUM_THREADS= 39 
 

Random number generator seed: 7
PAPI measurements:(rapl)> > > > > > > > > > > >
Counting Energy Consumption:
PACKAGE_ENERGY_CNT:PACKAGE0 (J) 0.006324840000
PACKAGE_ENERGY_CNT:PACKAGE1 (J) 0.006192586000
DRAM_ENERGY_CNT:PACKAGE0 (J)    0.006186675000
DRAM_ENERGY_CNT:PACKAGE1 (J)    0.002042721000


Energy in total:
PACKAGE_ENERGY:PACKAGE0 (J) 386.037597656000
PACKAGE_ENERGY:PACKAGE1 (J) 377.965454101000
DRAM_ENERGY:PACKAGE0    (J) 94.401168823000
DRAM_ENERGY:PACKAGE1    (J) 31.169448852000

Total train kernel time:  5.140412807465 (s)
Power (W) 173.054908769236
==================================================================



NUMBER OF OMP THREADS = 1
~~~~~~~~~~~~~~~~~~~~~~~~~~~~~~~~~~~~~~~~~~~~~~~~~~~~~~~~~~~~~~~~~~~~~~~~~~~~~~~~~~~~~~~~~~~~~~~~~~
Total execution [setup()] time         : 42.9639790058 (sec)
Initialization time [bpnn_initialize()]: 0.0000000000 (sec)
backprop_face() time: 0.0000000000 (sec)
*-------bpnn_create time: 0.0000000000 (sec)
*-------bpnn_train_kernel() time: 0.0000000000 (sec)
	+-------layerforward time [parallel section] : 1.4061338902 (sec)
        +-------error handle time 		     : 0.0000000000 (sec)
        +-------adjust weight time[parallel section] : 3.7342789173 (sec)
*-------deallocation time: 0.0000000000 (sec)
~~~~~~~~~~~~~~~~~~~~~~~~~~~~~~~~~~~~~~~~~~~~~~~~~~~~~~~~~~~~~~~~~~~~~~~~~~~~~~~~~~~~~~~~~~~~~~~~~~
====================================================================================================

____________________________________________________________________________________________________

    with OMP_NUM_THREADS= 40 
 

Random number generator seed: 7
PAPI measurements:(rapl)> > > > > > > > > > > >
Counting Energy Consumption:
PACKAGE_ENERGY_CNT:PACKAGE0 (J) 0.007046405000
PACKAGE_ENERGY_CNT:PACKAGE1 (J) 0.007049614000
DRAM_ENERGY_CNT:PACKAGE0 (J)    0.007096597000
DRAM_ENERGY_CNT:PACKAGE1 (J)    0.002310159000


Energy in total:
PACKAGE_ENERGY:PACKAGE0 (J) 430.078430175000
PACKAGE_ENERGY:PACKAGE1 (J) 430.274291992000
DRAM_ENERGY:PACKAGE0    (J) 108.285476684000
DRAM_ENERGY:PACKAGE1    (J) 35.250228881000

Total train kernel time:  5.793040990829 (s)
Power (W) 173.292132633134
==================================================================



NUMBER OF OMP THREADS = 1
~~~~~~~~~~~~~~~~~~~~~~~~~~~~~~~~~~~~~~~~~~~~~~~~~~~~~~~~~~~~~~~~~~~~~~~~~~~~~~~~~~~~~~~~~~~~~~~~~~
Total execution [setup()] time         : 43.6868050098 (sec)
Initialization time [bpnn_initialize()]: 0.0000000000 (sec)
backprop_face() time: 0.0000000000 (sec)
*-------bpnn_create time: 0.0000000000 (sec)
*-------bpnn_train_kernel() time: 0.0000000000 (sec)
	+-------layerforward time [parallel section] : 1.4155468941 (sec)
        +-------error handle time 		     : 0.0000000000 (sec)
        +-------adjust weight time[parallel section] : 4.3774940968 (sec)
*-------deallocation time: 0.0000000000 (sec)
~~~~~~~~~~~~~~~~~~~~~~~~~~~~~~~~~~~~~~~~~~~~~~~~~~~~~~~~~~~~~~~~~~~~~~~~~~~~~~~~~~~~~~~~~~~~~~~~~~
====================================================================================================

____________________________________________________________________________________________________

    with OMP_NUM_THREADS= 41 
 

Random number generator seed: 7
PAPI measurements:(rapl)> > > > > > > > > > > >
Counting Energy Consumption:
PACKAGE_ENERGY_CNT:PACKAGE0 (J) 0.007564778000
PACKAGE_ENERGY_CNT:PACKAGE1 (J) 0.007456637000
DRAM_ENERGY_CNT:PACKAGE0 (J)    0.007309217000
DRAM_ENERGY_CNT:PACKAGE1 (J)    0.002372506000


Energy in total:
PACKAGE_ENERGY:PACKAGE0 (J) 461.717407226000
PACKAGE_ENERGY:PACKAGE1 (J) 455.117004394000
DRAM_ENERGY:PACKAGE0    (J) 111.529800415000
DRAM_ENERGY:PACKAGE1    (J) 36.201568603000

Total train kernel time:  5.969575881958 (s)
Power (W) 178.331895211427
==================================================================



NUMBER OF OMP THREADS = 1
~~~~~~~~~~~~~~~~~~~~~~~~~~~~~~~~~~~~~~~~~~~~~~~~~~~~~~~~~~~~~~~~~~~~~~~~~~~~~~~~~~~~~~~~~~~~~~~~~~
Total execution [setup()] time         : 43.7679169178 (sec)
Initialization time [bpnn_initialize()]: 0.0000000000 (sec)
backprop_face() time: 0.0000000000 (sec)
*-------bpnn_create time: 0.0000000000 (sec)
*-------bpnn_train_kernel() time: 0.0000000000 (sec)
	+-------layerforward time [parallel section] : 1.4132699966 (sec)
        +-------error handle time 		     : 0.0000009537 (sec)
        +-------adjust weight time[parallel section] : 4.5563058853 (sec)
*-------deallocation time: 0.0000000000 (sec)
~~~~~~~~~~~~~~~~~~~~~~~~~~~~~~~~~~~~~~~~~~~~~~~~~~~~~~~~~~~~~~~~~~~~~~~~~~~~~~~~~~~~~~~~~~~~~~~~~~
====================================================================================================

____________________________________________________________________________________________________

    with OMP_NUM_THREADS= 42 
 

Random number generator seed: 7
PAPI measurements:(rapl)> > > > > > > > > > > >
Counting Energy Consumption:
PACKAGE_ENERGY_CNT:PACKAGE0 (J) 0.007882904000
PACKAGE_ENERGY_CNT:PACKAGE1 (J) 0.007524172000
DRAM_ENERGY_CNT:PACKAGE0 (J)    0.008056455000
DRAM_ENERGY_CNT:PACKAGE1 (J)    0.002572094000


Energy in total:
PACKAGE_ENERGY:PACKAGE0 (J) 481.134277343000
PACKAGE_ENERGY:PACKAGE1 (J) 459.239013671000
DRAM_ENERGY:PACKAGE0    (J) 122.931747436000
DRAM_ENERGY:PACKAGE1    (J) 39.247039794000

Total train kernel time:  6.467233896255 (s)
Power (W) 170.482790004298
==================================================================



NUMBER OF OMP THREADS = 1
~~~~~~~~~~~~~~~~~~~~~~~~~~~~~~~~~~~~~~~~~~~~~~~~~~~~~~~~~~~~~~~~~~~~~~~~~~~~~~~~~~~~~~~~~~~~~~~~~~
Total execution [setup()] time         : 44.3477461338 (sec)
Initialization time [bpnn_initialize()]: 0.0000000000 (sec)
backprop_face() time: 0.0000000000 (sec)
*-------bpnn_create time: 0.0000000000 (sec)
*-------bpnn_train_kernel() time: 0.0000000000 (sec)
	+-------layerforward time [parallel section] : 1.4143149853 (sec)
        +-------error handle time 		     : 0.0000000000 (sec)
        +-------adjust weight time[parallel section] : 5.0529189110 (sec)
*-------deallocation time: 0.0000000000 (sec)
~~~~~~~~~~~~~~~~~~~~~~~~~~~~~~~~~~~~~~~~~~~~~~~~~~~~~~~~~~~~~~~~~~~~~~~~~~~~~~~~~~~~~~~~~~~~~~~~~~
====================================================================================================

____________________________________________________________________________________________________

    with OMP_NUM_THREADS= 43 
 

Random number generator seed: 7
PAPI measurements:(rapl)> > > > > > > > > > > >
Counting Energy Consumption:
PACKAGE_ENERGY_CNT:PACKAGE0 (J) 0.007321796000
PACKAGE_ENERGY_CNT:PACKAGE1 (J) 0.006936720000
DRAM_ENERGY_CNT:PACKAGE0 (J)    0.007370625000
DRAM_ENERGY_CNT:PACKAGE1 (J)    0.002389504000


Energy in total:
PACKAGE_ENERGY:PACKAGE0 (J) 446.886962890000
PACKAGE_ENERGY:PACKAGE1 (J) 423.383789062000
DRAM_ENERGY:PACKAGE0    (J) 112.466812133000
DRAM_ENERGY:PACKAGE1    (J) 36.460937500000

Total train kernel time:  6.010550737381 (s)
Power (W) 169.568238605220
==================================================================



NUMBER OF OMP THREADS = 1
~~~~~~~~~~~~~~~~~~~~~~~~~~~~~~~~~~~~~~~~~~~~~~~~~~~~~~~~~~~~~~~~~~~~~~~~~~~~~~~~~~~~~~~~~~~~~~~~~~
Total execution [setup()] time         : 43.8533461094 (sec)
Initialization time [bpnn_initialize()]: 0.0000000000 (sec)
backprop_face() time: 0.0000000000 (sec)
*-------bpnn_create time: 0.0000000000 (sec)
*-------bpnn_train_kernel() time: 0.0000000000 (sec)
	+-------layerforward time [parallel section] : 1.4037268162 (sec)
        +-------error handle time 		     : 0.0000011921 (sec)
        +-------adjust weight time[parallel section] : 4.6068239212 (sec)
*-------deallocation time: 0.0000000000 (sec)
~~~~~~~~~~~~~~~~~~~~~~~~~~~~~~~~~~~~~~~~~~~~~~~~~~~~~~~~~~~~~~~~~~~~~~~~~~~~~~~~~~~~~~~~~~~~~~~~~~
====================================================================================================

____________________________________________________________________________________________________

    with OMP_NUM_THREADS= 44 
 

Random number generator seed: 7
PAPI measurements:(rapl)> > > > > > > > > > > >
Counting Energy Consumption:
PACKAGE_ENERGY_CNT:PACKAGE0 (J) 0.007272697000
PACKAGE_ENERGY_CNT:PACKAGE1 (J) 0.007132228000
DRAM_ENERGY_CNT:PACKAGE0 (J)    0.007610001000
DRAM_ENERGY_CNT:PACKAGE1 (J)    0.002451808000


Energy in total:
PACKAGE_ENERGY:PACKAGE0 (J) 443.890197753000
PACKAGE_ENERGY:PACKAGE1 (J) 435.316650390000
DRAM_ENERGY:PACKAGE0    (J) 116.119400024000
DRAM_ENERGY:PACKAGE1    (J) 37.411621093000

Total train kernel time:  6.196973085403 (s)
Power (W) 166.651985578660
==================================================================



NUMBER OF OMP THREADS = 1
~~~~~~~~~~~~~~~~~~~~~~~~~~~~~~~~~~~~~~~~~~~~~~~~~~~~~~~~~~~~~~~~~~~~~~~~~~~~~~~~~~~~~~~~~~~~~~~~~~
Total execution [setup()] time         : 44.2552690506 (sec)
Initialization time [bpnn_initialize()]: 0.0000000000 (sec)
backprop_face() time: 0.0000000000 (sec)
*-------bpnn_create time: 0.0000000000 (sec)
*-------bpnn_train_kernel() time: 0.0000000000 (sec)
	+-------layerforward time [parallel section] : 1.4173069000 (sec)
        +-------error handle time 		     : 0.0000009537 (sec)
        +-------adjust weight time[parallel section] : 4.7796661854 (sec)
*-------deallocation time: 0.0000000000 (sec)
~~~~~~~~~~~~~~~~~~~~~~~~~~~~~~~~~~~~~~~~~~~~~~~~~~~~~~~~~~~~~~~~~~~~~~~~~~~~~~~~~~~~~~~~~~~~~~~~~~
====================================================================================================

____________________________________________________________________________________________________

    with OMP_NUM_THREADS= 45 
 

Random number generator seed: 7
PAPI measurements:(rapl)> > > > > > > > > > > >
Counting Energy Consumption:
PACKAGE_ENERGY_CNT:PACKAGE0 (J) 0.006660952000
PACKAGE_ENERGY_CNT:PACKAGE1 (J) 0.006721981000
DRAM_ENERGY_CNT:PACKAGE0 (J)    0.006625207000
DRAM_ENERGY_CNT:PACKAGE1 (J)    0.002230348000


Energy in total:
PACKAGE_ENERGY:PACKAGE0 (J) 406.552246093000
PACKAGE_ENERGY:PACKAGE1 (J) 410.277160644000
DRAM_ENERGY:PACKAGE0    (J) 101.092636108000
DRAM_ENERGY:PACKAGE1    (J) 34.032409667000

Total train kernel time:  5.634083747864 (s)
Power (W) 168.963489914921
==================================================================



NUMBER OF OMP THREADS = 1
~~~~~~~~~~~~~~~~~~~~~~~~~~~~~~~~~~~~~~~~~~~~~~~~~~~~~~~~~~~~~~~~~~~~~~~~~~~~~~~~~~~~~~~~~~~~~~~~~~
Total execution [setup()] time         : 43.4530088902 (sec)
Initialization time [bpnn_initialize()]: 0.0000000000 (sec)
backprop_face() time: 0.0000000000 (sec)
*-------bpnn_create time: 0.0000000000 (sec)
*-------bpnn_train_kernel() time: 0.0000000000 (sec)
	+-------layerforward time [parallel section] : 1.4184849262 (sec)
        +-------error handle time 		     : 0.0000011921 (sec)
        +-------adjust weight time[parallel section] : 4.2155988216 (sec)
*-------deallocation time: 0.0000000000 (sec)
~~~~~~~~~~~~~~~~~~~~~~~~~~~~~~~~~~~~~~~~~~~~~~~~~~~~~~~~~~~~~~~~~~~~~~~~~~~~~~~~~~~~~~~~~~~~~~~~~~
====================================================================================================

____________________________________________________________________________________________________

    with OMP_NUM_THREADS= 46 
 

Random number generator seed: 7
PAPI measurements:(rapl)> > > > > > > > > > > >
Counting Energy Consumption:
PACKAGE_ENERGY_CNT:PACKAGE0 (J) 0.008012011000
PACKAGE_ENERGY_CNT:PACKAGE1 (J) 0.007672888000
DRAM_ENERGY_CNT:PACKAGE0 (J)    0.007769834000
DRAM_ENERGY_CNT:PACKAGE1 (J)    0.002500977000


Energy in total:
PACKAGE_ENERGY:PACKAGE0 (J) 489.014343261000
PACKAGE_ENERGY:PACKAGE1 (J) 468.315917968000
DRAM_ENERGY:PACKAGE0    (J) 118.558258056000
DRAM_ENERGY:PACKAGE1    (J) 38.161880493000

Total train kernel time:  6.261606693268 (s)
Power (W) 177.917658254673
==================================================================



NUMBER OF OMP THREADS = 1
~~~~~~~~~~~~~~~~~~~~~~~~~~~~~~~~~~~~~~~~~~~~~~~~~~~~~~~~~~~~~~~~~~~~~~~~~~~~~~~~~~~~~~~~~~~~~~~~~~
Total execution [setup()] time         : 44.0421981812 (sec)
Initialization time [bpnn_initialize()]: 0.0000000000 (sec)
backprop_face() time: 0.0000000000 (sec)
*-------bpnn_create time: 0.0000000000 (sec)
*-------bpnn_train_kernel() time: 0.0000000000 (sec)
	+-------layerforward time [parallel section] : 1.4087898731 (sec)
        +-------error handle time 		     : 0.0000011921 (sec)
        +-------adjust weight time[parallel section] : 4.8528168201 (sec)
*-------deallocation time: 0.0000000000 (sec)
~~~~~~~~~~~~~~~~~~~~~~~~~~~~~~~~~~~~~~~~~~~~~~~~~~~~~~~~~~~~~~~~~~~~~~~~~~~~~~~~~~~~~~~~~~~~~~~~~~
====================================================================================================

____________________________________________________________________________________________________

    with OMP_NUM_THREADS= 47 
 

Random number generator seed: 7
PAPI measurements:(rapl)> > > > > > > > > > > >
Counting Energy Consumption:
PACKAGE_ENERGY_CNT:PACKAGE0 (J) 0.007038008000
PACKAGE_ENERGY_CNT:PACKAGE1 (J) 0.007228157000
DRAM_ENERGY_CNT:PACKAGE0 (J)    0.006586490000
DRAM_ENERGY_CNT:PACKAGE1 (J)    0.002143477000


Energy in total:
PACKAGE_ENERGY:PACKAGE0 (J) 429.565917968000
PACKAGE_ENERGY:PACKAGE1 (J) 441.171691894000
DRAM_ENERGY:PACKAGE0    (J) 100.501861572000
DRAM_ENERGY:PACKAGE1    (J) 32.706863403000

Total train kernel time:  5.382982015610 (s)
Power (W) 186.503750509611
==================================================================



NUMBER OF OMP THREADS = 1
~~~~~~~~~~~~~~~~~~~~~~~~~~~~~~~~~~~~~~~~~~~~~~~~~~~~~~~~~~~~~~~~~~~~~~~~~~~~~~~~~~~~~~~~~~~~~~~~~~
Total execution [setup()] time         : 43.4318060875 (sec)
Initialization time [bpnn_initialize()]: 0.0000000000 (sec)
backprop_face() time: 0.0000000000 (sec)
*-------bpnn_create time: 0.0000000000 (sec)
*-------bpnn_train_kernel() time: 0.0000000000 (sec)
	+-------layerforward time [parallel section] : 1.4110441208 (sec)
        +-------error handle time 		     : 0.0000000000 (sec)
        +-------adjust weight time[parallel section] : 3.9719378948 (sec)
*-------deallocation time: 0.0000000000 (sec)
~~~~~~~~~~~~~~~~~~~~~~~~~~~~~~~~~~~~~~~~~~~~~~~~~~~~~~~~~~~~~~~~~~~~~~~~~~~~~~~~~~~~~~~~~~~~~~~~~~
====================================================================================================

____________________________________________________________________________________________________

    with OMP_NUM_THREADS= 48 
 

Random number generator seed: 7
PAPI measurements:(rapl)> > > > > > > > > > > >
Counting Energy Consumption:
PACKAGE_ENERGY_CNT:PACKAGE0 (J) 0.006018186000
PACKAGE_ENERGY_CNT:PACKAGE1 (J) 0.006420118000
DRAM_ENERGY_CNT:PACKAGE0 (J)    0.005817609000
DRAM_ENERGY_CNT:PACKAGE1 (J)    0.001963835000


Energy in total:
PACKAGE_ENERGY:PACKAGE0 (J) 367.320922851000
PACKAGE_ENERGY:PACKAGE1 (J) 391.852905273000
DRAM_ENERGY:PACKAGE0    (J) 88.778442382000
DRAM_ENERGY:PACKAGE1    (J) 29.965744018000

Total train kernel time:  4.927489995956 (s)
Power (W) 178.167386487732
==================================================================



NUMBER OF OMP THREADS = 1
~~~~~~~~~~~~~~~~~~~~~~~~~~~~~~~~~~~~~~~~~~~~~~~~~~~~~~~~~~~~~~~~~~~~~~~~~~~~~~~~~~~~~~~~~~~~~~~~~~
Total execution [setup()] time         : 42.9752309322 (sec)
Initialization time [bpnn_initialize()]: 0.0000000000 (sec)
backprop_face() time: 0.0000000000 (sec)
*-------bpnn_create time: 0.0000000000 (sec)
*-------bpnn_train_kernel() time: 0.0000000000 (sec)
	+-------layerforward time [parallel section] : 1.4232840538 (sec)
        +-------error handle time 		     : 0.0000009537 (sec)
        +-------adjust weight time[parallel section] : 3.5042059422 (sec)
*-------deallocation time: 0.0000000000 (sec)
~~~~~~~~~~~~~~~~~~~~~~~~~~~~~~~~~~~~~~~~~~~~~~~~~~~~~~~~~~~~~~~~~~~~~~~~~~~~~~~~~~~~~~~~~~~~~~~~~~
====================================================================================================

____________________________________________________________________________________________________

    with OMP_NUM_THREADS= 49 
 

Random number generator seed: 7
PAPI measurements:(rapl)> > > > > > > > > > > >
Counting Energy Consumption:
PACKAGE_ENERGY_CNT:PACKAGE0 (J) 0.008091921000
PACKAGE_ENERGY_CNT:PACKAGE1 (J) 0.007597854000
DRAM_ENERGY_CNT:PACKAGE0 (J)    0.008278994000
DRAM_ENERGY_CNT:PACKAGE1 (J)    0.002620907000


Energy in total:
PACKAGE_ENERGY:PACKAGE0 (J) 493.891662597000
PACKAGE_ENERGY:PACKAGE1 (J) 463.736206054000
DRAM_ENERGY:PACKAGE0    (J) 126.327423095000
DRAM_ENERGY:PACKAGE1    (J) 39.991867065000

Total train kernel time:  6.583228826523 (s)
Power (W) 170.728860932615
==================================================================



NUMBER OF OMP THREADS = 1
~~~~~~~~~~~~~~~~~~~~~~~~~~~~~~~~~~~~~~~~~~~~~~~~~~~~~~~~~~~~~~~~~~~~~~~~~~~~~~~~~~~~~~~~~~~~~~~~~~
Total execution [setup()] time         : 44.4024448395 (sec)
Initialization time [bpnn_initialize()]: 0.0000000000 (sec)
backprop_face() time: 0.0000000000 (sec)
*-------bpnn_create time: 0.0000000000 (sec)
*-------bpnn_train_kernel() time: 0.0000000000 (sec)
	+-------layerforward time [parallel section] : 1.4791657925 (sec)
        +-------error handle time 		     : 0.0000011921 (sec)
        +-------adjust weight time[parallel section] : 5.1040630341 (sec)
*-------deallocation time: 0.0000000000 (sec)
~~~~~~~~~~~~~~~~~~~~~~~~~~~~~~~~~~~~~~~~~~~~~~~~~~~~~~~~~~~~~~~~~~~~~~~~~~~~~~~~~~~~~~~~~~~~~~~~~~
====================================================================================================

____________________________________________________________________________________________________

    with OMP_NUM_THREADS= 50 
 

Random number generator seed: 7
PAPI measurements:(rapl)> > > > > > > > > > > >
Counting Energy Consumption:
PACKAGE_ENERGY_CNT:PACKAGE0 (J) 0.007884152000
PACKAGE_ENERGY_CNT:PACKAGE1 (J) 0.007439760000
DRAM_ENERGY_CNT:PACKAGE0 (J)    0.007872880000
DRAM_ENERGY_CNT:PACKAGE1 (J)    0.002531783000


Energy in total:
PACKAGE_ENERGY:PACKAGE0 (J) 481.210449218000
PACKAGE_ENERGY:PACKAGE1 (J) 454.122619628000
DRAM_ENERGY:PACKAGE0    (J) 120.130615234000
DRAM_ENERGY:PACKAGE1    (J) 38.631942749000

Total train kernel time:  6.377732992172 (s)
Power (W) 171.549299441016
==================================================================



NUMBER OF OMP THREADS = 1
~~~~~~~~~~~~~~~~~~~~~~~~~~~~~~~~~~~~~~~~~~~~~~~~~~~~~~~~~~~~~~~~~~~~~~~~~~~~~~~~~~~~~~~~~~~~~~~~~~
Total execution [setup()] time         : 44.2197299004 (sec)
Initialization time [bpnn_initialize()]: 0.0000000000 (sec)
backprop_face() time: 0.0000000000 (sec)
*-------bpnn_create time: 0.0000000000 (sec)
*-------bpnn_train_kernel() time: 0.0000000000 (sec)
	+-------layerforward time [parallel section] : 1.4291892052 (sec)
        +-------error handle time 		     : 0.0000000000 (sec)
        +-------adjust weight time[parallel section] : 4.9485437870 (sec)
*-------deallocation time: 0.0000000000 (sec)
~~~~~~~~~~~~~~~~~~~~~~~~~~~~~~~~~~~~~~~~~~~~~~~~~~~~~~~~~~~~~~~~~~~~~~~~~~~~~~~~~~~~~~~~~~~~~~~~~~
====================================================================================================

____________________________________________________________________________________________________

    with OMP_NUM_THREADS= 51 
 

Random number generator seed: 7
PAPI measurements:(rapl)> > > > > > > > > > > >
Counting Energy Consumption:
PACKAGE_ENERGY_CNT:PACKAGE0 (J) 0.006746397000
PACKAGE_ENERGY_CNT:PACKAGE1 (J) 0.006420094000
DRAM_ENERGY_CNT:PACKAGE0 (J)    0.006555960000
DRAM_ENERGY_CNT:PACKAGE1 (J)    0.002216898000


Energy in total:
PACKAGE_ENERGY:PACKAGE0 (J) 411.767395019000
PACKAGE_ENERGY:PACKAGE1 (J) 391.851440429000
DRAM_ENERGY:PACKAGE0    (J) 100.036010742000
DRAM_ENERGY:PACKAGE1    (J) 33.827178955000

Total train kernel time:  5.588846921921 (s)
Power (W) 167.741582162141
==================================================================



NUMBER OF OMP THREADS = 1
~~~~~~~~~~~~~~~~~~~~~~~~~~~~~~~~~~~~~~~~~~~~~~~~~~~~~~~~~~~~~~~~~~~~~~~~~~~~~~~~~~~~~~~~~~~~~~~~~~
Total execution [setup()] time         : 43.5644731522 (sec)
Initialization time [bpnn_initialize()]: 0.0000000000 (sec)
backprop_face() time: 0.0000000000 (sec)
*-------bpnn_create time: 0.0000000000 (sec)
*-------bpnn_train_kernel() time: 0.0000000000 (sec)
	+-------layerforward time [parallel section] : 1.4066979885 (sec)
        +-------error handle time 		     : 0.0000000000 (sec)
        +-------adjust weight time[parallel section] : 4.1821489334 (sec)
*-------deallocation time: 0.0000000000 (sec)
~~~~~~~~~~~~~~~~~~~~~~~~~~~~~~~~~~~~~~~~~~~~~~~~~~~~~~~~~~~~~~~~~~~~~~~~~~~~~~~~~~~~~~~~~~~~~~~~~~
====================================================================================================

____________________________________________________________________________________________________

    with OMP_NUM_THREADS= 52 
 

Random number generator seed: 7
PAPI measurements:(rapl)> > > > > > > > > > > >
Counting Energy Consumption:
PACKAGE_ENERGY_CNT:PACKAGE0 (J) 0.005898634000
PACKAGE_ENERGY_CNT:PACKAGE1 (J) 0.006140142000
DRAM_ENERGY_CNT:PACKAGE0 (J)    0.005545236000
DRAM_ENERGY_CNT:PACKAGE1 (J)    0.001900175000


Energy in total:
PACKAGE_ENERGY:PACKAGE0 (J) 360.024047851000
PACKAGE_ENERGY:PACKAGE1 (J) 374.764526367000
DRAM_ENERGY:PACKAGE0    (J) 84.613586425000
DRAM_ENERGY:PACKAGE1    (J) 28.994369506000

Total train kernel time:  4.781065940857 (s)
Power (W) 177.449242625785
==================================================================



NUMBER OF OMP THREADS = 1
~~~~~~~~~~~~~~~~~~~~~~~~~~~~~~~~~~~~~~~~~~~~~~~~~~~~~~~~~~~~~~~~~~~~~~~~~~~~~~~~~~~~~~~~~~~~~~~~~~
Total execution [setup()] time         : 42.6451082230 (sec)
Initialization time [bpnn_initialize()]: 0.0000000000 (sec)
backprop_face() time: 0.0000000000 (sec)
*-------bpnn_create time: 0.0000000000 (sec)
*-------bpnn_train_kernel() time: 0.0000000000 (sec)
	+-------layerforward time [parallel section] : 1.4257819653 (sec)
        +-------error handle time 		     : 0.0000000000 (sec)
        +-------adjust weight time[parallel section] : 3.3552839756 (sec)
*-------deallocation time: 0.0000000000 (sec)
~~~~~~~~~~~~~~~~~~~~~~~~~~~~~~~~~~~~~~~~~~~~~~~~~~~~~~~~~~~~~~~~~~~~~~~~~~~~~~~~~~~~~~~~~~~~~~~~~~
====================================================================================================

____________________________________________________________________________________________________

    with OMP_NUM_THREADS= 53 
 

Random number generator seed: 7
PAPI measurements:(rapl)> > > > > > > > > > > >
Counting Energy Consumption:
PACKAGE_ENERGY_CNT:PACKAGE0 (J) 0.007642486000
PACKAGE_ENERGY_CNT:PACKAGE1 (J) 0.007554625000
DRAM_ENERGY_CNT:PACKAGE0 (J)    0.007339814000
DRAM_ENERGY_CNT:PACKAGE1 (J)    0.002377999000


Energy in total:
PACKAGE_ENERGY:PACKAGE0 (J) 466.460327148000
PACKAGE_ENERGY:PACKAGE1 (J) 461.097717285000
DRAM_ENERGY:PACKAGE0    (J) 111.996673583000
DRAM_ENERGY:PACKAGE1    (J) 36.285385131000

Total train kernel time:  5.980802059174 (s)
Power (W) 179.882245308024
==================================================================



NUMBER OF OMP THREADS = 1
~~~~~~~~~~~~~~~~~~~~~~~~~~~~~~~~~~~~~~~~~~~~~~~~~~~~~~~~~~~~~~~~~~~~~~~~~~~~~~~~~~~~~~~~~~~~~~~~~~
Total execution [setup()] time         : 43.9173159599 (sec)
Initialization time [bpnn_initialize()]: 0.0000000000 (sec)
backprop_face() time: 0.0000000000 (sec)
*-------bpnn_create time: 0.0000000000 (sec)
*-------bpnn_train_kernel() time: 0.0000000000 (sec)
	+-------layerforward time [parallel section] : 1.4138600826 (sec)
        +-------error handle time 		     : 0.0000000000 (sec)
        +-------adjust weight time[parallel section] : 4.5669419765 (sec)
*-------deallocation time: 0.0000000000 (sec)
~~~~~~~~~~~~~~~~~~~~~~~~~~~~~~~~~~~~~~~~~~~~~~~~~~~~~~~~~~~~~~~~~~~~~~~~~~~~~~~~~~~~~~~~~~~~~~~~~~
====================================================================================================

____________________________________________________________________________________________________

    with OMP_NUM_THREADS= 54 
 

Random number generator seed: 7
PAPI measurements:(rapl)> > > > > > > > > > > >
Counting Energy Consumption:
PACKAGE_ENERGY_CNT:PACKAGE0 (J) 0.008073026000
PACKAGE_ENERGY_CNT:PACKAGE1 (J) 0.007315810000
DRAM_ENERGY_CNT:PACKAGE0 (J)    0.007927074000
DRAM_ENERGY_CNT:PACKAGE1 (J)    0.002515928000


Energy in total:
PACKAGE_ENERGY:PACKAGE0 (J) 492.738403320000
PACKAGE_ENERGY:PACKAGE1 (J) 446.521606445000
DRAM_ENERGY:PACKAGE0    (J) 120.957550048000
DRAM_ENERGY:PACKAGE1    (J) 38.390014648000

Total train kernel time:  6.334066152573 (s)
Power (W) 173.444284918747
==================================================================



NUMBER OF OMP THREADS = 1
~~~~~~~~~~~~~~~~~~~~~~~~~~~~~~~~~~~~~~~~~~~~~~~~~~~~~~~~~~~~~~~~~~~~~~~~~~~~~~~~~~~~~~~~~~~~~~~~~~
Total execution [setup()] time         : 45.0638790131 (sec)
Initialization time [bpnn_initialize()]: 0.0000000000 (sec)
backprop_face() time: 0.0000000000 (sec)
*-------bpnn_create time: 0.0000000000 (sec)
*-------bpnn_train_kernel() time: 0.0000000000 (sec)
	+-------layerforward time [parallel section] : 1.4130320549 (sec)
        +-------error handle time 		     : 0.0000000000 (sec)
        +-------adjust weight time[parallel section] : 4.9210340977 (sec)
*-------deallocation time: 0.0000000000 (sec)
~~~~~~~~~~~~~~~~~~~~~~~~~~~~~~~~~~~~~~~~~~~~~~~~~~~~~~~~~~~~~~~~~~~~~~~~~~~~~~~~~~~~~~~~~~~~~~~~~~
====================================================================================================

____________________________________________________________________________________________________

    with OMP_NUM_THREADS= 55 
 

Random number generator seed: 7
PAPI measurements:(rapl)> > > > > > > > > > > >
Counting Energy Consumption:
PACKAGE_ENERGY_CNT:PACKAGE0 (J) 0.007974770000
PACKAGE_ENERGY_CNT:PACKAGE1 (J) 0.007877320000
DRAM_ENERGY_CNT:PACKAGE0 (J)    0.008140880000
DRAM_ENERGY_CNT:PACKAGE1 (J)    0.002587773000


Energy in total:
PACKAGE_ENERGY:PACKAGE0 (J) 486.741333007000
PACKAGE_ENERGY:PACKAGE1 (J) 480.793457031000
DRAM_ENERGY:PACKAGE0    (J) 124.219970703000
DRAM_ENERGY:PACKAGE1    (J) 39.486282348000

Total train kernel time:  6.518727064133 (s)
Power (W) 173.537108082544
==================================================================



NUMBER OF OMP THREADS = 1
~~~~~~~~~~~~~~~~~~~~~~~~~~~~~~~~~~~~~~~~~~~~~~~~~~~~~~~~~~~~~~~~~~~~~~~~~~~~~~~~~~~~~~~~~~~~~~~~~~
Total execution [setup()] time         : 44.3785679340 (sec)
Initialization time [bpnn_initialize()]: 0.0000000000 (sec)
backprop_face() time: 0.0000000000 (sec)
*-------bpnn_create time: 0.0000000000 (sec)
*-------bpnn_train_kernel() time: 0.0000000000 (sec)
	+-------layerforward time [parallel section] : 1.4055750370 (sec)
        +-------error handle time 		     : 0.0000009537 (sec)
        +-------adjust weight time[parallel section] : 5.1131520271 (sec)
*-------deallocation time: 0.0000000000 (sec)
~~~~~~~~~~~~~~~~~~~~~~~~~~~~~~~~~~~~~~~~~~~~~~~~~~~~~~~~~~~~~~~~~~~~~~~~~~~~~~~~~~~~~~~~~~~~~~~~~~
====================================================================================================

____________________________________________________________________________________________________

    with OMP_NUM_THREADS= 56 
 

Random number generator seed: 7
PAPI measurements:(rapl)> > > > > > > > > > > >
Counting Energy Consumption:
PACKAGE_ENERGY_CNT:PACKAGE0 (J) 0.007752499000
PACKAGE_ENERGY_CNT:PACKAGE1 (J) 0.007737942000
DRAM_ENERGY_CNT:PACKAGE0 (J)    0.008210803000
DRAM_ENERGY_CNT:PACKAGE1 (J)    0.002637327000


Energy in total:
PACKAGE_ENERGY:PACKAGE0 (J) 473.174987792000
PACKAGE_ENERGY:PACKAGE1 (J) 472.286499023000
DRAM_ENERGY:PACKAGE0    (J) 125.286911010000
DRAM_ENERGY:PACKAGE1    (J) 40.242416381000

Total train kernel time:  6.650693893433 (s)
Power (W) 167.048857158059
==================================================================



NUMBER OF OMP THREADS = 1
~~~~~~~~~~~~~~~~~~~~~~~~~~~~~~~~~~~~~~~~~~~~~~~~~~~~~~~~~~~~~~~~~~~~~~~~~~~~~~~~~~~~~~~~~~~~~~~~~~
Total execution [setup()] time         : 44.5990960598 (sec)
Initialization time [bpnn_initialize()]: 0.0000000000 (sec)
backprop_face() time: 0.0000000000 (sec)
*-------bpnn_create time: 0.0000000000 (sec)
*-------bpnn_train_kernel() time: 0.0000000000 (sec)
	+-------layerforward time [parallel section] : 1.4162149429 (sec)
        +-------error handle time 		     : 0.0000000000 (sec)
        +-------adjust weight time[parallel section] : 5.2344789505 (sec)
*-------deallocation time: 0.0000000000 (sec)
~~~~~~~~~~~~~~~~~~~~~~~~~~~~~~~~~~~~~~~~~~~~~~~~~~~~~~~~~~~~~~~~~~~~~~~~~~~~~~~~~~~~~~~~~~~~~~~~~~
====================================================================================================

