151595103,98233,123606107,4731660,3911127,2617961,1720397,4487860,10332116,43544,39219,325,609,333,4,6,12,5565,25,0,0
152251619,72317,127545908,4068656,3043104,1987644,1437577,1292988,12715652,20637,57791,66,36,247,3,0,0,8975,18,0,0
152398985,73469,127141414,4140767,3213805,2019869,1486150,1505851,12729736,22540,55784,191,36,246,3,0,0,9124,0,0,0
152388113,73868,127138544,4161717,3170435,2032625,1497311,1486979,12738215,21855,56968,127,36,250,1,0,0,9182,0,0,0
152415206,72523,127406291,4084983,3117096,1994009,1449546,1217302,12985566,20540,57872,188,36,248,2,0,0,9004,0,0,0
152439094,71454,127634623,4025723,3128276,1963726,1433580,1179336,12915318,19971,57744,192,35,243,1,0,0,8872,0,0,0
152377663,74321,127109297,4189977,3171419,2046662,1503507,1692941,12501189,23750,54871,191,37,257,1,0,0,9243,0,0,0
152407595,72964,127323257,4106919,3152940,2004286,1471521,1317770,12870255,20835,57324,188,36,247,2,0,0,9051,0,0,0
152432635,71633,127634715,4038751,3121928,1971386,1440450,1186195,12880693,20209,57351,132,36,250,1,0,0,8905,0,0,0
152420585,72351,127644608,4074119,3079613,1989352,1444514,1458170,12570386,21849,56034,319,35,245,0,0,0,8990,0,0,0
152397489,73419,127095408,4190790,3197249,2018728,1489336,1392906,12851956,21936,56220,129,37,257,1,0,0,9116,0,0,1
168336648,62693,119911022,9473068,6764834,9986492,1237503,1033302,11096377,267453,147477,394806,1580894,5671208,111,81,161,8016,718,1435,698997
265440066,27860,134867952,118900875,3523149,162100,121576,640807,390053,6805694,0,0,0,0,0,0,0,0,0,0,0
265440046,27863,134867733,118901063,3523157,162102,121575,640806,390054,6805693,0,0,0,0,0,0,0,0,0,0,0
265440092,27859,134867452,118901359,3523190,162100,121575,640802,390055,6805700,0,0,0,0,0,0,0,0,0,0,0
265440118,27863,134867812,118901037,3523158,162102,121576,640802,390058,6805710,0,0,0,0,0,0,0,0,0,0,0
265440214,27863,134868606,118900350,3523144,162100,121576,640808,390053,6805714,0,0,0,0,0,0,0,0,0,0,0
265440037,27858,134867826,118900978,3523148,162100,121576,640805,390056,6805690,0,0,0,0,0,0,0,0,0,0,0
265440056,27861,134867673,118901125,3523164,162102,121575,640807,390054,6805695,0,0,0,0,0,0,0,0,0,0,0
265440093,27863,134867452,118901356,3523193,162100,121575,640801,390052,6805701,0,0,0,0,0,0,0,0,0,0,0
265440136,27859,134868000,118900875,3523149,162102,121576,640803,390061,6805711,0,0,0,0,0,0,0,0,0,0,0
265440196,27863,134868484,118900444,3523150,162100,121577,640811,390054,6805713,0,0,0,0,0,0,0,0,0,0,0
265440024,27861,134867818,118900987,3523142,162100,121575,640801,390054,6805686,0,0,0,0,0,0,0,0,0,0,0
265440068,27858,134867614,118901184,3523173,162102,121575,640808,390055,6805699,0,0,0,0,0,0,0,0,0,0,0
265440084,27863,134867420,118901379,3523191,162100,121575,640802,390052,6805702,0,0,0,0,0,0,0,0,0,0,0
265440165,27859,134868215,118900690,3523142,162102,121576,640807,390062,6805712,0,0,0,0,0,0,0,0,0,0,0
265440165,27863,134868361,118900547,3523150,162100,121577,640806,390053,6805708,0,0,0,0,0,0,0,0,0,0,0
265440025,27863,134867818,118900987,3523142,162100,121575,640801,390052,6805687,0,0,0,0,0,0,0,0,0,0,0
265440078,27859,134867555,118901243,3523181,162102,121575,640807,390057,6805699,0,0,0,0,0,0,0,0,0,0,0
265440074,27860,134867379,118901418,3523183,162100,121575,640803,390052,6805704,0,0,0,0,0,0,0,0,0,0,0
265440194,27863,134868444,118900489,3523142,162102,121576,640806,390059,6805713,0,0,0,0,0,0,0,0,0,0,0
265440135,27859,134868232,118900650,3523150,162100,121577,640807,390056,6805704,0,0,0,0,0,0,0,0,0,0,0
265440024,27863,134867817,118900987,3523142,162100,121575,640801,390052,6805687,0,0,0,0,0,0,0,0,0,0,0
265440090,27863,134867497,118901305,3523187,162102,121575,640806,390054,6805701,0,0,0,0,0,0,0,0,0,0,0
265440078,27858,134867403,118901392,3523176,162102,121576,640803,390061,6805707,0,0,0,0,0,0,0,0,0,0,0
265440209,27861,134868608,118900350,3523143,162100,121575,640807,390053,6805712,0,0,0,0,0,0,0,0,0,0,0
252857324,33317,123719936,86361532,7171231,14540583,10354832,6011143,252142,4397060,0,0,63,0,0,0,0,0,0,0,15485
229339015,43044,103306237,26859582,13774277,40633187,28925478,15753986,0,0,0,0,180,0,0,0,0,0,0,11031,32013
234415749,235149,212388767,3494142,1959659,4611471,3057978,2104242,2403709,282807,411846,689171,564794,153139,81775,140269,254680,487195,835342,259442,172
15880947,4060,7022192,1745676,970013,2586282,2068903,1483231,268,40,6,2,9,0,43,0,0,0,0,20,202
number,of,instructions:,39068433816
