1000000000,1919267591,451746631,726145077,1125557705,108749372,156999355,410262500,466049642,481662714,500984399,518460203
1000000000,1935930643,437640030,685511219,1130431141,118368565,156699092,419874207,465073276,478027210,493870675,507719059
1000000000,1934779613,438518225,689945826,1129880097,117944216,156934220,419116124,465202556,478879149,495012695,509210644
1000000000,1934357949,438867060,692207188,1129720511,117713454,156952411,418827342,465202737,479086219,496148411,510278362
1000000000,1935604736,437841084,688534329,1130174137,118399995,156898601,419630700,465141319,478761645,496160111,510064944
1000000000,1936592945,437026407,685757287,1130537103,118946524,156857635,420270765,465096443,478510835,495811566,510022947
1000000000,1933904671,439238263,696073332,1129557451,117459747,156967789,418535450,465221390,479199211,497234142,512853986
1000000000,1935268602,438117473,691938631,1130056735,118213330,156911788,419416842,465158260,478849190,496508503,512677554
1000000000,1936347319,437226856,688843673,1130442496,118811878,156866053,420111545,465100754,478564935,495934202,512298060
1000000000,1935757952,437711003,691664282,1130236981,118482982,156889460,419734273,465134151,478723610,496252921,512892085
1000000000,1934805673,438497874,695836084,1129888383,117957863,156929990,419120082,465178099,478966373,496752519,513646542
1000000000,1921618258,454560037,745192476,1138981080,146864519,197979804,449245130,512675283,539009242,560575103,576949822
1000000000,2079915806,554060810,814030130,1182404102,263859721,346490578,430053518,611403672,735897265,753079889,754781952
1000000000,2079915896,554060930,814029924,1182404318,263859870,346490654,430053514,611403565,735897287,753079952,754782012
1000000000,2079915835,554060754,814029702,1182404367,263859885,346490629,430053448,611403628,735897233,753080101,754782151
1000000000,2079915644,554060539,814029847,1182403806,263859522,346490468,430053497,611403869,735897214,753079876,754781936
1000000000,2079915290,554059990,814029443,1182403032,263859005,346490205,430053485,611404312,735897119,753079724,754781783
1000000000,2079915910,554060973,814030163,1182404310,263859864,346490656,430053531,611403554,735897300,753079924,754781987
1000000000,2079915878,554060895,814029959,1182404329,263859870,346490646,430053499,611403577,735897276,753079984,754782044
1000000000,2079915838,554060752,814029700,1182404368,263859887,346490630,430053448,611403629,735897234,753080102,754782152
1000000000,2079915555,554060416,814029787,1182403587,263859378,346490398,430053502,611403979,735897194,753079813,754781873
1000000000,2079915365,554060137,814030134,1182403247,263859138,346490271,430053491,611404195,735897147,753079776,754781848
1000000000,2079915939,554060988,814029501,1182404300,263859868,346490661,430053530,611403543,735897300,753079900,754781950
1000000000,2079915863,554060856,814029990,1182404340,263859876,346490644,430053488,611403593,735897266,753080017,754782077
1000000000,2079915845,554060780,814029678,1182404358,263859881,346490630,430053456,611403616,735897239,753080076,754782126
1000000000,2079915458,554060267,814029747,1182403385,263859240,346490329,430053502,611404103,735897172,753079782,754781846
1000000000,2079915472,554060295,814030164,1182403449,263859279,346490345,430053496,611404070,735897175,753079801,754781869
1000000000,2079915937,554060988,814029500,1182404301,263859870,346490664,430053533,611403546,735897301,753079901,754781951
1000000000,2079915846,554060818,814030023,1182404349,263859875,346490634,430053470,611403602,735897252,753080047,754782107
1000000000,2079915863,554060819,814029646,1182404351,263859882,346490640,430053475,611403608,735897254,753080047,754782097
1000000000,2079915353,554060105,814029717,1182403175,263859098,346490252,430053491,611404224,735897140,753079750,754781814
1000000000,2079915574,554060458,814030194,1182403656,263859418,346490419,430053504,611403946,735897205,753079831,754781899
1000000000,2079915939,554060988,814029501,1182404300,263859868,346490661,430053530,611403543,735897300,753079900,754781950
1000000000,2079915829,554060780,814030055,1182404361,263859880,346490632,430053460,611403619,735897243,753080081,754782141
1000000000,2079915833,554060810,814029982,1182404282,263859835,346490618,430053485,611403626,735897256,753080013,754782073
1000000000,2079915297,554059989,814029318,1182403028,263859003,346490206,430053487,611404317,735897119,753079722,754781776
1000000000,1945226434,568488340,919408375,1166597903,252755368,341400250,436211096,588021959,713299599,766733031,810051296
1000000000,1701102244,595731359,1112955746,1139118941,233471022,333333024,449724436,546832693,674244210,793390904,912536816
1000000000,2034728751,538866234,818789862,1157632482,166806097,310711128,432869620,600956522,699840579,713142194,727579020
68433854,116097834,40866653,75832903,77636271,16325422,23146542,30908999,37265887,46466053,54483453,62419367
