1000000000,218711832,101816934,130785077,512854308,10100,28571362,35035453,6644,158506805,29544995,1364314,89042360
1000000000,219481702,100220483,127942019,509125163,0,27254187,35210635,0,164881947,27391294,1357047,91980989
1000000000,219485189,100216322,127918346,509084095,0,27252643,35215179,0,164888356,27393191,1354882,92030455
1000000000,219480517,100201794,127909866,509115407,0,27246929,35216466,0,164850052,27392364,1358555,92046502
1000000000,219486460,100208059,127899300,509073159,0,27249322,35217315,0,164882908,27394142,1355449,92062220
1000000000,219487262,100209796,127904031,509074960,0,27250358,35216765,0,164874815,27393381,1355279,92063861
1000000000,219489548,100208256,127896297,509064541,0,27249468,35217508,0,164886243,27394467,1354551,92069419
1000000000,219487834,100214219,127913706,509078698,0,27252340,35215567,0,164884327,27393714,1354783,92042468
1000000000,219487771,100211142,127904424,509071145,0,27250737,35216720,0,164881862,27393314,1354774,92060776
1000000000,219481339,100208725,127909548,509093297,0,27250704,35216551,0,164866081,27393476,1357097,92048571
1000000000,219485962,100210214,127902667,509071034,0,27250787,35217701,0,164884669,27394256,1354842,92057886
1000000000,219484982,100206409,127895000,509070175,0,27248922,35218689,0,164879720,27394333,1355505,92070365
1000000000,219486548,100215483,127913651,509083457,0,27253187,35215553,0,164885474,27392732,1354824,92037060
1000000000,219487002,100207941,127893429,509072199,0,27249441,35218016,0,164877975,27392936,1355267,92072888
1000000000,219480193,100221478,127937530,509119100,0,27255964,35211653,0,164869342,27391089,1357100,91998856
1000000000,219489000,100203093,127882437,509057036,0,27247256,35220662,0,164876860,27393649,1354562,92096906
1000000000,219487171,100204913,127888353,509058473,0,27248773,35219654,0,164876176,27395162,1354767,92089004
567188805,124490049,56832144,72569506,288761716,0,15454121,19972605,0,93489266,15533840,769770,52205772
