356823,13475,2075,137
251360,3959,938,41
251350,3958,938,41
251341,3959,938,41
251391,3959,938,41
251359,3959,938,41
251398,3960,938,41
251392,3960,938,41
251348,3958,938,41
251378,3959,938,41
251360,3959,938,41
251396,3962,938,41
251383,3961,938,41
251340,3960,938,41
251390,3962,938,41
251355,3960,938,41
251393,3961,938,41
143238,2270,938,41
