218712004,343612,95662112,36062566,17444810,29032952,22682823,4093710,2190842,2840950,6799041,1138169,370801,41578,4954,1207,362,170,422,592,331
219481702,248702,96529576,36441487,17281096,29436608,21948339,3764255,2241267,2989538,6973528,1189881,385737,43355,5223,1326,404,234,28,74,1044
219485189,248736,96528480,36401308,17282361,29435249,21573075,4135486,2236166,2944289,7071430,1190719,386276,43350,5234,1299,397,194,28,68,1044
219480517,248674,96508090,36397579,17298235,29406186,21892213,3774598,2265067,2932068,7126855,1191892,387169,43510,5278,1348,410,195,28,80,1042
219486460,248718,96534099,36429281,17262833,29421864,21963027,3732256,2256262,2963761,7047196,1189201,386200,43430,5286,1305,399,204,28,68,1042
219487262,248709,96538842,36432913,17279815,29432067,21887740,3826178,2238956,2973247,7003671,1187981,385448,43414,5239,1311,397,194,29,66,1045
219489548,248724,96530258,36399222,17284826,29432133,21622553,4076942,2242691,2940191,7085280,1188926,386141,43408,5218,1304,395,196,29,68,1043
219487834,248739,96500408,36406648,17293327,29418398,21903074,3766137,2265356,2939684,7118641,1189555,386268,43356,5199,1316,395,194,28,68,1043
219487771,248710,96533646,36430932,17266385,29432468,21955256,3731455,2257693,2974450,7032665,1187082,385388,43378,5217,1313,400,195,28,68,1042
219481339,248705,96540357,36424694,17278847,29441581,21811432,3887749,2241422,2970489,7014257,1185237,384860,43425,5194,1319,392,239,29,66,1045
219485962,248709,96521784,36397546,17289198,29433879,21665906,4017623,2246331,2932043,7108627,1187144,385379,43535,5220,1306,399,194,28,68,1043
219484982,248715,96513761,36407439,17285393,29421849,21907668,3757001,2261547,2939380,7117352,1186993,386034,43497,5273,1307,441,193,30,67,1042
219486548,248741,96530287,36434260,17269835,29439933,21953083,3734321,2249722,2969276,7037081,1183304,385031,43438,5209,1298,395,194,29,68,1043
219487002,248701,96543396,36418132,17280009,29440777,21750136,3948579,2237802,2954156,7045207,1182998,385339,43467,5216,1313,441,194,28,66,1045
219480193,248721,96505837,36399974,17292639,29431899,21718235,3961412,2250103,2932268,7117117,1183910,386177,43548,5268,1358,393,195,28,68,1043
219489000,248713,96523200,36412166,17278595,29423376,21917465,3748720,2261444,2943905,7110259,1183697,385659,43575,5193,1304,394,197,28,68,1042
219487171,248714,96542664,36431421,17272220,29435696,21951206,3737167,2250414,2972377,7028070,1180516,385016,43445,5214,1297,400,196,28,68,1042
124490049,141045,54756301,20663799,9801321,16667528,12390500,2219524,1267150,1680368,3991576,659748,221812,24688,2958,722,193,131,24,66,595
