100000000 21440175 23186009 20711064 59974811 0 4794147 329882 8512438 5845511 6937628 1140411 671
100000000 21399854 23197574 20689359 59892383 0 4782104 327011 8499296 5803445 7067508 1172587 0
100000000 21415297 23207957 20700711 59926579 0 4790574 326314 8514336 5832722 7000741 1156286 0
100000000 19870481 18814790 21018043 60278749 70451 6067787 1600729 8360960 2484148 5849140 769377 1600296
100000000 20322103 19039053 21356920 58717521 69791 6637285 1774388 9355648 2455933 6003465 826230 1866103
100000000 20135680 18797900 21335502 58847950 74564 6578197 1788936 9120128 2394067 6034446 804299 1857035
100000000 19829376 18504137 21114519 59149598 90155 6762732 1855060 8517312 2232210 6024491 720801 1784268
100000000 19826633 18499608 21104945 59152115 90691 6775744 1857803 8500160 2227936 6027023 718014 1780099
100000000 19959057 18643113 21167390 59037728 85147 6739212 1835352 8724256 2287947 6024486 747423 1802682
100000000 20203523 18883475 21340500 58797453 72650 6591904 1782322 9206112 2417984 6033998 815617 1859881
100000000 19876995 18544584 21235979 59056148 84475 6608806 1832745 8746592 2293468 6028991 760918 1825139
100000000 20180414 18892438 21311561 58831910 74683 6637078 1794802 9159808 2403317 6002866 804674 1852865
100000000 20388471 19111249 21378364 58664334 67529 6634942 1766066 9454272 2482281 5999548 837531 1873959
100000000 20388354 19110933 21378423 58664353 67530 6634786 1766065 9454112 2482259 5999654 837535 1873954
100000000 20388349 19110961 21378405 58664363 67531 6634816 1766070 9454112 2482251 5999651 837528 1873944
100000000 20388403 19111115 21378396 58664376 67530 6634828 1766064 9454208 2482252 5999611 837541 1873958
100000000 20388476 19111243 21378383 58664328 67528 6634930 1766063 9454272 2482256 5999581 837528 1873957
100000000 20388372 19111021 21378414 58664347 67530 6634828 1766067 9454144 2482220 5999668 837534 1873950
100000000 20388346 19110961 21378425 58664364 67531 6634810 1766065 9454112 2482215 5999674 837528 1873947
100000000 20388354 19110933 21378418 58664343 67530 6634786 1766061 9454112 2482251 5999672 837544 1873954
100000000 20388410 19111121 21378387 58664328 67529 6634858 1766057 9454208 2482282 5999629 837542 1873944
100000000 20388445 19111161 21378369 58664315 67529 6634906 1766064 9454208 2482285 5999602 837535 1873951
100000000 20388374 19110980 21378420 58664376 67530 6634804 1766066 9454144 2482235 5999642 837532 1873953
100000000 20388347 19110952 21378418 58664373 67531 6634810 1766066 9454112 2482229 5999658 837526 1873948
100000000 20388388 19111031 21378416 58664355 67529 6634798 1766053 9454176 2482272 5999644 837539 1873951
100000000 20388442 19111150 21378377 58664323 67529 6634900 1766068 9454208 2482283 5999595 837531 1873950
100000000 20388405 19111077 21378390 58664326 67530 6634870 1766069 9454176 2482269 5999622 837531 1873950
100000000 20388364 19110953 21378447 58664379 67530 6634790 1766054 9454112 2482218 5999655 837533 1873953
100000000 20388362 19110958 21378404 58664345 67531 6634816 1766070 9454112 2482238 5999677 837532 1873946
100000000 20388397 19111069 21378410 58664349 67529 6634822 1766057 9454176 2482258 5999650 837534 1873948
100000000 20388479 19111239 21378380 58664313 67528 6634924 1766063 9454272 2482257 5999599 837534 1873956
100000000 20388368 19110997 21378426 58664366 67530 6634810 1766065 9454144 2482216 5999666 837527 1873952
100000000 20388338 19110981 21378431 58664395 67532 6634834 1766068 9454112 2482160 5999675 837519 1873945
100000000 20388362 19110927 21378437 58664335 67529 6634777 1766056 9454112 2482268 5999659 837541 1873957
100000000 20041421 18733006 21291980 58941697 78101 6594169 1805721 8993280 2359084 6008421 789666 1850121
100000000 19835077 18515323 21107156 59143427 90568 6775638 1859370 8521088 2233197 6021466 720829 1782065
100000000 19832526 18507434 21104597 59150711 90593 6777469 1857779 8507584 2229556 6023575 718484 1781374
100000000 19872027 18544336 21141753 59108905 88160 6740984 1847043 8596704 2253499 6025302 731750 1793957
100000000 19828928 18500281 21116784 59148368 90091 6759173 1854676 8518240 2232672 6026269 721404 1784368
100000000 19835041 18524382 21102422 59147589 90663 6784434 1859895 8517280 2231943 6016647 720017 1780225
100000000 19827521 18500109 21106997 59150031 90597 6774814 1857191 8502464 2228484 6028045 718437 1779702
100000000 20193880 18914379 21280131 58845372 75187 6673543 1796837 9141440 2398914 5997036 800656 1846654
100000000 20392790 19147279 21356736 58685219 67635 6645225 1768954 9468960 2486121 5976239 841082 1876884
100000000 20392718 19147120 21356749 58685249 67636 6645130 1768954 9468864 2486115 5976301 841092 1876872
100000000 20392843 19147432 21356681 58685175 67635 6645322 1768963 9469024 2486155 5976200 841083 1876879
100000000 20392722 19147076 21356773 58685256 67636 6645140 1768955 9468832 2486094 5976284 841085 1876876
100000000 20392810 19147350 21356726 58685205 67634 6645220 1768946 9468992 2486141 5976246 841095 1876881
100000000 20184534 18896649 21329959 58838935 73039 6595608 1784695 9197312 2413707 5998210 813090 1865341
100000000 19878071 18526767 21257913 59057901 83052 6572470 1821700 8760224 2297735 6037434 764489 1833549
100000000 19830530 18507926 21105299 59152749 90558 6776620 1857469 8507552 2229637 6021816 718677 1781314
100000000 19830394 18507761 21104462 59151317 90617 6777432 1857850 8506464 2229319 6023838 718359 1780979
100000000 19844929 18494829 21190300 59110648 86487 6654826 1835988 8627424 2262210 6037084 742340 1810510
100000000 20095192 18761363 21316871 58889305 75986 6586494 1793643 9054208 2376361 6030028 795975 1852393
100000000 19921618 18535482 21297114 59002161 80747 6533416 1810448 8838880 2319753 6061797 776256 1842093
100000000 20245348 18946504 21343180 58774874 71929 6621148 1781364 9254336 2429194 6011838 816096 1861179
100000000 20210290 18891291 21348466 58794414 72454 6594286 1781990 9219712 2420228 6023513 814122 1862411
100000000 19837516 18500263 21142076 59131376 88853 6725668 1848448 8558048 2243372 6031630 728376 1792762
100000000 19827598 18502686 21105495 59152278 90646 6776184 1857678 8502752 2228348 6025187 718100 1780373
100000000 19875914 18550973 21128636 59109025 88616 6760790 1849231 8582848 2250095 6027997 728553 1788843
100000000 20280125 18979891 21352662 58743383 70414 6606402 1774631 9308448 2445156 6023931 826813 1865719
100000000 19864504 18523245 21227893 59061380 85273 6616728 1836623 8718944 2286244 6036198 757144 1820050
100000000 20116173 18817411 21306164 58881656 76114 6614122 1798477 9084320 2383202 6006697 797731 1851952
100000000 20388364 19111038 21378386 58664383 67532 6634846 1766077 9454144 2482223 5999634 837529 1873948
100000000 20388358 19110930 21378427 58664339 67529 6634777 1766056 9454112 2482258 5999667 837549 1873957
100000000 20388432 19111175 21378377 58664334 67529 6634879 1766060 9454240 2482277 5999615 837540 1873944
100000000 20388450 19111215 21378353 58664358 67530 6634924 1766079 9454240 2482284 5999535 837532 1873960
100000000 20388360 19110978 21378435 58664365 67530 6634798 1766057 9454144 2482221 5999665 837532 1873955
100000000 20388360 19110955 21378408 58664355 67531 6634810 1766071 9454112 2482240 5999666 837531 1873947
100000000 20388397 19111069 21378406 58664339 67529 6634828 1766057 9454176 2482258 5999657 837535 1873948
100000000 20388479 19111249 21378383 58664314 67528 6634930 1766059 9454272 2482247 5999603 837533 1873957
100000000 20388348 19110947 21378431 58664369 67530 6634793 1766065 9454112 2482223 5999668 837528 1873952
100000000 20388353 19110989 21378441 58664389 67532 6634831 1766070 9454112 2482157 5999675 837522 1873942
100000000 20388371 19110941 21378436 58664346 67529 6634783 1766055 9454112 2482248 5999664 837541 1873957
100000000 20388429 19111144 21378373 58664312 67529 6634879 1766061 9454208 2482290 5999630 837538 1873944
100000000 20388408 19111140 21378378 58664322 67529 6634882 1766064 9454208 2482277 5999619 837538 1873947
100000000 20388377 19110964 21378420 58664370 67530 6634792 1766063 9454144 2482247 5999640 837540 1873956
100000000 20388350 19110978 21378403 58664375 67532 6634834 1766069 9454112 2482211 5999669 837523 1873943
100000000 20388379 19110991 21378425 58664353 67529 6634786 1766053 9454144 2482276 5999646 837539 1873951
100000000 20388468 19111232 21378370 58664324 67528 6634924 1766063 9454272 2482285 5999573 837532 1873955
100000000 20388384 19111012 21378401 58664336 67530 6634834 1766069 9454144 2482269 5999637 837531 1873951
100000000 20388353 19110951 21378421 58664359 67531 6634816 1766067 9454112 2482227 5999657 837530 1873951
100000000 20388370 19110978 21378427 58664373 67530 6634792 1766061 9454144 2482237 5999653 837533 1873952
100000000 20388417 19111124 21378390 58664328 67529 6634858 1766057 9454208 2482280 5999632 837536 1873946
100000000 20388442 19111162 21378368 58664307 67529 6634906 1766068 9454208 2482274 5999617 837534 1873953
100000000 20111977 18816448 21299160 58889612 76431 6617626 1800816 9077664 2381370 6002094 797152 1852062
100000000 19846687 18520689 21140974 59123930 88831 6731020 1850660 8576512 2247969 6024139 730604 1793857
100000000 19831369 18506839 21104127 59150384 90619 6777390 1857881 8506304 2229315 6024844 718559 1781059
100000000 19821924 18491185 21107502 59154636 90681 6767322 1857650 8498880 2227370 6028519 718521 1782209
100000000 19880478 18555211 21150508 59101069 87535 6732868 1843954 8617472 2259229 6024110 734992 1796439
100000000 19834867 18524500 21102638 59147322 90674 6784596 1859978 8517248 2231886 6016744 719913 1780085
100000000 19827590 18500258 21107123 59149813 90590 6774778 1857179 8502752 2228582 6028098 718431 1779695
100000000 20110303 18818083 21243109 58914772 78580 6692416 1809800 8998112 2360699 6004596 782361 1832476
100000000 20392865 19147478 21356709 58685199 67633 6645298 1768946 9469056 2486145 5976196 841085 1876881
100000000 20392688 19147068 21356746 58685232 67637 6645148 1768963 9468832 2486101 5976310 841088 1876874
100000000 20392793 19147272 21356732 58685236 67635 6645199 1768950 9468960 2486153 5976221 841088 1876881
100000000 20392799 19147322 21356725 58685199 67635 6645241 1768956 9468992 2486122 5976247 841086 1876883
100000000 20392715 19147073 21356761 58685242 67636 6645133 1768952 9468832 2486101 5976307 841087 1876880
100000000 20266904 18993503 21348787 58778163 70415 6601747 1775174 9313632 2444790 5990163 826267 1873443
100000000 19881358 18529038 21273233 59049817 82346 6552154 1818518 8785408 2303865 6037444 769276 1838803
100000000 19827544 18503301 21108186 59152030 90507 6771321 1857034 8507680 2229665 6024330 719192 1781870
100000000 19830194 18507719 21104499 59151049 90610 6777225 1857781 8506368 2229290 6024231 718607 1780884
100000000 19848165 18511705 21164897 59121413 87445 6692842 1841275 8601728 2254926 6028841 736161 1803396
100000000 20073176 18728833 21310288 58899305 76966 6587866 1798271 9019840 2367175 6038413 792045 1847801
100000000 18995420 16020736 18726929 68282728 33856 2784549 770029 3787264 5513394 2582001 390887 797273
100000000 28704382 2548508 15089922 47487050 0 0 0 0 36886498 0 469464 67066
100000000 28705563 2548622 15090543 47484906 0 0 0 0 36887998 0 469484 67069
100000000 28705567 2548622 15090543 47484904 0 0 0 0 36888001 0 469483 67069
100000000 28706071 2548697 15090805 47484052 0 0 0 0 36888581 0 469491 67071
100000000 28705653 2548623 15090589 47484730 0 0 0 0 36888126 0 469486 67069
100000000 28704181 2548508 15089814 47487459 0 0 0 0 36886200 0 469461 67066
100000000 28703360 2548432 15089384 47488951 0 0 0 0 36885153 0 469448 67064
100000000 28705566 2548622 15090543 47484903 0 0 0 0 36888002 0 469483 67069
100000000 28705565 2548622 15090543 47484907 0 0 0 0 36887997 0 469484 67069
100000000 28706053 2548660 15090799 47483999 0 0 0 0 36888641 0 469491 67070
100000000 28705652 2548622 15090590 47484727 0 0 0 0 36888129 0 469485 67069
100000000 28705112 2548584 15090304 47485740 0 0 0 0 36887412 0 469476 67068
100000000 28665712 2550719 15097659 47514487 0 160 30 0 36850609 87 469699 67269
100000000 28658210 2550370 15100786 47516140 0 0 0 0 36846156 0 469803 67115
100000000 28657718 2550332 15100670 47516772 0 0 0 0 36845646 0 469798 67114
100000000 28658349 2550370 15100824 47515926 0 0 0 0 36846331 0 469804 67115
100000000 28658302 2550332 15100753 47516028 0 0 0 0 36846304 0 469801 67114
100000000 28658877 2550332 15100579 47515791 0 0 0 0 36846720 0 469796 67114
100000000 28662604 2549914 15098176 47515827 0 0 0 0 36849173 0 469721 67103
100000000 28659465 2550332 15100653 47515061 0 0 0 0 36847374 0 469798 67114
100000000 28657718 2550332 15100670 47516772 0 0 0 0 36845646 0 469798 67114
100000000 28657715 2550332 15100671 47516773 0 0 0 0 36845643 0 469799 67114
100000000 28658936 2550370 15100906 47515181 0 0 0 0 36846992 0 469806 67115
100000000 28658715 2550332 15100607 47515898 0 0 0 0 36846584 0 469797 67114
100000000 28658372 2550718 15098143 47520764 0 108 8 0 36843927 64 469715 67271
100000000 28658341 2550218 15100033 47517142 0 0 0 0 36845936 0 469778 67111
100000000 28657715 2550332 15100671 47516775 0 0 0 0 36845641 0 469799 67114
100000000 28657718 2550332 15100670 47516772 0 0 0 0 36845646 0 469798 67114
100000000 28658509 2550332 15100619 47516081 0 0 0 0 36846389 0 469797 67114
100000000 28658098 2550294 15100434 47516771 0 0 0 0 36845890 0 469792 67113
100000000 28656738 2549904 15098047 47521922 0 0 0 0 36843212 0 469716 67103
100000000 28658346 2550228 15100033 47517160 0 0 0 0 36845916 0 469780 67111
100000000 28657718 2550332 15100670 47516772 0 0 0 0 36845646 0 469798 67114
100000000 28657715 2550332 15100671 47516775 0 0 0 0 36845641 0 469799 67114
100000000 28658471 2550332 15100655 47516048 0 0 0 0 36846385 0 469798 67114
100000000 28658138 2550294 15100397 47516801 0 0 0 0 36845899 0 469790 67113
100000000 28656786 2550756 15098389 47521956 0 108 8 0 36842480 64 469723 67272
100000000 28658134 2550256 15100174 47517156 0 0 0 0 36845775 0 469783 67112
100000000 28657715 2550332 15100671 47516775 0 0 0 0 36845641 0 469799 67114
100000000 28657718 2550332 15100670 47516772 0 0 0 0 36845646 0 469798 67114
100000000 28657979 2550332 15100654 47516544 0 0 0 0 36845890 0 469798 67114
100000000 28657830 2550332 15100602 47516794 0 0 0 0 36845693 0 469797 67114
100000000 28657352 2549952 15098456 47520620 0 0 0 0 36844090 0 469730 67104
100000000 28658134 2550256 15100174 47517156 0 0 0 0 36845775 0 469783 67112
100000000 28657718 2550332 15100670 47516772 0 0 0 0 36845646 0 469798 67114
100000000 28657715 2550332 15100671 47516775 0 0 0 0 36845641 0 469799 67114
100000000 28657978 2550332 15100654 47516544 0 0 0 0 36845890 0 469798 67114
100000000 28657759 2550332 15100635 47516799 0 0 0 0 36845654 0 469798 67114
100000000 28657224 2550870 15099166 47520254 0 108 8 0 36843379 64 469746 67275
100000000 28657606 2550256 15100049 47517929 0 0 0 0 36845130 0 469780 67112
100000000 28657715 2550332 15100671 47516775 0 0 0 0 36845641 0 469799 67114
100000000 28657718 2550332 15100670 47516772 0 0 0 0 36845646 0 469798 67114
100000000 28657812 2550332 15100645 47516728 0 0 0 0 36845715 0 469798 67114
100000000 28657775 2550332 15100650 47516753 0 0 0 0 36845685 0 469798 67114
100000000 28657446 2550142 15099527 47518856 0 0 0 0 36844745 0 469763 67109
100000000 28657587 2550218 15100036 47517891 0 0 0 0 36845183 0 469779 67111
100000000 28657718 2550332 15100670 47516772 0 0 0 0 36845646 0 469798 67114
100000000 28657715 2550332 15100671 47516773 0 0 0 0 36845643 0 469799 67114
100000000 28657797 2550332 15100654 47516726 0 0 0 0 36845708 0 469798 67114
100000000 28657792 2550332 15100642 47516755 0 0 0 0 36845691 0 469798 67114
100000000 28657042 2550984 15099759 47519530 0 108 8 0 36843488 64 469765 67278
100000000 28657438 2550256 15100139 47517919 0 0 0 0 36845048 0 469782 67112
100000000 28657715 2550332 15100671 47516775 0 0 0 0 36845641 0 469799 67114
100000000 28657718 2550332 15100670 47516772 0 0 0 0 36845646 0 469798 67114
100000000 28657720 2550332 15100665 47516783 0 0 0 0 36845639 0 469799 67114
100000000 28657712 2550332 15100661 47516795 0 0 0 0 36845632 0 469798 67114
100000000 28657530 2550294 15100326 47517546 0 0 0 0 36845227 0 469788 67113
100000000 28657092 2550180 15099730 47518900 0 0 0 0 36844490 0 469770 67110
100000000 28657718 2550332 15100670 47516772 0 0 0 0 36845646 0 469798 67114
100000000 28657715 2550332 15100671 47516775 0 0 0 0 36845641 0 469799 67114
100000000 28657721 2550332 15100664 47516780 0 0 0 0 36845644 0 469798 67114
100000000 28657711 2550332 15100662 47516798 0 0 0 0 36845627 0 469799 67114
100000000 28657595 2550294 15100437 47517265 0 0 0 0 36845394 0 469791 67113
100000000 28656787 2551022 15099868 47519657 0 108 8 0 36843247 64 469769 67279
100000000 28657703 2550332 15100655 47516815 0 0 0 0 36845618 0 469798 67114
100000000 28657715 2550332 15100671 47516775 0 0 0 0 36845641 0 469799 67114
100000000 28657716 2550332 15100666 47516782 0 0 0 0 36845640 0 469798 67114
100000000 28657712 2550332 15100658 47516804 0 0 0 0 36845626 0 469798 67114
100000000 28657691 2550332 15100618 47516901 0 0 0 0 36845570 0 469797 67114
100000000 28657162 2550218 15099985 47518414 0 0 0 0 36844712 0 469778 67111
100000000 28657548 2550294 15100488 47517214 0 0 0 0 36845393 0 469792 67113
100000000 28657715 2550332 15100671 47516775 0 0 0 0 36845641 0 469799 67114
100000000 28657718 2550332 15100670 47516772 0 0 0 0 36845646 0 469798 67114
100000000 28657706 2550332 15100654 47516816 0 0 0 0 36845617 0 469799 67114
100000000 28657690 2550332 15100618 47516902 0 0 0 0 36845569 0 469797 67114
100000000 28656932 2551060 15100107 47519129 0 108 8 0 36843528 64 469776 67280
100000000 28657591 2550294 15100531 47517087 0 0 0 0 36845475 0 469794 67113
100000000 28657716 2550332 15100672 47516772 0 0 0 0 36845644 0 469798 67114
100000000 28657718 2550332 15100670 47516774 0 0 0 0 36845643 0 469799 67114
100000000 28657703 2550332 15100656 47516814 0 0 0 0 36845618 0 469798 67114
100000000 28657690 2550332 15100635 47516871 0 0 0 0 36845582 0 469798 67114
100000000 28657375 2550256 15100183 47517897 0 0 0 0 36845025 0 469783 67112
100000000 28657607 2550332 15100536 47517144 0 0 0 0 36845411 0 469795 67114
100000000 28657715 2550332 15100671 47516775 0 0 0 0 36845641 0 469799 67114
100000000 28657718 2550332 15100670 47516772 0 0 0 0 36845646 0 469798 67114
100000000 28657706 2550332 15100661 47516803 0 0 0 0 36845623 0 469799 67114
100000000 28657701 2550332 15100655 47516821 0 0 0 0 36845612 0 469798 67114
100000000 28657118 2551060 15100247 47518670 0 108 8 0 36843843 64 469780 67280
100000000 28657645 2550332 15100573 47517035 0 0 0 0 36845482 0 469796 67114
100000000 28657718 2550332 15100670 47516772 0 0 0 0 36845646 0 469798 67114
100000000 28657715 2550332 15100671 47516773 0 0 0 0 36845643 0 469799 67114
100000000 28657704 2550332 15100662 47516804 0 0 0 0 36845622 0 469798 67114
100000000 28657712 2550332 15100668 47516782 0 0 0 0 36845637 0 469799 67114
100000000 28657543 2550294 15100317 47517554 0 0 0 0 36845228 0 469788 67113
100000000 28657628 2550294 15100568 47516979 0 0 0 0 36845545 0 469795 67113
100000000 28657718 2550332 15100670 47516772 0 0 0 0 36845646 0 469798 67114
100000000 28657724 2550347 15100674 47516794 0 0 0 0 36845618 0 469799 67115
100000000 28657706 2550346 15100664 47516823 0 0 0 0 36845601 0 469798 67114
100000000 28657718 2550341 15100668 47516798 0 0 0 0 36845620 0 469800 67114
100000000 28657204 2551089 15100411 47518327 0 108 8 0 36844017 64 469784 67281
100000000 28657619 2550303 15100558 47517030 0 0 0 0 36845503 0 469796 67113
100000000 28657718 2550332 15100670 47516772 0 0 0 0 36845646 0 469798 67114
100000000 28657715 2550332 15100671 47516774 0 0 0 0 36845642 0 469799 67114
100000000 28657709 2550332 15100664 47516794 0 0 0 0 36845630 0 469798 67114
100000000 28657719 2550344 15100670 47516801 0 0 0 0 36845615 0 469799 67115
100000000 28657589 2550320 15100472 47517258 0 0 0 0 36845364 0 469793 67113
100000000 28657614 2550294 15100558 47517014 0 0 0 0 36845520 0 469795 67113
100000000 28657718 2550332 15100670 47516772 0 0 0 0 36845646 0 469798 67114
100000000 28657723 2550343 15100673 47516787 0 0 0 0 36845626 0 469799 67115
100000000 28657713 2550348 15100666 47516817 0 0 0 0 36845605 0 469798 67114
100000000 28657716 2550343 15100668 47516806 0 0 0 0 36845612 0 469800 67114
100000000 28657254 2551098 15100513 47518099 0 108 8 0 36844139 64 469788 67281
100000000 28657781 2550332 15100583 47516879 0 0 0 0 36845628 0 469796 67114
100000000 28657715 2550332 15100671 47516775 0 0 0 0 36845641 0 469799 67114
100000000 28657718 2550332 15100670 47516772 0 0 0 0 36845646 0 469798 67114
100000000 28657705 2550332 15100666 47516796 0 0 0 0 36845625 0 469799 67114
100000000 28657713 2550332 15100667 47516782 0 0 0 0 36845639 0 469798 67114
100000000 28657768 2550332 15100614 47516833 0 0 0 0 36845642 0 469797 67114
100000000 28657765 2550294 15100539 47516898 0 0 0 0 36845656 0 469794 67113
100000000 28657721 2550343 15100673 47516791 0 0 0 0 36845622 0 469799 67115
100000000 28657725 2550356 15100673 47516805 0 0 0 0 36845610 0 469798 67114
100000000 28657708 2550335 15100665 47516805 0 0 0 0 36845616 0 469800 67114
100000000 28657714 2550332 15100667 47516782 0 0 0 0 36845639 0 469798 67114
100000000 28657778 2550332 15100637 47516778 0 0 0 0 36845673 0 469798 67114
100000000 28657400 2551098 15100573 47517837 0 108 8 0 36844339 64 469790 67281
100000000 28657720 2550332 15100666 47516777 0 0 0 0 36845645 0 469798 67114
100000000 28657724 2550344 15100674 47516789 0 0 0 0 36845623 0 469799 67115
100000000 28657724 2550356 15100673 47516806 0 0 0 0 36845609 0 469798 67114
100000000 28657725 2550334 15100665 47516786 0 0 0 0 36845635 0 469800 67114
100000000 28657727 2550332 15100662 47516779 0 0 0 0 36845647 0 469798 67114
100000000 28657795 2550322 15100615 47516778 0 0 0 0 36845697 0 469796 67114
100000000 28657737 2550338 15100657 47516792 0 0 0 0 36845639 0 469798 67114
100000000 28657719 2550336 15100670 47516783 0 0 0 0 36845633 0 469800 67114
100000000 28657716 2550332 15100671 47516773 0 0 0 0 36845644 0 469798 67114
100000000 28657723 2550332 15100664 47516780 0 0 0 0 36845643 0 469799 67114
100000000 28657727 2550332 15100663 47516778 0 0 0 0 36845647 0 469798 67114
100000000 28657420 2551136 15100629 47517793 0 108 8 0 36844323 64 469793 67282
100000000 28657723 2550332 15100664 47516779 0 0 0 0 36845645 0 469798 67114
100000000 28657716 2550332 15100671 47516771 0 0 0 0 36845646 0 469798 67114
100000000 28657717 2550332 15100670 47516775 0 0 0 0 36845642 0 469799 67114
100000000 28657716 2550332 15100669 47516779 0 0 0 0 36845639 0 469799 67114
100000000 28657717 2550332 15100666 47516780 0 0 0 0 36845642 0 469798 67114
100000000 28657746 2550332 15100653 47516779 0 0 0 0 36845656 0 469798 67114
100000000 28657722 2550332 15100664 47516780 0 0 0 0 36845644 0 469798 67114
100000000 28657715 2550332 15100671 47516773 0 0 0 0 36845643 0 469799 67114
100000000 28657721 2550335 15100673 47516777 0 0 0 0 36845636 0 469799 67115
100000000 28657725 2550353 15100670 47516805 0 0 0 0 36845613 0 469798 67114
100000000 28657720 2550346 15100671 47516803 0 0 0 0 36845612 0 469800 67114
100000000 28657378 2551136 15100649 47517793 0 108 8 0 36844305 64 469791 67282
100000000 28657713 2550332 15100666 47516785 0 0 0 0 36845635 0 469800 67114
100000000 28657715 2550332 15100672 47516774 0 0 0 0 36845642 0 469798 67114
100000000 28657718 2550332 15100669 47516773 0 0 0 0 36845645 0 469799 67114
100000000 28657713 2550332 15100670 47516780 0 0 0 0 36845637 0 469799 67114
100000000 28657718 2550332 15100670 47516772 0 0 0 0 36845646 0 469798 67114
100000000 28657717 2550332 15100663 47516786 0 0 0 0 36845639 0 469798 67114
100000000 28657713 2550332 15100666 47516787 0 0 0 0 36845634 0 469799 67114
100000000 28657716 2550332 15100672 47516771 0 0 0 0 36845645 0 469798 67114
100000000 28657717 2550332 15100670 47516774 0 0 0 0 36845643 0 469799 67114
100000000 28657718 2550335 15100670 47516783 0 0 0 0 36845633 0 469799 67115
100000000 28657724 2550355 15100673 47516806 0 0 0 0 36845609 0 469798 67114
100000000 28657363 2551136 15100654 47517799 0 108 8 0 36844292 64 469793 67282
100000000 28657717 2550344 15100670 47516804 0 0 0 0 36845612 0 469800 67114
100000000 28657718 2550332 15100670 47516772 0 0 0 0 36845646 0 469798 67114
100000000 28657715 2550332 15100671 47516775 0 0 0 0 36845641 0 469799 67114
100000000 28657715 2550332 15100668 47516778 0 0 0 0 36845642 0 469798 67114
100000000 28657715 2550332 15100671 47516775 0 0 0 0 36845641 0 469799 67114
100000000 28657717 2550332 15100666 47516782 0 0 0 0 36845640 0 469798 67114
100000000 28657711 2550332 15100668 47516785 0 0 0 0 36845634 0 469799 67114
100000000 28657718 2550332 15100670 47516772 0 0 0 0 36845646 0 469798 67114
100000000 28657715 2550332 15100671 47516774 0 0 0 0 36845642 0 469799 67114
100000000 28657716 2550332 15100669 47516777 0 0 0 0 36845642 0 469798 67114
100000000 28657724 2550351 15100674 47516800 0 0 0 0 36845612 0 469799 67115
100000000 28657367 2551140 15100658 47517795 0 108 8 0 36844292 64 469793 67282
100000000 28657724 2550347 15100670 47516803 0 0 0 0 36845613 0 469800 67114
100000000 28657718 2550332 15100670 47516772 0 0 0 0 36845646 0 469798 67114
100000000 28657715 2550332 15100671 47516775 0 0 0 0 36845641 0 469799 67114
100000000 28657715 2550332 15100669 47516777 0 0 0 0 36845642 0 469798 67114
100000000 28657717 2550332 15100671 47516773 0 0 0 0 36845643 0 469799 67114
100000000 28657715 2550332 15100668 47516779 0 0 0 0 36845641 0 469798 67114
100000000 28657716 2550332 15100668 47516780 0 0 0 0 36845639 0 469799 67114
100000000 28657718 2550332 15100670 47516772 0 0 0 0 36845646 0 469798 67114
100000000 28657715 2550332 15100671 47516774 0 0 0 0 36845642 0 469799 67114
100000000 28657716 2550332 15100669 47516777 0 0 0 0 36845642 0 469798 67114
100000000 28657725 2550351 15100674 47516799 0 0 0 0 36845613 0 469799 67115
100000000 28657721 2550351 15100672 47516810 0 0 0 0 36845604 0 469800 67114
100000000 28657363 2551136 15100660 47517786 0 108 8 0 36844299 64 469793 67282
100000000 28657716 2550332 15100668 47516777 0 0 0 0 36845643 0 469798 67114
100000000 28657715 2550332 15100671 47516775 0 0 0 0 36845641 0 469799 67114
100000000 28657718 2550332 15100670 47516772 0 0 0 0 36845646 0 469798 67114
100000000 28657714 2550332 15100670 47516778 0 0 0 0 36845639 0 469799 67114
100000000 28657715 2550332 15100669 47516779 0 0 0 0 36845640 0 469798 67114
100000000 28657714 2550332 15100670 47516778 0 0 0 0 36845639 0 469799 67114
100000000 28657717 2550332 15100669 47516775 0 0 0 0 36845644 0 469798 67114
100000000 28657715 2550332 15100671 47516775 0 0 0 0 36845641 0 469799 67114
100000000 28657720 2550334 15100673 47516774 0 0 0 0 36845640 0 469798 67115
100000000 28657723 2550354 15100671 47516807 0 0 0 0 36845609 0 469799 67114
100000000 28657718 2550346 15100671 47516805 0 0 0 0 36845610 0 469800 67114
100000000 28657365 2551136 15100660 47517785 0 108 8 0 36844300 64 469793 67282
100000000 28657718 2550332 15100669 47516774 0 0 0 0 36845645 0 469798 67114
100000000 28657715 2550332 15100671 47516775 0 0 0 0 36845641 0 469799 67114
100000000 28657718 2550332 15100670 47516772 0 0 0 0 36845646 0 469798 67114
100000000 28657714 2550332 15100670 47516777 0 0 0 0 36845640 0 469799 67114
100000000 28657712 2550332 15100670 47516779 0 0 0 0 36845639 0 469798 67114
100000000 28657716 2550332 15100669 47516778 0 0 0 0 36845640 0 469799 67114
100000000 28657715 2550332 15100670 47516776 0 0 0 0 36845641 0 469799 67114
100000000 28657718 2550332 15100670 47516772 0 0 0 0 36845646 0 469798 67114
100000000 28657722 2550340 15100673 47516783 0 0 0 0 36845630 0 469799 67115
100000000 28657723 2550354 15100672 47516807 0 0 0 0 36845609 0 469798 67114
100000000 28657719 2550340 15100671 47516791 0 0 0 0 36845624 0 469800 67114
100000000 28657363 2551136 15100659 47517788 0 108 8 0 36844298 64 469793 67282
100000000 28657714 2550332 15100671 47516776 0 0 0 0 36845641 0 469798 67114
100000000 28657719 2550332 15100670 47516773 0 0 0 0 36845644 0 469799 67114
100000000 28657715 2550332 15100671 47516775 0 0 0 0 36845641 0 469799 67114
100000000 28657716 2550332 15100669 47516775 0 0 0 0 36845644 0 469798 67114
100000000 28657715 2550332 15100671 47516775 0 0 0 0 36845641 0 469799 67114
100000000 28657716 2550332 15100668 47516778 0 0 0 0 36845642 0 469798 67114
100000000 28657714 2550332 15100671 47516777 0 0 0 0 36845639 0 469799 67114
100000000 28657718 2550332 15100670 47516772 0 0 0 0 36845646 0 469798 67114
100000000 28657724 2550347 15100674 47516794 0 0 0 0 36845618 0 469799 67115
100000000 28657724 2550354 15100672 47516809 0 0 0 0 36845607 0 469798 67114
100000000 28657716 2550333 15100670 47516776 0 0 0 0 36845640 0 469800 67114
100000000 28657363 2551136 15100659 47517790 0 108 8 0 36844296 64 469793 67282
100000000 28657714 2550332 15100671 47516777 0 0 0 0 36845639 0 469799 67114
100000000 28657718 2550332 15100670 47516772 0 0 0 0 36845646 0 469798 67114
100000000 28657716 2550332 15100671 47516774 0 0 0 0 36845642 0 469799 67114
100000000 28657716 2550332 15100669 47516776 0 0 0 0 36845643 0 469798 67114
100000000 28657715 2550332 15100671 47516775 0 0 0 0 36845641 0 469799 67114
100000000 28657715 2550332 15100669 47516777 0 0 0 0 36845642 0 469798 67114
100000000 28657714 2550332 15100670 47516778 0 0 0 0 36845639 0 469799 67114
100000000 28657717 2550332 15100673 47516772 0 0 0 0 36845643 0 469798 67114
100000000 28657727 2550356 15100672 47516806 0 0 0 0 36845608 0 469799 67115
100000000 28657719 2550346 15100672 47516801 0 0 0 0 36845613 0 469800 67114
100000000 28657718 2550332 15100670 47516772 0 0 0 0 36845646 0 469798 67114
100000000 28657713 2550332 15100669 47516782 0 0 0 0 36845636 0 469799 67114
1047900 299670 29793 159393 502026 2 1485 305 42 378029 803 4919 894
number of instructions: 34801047865
