1.000000,23.309000
1.000000,23.309000
1.000000,23.309000
1.000000,23.309000
1.000000,23.309000
1.000000,23.309000
1.000000,23.309000
1.000000,23.309000
1.000000,23.309000
1.000000,23.309000
1.000000,23.309000
1.000000,23.309000
1.000000,24.633080
1.000000,34.343000
1.000000,34.343000
1.000000,34.343000
1.000000,97.732700
1.000000,98.373000
1.000000,98.373000
1.000000,109.899680
1.000000,115.324000
1.000000,115.324000
1.000000,116.320840
1.000000,117.880000
1.000000,117.880000
1.000000,117.913530
1.000000,118.359000
1.000000,118.359000
1.000000,118.359000
1.000000,118.433690
1.000000,118.456000
1.000000,118.456000
1.000000,118.412290
1.000000,118.363000
1.000000,118.363000
1.000000,118.411790
1.000000,118.650000
1.000000,118.650000
1.000000,118.650000
1.000000,118.482960
1.000000,118.458000
1.000000,118.458000
1.000000,118.511010
1.000000,118.551000
1.000000,118.551000
1.000000,118.527000
1.000000,118.455000
1.000000,118.455000
1.000000,118.455000
1.000000,118.730500
1.000000,118.745000
1.000000,118.745000
1.000000,118.684200
1.000000,118.650000
1.000000,118.650000
1.000000,118.682300
1.000000,118.745000
1.000000,118.745000
1.000000,118.742090
1.000000,118.648000
1.000000,118.648000
1.000000,118.648000
1.000000,118.631720
1.000000,118.626000
1.000000,118.626000
1.000000,118.676740
1.000000,118.744000
1.000000,118.744000
1.000000,118.766360
1.000000,118.916000
1.000000,118.916000
1.000000,118.916000
1.000000,119.015960
1.000000,119.035000
1.000000,119.035000
1.000000,119.138140
1.000000,119.226000
1.000000,119.226000
1.000000,119.203200
1.000000,119.131000
1.000000,119.131000
1.000000,119.131000
1.000000,119.129100
1.000000,119.129000
1.000000,119.129000
1.000000,119.069780
1.000000,119.035000
1.000000,119.035000
1.000000,119.099940
1.000000,119.226000
1.000000,119.226000
1.000000,119.214480
1.000000,118.938000
1.000000,118.938000
1.000000,118.938000
1.000000,118.936500
1.000000,118.936000
1.000000,118.936000
1.000000,118.980550
1.000000,119.035000
1.000000,119.035000
1.000000,119.049250
1.000000,119.130000
1.000000,119.130000
1.000000,119.130000
1.000000,119.046580
1.000000,119.033000
1.000000,119.033000
1.000000,118.979800
1.000000,118.938000
1.000000,118.938000
1.000000,119.013140
1.000000,119.227000
1.000000,119.227000
1.000000,119.227000
1.000000,119.134840
1.000000,119.131000
1.000000,119.131000
1.000000,119.131000
1.000000,119.131000
1.000000,119.131000
1.000000,119.130640
1.000000,119.130000
1.000000,119.130000
1.000000,119.130000
1.000000,119.130000
1.000000,119.130000
1.000000,119.130000
1.000000,119.130750
1.000000,119.131000
1.000000,119.131000
1.000000,119.130100
1.000000,119.129000
1.000000,119.129000
1.000000,119.082500
1.000000,118.819000
1.000000,118.819000
1.000000,118.819000
1.000000,118.916580
1.000000,118.938000
1.000000,118.938000
1.000000,118.986450
1.000000,119.033000
1.000000,119.033000
1.000000,119.052600
1.000000,119.131000
1.000000,119.131000
1.000000,119.131000
1.000000,119.130100
1.000000,119.130000
1.000000,119.130000
1.000000,119.130590
1.000000,119.131000
1.000000,119.131000
1.000000,119.159800
1.000000,119.227000
1.000000,119.227000
1.000000,119.227000
1.000000,119.322040
1.000000,119.323000
1.000000,119.323000
1.000000,119.187390
1.000000,119.132000
1.000000,119.132000
1.000000,119.130800
1.000000,119.129000
1.000000,119.129000
1.000000,119.120450
1.000000,119.034000
1.000000,119.034000
1.000000,119.034000
1.000000,119.186470
1.000000,119.227000
1.000000,119.227000
1.000000,119.165640
1.000000,119.109000
1.000000,119.109000
1.000000,119.113410
1.000000,119.130000
1.000000,119.130000
1.000000,119.130000
1.000000,119.130000
1.000000,119.130000
1.000000,119.130000
1.000000,118.957200
1.000000,118.842000
1.000000,118.842000
1.000000,118.928700
1.000000,119.131000
1.000000,119.131000
1.000000,119.131000
1.000000,119.130010
1.000000,119.130000
1.000000,119.130000
1.000000,119.130000
1.000000,119.130000
1.000000,119.130000
1.000000,119.057040
1.000000,118.938000
1.000000,118.938000
1.000000,118.946730
1.000000,119.035000
1.000000,119.035000
1.000000,119.035000
1.000000,119.092720
1.000000,119.109000
1.000000,119.109000
1.000000,119.119290
1.000000,119.130000
1.000000,119.130000
1.000000,119.078520
1.000000,118.844000
1.000000,118.844000
1.000000,118.844000
1.000000,119.011200
1.000000,119.034000
1.000000,119.034000
1.000000,119.035740
1.000000,119.037000
1.000000,119.037000
1.000000,119.036130
1.000000,119.034000
1.000000,119.034000
1.000000,119.034000
1.000000,92.321000
1.000000,92.321000
1.000000,92.321000
1.000000,77.116350
1.000000,70.906000
1.000000,70.906000
1.000000,69.710650
1.000000,67.841000
1.000000,67.841000
1.000000,67.802700
1.000000,67.458000
1.000000,67.458000
1.000000,67.458000
1.000000,67.302000
1.000000,67.263000
1.000000,67.263000
1.000000,67.263000
1.000000,67.263000
1.000000,67.263000
1.000000,67.263000
1.000000,67.263000
1.000000,67.263000
1.000000,67.263000
1.000000,67.169940
1.000000,67.169000
1.000000,67.169000
0.410000,67.169000
