1.000000,67.169000
1.000000,67.193440
1.000000,67.263000
1.000000,67.263000
1.000000,67.263000
1.000000,67.263000
1.000000,67.263000
1.000000,67.263000
1.000000,67.198980
1.000000,67.166000
1.000000,67.166000
1.000000,67.166000
1.000000,67.023920
1.000000,66.974000
1.000000,66.974000
1.000000,66.974000
1.000000,73.334720
1.000000,85.682000
1.000000,85.682000
1.000000,85.682000
1.000000,85.682000
1.000000,85.682000
1.000000,85.682000
1.000000,104.539280
1.000000,109.858000
1.000000,109.858000
1.000000,109.858000
1.000000,109.858000
1.000000,109.858000
1.000000,110.428080
1.000000,113.421000
1.000000,113.421000
1.000000,113.421000
1.000000,113.421000
1.000000,113.421000
1.000000,113.421000
1.000000,113.552600
1.000000,113.656000
1.000000,113.656000
1.000000,113.656000
1.000000,113.656000
1.000000,113.656000
1.000000,113.656000
1.000000,113.837420
1.000000,113.849000
1.000000,113.849000
1.000000,113.849000
1.000000,113.849000
1.000000,113.849000
1.000000,114.007040
1.000000,114.288000
1.000000,114.288000
1.000000,114.288000
1.000000,114.288000
1.000000,114.288000
1.000000,114.288000
1.000000,114.319820
1.000000,114.331000
1.000000,114.331000
1.000000,114.331000
1.000000,114.331000
1.000000,114.331000
1.000000,114.371320
1.000000,114.619000
1.000000,114.619000
1.000000,114.619000
1.000000,114.619000
1.000000,114.619000
1.000000,114.619000
1.000000,114.368880
1.000000,114.138000
1.000000,114.138000
1.000000,114.138000
1.000000,114.138000
1.000000,114.138000
1.000000,114.138000
1.000000,114.530920
1.000000,114.556000
1.000000,114.556000
1.000000,114.556000
1.000000,114.556000
1.000000,114.556000
1.000000,114.422880
1.000000,114.140000
1.000000,114.140000
1.000000,114.140000
1.000000,114.140000
1.000000,114.140000
1.000000,114.140000
1.000000,114.245840
1.000000,114.287000
1.000000,114.287000
1.000000,114.287000
1.000000,114.287000
1.000000,114.287000
1.000000,114.280760
1.000000,114.235000
1.000000,114.235000
1.000000,114.235000
1.000000,114.235000
1.000000,114.235000
1.000000,114.235000
1.000000,114.253720
1.000000,114.271000
1.000000,114.271000
1.000000,114.271000
1.000000,114.271000
1.000000,114.271000
1.000000,114.271000
1.000000,114.239500
1.000000,114.236000
1.000000,114.236000
1.000000,114.236000
1.000000,114.236000
1.000000,114.236000
1.000000,114.206600
1.000000,114.138000
1.000000,114.138000
1.000000,114.138000
1.000000,114.000800
1.000000,113.998000
1.000000,113.998000
1.000000,113.998000
1.000000,113.998000
1.000000,113.998000
1.000000,114.015860
1.000000,114.045000
1.000000,114.045000
1.000000,114.045000
1.000000,114.045000
1.000000,114.045000
1.000000,114.045000
1.000000,88.796400
1.000000,81.675000
1.000000,81.675000
1.000000,81.675000
1.000000,81.675000
1.000000,81.675000
1.000000,78.992320
1.000000,69.481000
1.000000,69.481000
1.000000,69.481000
0.300000,69.481000
