1000009574,238779181,238713799,238685642,238667649
1000000000,145357934,144335506,144335386,144335237
1000000000,143157130,142133976,142133904,142133765
1000000000,143952126,142835372,141559005,139262057
1000000000,144121581,141934215,138031164,131005731
1000000000,144120947,142194675,138986462,133211731
1000000000,144179155,142516117,139966293,135376658
1000000000,144135299,141948468,137559371,129659051
1000000000,144133296,141946389,137628251,129855660
1000000000,144187816,142264072,138687371,132249362
1000000000,144145207,141958767,137218459,128685959
1000000000,144138949,141952265,137433727,129300443
1000000000,144191780,142007123,137584774,129624578
1000000000,144140870,141954263,137367614,129111702
1000000000,144137879,141951149,137470557,129405535
1000000000,144192714,142008091,137552661,129532950
1000000000,144135382,141948562,137556395,129650546
1000000000,144139066,141952386,137429698,129288914
1000000000,144199922,142015581,137304712,128825210
1000000000,144142935,141956408,137296580,128908943
1000000000,144132468,141945531,137656673,129936784
1000000000,144198383,142013984,137357614,128976211
1000000000,144136621,141949848,137513791,129528941
1000000000,144135559,141948744,137550326,129633227
1000000000,144195295,142010775,137463904,129279602
1000000000,144127768,141940568,137832732,130438677
1000000000,144139621,141952956,137410613,129234444
1000000000,144199870,142015526,137306487,128830287
1000000000,144135891,141949090,137538902,129600610
1000000000,144135906,141949103,137538415,129599230
1000000000,144186224,142001348,137775909,130170180
1000000000,144145464,141959030,137209637,128660776
1000000000,144143259,141956743,137285438,128877138
1000000000,144196328,142011847,137428309,129177999
1000000000,144134190,141947324,137597392,129767576
1000000000,144145381,141958948,137212490,128668921
1000000000,144192333,142007691,137565802,129570463
1000000000,144132696,141945768,137648830,129914396
1000000000,144135009,141948173,137569255,129687257
1000000000,144195855,142011356,137444567,129224407
1000000000,144144693,141958236,137236098,128736305
1000000000,144144950,141958503,137227264,128711090
1000000000,144187653,142002833,137726735,130029817
1000000000,144139530,141952865,137413737,129243365
1000000000,144168345,141982781,137343799,128993693
1000000000,144166308,141980684,137539719,129546036
178251005,25663820,25272920,24660968,23559463
number,of,instructions:,46178251005
