10000000000,2678933234,719101463,1286100961,6196152211,0,148779927,212138282,6704,774106035,195780200,52117576,942777562
10000000000,2682684875,692771932,1259163704,6201558415,0,152609344,205487872,0,789037441,179842188,53783370,961748114
10000000000,2686513672,695712566,1254838516,6183285732,0,153753711,205955934,0,797599958,180640165,53098427,971920091
10000000000,2684154422,693989293,1257514723,6194500454,0,153048735,205657876,0,792385926,180142322,53511674,965643722
10000000000,2684458724,694117354,1257184206,6193171749,0,153138532,205701949,0,792985195,180207291,53469753,966392432
10000000000,2688627086,697129067,1252504728,6173521803,0,154381490,206222600,0,802159547,181077170,52746919,977340066
10000000000,2684850644,694137376,1256819261,6191746469,0,153250883,205760538,0,793636313,180283628,53436168,967157433
10000000000,2685179940,694562645,1256399351,6189905303,0,153351795,205794137,0,794510408,180355268,53354803,968200139
10000000000,2686836997,696176028,1254419926,6181420228,0,153853676,205986072,0,798495646,180710123,53013057,972971181
10000000000,2684577184,694329007,1257021267,6192425951,0,153175938,205711116,0,793346283,180233409,53433208,966814334
10000000000,2688952685,697188305,1252182976,6172254999,0,154475506,206270704,0,802737391,181142580,52712907,978032752
538963014,144821914,37523390,67596240,333108121,0,8295476,11103783,0,43055822,9742176,2855943,52467542
