979300,15466,1213,113
40138,695,104,10
41809,733,104,10
39773,701,104,10
39710,699,104,10
43446,763,104,10
39954,703,104,10
39839,696,104,10
43265,761,104,10
39774,698,104,10
40333,712,104,10
5648,142,104,10
