10000000000,62133334,44486545,53776395,44431011,93654952,52366048,70163458,48274303,197587755,67490978,87785615,56378233,1008909148,111229464,86401133
10000000000,63156367,45814552,55375227,45761192,95685870,53952634,72306858,49733036,198658776,69573240,90511774,58100199,1003359699,114584721,89089701
10000000000,62363013,45229734,54670533,45182581,94484251,53261749,71380744,49102001,197051667,68683633,89350328,57360766,997648607,113133358,87920874
10000000000,62850896,45584672,55094904,45534971,95218102,53679121,71937633,49485603,198069230,69222102,90048314,57809341,1001173488,114016799,88611338
10000000000,62792462,45547309,55052100,45497714,95141072,53637421,71883225,49445561,197996370,69166788,89980088,57762949,1000738796,113922968,88558341
10000000000,61945728,44931655,54311091,44884964,93869523,52915443,70910985,48779157,196178099,68232134,88760813,56982917,994561460,112383584,87357918
10000000000,62737402,45491161,55025193,45468898,95086232,53617557,71849838,49416596,197874934,69132137,89937125,57730018,1000246966,113846058,88551755
10000000000,62652858,45413809,54936310,45400533,94941341,53526101,71732500,49340320,197748264,69020261,89790247,57639908,999698975,113677089,88381494
10000000000,62278711,45111501,54576881,45111563,94333911,53165607,71256136,49022697,196796698,68566807,89194649,57266770,997101161,112958050,87736406
10000000000,62760236,45480511,55014652,45467784,95077822,53601228,71831192,49412646,197893606,69121276,89915019,57724441,1000526353,113848954,88474414
10000000000,61890246,44873954,54276831,44855389,93809159,52889103,70870247,48748324,196102871,68192313,88709684,56947799,994132052,112306714,87333776
538963014,3355031,2430288,2940436,2430094,5081716,2864296,3838830,2640859,10599404,3693884,4805452,3085011,53724076,6084895,4727675
number,of,instructions:,110538963014
