1000000000 151594861 18797450 273580994 546575061 0 7131026 1483864 6870 382 169772192 417501 1038889
1000000000 152251619 14995526 280651064 545261093 0 5620572 1223854 0 0 166006855 329703 906859
1000000000 152398985 15237620 280201001 545476501 0 5709768 1268594 0 0 166088431 334943 920762
1000000000 152388113 15332565 280025948 545514966 0 5747046 1277182 0 0 166170590 337127 927141
1000000000 152415206 15041936 280548679 545386020 0 5637790 1252902 0 0 165934386 330717 909506
1000000000 152439094 14814556 280962195 545287700 0 5551510 1233692 0 0 165743733 325652 895518
1000000000 152377663 15438274 279836644 545560207 0 5786626 1285636 0 0 166258242 339445 933200
1000000000 152407595 15119786 280407135 545420369 0 5666558 1259333 0 0 166000038 332408 914159
1000000000 152432635 14869561 280862405 545307480 0 5573526 1238585 0 0 165791935 326944 899125
1000000000 152420585 15009349 280612873 545372502 0 5624344 1249566 0 0 165903834 329925 906956
1000000000 152397489 15227367 280213827 545466531 0 5707348 1268349 0 0 166088432 334793 920720
1000000000 168336644 31609455 271851328 565447367 1 4781556 3307182 5 2000262 148544155 296889 3771233
1000000000 265440066 607880 222564341 653549942 0 0 41173663 0 0 82428375 283679 0
1000000000 265440046 607879 222564282 653549875 0 0 41173705 0 0 82428461 283677 0
1000000000 265440092 607875 222564373 653549895 0 0 41173669 0 0 82428388 283675 0
1000000000 265440118 607880 222564478 653550058 0 0 41173579 0 0 82428209 283676 0
1000000000 265440214 607878 222564754 653550320 0 0 41173400 0 0 82427851 283675 0
1000000000 265440037 607878 222564260 653549869 0 0 41173714 0 0 82428478 283679 0
1000000000 265440056 607879 222564299 653549880 0 0 41173698 0 0 82428446 283677 0
1000000000 265440093 607875 222564374 653549897 0 0 41173668 0 0 82428386 283675 0
1000000000 265440136 607880 222564540 653550125 0 0 41173536 0 0 82428123 283676 0
1000000000 265440196 607881 222564677 653550252 0 0 41173447 0 0 82427945 283679 0
1000000000 265440024 607875 222564256 653549863 0 0 41173719 0 0 82428487 283675 0
1000000000 265440068 607879 222564319 653549886 0 0 41173689 0 0 82428429 283677 0
1000000000 265440084 607876 222564359 653549891 0 0 41173675 0 0 82428399 283676 0
1000000000 265440165 607879 222564615 653550199 0 0 41173486 0 0 82428025 283675 0
1000000000 265440165 607881 222564598 653550179 0 0 41173498 0 0 82428046 283679 0
1000000000 265440025 607875 222564256 653549862 0 0 41173719 0 0 82428488 283675 0
1000000000 265440078 607879 222564338 653549891 0 0 41173681 0 0 82428413 283677 0
1000000000 265440074 607876 222564339 653549887 0 0 41173683 0 0 82428415 283676 0
1000000000 265440194 607879 222564697 653550271 0 0 41173435 0 0 82427922 283675 0
1000000000 265440135 607881 222564516 653550105 0 0 41173550 0 0 82428150 283679 0
1000000000 265440024 607875 222564256 653549863 0 0 41173719 0 0 82428487 283675 0
1000000000 265440090 607879 222564357 653549896 0 0 41173673 0 0 82428397 283677 0
1000000000 265440078 607880 222564342 653549909 0 0 41173674 0 0 82428399 283676 0
1000000000 265440209 607875 222564756 653550318 0 0 41173400 0 0 82427851 283675 0
1000000000 252612653 59244634 214398837 654397914 10 20066490 29915609 50 5872283 71984585 917487 2446769
1000000000 228650317 165977963 199036059 656335112 0 56475126 9641770 0 16528746 53029940 2066212 6887035
1000000000 234348209 17292333 230227054 688068417 10 5524175 1006786 50 1746964 72093201 464014 803826
68433854 15816304 11548109 13691714 44688060 0 4009182 694965 44 1163678 3604343 129338 452533
number of instructions: 39068433816
