1000000000,151594853,18797448,273580995,546575062,0,7131026,1483864,6862,382,169772192,417499,1038889
1000000000,152251618,14995526,280651064,545261093,0,5620572,1223856,0,0,166006853,329703,906859
1000000000,152398957,15237600,280201009,545476499,0,5709738,1268592,0,0,166088457,334943,920762
1000000000,152388112,15332561,280025947,545514961,0,5747046,1277182,0,0,166170596,337127,927141
1000000000,152415277,15042036,280548633,545386063,0,5637880,1252902,0,0,165934299,330717,909506
1000000000,152439052,14814500,280962239,545287671,0,5551450,1233692,0,0,165743778,325652,895518
1000000000,152377569,15438187,279836672,545560214,0,5786522,1285648,0,0,166258295,339446,933203
1000000000,152407736,15119929,280407062,545420392,0,5666722,1259321,0,0,165999940,332407,914156
1000000000,152432657,14869561,280862429,545307447,0,5573526,1238585,0,0,165791944,326944,899125
1000000000,152420684,15009445,280612836,545372503,0,5624440,1249566,0,0,165903774,329925,906956
1000000000,152397327,15227195,280213881,545466528,0,5707192,1268349,0,0,166088537,334793,920720
1000000000,169031108,16238801,271500661,566891232,1,4781568,5583803,5,12262,150121785,319426,789235
195072547,46896734,3406306,44479394,132681585,20,1120329,1784148,144,344896,14412432,89346,150242
