151595095,98232,123341372,4951728,3902625,2716099,1744985,4539577,10212203,42797,38597,323,612,332,5,6,12,5565,25,0,0
152251618,72318,127336467,4242612,3034741,2064974,1461628,1304374,12647333,20026,57863,3,36,247,3,0,0,8975,18,0,0
152398957,73467,127294738,4304453,2962250,2097920,1456095,1531667,12590065,22437,56202,257,36,247,2,0,0,9121,0,0,0
152388112,73871,126998482,4335207,3045386,2111446,1482726,1449317,12803546,21737,56797,130,36,249,2,0,0,9180,0,0,0
152415277,72523,127404789,4252152,2978825,2071292,1444059,1239923,12864291,20243,57760,127,36,252,0,0,0,9005,0,0,0
152439052,71453,127813871,4185467,2876501,2039566,1403309,1243469,12718000,19946,58068,252,35,242,1,0,0,8872,0,0,0
152377569,74320,126885945,4365201,3086700,2126147,1497548,1606760,12647007,23535,54680,191,37,253,3,0,0,9242,0,0,0
152407736,72965,127383242,4273071,2975231,2081849,1457259,1352101,12724682,20601,57202,193,36,252,0,0,0,9052,0,0,0
152432657,71633,127755750,4201757,2905310,2047615,1416511,1253158,12693854,20111,57636,129,36,250,1,0,0,8906,0,0,0
152420684,72352,127411878,4244765,3004538,2066569,1442198,1355721,12735514,21558,55998,319,36,252,0,0,0,8986,0,0,0
152397327,73417,127332252,4302520,2973757,2096780,1463878,1520898,12546480,22141,55676,126,36,246,3,0,0,9117,0,0,0
169031112,188978,126781830,15344186,2632426,1821033,1242008,1274363,10691452,230244,170101,436716,1629372,5702176,13601,19571,31909,62957,57656,1437,699096
46912751,33497,39427635,3997652,536649,878314,373643,434928,372880,102786,71348,122875,101646,34548,18326,29067,52784,102261,186915,34848,149
