280645565,142990,251924361,4224301,109376,187682,1863520,575331,2522068,7599885,10487916,918457,19465,43378,23767,1900,794,291,74,9,0
267867732,74873,241122153,1489450,120357,210091,2456864,670482,2757059,8079685,10765803,4984,25186,56532,31536,2571,7,0,9,90,0
268530593,65450,242127535,1304324,106560,183630,2149841,598969,2588569,7894120,11405417,4360,22038,49464,27591,2146,3,0,1,553,22
267868949,73985,241127698,1490072,120676,210093,2455213,659685,2730536,8086275,10793246,4983,25186,56532,31536,2530,0,0,0,609,94
268529769,65866,242125318,1304395,105548,183986,2151573,623374,2726571,8110910,11026246,4363,22038,49463,27595,2248,0,0,0,186,89
268537109,65111,242138683,1304814,105535,183932,2149580,598965,2593607,7904827,11385588,4360,22037,49467,27594,2228,4,0,0,685,92
270359841,72967,242739876,2736872,119952,207477,2446169,642041,2714907,7999378,10552389,4982,25185,56531,31536,2285,0,0,0,239,7055
271785111,0,244965521,1600450,106443,187166,2161038,641146,2717138,8027004,10716903,461920,22038,49468,27615,2189,30,257,38,0,98747
268537439,0,242142526,1304084,105045,183789,2150029,598663,2589171,7883722,11408770,4363,22038,49465,27596,2282,7,0,0,659,65230
267917655,0,241234726,1436804,119246,199482,2420699,642134,2728320,8104432,10838555,4983,25181,56402,31535,2149,3,0,1,1231,71772
268480471,0,242014111,1357694,108007,194241,2186084,641203,2727283,8095972,10981834,4361,22043,49594,27592,2527,0,0,0,604,67321
268535287,0,242138594,1304293,105531,183986,2149844,598691,2593446,7897493,11391825,4362,22038,49463,27595,2248,0,0,0,186,65692
267863391,0,241112573,1490150,120688,210091,2456942,684300,2835083,8167366,10590574,4984,25186,56532,31536,2572,4,0,0,787,74023
274282574,0,246590871,2848088,106202,184555,2150261,598887,2596075,7862530,10677659,461919,22036,49466,27621,1941,20,252,38,137,104016
268532504,0,242132270,1304088,105048,183932,2149580,598965,2589561,7895552,11401866,4360,22038,49468,27588,2189,10,5,0,0,65984
268074670,0,241431418,1435527,118783,198259,2339121,641954,2728947,8109316,10878666,4982,25181,56114,31535,2285,7,0,0,659,71916
268324333,0,241821891,1359225,106956,195620,2267849,641077,2727961,8088000,10941129,4364,22043,49881,27597,2467,3,0,1,1313,66956
268537362,0,242139276,1303830,106559,183633,2149842,598969,2589331,7894512,11399821,4360,22038,49466,27591,2206,0,0,0,522,65406
267863203,0,241116359,1489943,120849,210131,2456941,683500,2832698,8133895,10623283,4983,25186,56531,31536,2564,4,0,0,232,74568
268533642,0,242133450,1304524,105374,183946,2149845,599559,2622938,8055393,11206880,4363,22038,49464,27595,2256,0,0,0,741,65276
274284431,0,246594348,2848447,106220,184557,2150264,598817,2569713,7731497,10833199,461919,22036,49466,27621,1941,20,252,38,137,103939
268226223,0,241606555,1435502,118682,197010,2257119,642130,2725959,8127018,10924144,4983,25182,55823,31529,2191,10,5,0,0,72381
268172771,0,241646013,1358193,106413,197012,2349402,641203,2729899,8073332,10896107,4361,22042,50177,27595,2605,7,0,0,834,67576
268532220,0,242132187,1305145,105692,183789,2150029,598663,2591475,7893491,11400148,4362,22038,49463,27596,2145,3,0,1,1138,64855
267866207,0,241117745,1490131,120686,210092,2456942,682234,2819538,8105280,10667978,4984,25186,56532,31536,2518,0,0,0,552,74273
268535980,0,242138424,1303672,106727,183672,2149841,601103,2633137,8084858,11162802,4360,22038,49465,27591,2252,4,0,0,202,65832
268531287,0,242131431,1304512,105372,183946,2149845,598691,2608249,7968604,11309084,4362,22038,49464,27595,2256,0,0,0,741,65097
274130779,1,246252049,2980501,119911,196256,2175612,642076,2688063,7902664,10486305,462539,25180,55532,31555,1941,20,256,38,137,110143
268015957,4,241453137,1358185,106380,198433,2431593,641107,2730597,8064719,10856029,4364,22043,50467,27596,2496,10,1,0,0,68796
268537023,3,242139916,1304120,105050,183891,2149580,598965,2588011,7888286,11407597,4360,22037,49467,27594,2300,7,0,0,834,65005
267865810,5,241120854,1490527,121007,210091,2456941,679002,2807934,8083298,10700607,4983,25186,56530,31536,2475,3,0,1,1211,73619
268531222,3,242128374,1304791,105378,183790,2150030,604029,2648822,8112820,11121414,4363,22038,49465,27596,2188,0,0,0,479,65642
268533296,4,242132182,1303648,106723,183672,2149841,598969,2602150,7936788,11347766,4360,22038,49465,27591,2252,4,0,0,202,65641
267866117,4,241121072,1489948,120365,210133,2456942,684368,2843674,8226286,10517643,4983,25186,56532,31536,2580,0,0,0,817,74048
274283372,3,246590380,2849452,106410,184563,2150263,598814,2579914,7768755,10787398,461920,22037,49467,27615,1962,20,257,38,61,104043
268535786,0,242139296,1304245,104884,183944,2149844,598691,2589109,7885934,11408223,4362,22038,49464,27595,2151,10,0,0,0,65996
267865171,0,241116846,1489745,120359,210051,2456942,674103,2776887,8078711,10746012,4984,25186,56531,31536,2650,7,0,1,999,73621
268534231,0,242134936,1304962,105708,183931,2149579,609230,2678322,8118683,11077083,4360,22037,49466,27594,2125,3,0,0,1046,65166
268531500,0,242131874,1304749,105371,183790,2150030,598663,2599964,7921695,11363793,4362,22038,49465,27596,2188,0,0,0,479,65443
267863935,0,241113527,1490071,121012,210092,2456941,684368,2841950,8226245,10524059,4984,25186,56531,31536,2594,4,0,0,262,74573
268533651,0,242134330,1303525,106076,183713,2149842,598969,2603241,7943545,11338724,4360,22038,49466,27591,2238,0,0,0,757,65236
274283967,0,246590398,2850650,106383,184569,2150263,598813,2569038,7731702,10834786,461919,22037,49467,27615,1962,20,257,38,61,103989
267868473,0,241127464,1489513,120030,210090,2455706,662555,2737395,8086275,10783979,4983,25186,56532,31536,2455,10,0,0,35,74729
268530274,0,242126372,1304549,105225,183905,2151080,620504,2719712,8111417,11035671,4363,22038,49463,27595,2346,7,0,1,964,65062
268534465,0,242134208,1304902,105698,183931,2149579,598965,2595145,7909124,11381336,4360,22037,49466,27594,2125,3,0,0,1046,64946
267866882,0,241122153,1490388,120689,210090,2456942,684368,2840522,8198576,10547507,4983,25186,56532,31536,2501,0,0,0,528,74381
268533555,0,242134047,1304432,105694,183792,2150029,598663,2609248,7975561,11300382,4363,22038,49464,27596,2281,4,0,0,213,65748
268533496,0,242131743,1303549,106080,183713,2149842,600516,2628503,8080304,11177721,4360,22038,49466,27591,2238,0,0,0,757,65075
273639377,1,245659635,2983282,119063,200667,2435748,640431,2670224,7755291,10485834,462542,25180,56457,31559,1965,20,257,38,61,111122
268510210,0,242051583,1357122,107353,193988,2171456,641203,2726785,8095972,10990809,4361,22043,49542,27592,2452,10,0,0,35,67904
268530398,0,242130306,1304459,105210,183905,2149845,598691,2595242,7905481,11385676,4362,22038,49463,27595,2346,7,0,1,964,64807
267866696,0,241118319,1490388,120688,210089,2456941,684300,2834653,8167938,10587748,4984,25186,56531,31536,2401,3,0,0,1126,73865
268531558,0,242130302,1304920,105702,183932,2149580,599033,2615117,8018208,11253050,4360,22037,49467,27594,2225,0,0,0,448,65583
268536605,0,242141032,1304438,105695,183792,2150029,599182,2620613,8040980,11219306,4362,22038,49464,27596,2281,4,0,0,213,65580
267864278,0,241114676,1489941,120364,210132,2456942,683849,2832232,8143613,10616790,4984,25186,56532,31536,2550,0,0,0,818,74133
274281576,1,246586834,2850882,106082,184567,2150265,598813,2573216,7744680,10818842,461919,22037,49467,27615,1970,20,257,38,0,104071
268534624,4,242135341,1303070,106074,183670,2149841,598969,2590951,7899285,11395835,4360,22038,49466,27591,2135,10,0,0,35,65949
267867495,4,241124239,1490097,120526,210050,2456942,683500,2831078,8136857,10618601,4983,25186,56531,31536,2648,7,0,1,1155,73554
268533531,3,242133305,1304768,105375,183944,2149844,599559,2622938,8047015,11215050,4363,22038,49463,27595,2099,3,0,0,935,65234
197177219,3,177846436,931870,76072,131173,1535568,429903,1905103,5931950,8266591,3114,15741,35334,19709,1600,0,0,0,369,46683
