1000000000,3850116,3656682,3829344,3650274,4920069,4831449,4877096,4809355,5337377,4952638,5008815,4940697,144184599,9968376,5430205
1000000000,4054077,3828086,4037511,3818569,5432922,5358163,5400104,5329827,5905227,5486623,5542252,5473956,152035537,11063923,5876742
1000000000,4060605,3854675,4046059,3846239,5283442,5209739,5254585,5184866,5734030,5338424,5395311,5327250,151161981,10771899,5695852
1000000000,4053673,3827436,4037006,3817795,5432036,5357463,5399626,5329037,5904753,5485949,5541888,5473283,152036566,11062569,5876371
1000000000,4061761,3856336,4047613,3847995,5285024,5211246,5256058,5186520,5736802,5339857,5396630,5328661,151155409,10774530,5697464
1000000000,4058830,3853202,4044479,3844772,5281483,5207999,5252818,5183167,5731574,5336491,5393297,5325317,151160717,10767801,5693847
1000000000,3998690,3774351,3982042,3764006,5374802,5302776,5342528,5273537,5842400,5429071,5483297,5415619,150556436,10937194,5885812
1000000000,4002560,3796383,3987448,3787617,5223908,5149626,5193962,5124459,5671295,5276734,5332673,5264955,149590002,10644438,5642644
1000000000,4058234,3853006,4044271,3844575,5281145,5207828,5252659,5182994,5730435,5336347,5393062,5325169,151161459,10767533,5693723
1000000000,4054072,3830784,4038004,3821507,5416072,5342377,5384374,5314576,5886810,5470826,5526391,5458276,151960230,11032506,5860814
1000000000,4061715,3853131,4046786,3844434,5301220,5226440,5271454,5201130,5755615,5355126,5412191,5343816,151231334,10804899,5712851
1000000000,4059008,3853570,4044849,3845139,5281873,5208434,5253232,5183614,5731829,5337026,5393753,5325845,151161332,10768935,5694616
1000000000,4055871,3829812,4039347,3820275,5434425,5359900,5402042,5331631,5908927,5488542,5544319,5475867,152032782,11067812,5878917
1000000000,3944936,3740422,3929501,3730916,5163559,5091907,5133763,5065847,5605201,5216667,5270813,5204179,148112670,10512831,5648921
1000000000,4059942,3854345,4045878,3845913,5282973,5209319,5254370,5184498,5732238,5338090,5395128,5326843,151162525,10771039,5695883
1000000000,4054672,3837057,4039227,3827811,5373978,5299946,5342786,5272862,5839011,5428616,5484270,5416064,151738169,10948271,5818958
1000000000,4060421,3846683,4045358,3837956,5342604,5268665,5312796,5242670,5802284,5397161,5454071,5385860,151453833,10888790,5754375
1000000000,4058776,3853161,4044414,3844729,5281502,5207883,5252664,5183068,5731355,5336342,5393083,5325168,151160701,10767437,5693795
1000000000,4055773,3829710,4039303,3820172,5434411,5359812,5402005,5331550,5908828,5488470,5544333,5475796,152033022,11067668,5879006
1000000000,4059869,3854475,4045714,3846041,5282727,5209342,5254106,5184526,5733308,5337949,5394594,5326771,151159760,10770773,5695552
1000000000,3944100,3739628,3928674,3730090,5162731,5091120,5132986,5065061,5603915,5215935,5270068,5203402,148113874,10511181,5648422
1000000000,4057690,3844804,4042181,3835592,5334214,5259076,5303078,5232700,5794348,5388174,5444298,5375581,151515909,10867698,5779196
1000000000,4057375,3839152,4042773,3830392,5382528,5309759,5352869,5283047,5845807,5437855,5494496,5426557,151676981,10969791,5794834
1000000000,4060058,3854303,4045671,3845870,5282851,5209250,5254145,5184435,5733500,5337937,5394794,5326760,151161650,10770849,5695294
1000000000,4054957,3828941,4038504,3819403,5433544,5358923,5401088,5330661,5907512,5487461,5543330,5474787,152032956,11065534,5877873
1000000000,4059471,3853880,4045132,3845457,5282244,5208656,5253420,5183836,5733059,5337155,5393845,5325976,151158239,10769069,5694647
1000000000,4060306,3854840,4046147,3846422,5283190,5209825,5254643,5185011,5733695,5338536,5395235,5327359,151161247,10772063,5696245
1000000000,3944339,3737412,3927401,3727084,5173720,5099493,5141263,5072541,5620531,5225069,5278425,5211071,148244873,10526121,5691736
1000000000,4056196,3832686,4041602,3823885,5424293,5352254,5394704,5324827,5892337,5480152,5537075,5468843,151901150,11054170,5837241
1000000000,4058367,3853189,4044409,3844761,5281251,5207981,5252720,5183166,5730596,5336500,5393134,5325326,151161503,10767839,5693870
1000000000,4055074,3828833,4038415,3819298,5433543,5358839,5401021,5330580,5907803,5487402,5543291,5474726,152033532,11065456,5877520
1000000000,4060868,3855362,4046701,3846929,5283833,5210269,5255127,5185444,5734987,5338905,5395722,5327715,151158377,10772677,5696523
1000000000,4059802,3854126,4045455,3845707,5282635,5209048,5253889,5184232,5733161,5337693,5394460,5326514,151160715,10770315,5695335
1000000000,4055200,3829359,4038941,3819840,5433706,5359331,5401495,5331072,5907794,5487844,5543632,5475168,152032118,11066275,5878241
1000000000,3944416,3739910,3928927,3730314,5163197,5091405,5133220,5065327,5604496,5216286,5270278,5203643,148112625,10511913,5650025
1000000000,4059051,3853653,4045102,3845219,5281839,5208464,5253439,5183648,5731025,5337017,5394074,5325833,151161943,10768864,5694715
1000000000,4054571,3828724,4038345,3819202,5433255,5358844,5401053,5330588,5906590,5487509,5543387,5474838,152035289,11065794,5877900
1000000000,4060350,3854741,4045979,3846314,5283241,5209529,5254274,5184701,5734712,5338032,5394710,5326843,151156502,10770805,5695367
1000000000,4060052,3854473,4045871,3846051,5283005,5209497,5254427,5184679,5733535,5338263,5395152,5327080,151161454,10771565,5696018
1000000000,4055925,3829877,4039348,3820353,5434593,5359866,5401903,5331602,5909061,5488377,5544004,5475698,152031872,11067330,5878604
1000000000,4059729,3854243,4045700,3845829,5282450,5209165,5254133,5184354,5732577,5337812,5394740,5326636,151161228,10770564,5695462
1000000000,3944224,3739745,3928736,3730123,5162948,5091208,5133001,5065130,5604006,5216063,5270043,5203418,148112613,10511317,5650840
1000000000,4053601,3827778,4037540,3818141,5432010,5357802,5400156,5329417,5904304,5486371,5542556,5473701,152036972,11063440,5876987
1000000000,4061547,3856177,4047457,3847854,5284673,5211052,5255838,5186345,5736264,5339645,5396359,5328448,151155668,10774078,5697058
1000000000,4059304,3853584,4044913,3845167,5282236,5208538,5253370,5183716,5732705,5337199,5393968,5326020,151160905,10769361,5694706
1000000000,4055174,3829209,4038644,3819685,5433502,5359091,5401108,5330823,5907942,5487505,5543150,5474825,152031590,11065490,5877633
1000000000,4059664,3854114,4045436,3845692,5282795,5209028,5253859,5184207,5733084,5337660,5394419,5326478,151160323,10770231,5695128
1000000000,4060101,3854647,4046080,3846229,5282724,5209532,5254473,5184714,5733380,5338136,5395040,5326956,151159524,10771148,5695742
1000000000,3938014,3715111,3920891,3704587,5303653,5232042,5270783,5202798,5765173,5356707,5409509,5342698,148954099,10788632,5824399
1000000000,4061291,3853953,4046858,3845278,5293057,5218540,5263880,5193376,5745858,5347233,5404588,5335922,151191889,10789109,5705119
1000000000,4060290,3854796,4046172,3846376,5283330,5209832,5254715,5185013,5733442,5338588,5395398,5327406,151162063,10772216,5696178
1000000000,4055069,3829021,4038548,3819501,5433626,5358975,5401083,5330711,5907914,5487462,5543244,5474785,152031845,11065488,5877671
1000000000,4060430,3854769,4046042,3846345,5283283,5209728,5254506,5184900,5734298,5338395,5395063,5327210,151160161,10771729,5695896
1000000000,4059023,3853547,4044800,3845124,5281957,5208326,5253087,5183503,5732324,5336821,5393511,5325638,151159000,10768411,5694152
1000000000,4055685,3829684,4039419,3820163,5434207,5359742,5402055,5331477,5908179,5488332,5544436,5475655,152033090,11067332,5878807
1000000000,3944695,3740286,3929262,3730642,5163556,5091897,5133642,5065730,5604683,5216807,5270679,5204164,148112842,10513012,5651874
1000000000,4059213,3853838,4045393,3845420,5282027,5208745,5253812,5183929,5731541,5337375,5394525,5326195,151161999,10769665,5695158
1000000000,4054581,3828676,4038176,3819156,5433140,5358624,5400706,5330364,5907134,5487110,5542829,5474436,152032133,11064795,5877323
1000000000,4059966,3854420,4045743,3845997,5282915,5209301,5254137,5184482,5733483,5337911,5394704,5326723,151159522,10770679,5695502
733935808,2980785,2832632,2970485,2826599,3856861,3802943,3836161,3785196,4184947,3897336,3939032,3889333,110820392,7864878,4155145
