1000000000 1990382 422748 630918 423016 5728131 613122 736159 423442 8968181 844974 945925 526417 267426206 1675271 1158686
1000000000 1626069 446683 496509 332302 4785542 611140 579254 332275 7417775 778862 744943 578657 275711198 1371014 1137862
1000000000 1605353 505264 505339 338228 5045930 672235 589643 338485 7882552 970863 994136 610420 275183039 1642561 1259065
1000000000 1696543 508474 507605 339753 5335088 706589 682960 340035 8249521 847258 1096781 759021 274974953 1685301 1267220
1000000000 1773682 498918 497968 333527 5335931 697858 875322 429141 8092659 831155 1075924 744582 275593620 1653247 1243134
1000000000 1970695 555827 683675 328617 5285339 653359 895651 489745 7968624 818394 1059459 733190 276083243 1627871 1224106
1000000000 2123971 512037 848298 510582 5509712 681028 933745 510500 8305958 852939 1104370 764253 274751129 1696593 1275970
1000000000 2078401 501277 830520 499823 5395229 666894 914195 499864 8134031 835408 1081428 748392 275426725 1661700 1249494
1000000000 2044272 493048 816874 491630 5306358 655934 899174 491666 8000360 821669 1063656 736095 275963950 1634391 1228951
1000000000 2063909 497596 824548 496129 5354651 661967 907602 496159 8072933 829011 1073402 742829 275669875 1648941 1240217
1000000000 2094071 504893 836480 503431 5434175 671657 920755 503490 8192380 841378 1089198 753762 275197930 1673630 1258447
1000000000 1831379 542230 773311 515453 4647712 681819 843894 514812 7866685 826239 1158950 723975 267242805 1555068 2374347
195072547 190493 184101 152710 138213 430082 203570 154134 143356 1430435 268161 249835 187902 43444089 415731 2081093
number of instructions: 12195072429
