/home/users/amarkou/tools/average/average Power_data_0192.txt 500 2 &> power-avg-0192.txt
-----------------------------------------------------------------------------------------

For 2 steps
average power (/kernel execution):	 110.002659 (Watts)
