==================================
For input file:100

----------------------------------

----------------------------------

I/O completed
num of threads = 1
0.000173000000
number of Clusters 5
number of Attributes 34

Time for process: 0.000192
- - - - - - - - - - - - - - - - - - -

I/O completed
num of threads = 2
0.000266000000
number of Clusters 5
number of Attributes 34

Time for process: 0.000284
- - - - - - - - - - - - - - - - - - - - -

I/O completed
num of threads = 4
0.000328000000
number of Clusters 5
number of Attributes 34

Time for process: 0.000347
- - - - - - - - - - - - - - - - - - - - -

I/O completed
num of threads = 8
0.000446000000
number of Clusters 5
number of Attributes 34

Time for process: 0.000464
- - - - - - - - - - - - - - - - - - - - -

I/O completed
num of threads = 14
0.000510000000
number of Clusters 5
number of Attributes 34

Time for process: 0.000532
- - - - - - - - - - - - - - - - - - - - -

I/O completed
num of threads = 28
0.000725000000
number of Clusters 5
number of Attributes 34

Time for process: 0.000751
- - - - - - - - - - - - - - - - - - - - -

I/O completed
num of threads = 42
0.009089000000
number of Clusters 5
number of Attributes 34

Time for process: 0.009121
- - - - - - - - - - - - - - - - - - - - -

I/O completed
num of threads = 56
0.060974000000
number of Clusters 5
number of Attributes 34

Time for process: 0.061024
- - - - - - - - - - - - - - - - - - - - -

==================================
For input file:204800.txt

----------------------------------

----------------------------------

I/O completed
num of threads = 1
0.770114000000
number of Clusters 5
number of Attributes 34

Time for process: 0.770636
- - - - - - - - - - - - - - - - - - -

I/O completed
num of threads = 2
0.876199000000
number of Clusters 5
number of Attributes 34

Time for process: 0.876724
- - - - - - - - - - - - - - - - - - - - -

I/O completed
num of threads = 4
0.826174000000
number of Clusters 5
number of Attributes 34

Time for process: 0.826706
- - - - - - - - - - - - - - - - - - - - -

I/O completed
num of threads = 8
0.732937000000
number of Clusters 5
number of Attributes 34

Time for process: 0.733476
- - - - - - - - - - - - - - - - - - - - -

I/O completed
num of threads = 14
0.798535000000
number of Clusters 5
number of Attributes 34

Time for process: 0.799092
- - - - - - - - - - - - - - - - - - - - -

I/O completed
num of threads = 28
0.845839000000
number of Clusters 5
number of Attributes 34

Time for process: 0.846409
- - - - - - - - - - - - - - - - - - - - -

I/O completed
num of threads = 42
0.626911000000
number of Clusters 5
number of Attributes 34

Time for process: 0.627494
- - - - - - - - - - - - - - - - - - - - -

I/O completed
num of threads = 56
0.533831000000
number of Clusters 5
number of Attributes 34

Time for process: 0.534428
- - - - - - - - - - - - - - - - - - - - -

==================================
For input file:819200.txt

----------------------------------

----------------------------------

I/O completed
num of threads = 1
3.437017000000
number of Clusters 5
number of Attributes 34

Time for process: 3.438855
- - - - - - - - - - - - - - - - - - -

I/O completed
num of threads = 2
4.293170000000
number of Clusters 5
number of Attributes 34

Time for process: 4.295030
- - - - - - - - - - - - - - - - - - - - -

I/O completed
num of threads = 4
3.544962000000
number of Clusters 5
number of Attributes 34

Time for process: 3.546870
- - - - - - - - - - - - - - - - - - - - -

I/O completed
num of threads = 8
3.428827000000
number of Clusters 5
number of Attributes 34

Time for process: 3.430810
- - - - - - - - - - - - - - - - - - - - -

I/O completed
num of threads = 14
4.190952000000
number of Clusters 5
number of Attributes 34

Time for process: 4.192843
- - - - - - - - - - - - - - - - - - - - -

I/O completed
num of threads = 28
4.045332000000
number of Clusters 5
number of Attributes 34

Time for process: 4.047344
- - - - - - - - - - - - - - - - - - - - -

I/O completed
num of threads = 42
2.898175000000
number of Clusters 5
number of Attributes 34

Time for process: 2.900347
- - - - - - - - - - - - - - - - - - - - -

I/O completed
num of threads = 56
2.342128000000
number of Clusters 5
number of Attributes 34

Time for process: 2.344127
- - - - - - - - - - - - - - - - - - - - -

==================================
For input file:kdd_cup

----------------------------------

----------------------------------

I/O completed
num of threads = 1
3.366323000000
number of Clusters 5
number of Attributes 34

Time for process: 3.367474
- - - - - - - - - - - - - - - - - - -

I/O completed
num of threads = 2
3.683836000000
number of Clusters 5
number of Attributes 34

Time for process: 3.684979
- - - - - - - - - - - - - - - - - - - - -

I/O completed
num of threads = 4
3.960291000000
number of Clusters 5
number of Attributes 34

Time for process: 3.961463
- - - - - - - - - - - - - - - - - - - - -

I/O completed
num of threads = 8
3.203174000000
number of Clusters 5
number of Attributes 34

Time for process: 3.204427
- - - - - - - - - - - - - - - - - - - - -

I/O completed
num of threads = 14
4.609419000000
number of Clusters 5
number of Attributes 34

Time for process: 4.610607
- - - - - - - - - - - - - - - - - - - - -

I/O completed
num of threads = 28
4.599525000000
number of Clusters 5
number of Attributes 34

Time for process: 4.600724
- - - - - - - - - - - - - - - - - - - - -

I/O completed
num of threads = 42
3.301393000000
number of Clusters 5
number of Attributes 34

Time for process: 3.302651
- - - - - - - - - - - - - - - - - - - - -

I/O completed
num of threads = 56
2.717420000000
number of Clusters 5
number of Attributes 34

Time for process: 2.718686
- - - - - - - - - - - - - - - - - - - - -

