rm *.o srad
makefile:24: recipe for target 'clean' failed
gcc	main.c \
		-c -O3 -fopenmp
gcc	main.o \
		-lm -fopenmp -o srad
Time spent in different stages of the application:
0.021248999983 s, 0.002141565317 % : SETUP VARIABLES
0.444151997566 s, 0.044763546437 % : READ COMMAND LINE PARAMETERS
73.821563720703 s, 7.440053462982 % : READ IMAGE FROM FILE
0.920180976391 s, 0.092739790678 % : RESIZE IMAGE
0.120081000030 s, 0.012102278881 % : SETUP, MEMORY ALLOCATION
10.152239799500 s, 1.023186326027 % : EXTRACT IMAGE
830.515747070312 s, 83.702941894531 % : COMPUTE
14.582350730896 s, 1.469671964645 % : COMPRESS IMAGE
61.586826324463 s, 6.206984996796 % : SAVE IMAGE INTO FILE
0.053727000952 s, 0.005414837506 % : FREE MEMORY
Total time:
992.218139648438 s
