121482,1999,1124,110
111682,1752,9,3
111681,1752,9,3
111681,1752,9,3
111682,1752,9,3
111681,1751,9,3
111682,1752,9,3
111681,1752,9,3
111681,1752,9,3
111682,1752,9,3
111681,1752,9,3
111681,1752,9,3
111682,1751,9,3
111681,1752,9,3
111682,1752,9,3
111681,1752,9,3
111681,1752,9,3
111682,1752,9,3
111681,1752,9,3
111681,1751,9,3
111682,1752,9,3
111681,1752,9,3
111682,1752,9,3
111681,1752,9,3
111681,1752,9,3
111682,1751,9,3
111681,1752,9,3
111681,1752,9,3
111682,1752,9,3
111681,1752,9,3
111682,1752,9,3
111681,1752,9,3
111681,1751,9,3
111682,1752,9,3
111681,1752,9,3
111681,1752,9,3
111682,1752,9,3
111681,1752,9,3
111682,1752,9,3
111681,1751,9,3
111681,1752,9,3
111682,1752,9,3
111681,1752,9,3
111681,1752,9,3
111682,1752,9,3
111681,1751,9,3
111682,1752,9,3
111681,1752,9,3
111681,1752,9,3
111682,1752,9,3
111681,1752,9,3
111681,1752,9,3
111682,1751,9,3
111681,1752,9,3
111681,1752,9,3
111681,1752,9,3
111681,1752,9,3
111682,1752,9,3
111681,1752,9,3
111681,1751,9,3
111682,1752,9,3
111681,1752,9,3
111681,1752,9,3
111681,1752,9,3
111681,1752,9,3
111682,1751,9,3
111681,1752,9,3
111681,1752,9,3
111682,1752,9,3
111681,1752,9,3
111681,1752,9,3
111681,1752,9,3
111681,1751,9,3
111682,1752,9,3
111681,1752,9,3
111681,1752,9,3
111682,1752,9,3
111681,1752,9,3
111681,1751,9,3
111681,1751,9,3
111681,1752,9,3
111682,1752,9,3
111681,1752,9,3
111681,1752,9,3
111682,1752,9,3
111681,1751,9,3
111681,1752,9,3
111681,1752,9,3
111681,1752,9,3
111682,1752,9,3
111681,1752,9,3
111681,1752,9,3
111682,1751,9,3
111681,1752,9,3
111681,1752,9,3
111681,1752,9,3
111681,1752,9,3
111682,1752,9,3
111681,1751,9,3
111681,1752,9,3
111682,1752,9,3
111681,1752,9,3
111681,1752,9,3
111682,1752,9,3
111681,1752,9,3
111682,1751,9,3
111681,1752,9,3
111681,1752,9,3
111682,1752,9,3
111681,1752,9,3
111681,1752,9,3
111682,1752,9,3
111681,1751,9,3
111682,1752,9,3
111681,1752,9,3
111681,1752,9,3
111682,1752,9,3
111681,1752,9,3
111681,1751,9,3
111682,1752,9,3
111681,1752,9,3
111682,1752,9,3
111681,1752,9,3
111681,1752,9,3
111682,1752,9,3
111681,1751,9,3
111681,1752,9,3
111682,1752,9,3
111681,1752,9,3
111682,1752,9,3
111681,1752,9,3
111681,1752,9,3
111682,1751,9,3
111681,1752,9,3
111681,1752,9,3
111682,1752,9,3
111681,1752,9,3
111682,1752,9,3
111681,1751,9,3
111681,1752,9,3
111682,1752,9,3
111681,1752,9,3
111681,1752,9,3
111682,1752,9,3
111681,1752,9,3
111682,1751,9,3
111681,1752,9,3
111681,1752,9,3
111682,1752,9,3
111681,1752,9,3
101474,1618,142,17
97728,1544,93,9
97732,1542,93,9
97836,1544,93,9
97836,1546,93,9
97798,1542,93,9
97850,1546,92,9
97756,1542,92,9
97834,1546,93,9
97794,1542,93,9
97824,1546,92,9
97798,1542,93,9
97769,1544,93,9
97822,1544,93,9
97770,1544,93,9
97838,1544,93,9
97784,1544,93,9
97741,1544,93,9
97718,1542,93,9
97838,1544,93,9
97862,1544,92,9
97796,1544,93,9
97742,1544,92,9
97836,1544,92,9
97784,1544,93,9
97810,1544,93,9
97740,1542,93,9
97824,1546,93,9
97690,1542,93,9
97796,1544,92,9
97680,1542,93,9
97825,1544,93,9
97822,1544,93,9
97754,1542,93,9
97790,1544,93,9
97808,1544,93,9
97833,1544,93,9
97849,1546,92,9
97783,1544,93,9
97820,1544,93,9
97850,1544,93,9
97768,1544,93,9
97730,1542,93,9
97774,1544,93,9
97862,1544,93,9
97836,1544,93,9
97731,1544,93,9
97716,1542,92,9
97786,1544,93,9
97809,1544,93,9
97823,1544,92,9
97794,1544,93,9
97827,1544,93,9
97806,1544,93,9
97783,1544,93,9
97730,1542,93,9
97758,1544,93,9
97784,1544,93,9
97809,1544,93,9
97822,1544,93,9
97680,1542,93,9
97744,1542,93,9
97796,1544,93,9
97822,1544,93,9
97836,1546,92,9
97834,1544,93,9
97836,1544,92,9
97732,1542,93,9
97768,1544,92,9
97822,1544,93,9
97836,1544,93,9
97744,1544,93,9
97808,1544,93,9
97822,1544,93,9
97823,1544,92,9
97796,1544,93,9
97772,1544,93,9
97728,1542,93,9
97736,1544,93,9
97766,1542,93,9
97863,1546,92,9
97782,1544,93,9
97768,1542,93,9
97758,1544,93,9
97810,1544,93,9
97822,1544,93,9
97809,1544,93,9
97796,1544,93,9
97824,1544,93,9
97770,1544,92,9
97716,1542,93,9
97851,1544,93,9
97822,1544,92,9
97716,1544,92,9
97796,1544,93,9
97809,1544,92,9
97862,1544,93,9
97862,1544,92,9
97824,1546,93,9
97784,1542,93,9
97838,1546,93,9
97796,1544,93,9
97781,1542,93,9
97849,1546,93,9
97808,1544,92,9
97837,1544,93,9
97824,1544,93,9
97782,1544,93,9
97754,1542,93,9
97744,1544,93,9
97758,1544,93,9
97694,1542,93,9
97836,1544,93,9
97796,1544,93,9
97784,1544,93,9
97822,1544,93,9
97796,1544,93,9
97822,1544,93,9
97836,1544,93,9
97784,1544,92,9
97784,1544,93,9
97758,1542,93,9
97732,1544,93,9
97782,1542,93,9
97772,1544,93,9
97770,1544,93,9
97770,1542,93,9
97820,1546,92,9
97769,1542,93,9
97834,1544,93,9
97770,1544,93,9
97702,1542,93,9
97826,1544,92,9
97744,1544,93,9
97850,1544,92,9
97808,1544,93,9
97786,1544,93,9
97718,1542,93,9
97796,1544,93,9
97822,1544,92,9
97758,1544,92,9
97809,1544,93,9
97824,1544,93,9
97838,1544,93,9
97808,1544,93,9
97782,1544,92,9
97718,1544,93,9
97796,1542,92,9
97732,1544,93,9
97796,1544,93,9
97768,1542,93,9
97810,1544,93,9
97758,1544,93,9
97782,1544,93,9
97810,1544,93,9
97824,1544,93,9
97782,1544,93,9
97808,1544,92,9
97796,1544,92,9
97795,1544,93,9
97746,1542,93,9
97836,1544,92,9
97849,1546,92,9
97796,1544,93,9
97759,1542,93,9
97744,1544,93,9
97782,1542,92,9
97798,1544,93,9
97758,1544,93,9
97755,1544,93,9
97836,1544,92,9
97742,1542,93,9
97836,1546,92,9
97796,1542,93,9
97768,1544,93,9
97718,1542,93,9
97756,1544,93,9
97745,1544,93,9
97732,1542,93,9
97784,1544,93,9
97772,1542,93,9
97744,1544,93,9
97756,1544,93,9
97850,1544,92,9
97822,1544,93,9
97746,1544,93,9
97744,1542,93,9
97838,1544,93,9
97756,1544,93,9
97821,1544,93,9
97864,1544,93,9
97730,1544,93,9
97826,1544,93,9
97798,1544,93,9
97808,1544,93,9
97848,1544,93,9
97876,1546,93,9
97796,1544,93,9
97794,1542,93,9
97822,1546,93,9
97730,1542,93,9
97848,1544,93,9
97836,1546,93,9
97837,1544,93,9
97784,1544,93,9
97862,1544,93,9
97742,1542,93,9
97784,1544,93,9
97770,1544,93,9
97742,1542,93,9
97758,1544,93,9
97810,1544,93,9
97824,1544,93,9
97772,1544,93,9
97822,1544,93,9
97812,1544,93,9
97835,1544,93,9
97834,1546,92,9
97836,1544,93,9
97810,1544,92,9
97758,1542,93,9
97836,1546,93,9
97810,1544,93,9
97824,1544,93,9
97770,1542,93,9
97848,1546,92,9
97718,1542,93,9
97808,1544,92,9
97808,1544,93,9
97796,1544,93,9
97798,1544,93,9
97810,1544,93,9
97702,1542,93,9
97771,1544,92,9
97808,1544,93,9
97759,1542,93,9
97824,1546,93,9
97783,1542,92,9
97796,1544,93,9
97810,1544,92,9
97792,1544,92,9
97796,1544,92,9
97888,1546,92,9
97836,1544,92,9
97808,1544,93,9
97798,1544,93,9
97780,1544,93,9
97825,1544,93,9
97728,1542,93,9
97824,1544,92,9
97794,1544,93,9
97810,1544,92,9
97820,1544,93,9
97848,1546,93,9
97785,1542,93,9
97756,1544,93,9
97796,1544,92,9
97732,1542,93,9
97824,1544,93,9
97810,1544,93,9
97796,1544,93,9
97810,1544,92,9
97808,1544,93,9
97758,1544,93,9
97810,1544,93,9
97756,1544,93,9
97811,1544,93,9
97730,1542,93,9
97810,1544,93,9
97838,1544,92,9
97768,1544,92,9
97814,1544,92,9
97755,1544,93,9
97719,1542,93,9
97808,1544,93,9
97742,1542,93,9
97796,1544,92,9
97836,1544,92,9
97810,1544,92,9
97808,1544,93,9
97888,1546,93,9
97756,1544,93,9
97756,1542,93,9
97756,1544,93,9
97822,1544,93,9
97756,1544,92,9
97690,1542,93,9
97781,1542,93,9
97782,1544,93,9
97678,1542,93,9
97794,1544,92,9
97796,1544,93,9
97758,1544,93,9
97769,1542,93,9
97792,1544,93,9
97809,1544,92,9
97783,1544,93,9
97796,1544,93,9
97798,1544,93,9
97860,1544,92,9
97824,1544,92,9
97824,1546,93,9
97822,1544,92,9
97822,1544,93,9
97834,1544,93,9
97782,1544,93,9
97770,1542,93,9
97704,1544,92,9
97782,1542,93,9
97782,1544,93,9
97808,1544,92,9
97769,1544,93,9
97808,1544,93,9
97810,1544,93,9
97704,1542,93,9
97794,1544,93,9
97810,1544,93,9
97771,1544,93,9
97760,1542,93,9
97744,1544,93,9
97796,1544,93,9
97742,1542,93,9
97800,1544,92,9
97760,1544,93,9
97808,1544,92,9
97796,1544,93,9
97773,1544,93,9
97732,1542,93,9
97794,1544,93,9
97812,1544,92,9
97836,1544,93,9
97772,1544,93,9
97785,1544,93,9
97784,1542,93,9
97794,1544,92,9
97716,1544,93,9
97836,1544,93,9
97808,1544,93,9
97822,1544,93,9
97812,1544,92,9
97794,1544,93,9
97784,1544,93,9
97822,1544,93,9
97808,1544,93,9
383492,6106,239,34
525858,8230,10,1
525862,8230,10,1
525858,8224,10,1
525858,8230,10,1
525857,8230,10,1
525858,8224,10,1
525864,8225,10,1
525858,8230,10,1
525864,8230,10,1
525863,8224,10,1
525864,8230,10,1
525857,8232,10,1
525863,8224,10,1
525864,8230,10,1
525863,8230,10,1
525864,8230,10,1
525864,8224,10,1
525863,8230,10,1
525852,8230,10,1
525863,8224,10,1
525863,8230,10,1
525858,8230,10,1
525862,8224,10,1
525864,8232,10,1
525857,8230,10,1
525857,8224,10,1
525870,8230,10,1
525857,8230,10,1
525864,8230,10,1
525857,8224,10,1
525869,8230,10,1
525858,8230,10,1
525857,8224,10,1
525864,8230,10,1
525858,8230,10,1
525863,8226,10,1
525864,8230,10,1
525857,8230,10,1
525856,8230,10,1
525858,8224,10,1
525857,8230,10,1
525864,8230,10,1
525857,8224,10,1
525863,8230,10,1
525858,8230,10,1
525857,8224,10,1
525864,8230,10,1
525864,8232,10,1
525863,8224,10,1
525864,8230,10,1
525851,8230,10,1
525862,8230,10,1
525864,8224,10,1
525857,8230,10,1
525859,8230,10,1
525863,8224,10,1
525857,8230,10,1
525864,8230,10,1
525857,8224,10,1
525864,8232,10,1
525858,8230,10,1
525857,8230,10,1
525869,8224,10,1
525851,8230,10,1
525857,8230,10,1
525858,8224,10,1
525869,8230,10,1
525858,8230,10,1
525863,8224,10,1
525863,8230,10,1
525858,8230,10,1
525863,8226,10,1
525864,8230,10,1
525858,8230,10,1
525857,8230,10,1
525858,8224,10,1
525863,8230,10,1
525851,8230,10,1
525858,8224,10,1
525863,8230,10,1
525864,8230,10,1
525863,8224,10,1
525863,8230,10,1
525858,8232,10,1
525868,8230,10,1
525858,8224,10,1
525869,8230,10,1
525863,8230,10,1
525858,8224,10,1
525863,8230,10,1
525851,8230,10,1
525864,8224,10,1
525857,8230,10,1
525864,8230,10,1
525863,8230,10,1
525863,8226,10,1
525858,8230,10,1
525857,8230,10,1
525864,8224,10,1
525864,8230,10,1
525857,8230,10,1
525865,8224,10,1
525857,8230,10,1
525863,8230,10,1
525864,8230,10,1
525863,8224,10,1
525858,8230,10,1
525851,8232,10,1
525858,8224,10,1
525858,8230,10,1
525863,8230,10,1
525858,8224,10,1
525863,8230,10,1
525857,8230,10,1
525864,8224,10,1
525857,8230,10,1
525864,8230,10,1
525858,8230,10,1
525863,8224,10,1
525858,8232,10,1
525863,8230,10,1
525863,8224,10,1
525858,8230,10,1
525857,8230,10,1
525864,8224,10,1
525864,8230,10,1
525857,8230,10,1
525864,8230,10,1
525851,8224,10,1
525864,8230,10,1
525864,8230,10,1
525863,8226,10,1
525858,8230,10,1
525863,8230,10,1
525863,8224,10,1
525864,8230,10,1
525863,8230,10,1
525864,8230,10,1
525864,8224,10,1
525857,8230,10,1
525864,8230,10,1
525851,8224,10,1
525864,8230,10,1
525858,8232,10,1
525857,8224,10,1
525864,8230,10,1
525863,8230,10,1
525863,8224,10,1
525864,8230,10,1
525863,8230,10,1
525864,8230,10,1
525864,8224,10,1
525863,8230,10,1
525864,8230,10,1
525863,8224,10,1
525864,8231,10,1
525858,8231,10,1
525868,8229,10,1
525858,8224,10,1
525869,8230,10,1
525863,8230,10,1
525864,8224,10,1
525858,8230,10,1
525858,8230,10,1
525857,8224,10,1
525851,8230,10,1
525864,8230,10,1
525863,8224,10,1
525858,8232,10,1
525864,8230,10,1
525862,8230,10,1
525858,8224,10,1
525857,8230,10,1
525863,8230,10,1
525858,8224,10,1
525857,8230,10,1
525864,8230,10,1
525869,8224,10,1
525857,8230,10,1
525858,8230,10,1
525857,8232,10,1
525864,8224,10,1
525858,8230,10,1
525863,8230,10,1
525864,8224,10,1
525857,8230,10,1
525856,8230,10,1
525858,8224,10,1
525863,8230,10,1
525864,8230,10,1
525863,8224,10,1
525857,8230,10,1
1055181,16542,142,20
1251999,19572,5,1
1251998,19572,5,1
1251999,19572,5,1
1251999,19572,5,1
1251999,19573,5,1
1251998,19572,5,1
1251999,19572,5,1
1251999,19572,5,1
1251998,19572,5,1
1251999,19573,5,1
1251999,19572,5,1
1251999,19572,5,1
1251998,19572,5,1
1251999,19572,5,1
1251999,19573,5,1
1251998,19572,5,1
1251999,19572,5,1
1251999,19572,5,1
1251999,19572,5,1
1251998,19573,5,1
1251999,19572,5,1
1251999,19572,5,1
1251998,19572,5,1
1251999,19572,5,1
1251999,19573,5,1
1251999,19572,5,1
1251998,19572,5,1
1251999,19572,5,1
1251999,19572,5,1
1251998,19573,5,1
1251999,19572,5,1
1251999,19572,5,1
1251999,19572,5,1
1251998,19572,5,1
1251999,19573,5,1
1251999,19572,5,1
1251998,19578,5,1
1251998,19572,5,1
1251999,19572,5,1
1251999,19573,5,1
1251998,19572,5,1
1251999,19572,5,1
1251999,19572,5,1
1251998,19572,5,1
1251998,19573,5,1
1251994,19572,5,1
1252000,19572,5,1
1251998,19572,5,1
1251999,19572,5,1
1251999,19573,5,1
1251998,19572,5,1
1251998,19572,5,1
1251999,19572,5,1
1251999,19572,5,1
1251998,19573,5,1
1251999,19572,5,1
1251999,19572,5,1
1251998,19572,5,1
1251998,19572,5,1
1251999,19573,5,1
1251999,19572,5,1
1251998,19572,5,1
1251999,19572,5,1
1251999,19572,5,1
1251998,19573,5,1
1251998,19572,5,1
1251999,19572,5,1
1251999,19572,5,1
1251995,19572,5,1
1252000,19573,5,1
1251999,19572,5,1
1251998,19572,5,1
1251998,19572,5,1
1251999,19572,5,1
1251999,19573,5,1
1251998,19572,5,1
1251999,19572,5,1
1251999,19572,5,1
1251998,19572,5,1
1114271,17534,115,16
526434,8236,10,1
526439,8242,10,1
526434,8236,10,1
526434,8236,10,1
526433,8236,10,1
526440,8236,10,1
526439,8242,10,1
526433,8236,10,1
526440,8236,10,1
526433,8236,10,1
526446,8236,10,1
526441,8244,10,1
526439,8236,10,1
526434,8236,10,1
526445,8236,10,1
526439,8236,10,1
526434,8242,10,1
526439,8236,10,1
526440,8236,10,1
526434,8236,10,1
526433,8236,10,1
526440,8242,10,1
526439,8236,10,1
526439,8238,10,1
526440,8236,10,1
526427,8236,10,1
526440,8236,10,1
526440,8242,10,1
526439,8236,10,1
526446,8236,10,1
526433,8236,10,1
526439,8242,10,1
526446,8236,10,1
526433,8236,10,1
526440,8236,10,1
526446,8238,10,1
526439,8242,10,1
526434,8236,10,1
526427,8236,10,1
526433,8236,10,1
526440,8236,10,1
526439,8236,10,1
526440,8242,10,1
526434,8236,10,1
526433,8236,10,1
526434,8236,10,1
526445,8236,10,1
526445,8244,10,1
526440,8236,10,1
526445,8236,10,1
526434,8236,10,1
526433,8236,10,1
526439,8242,10,1
526446,8236,10,1
526433,8236,10,1
526439,8236,10,1
526434,8236,10,1
526439,8242,10,1
526439,8236,10,1
526428,8238,10,1
526439,8236,10,1
526440,8236,10,1
526445,8242,10,1
526427,8236,10,1
526434,8236,10,1
526433,8236,10,1
526440,8236,10,1
526434,8242,10,1
526440,8236,10,1
526434,8236,10,1
526440,8236,10,1
526439,8237,10,1
526440,8243,10,1
526439,8236,10,1
526433,8236,10,1
526428,8236,10,1
526445,8236,10,1
526440,8242,10,1
526428,8236,10,1
526433,8236,10,1
526434,8236,10,1
526439,8236,10,1
526445,8242,10,1
526446,8237,10,1
526439,8237,10,1
526440,8236,10,1
526440,8236,10,1
526445,8242,10,1
526440,8236,10,1
526439,8236,10,1
526433,8236,10,1
526428,8236,10,1
526438,8242,10,1
526440,8236,10,1
526434,8236,10,1
526445,8236,10,1
526440,8238,10,1
526433,8242,10,1
526433,8236,10,1
526445,8236,10,1
526427,8236,10,1
526440,8236,10,1
526440,8242,10,1
526433,8236,10,1
526440,8236,10,1
526440,8236,10,1
526433,8236,10,1
526434,8242,10,1
526438,8238,10,1
526434,8236,10,1
526437,8236,10,1
526445,8236,10,1
526434,8242,10,1
526436,8236,10,1
526439,8236,10,1
526440,8236,10,1
526433,8236,10,1
526440,8242,10,1
526434,8236,10,1
526439,8236,10,1
526433,8238,10,1
526433,8236,10,1
526444,8242,10,1
526434,8236,10,1
526439,8236,10,1
526434,8236,10,1
526428,8236,10,1
526443,8242,10,1
526428,8236,10,1
526439,8236,10,1
526439,8236,10,1
526434,8236,10,1
526433,8244,10,1
526446,8236,10,1
526440,8236,10,1
526444,8236,10,1
526434,8236,10,1
526439,8242,10,1
526439,8236,10,1
526440,8236,10,1
526433,8236,10,1
526434,8236,10,1
526434,8242,10,1
526439,8236,10,1
526434,8238,10,1
526436,8236,10,1
526439,8236,10,1
526440,8242,10,1
526445,8236,10,1
526439,8236,10,1
526440,8236,10,1
526439,8236,10,1
526445,8242,10,1
526440,8236,10,1
526445,8236,10,1
526440,8236,10,1
526439,8238,10,1
526433,8242,10,1
526440,8236,10,1
526439,8236,10,1
526446,8236,10,1
526446,8236,10,1
526433,8242,10,1
526440,8236,10,1
526433,8236,10,1
526433,8236,10,1
526434,8236,10,1
526439,8242,10,1
526434,8238,10,1
526440,8236,10,1
526445,8236,10,1
526428,8236,10,1
526439,8242,10,1
526439,8236,10,1
526434,8236,10,1
526434,8236,10,1
526446,8236,10,1
526446,8242,10,1
526439,8236,10,1
526434,8236,10,1
526433,8238,10,1
526439,8236,10,1
526440,8242,10,1
526433,8236,10,1
526434,8236,10,1
526440,8236,10,1
526433,8236,10,1
526434,8242,10,1
526433,8236,10,1
526439,8236,10,1
526440,8236,10,1
526439,8236,10,1
865141,13546,102,14
1251998,19572,5,1
1251999,19572,5,1
1251999,19572,5,1
1251999,19578,5,1
1251998,19573,5,1
1251999,19572,5,1
1251999,19572,5,1
1251998,19572,5,1
1251999,19572,5,1
1251999,19573,5,1
1251999,19572,5,1
1251998,19572,5,1
1251999,19572,5,1
1251999,19572,5,1
1251998,19573,5,1
1251999,19572,5,1
1251994,19572,5,1
1252000,19572,5,1
1251998,19572,5,1
1251999,19573,5,1
1251999,19572,5,1
1251998,19572,5,1
1251999,19572,5,1
1251999,19572,5,1
1251999,19573,5,1
1251998,19572,5,1
1251999,19572,5,1
1251999,19572,5,1
1251998,19572,5,1
1251999,19573,5,1
1251999,19572,5,1
1251999,19572,5,1
1251998,19572,5,1
1251999,19572,5,1
1251999,19573,5,1
1251998,19572,5,1
1251999,19572,5,1
1251999,19572,5,1
1251999,19572,5,1
1251995,19573,5,1
1252000,19572,5,1
1251999,19572,5,1
1251998,19572,5,1
1251999,19572,5,1
1251999,19573,5,1
1251999,19572,5,1
1251998,19572,5,1
1251999,19572,5,1
1251999,19572,5,1
1251998,19573,5,1
1251999,19572,5,1
1251999,19572,5,1
1251999,19572,5,1
1251998,19572,5,1
1251999,19573,5,1
1251999,19572,5,1
1251998,19572,5,1
1251999,19572,5,1
1251999,19572,5,1
1251999,19573,5,1
1251998,19572,5,1
1251999,19572,5,1
1251999,19572,5,1
1252000,19572,5,1
1251996,19576,5,1
1251999,19572,5,1
1251999,19572,5,1
1251998,19572,5,1
1251999,19572,5,1
1251999,19573,5,1
1251998,19572,5,1
1251999,19572,5,1
1251999,19572,5,1
1251999,19572,5,1
1251998,19572,5,1
1251999,19573,5,1
1251999,19572,5,1
1251998,19572,5,1
1251999,19572,5,1
1251999,19572,5,1
576775,9077,115,16
527052,8248,10,1
527057,8248,10,1
527052,8248,10,1
527051,8248,10,1
527057,8242,10,1
527058,8248,10,1
527067,8248,10,1
527052,8248,10,1
527058,8248,10,1
527063,8248,10,1
527064,8243,10,1
527064,8249,10,1
527057,8248,10,1
527070,8248,10,1
527051,8248,10,1
527057,8242,10,1
527052,8248,10,1
527057,8248,10,1
527045,8248,10,1
527046,8248,10,1
527063,8242,10,1
527063,8248,10,1
527058,8249,10,1
527057,8249,10,1
527052,8248,10,1
527052,8248,10,1
527069,8242,10,1
527052,8248,10,1
527058,8248,10,1
527051,8248,10,1
527070,8248,10,1
527063,8242,10,1
527058,8248,10,1
527058,8248,10,1
527063,8248,10,1
527058,8250,10,1
527052,8248,10,1
527051,8242,10,1
527046,8248,10,1
527063,8248,10,1
527057,8248,10,1
527058,8248,10,1
527051,8242,10,1
527052,8248,10,1
527058,8248,10,1
527057,8248,10,1
527070,8248,10,1
527058,8244,10,1
527063,8248,10,1
527058,8248,10,1
527051,8248,10,1
527063,8248,10,1
527058,8248,10,1
527057,8242,10,1
527063,8248,10,1
527052,8248,10,1
527051,8248,10,1
527052,8248,10,1
527055,8242,10,1
527063,8250,10,1
527052,8248,10,1
527070,8248,10,1
527045,8248,10,1
527046,8242,10,1
527051,8248,10,1
527057,8248,10,1
527058,8248,10,1
527063,8248,10,1
527052,8242,10,1
527057,8248,10,1
527057,8248,10,1
527064,8250,10,1
527052,8248,10,1
527062,8248,10,1
527046,8242,10,1
527058,8248,10,1
527062,8248,10,1
527040,8248,10,1
527057,8248,10,1
527057,8242,10,1
527052,8248,10,1
527063,8248,10,1
527070,8248,10,1
527053,8250,10,1
527058,8242,10,1
527058,8248,10,1
527067,8248,10,1
527063,8248,10,1
527058,8248,10,1
527051,8248,10,1
527045,8242,10,1
527052,8248,10,1
527063,8248,10,1
527058,8248,10,1
527064,8248,10,1
527057,8244,10,1
527058,8248,10,1
527058,8248,10,1
527063,8248,10,1
527052,8248,10,1
527057,8248,10,1
527051,8242,10,1
527059,8248,10,1
527057,8248,10,1
527058,8248,10,1
527058,8248,10,1
527045,8242,10,1
527064,8250,10,1
527052,8248,10,1
527063,8248,10,1
527070,8248,10,1
527057,8242,10,1
527051,8248,10,1
527064,8248,10,1
527063,8248,10,1
527057,8248,10,1
527058,8248,10,1
527051,8242,10,1
527057,8248,10,1
527046,8250,10,1
527063,8248,10,1
527058,8248,10,1
527051,8242,10,1
527057,8248,10,1
527057,8248,10,1
527045,8248,10,1
527057,8248,10,1
527046,8242,10,1
527058,8248,10,1
527052,8248,10,1
527063,8248,10,1
527057,8250,10,1
527064,8242,10,1
527060,8248,10,1
527063,8248,10,1
527057,8248,10,1
527057,8248,10,1
527057,8248,10,1
527063,8242,10,1
527050,8248,10,1
527052,8248,10,1
527058,8248,10,1
527051,8248,10,1
527046,8244,10,1
527064,8248,10,1
527057,8248,10,1
527057,8248,10,1
527068,8248,10,1
527057,8242,10,1
527053,8243,10,1
527057,8248,10,1
527063,8248,10,1
527064,8248,10,1
527063,8248,10,1
527058,8242,10,1
527058,8250,10,1
527057,8248,10,1
527058,8248,10,1
527064,8248,10,1
527063,8248,10,1
527064,8242,10,1
527057,8248,10,1
527057,8248,10,1
527058,8248,10,1
527051,8248,10,1
527052,8242,10,1
527058,8248,10,1
527051,8250,10,1
527058,8248,10,1
527064,8248,10,1
527051,8242,10,1
527058,8248,10,1
527063,8248,10,1
527051,8248,10,1
527057,8248,10,1
527057,8242,10,1
527070,8248,10,1
527058,8248,10,1
527057,8248,10,1
527052,8250,10,1
527053,8248,10,1
527057,8242,10,1
527058,8248,10,1
527051,8248,10,1
527057,8248,10,1
527058,8248,10,1
527050,8242,10,1
527045,8248,10,1
527064,8248,10,1
527063,8248,10,1
527058,8248,10,1
841543,13174,102,14
1251999,19572,5,1
1251999,19572,5,1
1251998,19572,5,1
1251999,19572,5,1
1251995,19573,5,1
1252000,19572,5,1
1251998,19572,5,1
1251999,19572,5,1
1251999,19572,5,1
1251998,19573,5,1
1251999,19578,5,1
1251999,19572,5,1
1251999,19572,5,1
1251998,19572,5,1
1251999,19573,5,1
1251999,19572,5,1
1251998,19572,5,1
1251999,19572,5,1
1251999,19572,5,1
1251999,19573,5,1
1251998,19572,5,1
1251999,19572,5,1
1251999,19572,5,1
1251998,19572,5,1
1251999,19573,5,1
1251999,19572,5,1
1251999,19572,5,1
1251998,19572,5,1
1252001,19572,5,1
1251997,19573,5,1
1251998,19572,5,1
1251999,19572,5,1
1251999,19572,5,1
1251999,19572,5,1
1251998,19573,5,1
1251999,19572,5,1
1251999,19572,5,1
1251998,19572,5,1
1251999,19572,5,1
1251999,19573,5,1
1251999,19572,5,1
1251998,19572,5,1
1251999,19572,5,1
1251999,19572,5,1
1251998,19573,5,1
1251999,19572,5,1
1251999,19572,5,1
1251999,19572,5,1
1251998,19572,5,1
1251999,19573,5,1
1251999,19572,5,1
1251998,19572,5,1
1251994,19572,5,1
1251999,19572,5,1
1251999,19573,5,1
1251998,19572,5,1
1251999,19572,5,1
1251999,19572,5,1
1251998,19572,5,1
1251999,19573,5,1
1251999,19572,5,1
1251999,19572,5,1
1251998,19572,5,1
1251999,19572,5,1
1251999,19573,5,1
1251998,19572,5,1
1251999,19572,5,1
1251999,19572,5,1
1251999,19572,5,1
1251998,19572,5,1
1251999,19573,5,1
1251999,19572,5,1
1251998,19578,5,1
1251998,19572,5,1
1251999,19572,5,1
1251994,19573,5,1
1251999,19572,5,1
1251999,19572,5,1
1251999,19572,5,1
1251998,19572,5,1
601270,9464,115,16
527675,8254,10,1
527670,8260,10,1
527669,8254,10,1
527669,8260,10,1
527676,8254,10,1
527674,8260,10,1
527681,8254,10,1
527670,8254,10,1
527675,8260,10,1
527675,8254,10,1
527688,8261,10,1
527681,8255,10,1
527676,8260,10,1
527687,8254,10,1
527663,8254,10,1
527669,8260,10,1
527664,8254,10,1
527669,8260,10,1
527659,8254,10,1
527658,8254,10,1
527686,8260,10,1
527670,8254,10,1
527675,8261,10,1
527681,8255,10,1
527664,8254,10,1
527669,8260,10,1
527681,8254,10,1
527664,8260,10,1
527680,8254,10,1
527663,8260,10,1
527688,8254,10,1
527675,8254,10,1
527669,8260,10,1
527682,8254,10,1
527669,8260,10,1
527676,8256,10,1
527670,8260,10,1
527669,8254,10,1
527664,8254,10,1
527682,8260,10,1
527669,8254,10,1
527670,8260,10,1
527665,8254,10,1
527669,8254,10,1
527681,8260,10,1
527670,8254,10,1
527687,8260,10,1
527670,8256,10,1
527680,8259,10,1
527669,8254,10,1
527670,8254,10,1
527681,8260,10,1
527675,8254,10,1
527682,8260,10,1
527669,8254,10,1
527669,8254,10,1
527665,8260,10,1
527669,8254,10,1
527664,8260,10,1
527682,8256,10,1
527669,8254,10,1
527682,8260,10,1
527664,8254,10,1
527663,8260,10,1
527664,8254,10,1
527675,8259,10,1
527675,8254,10,1
527682,8254,10,1
527664,8260,10,1
527672,8254,10,1
527676,8260,10,1
527681,8256,10,1
527675,8254,10,1
527676,8260,10,1
527663,8254,10,1
527669,8260,10,1
527682,8254,10,1
527657,8254,10,1
527670,8260,10,1
527676,8254,10,1
527663,8260,10,1
527676,8254,10,1
527688,8260,10,1
527675,8256,10,1
527676,8254,10,1
527670,8260,10,1
527681,8254,10,1
527682,8260,10,1
527682,8254,10,1
527663,8260,10,1
527664,8254,10,1
527675,8254,10,1
527675,8260,10,1
527670,8254,10,1
527681,8260,10,1
527681,8256,10,1
527676,8254,10,1
527676,8260,10,1
527675,8254,10,1
527664,8260,10,1
527675,8254,10,1
527670,8260,10,1
527682,8254,10,1
527675,8254,10,1
527676,8260,10,1
527670,8254,10,1
527669,8260,10,1
527670,8256,10,1
527681,8254,10,1
527669,8260,10,1
527694,8254,10,1
527670,8260,10,1
527675,8254,10,1
527676,8260,10,1
527681,8254,10,1
527669,8254,10,1
527670,8260,10,1
527674,8254,10,1
527669,8260,10,1
527670,8256,10,1
527675,8260,10,1
527669,8254,10,1
527670,8254,10,1
527675,8260,10,1
527664,8254,10,1
527664,8260,10,1
527669,8254,10,1
527671,8254,10,1
527670,8260,10,1
527669,8254,10,1
527676,8260,10,1
527676,8256,10,1
527686,8254,10,1
527676,8260,10,1
527682,8254,10,1
527669,8260,10,1
527670,8254,10,1
527675,8260,10,1
527675,8254,10,1
527664,8254,10,1
527663,8260,10,1
527675,8254,10,1
527676,8260,10,1
527669,8256,10,1
527675,8254,10,1
527670,8260,10,1
527669,8254,10,1
527682,8260,10,1
527676,8254,10,1
527663,8260,10,1
527687,8254,10,1
527669,8254,10,1
527681,8260,10,1
527676,8254,10,1
527676,8260,10,1
527669,8256,10,1
527676,8254,10,1
527676,8260,10,1
527693,8254,10,1
527676,8260,10,1
527681,8254,10,1
527663,8260,10,1
527682,8254,10,1
527675,8254,10,1
527663,8260,10,1
527670,8254,10,1
527657,8260,10,1
527674,8256,10,1
527682,8260,10,1
527681,8254,10,1
527670,8254,10,1
527682,8260,10,1
527669,8254,10,1
527670,8260,10,1
527676,8254,10,1
527675,8254,10,1
527683,8260,10,1
527676,8254,10,1
527669,8260,10,1
527670,8256,10,1
527664,8260,10,1
527674,8254,10,1
527670,8254,10,1
527669,8260,10,1
527687,8254,10,1
527664,8260,10,1
527663,8254,10,1
527669,8254,10,1
527683,8260,10,1
527681,8254,10,1
527670,8260,10,1
982522,15379,102,14
1251998,19572,5,1
1251999,19572,5,1
1251999,19572,5,1
1251999,19572,5,1
1251998,19573,5,1
1251999,19572,5,1
1251999,19572,5,1
1251998,19572,5,1
1251999,19572,5,1
1251999,19573,5,1
1251999,19572,5,1
1251998,19572,5,1
1251999,19572,5,1
1251999,19572,5,1
1251998,19573,5,1
1251999,19572,5,1
1251999,19572,5,1
1251999,19572,5,1
1251998,19572,5,1
1251999,19573,5,1
1251999,19572,5,1
1251998,19572,5,1
1251998,19572,5,1
1252000,19572,5,1
1251999,19573,5,1
1251998,19572,5,1
1251999,19572,5,1
1251999,19572,5,1
1251998,19572,5,1
1251998,19573,5,1
1251999,19572,5,1
1251999,19572,5,1
1251998,19572,5,1
1251999,19572,5,1
1251999,19573,5,1
1251998,19572,5,1
1251998,19572,5,1
1251999,19572,5,1
1251999,19572,5,1
1251998,19573,5,1
1251999,19572,5,1
1251999,19572,5,1
1251998,19572,5,1
1251998,19572,5,1
1251999,19573,5,1
1251999,19572,5,1
1251999,19572,5,1
1251999,19572,5,1
1251999,19572,5,1
1251998,19573,5,1
1251998,19572,5,1
1251999,19572,5,1
1251999,19572,5,1
1251998,19572,5,1
1251999,19573,5,1
1251999,19572,5,1
1251998,19572,5,1
1251998,19572,5,1
1251999,19572,5,1
1251999,19573,5,1
1251998,19572,5,1
1251999,19578,5,1
1251999,19572,5,1
1251998,19572,5,1
1251998,19573,5,1
1251999,19572,5,1
1251999,19572,5,1
1251998,19572,5,1
1251999,19572,5,1
1251998,19573,5,1
1251999,19572,5,1
1251998,19572,5,1
1251999,19572,5,1
1251999,19572,5,1
1251998,19573,5,1
1251999,19572,5,1
1251999,19572,5,1
1251998,19572,5,1
1251998,19572,5,1
1187697,18689,115,16
528252,8266,10,1
528257,8266,10,1
528252,8266,10,1
528252,8260,10,1
528251,8266,10,1
528246,8266,10,1
528252,8266,10,1
528257,8266,10,1
528258,8266,10,1
528258,8266,10,1
528251,8266,10,1
528269,8268,10,1
528264,8266,10,1
528251,8266,10,1
528264,8266,10,1
528252,8266,10,1
528245,8266,10,1
528245,8260,10,1
528252,8266,10,1
528239,8266,10,1
528246,8266,10,1
528264,8266,10,1
528245,8266,10,1
528258,8268,10,1
528252,8266,10,1
528239,8266,10,1
528252,8266,10,1
528258,8266,10,1
528251,8266,10,1
528258,8266,10,1
528252,8260,10,1
528257,8266,10,1
528258,8266,10,1
528246,8266,10,1
528263,8266,10,1
528252,8268,10,1
528252,8266,10,1
528251,8266,10,1
528234,8266,10,1
528251,8266,10,1
528263,8266,10,1
528252,8266,10,1
528246,8266,10,1
528251,8260,10,1
528246,8266,10,1
528256,8266,10,1
528257,8266,10,1
528264,8268,10,1
528251,8266,10,1
528251,8266,10,1
528252,8266,10,1
528251,8266,10,1
528262,8266,10,1
528264,8266,10,1
528251,8266,10,1
528256,8266,10,1
528240,8266,10,1
528239,8260,10,1
528245,8266,10,1
528246,8268,10,1
528263,8266,10,1
528239,8266,10,1
528264,8266,10,1
528239,8266,10,1
528239,8266,10,1
528252,8266,10,1
528245,8266,10,1
528263,8266,10,1
528252,8266,10,1
528251,8260,10,1
528251,8266,10,1
528252,8268,10,1
528263,8266,10,1
528263,8266,10,1
528246,8266,10,1
528239,8266,10,1
528262,8266,10,1
528252,8266,10,1
528239,8266,10,1
528258,8266,10,1
528246,8266,10,1
528239,8260,10,1
528270,8266,10,1
528264,8268,10,1
528245,8266,10,1
528252,8266,10,1
528258,8266,10,1
528263,8266,10,1
528251,8266,10,1
528252,8266,10,1
528245,8266,10,1
528246,8266,10,1
528252,8266,10,1
528257,8266,10,1
528247,8266,10,1
528264,8268,10,1
528257,8260,10,1
528258,8266,10,1
528258,8266,10,1
528251,8266,10,1
528252,8266,10,1
528252,8266,10,1
528263,8266,10,1
528252,8266,10,1
528252,8266,10,1
528257,8266,10,1
528246,8266,10,1
528246,8268,10,1
528251,8266,10,1
528252,8266,10,1
528258,8260,10,1
528263,8266,10,1
528258,8266,10,1
528252,8266,10,1
528257,8266,10,1
528252,8266,10,1
528258,8266,10,1
528245,8266,10,1
528246,8266,10,1
528246,8268,10,1
528263,8266,10,1
528252,8266,10,1
528246,8266,10,1
528251,8260,10,1
528264,8266,10,1
528246,8266,10,1
528239,8266,10,1
528258,8266,10,1
528246,8266,10,1
528246,8266,10,1
528246,8266,10,1
528253,8268,10,1
528269,8266,10,1
528252,8266,10,1
528246,8266,10,1
528264,8266,10,1
528240,8260,10,1
528252,8266,10,1
528251,8266,10,1
528258,8266,10,1
528240,8266,10,1
528245,8266,10,1
528252,8266,10,1
528251,8268,10,1
528251,8266,10,1
528259,8266,10,1
528245,8266,10,1
528245,8266,10,1
528258,8266,10,1
528245,8260,10,1
528245,8266,10,1
528265,8266,10,1
528245,8266,10,1
528257,8266,10,1
528258,8266,10,1
528257,8268,10,1
528251,8266,10,1
528263,8266,10,1
528263,8266,10,1
528263,8266,10,1
528257,8266,10,1
528257,8266,10,1
528245,8266,10,1
528252,8266,10,1
528263,8260,10,1
528244,8266,10,1
528246,8266,10,1
528245,8268,10,1
528251,8266,10,1
528264,8266,10,1
528251,8266,10,1
528263,8266,10,1
528258,8266,10,1
528251,8266,10,1
528239,8266,10,1
528252,8266,10,1
528252,8266,10,1
528269,8266,10,1
528252,8260,10,1
528257,8268,10,1
528245,8266,10,1
528240,8266,10,1
528251,8266,10,1
528252,8266,10,1
528258,8266,10,1
528257,8266,10,1
528240,8266,10,1
528246,8266,10,1
528251,8266,10,1
528264,8266,10,1
528264,8266,10,1
551669,8644,102,14
1251999,19572,5,1
1251999,19572,5,1
1251998,19572,5,1
1251994,19572,5,1
1251999,19573,5,1
1251998,19572,5,1
1251998,19572,5,1
1251999,19572,5,1
1251999,19572,5,1
1251998,19572,5,1
1251999,19573,5,1
1251999,19578,5,1
1251998,19572,5,1
1251998,19572,5,1
1251999,19572,5,1
1251999,19573,5,1
1251998,19572,5,1
1251999,19572,5,1
1251999,19572,5,1
1251998,19572,5,1
1251998,19573,5,1
1251999,19572,5,1
1251999,19572,5,1
1251998,19572,5,1
1251999,19572,5,1
1251999,19573,5,1
1251994,19572,5,1
1251999,19572,5,1
1251999,19572,5,1
1251999,19572,5,1
1251998,19573,5,1
1251999,19572,5,1
1251999,19572,5,1
1251998,19572,5,1
1251998,19572,5,1
1251999,19573,5,1
1251999,19572,5,1
1251998,19572,5,1
1251999,19572,5,1
1251999,19572,5,1
1251998,19573,5,1
1251998,19572,5,1
1251999,19572,5,1
1251999,19572,5,1
1251998,19572,5,1
1251999,19573,5,1
1251999,19572,5,1
1251998,19572,5,1
1251998,19572,5,1
1251999,19572,5,1
1252000,19573,5,1
1251996,19572,5,1
1251999,19572,5,1
1251999,19572,5,1
1251998,19572,5,1
1251998,19573,5,1
1251999,19572,5,1
1251999,19572,5,1
1251998,19572,5,1
1251999,19572,5,1
1251999,19573,5,1
1251998,19572,5,1
1251998,19572,5,1
1251999,19572,5,1
1251999,19572,5,1
1251998,19573,5,1
1251999,19572,5,1
1251999,19572,5,1
1251998,19572,5,1
1251998,19572,5,1
1251999,19573,5,1
1251999,19572,5,1
1251998,19572,5,1
1251999,19578,5,1
1252000,19572,5,1
1251998,19573,5,1
1251998,19572,5,1
1251999,19572,5,1
1251999,19572,5,1
1251998,19572,5,1
892895,14052,115,16
528780,8272,10,1
528780,8272,10,1
528773,8278,10,1
528774,8272,10,1
528756,8272,10,1
528773,8272,10,1
528774,8278,10,1
528780,8272,10,1
528779,8272,10,1
528774,8278,10,1
528786,8272,10,1
528785,8274,10,1
528778,8272,10,1
528774,8278,10,1
528767,8272,10,1
528779,8272,10,1
528756,8278,10,1
528761,8272,10,1
528761,8272,10,1
528756,8272,10,1
528776,8278,10,1
528773,8272,10,1
528768,8272,10,1
528779,8274,10,1
528761,8278,10,1
528762,8272,10,1
528779,8272,10,1
528767,8272,10,1
528768,8278,10,1
528774,8272,10,1
528791,8272,10,1
528774,8278,10,1
528774,8272,10,1
528784,8272,10,1
528768,8272,10,1
365978,5736,10,1
number,of,instructions:,189568971414
