30285331 10868 30072685 30104419 30223211 30234305 30241915 30245701 14451 1886374 12326287 12513992 14281395 19572994 19574101 17746287 83 17680100 17683701 17742479 17743382 17743997 17743999 0 1782694 3615495 3630795 3631169 5400881 5400885
30373999 0 30258735 30258735 30373999 30373999 30373999 30373999 0 1787476 12334200 12507096 14293700 19653509 19653509 17866034 0 17808402 17808402 17866034 17866034 17866034 17866034 0 1786604 3573207 3573207 3573207 5359810 5359810
23948501 9 21911486 21950882 22267918 23638456 23948059 23948059 0 2143728 8951178 9016263 9733934 12103152 12103264 12445253 0 12420535 12422174 12444161 12445102 12445109 12445109 0 2640656 6278179 6278459 6279043 6925346 6925346
20305828 0 17178992 17242218 17672785 19819458 20305490 20305490 0 2345801 7034016 7038208 7151398 7824814 7825006 9372538 0 9366124 9368947 9370811 9372526 9372538 9372538 0 3124689 7811114 7811570 7812580 7812580 7812580
20302594 0 17170827 17236970 17668913 19817112 20302090 20302090 0 2346794 7035279 7040852 7157656 7830877 7831165 9371366 0 9361793 9365980 9368769 9371348 9371366 9371366 0 3124556 7810464 7811148 7812652 7812652 7812652
20308600 0 17185925 17245939 17676300 19823987 20308404 20308404 0 2344946 7032885 7035989 7144717 7819686 7819798 9373565 0 9369826 9371479 9372557 9373558 9373565 9373565 0 3124819 7811693 7811959 7812549 7812549 7812549
20309216 0 17187256 17246438 17675494 19823814 20309048 20309048 0 2344765 7032599 7035383 7144097 7818610 7818706 9373797 0 9370628 9372034 9372938 9373791 9373797 9373797 0 3124854 7811827 7812055 7812555 7812555 7812555
19361686 71 17051380 17098142 17416026 19002036 19360939 19360939 1 1750926 5214914 5580950 5664245 6884371 6884516 8733016 1 8688650 8723962 8731515 8732826 8732836 8732836 0 2307661 5768938 5769401 5770159 5770159 5770159
16704230 0 16702872 16702872 16702872 16702872 16704230 16704230 0 0 7469 1401129 1401129 4183017 4183017 6956758 0 6808301 6933329 6956758 6956758 6956758 6956758 0 679 1358 1358 1358 1358 1358
16704240 0 16702880 16702880 16702880 16702880 16704240 16704240 0 0 7480 1401143 1401143 4183029 4183029 6956756 0 6808118 6933390 6956756 6956756 6956756 6956756 0 680 1360 1360 1360 1360 1360
20778508 27 20776689 20776778 20776801 20776847 20778271 20778276 0 3393 11092 1064643 1064659 3979103 3979103 6069612 7 5957566 6051861 6069528 6069528 6069528 6069528 0 816104 816822 816870 816879 816879 816879
33340384 0 33338757 33338757 33338757 33338757 33340384 33340384 0 4881 13016 17897 17897 3349658 3349658 3333388 0 3333388 3333388 3333388 3333388 3333388 3333388 0 3330134 3330134 3330134 3330134 3330134 3330134
16951722 8 16950197 16950199 16950199 16950199 16951692 16951692 0 20517 28026 1402116 1402118 4187419 4187420 6905490 7 6694333 6892892 6905475 6905475 6905475 6905475 0 47326 48094 48127 48136 48136 48136
16722320 0 16720960 16720960 16720960 16720960 16722320 16722320 0 0 7480 1402650 1402650 4187550 4187550 6964289 0 6749416 6951727 6964289 6964289 6964289 6964289 0 680 1360 1360 1360 1360 1360
16722104 0 16720744 16720744 16720744 16720744 16722104 16722104 0 0 7480 1402632 1402632 4187496 4187496 6964201 0 6749825 6951616 6964201 6964201 6964201 6964201 0 680 1360 1360 1360 1360 1360
32885699 8 32884068 32884070 32884070 32884070 32885691 32885691 0 6882 15021 57961 57963 3372702 3372702 3432936 7 3426955 3432597 3432935 3432935 3432935 3432935 0 3239062 3239176 3239203 3239212 3239212 3239212
9553629 346 9548772 9549442 9549980 9550710 9551242 9551261 15 5542 9119 11387 11833 963756 963766 958799 11 956955 957473 957908 958040 958046 958054 0 953947 956583 957339 957405 957419 957429
number of instructions: 1628659262
