10000006590,1835234522,1521917665,1229277775,1057428884
10000000000,1836045341,1521915112,1228352499,1055949384
10000000000,1836062173,1522038736,1228758232,1056579401
10000000000,1836471251,1522293755,1228670363,1056330883
10000000000,1835133459,1521374814,1228671556,1056691805
10000000000,1836802838,1522379276,1228155521,1055435555
6684757354,1229762176,1018835958,820470875,704216930
number,of,instructions:,66684757192
