2682954655,31242,1551151793,396929675,133748120,331032450,185382483,14708249,19651896,42559738,7563689,10631,122517,8112,43365,298,10397,0,0,0,0
2683472915,17330,1553055091,398352019,130116188,330993730,186006103,14752171,19707191,42685799,7583403,4876,125675,7770,47181,17,18259,112,0,0,0
2682965623,16541,1553156027,398277449,130077379,330714125,185853650,14718667,19670407,42663318,7613885,3337,124859,9798,48637,9,17398,137,0,0,0
2683548816,16543,1552986389,398145437,130119622,331181526,186161937,14784104,19714036,42654567,7580245,3210,127261,7989,48398,13,17401,25,113,0,0
2681966327,17214,1553471034,398623102,130006087,329823639,185397651,14693481,19615289,42487804,7627904,5050,125220,7051,47353,13,18291,1,143,0,0
2684602435,16596,1552717441,398119886,130201909,331872264,186547512,14790578,19731658,42806760,7592517,3490,124028,11692,48547,18,17402,0,137,0,0
1797455009,8528,1037165175,265531973,87235839,224106771,125880926,9982796,13376684,28994495,5028786,8730,82246,6136,30458,200,14920,0,346,0,0
