------------------------

num of omp threads = 1 

Reading File
Start traversing the tree
Compute time: 0.000341
Result stored in result.txt
========================




------------------------

num of omp threads = 2 

Reading File
Start traversing the tree
Compute time: 0.000283
Result stored in result.txt
========================




------------------------

num of omp threads = 4 

Reading File
Start traversing the tree
Compute time: 0.000338
Result stored in result.txt
========================




------------------------

num of omp threads = 8 

Reading File
Start traversing the tree
Compute time: 0.000387
Result stored in result.txt
========================




------------------------

num of omp threads = 10 

Reading File
Start traversing the tree
Compute time: 0.000364
Result stored in result.txt
========================




------------------------

num of omp threads = 20 

Reading File
Start traversing the tree
Compute time: 0.003148
Result stored in result.txt
========================




------------------------

num of omp threads = 30 

Reading File
Start traversing the tree
Compute time: 0.031065
Result stored in result.txt
========================




------------------------

num of omp threads = 40 

Reading File
Start traversing the tree
Compute time: 0.005220
Result stored in result.txt
========================




