OMP_NUM_THREADS=1 

Time spent in different stages of the application:
0.000000000000 s, 0.000000000000 % : SETUP VARIABLES
0.000029000001 s, 0.002644764492 % : READ COMMAND LINE PARAMETERS
0.133993998170 s, 12.220088005066 % : READ IMAGE FROM FILE
0.001165000023 s, 0.106246568263 % : RESIZE IMAGE
0.000049999999 s, 0.004559938796 % : SETUP, MEMORY ALLOCATION
0.007834999822 s, 0.714542388916 % : EXTRACT IMAGE
0.869935989380 s, 79.337097167969 % : COMPUTE
0.006969999988 s, 0.635655462742 % : COMPRESS IMAGE
0.076006002724 s, 6.931653499603 % : SAVE IMAGE INTO FILE
0.000521000009 s, 0.047514557838 % : FREE MEMORY
Total time:
1.096505999565 s
--------------------------

OMP_NUM_THREADS=2 

Time spent in different stages of the application:
0.000000000000 s, 0.000000000000 % : SETUP VARIABLES
0.000026000000 s, 0.003673951142 % : READ COMMAND LINE PARAMETERS
0.037381000817 s, 5.282152652740 % : READ IMAGE FROM FILE
0.001269000000 s, 0.179317072034 % : RESIZE IMAGE
0.000043000000 s, 0.006076149642 % : SETUP, MEMORY ALLOCATION
0.007809000090 s, 1.103457093239 % : EXTRACT IMAGE
0.591551005840 s, 83.589591979980 % : COMPUTE
0.006969000213 s, 0.984760165215 % : COMPRESS IMAGE
0.061480998993 s, 8.687622070312 % : SAVE IMAGE INTO FILE
0.001155999955 s, 0.163349509239 % : FREE MEMORY
Total time:
0.707684993744 s
--------------------------

OMP_NUM_THREADS=4 

Time spent in different stages of the application:
0.000000000000 s, 0.000000000000 % : SETUP VARIABLES
0.000010000000 s, 0.002380000195 % : READ COMMAND LINE PARAMETERS
0.034081000835 s, 8.111279487610 % : READ IMAGE FROM FILE
0.000898999977 s, 0.213962018490 % : RESIZE IMAGE
0.000039999999 s, 0.009520000778 % : SETUP, MEMORY ALLOCATION
0.006604999769 s, 1.571990132332 % : EXTRACT IMAGE
0.320930004120 s, 76.381347656250 % : COMPUTE
0.008294000290 s, 1.973972320557 % : COMPRESS IMAGE
0.048514999449 s, 11.546571731567 % : SAVE IMAGE INTO FILE
0.000793999992 s, 0.188972026110 % : FREE MEMORY
Total time:
0.420168012381 s
--------------------------

OMP_NUM_THREADS=8 

Time spent in different stages of the application:
0.000000000000 s, 0.000000000000 % : SETUP VARIABLES
0.000019999999 s, 0.007276590448 % : READ COMMAND LINE PARAMETERS
0.033298999071 s, 12.115159988403 % : READ IMAGE FROM FILE
0.001056000008 s, 0.384203970432 % : RESIZE IMAGE
0.000048000002 s, 0.017463818192 % : SETUP, MEMORY ALLOCATION
0.006620999891 s, 2.408915281296 % : EXTRACT IMAGE
0.180309996009 s, 65.602096557617 % : COMPUTE
0.007213000208 s, 2.624302387238 % : COMPRESS IMAGE
0.045713998377 s, 16.632102966309 % : SAVE IMAGE INTO FILE
0.000572999998 s, 0.208474323153 % : FREE MEMORY
Total time:
0.274854004383 s
--------------------------

OMP_NUM_THREADS=12 

Time spent in different stages of the application:
0.000000000000 s, 0.000000000000 % : SETUP VARIABLES
0.000015000000 s, 0.003678715788 % : READ COMMAND LINE PARAMETERS
0.032846000046 s, 8.055405616760 % : READ IMAGE FROM FILE
0.000826000003 s, 0.202574610710 % : RESIZE IMAGE
0.000026000000 s, 0.006376440637 % : SETUP, MEMORY ALLOCATION
0.006604999769 s, 1.619861125946 % : EXTRACT IMAGE
0.313320994377 s, 76.841262817383 % : COMPUTE
0.007089000195 s, 1.738560914993 % : COMPRESS IMAGE
0.046363998204 s, 11.370664596558 % : SAVE IMAGE INTO FILE
0.000659000012 s, 0.161618232727 % : FREE MEMORY
Total time:
0.407750993967 s
--------------------------

OMP_NUM_THREADS=16 

Time spent in different stages of the application:
0.000001000000 s, 0.000319798390 % : SETUP VARIABLES
0.000017000000 s, 0.005436572712 % : READ COMMAND LINE PARAMETERS
0.034797001630 s, 11.128025054932 % : READ IMAGE FROM FILE
0.000929999980 s, 0.297412514687 % : RESIZE IMAGE
0.000023000001 s, 0.007355363108 % : SETUP, MEMORY ALLOCATION
0.006610999815 s, 2.114187240601 % : EXTRACT IMAGE
0.215277999640 s, 68.845558166504 % : COMPUTE
0.007040999830 s, 2.251700401306 % : COMPRESS IMAGE
0.047230999917 s, 15.104397773743 % : SAVE IMAGE INTO FILE
0.000768000027 s, 0.245605170727 % : FREE MEMORY
Total time:
0.312696993351 s
--------------------------

OMP_NUM_THREADS=1 

Time spent in different stages of the application:
0.000001000000 s, 0.000011098030 % : SETUP VARIABLES
0.000015000000 s, 0.000166470447 % : READ COMMAND LINE PARAMETERS
0.032457001507 s, 0.360208779573 % : READ IMAGE FROM FILE
0.000844999973 s, 0.009377835318 % : RESIZE IMAGE
0.000022000000 s, 0.000244156661 % : SETUP, MEMORY ALLOCATION
0.006612000056 s, 0.073380172253 % : EXTRACT IMAGE
8.907714843750 s, 98.858085632324 % : COMPUTE
0.006988000125 s, 0.077553033829 % : COMPRESS IMAGE
0.055084001273 s, 0.611323893070 % : SAVE IMAGE INTO FILE
0.000868999981 s, 0.009644187987 % : FREE MEMORY
Total time:
9.010607719421 s
--------------------------

OMP_NUM_THREADS=2 

Time spent in different stages of the application:
0.000000000000 s, 0.000000000000 % : SETUP VARIABLES
0.000012000000 s, 0.000207067133 % : READ COMMAND LINE PARAMETERS
0.036669999361 s, 0.632762610912 % : READ IMAGE FROM FILE
0.001043000026 s, 0.017997585237 % : RESIZE IMAGE
0.000028000000 s, 0.000483156648 % : SETUP, MEMORY ALLOCATION
0.007822000422 s, 0.134973257780 % : EXTRACT IMAGE
5.688636779785 s, 98.160812377930 % : COMPUTE
0.006972000003 s, 0.120306000113 % : COMPRESS IMAGE
0.053167000413 s, 0.917428195477 % : SAVE IMAGE INTO FILE
0.000870999997 s, 0.015029622242 % : FREE MEMORY
Total time:
5.795221805573 s
--------------------------

OMP_NUM_THREADS=4 

Time spent in different stages of the application:
0.000000000000 s, 0.000000000000 % : SETUP VARIABLES
0.000034000001 s, 0.000950912479 % : READ COMMAND LINE PARAMETERS
0.037785001099 s, 1.056771397591 % : READ IMAGE FROM FILE
0.001098999986 s, 0.030736848712 % : RESIZE IMAGE
0.000033000000 s, 0.000922944513 % : SETUP, MEMORY ALLOCATION
0.007825000212 s, 0.218849718571 % : EXTRACT IMAGE
3.466898918152 s, 96.962280273438 % : COMPUTE
0.007009999827 s, 0.196055784822 % : COMPRESS IMAGE
0.054042998701 s, 1.511475443840 % : SAVE IMAGE INTO FILE
0.000784999982 s, 0.021954892203 % : FREE MEMORY
Total time:
3.575512886047 s
--------------------------

OMP_NUM_THREADS=8 

Time spent in different stages of the application:
0.000000000000 s, 0.000000000000 % : SETUP VARIABLES
0.000018999999 s, 0.000761045667 % : READ COMMAND LINE PARAMETERS
0.035193998367 s, 1.409696936607 % : READ IMAGE FROM FILE
0.000922999985 s, 0.036970797926 % : RESIZE IMAGE
0.000034000001 s, 0.001361871138 % : SETUP, MEMORY ALLOCATION
0.006655000150 s, 0.266566276550 % : EXTRACT IMAGE
2.392142057419 s, 95.817337036133 % : COMPUTE
0.006980999839 s, 0.279624193907 % : COMPRESS IMAGE
0.053697001189 s, 2.150835275650 % : SAVE IMAGE INTO FILE
0.000920000020 s, 0.036850631237 % : FREE MEMORY
Total time:
2.496565103531 s
--------------------------

OMP_NUM_THREADS=12 

Time spent in different stages of the application:
0.000000000000 s, 0.000000000000 % : SETUP VARIABLES
0.000018000001 s, 0.000772774976 % : READ COMMAND LINE PARAMETERS
0.033968999982 s, 1.458355188370 % : READ IMAGE FROM FILE
0.000969999994 s, 0.041643984616 % : RESIZE IMAGE
0.000033000000 s, 0.001416754094 % : SETUP, MEMORY ALLOCATION
0.006618999876 s, 0.284166514874 % : EXTRACT IMAGE
2.223242044449 s, 95.448097229004 % : COMPUTE
0.007151000202 s, 0.307006329298 % : COMPRESS IMAGE
0.056497000158 s, 2.425525903702 % : SAVE IMAGE INTO FILE
0.000768999977 s, 0.033014662564 % : FREE MEMORY
Total time:
2.329267978668 s
--------------------------

OMP_NUM_THREADS=16 

Time spent in different stages of the application:
0.000001000000 s, 0.000046735153 % : SETUP VARIABLES
0.000015000000 s, 0.000701027282 % : READ COMMAND LINE PARAMETERS
0.035277999938 s, 1.648722767830 % : READ IMAGE FROM FILE
0.000844999973 s, 0.039491202682 % : RESIZE IMAGE
0.000031000000 s, 0.001448789728 % : SETUP, MEMORY ALLOCATION
0.006628000177 s, 0.309760600328 % : EXTRACT IMAGE
2.036561012268 s, 95.178993225098 % : COMPUTE
0.007120000198 s, 0.332754284143 % : COMPRESS IMAGE
0.052402000874 s, 2.449015617371 % : SAVE IMAGE INTO FILE
0.000836000021 s, 0.039070587605 % : FREE MEMORY
Total time:
2.139717102051 s
--------------------------

OMP_NUM_THREADS=1 

Time spent in different stages of the application:
0.000001000000 s, 0.000001135598 % : SETUP VARIABLES
0.000009000000 s, 0.000010220380 % : READ COMMAND LINE PARAMETERS
0.034768000245 s, 0.039482466877 % : READ IMAGE FROM FILE
0.000869999989 s, 0.000987970037 % : RESIZE IMAGE
0.000034000001 s, 0.000038610327 % : SETUP, MEMORY ALLOCATION
0.006620000117 s, 0.007517657708 % : EXTRACT IMAGE
87.953887939453 s, 99.880241394043 % : COMPUTE
0.007000000216 s, 0.007949184626 % : COMPRESS IMAGE
0.055082999170 s, 0.062552131712 % : SAVE IMAGE INTO FILE
0.001068999991 s, 0.001213954063 % : FREE MEMORY
Total time:
88.059341430664 s
--------------------------

OMP_NUM_THREADS=2 

Time spent in different stages of the application:
0.000000000000 s, 0.000000000000 % : SETUP VARIABLES
0.000018000001 s, 0.000031482006 % : READ COMMAND LINE PARAMETERS
0.037220999599 s, 0.065099537373 % : READ IMAGE FROM FILE
0.000873000012 s, 0.001526877168 % : RESIZE IMAGE
0.000024999999 s, 0.000043725006 % : SETUP, MEMORY ALLOCATION
0.006614000071 s, 0.011567887850 % : EXTRACT IMAGE
57.066787719727 s, 99.809822082520 % : COMPUTE
0.007046000101 s, 0.012323454954 % : COMPRESS IMAGE
0.055723000318 s, 0.097459539771 % : SAVE IMAGE INTO FILE
0.001210000017 s, 0.002116290387 % : FREE MEMORY
Total time:
57.175521850586 s
--------------------------

OMP_NUM_THREADS=4 

Time spent in different stages of the application:
0.000000000000 s, 0.000000000000 % : SETUP VARIABLES
0.000010000000 s, 0.000028017090 % : READ COMMAND LINE PARAMETERS
0.033211000264 s, 0.093047559261 % : READ IMAGE FROM FILE
0.000948000001 s, 0.002656020224 % : RESIZE IMAGE
0.000035000001 s, 0.000098059820 % : SETUP, MEMORY ALLOCATION
0.006634999998 s, 0.018589340150 % : EXTRACT IMAGE
35.536720275879 s, 99.563552856445 % : COMPUTE
0.007350999862 s, 0.020595364273 % : COMPRESS IMAGE
0.106324002147 s, 0.297888904810 % : SAVE IMAGE INTO FILE
0.001266999985 s, 0.003549765563 % : FREE MEMORY
Total time:
35.692501068115 s
--------------------------

OMP_NUM_THREADS=8 

Time spent in different stages of the application:
0.000000000000 s, 0.000000000000 % : SETUP VARIABLES
0.000015000000 s, 0.000059121914 % : READ COMMAND LINE PARAMETERS
0.037523001432 s, 0.147895440459 % : READ IMAGE FROM FILE
0.000882999972 s, 0.003480309853 % : RESIZE IMAGE
0.000024999999 s, 0.000098536519 % : SETUP, MEMORY ALLOCATION
0.006612000056 s, 0.026060936972 % : EXTRACT IMAGE
25.259189605713 s, 99.558105468750 % : COMPUTE
0.007110000122 s, 0.028023786843 % : COMPRESS IMAGE
0.059092000127 s, 0.232908800244 % : SAVE IMAGE INTO FILE
0.000853999984 s, 0.003366007470 % : FREE MEMORY
Total time:
25.371303558350 s
--------------------------

OMP_NUM_THREADS=12 

Time spent in different stages of the application:
0.000000000000 s, 0.000000000000 % : SETUP VARIABLES
0.000015000000 s, 0.000067332163 % : READ COMMAND LINE PARAMETERS
0.031550001353 s, 0.141621991992 % : READ IMAGE FROM FILE
0.001033999957 s, 0.004641430452 % : RESIZE IMAGE
0.000043000000 s, 0.000193018874 % : SETUP, MEMORY ALLOCATION
0.006587000098 s, 0.029567798600 % : EXTRACT IMAGE
22.174428939819 s, 99.536819458008 % : COMPUTE
0.007172000129 s, 0.032193753868 % : COMPRESS IMAGE
0.055975999683 s, 0.251265674829 % : SAVE IMAGE INTO FILE
0.000808999990 s, 0.003631448373 % : FREE MEMORY
Total time:
22.277614593506 s
--------------------------

OMP_NUM_THREADS=16 

Time spent in different stages of the application:
0.000000000000 s, 0.000000000000 % : SETUP VARIABLES
0.000015000000 s, 0.000078002478 % : READ COMMAND LINE PARAMETERS
0.032118998468 s, 0.167024105787 % : READ IMAGE FROM FILE
0.000890000025 s, 0.004628146999 % : RESIZE IMAGE
0.000026000000 s, 0.000135204304 % : SETUP, MEMORY ALLOCATION
0.006591000129 s, 0.034274287522 % : EXTRACT IMAGE
19.127559661865 s, 99.466476440430 % : COMPUTE
0.007170000114 s, 0.037285186350 % : COMPRESS IMAGE
0.054868999869 s, 0.285327881575 % : SAVE IMAGE INTO FILE
0.000916999998 s, 0.004768551793 % : FREE MEMORY
Total time:
19.230157852173 s
--------------------------

OMP_NUM_THREADS=1 

Time spent in different stages of the application:
0.000000000000 s, 0.000000000000 % : SETUP VARIABLES
0.000024999999 s, 0.000002812327 % : READ COMMAND LINE PARAMETERS
0.036012001336 s, 0.004051100928 % : READ IMAGE FROM FILE
0.000913999975 s, 0.000102818682 % : RESIZE IMAGE
0.000031000000 s, 0.000003487286 % : SETUP, MEMORY ALLOCATION
0.006680000108 s, 0.000751453859 % : EXTRACT IMAGE
888.834228515625 s, 99.987709045410 % : COMPUTE
0.007160000037 s, 0.000805450487 % : COMPRESS IMAGE
0.057425998151 s, 0.006460028235 % : SAVE IMAGE INTO FILE
0.001029000035 s, 0.000115755392 % : FREE MEMORY
Total time:
888.943481445312 s
--------------------------

OMP_NUM_THREADS=2 

Time spent in different stages of the application:
0.000000000000 s, 0.000000000000 % : SETUP VARIABLES
0.000037000002 s, 0.000006575220 % : READ COMMAND LINE PARAMETERS
0.040833000094 s, 0.007256376557 % : READ IMAGE FROM FILE
0.001028000028 s, 0.000182684482 % : RESIZE IMAGE
0.000029999999 s, 0.000005331259 % : SETUP, MEMORY ALLOCATION
0.007833999582 s, 0.001392169506 % : EXTRACT IMAGE
562.596008300781 s, 99.978172302246 % : COMPUTE
0.007211999968 s, 0.001281634788 % : COMPRESS IMAGE
0.064843997359 s, 0.011523338966 % : SAVE IMAGE INTO FILE
0.001025000005 s, 0.000182151358 % : FREE MEMORY
Total time:
562.718872070312 s
--------------------------

OMP_NUM_THREADS=4 

Time spent in different stages of the application:
0.000000000000 s, 0.000000000000 % : SETUP VARIABLES
0.000022000000 s, 0.000006458312 % : READ COMMAND LINE PARAMETERS
0.037154000252 s, 0.010906915180 % : READ IMAGE FROM FILE
0.000908999995 s, 0.000266845716 % : RESIZE IMAGE
0.000040999999 s, 0.000012035945 % : SETUP, MEMORY ALLOCATION
0.006643000059 s, 0.001950116712 % : EXTRACT IMAGE
340.475769042969 s, 99.949951171875 % : COMPUTE
0.007197999861 s, 0.002113042399 % : COMPRESS IMAGE
0.117540001869 s, 0.034505002201 % : SAVE IMAGE INTO FILE
0.001001000055 s, 0.000293853227 % : FREE MEMORY
Total time:
340.646270751953 s
--------------------------

OMP_NUM_THREADS=8 

Time spent in different stages of the application:
0.000001000000 s, 0.000000438565 % : SETUP VARIABLES
0.000028000000 s, 0.000012279820 % : READ COMMAND LINE PARAMETERS
0.104441002011 s, 0.045804165304 % : READ IMAGE FROM FILE
0.000951000024 s, 0.000417075295 % : RESIZE IMAGE
0.000022000000 s, 0.000009648429 % : SETUP, MEMORY ALLOCATION
0.006620999891 s, 0.002903738525 % : EXTRACT IMAGE
227.846221923828 s, 99.925376892090 % : COMPUTE
0.007180999964 s, 0.003149335040 % : COMPRESS IMAGE
0.049860998988 s, 0.021867288277 % : SAVE IMAGE INTO FILE
0.001041000010 s, 0.000456546142 % : FREE MEMORY
Total time:
228.016387939453 s
--------------------------

OMP_NUM_THREADS=12 

Time spent in different stages of the application:
0.000000000000 s, 0.000000000000 % : SETUP VARIABLES
0.000019999999 s, 0.000010225618 % : READ COMMAND LINE PARAMETERS
0.094327002764 s, 0.048227593303 % : READ IMAGE FROM FILE
0.001003999962 s, 0.000513326027 % : RESIZE IMAGE
0.000026000000 s, 0.000013293304 % : SETUP, MEMORY ALLOCATION
0.006632999983 s, 0.003391326405 % : EXTRACT IMAGE
195.426147460938 s, 99.917655944824 % : COMPUTE
0.007588999812 s, 0.003880110569 % : COMPRESS IMAGE
0.050445001572 s, 0.025791564956 % : SAVE IMAGE INTO FILE
0.001015000045 s, 0.000518950110 % : FREE MEMORY
Total time:
195.587203979492 s
--------------------------

OMP_NUM_THREADS=16 

Time spent in different stages of the application:
0.000000000000 s, 0.000000000000 % : SETUP VARIABLES
0.000016000000 s, 0.000009006921 % : READ COMMAND LINE PARAMETERS
0.036233998835 s, 0.020397298038 % : READ IMAGE FROM FILE
0.001067999983 s, 0.000601211912 % : RESIZE IMAGE
0.000024000001 s, 0.000013510380 % : SETUP, MEMORY ALLOCATION
0.006608999800 s, 0.003720421344 % : EXTRACT IMAGE
177.537139892578 s, 99.941429138184 % : COMPUTE
0.007216999773 s, 0.004062684253 % : COMPRESS IMAGE
0.051892001182 s, 0.029211694375 % : SAVE IMAGE INTO FILE
0.000980000012 s, 0.000551673875 % : FREE MEMORY
Total time:
177.641189575195 s
--------------------------

