100009484,19708641,19672314,19645607,19629198
100000000,19652612,19652615,19652613,19652612
100000000,21066993,18076451,14837926,14586911
100000000,21867804,17182949,12109733,11716204
100000000,21864276,17180674,12109894,11714973
100000000,21870797,17184846,12109584,11717252
100000000,21871441,17185249,12109541,11717468
100000000,22685577,17052412,11857381,10407611
100000000,25042951,16695403,11130728,6679993
100000000,25042940,16695401,11130733,6679996
100000000,23399010,15820791,11211254,7059032
100000000,18332818,13125316,11459437,8226908
100000000,24963053,16660297,11150496,6717304
100000000,25070013,16713472,11142707,6687221
100000000,25069668,16713270,11142575,6687133
100000000,18516842,13223377,11450879,8184979
28653350,5252903,3761486,3284311,2358684
