100000000,30285703,17746974,28437608,59052001,1,47346,1833115,9562,1761873,7089932,6188,1771858
100000000,30374001,17866033,28587394,58904640,0,0,1786604,0,1786603,7147284,872,1786603
100000000,23947900,12444746,17826233,53240498,0,1993600,2640782,0,1144268,4578937,2417,15585580
100000000,20305825,9372540,11729472,50033996,0,3122990,3124798,0,780207,3123485,3628,23401464
100000000,20302596,9371358,11734738,50050646,0,3122026,3124680,0,779699,3122735,5408,23383804
100000000,20308598,9373569,11725016,50019852,0,3123828,3124882,0,780641,3124114,2118,23416451
100000000,20309217,9373794,11724060,50016821,0,3124014,3124892,0,780734,3124250,1795,23419667
100000000,19361471,8732876,10082565,47145511,0,2306303,2307438,0,12578608,2307122,2854,19814135
100000000,16704240,6956756,5392717,38967494,0,0,0,0,45901141,2040,0,9736608
100000000,16704229,6956757,5392720,38967483,0,0,0,0,45901152,2037,0,9736608
100000000,20779504,6069396,4889482,41674041,0,172,41,0,42817601,2410,408,8983599
100000000,33340382,3333388,3335014,50015454,0,0,0,0,33317607,3254,1627,6663522
100000000,16950736,6905709,5275006,39167264,0,119,14,0,45769699,2236,152,9692670
100000000,16722313,6964288,5290301,39009667,0,0,0,0,45950842,2040,0,9747150
100000000,16722110,6964202,5291489,39009187,0,0,0,0,45950260,2040,0,9747024
100000000,32886687,3432717,3388329,49715137,0,108,10,0,33662338,3267,1584,6747677
28653350,9551639,958593,961835,14336349,2,2186,697,84,9535363,2046,626,1907099
number,of,instructions:,1628653276
