omp threads,PACKAGE_ENERGY:PACKAGE0,PACKAGE_ENERGY:PACKAGE1,DRAM_ENERGY:PACKAGE0,DRAM_ENERGY:PACKAGE1,TOTAL_ENERGY,TOTAL_TIME,POWER
1,1.881469726,0.992797851,0.281723022,0.24961853,3.405609129,0.049518,68.775175269599
2,3.585327148,2.513000488,0.731796264,0.622299194,7.452423094,0.090125,82.689854024965
4,4.911987304,3.771179199,0.913558959,0.840255737,10.436981199,0.111887,93.281446450437
6,5.169372558,4.428833007,0.949447631,0.865951538,11.413604734,0.115055,99.201292720873
8,5.135314941,4.800598144,0.94593811,0.860519409,11.742370604,0.114352,102.686184797817
10,5.640930175,4.897583007,0.973831176,0.885314941,12.397659299,0.117327,105.667572672957
12,5.870727539,6.007141113,1.003112792,0.902267456,13.7832489,0.122184,112.807314378315
14,6.990844726,6.145385742,1.045333862,0.935455322,15.117019652,0.126158,119.826088333677
16,8.200073242,8.197265625,1.085083007,0.972412109,18.454833983,0.132034,139.773346130542
18,9.122436523,8.461730957,1.059371948,0.956817626,19.600357054,0.128896,152.063346061941
20,9.958435058,9.175231933,1.132308959,1.005889892,21.271865842,0.136975,155.297432684797
22,10.092346191,9.312316894,1.130142211,0.993881225,21.528686521,0.136036,158.257273964245
24,11.054138183,9.22680664,1.164413452,1.050048828,22.495407103,0.145814,154.274672548589
26,9.368652343,5.582946777,0.872497558,0.748489379,16.572586057,0.118293,140.097774652769
28,11.784362792,11.157653808,1.255264282,1.09815979,25.295440672,0.152842,165.500586697374
30,11.707458496,11.211975097,1.241867065,1.089874267,25.251174925,0.151719,166.433834424166
32,11.898864746,11.411010742,1.257308959,1.096054077,25.663238524,0.152954,167.784029995946
34,12.243408203,11.699401855,1.292846679,1.128372192,26.364028929,0.159027,165.783350808353
36,12.910644531,12.475524902,1.355880737,1.188430786,27.930480956,0.167259,166.989405389247
38,13.427612304,12.712890625,1.376159667,1.227340698,28.744003294,0.171769,167.341041130821
40,14.087768554,13.436828613,1.455825805,1.276840209,30.257263181,0.180366,167.754805124026
42,10.710510253,10.255249023,1.109680175,0.910675048,22.986114499,0.146343,157.070133173435
44,15.026245117,13.941711425,1.550872802,1.347213745,31.866043089,0.191352,166.53101660291
46,16.823730468,15.750976562,1.677078247,1.469238281,35.721023558,0.213902,166.997146160391
48,15.534301757,14.940185546,1.599304199,1.37435913,33.448150632,0.196746,170.006763197219
50,16.280212402,15.220214843,1.654739379,1.42539978,34.580566404,0.204772,168.873510069736
52,16.812011718,16.152038574,1.701934814,1.443191528,36.109176634,0.209516,172.345675910193
54,16.284057617,15.72491455,1.620254516,1.42224121,35.051467893,0.202219,173.334196554231
56,25.496154785,24.779785156,2.343597412,2.101943969,54.721481322,0.318687,171.709173333082
