rm -f pathfinder
g++ pathfinder.cpp -fopenmp -o pathfinder
+++++++++++++++++++++++++++++++++++++++++++++++++++++

[CASE4: Size = 100k x 10k]

-----------------------------------------------------

OMP_NUM_THREADS=1 

Time: 28348420557 (micro seconds)
-----------------------------------------------------

