1000000000 1780841947 692524148 999705255 1051034432 346202032 460760120 653485033 794229798 896769698 986498351 999386962
1000000000 1780719386 692593583 999585373 1050889087 346296919 460901668 653702441 794372530 896978947 986759436 999585366
1000000000 1780719381 692593579 999585365 1050889091 346296913 460901665 653702436 794372530 896978951 986759441 999585371
1000000000 1780719392 692593588 999585368 1050889093 346296929 460901679 653702447 794372535 896978953 986759439 999585370
1000000000 1780719377 692593580 999585369 1050889083 346296917 460901664 653702435 794372522 896978939 986759427 999585358
1000000000 1780719387 692593577 999585363 1050889093 346296912 460901666 653702438 794372532 896978953 986759443 999585373
1000000000 1780719386 692593587 999585366 1050889089 346296926 460901674 653702442 794372531 896978949 986759435 999585366
1000000000 1780719382 692593584 999585375 1050889086 346296919 460901666 653702440 794372529 896978946 986759435 999585365
1000000000 1780719385 692593576 999585360 1050889092 346296914 460901667 653702437 794372529 896978950 986759437 999585368
1000000000 1780719385 692593586 999585366 1050889089 346296925 460901674 653702442 794372531 896978949 986759437 999585368
1000000000 1780719384 692593584 999585374 1050889087 346296920 460901669 653702440 794372528 896978945 986759434 999585364
1000000000 1780719383 692593577 999585361 1050889091 346296912 460901664 653702437 794372530 896978951 986759441 999585371
1000000000 1780719388 692593584 999585363 1050889088 346296924 460901674 653702441 794372531 896978948 986759433 999585364
1000000000 1780719381 692593584 999585364 1050889087 346296923 460901670 653702440 794372526 896978943 986759432 999585363
1000000000 1780719388 692593579 999585376 1050889094 346296912 460901665 653702439 794372534 896978956 986759444 999585374
1000000000 1780719385 692593586 999585366 1050889089 346296925 460901674 653702442 794372531 896978949 986759437 999585368
1000000000 1780719377 692593582 999585359 1050889085 346296922 460901669 653702437 794372523 896978939 986759427 999585358
1000000000 1780719386 692593578 999585374 1050889089 346296912 460901664 653702439 794372531 896978952 986759439 999585369
1000000000 1780719390 692593586 999585366 1050889092 346296923 460901673 653702442 794372534 896978953 986759442 999585372
1000000000 1780719383 692593583 999585363 1050889087 346296922 460901671 653702440 794372527 896978943 986759432 999585363
1000000000 1780719377 692593578 999585371 1050889086 346296914 460901663 653702436 794372526 896978946 986759431 999585362
1000000000 1780719390 692593582 999585362 1050889091 346296917 460901670 653702438 794372532 896978951 986759441 999585371
1000000000 1780719383 692593587 999585368 1050889091 346296928 460901675 653702444 794372530 896978947 986759436 999585367
1000000000 1780719386 692593578 999585374 1050889089 346296912 460901664 653702439 794372531 896978952 986759439 999585369
1000000000 1780719380 692593579 999585357 1050889085 346296916 460901666 653702433 794372524 896978942 986759430 999585361
1000000000 1780719385 692593587 999585365 1050889092 346296929 460901676 653702446 794372533 896978950 986759437 999585368
1000000000 1780719385 692593581 999585378 1050889088 346296914 460901665 653702439 794372530 896978950 986759438 999585368
1000000000 1780719379 692593575 999585354 1050889086 346296915 460901664 653702432 794372524 896978942 986759431 999585362
1000000000 1780719392 692593588 999585368 1050889093 346296928 460901678 653702446 794372534 896978952 986759438 999585369
1000000000 1780719380 692593582 999585375 1050889085 346296914 460901663 653702437 794372526 896978946 986759435 999585365
1000000000 1780719388 692593581 999585364 1050889092 346296916 460901670 653702439 794372533 896978952 986759442 999585372
1000000000 1780719383 692593581 999585359 1050889088 346296926 460901672 653702440 794372527 896978944 986759429 999585361
1000000000 1780719386 692593582 999585372 1050889088 346296917 460901668 653702441 794372531 896978948 986759437 999585367
1000000000 1780719380 692593580 999585366 1050889090 346296915 460901665 653702436 794372529 896978950 986759440 999585370
1000000000 1780719389 692593589 999585367 1050889092 346296929 460901677 653702446 794372533 896978951 986759437 999585368
1000000000 1780719382 692593577 999585368 1050889084 346296915 460901664 653702436 794372524 896978941 986759429 999585360
1000000000 1780719381 692593578 999585362 1050889090 346296912 460901664 653702435 794372529 896978950 986759440 999585370
1000000000 1780719391 692593588 999585369 1050889092 346296928 460901678 653702445 794372534 896978952 986759438 999585369
1000000000 1780719383 692593582 999585370 1050889086 346296917 460901666 653702440 794372529 896978946 986759435 999585365
1000000000 1780719382 692593577 999585364 1050889093 346296914 460901666 653702436 794372528 896978949 986759438 999585369
1000000000 1780719387 692593585 999585365 1050889088 346296926 460901674 653702442 794372531 896978949 986759435 999585366
1000000000 1780719382 692593584 999585375 1050889085 346296919 460901666 653702440 794372527 896978944 986759433 999585363
1000000000 1780719384 692593578 999585361 1050889092 346296912 460901666 653702436 794372531 896978952 986759442 999585372
1000000000 1780719386 692593585 999585365 1050889090 346296927 460901675 653702443 794372531 896978949 986759434 999585366
1000000000 1780719382 692593584 999585373 1050889085 346296920 460901669 653702438 794372526 896978942 986759431 999585361
1000000000 1780719384 692593578 999585363 1050889094 346296912 460901664 653702439 794372532 896978954 986759444 999585374
1000000000 1780719391 692593585 999585367 1050889090 346296926 460901676 653702443 794372533 896978951 986759437 999585368
1000000000 1780719376 692593582 999585359 1050889083 346296921 460901668 653702436 794372522 896978938 986759426 999585357
1000000000 1780719387 692593578 999585374 1050889093 346296912 460901665 653702440 794372533 896978955 986759443 999585373
1000000000 1780719389 692593587 999585368 1050889091 346296925 460901674 653702443 794372534 896978952 986759440 999585371
1000000000 1780719378 692593585 999585373 1050889084 346296920 460901667 653702437 794372524 896978941 986759430 999585360
1000000000 1780719383 692593575 999585359 1050889090 346296914 460901666 653702439 794372530 896978949 986759435 999585366
1000000000 1780719388 692593585 999585363 1050889089 346296920 460901670 653702439 794372531 896978950 986759439 999585369
1000000000 1780719384 692593584 999585367 1050889089 346296925 460901674 653702441 794372528 896978945 986759434 999585365
1000000000 1780719385 692593579 999585372 1050889092 346296912 460901663 653702440 794372532 896978954 986759442 999585372
1000000000 1780719382 692593580 999585360 1050889084 346296917 460901668 653702433 794372525 896978942 986759429 999585360
1000000000 1780719384 692593587 999585366 1050889092 346296930 460901677 653702447 794372533 896978950 986759437 999585368
1000000000 1780719386 692593579 999585376 1050889090 346296912 460901664 653702439 794372531 896978951 986759440 999585370
1000000000 1780719378 692593577 999585356 1050889083 346296915 460901663 653702430 794372521 896978940 986759428 999585359
1000000000 1780719388 692593589 999585367 1050889094 346296930 460901678 653702448 794372535 896978952 986759439 999585370
1000000000 1780719385 692593581 999585377 1050889086 346296913 460901664 653702437 794372528 896978948 986759436 999585366
1000000000 1780719385 692593582 999585361 1050889090 346296917 460901669 653702438 794372531 896978950 986759440 999585370
1000000000 1780719386 692593580 999585361 1050889090 346296926 460901674 653702442 794372529 896978946 986759431 999585363
1000000000 1780719381 692593582 999585373 1050889085 346296915 460901664 653702437 794372526 896978945 986759434 999585364
1000000000 1780719384 692593580 999585365 1050889091 346296915 460901667 653702437 794372531 896978951 986759441 999585371
1000000000 1780719388 692593589 999585367 1050889094 346296930 460901678 653702448 794372535 896978952 986759439 999585370
1000000000 1780719383 692593576 999585366 1050889082 346296914 460901663 653702434 794372523 896978940 986759427 999585358
1000000000 1780719381 692593579 999585365 1050889091 346296913 460901665 653702436 794372530 896978951 986759441 999585371
1000000000 1780719388 692593589 999585367 1050889092 346296929 460901677 653702446 794372533 896978951 986759437 999585368
1000000000 1780719385 692593581 999585374 1050889086 346296915 460901666 653702438 794372528 896978947 986759436 999585366
1000000000 1780719379 692593575 999585357 1050889089 346296914 460901664 653702435 794372526 896978945 986759434 999585365
1000000000 1780719390 692593587 999585368 1050889091 346296926 460901676 653702443 794372533 896978951 986759437 999585368
1000000000 1780719382 692593584 999585372 1050889086 346296919 460901666 653702440 794372529 896978946 986759435 999585365
1000000000 1780719385 692593578 999585366 1050889092 346296913 460901667 653702437 794372531 896978952 986759442 999585372
1000000000 1780719385 692593584 999585363 1050889089 346296926 460901674 653702442 794372529 896978947 986759432 999585364
1000000000 1780719381 692593584 999585375 1050889085 346296920 460901667 653702439 794372526 896978943 986759432 999585362
1000000000 1780719386 692593577 999585360 1050889093 346296912 460901666 653702438 794372532 896978953 986759443 999585373
1000000000 1772763121 693636957 991230381 1050707837 353414792 465690409 655048760 791905103 891762845 978793914 991227976
1000000000 1517191752 725054457 725130889 1047993702 578754174 619523027 697867242 711464249 725063296 725077032 725089680
1000000000 1517204528 725092197 725168629 1048018092 578790174 619555543 697907307 711503153 725101039 725114775 725127423
1000000000 1517204308 725091555 725167987 1048017675 578789559 619554988 697906623 711502489 725100395 725114131 725126779
1000000000 1517207790 725101839 725178271 1048024319 578799370 619563849 697917541 711513090 725110679 725124415 725137063
1000000000 1517208477 725103876 725180308 1048025635 578801313 619565605 697919705 711515191 725112717 725126453 725139101
1000000000 1517207492 725100961 725177393 1048023749 578798530 619563090 697916606 711512183 725109799 725123535 725136183
1000000000 1517211873 725113769 725189639 1048031959 578810865 619574209 697930287 711525403 725122545 725136180 725148735
1000000000 1517209717 725107541 725183973 1048028000 578804807 619568760 697923592 711518966 725116379 725130115 725142763
1000000000 1517207975 725102385 725178817 1048024676 578799891 619564320 697918122 711513654 725111227 725124963 725137611
1000000000 1517208794 725104805 725181237 1048026235 578802198 619566404 697920689 711516147 725113645 725127381 725140029
1000000000 1517209668 725107391 725183823 1048027907 578804666 619568632 697923435 711518813 725116231 725129967 725142615
1000000000 1517210697 725110438 725186870 1048029872 578807570 619571256 697926667 711521952 725119276 725133012 725145660
1000000000 1517209659 725107357 725183789 1048027888 578804634 619568604 697923400 711518779 725116199 725129935 725142583
1000000000 1517209258 725106047 725181917 1048026967 578803499 619567556 697922090 711517444 725114823 725128458 725141013
1000000000 1517208584 725104185 725180617 1048025834 578801606 619565869 697920030 711515507 725113024 725126760 725139408
1000000000 1517211241 725112039 725188471 1048030910 578809100 619572637 697928369 711523604 725120879 725134615 725147263
1000000000 1517209260 725106190 725182622 1048027129 578803519 619567597 697922159 711517574 725115029 725128765 725141413
1000000000 1517210658 725110312 725186744 1048029795 578807451 619571149 697926536 711521825 725119154 725132890 725145538
1000000000 1517210416 725109602 725186034 1048029336 578806774 619570536 697925781 711521091 725118441 725132177 725144825
1000000000 1517208051 725102481 725178351 1048024659 578800097 619564483 697918303 711513767 725111255 725124890 725137445
1000000000 1517209987 725108331 725184763 1048028517 578805562 619569442 697924433 711519782 725117172 725130908 725143556
1000000000 1517209499 725106894 725183326 1048027584 578804192 619568205 697922908 711518301 725115734 725129470 725142118
1000000000 1517207568 725101180 725177612 1048023895 578798740 619563280 697916840 711512410 725110020 725123756 725136404
1000000000 1517207683 725101523 725177955 1048024115 578799068 619563577 697917206 711512765 725110364 725124100 725136748
1000000000 1517211118 725111681 725188113 1048030678 578808757 619572327 697927987 711523233 725120519 725134255 725146903
1000000000 1517211272 725112130 725188562 1048030968 578809186 619572716 697928467 711523699 725120971 725134707 725147355
1000000000 1517212005 725114168 725190038 1048032212 578811243 619574550 697930708 711525812 725122941 725136576 725149131
1000000000 1517210549 725109988 725186420 1048029587 578807143 619570870 697926191 711521490 725118829 725132565 725145213
1000000000 1517213643 725119130 725195562 1048035493 578815863 619578746 697935897 711530914 725127971 725141707 725154355
1000000000 1517211806 725113709 725190141 1048031989 578810691 619574075 697930141 711525325 725122549 725136285 725148933
1000000000 1517208847 725104963 725181395 1048026338 578802350 619566541 697920858 711516311 725113804 725127540 725140188
1000000000 1517211610 725113125 725189557 1048031611 578810134 619573572 697929521 711524723 725121965 725135701 725148349
1000000000 1517212886 725116768 725192638 1048033893 578813724 619576791 697933469 711528493 725125542 725139177 725151732
1000000000 1517208672 725104450 725180882 1048026004 578801860 619566098 697920312 711515781 725113289 725127025 725139673
1000000000 1517210288 725109219 725185651 1048029088 578806408 619570207 697925375 711520697 725118059 725131795 725144443
1000000000 1517211023 725111393 725187825 1048030495 578808483 619572080 697927683 711522938 725120234 725133970 725146618
1000000000 1517211310 725112242 725188674 1048031041 578809292 619572811 697928584 711523813 725121082 725134818 725147466
1000000000 1517209815 725107831 725184263 1048028190 578805086 619569012 697923903 711519267 725116671 725130407 725143055
1000000000 1517209888 725108036 725184468 1048028326 578805281 619569188 697924119 711519478 725116877 725130613 725143261
1000000000 1517210695 725110289 725186159 1048029705 578807545 619571210 697926592 711521815 725119063 725132698 725145253
1000000000 1517211225 725111993 725188425 1048030881 578809054 619572596 697928319 711523556 725120833 725134569 725147217
1000000000 1517210534 725109945 725186377 1048029557 578807101 619570833 697926146 711521446 725118786 725132522 725145170
1000000000 1517210958 725111204 725187636 1048030371 578808302 619571917 697927482 711522743 725120044 725133780 725146428
1000000000 1517211314 725112257 725188689 1048031049 578809307 619572824 697928600 711523828 725121096 725134832 725147480
1000000000 1517210787 725110695 725187127 1048030043 578807816 619571478 697926941 711522218 725119535 725133271 725145919
1000000000 1517209231 725106100 725182532 1048027072 578803434 619567520 697922064 711517482 725114940 725128676 725141324
1000000000 1517213177 725117623 725193493 1048034445 578814540 619577529 697934378 711529376 725126399 725140034 725152589
1000000000 1517211375 725112440 725188872 1048031167 578809480 619572980 697928792 711524015 725121277 725135013 725147661
1000000000 1517210372 725109469 725185901 1048029252 578806648 619570423 697925641 711520955 725118310 725132046 725144694
1000000000 1517211597 725113088 725189520 1048031588 578810099 619573540 697929482 711524685 725121928 725135664 725148312
1000000000 1517210336 725109361 725185793 1048029177 578806544 619570329 697925526 711520844 725118201 725131937 725144585
1000000000 1517208709 725104558 725180990 1048026079 578801964 619566192 697920428 711515893 725113399 725127135 725139783
1000000000 1517210476 725109648 725185518 1048029292 578806933 619570658 697925912 711521155 725118423 725132058 725144613
1000000000 1517210720 725110494 725186926 1048029914 578807626 619571306 697926729 711522012 725119335 725133071 725145719
1000000000 1517210020 725108428 725184860 1048028575 578805655 619569526 697924536 711519882 725117268 725131004 725143652
1000000000 1517211938 725114099 725190531 1048032241 578811063 619574411 697930555 711525727 725122939 725136675 725149323
1000000000 1517211469 725112720 725189152 1048031347 578809746 619573221 697929089 711524303 725121557 725135293 725147941
1000000000 1517209755 725107642 725184074 1048028073 578804906 619568850 697923703 711519074 725116485 725130221 725142869
1000000000 1517209802 725107784 725184216 1048028160 578805041 619568971 697923852 711519218 725116624 725130360 725143008
1000000000 1517210609 725110038 725185908 1048029543 578807305 619570993 697926325 711521556 725118812 725132447 725145002
1000000000 1517210805 725110753 725187185 1048030079 578807871 619571528 697927002 711522277 725119592 725133328 725145976
1000000000 1517209987 725108333 725184765 1048028514 578805563 619569443 697924434 711519784 725117173 725130909 725143557
1000000000 1517211283 725112160 725188592 1048030992 578809215 619572742 697928499 711523730 725121002 725134738 725147386
1000000000 1517212398 725115454 725191886 1048033116 578812357 619575579 697931994 711527124 725124294 725138030 725150678
1000000000 1517212589 725116022 725192454 1048033483 578812896 619576066 697932594 711527707 725124860 725138596 725151244
1000000000 1517211820 725113615 725189485 1048031856 578810718 619574076 697930124 711525245 725122391 725136026 725148581
1000000000 1517211380 725112455 725188887 1048031176 578809494 619572994 697928809 711524031 725121293 725135029 725147677
1000000000 1517210211 725108992 725185424 1048028941 578806192 619570011 697925133 711520463 725117832 725131568 725144216
1000000000 1517212291 725115138 725191570 1048032915 578812057 619575309 697931662 711526801 725123981 725137717 725150365
1000000000 1517209824 725107853 725184285 1048028203 578805104 619569028 697923922 711519287 725116691 725130427 725143075
1000000000 1517210727 725110514 725186946 1048029927 578807644 619571323 697926750 711522032 725119355 725133091 725145739
1000000000 1517209726 725107569 725184001 1048028019 578804834 619568784 697923622 711518995 725116407 725130143 725142791
1000000000 1517210348 725109256 725185126 1048029043 578806561 619570322 697925498 711520753 725118034 725131669 725144224
574950689 872327127 416898665 416958446 602566614 332775214 356214231 401266436 409088204 416909045 416919502 416929421
number of instructions: 151574950619
