261625,4866,2062,137
249510,3929,880,35
249486,3927,880,35
249444,3927,880,35
249488,3928,880,35
249505,3930,880,35
249458,3926,880,35
249510,3928,880,35
249480,3927,880,35
185664,3707,1421,93
number,of,instructions:,9700625286
