217639138,57911,191950550,196371690,201568646,212120213,217616681,217616989,3063,42296743,77152594,89551286,95560748,102739359,115986228,95194185,26387,86491311,88645500,93081509,95189004,95190181,95190609,0,34073217,77878437,88298604,90765108,90765338,90765339
217699854,9520,192001255,196402977,201587455,212174445,217692755,217692869,0,42226210,77137113,89489929,95477959,102642130,115938100,95003017,0,86302979,88462397,92886185,95001598,95002673,95003015,0,34111532,77858356,88212583,90681847,90681961,90681961
217699561,9520,192005858,196408418,201586458,212174782,217692464,217692578,0,42227368,77133404,89492173,95480771,102635909,115940243,95014238,0,86314018,88473606,92897120,95012818,95013894,95014236,0,34111053,77864979,88220159,90689014,90689128,90689128
217696879,9519,191994111,196401224,201578292,212165650,217689609,217689724,0,42225026,77138381,89490314,95482271,102635753,115940741,94998826,0,86298600,88459142,92881451,94997398,94998479,94998824,0,34111577,77855757,88209143,90679079,90679194,90679194
217700114,9517,192006593,196406563,201582071,212173294,217692989,217693103,0,42226003,77134700,89490393,95478267,102631456,115939191,95006968,0,86309245,88468940,92889804,95005547,95006624,95006966,0,34111577,77860780,88215228,90684515,90684629,90684629
217700066,9522,192002884,196403929,201584982,212176078,217692948,217693063,0,42225994,77135987,89488716,95472095,102631995,115940270,95002523,0,86305102,88464606,92885696,95001101,95002176,95002521,0,34111514,77858097,88212317,90681612,90681727,90681727
217695552,9517,191989851,196393106,201580184,212168625,217688329,217688443,0,42224698,77136682,89489695,95475509,102637037,115941390,95000498,0,86297555,88458455,92882782,94999078,95000154,95000496,0,34110198,77856759,88210220,90679975,90680089,90680089
217700635,9520,192003757,196400201,201581666,212172443,217693536,217693650,0,42226121,77135551,89488674,95470618,102632385,115937744,95003652,0,86303608,88463081,92887040,95002233,95003308,95003650,0,34111489,77858482,88212725,90681994,90682108,90682108
217700721,9519,192006137,196403550,201582428,212176648,217693605,217693720,0,42226690,77135871,89490549,95472473,102633762,115939966,95005706,0,86307283,88467068,92888748,95004282,95005359,95005704,0,34111057,77859718,88214111,90683466,90683581,90683581
152659081,25545,134628476,137687214,141361256,148776630,152652046,152652138,25,29633916,54059088,62751344,66883213,71943466,81234982,66628143,157,60524942,62034839,65147558,66626160,66626939,66627185,25,23887559,54528390,61767099,63494298,63495904,63509561
number,of,instructions:,9700625286
