1000000000,4133892,1503888,2066743,920822,11498886,2524759,2535475,1376941,32325403,4151046,5678331,2507987,107083897,6373495,5750314
1000000000,3463125,1513600,1531645,1023079,7314358,2209063,1856436,1215605,21800665,2768602,2453960,1923766,71714950,2933552,3432289
1000000000,3460580,1505310,1528958,1012377,7317716,2209504,1855864,1213547,21800913,2769733,2453209,1923524,71716857,2934508,3430969
1000000000,3458604,1501929,1526871,1009515,7313257,2208004,1854040,1212138,21794601,2769379,2451249,1922127,71706949,2933833,3428643
1000000000,3456922,1500804,1527177,1009259,7309115,2207306,1853813,1212307,21791102,2767216,2449770,1922062,71700382,2932547,3426291
1000000000,3456620,1500053,1526761,1008790,7310038,2207252,1853786,1212009,21790407,2767715,2450123,1921817,71697229,2932833,3426623
1000000000,3455485,1499036,1526246,1008216,7307755,2206378,1853216,1211461,21785828,2767555,2448301,1920964,71689032,2933042,3424611
1000000000,3459346,1501654,1527777,1009800,7322147,2210189,1857123,1213559,21802629,2771208,2454421,1923880,71718374,2935839,3432408
1000000000,3461768,1503654,1528525,1009945,7329421,2213815,1858742,1214931,21812029,2775501,2459025,1926393,71732599,2940205,3438202
1000000000,3458888,1501420,1527354,1008627,7323589,2211158,1855793,1212998,21807192,2773281,2454161,1923857,71723576,2939366,3432491
1000000000,3456836,1500314,1527146,1008878,7318246,2208975,1855241,1212777,21802544,2769742,2451483,1922668,71715661,2935763,3428774
1000000000,3456876,1500342,1526906,1008710,7317916,2208942,1855148,1212688,21802264,2769712,2451726,1922475,71717025,2935368,3428753
1000000000,3459058,1502900,1528756,1010846,7321405,2211310,1857032,1214790,21807350,2771585,2453793,1925126,71723988,2935930,3431770
1000000000,3456201,1499983,1527649,1008671,7317057,2208799,1856757,1212543,21799620,2771569,2452603,1925155,71712063,2933038,3431470
1000000000,3457548,1501381,1528340,1009554,7321500,2209829,1857695,1213736,21803993,2772751,2454067,1926283,71718859,2934106,3433535
1000000000,3459518,1501803,1528432,1009232,7325772,2211939,1858559,1213805,21808682,2777267,2456228,1927659,71726747,2937041,3436869
1000000000,3457568,1500703,1527655,1009312,7315141,2208925,1856008,1212769,21795447,2771627,2452574,1925629,71707336,2932666,3430892
739482629,2558239,1105421,1127290,742998,5390259,1629662,1366630,893471,16095866,2038701,1812717,1416843,53004010,2163673,2532539
