979
8975.000000
0.542801 0.454539 0.525957 0.487804 0.472106 0.473090 0.541310 0.538638 0.518774 0.532081 0.501173 0.537304 0.514538 0.524327 0.506067 0.544845 0.491843 0.446278 0.528087 0.555651 0.449831 0.464096 0.487552 0.507191 0.494540 0.474726 0.488832 0.535097 0.443321 0.472080 0.500137 0.535874 0.519236 0.464070 0.454517 0.456978 0.515150 0.500194 0.471350 0.469133 0.498002 0.529808 0.511063 0.536102 0.485505 0.529771 0.476860 0.488580 0.532125 0.455540 0.526106 0.478879 0.486861 0.504450 0.488868 0.483725 0.477851 0.501661 0.469840 0.514201 0.542615 0.515247 0.505443 0.471673 0.460496 0.448779 0.554989 0.483199 0.550293 0.534582 0.513020 0.505986 0.544284 0.517121 0.476448 0.522902 0.498878 0.487548 0.462077 0.515087 0.544045 0.495527 0.513289 0.493466 0.497480 0.517164 0.505762 0.494211 0.491016 0.528927 0.548467 0.451487 0.477663 0.516376 0.497929 0.538585 0.469003 0.458267 0.479159 0.534942 0.486229 0.521619 0.486514 0.551679 0.494028 0.515645 0.467261 0.550358 0.468579 0.532774 0.524007 0.528650 0.516311 0.466056 0.493357 0.467887 0.529863 0.467704 0.518067 0.454588 0.495744 0.508462 0.499439 0.478609 0.522528 0.472718 0.506342 0.484657 0.544700 0.506767 0.533780 0.530160 0.458410 0.509814 0.478871 0.485044 0.478135 0.489183 0.482855 0.537058 0.494066 0.548658 0.471156 0.540524 0.496126 0.524918 0.506488 0.502321 0.457047 0.531965 0.488938 0.468489 0.519350 0.506277 0.510187 0.515017 0.521904 0.469327 0.480900 0.463357 0.481533 0.527009 0.530169 0.499949 0.485793 0.473431 0.517881 0.534439 0.539552 0.471759 0.458527 0.467243 0.483272 0.488003 0.481200 0.505935 0.530644 0.494131 0.510493 0.504312 0.478746 0.499531 0.524196 0.494325 0.537721 0.509317 0.481604 0.475885 0.501315 0.487852 0.467756 0.529354 0.534324 0.524923 0.477014 0.487460 0.525584 0.463987 0.476160 0.529923 0.534921 0.473217 0.489712 0.477263 0.520043 0.476448 0.510994 0.504669 0.473321 0.476508 0.523107 0.462786 0.465300 0.518141 0.488001 0.538720 0.479967 0.528550 0.543994 0.464219 0.532961 0.555810 0.539811 0.481129 0.477902 0.454138 0.519530 0.480871 0.503435 0.530363 0.488616 0.513316 0.465756 0.496014 0.511843 0.518854 0.471869 0.487715 0.458136 0.473791 0.476409 0.486673 0.497709 0.472434 0.476330 0.480961 0.486403 0.534133 0.529995 0.457184 0.510452 0.508008 0.500109 0.528910 0.499967 0.518132 

2128
5934.000000
0.470879 0.462664 0.523113 0.527141 0.491660 0.525566 0.511423 0.460415 0.546790 0.521291 0.489137 0.457594 0.532820 0.505427 0.517463 0.472418 0.439177 0.510054 0.509322 0.527135 0.552406 0.508527 0.452564 0.446210 0.515567 0.570672 0.476937 0.544223 0.485360 0.540451 0.509433 0.464681 0.517305 0.550174 0.545441 0.555485 0.487716 0.504264 0.446752 0.501765 0.484485 0.508967 0.518845 0.484833 0.485145 0.522438 0.511193 0.452504 0.460347 0.497623 0.535567 0.544675 0.514336 0.501342 0.489954 0.516482 0.447723 0.507192 0.522651 0.498255 0.504281 0.527706 0.478566 0.488621 0.518967 0.487211 0.512620 0.506839 0.442786 0.519851 0.470982 0.523342 0.501072 0.480690 0.513629 0.469181 0.463869 0.541793 0.518372 0.464865 0.442072 0.530590 0.430790 0.523911 0.481381 0.500765 0.492145 0.501759 0.442855 0.506319 0.445246 0.505558 0.456211 0.484203 0.489710 0.482544 0.526504 0.520732 0.515675 0.513922 0.499096 0.495190 0.524568 0.485915 0.506063 0.502659 0.482270 0.523951 0.564800 0.561479 0.462031 0.528699 0.491343 0.478783 0.550963 0.498124 0.488517 0.545124 0.531497 0.487305 0.478249 0.511599 0.468972 0.546776 0.528332 0.480787 0.514308 0.480569 0.523666 0.536793 0.535807 0.493423 0.524394 0.530604 0.467793 0.512886 0.451946 0.456433 0.545773 0.453747 0.477197 0.475753 0.494854 0.509798 0.486843 0.456599 0.500684 0.513818 0.469470 0.481709 0.543391 0.483771 0.548567 0.497404 0.465245 0.445551 0.452362 0.461207 0.558618 0.560701 0.512854 0.509813 0.486699 0.476776 0.468462 0.531942 0.467638 0.460119 0.510903 0.530261 0.464679 0.477962 0.544002 0.558238 0.514218 0.481078 0.513998 0.448005 0.469381 0.498708 0.516775 0.452727 0.456088 0.456727 0.482799 0.452951 0.489943 0.483053 0.502934 0.484358 0.467021 0.454561 0.540620 0.497850 0.485576 0.553339 0.516399 0.458721 0.509645 0.486373 0.498944 0.534490 0.495224 0.471380 0.477550 0.442682 0.497892 0.505807 0.514092 0.539171 0.481712 0.525385 0.504603 0.528065 0.543820 0.480761 0.457058 0.494522 0.534037 0.487554 0.471416 0.478408 0.494805 0.508444 0.547192 0.488208 0.526311 0.534066 0.504664 0.487035 0.520695 0.491035 0.482002 0.536534 0.545183 0.485080 0.497071 0.547287 0.481753 0.461157 0.455135 0.529127 0.519603 0.547882 0.551072 0.534331 0.533753 0.536126 0.514079 0.497704 0.498514 0.528474 0.444479 0.520473 0.532194 0.507855 

5364
19938.000000
0.491438 0.515892 0.510271 0.507910 0.497247 0.493257 0.507583 0.479706 0.489634 0.524132 0.465120 0.488206 0.515619 0.509231 0.518245 0.515365 0.495276 0.508556 0.514197 0.471428 0.500655 0.489905 0.533858 0.506966 0.509359 0.521654 0.480213 0.502713 0.507834 0.548826 0.483035 0.515555 0.499791 0.515335 0.525609 0.503022 0.498377 0.498003 0.511808 0.532579 0.519186 0.494973 0.501508 0.477277 0.505471 0.482686 0.517939 0.522700 0.517136 0.505498 0.472955 0.516350 0.482965 0.497231 0.513787 0.472195 0.492943 0.523695 0.507576 0.535505 0.520981 0.509951 0.495193 0.476849 0.484969 0.487058 0.496702 0.507778 0.478210 0.503579 0.492722 0.515506 0.508782 0.491414 0.496298 0.517570 0.515642 0.503448 0.502704 0.495880 0.495609 0.490252 0.528672 0.499874 0.507202 0.485440 0.502304 0.480861 0.527939 0.505719 0.468674 0.494142 0.497565 0.465827 0.523396 0.505878 0.516408 0.513879 0.475414 0.520491 0.496196 0.460092 0.508828 0.493788 0.546591 0.543124 0.519355 0.483636 0.509693 0.482079 0.497699 0.484703 0.488398 0.534653 0.503822 0.509378 0.480709 0.509171 0.502109 0.521603 0.501571 0.483951 0.505309 0.544418 0.507518 0.500578 0.491983 0.491187 0.484246 0.514786 0.509020 0.487750 0.533263 0.468628 0.476472 0.541818 0.487595 0.495362 0.503434 0.497589 0.513482 0.487768 0.495948 0.485993 0.480260 0.495862 0.498053 0.484931 0.517841 0.484099 0.506764 0.491847 0.520908 0.480882 0.452643 0.489611 0.480445 0.506866 0.527446 0.481359 0.502848 0.504753 0.510034 0.490569 0.494873 0.508994 0.529060 0.485275 0.527090 0.510171 0.500979 0.476958 0.511738 0.487979 0.503680 0.500027 0.469838 0.485630 0.505813 0.496059 0.515439 0.455770 0.463744 0.545738 0.490295 0.472559 0.492605 0.496069 0.490837 0.515010 0.474456 0.522557 0.496741 0.513488 0.516378 0.514177 0.477872 0.527172 0.461441 0.505946 0.529984 0.497759 0.478824 0.502163 0.513615 0.471318 0.500797 0.484491 0.519745 0.481957 0.497243 0.505469 0.517715 0.473734 0.501210 0.466505 0.494812 0.481590 0.479515 0.505706 0.477209 0.530902 0.479587 0.476551 0.486184 0.497963 0.487316 0.456030 0.499142 0.478074 0.473961 0.504667 0.508346 0.486512 0.514504 0.515847 0.501897 0.477554 0.488147 0.470420 0.497648 0.493712 0.534479 0.518199 0.468088 0.499780 0.509097 0.502450 0.491162 0.479005 0.484873 0.509500 0.479636 0.510671 0.463969 0.513036 

21947
11520.000000
0.492247 0.513143 0.474700 0.531578 0.488563 0.473482 0.503609 0.477455 0.489843 0.471179 0.482853 0.485547 0.467959 0.520490 0.521196 0.515802 0.515255 0.526223 0.480700 0.484749 0.497073 0.495515 0.521966 0.503406 0.493389 0.540261 0.520250 0.505393 0.490483 0.480304 0.513809 0.482462 0.471443 0.522337 0.528624 0.538802 0.545503 0.515420 0.473531 0.492301 0.469515 0.476979 0.507695 0.474380 0.492527 0.528156 0.494247 0.562018 0.504108 0.499164 0.518776 0.524907 0.514350 0.501902 0.471640 0.500397 0.458946 0.536366 0.479543 0.486906 0.491953 0.456081 0.473518 0.511723 0.525953 0.542154 0.493482 0.474347 0.450997 0.484634 0.524404 0.508814 0.476677 0.469113 0.497752 0.515074 0.514037 0.472994 0.550814 0.516867 0.508301 0.511327 0.491850 0.474932 0.529004 0.499630 0.503652 0.495032 0.495990 0.497539 0.452422 0.490709 0.514620 0.528517 0.455067 0.507657 0.531794 0.509132 0.502643 0.453412 0.540766 0.463805 0.521135 0.529153 0.492711 0.512340 0.540626 0.464797 0.522967 0.496604 0.447921 0.526983 0.532570 0.479895 0.512400 0.506376 0.482181 0.524163 0.462142 0.474258 0.515618 0.492112 0.493580 0.502155 0.463075 0.521866 0.514497 0.481108 0.523485 0.483914 0.536994 0.524824 0.443663 0.526556 0.521957 0.522717 0.552532 0.506163 0.482485 0.502855 0.507871 0.457627 0.485024 0.461162 0.512969 0.483154 0.492893 0.491820 0.488810 0.537556 0.486505 0.485385 0.524850 0.531553 0.469885 0.534735 0.520127 0.522513 0.530576 0.469599 0.502761 0.495330 0.534582 0.500289 0.487724 0.491691 0.479772 0.483238 0.489272 0.481151 0.484678 0.515113 0.493887 0.530457 0.550837 0.506917 0.469261 0.499206 0.505567 0.466793 0.501947 0.502823 0.486025 0.560913 0.503109 0.486187 0.463675 0.506953 0.472434 0.489384 0.516893 0.475647 0.481088 0.532752 0.509931 0.476072 0.473908 0.485702 0.459289 0.483330 0.457871 0.462716 0.505928 0.553433 0.497520 0.486007 0.488853 0.496890 0.520761 0.523398 0.480859 0.483184 0.548641 0.505568 0.514779 0.519744 0.504778 0.468807 0.473713 0.526418 0.454033 0.504772 0.472380 0.492560 0.478554 0.510819 0.458918 0.495948 0.484229 0.507694 0.492535 0.527137 0.509707 0.530610 0.495341 0.478507 0.518539 0.504132 0.504610 0.511761 0.490447 0.466923 0.528316 0.532909 0.479929 0.485214 0.514372 0.457212 0.526753 0.456720 0.470686 0.476445 0.502528 0.467119 0.454699 0.491269 

44818
5665.000000
0.553465 0.489468 0.523759 0.506066 0.509282 0.505301 0.513791 0.531096 0.515939 0.518983 0.537823 0.506446 0.526544 0.520702 0.494031 0.490000 0.475167 0.530081 0.551009 0.525362 0.550392 0.471344 0.561885 0.479697 0.529575 0.526793 0.468848 0.462813 0.484351 0.539683 0.505087 0.542684 0.528997 0.508824 0.459653 0.481583 0.497369 0.515188 0.492365 0.500086 0.478464 0.462819 0.476424 0.541373 0.500763 0.489444 0.535731 0.520515 0.517868 0.488371 0.481628 0.492216 0.489571 0.524338 0.515599 0.549417 0.524121 0.530627 0.478676 0.547091 0.477884 0.542760 0.486591 0.470818 0.535221 0.521923 0.449205 0.565171 0.517976 0.483208 0.448274 0.523081 0.470303 0.506190 0.528371 0.526182 0.469202 0.497946 0.474549 0.511245 0.546852 0.507550 0.545623 0.539627 0.463065 0.459937 0.516688 0.518006 0.464572 0.493073 0.452508 0.542509 0.530915 0.484534 0.478655 0.550058 0.477107 0.552444 0.535937 0.541124 0.507666 0.499913 0.497497 0.446617 0.484668 0.533610 0.463697 0.560267 0.504589 0.514269 0.527463 0.498344 0.504093 0.547605 0.526185 0.480784 0.479008 0.489287 0.528476 0.545884 0.471006 0.457085 0.463606 0.527071 0.446634 0.478246 0.439811 0.485771 0.463511 0.469666 0.504654 0.498453 0.540381 0.530356 0.527914 0.543326 0.504464 0.449213 0.474676 0.468104 0.522006 0.527924 0.462979 0.475478 0.448788 0.475919 0.486053 0.521604 0.521470 0.439782 0.497784 0.550087 0.463165 0.468561 0.526669 0.492773 0.500804 0.447880 0.503156 0.525325 0.509681 0.434268 0.497522 0.478554 0.505176 0.535270 0.467894 0.473990 0.538060 0.487748 0.523980 0.488236 0.510762 0.510888 0.540038 0.479549 0.524713 0.551649 0.464208 0.515666 0.523553 0.489612 0.478228 0.456305 0.493747 0.497807 0.547836 0.487495 0.501407 0.456447 0.522901 0.480974 0.476309 0.495026 0.528584 0.492557 0.466338 0.477340 0.492019 0.528007 0.546697 0.470576 0.494114 0.452274 0.507418 0.453583 0.543962 0.446191 0.492510 0.545426 0.539381 0.549748 0.486803 0.456303 0.503192 0.502030 0.550096 0.470069 0.526287 0.466189 0.530500 0.455971 0.551417 0.466281 0.518990 0.549361 0.458136 0.513424 0.533632 0.543672 0.503631 0.481633 0.462575 0.506141 0.504527 0.484914 0.495775 0.427218 0.459069 0.502579 0.543320 0.515475 0.459035 0.532348 0.510675 0.511883 0.446901 0.535620 0.489152 0.529802 0.519890 0.526836 0.476506 0.469876 0.521495 0.473573 

49298
6808.000000
0.488783 0.512637 0.489409 0.482971 0.527904 0.475185 0.501135 0.478659 0.481467 0.502032 0.476799 0.488831 0.534171 0.486485 0.509779 0.485774 0.496007 0.470060 0.452948 0.527890 0.499862 0.436473 0.455318 0.435774 0.462247 0.505432 0.498742 0.469171 0.494739 0.482333 0.514315 0.514162 0.528299 0.448389 0.513433 0.500885 0.501295 0.461486 0.484595 0.535612 0.468041 0.568447 0.498481 0.534559 0.507895 0.525832 0.517527 0.442796 0.526820 0.472209 0.531582 0.534964 0.488068 0.538466 0.486158 0.521436 0.506204 0.485835 0.482712 0.525004 0.481451 0.539258 0.485084 0.488743 0.487778 0.546621 0.523751 0.492578 0.492516 0.491401 0.453083 0.552970 0.507916 0.476156 0.537335 0.553408 0.498225 0.552319 0.484220 0.520987 0.480681 0.477266 0.548976 0.461091 0.472633 0.487379 0.446567 0.492903 0.480992 0.510502 0.522028 0.518248 0.487797 0.469380 0.459736 0.443992 0.466743 0.511806 0.481277 0.460173 0.490297 0.505910 0.543721 0.465755 0.505278 0.500496 0.540805 0.529332 0.453914 0.519530 0.511819 0.504530 0.508590 0.546045 0.465213 0.463994 0.555418 0.468999 0.544668 0.539488 0.520786 0.465781 0.513671 0.455618 0.537236 0.548428 0.510469 0.498911 0.488493 0.480564 0.524541 0.533351 0.538038 0.540766 0.535820 0.449386 0.472802 0.500264 0.523727 0.514897 0.522838 0.494758 0.476067 0.463531 0.528313 0.432424 0.513812 0.539309 0.462733 0.458606 0.468286 0.515729 0.517184 0.503583 0.474896 0.552631 0.519839 0.510683 0.505209 0.468174 0.529724 0.522356 0.549875 0.513161 0.519738 0.519364 0.483204 0.481341 0.528304 0.527762 0.505778 0.466574 0.495289 0.463595 0.462571 0.546524 0.531145 0.525104 0.471415 0.530566 0.478072 0.468690 0.536216 0.502191 0.540986 0.512044 0.538948 0.499584 0.500028 0.497398 0.527617 0.531385 0.468885 0.488071 0.485862 0.493860 0.509973 0.474516 0.524386 0.543289 0.496089 0.524844 0.464846 0.519378 0.449711 0.540674 0.490939 0.491952 0.474721 0.468900 0.538618 0.464361 0.454207 0.554699 0.554815 0.498253 0.468720 0.467613 0.476418 0.519403 0.544912 0.440662 0.547097 0.543726 0.522597 0.481917 0.491302 0.479606 0.489661 0.479959 0.507833 0.521365 0.476077 0.449233 0.468811 0.512581 0.486139 0.553622 0.472015 0.496046 0.520093 0.475463 0.502430 0.492068 0.538006 0.493830 0.504522 0.493986 0.545217 0.472800 0.519532 0.531567 0.525449 0.501514 0.501829 0.517198 

58301
14188.000000
0.519834 0.501544 0.492394 0.514417 0.505062 0.531914 0.500824 0.459340 0.495176 0.464646 0.499996 0.464818 0.509445 0.528334 0.514332 0.508253 0.540701 0.510242 0.484106 0.512540 0.539138 0.534657 0.518289 0.502300 0.523056 0.498721 0.496688 0.477450 0.490735 0.470774 0.476456 0.498334 0.523929 0.491186 0.461308 0.509868 0.467141 0.504195 0.501014 0.536554 0.487104 0.506975 0.512905 0.488312 0.525414 0.503289 0.504264 0.467689 0.502349 0.509053 0.531630 0.515440 0.506384 0.511569 0.502915 0.462423 0.483888 0.504938 0.492604 0.493374 0.471702 0.473941 0.512487 0.455351 0.522285 0.522748 0.491959 0.472333 0.491867 0.511316 0.500319 0.533244 0.492385 0.505450 0.508569 0.525952 0.487248 0.464459 0.526662 0.503517 0.513302 0.516365 0.487403 0.500262 0.490190 0.477668 0.497308 0.467261 0.509961 0.494862 0.519222 0.519962 0.479309 0.511751 0.474714 0.465604 0.465893 0.476393 0.506027 0.501651 0.514178 0.514205 0.513027 0.480967 0.472545 0.537855 0.485231 0.486998 0.481800 0.502904 0.502809 0.497122 0.480515 0.484038 0.527884 0.487515 0.503886 0.479179 0.470585 0.498077 0.484141 0.487862 0.485057 0.479664 0.493804 0.540574 0.480848 0.499097 0.496505 0.533369 0.446020 0.496811 0.458115 0.467532 0.506108 0.515211 0.502943 0.504335 0.464728 0.529838 0.515409 0.525747 0.528938 0.536801 0.488193 0.473443 0.474136 0.485422 0.489608 0.487388 0.495000 0.527845 0.487870 0.517451 0.475334 0.528924 0.469197 0.526545 0.517599 0.474522 0.521675 0.492423 0.480928 0.484479 0.537320 0.502328 0.453069 0.499183 0.483339 0.452448 0.528873 0.491608 0.507006 0.507285 0.496250 0.527210 0.490512 0.497808 0.476417 0.507658 0.487965 0.543304 0.494020 0.510644 0.470809 0.511070 0.514813 0.456504 0.540410 0.497485 0.460164 0.518116 0.534195 0.523357 0.479589 0.510133 0.516968 0.517539 0.492517 0.499909 0.472721 0.528345 0.466240 0.517718 0.483266 0.503582 0.536000 0.474846 0.520294 0.455074 0.497229 0.511581 0.511563 0.499279 0.476916 0.504261 0.470223 0.478934 0.481502 0.511368 0.497655 0.533739 0.521184 0.464001 0.492127 0.520504 0.503076 0.539285 0.517017 0.484072 0.500451 0.516159 0.522942 0.492183 0.473700 0.493607 0.483031 0.479649 0.510474 0.460766 0.472016 0.506869 0.499168 0.524196 0.540775 0.491142 0.500435 0.486125 0.496464 0.492464 0.449785 0.475335 0.511094 0.478305 0.520819 0.490315 

78354
8235.000000
0.465521 0.511541 0.536617 0.513531 0.496075 0.465789 0.445751 0.457741 0.447912 0.480050 0.504469 0.444564 0.511805 0.460210 0.516534 0.497559 0.540983 0.511043 0.460692 0.474846 0.486480 0.469330 0.467685 0.506275 0.479744 0.521444 0.492983 0.490770 0.513262 0.518470 0.526587 0.499539 0.464639 0.488181 0.546840 0.478881 0.449345 0.482345 0.507465 0.553357 0.528683 0.448643 0.489566 0.484200 0.496255 0.489425 0.539365 0.509033 0.479194 0.512948 0.516392 0.537884 0.463916 0.510660 0.527101 0.478177 0.561455 0.454471 0.507717 0.475432 0.447675 0.509740 0.472961 0.541736 0.461987 0.447982 0.468267 0.514582 0.516421 0.476320 0.511669 0.501437 0.479593 0.538376 0.541939 0.467646 0.493389 0.500122 0.502349 0.492359 0.474889 0.482954 0.531456 0.458546 0.495594 0.512222 0.491895 0.492173 0.500082 0.552027 0.547119 0.496023 0.534377 0.511080 0.517785 0.512727 0.473458 0.465614 0.476027 0.487138 0.497881 0.520441 0.490017 0.529139 0.485153 0.444437 0.466694 0.518564 0.500961 0.474502 0.531989 0.461050 0.462755 0.517602 0.508098 0.503746 0.489566 0.543857 0.535172 0.472945 0.505846 0.505117 0.453558 0.460029 0.516578 0.476672 0.537500 0.538374 0.475294 0.509626 0.489707 0.481030 0.494735 0.510790 0.474955 0.476832 0.498259 0.523572 0.464130 0.498547 0.508204 0.524236 0.517473 0.468277 0.527942 0.514763 0.483788 0.502985 0.470513 0.468827 0.550875 0.464265 0.467830 0.479789 0.468040 0.478755 0.505202 0.525528 0.516809 0.549797 0.536277 0.491729 0.493742 0.497739 0.523834 0.508288 0.544512 0.518281 0.515603 0.505542 0.527159 0.520918 0.500528 0.494665 0.451546 0.529910 0.456287 0.482609 0.476174 0.487162 0.507950 0.500887 0.552101 0.491908 0.519350 0.492149 0.531150 0.537715 0.537030 0.517298 0.497146 0.462020 0.473328 0.541255 0.461242 0.496002 0.476344 0.455722 0.522197 0.478473 0.492604 0.483952 0.454182 0.466091 0.487100 0.536353 0.468785 0.494071 0.505034 0.544630 0.473672 0.494158 0.472607 0.547032 0.521368 0.479417 0.485244 0.471709 0.461305 0.530746 0.541740 0.517934 0.465493 0.519009 0.495989 0.468183 0.547404 0.508949 0.508628 0.509529 0.495465 0.440488 0.534116 0.504703 0.518448 0.494249 0.472131 0.526400 0.535248 0.486662 0.515692 0.507853 0.501421 0.501693 0.534708 0.534885 0.478382 0.469310 0.466803 0.543946 0.471761 0.498363 0.497071 0.512878 0.551151 0.513972 

104342
5241.000000
0.517945 0.473993 0.445020 0.471411 0.556051 0.495522 0.534955 0.524341 0.502628 0.554644 0.515173 0.555399 0.498872 0.522647 0.468660 0.530257 0.512811 0.529307 0.464063 0.461844 0.533989 0.553692 0.543241 0.479484 0.509632 0.560741 0.559181 0.527517 0.535828 0.455708 0.474056 0.531788 0.546932 0.533458 0.529346 0.524135 0.502183 0.481042 0.531389 0.460541 0.515942 0.505872 0.525814 0.499583 0.441779 0.551513 0.490878 0.475184 0.486314 0.468885 0.454205 0.474951 0.511050 0.489551 0.454344 0.563189 0.520531 0.453158 0.543047 0.495335 0.498549 0.540551 0.531374 0.477314 0.471886 0.506185 0.465405 0.503163 0.496186 0.504947 0.522718 0.544863 0.454834 0.539907 0.541237 0.480402 0.533560 0.434660 0.496279 0.504631 0.451013 0.537830 0.519484 0.447234 0.549389 0.544395 0.513165 0.497921 0.472924 0.523432 0.480939 0.541444 0.463019 0.515527 0.502518 0.482096 0.488101 0.501436 0.494944 0.494135 0.505304 0.487473 0.465285 0.477549 0.507174 0.475511 0.500529 0.544971 0.529247 0.459364 0.472405 0.479093 0.484781 0.515045 0.498001 0.467847 0.494327 0.481617 0.554280 0.515221 0.542133 0.554384 0.538866 0.460097 0.481666 0.493025 0.458713 0.545475 0.459155 0.498497 0.472419 0.558818 0.447164 0.482020 0.489647 0.520496 0.564495 0.537440 0.511560 0.460100 0.524986 0.508087 0.473824 0.523508 0.463706 0.443818 0.546100 0.510054 0.450452 0.530364 0.477083 0.478735 0.512306 0.511640 0.497917 0.508513 0.484935 0.476801 0.486142 0.457599 0.502818 0.539300 0.504397 0.506264 0.528093 0.482802 0.535688 0.466943 0.537211 0.480611 0.550151 0.466066 0.507393 0.445492 0.480505 0.543779 0.492966 0.511956 0.532912 0.539189 0.510055 0.484774 0.534211 0.471046 0.496365 0.463253 0.501308 0.465830 0.477928 0.541225 0.526864 0.457266 0.473069 0.547608 0.508050 0.559300 0.530631 0.528616 0.484351 0.555875 0.519501 0.504956 0.459885 0.549954 0.457450 0.482978 0.495389 0.498589 0.523479 0.461253 0.458015 0.507077 0.525240 0.488465 0.480910 0.472240 0.496701 0.540001 0.461416 0.508317 0.488933 0.497877 0.483537 0.460593 0.523957 0.530429 0.503378 0.453090 0.488252 0.534552 0.464781 0.542662 0.539099 0.482715 0.473381 0.535107 0.533215 0.528587 0.481065 0.519892 0.522120 0.512980 0.513398 0.475154 0.460575 0.505809 0.533108 0.467560 0.551408 0.511920 0.534600 0.556997 0.456528 0.468017 0.523019 0.461060 

128985
7577.000000
0.492919 0.468946 0.492525 0.533237 0.455151 0.475473 0.531168 0.518209 0.534769 0.491823 0.550894 0.457147 0.516169 0.454496 0.475377 0.499217 0.514112 0.473559 0.531258 0.465672 0.502392 0.504940 0.512441 0.485142 0.458033 0.505533 0.527815 0.472432 0.519063 0.489634 0.490955 0.529428 0.535552 0.529364 0.531632 0.512420 0.530032 0.515646 0.493684 0.446286 0.495325 0.514959 0.489434 0.522944 0.449479 0.517312 0.462967 0.503452 0.503778 0.485514 0.497843 0.502353 0.536880 0.522150 0.466035 0.494163 0.518687 0.455046 0.554673 0.533054 0.528848 0.462311 0.499786 0.512713 0.538659 0.496479 0.497932 0.487282 0.528075 0.473322 0.489089 0.497051 0.544099 0.526705 0.494089 0.504192 0.489409 0.495461 0.560219 0.523151 0.549080 0.484539 0.500795 0.468484 0.445067 0.506627 0.468059 0.528900 0.485478 0.487930 0.542267 0.538776 0.543038 0.529412 0.470546 0.543722 0.502066 0.502376 0.522972 0.498245 0.490636 0.522415 0.511207 0.527438 0.476789 0.537408 0.488072 0.512937 0.488804 0.468219 0.519902 0.464415 0.493603 0.508538 0.465459 0.450763 0.478539 0.475634 0.497864 0.454003 0.457544 0.477674 0.466797 0.554389 0.482809 0.544183 0.507534 0.528425 0.522807 0.505066 0.490739 0.473524 0.460028 0.459587 0.524722 0.540046 0.457624 0.502013 0.503557 0.496957 0.501195 0.527985 0.495253 0.530896 0.480892 0.481292 0.548328 0.465771 0.505259 0.512073 0.513023 0.461975 0.444886 0.476143 0.497656 0.436925 0.541195 0.532557 0.513686 0.506413 0.513400 0.511959 0.531310 0.459426 0.462296 0.531094 0.529202 0.499477 0.510234 0.507895 0.464828 0.536803 0.516883 0.564884 0.479751 0.489680 0.492905 0.482030 0.467665 0.476475 0.515311 0.485550 0.528210 0.463828 0.554698 0.507038 0.536698 0.509071 0.510175 0.467091 0.541020 0.456127 0.532464 0.527610 0.463845 0.501293 0.519074 0.537364 0.460789 0.489717 0.505630 0.536513 0.534404 0.458666 0.474682 0.456079 0.532922 0.524922 0.456264 0.524803 0.536914 0.486328 0.530519 0.519116 0.468033 0.479158 0.467888 0.545435 0.493505 0.508361 0.490934 0.500324 0.512525 0.512109 0.537459 0.555652 0.497479 0.485031 0.476465 0.506025 0.478585 0.477998 0.458759 0.499316 0.479871 0.462506 0.547065 0.474752 0.530046 0.541177 0.530188 0.499959 0.508056 0.529723 0.539436 0.510009 0.514262 0.465728 0.504793 0.552935 0.515159 0.526165 0.502918 0.519529 0.512666 0.517259 

134584
5469.000000
0.485737 0.534990 0.518296 0.498173 0.466898 0.537434 0.538135 0.467596 0.446527 0.490497 0.506827 0.568481 0.518699 0.510243 0.493869 0.454562 0.484158 0.546701 0.449024 0.500604 0.546069 0.450232 0.538896 0.508959 0.449260 0.458516 0.498322 0.449319 0.477540 0.506720 0.515464 0.498121 0.452818 0.477144 0.474266 0.475826 0.497079 0.502011 0.558503 0.560940 0.482524 0.489278 0.479449 0.469322 0.543691 0.533241 0.473661 0.511321 0.545053 0.532189 0.510718 0.554897 0.495889 0.460041 0.472585 0.516099 0.462734 0.492021 0.445457 0.444875 0.491681 0.480101 0.528442 0.474263 0.465926 0.520841 0.478505 0.560927 0.544918 0.479738 0.502842 0.445097 0.524536 0.467851 0.530993 0.539881 0.547359 0.505837 0.476204 0.542160 0.486498 0.541429 0.475147 0.504611 0.544172 0.490091 0.545672 0.511295 0.495797 0.458872 0.550709 0.455190 0.458388 0.474971 0.544464 0.498102 0.515994 0.505862 0.501010 0.463941 0.511683 0.529144 0.448502 0.486944 0.478140 0.532879 0.504404 0.505863 0.465748 0.472604 0.491319 0.502691 0.517764 0.489985 0.539065 0.521160 0.484971 0.480983 0.468435 0.497361 0.519458 0.511705 0.544501 0.546541 0.458575 0.503578 0.505733 0.481693 0.519231 0.473861 0.481953 0.495473 0.540500 0.498698 0.526963 0.550192 0.455642 0.475613 0.547663 0.526095 0.506965 0.533826 0.528123 0.508466 0.494902 0.538410 0.523266 0.514916 0.507440 0.498702 0.476638 0.472954 0.526407 0.516129 0.539419 0.440498 0.518798 0.465174 0.501525 0.475175 0.504299 0.516914 0.530107 0.516678 0.483477 0.452909 0.500782 0.529638 0.452756 0.502198 0.471277 0.521498 0.485401 0.498969 0.438954 0.479116 0.541954 0.449697 0.520979 0.493390 0.561718 0.461397 0.525387 0.537955 0.505493 0.524659 0.544143 0.552795 0.479845 0.459064 0.477568 0.539776 0.462751 0.527355 0.519301 0.509473 0.522583 0.540825 0.521920 0.469144 0.511365 0.554306 0.534227 0.436855 0.460948 0.491364 0.467615 0.506525 0.484625 0.495906 0.544102 0.500267 0.499023 0.527098 0.494919 0.490438 0.484874 0.478462 0.532575 0.499834 0.527101 0.460484 0.494035 0.435268 0.544082 0.511977 0.520424 0.490124 0.517430 0.457131 0.505255 0.539176 0.448377 0.513530 0.547057 0.522956 0.506291 0.539593 0.468195 0.518657 0.475972 0.453613 0.509292 0.472616 0.516319 0.499940 0.502951 0.468106 0.499706 0.537488 0.521319 0.547003 0.518084 0.537302 0.478501 0.542339 

139060
8084.000000
0.510016 0.548931 0.512371 0.496925 0.543709 0.491989 0.453232 0.497335 0.516027 0.474893 0.469544 0.491576 0.487322 0.516212 0.541124 0.515635 0.490248 0.499118 0.549734 0.476532 0.487720 0.481529 0.469693 0.513348 0.476041 0.486654 0.513160 0.436824 0.468534 0.517714 0.550624 0.526434 0.531643 0.458213 0.544727 0.516045 0.507093 0.526544 0.537361 0.526711 0.489961 0.518783 0.496517 0.546357 0.495987 0.528533 0.476257 0.502495 0.530598 0.487737 0.454098 0.466729 0.498154 0.508208 0.492943 0.487741 0.504434 0.508254 0.514457 0.530200 0.522088 0.507375 0.547742 0.487460 0.505697 0.471372 0.456508 0.456257 0.529303 0.507178 0.494956 0.488719 0.469227 0.469798 0.510436 0.484643 0.506742 0.466593 0.516463 0.491612 0.492207 0.482516 0.503158 0.460475 0.500648 0.487132 0.470223 0.508166 0.508588 0.524768 0.517240 0.527055 0.516822 0.473362 0.485610 0.469528 0.471657 0.476242 0.509700 0.536477 0.518618 0.453450 0.472228 0.534170 0.549761 0.520967 0.499830 0.523634 0.471263 0.509417 0.485841 0.466292 0.454535 0.491440 0.509893 0.537784 0.532770 0.501756 0.483182 0.544539 0.539198 0.517600 0.445211 0.453386 0.541134 0.461980 0.469265 0.492357 0.513602 0.484762 0.508550 0.533512 0.499481 0.497415 0.483058 0.440145 0.519688 0.536257 0.499866 0.535182 0.459118 0.468622 0.500157 0.478184 0.482519 0.508794 0.502789 0.547415 0.543422 0.519032 0.538485 0.491231 0.468964 0.476764 0.538803 0.532385 0.531693 0.508215 0.496178 0.546304 0.469973 0.458810 0.533643 0.496164 0.495478 0.543114 0.470617 0.505477 0.453777 0.454477 0.478851 0.492379 0.527300 0.522905 0.507675 0.491439 0.524022 0.543677 0.508871 0.447517 0.539981 0.495587 0.522193 0.470614 0.522056 0.498247 0.487172 0.521125 0.481946 0.537249 0.524197 0.540303 0.479899 0.476021 0.556264 0.474508 0.496323 0.527484 0.506493 0.551785 0.483985 0.492964 0.514096 0.465726 0.492928 0.527771 0.453592 0.478404 0.499957 0.506551 0.484507 0.521921 0.529324 0.466087 0.489584 0.528468 0.483584 0.509406 0.529079 0.481827 0.518837 0.559810 0.545004 0.541543 0.536046 0.465170 0.483565 0.447273 0.531360 0.512846 0.489911 0.459917 0.459682 0.461924 0.482338 0.455317 0.516046 0.480897 0.522913 0.510286 0.485321 0.481815 0.463721 0.463891 0.507503 0.504497 0.481641 0.553529 0.470091 0.486325 0.491696 0.479045 0.520419 0.516350 0.542616 0.459139 

175641
29504.000000
0.493387 0.498714 0.512626 0.494616 0.480336 0.522665 0.492770 0.517636 0.489692 0.507384 0.489398 0.518807 0.478420 0.514544 0.467643 0.508416 0.484151 0.486713 0.513213 0.476639 0.492654 0.521819 0.480697 0.466670 0.513221 0.521002 0.512030 0.492203 0.494226 0.498839 0.491005 0.493334 0.475482 0.522421 0.494565 0.507508 0.494475 0.500805 0.509269 0.536165 0.497111 0.500578 0.501138 0.512126 0.491864 0.502080 0.487134 0.497246 0.512862 0.496447 0.492100 0.482030 0.518246 0.509675 0.506825 0.524655 0.496934 0.515169 0.515908 0.502349 0.504974 0.476155 0.504568 0.502120 0.500284 0.496298 0.514704 0.515602 0.476090 0.488393 0.494147 0.489342 0.501131 0.483305 0.472634 0.502259 0.506709 0.516314 0.475000 0.499488 0.518305 0.505442 0.476368 0.516822 0.484332 0.488587 0.501960 0.480281 0.496372 0.499030 0.503974 0.494087 0.506396 0.511398 0.514399 0.480139 0.520723 0.492896 0.525612 0.506622 0.490375 0.506727 0.482017 0.512064 0.504174 0.484152 0.498466 0.504984 0.513381 0.500684 0.510788 0.509821 0.507174 0.487998 0.499210 0.481052 0.495779 0.506464 0.509341 0.500893 0.501471 0.512517 0.498949 0.525906 0.524660 0.504399 0.498376 0.491901 0.513741 0.471443 0.499521 0.505742 0.537242 0.473962 0.503477 0.500207 0.484043 0.479023 0.516294 0.496411 0.494011 0.487664 0.507458 0.486484 0.514296 0.499472 0.502184 0.497228 0.490371 0.517307 0.494344 0.520733 0.490234 0.512488 0.518887 0.495813 0.486777 0.500878 0.467040 0.544852 0.491655 0.497406 0.524844 0.517446 0.518994 0.508399 0.528119 0.505433 0.517164 0.509450 0.505404 0.513817 0.469936 0.503871 0.506149 0.478232 0.493517 0.505197 0.521089 0.525652 0.492946 0.504596 0.508188 0.494926 0.502440 0.488176 0.529374 0.486685 0.482905 0.514517 0.519264 0.490955 0.507524 0.484186 0.484761 0.501865 0.514715 0.505811 0.501829 0.484716 0.489153 0.514268 0.519372 0.485106 0.509036 0.498960 0.498253 0.510914 0.511101 0.492230 0.482547 0.469504 0.487477 0.514400 0.496891 0.503347 0.513468 0.513837 0.477754 0.503923 0.493005 0.490766 0.527780 0.488616 0.498910 0.515310 0.485703 0.488842 0.499329 0.485028 0.516065 0.506058 0.497605 0.505986 0.510403 0.491206 0.513174 0.486726 0.494205 0.466588 0.520848 0.513405 0.501910 0.499957 0.477362 0.509657 0.485982 0.497960 0.483741 0.519765 0.519735 0.527390 0.518100 0.504171 0.491101 0.492750 

205414
7045.000000
0.551761 0.543454 0.481832 0.507176 0.464876 0.492770 0.474140 0.468026 0.476676 0.508086 0.511137 0.481525 0.472866 0.545072 0.508736 0.487381 0.488900 0.519396 0.503002 0.506589 0.544380 0.465861 0.526878 0.512109 0.496862 0.508130 0.469221 0.531326 0.538971 0.484842 0.504630 0.474197 0.440953 0.507553 0.510032 0.462028 0.503968 0.539425 0.480453 0.450243 0.495601 0.547836 0.522607 0.496369 0.531272 0.488334 0.499699 0.507512 0.506071 0.514959 0.494652 0.442069 0.479119 0.535520 0.525322 0.519795 0.456702 0.487480 0.525786 0.451363 0.495783 0.513299 0.542923 0.522850 0.504344 0.475089 0.547433 0.528598 0.509835 0.548972 0.474369 0.477248 0.491456 0.507256 0.512843 0.506974 0.503261 0.549140 0.483933 0.502411 0.507382 0.505836 0.464104 0.520830 0.527175 0.547351 0.543814 0.529771 0.444451 0.532256 0.446164 0.509052 0.478011 0.479605 0.480077 0.489899 0.470892 0.506539 0.459452 0.545086 0.482898 0.457731 0.488771 0.532994 0.509267 0.475533 0.488889 0.450481 0.476068 0.540047 0.472246 0.497306 0.497775 0.456788 0.499120 0.490728 0.551696 0.546538 0.448712 0.511979 0.456177 0.514118 0.493834 0.458556 0.509987 0.447136 0.450904 0.482676 0.543651 0.463155 0.458046 0.496650 0.444362 0.465254 0.474055 0.466258 0.534859 0.477875 0.496267 0.487097 0.482301 0.477443 0.480511 0.509020 0.529509 0.500389 0.509241 0.531578 0.521610 0.512603 0.490618 0.465599 0.507121 0.504355 0.465217 0.505465 0.473909 0.451743 0.495838 0.551234 0.471066 0.491907 0.497848 0.488458 0.551675 0.494866 0.508028 0.469289 0.460628 0.480076 0.515883 0.505794 0.511603 0.499284 0.521553 0.484510 0.533740 0.506422 0.474777 0.449914 0.550200 0.488590 0.520261 0.467298 0.458741 0.481228 0.477905 0.533707 0.448706 0.512703 0.490513 0.454965 0.518030 0.491611 0.523365 0.478372 0.527017 0.526167 0.528078 0.458611 0.470400 0.495396 0.439700 0.503855 0.507798 0.505368 0.508786 0.506864 0.546382 0.478032 0.492242 0.488772 0.532273 0.493421 0.550351 0.539993 0.462339 0.464606 0.528687 0.528786 0.494904 0.449654 0.472058 0.462824 0.446359 0.489444 0.453627 0.534967 0.526952 0.536710 0.511128 0.470531 0.506910 0.536228 0.489890 0.524221 0.520039 0.500730 0.524833 0.499120 0.472973 0.525596 0.455079 0.466842 0.491451 0.519958 0.492233 0.552181 0.529039 0.506024 0.554562 0.501146 0.475148 0.496896 0.440912 0.449969 

222626
6418.000000
0.509039 0.465477 0.486839 0.555268 0.481966 0.506880 0.496580 0.464079 0.502954 0.551524 0.466392 0.479619 0.516847 0.523399 0.499049 0.489465 0.556379 0.489596 0.494322 0.515592 0.483538 0.465894 0.440406 0.548250 0.531871 0.492033 0.557516 0.472677 0.515413 0.528018 0.513904 0.458750 0.451358 0.507205 0.481866 0.481226 0.532955 0.507246 0.451565 0.458964 0.459521 0.489640 0.464758 0.516220 0.522574 0.457587 0.523670 0.512933 0.482499 0.541368 0.511952 0.483459 0.439899 0.507698 0.530201 0.464629 0.487743 0.525522 0.442821 0.479921 0.446909 0.515507 0.464879 0.517360 0.457356 0.520446 0.512535 0.453236 0.442447 0.498517 0.476057 0.504468 0.515275 0.488944 0.498261 0.474408 0.477207 0.458698 0.512082 0.511570 0.522512 0.516937 0.537195 0.524382 0.534884 0.534799 0.478991 0.531290 0.502891 0.528445 0.467100 0.437552 0.493540 0.495242 0.515311 0.538971 0.438368 0.527521 0.494161 0.458225 0.511343 0.523772 0.480420 0.454001 0.542355 0.529408 0.484351 0.537494 0.543461 0.561116 0.512867 0.519520 0.481708 0.500187 0.456955 0.536779 0.449684 0.526471 0.480931 0.486254 0.502458 0.463794 0.524178 0.461622 0.450091 0.482026 0.446204 0.471363 0.504709 0.494189 0.510775 0.472095 0.487808 0.480471 0.546134 0.451680 0.549136 0.441932 0.492390 0.490275 0.508059 0.482047 0.518687 0.474228 0.506124 0.452215 0.451670 0.473762 0.465311 0.488877 0.455588 0.521591 0.534155 0.446164 0.505941 0.523885 0.531760 0.540404 0.518557 0.484373 0.551394 0.523727 0.506552 0.524670 0.502690 0.511609 0.534453 0.472188 0.456948 0.482603 0.539819 0.494604 0.522222 0.475729 0.489453 0.498713 0.471087 0.508315 0.485362 0.528635 0.497409 0.492109 0.449913 0.502970 0.550497 0.524386 0.512983 0.524805 0.491628 0.541073 0.487561 0.480200 0.507533 0.524963 0.489953 0.462005 0.498054 0.487837 0.518408 0.473996 0.448133 0.468954 0.504221 0.479463 0.455660 0.467339 0.513090 0.494421 0.464525 0.529728 0.485211 0.508627 0.510541 0.513617 0.553264 0.501307 0.499248 0.473889 0.562691 0.517559 0.479477 0.500620 0.465169 0.538662 0.439833 0.505424 0.473397 0.486104 0.540181 0.460763 0.544705 0.520614 0.474237 0.466092 0.519624 0.480838 0.486955 0.488422 0.507720 0.517141 0.528283 0.504465 0.497111 0.513076 0.492100 0.432679 0.471932 0.532304 0.522072 0.470269 0.545099 0.505051 0.480851 0.442060 0.473720 0.490439 

237668
8664.000000
0.467984 0.553966 0.478013 0.486175 0.530094 0.529627 0.498763 0.522722 0.515779 0.485666 0.486430 0.489058 0.470541 0.451047 0.492797 0.473137 0.522802 0.525757 0.448411 0.528334 0.551608 0.538867 0.516421 0.457522 0.463765 0.443940 0.508268 0.497613 0.528168 0.497826 0.451882 0.488021 0.543711 0.496772 0.519328 0.527726 0.464645 0.521844 0.524806 0.503356 0.494694 0.516350 0.523265 0.489714 0.472477 0.469439 0.507388 0.471871 0.457859 0.535582 0.451050 0.470235 0.504016 0.457638 0.495803 0.494116 0.512825 0.453646 0.463932 0.505124 0.474520 0.521017 0.476353 0.476827 0.542384 0.483929 0.516188 0.468222 0.544156 0.479869 0.469068 0.502280 0.513230 0.523763 0.461736 0.509932 0.504370 0.524722 0.455577 0.477885 0.463458 0.476551 0.463010 0.492101 0.513026 0.497240 0.498875 0.481713 0.518570 0.468125 0.503048 0.489028 0.472919 0.502893 0.501628 0.453679 0.465627 0.540680 0.463375 0.530469 0.485490 0.484575 0.457603 0.458917 0.533940 0.491915 0.491581 0.469579 0.545669 0.479203 0.502996 0.524851 0.490451 0.512024 0.485874 0.486473 0.466140 0.518421 0.482352 0.483425 0.487167 0.504134 0.520692 0.520163 0.468352 0.497512 0.491006 0.490059 0.526909 0.518445 0.490873 0.476818 0.528684 0.447340 0.518412 0.505589 0.455719 0.502855 0.515855 0.505344 0.454717 0.528824 0.520104 0.507336 0.505571 0.493265 0.516246 0.521036 0.494414 0.481546 0.499773 0.463353 0.506593 0.496560 0.489155 0.500702 0.462650 0.543382 0.531092 0.511078 0.491277 0.519430 0.497099 0.462625 0.518186 0.491056 0.465842 0.515898 0.456762 0.512791 0.488400 0.530180 0.516597 0.486018 0.461658 0.505400 0.542642 0.477550 0.523178 0.469423 0.489763 0.526850 0.471280 0.481339 0.495184 0.523308 0.466336 0.529736 0.535764 0.535364 0.439007 0.505215 0.518105 0.476750 0.525355 0.556328 0.461523 0.539492 0.501528 0.474836 0.484910 0.501591 0.529767 0.539315 0.482954 0.502238 0.514944 0.547313 0.488373 0.448937 0.485783 0.529048 0.522129 0.495931 0.521504 0.488962 0.517190 0.495733 0.506861 0.463810 0.440782 0.465854 0.529700 0.467704 0.487243 0.506822 0.516362 0.521346 0.481194 0.454605 0.528446 0.523830 0.460048 0.439406 0.497820 0.520898 0.496590 0.500000 0.536696 0.535981 0.517107 0.560927 0.515237 0.452087 0.529493 0.482977 0.526773 0.523823 0.533863 0.486639 0.508738 0.499231 0.504961 0.492070 0.455943 0.472219 

238319
102879.000000
0.499697 0.491570 0.494704 0.492327 0.506661 0.494597 0.497082 0.510191 0.507307 0.495511 0.511177 0.509149 0.499492 0.485842 0.498608 0.497591 0.496066 0.497855 0.501067 0.506185 0.487257 0.505268 0.498263 0.514961 0.502986 0.485853 0.496333 0.514023 0.499164 0.495431 0.503414 0.496959 0.499016 0.491036 0.488822 0.494930 0.504038 0.492898 0.498881 0.479681 0.506835 0.494264 0.495193 0.495260 0.503105 0.494428 0.498751 0.497412 0.492036 0.500722 0.504264 0.499667 0.501487 0.491313 0.500738 0.503059 0.507720 0.497262 0.499115 0.492917 0.505678 0.500857 0.500460 0.512196 0.499090 0.503570 0.499712 0.504223 0.508544 0.500269 0.511299 0.490450 0.500714 0.506071 0.500970 0.488275 0.496946 0.501837 0.500256 0.496138 0.497354 0.499444 0.502713 0.507969 0.499522 0.502739 0.501431 0.508933 0.505511 0.491160 0.502191 0.499992 0.503928 0.503907 0.504129 0.506094 0.508843 0.498924 0.501252 0.493985 0.499510 0.507821 0.508842 0.496417 0.491502 0.486811 0.501717 0.494372 0.496713 0.494583 0.500055 0.501134 0.509291 0.500918 0.496545 0.511762 0.504486 0.490693 0.500642 0.500462 0.500283 0.500721 0.504557 0.493893 0.497055 0.499066 0.510798 0.506242 0.490934 0.506442 0.497604 0.498014 0.496968 0.518149 0.498449 0.495668 0.505085 0.513238 0.498048 0.497236 0.500141 0.498397 0.500422 0.506844 0.500852 0.515647 0.500846 0.497272 0.512777 0.498865 0.500167 0.504666 0.500437 0.501538 0.512485 0.498505 0.506561 0.493361 0.490420 0.492146 0.494064 0.499309 0.475455 0.503484 0.488601 0.491208 0.493409 0.505472 0.497892 0.506904 0.499997 0.503477 0.496997 0.494415 0.504061 0.497029 0.501116 0.502172 0.501075 0.498985 0.491088 0.511601 0.498104 0.498514 0.494542 0.509041 0.490958 0.501474 0.503330 0.490517 0.505522 0.503444 0.495051 0.488966 0.499750 0.495212 0.496535 0.491767 0.510366 0.502458 0.506368 0.494141 0.506606 0.505974 0.514179 0.514376 0.498522 0.501121 0.494785 0.509205 0.506758 0.508073 0.490601 0.492721 0.492221 0.501001 0.509855 0.509032 0.505940 0.496860 0.509905 0.497292 0.489657 0.517993 0.503814 0.494855 0.509976 0.513107 0.494527 0.507766 0.498022 0.496449 0.511270 0.508142 0.496191 0.501916 0.495531 0.506545 0.502518 0.515605 0.497369 0.494123 0.494304 0.497140 0.495760 0.501747 0.502245 0.497074 0.493831 0.498859 0.497663 0.484598 0.500492 0.501353 0.508736 0.506591 

