1000000000,8957647,2082747,3626286,1459608,33758790,2997317,4282630,1561990,56290131,5799521,4454902,3804752,170689802,8156556,7572829
1000000000,8676340,2152745,3607216,1485307,33944900,3061688,4306281,1597678,56783829,5858349,4485368,3895469,171551926,7979449,7547363
1000000000,8643346,2105068,3560269,1451752,34006734,3007329,4248742,1568897,56865314,5804308,4430583,3845924,171491812,7879619,7513960
1000000000,2835955,563929,1708961,417366,9865796,760918,1943365,440098,14918972,1373605,1998308,932360,61480855,3834442,2684479
1000000000,1192831,105398,1192176,104966,3446063,104590,1296336,104184,3551594,110480,1296400,110079,30799213,2585667,1297884
1000000000,1192744,104919,1192124,104547,3446210,104106,1295877,103763,3551384,110088,1295941,109679,30798013,2584736,1297425
1000000000,1189752,103792,1189120,103416,3437153,103008,1291178,102719,3540988,108731,1291242,108342,30816719,2575096,1292979
1000000000,1192356,103788,1191989,103436,3446576,102991,1294325,102701,3550660,108643,1294328,108277,30793850,2581458,1295781
1000000000,1192820,106610,1192491,106317,3444925,106074,1297979,105824,3552314,111881,1297979,111500,30803367,2588956,1299559
1000000000,1192516,105372,1192196,105145,3445456,104516,1296476,104324,3551672,110580,1296476,110216,30799661,2586011,1298056
1000000000,1192437,104715,1192119,104509,3445704,103951,1295801,103769,3551363,110014,1295801,109643,30797898,2584648,1297381
1000000000,1192479,104053,1192210,103869,3446111,103275,1295046,103120,3550956,109253,1295046,108903,30795624,2582904,1296626
1000000000,1189144,103431,1188863,103261,3436625,102721,1290886,102565,3540953,108570,1290886,108220,30816445,2574830,1292724
1000000000,1192726,105897,1192506,105808,3445225,105361,1297350,105245,3551978,111203,1297350,110837,30801438,2587446,1298803
1000000000,1192360,105203,1192203,105239,3445305,104531,1296523,104483,3551693,110624,1296523,110276,30799781,2586105,1298103
1000000000,1192308,104778,1192152,104816,3445463,104115,1296143,104070,3551522,110284,1296143,109936,30798801,2585345,1297723
1000000000,1192232,104229,1192076,104266,3445727,103533,1295520,103484,3551239,109757,1295520,109402,30797187,2584086,1297100
1000000000,1182139,103272,1181960,103309,3415799,102666,1283983,102618,3520119,108598,1283983,108244,31285238,2560774,1285720
1000000000,1192071,103062,1191917,103098,3446332,102450,1293942,102402,3550529,108411,1293942,108063,30793142,2580942,1295625
1000000000,1192731,106246,1192592,106281,3444948,105813,1297924,105759,3552230,111713,1297924,111347,30802904,2588596,1299377
1000000000,1192333,105151,1192197,105187,3445312,104413,1296488,104365,3551678,110574,1296488,110226,30799690,2586034,1298068
1000000000,1192271,104608,1192135,104646,3445539,103963,1295953,103917,3551433,110122,1295953,109771,30798298,2584955,1297533
1000000000,1192158,103985,1192022,104022,3445856,103297,1295178,103248,3551089,109465,1295178,109112,30796323,2583406,1296758
1000000000,1189254,103366,1189111,103403,3436605,102759,1291136,102712,3540990,108687,1291136,108337,30816709,2575086,1292971
1000000000,1192494,105040,1192358,105075,3445604,104440,1296320,104386,3551519,110331,1296320,109965,30798811,2585387,1297776
1000000000,1192409,105516,1192273,105552,3445100,104982,1297003,104934,3551906,111028,1297003,110680,30801006,2587065,1298583
1000000000,1192318,104926,1192182,104964,3445367,104237,1296347,104192,3551612,110458,1296347,110110,30799322,2585754,1297927
1000000000,1192263,104498,1192127,104535,3445575,103815,1295865,103766,3551393,110051,1295865,109696,30798064,2584775,1297445
1000000000,1189262,103377,1189119,103414,3436599,102772,1291146,102724,3540990,108695,1291146,108344,30816726,2575102,1292980
1000000000,1192100,103215,1191964,103250,3446439,102599,1294147,102550,3550580,108475,1294147,108125,30793394,2581101,1295604
1000000000,1192649,106440,1192513,106476,3444684,106003,1298127,105950,3552378,111990,1298127,111626,30803746,2589252,1299707
1000000000,1192320,105042,1192184,105078,3445338,104310,1296396,104262,3551637,110496,1296396,110148,30799457,2585852,1297976
1000000000,1192257,104501,1192121,104539,3445577,103848,1295838,103801,3551382,110027,1295838,109674,30798000,2584724,1297418
1000000000,1192215,103821,1192079,103859,3445983,103148,1294975,103101,3550967,109249,1294975,108898,30795650,2582899,1296555
1000000000,1182093,103300,1181955,103336,3415674,102688,1283978,102640,3520133,108641,1283978,108288,31285342,2560872,1285815
1000000000,1192277,104070,1192165,104105,3446040,103430,1295133,103378,3550999,109319,1295133,108957,30795809,2583025,1296589
1000000000,1192500,106037,1192388,106073,3444800,105593,1297663,105543,3552192,111591,1297663,111239,30802663,2588373,1299243
1000000000,1192298,104985,1192186,105023,3445315,104264,1296387,104218,3551631,110490,1296387,110142,30799424,2585832,1297967
1000000000,1192216,104428,1192104,104463,3445594,103752,1295726,103702,3551332,109932,1295726,109577,30797716,2584499,1297306
1000000000,1189191,103605,1189076,103644,3436759,102975,1291633,102929,3541478,109008,1291633,108658,30817032,2576072,1293244
1000000000,1192064,103193,1191948,103229,3445905,102581,1293972,102533,3550287,108535,1293972,108186,30794202,2581007,1295779
1000000000,1192698,106206,1192586,106241,3444928,105775,1297880,105721,3552212,111675,1297880,111309,30802790,2588507,1299333
1000000000,1192298,105102,1192186,105138,3445302,104370,1296410,104322,3551642,110508,1296410,110160,30799494,2585880,1297990
1000000000,1192261,104682,1192149,104720,3445458,104027,1296056,103981,3551480,110210,1296056,109859,30798561,2585161,1297636
1000000000,1192137,104000,1192025,104037,3445810,103314,1295198,103265,3551099,109481,1295198,109128,30796368,2583444,1296778
1000000000,1189230,103366,1189111,103403,3436562,102759,1291135,102712,3540987,108687,1291135,108337,30816711,2575088,1292970
1000000000,1192444,104881,1192332,104916,3445635,104292,1296147,104238,3551442,110183,1296147,109817,30798367,2585040,1297603
1000000000,1192400,105620,1192288,105656,3445021,105081,1297101,105033,3551950,111112,1297101,110764,30801256,2587262,1298681
1000000000,1192290,104894,1192178,104932,3445347,104207,1296311,104162,3551597,110427,1296311,110079,30799231,2585681,1297891
1000000000,1192225,104457,1192113,104494,3445577,103773,1295771,103724,3551351,109971,1295771,109616,30797827,2584589,1297351
1000000000,1185871,103275,1185749,103312,3427289,102663,1287952,102615,3531698,108652,1287952,108299,31087640,2568708,1289565
1000000000,1188274,103193,1188158,103229,3434659,102581,1290182,102533,3539042,108535,1290182,108186,30991271,2573426,1291989
1000000000,1192614,105746,1192502,105781,3445158,105268,1297318,105214,3551963,111165,1297318,110799,30801359,2587383,1298771
1000000000,1192302,105128,1192190,105164,3445289,104466,1296439,104418,3551654,110564,1296439,110216,30799567,2585939,1298019
1000000000,1192279,104866,1192167,104904,3445375,104194,1296239,104149,3551564,110366,1296239,110018,30799048,2585538,1297819
1000000000,1192190,104243,1192078,104280,3445673,103550,1295539,103501,3551249,109773,1295539,109418,30797232,2584123,1297119
1000000000,1189239,103373,1189120,103410,3436565,102767,1291144,102719,3540990,108693,1291144,108342,30816718,2575096,1292979
1000000000,1192200,103972,1192088,104007,3446058,103321,1294996,103272,3550958,109198,1294996,108848,30795562,2582799,1296452
1000000000,1192570,106092,1192458,106128,3444801,105672,1297751,105619,3552210,111670,1297751,111306,30802785,2588502,1299331
1000000000,1192298,104995,1192186,105032,3445309,104258,1296395,104211,3551635,110497,1296395,110149,30799454,2585851,1297975
1000000000,1192222,104455,1192110,104491,3445583,103781,1295757,103732,3551345,109959,1295757,109604,30797788,2584559,1297337
1000000000,1189720,103611,1189605,103650,3438338,102982,1292170,102936,3543065,109016,1292170,108666,30813325,2577146,1293781
1000000000,1191537,103193,1191421,103229,3444322,102581,1293445,102533,3548704,108535,1293445,108186,30797933,2579953,1295252
1000000000,1192679,106105,1192567,106140,3444977,105674,1297761,105620,3552160,111574,1297761,111208,30802490,2588270,1299214
1000000000,1192311,105176,1192199,105212,3445268,104445,1296494,104397,3551679,110579,1296494,110231,30799706,2586047,1298074
1000000000,1192266,104698,1192154,104736,3445446,104041,1296084,103995,3551492,110234,1296084,109883,30798632,2585218,1297664
1000000000,1192129,104004,1192017,104041,3445806,103318,1295196,103270,3551101,109481,1295196,109129,30796379,2583448,1296776
1000000000,1182195,103373,1182069,103410,3415678,102767,1284092,102719,3520148,108697,1284092,108343,31285464,2560991,1285928
1000000000,1191949,103002,1191837,103037,3446367,102390,1293885,102341,3550511,108339,1293885,107989,30792985,2580781,1295445
1000000000,1192731,106529,1192619,106565,3444743,106093,1298249,106040,3552386,112007,1298249,111643,30803798,2589292,1299726
1000000000,1192308,105128,1192196,105164,3445273,104391,1296483,104343,3551675,110570,1296483,110222,30799676,2586025,1298063
1000000000,1192239,104525,1192127,104563,3445533,103868,1295877,103821,3551399,110060,1295877,109707,30798101,2584802,1297457
1000000000,1192150,103799,1192038,103837,3445944,103130,1294946,103081,3550968,109240,1294946,108889,30795637,2582882,1296526
1000000000,1189170,103337,1189051,103373,3436552,102725,1291075,102679,3540980,108660,1291075,108310,30816649,2575027,1292913
1000000000,1192583,105590,1192471,105625,3445245,105112,1297105,105058,3551868,111004,1297105,110638,30800814,2586956,1298558
1000000000,1192327,105243,1192215,105279,3445225,104584,1296601,104536,3551728,110681,1296601,110333,30799980,2586262,1298181
1000000000,1192267,104813,1192155,104851,3445404,104138,1296166,104093,3551531,110304,1296166,109956,30798862,2585392,1297746
1000000000,1192209,104337,1192097,104374,3445622,103644,1295664,103595,3551304,109879,1295664,109524,30797550,2584372,1297244
1000000000,1189239,103373,1189120,103410,3436564,102767,1291143,102719,3540989,108693,1291143,108342,30816719,2575097,1292978
1000000000,1192185,103887,1192073,103922,3446098,103236,1294896,103187,3550913,109113,1294896,108763,30795306,2582599,1296352
1000000000,1192567,106086,1192455,106122,3444809,105677,1297737,105624,3552206,111658,1297737,111294,30802752,2588473,1299317
1000000000,1192299,104995,1192187,105032,3445309,104256,1296397,104209,3551636,110497,1296397,110150,30799455,2585854,1297977
1000000000,1192223,104461,1192111,104497,3445579,103789,1295765,103740,3551348,109967,1295765,109611,30797809,2584576,1297345
1000000000,1190263,103696,1190148,103735,3439878,103056,1292802,103010,3544694,109105,1292802,108755,30809860,2578410,1294413
1000000000,1183963,103192,1183840,103228,3421856,102580,1285864,102532,3526281,108537,1285864,108185,31270404,2564788,1287670
1000000000,1192425,104772,1192313,104807,3445686,104186,1296022,104132,3551387,110077,1296022,109711,30798051,2584791,1297478
1000000000,1192407,105661,1192295,105697,3445002,105132,1297146,105084,3551969,111150,1297146,110802,30801370,2587352,1298726
1000000000,1192294,104920,1192182,104958,3445332,104216,1296344,104171,3551611,110456,1296344,110108,30799317,2585749,1297924
1000000000,1192217,104414,1192105,104451,3445600,103739,1295720,103690,3551330,109927,1295720,109572,30797693,2584484,1297300
1000000000,1189280,103584,1189161,103621,3436441,102967,1291446,102919,3541123,108950,1291446,108599,30817492,2575701,1293277
1000000000,1191926,102973,1191814,103008,3446352,102361,1293840,102312,3550499,108319,1293840,107970,30792929,2580737,1295425
1000000000,1192753,106539,1192641,106575,3444767,106103,1298267,106050,3552385,112005,1298267,111640,30803785,2589285,1299722
1000000000,1192296,105065,1192184,105101,3445307,104337,1296401,104289,3551639,110500,1296401,110152,30799470,2585861,1297981
1000000000,1192246,104570,1192134,104608,3445513,103907,1295925,103860,3551420,110101,1295925,109748,30798221,2584898,1297505
1000000000,1192151,103837,1192039,103875,3445917,103164,1295001,103115,3550995,109290,1295001,108939,30795792,2583000,1296581
1000000000,1189179,103342,1189060,103378,3436553,102731,1291084,102685,3540981,108664,1291084,108314,30816658,2575037,1292922
1000000000,1192569,105506,1192457,105541,3445283,105021,1297011,104967,3551827,110925,1297011,110559,30800577,2586770,1298464
1000000000,1192325,105249,1192213,105285,3445228,104602,1296596,104554,3551726,110676,1296596,110328,30799966,2586250,1298176
1000000000,1192279,104874,1192167,104912,3445374,104193,1296244,104148,3551567,110370,1296244,110022,30799059,2585547,1297824
1000000000,1192212,104354,1192100,104391,3445612,103662,1295684,103613,3551312,109897,1295684,109542,30797605,2584414,1297264
1000000000,1183192,103141,1183070,103178,3419427,102535,1285094,102487,3523658,108474,1285094,108121,31221735,2562992,1286707
1000000000,1190923,103193,1190807,103229,3442606,102581,1292831,102533,3546989,108535,1292831,108186,30856644,2578724,1294638
1000000000,1192676,106080,1192564,106115,3444988,105649,1297732,105595,3552146,111549,1297732,111183,30802414,2588211,1299185
1000000000,1192297,105107,1192185,105143,3445306,104382,1296402,104334,3551639,110501,1296402,110153,30799474,2585864,1297982
1000000000,1192252,104702,1192140,104740,3445447,104044,1296063,103999,3551486,110216,1296063,109868,30798596,2585186,1297643
1000000000,1192160,104094,1192048,104131,3445754,103403,1295338,103354,3551159,109602,1295338,109247,30796721,2583721,1296918
1000000000,1189239,103373,1189120,103410,3436565,102767,1291144,102719,3540990,108693,1291144,108342,30816719,2575096,1292979
1000000000,1192400,104676,1192288,104711,3445756,104041,1295852,103987,3551312,109932,1295852,109566,30797618,2584451,1297308
1000000000,1192422,105693,1192310,105729,3444960,105223,1297246,105175,3552012,111235,1297246,110887,30801623,2587551,1298826
1000000000,1192294,104927,1192182,104965,3445333,104222,1296343,104177,3551611,110455,1296343,110107,30799314,2585747,1297923
1000000000,1192227,104464,1192115,104500,3445571,103780,1295785,103730,3551357,109982,1295785,109627,30797863,2584615,1297365
1000000000,1189280,103591,1189161,103629,3436441,102974,1291452,102927,3541128,108956,1291452,108605,30817506,2575713,1293283
1000000000,1191925,102970,1191813,103006,3446352,102358,1293838,102310,3550499,108317,1293838,107969,30792926,2580735,1295424
1000000000,1192732,106417,1192620,106452,3444827,105981,1298123,105927,3552320,111882,1298123,111516,30803414,2588994,1299577
1000000000,1192311,105147,1192199,105183,3445267,104415,1296497,104367,3551681,110582,1296497,110234,30799715,2586054,1298077
1000000000,1192242,104548,1192130,104586,3445526,103899,1295894,103852,3551406,110073,1295894,109721,30798139,2584835,1297474
1000000000,1192148,103895,1192036,103933,3445881,103208,1295067,103159,3551029,109354,1295067,109002,30795987,2583148,1296647
1000000000,1182147,103348,1182021,103384,3415672,102741,1284046,102695,3520143,108673,1284046,108320,31285414,2560942,1285883
1000000000,1192161,103747,1192049,103782,3446165,103096,1294731,103047,3550840,108973,1294731,108623,30794884,2582270,1296187
1000000000,1192582,106162,1192470,106198,3444771,105752,1297831,105699,3552248,111738,1297831,111374,30802992,2588661,1299411
1000000000,1192298,105021,1192186,105057,3445301,104280,1296415,104232,3551645,110512,1296415,110164,30799505,2585889,1297995
1000000000,1192217,104397,1192105,104434,3445605,103749,1295703,103701,3551319,109914,1295703,109559,30797647,2584451,1297283
1000000000,1190893,103798,1190778,103837,3441672,103137,1293530,103091,3546586,109203,1293530,108853,30805811,2579867,1295141
1000000000,1190396,103193,1190280,103229,3440898,102581,1292303,102533,3545280,108535,1292303,108186,30806006,2577669,1294110
1000000000,1192654,105954,1192542,105989,3445048,105499,1297588,105445,3552083,111399,1297588,111033,30802047,2587923,1299041
1000000000,1192309,105177,1192197,105213,3445274,104479,1296482,104431,3551675,110596,1296482,110248,30799674,2586022,1298062
1000000000,1192258,104745,1192146,104783,3445429,104082,1296107,104037,3551505,110253,1296107,109905,30798710,2585273,1297687
1000000000,1192164,104107,1192052,104144,3445746,103418,1295359,103369,3551169,109620,1295359,109265,30796776,2583764,1296939
1000000000,1189239,103373,1189120,103410,3436563,102767,1291143,102719,3540988,108693,1291143,108342,30816717,2575097,1292978
1000000000,1192382,104568,1192270,104603,3445805,103938,1295731,103884,3551258,109829,1295731,109463,30797309,2584209,1297187
1000000000,1192425,105716,1192313,105752,3444951,105242,1297273,105194,3552026,111258,1297273,110910,30801694,2587605,1298853
1000000000,1192296,104952,1192184,104990,3445327,104252,1296359,104207,3551618,110467,1296359,110120,30799353,2585778,1297939
1000000000,1192236,104516,1192124,104552,3445543,103825,1295855,103775,3551390,110042,1295855,109686,30798043,2584755,1297435
1000000000,1187554,103374,1187436,103412,3432117,102758,1289732,102711,3536595,108747,1289732,108395,30984568,2572269,1291344
1000000000,1186610,103194,1186490,103230,3429785,102582,1288514,102534,3534193,108537,1288514,108187,31094625,2570090,1290322
1000000000,1192533,105369,1192421,105404,3445381,104824,1296771,104770,3551720,110715,1296771,110349,30799965,2586289,1298224
1000000000,1192351,105337,1192239,105373,3445157,104744,1296763,104696,3551798,110824,1296763,110476,30800392,2586586,1298343
1000000000,1192287,104902,1192175,104940,3445355,104225,1296295,104180,3551591,110413,1296295,110065,30799189,2585647,1297875
1000000000,1192215,104375,1192103,104412,3445602,103685,1295706,103636,3551321,109916,1295706,109561,30797662,2584459,1297286
1000000000,1189238,103373,1189119,103410,3436565,102767,1291144,102719,3540990,108693,1291144,108342,30816719,2575096,1292979
1000000000,1192145,103652,1192033,103687,3446210,103001,1294620,102952,3550790,108878,1294620,108528,30794601,2582047,1296076
1000000000,1192583,106169,1192471,106205,3444766,105758,1297842,105705,3552252,111747,1297842,111383,30803017,2588682,1299422
1000000000,1192301,105046,1192189,105082,3445295,104313,1296429,104265,3551651,110524,1296429,110176,30799540,2585918,1298009
1000000000,1192227,104449,1192115,104486,3445577,103792,1295775,103744,3551353,109976,1295775,109621,30797835,2584596,1297355
1000000000,1191423,103809,1191308,103848,3443248,103150,1294072,103104,3548174,109215,1294072,108865,30802115,2580950,1295683
1000000000,1189868,103193,1189752,103229,3439317,102581,1291776,102533,3543699,108535,1291776,108186,30809736,2576615,1293583
1000000000,1192651,105939,1192539,105974,3445054,105482,1297570,105428,3552074,111373,1297570,111007,30802004,2587887,1299023
1000000000,1192300,105128,1192188,105164,3445299,104436,1296417,104388,3551645,110552,1296417,110204,30799510,2585894,1297997
1000000000,1192267,104785,1192155,104823,3445407,104116,1296167,104071,3551534,110304,1296167,109956,30798862,2585392,1297747
1000000000,1192167,104131,1192055,104168,3445735,103444,1295381,103395,3551177,109639,1295381,109284,30796832,2583809,1296961
1000000000,1182192,103367,1182066,103404,3415681,102761,1284089,102713,3520148,108694,1284089,108340,31285456,2560985,1285922
1000000000,1191925,102970,1191813,103006,3446352,102358,1293838,102310,3550499,108317,1293838,107969,30792926,2580735,1295424
1000000000,1192727,106391,1192615,106426,3444841,105955,1298093,105901,3552308,111856,1298093,111490,30803336,2588933,1299547
1000000000,1192303,105107,1192191,105143,3445290,104376,1296440,104328,3551655,110533,1296440,110185,30799568,2585939,1298020
1000000000,1192249,104603,1192137,104641,3445493,103953,1295967,103907,3551440,110135,1295967,109784,30798338,2584985,1297547
1000000000,1192113,103886,1192001,103923,3445874,103199,1295042,103150,3551030,109348,1295042,108995,30795969,2583131,1296622
1000000000,1189234,103369,1189115,103406,3436559,102762,1291138,102715,3540987,108690,1291138,108340,30816716,2575093,1292976
1000000000,1192512,105252,1192400,105287,3445438,104707,1296634,104653,3551660,110598,1296634,110232,30799614,2586014,1298087
1000000000,1192360,105398,1192248,105434,3445133,104811,1296823,104763,3551825,110875,1296823,110527,30800546,2586706,1298403
1000000000,1192282,104877,1192170,104915,3445365,104191,1296265,104146,3551576,110388,1296265,110040,30799113,2585590,1297845
1000000000,1192231,104456,1192119,104493,3445562,103769,1295814,103720,3551372,110007,1295814,109652,30797935,2584672,1297394
1000000000,1189239,103373,1189120,103410,3436563,102767,1291144,102719,3540988,108693,1291144,108342,30816718,2575098,1292979
1000000000,1192125,103537,1192013,103572,3446267,102886,1294485,102837,3550732,108763,1294485,108413,30794259,2581777,1295941
1000000000,1192598,106261,1192486,106297,3444721,105848,1297949,105795,3552299,111839,1297949,111475,30803290,2588898,1299529
1000000000,1192294,105017,1192182,105053,3445314,104291,1296382,104243,3551630,110484,1296382,110136,30799422,2585824,1297962
1000000000,1192237,104495,1192125,104532,3445551,103833,1295839,103785,3551381,110030,1295839,109675,30797997,2584724,1297419
1000000000,1191952,103815,1191837,103854,3444826,103156,1294610,103110,3549761,109224,1294610,108874,30798409,2582026,1296221
1000000000,1182294,103192,1182171,103228,3416851,102580,1284195,102532,3521276,108537,1284195,108185,31282208,2561450,1286001
1000000000,1192356,104410,1192244,104445,3445878,103784,1295550,103730,3551177,109675,1295550,109309,30796848,2583848,1297006
1000000000,1192443,105824,1192331,105860,3444900,105344,1297396,105296,3552080,111363,1297396,111015,30802007,2587851,1298976
1000000000,1192298,104974,1192186,105012,3445314,104273,1296386,104227,3551630,110490,1296386,110142,30799427,2585832,1297966
1000000000,1192227,104475,1192115,104511,3445573,103788,1295783,103739,3551357,109981,1295783,109626,30797856,2584611,1297363
1000000000,1189246,103620,1189127,103658,3436429,103003,1291510,102956,3541161,109003,1291510,108652,30817677,2575829,1293293
1000000000,1191977,103015,1191865,103051,3446317,102403,1293889,102355,3550512,108363,1293889,108015,30793032,2580837,1295524
1000000000,1192706,106260,1192594,106295,3444905,105827,1297941,105773,3552241,111727,1297941,111361,30802948,2588629,1299394
1000000000,1192314,105177,1192202,105213,3445258,104445,1296516,104397,3551688,110598,1296516,110250,30799761,2586092,1298096
1000000000,1192252,104622,1192140,104660,3445484,103966,1295990,103920,3551450,110154,1295990,109803,30798395,2585030,1297570
1000000000,1192121,103931,1192009,103968,3445850,103248,1295096,103199,3551053,109395,1295096,109042,30796110,2583242,1296676
1000000000,1189234,103369,1189115,103406,3436562,102762,1291139,102715,3540990,108690,1291139,108340,30816719,2575094,1292977
1000000000,1192503,105194,1192391,105229,3445464,104649,1296566,104595,3551628,110540,1296566,110174,30799438,2585878,1298019
1000000000,1192358,105398,1192246,105434,3445137,104811,1296813,104763,3551821,110867,1296813,110519,30800522,2586687,1298393
1000000000,1192288,104898,1192176,104936,3445350,104209,1296308,104164,3551597,110424,1296308,110076,30799223,2585674,1297888
1000000000,1192236,104493,1192124,104530,3445544,103809,1295848,103760,3551384,110037,1295848,109682,30798022,2584743,1297428
1000000000,1184861,103141,1184739,103178,3424434,102535,1286763,102487,3528665,108474,1286763,108121,31136933,2566330,1288376
1000000000,1189254,103193,1189138,103229,3437599,102581,1291162,102533,3541982,108535,1291162,108186,30941446,2575387,1292969
1000000000,1192631,105825,1192519,105860,3445113,105362,1297431,105308,3552014,111253,1297431,110887,30801646,2587608,1298884
1000000000,1192308,105173,1192196,105209,3445276,104491,1296472,104443,3551669,110600,1296472,110252,30799652,2586004,1298052
1000000000,1192263,104768,1192151,104806,3445416,104104,1296138,104059,3551519,110280,1296138,109932,30798789,2585336,1297718
1000000000,1192184,104217,1192072,104254,3445691,103521,1295495,103472,3551229,109735,1295495,109380,30797119,2584034,1297075
1000000000,1189239,103373,1189120,103410,3436564,102767,1291143,102719,3540989,108693,1291143,108342,30816719,2575096,1292978
1000000000,1192311,104173,1192199,104208,3445998,103535,1295258,103481,3551048,109426,1295258,109060,30796101,2583262,1296714
1000000000,1192475,105987,1192363,106023,3444816,105532,1297600,105484,3552170,111537,1297600,111189,30802529,2588260,1299180
1000000000,1192294,104959,1192182,104997,3445327,104249,1296361,104203,3551621,110468,1296361,110120,30799360,2585780,1297941
1000000000,1192215,104412,1192103,104448,3445604,103734,1295702,103685,3551319,109912,1295702,109557,30797650,2584450,1297282
1000000000,1189220,103721,1189101,103759,3436385,103091,1291650,103044,3541233,109119,1291650,108768,30818062,2576110,1293383
1000000000,1192031,103066,1191919,103102,3446283,102454,1293943,102406,3550528,108413,1293943,108065,30793143,2580946,1295628
1000000000,1192704,106244,1192592,106279,3444910,105811,1297922,105757,3552230,111711,1297922,111345,30802901,2588591,1299375
1000000000,1192307,105141,1192195,105177,3445276,104405,1296476,104357,3551672,110564,1296476,110216,30799659,2586011,1298056
1000000000,1192249,104620,1192137,104658,3445495,103973,1295967,103927,3551441,110134,1295967,109783,30798336,2584983,1297547
1000000000,1192134,103985,1192022,104022,3445817,103297,1295179,103248,3551090,109465,1295179,109112,30796322,2583406,1296759
1000000000,1182187,103368,1182061,103405,3415677,102761,1284085,102714,3520148,108692,1284085,108339,31285457,2560984,1285922
1000000000,1192092,103347,1191980,103382,3446356,102696,1294262,102647,3550631,108573,1294262,108223,30793686,2581331,1295718
1000000000,1192611,106327,1192499,106363,3444688,105924,1298034,105871,3552338,111911,1298034,111547,30803510,2589066,1299614
1000000000,1192303,105084,1192191,105120,3445290,104349,1296442,104301,3551657,110535,1296442,110187,30799573,2585943,1298022
1000000000,1192223,104438,1192111,104476,3445575,103789,1295769,103742,3551349,109968,1295769,109615,30797823,2584586,1297349
1000000000,1192254,103854,1192142,103892,3445966,103181,1295038,103134,3550978,109279,1295038,108928,30795719,2582965,1296618
1000000000,1189064,103268,1188945,103304,3436536,102656,1290969,102608,3540964,108609,1290969,108259,30816533,2574915,1292807
1000000000,1192617,105764,1192505,105799,3445151,105291,1297339,105237,3551974,111191,1297339,110825,30801412,2587425,1298792
1000000000,1192313,105197,1192201,105233,3445260,104523,1296512,104475,3551687,110618,1296512,110270,30799753,2586084,1298092
1000000000,1192266,104786,1192154,104824,3445409,104122,1296157,104077,3551528,110296,1296157,109948,30798837,2585374,1297737
1000000000,1192189,104236,1192077,104273,3445677,103542,1295527,103493,3551243,109763,1295527,109408,30797205,2584100,1297107
1000000000,1189239,103373,1189120,103410,3436565,102767,1291144,102719,3540990,108693,1291144,108342,30816719,2575097,1292979
1000000000,1192257,104055,1192145,104090,3446038,103410,1295106,103360,3550991,109296,1295106,108939,30795770,2582989,1296562
1000000000,1192520,106050,1192408,106086,3444801,105612,1297687,105560,3552197,111612,1297687,111255,30802696,2588405,1299267
1000000000,1192297,104983,1192185,105021,3445316,104260,1296384,104214,3551630,110488,1296384,110140,30799419,2585827,1297964
1000000000,1192218,104432,1192106,104467,3445592,103757,1295732,103707,3551334,109936,1295732,109581,30797726,2584509,1297312
1000000000,1189265,103605,1189150,103644,3436983,102975,1291707,102929,3541702,109008,1291707,108658,30816505,2576221,1293318
1000000000,1184943,103192,1184820,103228,3424798,102580,1286844,102532,3529223,108537,1286844,108185,31263468,2566748,1288650
1000000000,1192462,104997,1192350,105032,3445584,104399,1296272,104345,3551498,110290,1296272,109924,30798688,2585291,1297728
1000000000,1192390,105545,1192278,105581,3445050,105011,1297028,104963,3551916,111049,1297028,110701,30801068,2587115,1298608
1000000000,1192296,104927,1192184,104965,3445326,104236,1296358,104191,3551617,110468,1296358,110120,30799354,2585777,1297938
1000000000,1192240,104505,1192128,104542,3445536,103818,1295874,103769,3551397,110058,1295874,109703,30798085,2584792,1297454
1000000000,1189238,103383,1189119,103420,3436562,102782,1291149,102734,3540992,108698,1291149,108347,30816734,2575108,1292983
1000000000,1192058,103142,1191946,103177,3446415,102530,1294087,102481,3550559,108432,1294087,108082,30793268,2581001,1295554
1000000000,1192642,106509,1192530,106545,3444640,106068,1298182,106015,3552398,112029,1298182,111665,30803860,2589344,1299752
1000000000,1192294,105032,1192182,105068,3445314,104301,1296382,104253,3551630,110484,1296382,110136,30799422,2585824,1297962
1000000000,1192235,104509,1192123,104547,3445544,103855,1295850,103808,3551387,110037,1295850,109684,30798030,2584748,1297430
1000000000,1192165,103807,1192053,103845,3445949,103134,1294955,103087,3550967,109242,1294955,108891,30795639,2582885,1296535
1000000000,1189154,103321,1189035,103357,3436550,102709,1291059,102661,3540978,108652,1291059,108302,30816630,2575011,1292897
1000000000,1192612,105729,1192500,105764,3445166,105251,1297298,105197,3551954,111148,1297298,110782,30801308,2587343,1298751
1000000000,1192303,105136,1192191,105172,3445286,104473,1296450,104425,3551660,110573,1296450,110225,30799595,2585960,1298030
1000000000,1192279,104868,1192167,104906,3445375,104196,1296241,104151,3551565,110367,1296241,110019,30799049,2585541,1297821
1000000000,1192192,104250,1192080,104287,3445668,103558,1295546,103509,3551251,109780,1295546,109425,30797255,2584139,1297126
1000000000,1182211,103141,1182089,103178,3416487,102535,1284114,102487,3520718,108474,1284114,108121,31271559,2561031,1285727
1000000000,1191904,103193,1191788,103229,3445546,102581,1293811,102533,3549929,108535,1293811,108186,30806820,2580685,1295618
1000000000,1192684,106130,1192572,106165,3444965,105699,1297791,105645,3552173,111599,1297791,111233,30802565,2588329,1299244
1000000000,1192310,105172,1192198,105208,3445269,104441,1296493,104393,3551679,110578,1296493,110230,30799701,2586044,1298073
1000000000,1192262,104677,1192150,104715,3445457,104020,1296055,103974,3551479,110210,1296055,109859,30798562,2585161,1297635
1000000000,1192137,104011,1192025,104048,3445807,103326,1295205,103277,3551102,109487,1295205,109134,30796388,2583458,1296785
1000000000,1189231,103366,1189112,103403,3436562,102759,1291135,102712,3540987,108687,1291135,108337,30816708,2575086,1292970
1000000000,1192436,104841,1192324,104876,3445655,104253,1296101,104199,3551423,110144,1296101,109778,30798253,2584948,1297557
1000000000,1192404,105638,1192292,105674,3445011,105103,1297121,105055,3551957,111129,1297121,110781,30801305,2587302,1298701
1000000000,1192290,104903,1192178,104941,3445344,104211,1296322,104166,3551603,110436,1296322,110088,30799258,2585702,1297902
1000000000,1192215,104399,1192103,104436,3445604,103721,1295704,103672,3551321,109914,1295704,109559,30797656,2584454,1297284
1000000000,1189279,103572,1189160,103609,3436447,102954,1291432,102906,3541117,108938,1291432,108587,30817453,2575673,1293264
1000000000,1191935,102986,1191823,103021,3446358,102374,1293858,102325,3550504,108328,1293858,107978,30792954,2580756,1295433
1000000000,1192746,106541,1192634,106577,3444754,106105,1298268,106052,3552389,112012,1298268,111648,30803811,2589304,1299732
1000000000,1192309,105132,1192197,105168,3445273,104395,1296487,104347,3551678,110573,1296487,110225,30799688,2586032,1298067
1000000000,1192239,104526,1192127,104564,3445530,103868,1295880,103821,3551399,110063,1295880,109710,30798108,2584809,1297460
1000000000,1192142,103797,1192030,103835,3445941,103128,1294939,103079,3550967,109238,1294939,108887,30795634,2582877,1296519
1000000000,1182132,103341,1182006,103377,3415671,102730,1284031,102684,3520142,108666,1284031,108313,31285399,2560927,1285868
1000000000,1192197,103951,1192085,103986,3446067,103300,1294971,103251,3550946,109177,1294971,108827,30795498,2582749,1296427
1000000000,1192561,106051,1192449,106087,3444825,105637,1297697,105584,3552188,111624,1297697,111260,30802648,2588393,1299277
1000000000,1192305,105027,1192193,105064,3445292,104287,1296438,104240,3551654,110533,1296438,110185,30799560,2585936,1298018
1000000000,1192227,104481,1192115,104517,3445570,103802,1295790,103753,3551360,109987,1295790,109632,30797873,2584625,1297370
1000000000,1189881,103615,1189766,103654,3438818,102988,1292334,102942,3543548,109019,1292334,108669,30812196,2577474,1293945
1000000000,1191376,103193,1191260,103229,3443841,102581,1293284,102533,3548223,108535,1293284,108186,30799069,2579630,1295091
1000000000,1192678,106093,1192566,106128,3444981,105662,1297747,105608,3552152,111562,1297747,111196,30802456,2588241,1299200
1000000000,1192308,105166,1192196,105202,3445275,104436,1296481,104388,3551675,110568,1296481,110220,30799673,2586020,1298061
1000000000,1192267,104706,1192155,104744,3445446,104046,1296084,104000,3551492,110234,1296084,109883,30798632,2585218,1297664
1000000000,1192132,104018,1192020,104055,3445793,103334,1295223,103286,3551111,109504,1295223,109152,30796447,2583502,1296803
1000000000,1189239,103373,1189120,103410,3436565,102767,1291144,102719,3540990,108693,1291144,108342,30816718,2575097,1292979
1000000000,1192423,104762,1192311,104797,3445690,104176,1296010,104122,3551381,110067,1296010,109701,30798021,2584767,1297466
1000000000,1192408,105659,1192296,105695,3445004,105132,1297144,105084,3551969,111148,1297144,110800,30801363,2587346,1298724
1000000000,1192294,104930,1192182,104968,3445328,104224,1296354,104179,3551615,110464,1296354,110116,30799342,2585769,1297934
1000000000,1192218,104416,1192106,104453,3445596,103741,1295724,103692,3551330,109931,1295724,109576,30797707,2584494,1297304
1000000000,1186575,103360,1186453,103397,3429315,102743,1288738,102695,3533807,108735,1288738,108382,31052910,2570280,1290351
1000000000,1187586,103193,1187470,103229,3432592,102581,1289493,102533,3536975,108535,1289493,108186,31026248,2572049,1291300
1000000000,1192579,105573,1192467,105608,3445254,105092,1297086,105038,3551861,110988,1297086,110622,30800766,2586918,1298539
778095249,929498,82293,929414,82321,2685997,81670,1011307,81634,2769477,86648,1011307,86380,23906603,2017394,1012492
number,of,instructions:,269778095249
