1000000000,1637438634,594868222,1020516174,1046693430,220459822,330655944,444563225,581481145,724030526,816548148,891585052
1000000000,1636245373,591366102,1017661097,1044470180,220874928,330071469,444431762,580994968,724071368,813415983,888667317
1000000000,1636854339,591783433,1017787529,1044684840,220584030,330029664,444232150,580956228,724023570,813640497,889073339
1000000000,1684450064,806197765,1293932588,1493997644,251179704,463740987,661798717,842886947,958603856,1051364648,1156643475
1000000000,1697060332,866460718,1371029936,1618397976,259216588,500463090,720726015,913985042,1022081526,1116435069,1230471388
1000000000,1697062624,866465750,1371034180,1618401200,259216741,500465844,720726630,913986821,1022082882,1116436570,1230474500
1000000000,1696391121,866130004,1371434979,1618330999,259818247,500514329,720379118,913624462,1022233560,1117535592,1231264096
1000000000,1697071147,866483201,1371049485,1618412859,259217620,500476219,720729734,913993674,1022087934,1116441821,1230485584
1000000000,1697051460,866443333,1371014229,1618385993,259215498,500452181,720722241,913977754,1022076271,1116429844,1230460158
1000000000,1697059474,866458844,1371028344,1618396763,259216529,500462052,720725775,913984370,1022081012,1116434502,1230470221
1000000000,1697062852,866466239,1371034584,1618401512,259216757,500466108,720726685,913986991,1022083012,1116436718,1230474803
1000000000,1697065926,866475824,1371041153,1618406471,259216355,500469493,720725597,913988838,1022084840,1116439580,1230480102
1000000000,1696393296,866131098,1371437824,1618333199,259819207,500517351,720382178,913626864,1022234858,1117535955,1231265602
1000000000,1697055342,866451413,1371021251,1618391350,259215868,500456900,720723571,913980843,1022078558,1116432257,1230465252
1000000000,1697059231,866458340,1371027911,1618396435,259216503,500461760,720725696,913984185,1022080879,1116434360,1230469910
1000000000,1697061161,866462446,1371031444,1618399118,259216663,500464088,720726295,913985699,1022082014,1116435582,1230472475
1000000000,1697064295,866469214,1371037184,1618403487,259216914,500467884,720727212,913988165,1022083883,1116437627,1230476699
1000000000,1697371144,865241523,1370972307,1617925123,260030438,500412615,720948885,914299584,1023105970,1118218964,1231652619
1000000000,1697071207,866486187,1371050524,1618413625,259217014,500476010,720727852,913993184,1022087973,1116442690,1230486806
1000000000,1697052420,866445301,1371015933,1618387282,259215585,500453321,720722569,913978511,1022076826,1116430429,1230461389
1000000000,1697059406,866458713,1371028241,1618396688,259216514,500461969,720725749,913984316,1022080976,1116434465,1230470142
1000000000,1697062098,866464561,1371033185,1618400447,259216708,500465210,720726505,913986417,1022082575,1116436226,1230473773
1000000000,1697066069,866472838,1371040369,1618405906,259217105,500470043,720727864,913989591,1022084928,1116438707,1230478998
1000000000,1696391183,866130033,1371435067,1618331071,259818276,500514420,720379213,913624533,1022233597,1117535597,1231264138
1000000000,1697060602,866462430,1371030790,1618398606,259216351,500463280,720725330,913985038,1022081691,1116435580,1230472199
1000000000,1697056769,866453211,1371023448,1618393032,259216272,500458763,720724846,913982210,1022079409,1116432814,1230466666
1000000000,1697060117,866460268,1371029551,1618397677,259216555,500462819,720725942,913984872,1022081402,1116434936,1230471103
1000000000,1697062526,866465538,1371033984,1618401058,259216740,500465719,720726589,913986734,1022082814,1116436502,1230474365
1000000000,1696391131,866129984,1371434981,1618330990,259818253,500514339,720379146,913624479,1022233570,1117535592,1231264091
1000000000,1697072033,866485096,1371051122,1618414117,259217692,500477310,720730021,913994377,1022088460,1116442385,1230486775
1000000000,1697050702,866441749,1371012842,1618384939,259215435,500451260,720721978,913977146,1022075817,1116429365,1230459154
1000000000,1697059889,866459701,1371029098,1618397330,259216565,500462553,720725924,913984712,1022081272,1116434776,1230470772
1000000000,1697062673,866465811,1371034244,1618401252,259216754,500465901,720726662,913986857,1022082902,1116436584,1230474542
1000000000,1697066765,866475683,1371042069,1618407192,259216857,500470728,720727164,913989878,1022085340,1116439549,1230480462
1000000000,1697370330,865241100,1370971237,1617924292,260030087,500411492,720947755,914298698,1023105498,1118218841,1231652063
1000000000,1697066741,866474979,1371041842,1618407037,259217003,500470792,720727606,913989984,1022085323,1116439335,1230480177
1000000000,1697053335,866446295,1371017297,1618388332,259215874,500454537,720723497,913979421,1022077377,1116430744,1230462239
1000000000,1697059913,866459831,1371029184,1618397408,259216539,500462575,720725878,913984702,1022081271,1116434796,1230470827
1000000000,1697063245,866467000,1371035275,1618402030,259216826,500466608,720726869,913987327,1022083248,1116436945,1230475299
1000000000,1696413322,866136606,1371421841,1618333392,259800590,500514528,720394490,913637900,1022229502,1117499901,1231238133
1000000000,1697047570,866473801,1371060168,1618408597,259235133,500474354,720713857,913979134,1022091188,1116476680,1230509777
1000000000,1697052631,866445761,1371016328,1618387597,259215604,500453593,720722640,913978680,1022076951,1116430563,1230461679
1000000000,1697059819,866459552,1371028966,1618397228,259216560,500462463,720725897,913984653,1022081227,1116434726,1230470673
1000000000,1697061561,866463452,1371032220,1618399713,259216667,500464567,720726321,913985988,1022082251,1116435883,1230473073
1000000000,1697065955,866472630,1371040197,1618405789,259217078,500469905,720727809,913989487,1022084854,1116438633,1230478860
1000000000,1696391209,866130051,1371435078,1618331068,259818278,500514436,720379233,913624562,1022233621,1117535621,1231264157
1000000000,1697061475,866464271,1371032386,1618399834,259216440,500464357,720725625,913985729,1022082199,1116436118,1230473355
1000000000,1697056278,866452175,1371022557,1618392344,259216213,500458147,720724676,913981816,1022079120,1116432507,1230466011
1000000000,1697060297,866460643,1371029864,1618397926,259216581,500463047,720726001,913985010,1022081500,1116435043,1230471339
1000000000,1697063008,866466537,1371034861,1618401715,259216788,500466312,720726765,913987132,1022083115,1116436815,1230475002
1000000000,1696789679,865493879,1370919250,1618096089,259604170,500130981,720291511,913893030,1022443046,1117604220,1231128505
1000000000,1697651595,866231604,1371101650,1618241181,259643180,500756338,721384855,914398881,1022750259,1117056762,1231009511
1000000000,1697055518,866451756,1371021543,1618391562,259215891,500457104,720723640,913980994,1022078675,1116432377,1230465475
1000000000,1697059674,866459249,1371028708,1618397034,259216537,500462284,720725843,913984528,1022081131,1116434628,1230470478
1000000000,1697060674,866461419,1371030535,1618398434,259216617,500463497,720726137,913985319,1022081733,1116435285,1230471832
1000000000,1697064188,866469012,1371037017,1618403368,259216895,500467755,720727165,913988066,1022083804,1116437546,1230476561
1000000000,1696391124,866130005,1371434986,1618331001,259818245,500514326,720379120,913624464,1022233565,1117535597,1231264101
1000000000,1697067684,866476018,1371043241,1618408102,259217297,500472031,720728545,913990918,1022085890,1116439664,1230481051
1000000000,1697052652,866445791,1371016360,1618387618,259215599,500453605,720722643,913978693,1022076967,1116430581,1230461701
1000000000,1697059886,866459717,1371029099,1618397328,259216561,500462549,720725911,913984708,1022081271,1116434779,1230470777
1000000000,1697063078,866466690,1371034987,1618401824,259216791,500466396,720726782,913987174,1022083139,1116436846,1230475091
1000000000,1696523588,866194282,1371357900,1618345885,259701959,500507066,720450296,913697183,1022205130,1117321011,1231110383
1000000000,1696937244,866416022,1371124014,1618396034,259333757,500481749,720658020,913919798,1022115519,1116655526,1230637450
1000000000,1697053250,866447027,1371017436,1618388425,259215677,500454341,720722863,913979186,1022077330,1116430959,1230462491
1000000000,1697059370,866458644,1371028182,1618396647,259216511,500461937,720725738,913984286,1022080952,1116434439,1230470097
1000000000,1697061424,866463158,1371031951,1618399514,259216649,500464389,720726271,913985877,1022082170,1116435798,1230472886
1000000000,1697066003,866472600,1371040244,1618405808,259217112,500469976,720727914,913989558,1022084890,1116438636,1230478872
1000000000,1697369376,865240626,1370969974,1617923304,260029663,500410148,720946399,914297641,1023104929,1118218687,1231651399
1000000000,1697072835,866486794,1371052601,1618415253,259217770,500478296,720730288,913995013,1022088929,1116442879,1230487841
1000000000,1697050626,866441554,1371012670,1618384795,259215426,500451151,720721962,913977092,1022075780,1116429326,1230459039
1000000000,1697059436,866458776,1371028294,1618396728,259216513,500462000,720725755,913984334,1022080986,1116434475,1230470174
1000000000,1697062468,866465386,1371033876,1618400961,259216747,500465664,720726602,913986709,1022082796,1116436472,1230474284
1000000000,1697067065,866475716,1371042435,1618407491,259217002,500471157,720727659,913990217,1022085504,1116439551,1230480615
1000000000,1696391678,866130287,1371435709,1618331558,259818495,500515102,720379901,913625080,1022233898,1117535690,1231264487
1000000000,1697056600,866454030,1371023517,1618393076,259215990,500458429,720724005,913981854,1022079313,1116433051,1230466905
1000000000,1697058839,866457513,1371027208,1618395886,259216463,500461271,720725558,913983864,1022080639,1116434108,1230469387
1000000000,1697061054,866462203,1371031226,1618398952,259216652,500463954,720726266,913985618,1022081954,1116435518,1230472325
1000000000,1697063559,866467686,1371035858,1618402485,259216834,500466982,720726953,913987566,1022083432,1116437153,1230475723
1000000000,1696391125,866130007,1371434980,1618330998,259818246,500514329,720379123,913624468,1022233568,1117535600,1231264104
1000000000,1697068200,866477093,1371044173,1618408815,259217344,500472656,720728722,913991330,1022086195,1116439986,1230481729
1000000000,1697052712,866445917,1371016471,1618387699,259215624,500453697,720722674,913978753,1022077013,1116430627,1230461793
1000000000,1697059868,866459705,1371029095,1618397330,259216545,500462527,720725892,913984681,1022081250,1116434760,1230470757
1000000000,1697063043,866466609,1371034913,1618401767,259216789,500466346,720726771,913987150,1022083123,1116436827,1230475042
1000000000,1696633372,866250941,1371293076,1618357706,259603271,500499008,720505932,913756070,1022180458,1117141811,1230981986
1000000000,1697805200,865468875,1370722905,1617975824,259643827,500385027,721169526,914533689,1023011252,1117517483,1231152462
1000000000,1697062117,866465603,1371033533,1618400706,259216498,500465131,720725841,913986239,1022082574,1116436511,1230474192
1000000000,1697056037,866451687,1371022126,1618392026,259216195,500457870,720724596,913981629,1022078980,1116432361,1230465706
1000000000,1697060146,866460307,1371029592,1618397690,259216569,500462846,720725957,913984896,1022081417,1116434951,1230471128
1000000000,1697063256,866467076,1371035326,1618402085,259216808,500466621,720726845,913987325,1022083256,1116436967,1230475340
1000000000,1696389637,866126781,1371432245,1618328906,259818120,500512520,720378683,913623295,1022232683,1117534635,1231262087
1000000000,1697072911,866487029,1371052764,1618415362,259217771,500478388,720730269,913995074,1022088990,1116442964,1230487983
1000000000,1697050657,866441615,1371012719,1618384838,259215421,500451170,720721963,913977101,1022075781,1116429330,1230459066
1000000000,1697059852,866459640,1371029037,1618397293,259216563,500462521,720725910,913984681,1022081245,1116434745,1230470726
1000000000,1697062225,866464882,1371033440,1618400634,259216716,500465360,720726509,913986504,1022082642,1116436312,1230473961
1000000000,1697066804,866475064,1371041930,1618407105,259217008,500470857,720727649,913990040,1022085365,1116439372,1230480240
1000000000,1696391597,866130238,1371435615,1618331485,259818460,500514999,720379802,913624997,1022233851,1117535671,1231264431
1000000000,1697057105,866455047,1371024406,1618393739,259216038,500459026,720724185,913982256,1022079607,1116433360,1230467548
1000000000,1697058850,866457558,1371027236,1618395920,259216464,500461299,720725560,913983874,1022080648,1116434118,1230469412
1000000000,1697060643,866461366,1371030495,1618398400,259216620,500463462,720726115,913985285,1022081703,1116435256,1230471793
1000000000,1697063458,866467467,1371035665,1618402330,259216831,500466857,720726924,913987494,1022083385,1116437101,1230475594
1000000000,1697187404,865323667,1370957551,1617981970,259894953,500325188,720741266,914171795,1022895475,1118023207,1231486821
1000000000,1697254948,866404046,1371065281,1618356780,259352495,500563435,720935472,914120974,1022298468,1116638447,1230652604
1000000000,1697053396,866447343,1371017710,1618388641,259215682,500454519,720722902,913979290,1022077406,1116431042,1230462681
1000000000,1697059856,866459628,1371029032,1618397287,259216562,500462517,720725915,913984685,1022081253,1116434755,1230470728
1000000000,1697061572,866463305,1371032186,1618399692,259216695,500464590,720726438,913986028,1022082254,1116435836,1230473014
1000000000,1697065232,866471167,1371038890,1618404784,259217000,500469009,720727522,913988898,1022084425,1116438198,1230477924
1000000000,1696391120,866130003,1371434981,1618330996,259818247,500514331,720379120,913624463,1022233561,1117535591,1231264093
1000000000,1697062997,866467422,1371035133,1618401914,259216586,500466203,720726155,913986951,1022083109,1116437075,1230475350
1000000000,1697055519,866450619,1371021187,1618391321,259216142,500457239,720724414,913981214,1022078671,1116432036,1230465029
1000000000,1697060151,866460315,1371029585,1618397699,259216564,500462850,720725956,913984897,1022081419,1116434955,1230471134
1000000000,1697062941,866466389,1371034725,1618401610,259216785,500466225,720726743,913987077,1022083074,1116436772,1230474909
1000000000,1696389586,866126700,1371432177,1618328860,259818123,500512473,720378664,913623257,1022232651,1117534601,1231262036
1000000000,1697072930,866487055,1371052787,1618415377,259217768,500478399,720730270,913995077,1022088993,1116442970,1230487995
1000000000,1697051385,866443155,1371014054,1618385865,259215490,500452074,720722216,913977692,1022076220,1116429790,1230460038
1000000000,1697059368,866458619,1371028161,1618396617,259216514,500461922,720725742,913984290,1022080957,1116434444,1230470085
1000000000,1697062390,866465222,1371033735,1618400870,259216723,500465556,720726565,913986630,1022082734,1116436409,1230474170
1000000000,1697066508,866474252,1371041334,1618406638,259217030,500470525,720727687,913989851,1022085194,1116439130,1230479778
1000000000,1697369733,865240796,1370970470,1617923707,260029836,500410685,720946933,914298045,1023105137,1118218725,1231651648
1000000000,1697069065,866478867,1371045714,1618409995,259217413,500473684,720729018,913992007,1022086696,1116440519,1230482849
1000000000,1697052221,866444913,1371015605,1618387031,259215579,500453110,720722504,913978365,1022076722,1116430317,1230461151
1000000000,1697059790,866459493,1371028908,1618397196,259216559,500462433,720725887,913984627,1022081209,1116434710,1230470640
1000000000,1697063339,866467278,1371035487,1618402205,259216804,500466714,720726849,913987378,1022083295,1116437017,1230475454
1000000000,1696761113,866316934,1371217750,1618371514,259488491,500489686,720570673,913824617,1022151809,1116933416,1230832705
1000000000,1696698628,866291054,1371262155,1618368856,259547120,500497777,720537280,913791498,1022168197,1117042442,1230913672
1000000000,1697054125,866448872,1371019046,1618389661,259215753,500455421,720723158,913979879,1022077845,1116431503,1230463651
1000000000,1697059441,866458782,1371028294,1618396730,259216518,500462004,720725757,913984340,1022080992,1116434482,1230470183
1000000000,1697061339,866462822,1371031751,1618399369,259216683,500464320,720726359,913985844,1022082121,1116435697,1230472714
1000000000,1697065123,866470937,1371038699,1618404630,259216994,500468887,720727500,913988829,1022084376,1116438143,1230477787
1000000000,1696391149,866130033,1371435010,1618331011,259818238,500514333,720379123,913624473,1022233569,1117535601,1231264110
1000000000,1697063621,866468719,1371036247,1618402767,259216649,500466959,720726369,913987449,1022083476,1116437462,1230476168
1000000000,1697055381,866450326,1371020946,1618391122,259216132,500457073,720724370,913981106,1022078592,1116431951,1230464842
1000000000,1697060050,866460133,1371029436,1618397591,259216553,500462746,720725920,913984818,1022081362,1116434894,1230471020
1000000000,1697062578,866465621,1371034071,1618401123,259216762,500465798,720726632,913986791,1022082855,1116436536,1230474431
1000000000,1696552549,865673710,1370989669,1618185132,259515573,500112671,720114177,913728919,1022214055,1117412942,1230997744
1000000000,1697888152,866050597,1371030186,1618151353,259731702,500773933,721561971,914562521,1022978904,1117247685,1231139519
1000000000,1697058322,866457599,1371026635,1618395435,259216159,500460525,720724605,913983236,1022080338,1116434129,1230469165
1000000000,1697058014,866455789,1371025685,1618394741,259216377,500460257,720725273,913983200,1022080146,1116433591,1230468294
1000000000,1697060366,866460809,1371030015,1618398039,259216592,500463143,720726025,913985072,1022081547,1116435090,1230471443
1000000000,1697063353,866467237,1371035474,1618402174,259216817,500466719,720726887,913987409,1022083324,1116437035,1230475449
1000000000,1696391122,866130004,1371434983,1618330998,259818245,500514328,720379119,913624461,1022233560,1117535591,1231264095
1000000000,1697069622,866480046,1371046745,1618410776,259217476,500474376,720729204,913992453,1022087024,1116440863,1230483589
1000000000,1697052161,866444795,1371015479,1618386961,259215565,500453033,720722476,913978308,1022076681,1116430278,1230461075
1000000000,1697059735,866459363,1371028820,1618397110,259216543,500462354,720725871,913984578,1022081166,1116434664,1230470549
1000000000,1697062965,866466496,1371034798,1618401673,259216785,500466268,720726731,913987098,1022083094,1116436801,1230474972
1000000000,1696871352,866374551,1371153765,1618383979,259389843,500482183,720626460,913883862,1022127403,1116754498,1230704913
1000000000,1696588288,866233265,1371325995,1618356302,259645751,500505177,720481450,913732165,1022192535,1117221293,1231041354
1000000000,1697054234,866449067,1371019205,1618389773,259215775,500455537,720723200,913979969,1022077915,1116431576,1230463781
1000000000,1697059779,866459480,1371028910,1618397191,259216541,500462419,720725882,913984616,1022081199,1116434697,1230470623
1000000000,1697061027,866462181,1371031203,1618398944,259216660,500463939,720726248,913985596,1022081933,1116435498,1230472307
1000000000,1697065021,866470706,1371038483,1618404479,259216979,500468753,720727462,913988739,1022084311,1116438078,1230477643
1000000000,1697369416,865240650,1370970048,1617923366,260029677,500410218,720946468,914297690,1023104951,1118218685,1231651428
1000000000,1697072928,866487056,1371052789,1618415379,259217764,500478397,720730266,913995071,1022088983,1116442959,1230487986
1000000000,1697051530,866443467,1371014332,1618386079,259215507,500452255,720722259,913977798,1022076298,1116429876,1230460235
1000000000,1697059664,866459241,1371028699,1618397029,259216535,500462277,720725839,913984523,1022081133,1116434630,1230470473
1000000000,1697062026,866464394,1371033031,1618400333,259216716,500465124,720726488,913986365,1022082530,1116436173,1230473673
1000000000,1697066751,866474299,1371041651,1618406889,259217159,500470878,720728081,913990125,1022085326,1116439131,1230479912
1000000000,1696391164,866130033,1371435015,1618331025,259818247,500514365,720379162,913624505,1022233591,1117535617,1231264128
1000000000,1697059019,866459063,1371027908,1618396404,259216231,500461373,720724837,913983787,1022080745,1116434557,1230470083
1000000000,1697057703,866455142,1371025129,1618394315,259216348,500459883,720725167,913982956,1022079968,1116433402,1230467889
1000000000,1697060536,866461138,1371030302,1618398254,259216602,500463335,720726087,913985203,1022081643,1116435193,1230471651
1000000000,1697062770,866466071,1371034452,1618401408,259216773,500466039,720726678,913986944,1022082974,1116436667,1230474708
1000000000,1696391137,866130018,1371434998,1618331010,259818231,500514325,720379122,913624470,1022233574,1117535609,1231264106
1000000000,1697070302,866481467,1371047981,1618411717,259217554,500475225,720729452,913993012,1022087441,1116441298,1230484496
1000000000,1697051627,866443667,1371014512,1618386211,259215509,500452368,720722294,913977875,1022076353,1116429933,1230460358
1000000000,1697059957,866459851,1371029230,1618397429,259216572,500462639,720725940,913984758,1022081302,1116434805,1230470855
1000000000,1697062649,866465818,1371034215,1618401234,259216744,500465872,720726622,913986837,1022082900,1116436599,1230474544
1000000000,1696981618,866432222,1371089815,1618396465,259291207,500474714,720682269,913943150,1022103032,1116575607,1230577157
1000000000,1697456237,865286111,1370924873,1617936085,259955817,500408447,720992943,914346036,1023088247,1118083234,1231556354
1000000000,1697064555,866470657,1371037942,1618404050,259216734,500468087,720726686,913988189,1022084025,1116438040,1230477385
1000000000,1697054756,866449018,1371019807,1618390257,259216070,500456308,720724155,913980605,1022078221,1116431561,1230464021
1000000000,1697059927,866459836,1371029181,1618397391,259216557,500462592,720725895,913984727,1022081289,1116434808,1230470839
1000000000,1697062940,866466406,1371034743,1618401632,259216781,500466232,720726740,913987077,1022083072,1116436771,1230474915
1000000000,1696389880,866125966,1371432272,1618328955,259818433,500512969,720379661,913623740,1022232821,1117534393,1231261889
1000000000,1697072076,866486638,1371051662,1618414506,259217389,500477208,720729060,913994136,1022088488,1116442834,1230487404
1000000000,1697052314,866445098,1371015757,1618387152,259215589,500453214,720722539,913978440,1022076775,1116430374,1230461272
1000000000,1697059287,866458433,1371028002,1618396501,259216494,500461809,720725712,913984214,1022080899,1116434384,1230469961
1000000000,1697061895,866464150,1371032819,1618400168,259216701,500464972,720726434,913986258,1022082455,1116436097,1230473514
1000000000,1697066489,866473725,1371041146,1618406507,259217130,500470546,720728002,913989921,1022085174,1116438969,1230479556
1000000000,1696391140,866130005,1371435005,1618331004,259818261,500514356,720379149,913624488,1022233579,1117535603,1231264111
1000000000,1697059371,866459797,1371028525,1618396899,259216249,500461793,720724951,913984059,1022080949,1116434775,1230470542
1000000000,1697057760,866455254,1371025243,1618394383,259216358,500459953,720725193,913983005,1022079999,1116433433,1230467958
1000000000,1697060300,866460666,1371029888,1618397941,259216590,500463062,720726006,913985025,1022081516,1116435057,1230471362
1000000000,1697062623,866465726,1371034154,1618401178,259216744,500465830,720726628,913986814,1022082874,1116436564,1230474483
1000000000,1696937541,865432279,1370934634,1618054783,259711849,500203675,720458194,913996736,1022610889,1117759707,1231262000
1000000000,1697504809,866295434,1371088198,1618283967,259535600,500684950,721218543,914296032,1022583054,1116901948,1230877425
1000000000,1697054930,866450543,1371020487,1618390771,259215833,500456397,720723436,913980523,1022078325,1116432009,1230464711
1000000000,1697059502,866458894,1371028397,1618396789,259216526,500462076,720725787,913984398,1022081035,1116434525,1230470253
1000000000,1697061195,866462504,1371031495,1618399159,259216662,500464125,720726309,913985724,1022082033,1116435604,1230472515
1000000000,1697064426,866469491,1371037430,1618403681,259216918,500468039,720727251,913988258,1022083946,1116437693,1230476862
1000000000,1696391125,866130007,1371434979,1618330997,259818245,500514328,720379121,913624466,1022233566,1117535598,1231264102
1000000000,1697066049,866473777,1371040651,1618406123,259216879,500469910,720727202,913989386,1022084916,1116438980,1230479362
1000000000,1697053713,866446841,1371017912,1618388807,259215971,500455033,720723793,913979771,1022077602,1116430906,1230462642
1000000000,1697060037,866460092,1371029412,1618397578,259216567,500462741,720725929,913984812,1022081351,1116434876,1230470999
1000000000,1697063360,866467275,1371035488,1618402204,259216817,500466742,720726883,913987409,1022083320,1116437033,1230475463
1000000000,1696389778,866124337,1371431643,1618328482,259818742,500513004,720380585,913623942,1022232774,1117533928,1231261199
1000000000,1697071188,866486195,1371050503,1618413603,259216991,500475962,720727803,913993152,1022087951,1116442682,1230486793
1000000000,1697052423,866445310,1371015931,1618387284,259215596,500453341,720722580,913978526,1022076841,1116430443,1230461402
1000000000,1697059474,866458843,1371028358,1618396777,259216516,500462048,720725773,913984365,1022081010,1116434503,1230470223
1000000000,1697062011,866464397,1371033051,1618400336,259216714,500465123,720726480,913986358,1022082528,1116436171,1230473671
1000000000,1697066060,866472832,1371040358,1618405911,259217098,500470029,720727850,913989576,1022084921,1116438704,1230478993
1000000000,1697369420,865240646,1370970038,1617923364,260029681,500410222,720946470,914297692,1023104954,1118218689,1231651430
1000000000,1697071455,866483873,1371050075,1618413320,259217641,500476609,720729838,913993919,1022088112,1116442009,1230486003
1000000000,1697051184,866442745,1371013716,1618385588,259215483,500451839,720722144,913977530,1022076103,1116429667,1230459783
1000000000,1697059645,866459209,1371028664,1618397013,259216537,500462260,720725833,913984510,1022081117,1116434612,1230470451
1000000000,1697063023,866466545,1371034885,1618401738,259216790,500466336,720726791,913987151,1022083127,1116436821,1230475018
1000000000,1697066231,866475411,1371041363,1618406647,259216618,500469979,720726404,913989277,1022085011,1116439452,1230480085
1000000000,1696392582,866130734,1371436913,1618332496,259818888,500516366,720381183,913626078,1022234437,1117535837,1231265112
1000000000,1697055411,866451538,1371021344,1618391416,259215883,500456974,720723598,913980903,1022078602,1116432301,1230465331
1000000000,1697059296,866458465,1371028029,1618396515,259216504,500461828,720725714,913984227,1022080908,1116434393,1230469984
1000000000,1697061091,866462295,1371031308,1618399023,259216653,500464003,720726276,913985646,1022081975,1116435541,1230472382
1000000000,1697064259,866469140,1371037121,1618403436,259216914,500467840,720727198,913988135,1022083860,1116437602,1230476652
1000000000,1696391123,866130003,1371434984,1618330997,259818243,500514323,720379118,913624461,1022233562,1117535593,1231264096
1000000000,1697066963,866475162,1371042142,1618407263,259217069,500471074,720727860,913990211,1022085455,1116439398,1230480352
1000000000,1697053143,866446152,1371017024,1618388128,259215811,500454282,720723259,913979220,1022077264,1116430702,1230462092
1000000000,1697059928,866459855,1371029200,1618397413,259216552,500462600,720725893,913984725,1022081286,1116434806,1230470846
1000000000,1697063216,866466949,1371035236,1618402016,259216801,500466561,720726847,913987294,1022083233,1116436937,1230475268
1000000000,1696428937,866144785,1371412806,1618335163,259786638,500513486,720402392,913646294,1022226048,1117474577,1231220058
1000000000,1698010217,865576253,1370604239,1617999169,259460520,500371263,721273266,914643927,1022965993,1117185062,1230915152
1000000000,1697060849,866462942,1371031226,1618398944,259216378,500463575,720725410,913985229,1022081831,1116435729,1230472520
1000000000,1697056656,866452961,1371023235,1618392867,259216246,500458615,720724812,913982121,1022079343,1116432744,1230466506
1000000000,1697060053,866460136,1371029425,1618397580,259216566,500462748,720725922,913984828,1022081369,1116434900,1230471024
1000000000,1697062477,866465442,1371033913,1618401004,259216728,500465663,720726574,913986699,1022082797,1116436486,1230474311
1000000000,1696391112,866129947,1371434946,1618330967,259818252,500514314,720379139,913624461,1022233553,1117535572,1231264065
1000000000,1697072283,866485621,1371051577,1618414465,259217725,500477625,720730104,913994577,1022088608,1116442540,1230487108
1000000000,1697050484,866441285,1371012443,1618384619,259215410,500450981,720721905,913976973,1022075687,1116429229,1230458859
1000000000,1697059957,866459846,1371029223,1618397429,259216571,500462640,720725947,913984764,1022081310,1116434815,1230470861
1000000000,1697062607,866465679,1371034130,1618401170,259216748,500465827,720726642,913986808,1022082867,1116436548,1230474462
1000000000,1697066958,866475717,1371042307,1618407375,259216956,500471002,720727475,913990100,1022085453,1116439562,1230480571
1000000000,1696391821,866130356,1371435905,1618331715,259818547,500515299,720380105,913625239,1022233987,1117535717,1231264587
1000000000,1697055621,866451972,1371021728,1618391706,259215904,500457233,720723674,913981073,1022078731,1116432438,1230465610
1000000000,1697059608,866459123,1371028599,1618396949,259216536,500462210,720725819,913984474,1022081091,1116434585,1230470397
1000000000,1697060660,866461407,1371030534,1618398439,259216603,500463478,720726118,913985296,1022081716,1116435271,1230471816
1000000000,1697064167,866468936,1371036939,1618403296,259216909,500467723,720727173,913988064,1022083803,1116437539,1230476522
1000000000,1697334191,865259840,1370971004,1617939186,260002538,500396579,720907584,914274647,1023062680,1118178023,1231618909
1000000000,1697108160,866467873,1371051833,1618399564,259244910,500492043,720769153,914018120,1022131261,1116483629,1230520514
1000000000,1697053089,866446704,1371017150,1618388220,259215657,500454154,720722804,913979056,1022077237,1116430864,1230462289
1000000000,1697059367,866458657,1371028192,1618396657,259216509,500461936,720725732,913984281,1022080944,1116434431,1230470097
1000000000,1697061591,866463475,1371032235,1618399711,259216670,500464579,720726336,913986014,1022082272,1116435903,1230473090
1000000000,1697065920,866472550,1371040120,1618405737,259217075,500469864,720727800,913989461,1022084835,1116438613,1230478811
1000000000,1696391210,866130060,1371435103,1618331076,259818275,500514432,720379225,913624553,1022233615,1117535615,1231264158
1000000000,1697061718,866464759,1371032805,1618400146,259216469,500464650,720725719,913985936,1022082356,1116436282,1230473672
1000000000,1697056171,866451964,1371022367,1618392210,259216198,500458020,720724636,913981726,1022079049,1116432434,1230465872
1000000000,1697060228,866460520,1371029768,1618397848,259216579,500462974,720725975,913984957,1022081460,1116435000,1230471259
1000000000,1697063357,866467256,1371035479,1618402185,259216824,500466730,720726885,913987413,1022083324,1116437035,1230475458
1000000000,1696389699,866126935,1371432366,1618329007,259818116,500512591,720378688,913623335,1022232713,1117534675,1231262177
1000000000,1697072882,866486936,1371052693,1618415304,259217773,500478349,720730277,913995058,1022088978,1116442944,1230487932
1000000000,1697050590,866441493,1371012609,1618384767,259215416,500451106,720721939,913977047,1022075740,1116429286,1230458988
1000000000,1697059405,866458720,1371028258,1618396682,259216525,500461980,720725753,913984322,1022080979,1116434467,1230470146
1000000000,1697062466,866465365,1371033849,1618400952,259216736,500465645,720726599,913986703,1022082793,1116436469,1230474272
1000000000,1697067126,866475734,1371042512,1618407540,259217038,500471245,720727755,913990289,1022085541,1116439556,1230480652
1000000000,1697369866,865240862,1370970641,1617923834,260029887,500410861,720947121,914298196,1023105225,1118218758,1231651742
1000000000,1697067822,866476289,1371043473,1618408286,259217307,500472189,720728592,913991023,1022085968,1116439750,1230481226
1000000000,1697052914,866446353,1371016849,1618387985,259215640,500453941,720722738,913978910,1022077125,1116430744,1230462058
1000000000,1697059663,866459269,1371028704,1618397038,259216532,500462276,720725819,913984514,1022081123,1116434628,1230470482
1000000000,1697062906,866466335,1371034689,1618401588,259216775,500466190,720726724,913987043,1022083046,1116436744,1230474867
1000000000,1696557189,866211852,1371338411,1618349693,259671900,500504789,720467304,913715248,1022197706,1117266510,1231071461
1000000000,1696903629,866398418,1371143476,1618392211,259363809,500484006,720641015,913901725,1022122935,1116710021,1230676358
1000000000,1697053331,866447179,1371017561,1618388520,259215687,500454434,720722891,913979249,1022077381,1116431013,1230462590
1000000000,1697059441,866458785,1371028301,1618396734,259216520,500462019,720725764,913984348,1022081000,1116434489,1230470188
1000000000,1697061417,866463157,1371031969,1618399518,259216645,500464388,720726272,913985873,1022082165,1116435790,1230472881
1000000000,1697065871,866472314,1371039971,1618405615,259217101,500469806,720727864,913989450,1022084812,1116438557,1230478695
1000000000,1696391120,866130006,1371434990,1618331000,259818240,500514323,720379118,913624463,1022233563,1117535593,1231264097
1000000000,1697062197,866465746,1371033661,1618400795,259216511,500465216,720725873,913986301,1022082621,1116436561,1230474281
1000000000,1697056041,866451704,1371022140,1618392047,259216193,500457881,720724597,913981632,1022078982,1116432364,1230465718
1000000000,1697060085,866460191,1371029480,1618397620,259216560,500462778,720725930,913984843,1022081378,1116434912,1230471054
1000000000,1697063251,866467040,1371035301,1618402042,259216813,500466603,720726847,913987323,1022083258,1116436967,1230475321
1000000000,1696686116,865537633,1370908885,1618125442,259528594,500080251,720174575,913820415,1022325358,1117495214,1231035110
1000000000,1697754670,866186819,1371111107,1618211154,259718696,500806463,721501624,914471101,1022867653,1117165460,1231102254
1000000000,1697056696,866454231,1371023701,1618393208,259216004,500458550,720724040,913981934,1022079370,1116433110,1230467034
778095249,1320589475,674398477,1066706058,1259335016,201468579,389401453,560846611,711212752,795127122,868244437,957112002
number,of,instructions:,269778095249
