

Block Size = 256,
Max threads(grid size) set to: 65535


-----------------------------------------------------------------------

PARSEC Benchmark Suite
read 65536 points
kernel error: invalid device ordinal
=======================================================================

