108319292,22812238,19885617,18521879,18457859
109158795,25277463,22564394,21255224,20968170
109158733,25277454,22564387,21255221,20968226
109158702,25277263,22564202,21254991,20968017
109158671,25277261,22564194,21255049,20968043
109158702,25277261,22564184,21254980,20967967
109158795,25277508,22564430,21255250,20968255
108615179,24978486,22167463,20881712,20499728
108241660,25016456,22276426,21060633,20584776
108242032,25016907,22276834,21061345,20585575
108341449,24996533,22234530,21000256,20547680
108237258,25006877,22269708,21056141,20576030
108251177,25033788,22276248,21072076,20607514
108235987,25006810,22263594,21052654,20575807
108969447,25211444,22490528,21205206,20875482
109173055,25294968,22586376,21288389,21000947
109172962,25294767,22586179,21288160,21000679
109173148,25295136,22586553,21288537,21001096
109172962,25294760,22586150,21288163,21000730
109173055,25294975,22586395,21288350,21000834
108845726,25048239,22272913,20959545,20600592
108439688,24875241,22065326,20786525,20365139
108240389,25015106,22274375,21059350,20583447
108240017,25016634,22275742,21061085,20585679
108387360,24872955,22089680,20813428,20362878
108776968,25018487,22253959,20950057,20577269
101363287,18117037,16549733,15461629,13634442
100000000,16789768,15245111,14036251,11618507
100000000,16789785,15245127,14036264,11618531
100000000,16729077,15094589,13977898,11607931
100000000,16728901,15221240,14031668,11622914
100000000,16733627,15253496,14044928,11626155
100000000,16907627,15166811,13967998,11600335
100000000,16792505,15227533,14020681,11618229
100000000,16964247,15178325,13971778,11608229
100000000,17104163,15372315,14011300,11678888
100000000,16889512,15309196,14033316,11650151
100000000,16989468,15188570,13976900,11615198
100000000,16766713,15230488,14007630,11603403
100000000,16742635,15239340,14025872,11612792
100000000,16988941,15189796,13977422,11615579
100000000,16751071,15234313,14023448,11609733
100000000,16745372,15242144,14031938,11615868
100000000,16982330,15187049,13977670,11614246
100000000,16749180,15236661,14026631,11611609
100000000,16744500,15239134,14030150,11613844
100000000,16980469,15186490,13977941,11614034
100000000,16746719,15237861,14028431,11612693
100000000,16744671,15236581,14028241,11612026
100000000,16973709,15188227,13979791,11614338
100000000,16751656,15237832,14028532,11613811
100000000,16745670,15234454,14026345,11610415
100000000,16957728,15192690,13984175,11615128
100000000,16766134,15235350,14026116,11614538
100000000,16746809,15232387,14024433,11608828
100000000,16941739,15197142,13988550,11615911
100000000,16779890,15232445,14023660,11615081
100000000,16747625,15230550,14022809,11607459
100000000,16925981,15201281,13992631,11616471
100000000,16794498,15229942,14021213,11615817
100000000,16748522,15228829,14021238,11606175
100000000,16910303,15205389,13996659,11616981
100000000,16809253,15227468,14018742,11616583
100000000,16749684,15226732,14019309,11604581
100000000,16894366,15209823,14001031,11617760
100000000,16824209,15225060,14016248,11617393
100000000,16750853,15224636,14017380,11602983
100000000,16878454,15214293,14005416,11618568
100000000,16839087,15222642,14013754,11618179
100000000,16752004,15222554,14015460,11601388
100000000,16862473,15218738,14009787,11619355
100000000,16854705,15218923,14010093,11618019
100000000,16752403,15221814,14014743,11600760
100000000,16846535,15223214,14014170,11620165
100000000,16869763,15216087,14007223,11618473
100000000,16753318,15220167,14013223,11599495
100000000,16830546,15227665,14018548,11620954
100000000,16885242,15212433,14003567,11618250
100000000,16753752,15219484,14012595,11599019
100000000,16814684,15232025,14022839,11621664
100000000,16901009,15208086,13999307,11617541
100000000,16753334,15219875,14012961,11599273
100000000,16799293,15235955,14026715,11622120
100000000,16916895,15203777,13995065,11616837
24014563,4020716,3660826,3370513,2790245
number,of,instructions:,8424014528
