100000000,193060953,76815993,129132496,134051551,38326201,46428870,62741461,76472481,92278181,107229226,117490805
100000000,203713661,79558389,129820437,136805568,39948397,48062040,60747213,70167788,82677575,92797309,107413888
100000000,203713547,79558230,129820159,136805314,39948265,48061895,60747010,70167581,82677321,92797099,107413651
100000000,203713625,79557976,129820013,136805182,39948136,48061765,60746898,70167470,82677212,92797038,107413557
100000000,203713548,79558074,129820014,136805153,39948064,48061712,60746826,70167405,82677179,92796995,107413536
100000000,203713533,79558041,129820075,136805232,39948086,48061752,60746948,70167524,82677347,92797155,107413642
100000000,203713617,79558408,129820445,136805591,39948394,48062058,60747259,70167835,82677603,92797302,107413861
100000000,202989165,78828350,128798639,135471585,38550211,46826896,59324869,68918859,81636937,91971343,106479687
100000000,202049005,78648748,128247343,134650187,37790921,46136702,58521854,68293585,81069042,91424155,105838642
100000000,202049485,78652301,128249115,134652724,37791671,46136836,58522414,68296589,81073771,91428375,105841877
100000000,202293483,78686356,128366939,134855618,37982612,46307548,58725377,68452359,81225483,91567702,105994672
100000000,202033054,78634146,128224456,134627344,37778781,46125497,58509223,68279179,81047280,91401258,105815801
100000000,202058598,78678805,128289595,134687011,37832099,46173440,58568317,68342331,81112523,91470248,105888777
100000000,202023436,78636408,128221404,134623649,37776604,46120970,58506885,68280574,81056991,91408433,105817112
100000000,203420455,79366708,129526163,136386547,39510400,47679359,60300863,69784787,82346890,92535803,107124370
100000000,203779806,79606588,129921256,136896180,40017285,48134897,60823230,70232082,82725598,92865253,107507818
100000000,203779729,79606295,129920897,136895884,40016988,48134631,60822949,70231799,82725350,92865071,107507600
100000000,203779908,79606880,129921625,136896488,40017574,48135179,60823522,70232402,82725914,92865562,107508166
100000000,203779715,79606328,129920961,136895884,40017009,48134646,60822940,70231797,82725326,92865059,107507595
100000000,203779756,79606562,129921261,136896205,40017246,48134874,60823271,70232155,82725713,92865392,107507913
100000000,203379072,79046932,129172472,136003788,39083055,47303336,59881908,69378430,82036254,92291253,106827724
100000000,202658240,78602124,128406899,135000975,38100832,46415848,58852601,68511393,81291921,91657169,106113481
100000000,202045668,78643767,128242849,134644240,37788892,46135449,58520588,68290006,81060760,91417786,105856112
100000000,202044450,78648302,128245579,134646552,37789183,46135213,58520407,68293075,81064821,91422090,105859973
100000000,202523476,78552750,128305011,134869481,37976753,46305246,58726175,68401931,81185403,91544377,105990810
100000000,203192758,78982352,129012140,135808001,38920301,47146994,59697600,69232485,81893735,92142652,106669791
100000000,186678719,66792841,148927962,162123581,26561596,30005746,55898057,99260200,102838687,106675845,112693938
100000000,183747490,67092016,161181945,170382806,27803894,28341167,55809266,106044333,108193424,111215586,116319680
100000000,183747490,67092015,161181944,170382804,27803893,28341166,55809265,106044331,108193422,111215584,116319678
100000000,183761441,67121139,161125424,170317061,27778290,28315391,55803389,105991706,108184724,111204293,116303886
100000000,183798666,67079621,161204875,170409270,27814351,28294513,55782809,106036721,108196491,111219786,116325796
100000000,183803482,67070439,161222286,170428939,27822119,28293091,55779743,106047734,108198789,111222933,116330381
100000000,183792938,67142733,161085905,170271750,27760216,28276141,55789283,105945105,108179729,111197276,116293477
100000000,183800699,67092859,161180627,170380941,27803158,28287601,55782711,106016391,108193180,111215269,116319247
100000000,183777544,67121220,161127497,170320384,27779235,28300410,55796300,105986847,108186175,111205651,116305205
100000000,183795017,67139577,161092069,170278585,27762939,28275205,55787986,105948561,108180550,111198384,116295076
100000000,183800459,67098007,161170893,170369963,27798821,28285981,55783197,106009080,108191915,111213530,116316702
100000000,183820532,67106472,161155195,170351840,27791663,28262785,55773760,105986689,108189801,111210630,116312480
100000000,183806882,67157606,161058615,170240176,27747787,28256745,55783290,105951606,108246571,111333189,116427078
100000000,183806983,67116170,161137117,170331119,27783477,28272782,55781218,105998597,108225846,111284237,116384587
100000000,183821321,67106120,161155694,170352649,27791980,28262169,55773344,105986900,108189914,111210785,116312695
100000000,183824391,67120736,161127211,170319103,27778990,28252766,55771909,106028332,108256065,111346345,116445939
100000000,183818596,67102032,161163466,170361408,27795440,28266401,55774413,106040562,108238213,111306734,116409282
100000000,183820916,67105602,161156843,170353690,27792394,28262704,55773503,105988097,108190735,111212369,116314361
100000000,183823757,67113558,161140701,170334490,27785066,28256064,55771717,106036737,108252652,111338387,116439105
100000000,183821345,67106242,161155553,170352368,27791870,28262082,55773337,106041079,108244563,111320104,116421984
100000000,183820971,67105001,161157709,170355060,27792935,28262936,55773444,105989044,108190595,111211952,116314025
100000000,183822223,67109338,161148564,170343504,27788626,28259134,55772184,106038473,108248119,111328663,116430044
100000000,183823691,67110696,161147239,170342845,27788109,28258097,55772482,106040676,108250559,111332792,116433988
100000000,183820477,67103950,161159878,170357244,27793797,28263772,55773606,105990697,108190754,111212144,116314394
100000000,183820698,67105848,161154828,170351004,27791591,28261972,55772711,106038215,108242615,111317078,116418982
100000000,183826007,67115169,161139024,170333291,27784334,28254154,55771633,106040004,108256307,111344991,116445487
100000000,183819375,67101675,161164102,170362098,27795713,28265692,55774000,105994560,108191322,111212927,116315537
100000000,183819751,67103534,161159207,170355963,27793548,28263779,55773015,106035403,108236386,111304260,116406518
100000000,183828206,67119633,161130662,170323714,27780553,28250284,55770853,106039198,108262020,111357125,116456943
100000000,183818295,67099443,161168183,170366906,27797613,28267623,55774383,105998415,108191892,111213698,116316642
100000000,183818539,67101271,161163493,170360780,27795452,28265799,55773462,106032543,108230297,111291735,116394353
100000000,183830064,67123434,161123614,170315585,27777339,28247043,55770187,106038489,108266818,111367328,116466548
100000000,183817529,67097891,161171014,170370241,27798931,28268970,55774660,106002125,108193332,111216325,116319507
100000000,183817438,67098942,161167870,170365746,27797414,28267741,55773849,106029638,108223959,111278699,116381687
100000000,183831861,67127082,161116596,170307755,27774250,28243887,55769552,106037813,108271471,111377210,116475858
100000000,183816815,67096445,161173994,170373328,27800149,28270205,55774907,106005792,108194904,111219249,116322669
100000000,183816385,67096679,161171998,170370625,27799339,28269662,55774215,106026638,108217636,111265688,116369020
100000000,183834090,67131592,161108312,170298137,27770449,28240014,55768755,106036990,108277184,111389329,116487283
100000000,183815712,67094202,161177970,170378138,27802049,28272142,55775307,106009628,108195461,111220001,116323755
100000000,183815268,67094398,161176311,170375471,27801255,28271597,55774611,106023581,108211302,111252675,116356357
100000000,183836317,67136105,161100024,170288495,27766640,28236136,55767954,106036155,108282900,111401466,116498720
100000000,183814572,67091913,161182305,170382970,27803959,28274081,55775711,106013422,108195988,111220736,116324856
100000000,183814210,67092183,161180201,170380270,27803150,28273501,55774995,106020596,108205056,111239793,116343819
100000000,183838538,67140602,161091655,170278875,27762838,28232261,55767161,106035323,108288605,111413591,116510151
100000000,183813493,67089678,161186389,170387778,27805859,28276009,55776096,106017269,108196566,111221522,116325984
100000000,183815377,67093525,161179128,170379572,27802618,28272720,55775429,106018531,108203394,111235760,116339618
100000000,183838460,67141480,161088777,170274773,27761475,28231103,55766329,106033514,108289672,111416814,116513200
100000000,183812362,67087408,161190677,170392610,27807769,28277950,55776501,106021096,108197121,111222279,116327093
100000000,183814726,67092202,161181699,170382369,27803722,28273840,55775657,106015321,108198296,111225379,116329433
100000000,183840247,67145075,161081919,170267142,27758460,28228037,55765697,106032891,108294213,111426432,116522264
100000000,183811283,67085182,161194630,170397422,27809669,28279880,55776888,106024961,108197702,111223061,116328215
100000000,183815032,67092835,161180634,170380990,27803178,28273282,55775545,106011792,108195714,111220331,116324309
100000000,183840888,67146429,161079546,170264185,27757294,28226851,55765466,106032586,108295940,111430123,116525739
100000000,183810292,67083146,161198464,170401777,27811388,28281629,55777239,106028744,108198521,111224390,116329857
100000000,183816058,67094870,161176576,170376713,27801487,28271561,55775185,106008069,108194872,111218923,116322576
100000000,183840503,67145673,161081084,170265763,27757918,28227486,55765601,106032749,108295044,111428232,116523970
100000000,183809673,67081887,161200646,170404477,27812456,28282716,55777467,106032337,108200282,111227701,116333361
100000000,183817018,67096854,161173193,170372425,27799793,28269837,55774833,106004261,108193991,111217505,116320849
24014563,44138815,16110699,38696107,40902689,6675595,6790585,13391833,25455806,25983646,26719559,27945659
number,of,instructions:,8424014528
