omp threads,total ins,total cyc,ipc (per thread),,ipc (dw)
1,1408373422519,1211996705166,1.162027434989,,0.005187622477629
2,1409828445053,517777148816,1.361423971951,,0.012155571178133
4,1426154031922,297900709526,1.196836719684,,0.021372084280063
6,1454102829491,220531171564,1.098939754698,,0.029435886286557
8,1439468056779,142343137002,1.264082771302,,0.045145813260803
10,1430487009865,114301443174,1.251503891939,,0.05587070946156
12,1448794593628,101300954462,1.191823743849,,0.063847700563316
14,1477062813273,91850084888,1.148659653293,,0.071791228330795
16,1460206325344,82050927357,1.11227134505,,0.079447953217883
18,1486610856092,76347633589,1.081755754864,,0.086926801730103
20,1478683187577,68976308597,1.071877589316,,0.095703356188904
22,1523211894976,68135160661,1.016169972235,,0.099802407987331
24,1510128405868,63337120541,0.993446124069,,0.106440656150282
26,1519228510314,61260016706,0.953833657306,,0.110712835223012
28,1543366633701,61091057946,0.902263584412,,0.112782948051528
30,1663409036512,90530300368,0.612468617229,,0.08202704695034
32,1677700471395,82535191155,0.635221643004,,0.090745949000512
34,1715942297753,79683309007,0.633368414782,,0.096136277243762
36,1727314286094,77157937195,0.621853747467,,0.09994078084284
38,1761131999947,75771657217,0.611647951862,,0.10376170611946
40,1729807373555,71144377550,0.607851046395,,0.108544829713359
42,1725067397852,70339729851,0.583923671149,,0.109485688340346
44,1701679663432,67291265476,0.574733400118,,0.112894060737488
46,1678062974464,65092386294,0.560428522545,,0.11508800016542
48,1678244692346,63907625991,0.547093254496,,0.117234268820613
50,1650064281222,62445286956,0.528483208792,,0.117965001962485
52,1638945650536,59738225012,0.527604989618,,0.12247972973266
54,1617397196906,58784272901,0.509520633064,,0.122830866899272
56,1617397196906,58696218576,0.496078548262,,0.123015134120166
