280621633 6547 271631499 272438082 278970889 280326237 280604723 280607237 1444 12524407 33908610 36283152 36576435 36688877 36689816 6587704 3569 6179057 6252419 6275835 6581367 6582037 6584503 2139 1212089 2244759 2266053 2560036 2592816 2594699
267835924 4440 259108936 259935884 267036776 267515317 267833568 267835670 648 12687728 13905311 15684937 16066513 16204857 16204857 2067268 4440 1574200 1649060 1660956 2064660 2064832 2067060 2744 1499962 1523357 1542366 1932364 1970142 1972310
268502761 3885 259915104 260751571 267778623 268198635 268500688 268502542 567 11101762 12228597 13811913 14145792 14266843 14266843 1822198 3885 1389452 1455213 1466661 1819901 1820065 1822008 2401 1324642 1345205 1361869 1703119 1736904 1738801
267837141 4440 259110174 259937570 267038681 267516286 267834781 267836863 648 12687728 13902850 15681821 16063384 16201741 16201741 2067232 4440 1573356 1648376 1660912 2064616 2064786 2067024 2744 1499456 1522847 1541771 1931769 1969952 1972120
268501937 3885 259916502 260752281 267773618 268195445 268499873 268501695 567 11101762 12239513 13827136 14161001 14282066 14282066 1824038 3885 1392096 1457701 1468511 1821751 1821907 1823856 2401 1326900 1347479 1364084 1705330 1738548 1740445
268509277 3885 259927497 260763878 267785249 268204942 268507213 268509066 567 11101762 12228893 13812183 14146048 14267113 14267113 1821824 3885 1389883 1455487 1466295 1819537 1819691 1821638 2401 1324754 1345320 1361904 1703152 1736370 1738267
270328033 4294 261718085 262530933 269534447 270009876 270325658 270327763 567 13074767 19316874 21482574 21864159 22002614 22002618 3239413 4282 2740859 2820036 2832385 3236797 3236952 3239185 2663 1497878 1914682 1933347 2323106 2355517 2357685
271757279 4058 262800420 263622522 270542353 271452953 271754505 271756327 648 12180574 18443673 20125924 20459822 20580895 20580895 3090358 4054 2658043 2724496 2734562 3088013 3088149 3090086 2482 1328631 1444168 1461318 1802824 1839630 1841527
268509607 3885 259928292 260764799 267786191 268205564 268507547 268509389 567 11101762 12228172 13810674 14144553 14265604 14265604 1821186 3885 1390057 1455497 1465665 1818907 1819055 1821004 2401 1324606 1345170 1361914 1703163 1736056 1737953
267885847 4278 259166899 259994831 267090807 267566025 267883484 267885598 567 12521088 13708211 15468260 15849827 15988171 15988171 2057951 4278 1565202 1639573 1651743 2055351 2055515 2057735 2663 1496187 1519129 1537684 1927434 1961219 1963387
268452639 4047 259858326 260693569 267720565 268145099 268450569 268452391 648 11268402 12434577 14041535 14375410 14496474 14496474 1833805 4047 1399932 1466342 1478156 1831492 1831662 1833623 2482 1330169 1351198 1368248 1709746 1747929 1749826
268507455 3885 259924122 260760637 267783502 268203194 268505391 268507213 567 11101762 12228547 13811600 14145465 14266530 14266530 1821787 3885 1389845 1455450 1466260 1819500 1819656 1821605 2401 1324717 1345279 1361867 1703113 1736331 1738228
267831583 4440 259101853 259928681 267030245 267509665 267829227 267831342 648 12687728 13910813 15693061 16074621 16212981 16212981 2068399 4440 1575331 1650191 1662087 2065791 2065963 2068187 2744 1501057 1524461 1543317 1933315 1970931 1973099
274254742 3912 265418303 266226481 273046911 273954165 274251987 274253830 567 12567613 23849724 25916036 26249945 26371127 26371131 4262357 3896 3822988 3894051 3905846 4260043 4260168 4262126 2401 1325465 1834402 1851280 2192547 2225039 2226936
268504672 3885 259919336 260755653 267781462 268200509 268502583 268504405 567 11101762 12228362 13810905 14144784 14265835 14265835 1820770 3885 1390437 1455721 1465247 1818465 1818598 1820533 2401 1324672 1345238 1361903 1703151 1735478 1737375
268042862 4278 259356074 260186106 267252770 267727349 268040512 268042614 567 12106554 13284841 15002457 15384024 15522368 15522368 2052368 4278 1561236 1635286 1646176 2049786 2049934 2052156 2663 1491712 1514587 1533224 1922973 1955866 1958034
268296501 4047 259671237 260504380 267560134 267984668 268294426 268296282 648 11682936 12857847 14506662 14840550 14961601 14961601 1838412 4047 1404539 1470949 1482761 1836097 1836279 1838226 2482 1334640 1355738 1372787 1714285 1752468 1754365
268509530 3885 259927434 260764025 267785359 268205371 268507462 268509282 567 11101762 12228522 13811700 14145566 14266630 14266630 1822212 3885 1389466 1455227 1466677 1819917 1820069 1822030 2401 1324660 1345222 1361885 1703135 1736920 1738817
267831395 4440 259101315 259928224 267029969 267509709 267829035 267831122 648 12687728 13910139 15692220 16073780 16212140 16212140 2068763 4440 1574887 1649907 1662443 2066147 2066321 2068551 2744 1500939 1524342 1543197 1933195 1971297 1973465
268505810 3885 259921860 260758210 267780889 268200261 268503750 268505600 567 11101762 12231873 13816197 14150062 14271127 14271127 1821967 3885 1390833 1456278 1466448 1819688 1819842 1821785 2401 1325363 1345930 1362523 1703769 1736501 1738398
274256599 3912 265421542 266229538 273049900 273957154 274253844 274255687 567 12567613 23846474 25911606 26245515 26366697 26366701 4261775 3896 3822248 3893435 3905257 4259461 4259586 4261544 2401 1324899 1833832 1850706 2191973 2224465 2226362
268194415 4278 259534456 260366580 267408871 267883124 268192036 268194118 567 11690563 12860343 14536100 14917667 15056011 15056011 2047302 4278 1556970 1630860 1641108 2044694 2044827 2047039 2663 1487268 1510074 1528633 1918381 1950709 1952876
268144939 4047 259493219 260324262 267404979 267828873 268142877 268144721 648 12098927 13282206 14972082 15305970 15427021 15427021 1842037 4047 1409776 1475870 1486404 1839740 1839906 1841851 2482 1339101 1360269 1377478 1718976 1756349 1758246
268504388 3885 259917983 260754663 267780195 268200208 268502315 268504169 567 11101762 12228571 13811940 14145819 14266870 14266870 1822225 3885 1389480 1455240 1466686 1819928 1820092 1822039 2401 1324669 1345234 1361817 1703066 1736769 1738666
267834399 4440 259106694 259933514 267033355 267513095 267832039 267834119 648 12687728 13909340 15691015 16072576 16210935 16210935 2068564 4440 1574688 1649708 1662244 2065948 2066118 2068356 2744 1500748 1524149 1543083 1933081 1971264 1973432
268508148 3885 259926114 260762464 267782225 268202237 268506080 268507907 567 11101762 12232761 13817775 14151640 14272705 14272705 1823116 3885 1390370 1456131 1467581 1820821 1820977 1822930 2401 1325536 1346105 1362694 1703944 1737648 1739545
268503455 3885 259917198 260753537 267779166 268198538 268501395 268503245 567 11101762 12230287 13813955 14147820 14268885 14268885 1821643 3885 1390509 1455954 1466124 1819364 1819518 1821461 2401 1325047 1345612 1362203 1703449 1736181 1738078
274098971 4305 265216460 266022342 272834938 273797392 274095894 274097998 567 12739407 24050371 26166047 26547643 26686119 26686123 4483323 4289 3983720 4063557 4076111 4480677 4480799 4483029 2663 1482659 1993759 2012526 2402293 2434785 2436953
267988125 4047 259305659 260134601 267244173 267667747 267986066 267987887 648 12515934 13707757 15439504 15773392 15894443 15894443 1846188 4047 1414735 1480669 1490561 1843897 1844048 1845988 2482 1343598 1364837 1381964 1723462 1760268 1762165
268509191 3885 259927353 260763804 267785753 268205126 268507131 268508975 567 11101762 12228225 13810751 14144630 14265681 14265681 1821201 3885 1390068 1455512 1465680 1818922 1819070 1821015 2401 1324621 1345186 1361931 1703179 1736073 1737970
267834002 4440 259105361 259932394 267033121 267513132 267831633 267833747 648 12687728 13908109 15689594 16071169 16209514 16209514 2068797 4440 1574113 1649293 1662467 2066171 2066353 2068585 2744 1500503 1523902 1542753 1932751 1971339 1973507
268503390 3885 259917608 260753974 267777184 268196926 268501326 268503146 567 11101762 12234448 13819941 14153806 14274871 14274871 1822945 3885 1391008 1456608 1467416 1820658 1820810 1822763 2401 1325839 1346413 1363086 1704335 1737633 1739530
268505464 3885 259920815 260756930 267780747 268200759 268503396 268505223 567 11101762 12229734 13813494 14147359 14268424 14268424 1822497 3885 1389751 1455512 1466962 1820202 1820358 1822311 2401 1324933 1345498 1362083 1703333 1737037 1738934
267834309 4440 259106958 259933962 267033079 267512179 267831957 267834069 648 12687728 13911434 15693655 16075215 16213575 16213575 2068021 4440 1575761 1650461 1661717 2065421 2065591 2067813 2744 1501165 1524569 1543506 1933504 1970717 1972883
274255540 3912 265419868 266227912 273048315 273955563 274252752 274254595 567 12567613 23846423 25912095 26246003 26367186 26367190 4262049 3896 3822598 3893652 3905488 4259703 4259827 4261779 2401 1325165 1834100 1850895 2192162 2224573 2226470
268507954 3885 259925012 260761603 267784849 268203901 268505898 268507718 567 11101762 12228287 13810723 14144602 14265653 14265653 1820711 3885 1390385 1455670 1465200 1818440 1818574 1820513 2401 1324617 1345178 1361927 1703173 1735581 1737478
267833363 4440 259104483 259931417 267033783 267512612 267831010 267833117 648 12687728 13906478 15686641 16068217 16206561 16206561 2067492 4440 1574424 1649284 1661180 2064884 2065050 2067278 2744 1500178 1523575 1542586 1932584 1970362 1972530
268506399 3885 259923436 260759761 267779218 268199822 268504323 268506174 567 11101762 12235991 13822401 14156279 14277331 14277331 1823767 3885 1391018 1456782 1468228 1821470 1821634 1823583 2401 1326167 1346744 1363339 1704587 1738291 1740188
268503668 3885 259917437 260753664 267779410 268199103 268501604 268503424 567 11101762 12229557 13813018 14146883 14267948 14267948 1821943 3885 1390006 1455606 1466414 1819656 1819808 1821761 2401 1324865 1345432 1362098 1703347 1736645 1738542
267832127 4440 259102646 259929422 267029903 267509963 267829763 267831856 648 12687728 13911327 15694056 16075616 16213976 16213976 2069490 4440 1574806 1649986 1663162 2066866 2067046 2069278 2744 1501176 1524580 1543436 1933434 1972022 1974190
268505819 3885 259921689 260757930 267782034 268201086 268503763 268505609 567 11101762 12229996 13813310 14147175 14268240 14268240 1821059 3885 1390737 1456018 1465548 1818788 1818934 1820877 2401 1324953 1345518 1362184 1703434 1735762 1737658
274256135 3912 265420475 266229055 273049420 273956668 274253347 274255190 567 12567613 23843952 25909090 26242998 26364181 26364185 4261786 3896 3822194 3893374 3905213 4259441 4259564 4261516 2401 1324910 1833843 1850636 2191903 2224315 2226211
267836665 4440 259110159 259937196 267038887 267515876 267834317 267836397 648 12687728 13903578 15682203 16063779 16202123 16202123 2065923 4440 1574471 1649011 1659627 2063331 2063481 2065699 2744 1499601 1522993 1541999 1931997 1968804 1970971
268502442 3885 259916884 260753036 267774407 268195890 268500381 268502228 567 11101762 12239043 13826289 14160168 14281219 14281219 1823892 3885 1391950 1457555 1468365 1821605 1821755 1823704 2401 1326758 1347336 1364102 1705348 1738728 1740625
268506633 3885 259922797 260759024 267782218 268202231 268504557 268506408 567 11101762 12229046 13812570 14146448 14267500 14267500 1822344 3885 1389595 1455359 1466805 1820047 1820211 1822160 2401 1324784 1345351 1361936 1703184 1736889 1738785
267835074 4440 259108057 259934893 267033304 267513044 267832714 267834794 648 12687728 13911242 15693748 16075308 16213668 16213668 2068935 4440 1575059 1650079 1662615 2066319 2066489 2068727 2744 1501111 1524514 1543450 1933448 1971631 1973799
268505723 3885 259921514 260757601 267780753 268200766 268503655 268505488 567 11101762 12230287 13814229 14148094 14269159 14269159 1822627 3885 1389882 1455642 1467090 1820332 1820494 1822441 2401 1325059 1345627 1362213 1703462 1737165 1739062
268505664 3885 259921725 260758199 267780801 268199853 268503608 268505454 567 11101762 12232703 13817143 14151008 14272073 14272073 1821614 3885 1391292 1456573 1466103 1819343 1819489 1821432 2401 1325492 1346061 1362731 1703981 1736310 1738205
273607569 4305 264631283 265430729 272330866 273293320 273604491 273606594 567 14061203 25394972 27642579 28024175 28162651 28162655 4497503 4289 3997971 4077703 4090267 4494855 4494978 4497203 2663 1496415 2007735 2026413 2416180 2448592 2450759
268482378 4047 259895375 260731318 267752062 268175636 268480320 268482140 648 11194138 12358733 13957535 14291423 14412474 14412474 1831509 4047 1400060 1465990 1475884 1829220 1829370 1831315 2482 1329359 1350374 1367505 1709003 1745809 1747706
268502566 3885 259915345 260751460 267778521 268198213 268500505 268502352 567 11101762 12229023 13812099 14145978 14267029 14267029 1821837 3885 1389895 1455500 1466310 1819550 1819700 1821649 2401 1324763 1345326 1362077 1703323 1736703 1738600
267834888 4440 259107690 259934624 267033251 267512991 267832520 267834631 648 12687728 13910902 15693272 16074845 16213192 16213192 2068867 4440 1574991 1650011 1662545 2066249 2066431 2068657 2744 1501043 1524446 1543382 1933380 1971565 1973731
268503726 3885 259917679 260753780 267778490 268198503 268501658 268503478 567 11101762 12231115 13815499 14149364 14270429 14270429 1822768 3885 1390019 1455783 1467231 1820473 1820625 1822586 2401 1325196 1345766 1362354 1703602 1737307 1739203
268508773 3885 259926957 260763583 267783359 268203372 268506705 268508538 567 11101762 12231400 13815798 14149663 14270728 14270728 1822853 3885 1390108 1455868 1467316 1820558 1820720 1822667 2401 1325281 1345850 1362437 1703686 1737389 1739286
267832470 4440 259103576 259930321 267031616 267510716 267830118 267832229 648 12687728 13910491 15692324 16073884 16212244 16212244 2067829 4440 1575569 1650269 1661525 2065229 2065393 2067619 2744 1500977 1524380 1543316 1933314 1970526 1972693
274253744 3912 265416251 266224743 273047159 273954087 274250960 274252798 567 12567613 23844438 25909620 26243530 26364711 26364715 4261401 3896 3822731 3893621 3904833 4259063 4259185 4261129 2401 1325007 1833941 1850816 2192083 2224091 2225986
268506792 3885 259923207 260759647 267783527 268202579 268504736 268506556 567 11101762 12228528 13811136 14145015 14266066 14266066 1820791 3885 1390469 1455750 1465280 1818520 1818654 1820597 2401 1324693 1345256 1361920 1703170 1735497 1737394
267835687 4440 259109465 259936066 267034301 267514041 267833330 267835443 648 12687728 13910279 15692227 16073803 16212147 16212147 2068739 4440 1574863 1649883 1662419 2066123 2066299 2068525 2744 1500919 1524321 1543337 1933335 1971599 1973767
268505699 3885 259921710 260757819 267780491 268200183 268503627 268505472 567 11101762 12231935 13816381 14150257 14271311 14271311 1822433 3885 1390491 1456096 1466904 1820144 1820300 1822249 2401 1325343 1345910 1362584 1703830 1737131 1739026
3918120 0 3810017 3823317 3915704 3915704 3918120 3918120 0 0 6067 8591 8591 8591 8591 1244 0 1244 1244 1244 1244 1244 1244 0 1208 1217 1226 1226 1226 1226
number of instructions: 59014336459
