2641533263,1947,1866335395,2476960579,2537038053,2623611694,2640323522,2640328729,900,269168633,883993911,1261034997,1496642421,1618527547,1668279948,895560170,73,762318821,871702011,887537520,895537460,895557777,895557777,0,315414354,575775446,582133488,587425314,619425350,619425351
2681346753,0,1686248162,2472786423,2547537817,2658401468,2679803960,2679811175,0,293829094,839666798,1322352910,1583036025,1615667786,1682243764,691405995,0,597719974,671802679,681791471,691380475,691405995,691405995,0,322751534,614132630,619844386,626033714,626033714,626033714
2683017625,0,1689435680,2474265538,2548851409,2659975588,2681482222,2681489465,0,294343809,840176504,1320135148,1579591074,1612379703,1679297511,692739129,0,599573203,673247212,683182159,692713602,692739129,692739129,0,323445685,615214918,620897913,627051646,627051646,627051646
2683218037,0,1690300243,2474437096,2548846807,2660176774,2681680321,2681687554,0,294859435,840598377,1319742205,1578762728,1611585585,1678654641,693348443,0,600345421,673889260,683817401,693322380,693348443,693348443,0,324014799,615763650,621450606,627591921,627591921,627591921
2682092901,0,1688250691,2473457619,2548035798,2659065405,2680549629,2680556858,0,294600766,840318735,1321191866,1580921832,1613646715,1680480379,692538687,0,599203385,673008990,682974091,692512525,692538687,692538687,0,323641146,615117002,620825016,626988929,626988929,626988929
2684696091,0,1692744652,2475766920,2549994466,2661552227,2683167524,2683174810,0,294938370,840755712,1317925589,1576164494,1609118298,1676346006,694153327,0,601526128,674776389,684657265,694127701,694153327,694153327,0,324223552,616371923,622027282,628143929,628143929,628143929
2682821643,0,1689265272,2474105986,2548617716,2659820611,2681284530,2681291745,0,294452733,840251659,1320338327,1579803369,1612586403,1679545789,692750748,0,599565629,673256291,683198464,692725023,692750748,692750748,0,323546729,615244510,620933528,627088270,627088270,627088270
2684417032,0,1692361278,2475529191,2549873151,2661292578,2682886313,2682893581,0,294991306,840777970,1318238255,1576466023,1609372655,1676446521,694067283,0,601384036,674678269,684568351,694041494,694067283,694067283,0,324256197,616318708,621981187,628101281,628101281,628101281
2682965366,0,1689597575,2474219032,2548713147,2659936173,2681427773,2681434078,0,294559326,840361629,1320283158,1580666845,1613707463,1669438535,692926317,0,599798101,673441766,683378041,692900522,692926317,692926317,0,323672064,615394346,621081788,627232335,627232335,627232335
2686939644,0,1697160149,2477765285,2551628417,2663661431,2685421033,2685426283,0,295702206,841369863,1313731497,1562264706,1593520029,1639034005,696038414,0,604131318,676815278,686623985,696012663,696038414,696038414,0,325258749,617913693,623532005,629599112,629599112,629599112
2683287496,0,1689902673,2474504469,2548982204,2660261464,2681754491,2681759692,0,294337700,840063992,1318621894,1570025140,1600933499,1645924355,692890080,0,599797041,673413766,683339712,692864629,692890080,692890080,0,323490200,615329636,621006667,627155539,627155539,627155539
2681285665,0,1686775890,2472740104,2547511905,2658343752,2679739003,2679744176,0,294404384,839982222,1321051134,1573500498,1604306265,1649223359,691971678,0,598401591,672391474,682382785,691945428,691971678,691971678,0,323388548,614665998,620389276,626569089,626569089,626569089
2683348348,0,1690499826,2474573239,2548944648,2660309358,2681812340,2681817534,0,294809233,840437967,1318405831,1569380693,1600310330,1645288412,693386288,0,600408633,673932668,683856792,693360302,693386288,693386288,0,323997466,615786412,621470090,627609850,627609850,627609850
2682520918,0,1689122404,2473844182,2548352993,2659521309,2680979811,2680985005,0,294768627,840349079,1319439665,1570957562,1601861808,1646943880,692936647,0,599744663,673437574,683389507,692910410,692936647,692936647,0,323879279,615446942,621148808,627302765,627302765,627302765
2682008021,0,1688111335,2473381095,2547920001,2659006341,2680464985,2680470165,0,294576790,840167549,1320138812,1572032843,1602874151,1647688103,692494956,0,599137904,672961394,682930050,692468762,692494956,692494956,0,323631385,615084423,620794477,626959881,626959881,626959881
2678924798,0,1682341062,2470664466,2545754375,2656119236,2677367510,2677372648,0,293737980,839307582,1324143526,1578312191,1608902838,1653670839,690149611,0,595860656,670416912,680485056,690123300,690149611,690149611,0,322474340,613194187,618959079,625188053,625188053,625188053
2685026995,0,1693398163,2476088657,2550307404,2661917477,2683500561,2683505797,0,295032799,840721302,1316317041,1566285139,1597357145,1642555778,694429918,0,601907036,675076708,684948235,694404269,694429918,694429918,0,324374405,616598181,622248397,628357947,628357947,628357947
2687821214,0,1698420474,2478506227,2552311443,2664539371,2686309241,2686314519,0,295586998,841337282,1312661893,1560815587,1592157104,1637811750,696360914,0,604648705,677180376,686959753,696335617,696360914,696360914,0,325216270,618129491,623725784,629780514,629780514,629780514
2683905973,0,1691377460,2475071806,2549435300,2660829299,2682373851,2682379059,0,294803908,840468324,1317722194,1568495396,1599482200,1644649272,693655896,0,600814345,674233616,684140520,693630116,693655896,693655896,0,324039734,615984177,621655334,627786370,627786370,627786370
2682462341,0,1688830376,2473811087,2548431191,2659482502,2680922502,2680927682,0,294553515,840178835,1319580213,1571236613,1602108128,1647017778,692696676,0,599447297,673186783,683140575,692670673,692696676,692696676,0,323647228,615228737,620928109,627086579,627086579,627086579
2683693060,0,1690857252,2474887371,2549344205,2660627280,2682160826,2682166034,0,294619549,840310475,1318027624,1569042897,1600020847,1645092253,693370668,0,600439397,673929062,683842206,693345030,693370668,693370668,0,323827549,615738619,621411261,627548721,627548721,627548721
2506994351,0,1576725968,2312021631,2381925733,2485576909,2505547317,2505551573,0,275112248,785353037,1236133756,1475842888,1505441181,1542857949,646748501,0,559156521,628419608,637769744,646724098,646748501,646748501,0,302171872,574503803,579857385,585642935,585642935,585642935
