

Block=(512,1,1)

-----------------------------------------------------------------------

Time spent in different stages of the application:
 0.037863999605 s,  1.284059524536 % : SETUP VARIABLES
 0.000019999999 s,  0.000678248238 % : READ COMMAND LINE PARAMETERS
 0.027808999643 s,  0.943070173264 % : READ IMAGE FROM FILE
 0.000475000008 s,  0.016108395532 % : RESIZE IMAGE
 0.235241994262 s,  7.977623462677 % : GPU DRIVER INIT, CPU/GPU SETUP, MEMORY ALLOCATION
 0.000193999993 s,  0.006579007488 % : COPY DATA TO CPU->GPU
 0.000026000000 s,  0.000881722663 % : EXTRACT IMAGE
 2.283706903458 s, 77.446006774902 % : COMPUTE
 0.000004000000 s,  0.000135649650 % : COMPRESS IMAGE
 0.000534999999 s,  0.018143139780 % : COPY DATA TO GPU->CPU
 0.359149008989 s, 12.179608345032 % : SAVE IMAGE INTO FILE
 0.003747999901 s,  0.127103716135 % : FREE MEMORY
Total time:
2.948772907257 s
=======================================================================

