rm -f euler3d_cpu
rm -f euler3d_cpu_offload
rm -f euler3d_cpu_double
rm -f pre_euler3d_cpu
rm -f pre_euler3d_cpu_double
g++ -g -O3 -Dblock_length=1 -fopenmp euler3d_cpu.cpp -o euler3d_cpu
g++ -g -O3 -Dblock_length=1 -fopenmp euler3d_cpu_double.cpp -o euler3d_cpu_double
g++ -g -O3 -Dblock_length=1 -fopenmp pre_euler3d_cpu.cpp -o pre_euler3d_cpu
g++ -g -O3 -Dblock_length=1 -fopenmp pre_euler3d_cpu_double.cpp -o pre_euler3d_cpu_double
==47998== Massif, a heap profiler
==47998== Copyright (C) 2003-2013, and GNU GPL'd, by Nicholas Nethercote
==47998== Using Valgrind-3.10.0 and LibVEX; rerun with -h for copyright info
==47998== Command: ./euler3d_cpu /home/users/amarkou/DIPLOMA/rodinia_3.1/data/cfd/fvcorr.domn.097K
==47998== 
==47998== 
==48697== Massif, a heap profiler
==48697== Copyright (C) 2003-2013, and GNU GPL'd, by Nicholas Nethercote
==48697== Using Valgrind-3.10.0 and LibVEX; rerun with -h for copyright info
==48697== Command: ./euler3d_cpu_double /home/users/amarkou/DIPLOMA/rodinia_3.1/data/cfd/fvcorr.domn.097K
==48697== 
==48697== 
==48838== Massif, a heap profiler
==48838== Copyright (C) 2003-2013, and GNU GPL'd, by Nicholas Nethercote
==48838== Using Valgrind-3.10.0 and LibVEX; rerun with -h for copyright info
==48838== Command: ./pre_euler3d_cpu /home/users/amarkou/DIPLOMA/rodinia_3.1/data/cfd/fvcorr.domn.097K
==48838== 
==48838== 
==48926== Massif, a heap profiler
==48926== Copyright (C) 2003-2013, and GNU GPL'd, by Nicholas Nethercote
==48926== Using Valgrind-3.10.0 and LibVEX; rerun with -h for copyright info
==48926== Command: ./pre_euler3d_cpu_double /home/users/amarkou/DIPLOMA/rodinia_3.1/data/cfd/fvcorr.domn.097K
==48926== 
==48926== 
