omp threads, total ins, total cycles, ipc(per thread),,ipc (dice-wise)
1,238451481,267916729,0.890020847321,,0.003973307468152
2,245963089,171266837,0.718069791794,,0.006411337557803
4,255029169,108458369,0.587850391865,,0.010497328019868
6,250754093,80693690,0.517913460732,,0.013872682178477
8,261517649,99955059,0.327044039965,,0.011680144218256
10,264517714,61038447,0.433362454176,,0.019346538285709
12,280783192,87512050,0.267375737429,,0.014323700483044
14,296503605,171952765,0.123166553676,,0.007697909411551
16,300213737,84073087,0.223179131746,,0.015941366555524
18,279548243,73242555,0.212041452527,,0.01703904550679
20,314635489,86183521,0.182538077235,,0.016298042856128
22,338433047,185787797,0.082800485194,,0.008132190818562
24,309615734,52245190,0.246925234795,,0.026456274696566
26,311069600,76204375,0.157001689076,,0.018223410026374
28,326614162,72385690,0.161147758365,,0.020143469482711
30,382601805,53326948,0.239154756069,,0.032029655481529
32,381754530,52115895,0.228909611702,,0.032701372482289
34,393933815,51827729,0.223553851247,,0.033932281745908
36,403186572,53408801,0.209696277976,,0.033701188191276
38,480988647,88494554,0.143032491207,,0.024264439431332
40,497214325,92585873,0.134257614613,,0.023974573399937
42,428796081,69524629,0.146846234798,,0.02753367038823
44,518869565,74523109,0.158239379525,,0.031082734170513
46,557094142,159533880,0.07591329515,,0.015589337008809
48,778965899,100721244,0.161122471094,,0.034526244878602
50,706963532,86590884,0.163288205862,,0.03644826164875
52,621794066,59086029,0.202375724912,,0.046980079945319
54,725995658,65434657,0.205462440848,,0.049531123004784
56,1827701127,152170235,0.214480310678,,0.053620079059811
