-------------------------------------------

omp_num_threads=1

Configuration used: cores = 1, boxes1d = 10
Time spent in different stages of CPU/MCPU KERNEL:
 0.000000000000 s,  0.000000000000 % : CPU/MCPU: VARIABLES
 0.000004000000 s,  0.000029340265 % : MCPU: SET DEVICE
 0.000000000000 s,  0.000000000000 % : CPU/MCPU: INPUTS
13.633137702942 s, 99.999969482422 % : CPU/MCPU: KERNEL
Total time:
13.633142471313 s
Time spent in different stages of the application:
 0.000002000000 s,  0.000014659461 % : VARIABLES
 0.000289999996 s,  0.002125622006 % : INPUT ARGUMENTS
 0.000000000000 s,  0.000000000000 % : INPUTS
 0.000000000000 s,  0.000000000000 % : dim_cpu
 0.009332000278 s,  0.068401046097 % : SYS MEM: ALO
13.633160591125 s, 99.927398681641 % : KERNEL: COMPUTE
 0.000280999986 s,  0.002059654333 % : SYS MEM: FRE
Total time:
13.643066406250 s
===========================================

-------------------------------------------

omp_num_threads=2

Configuration used: cores = 2, boxes1d = 10
Time spent in different stages of CPU/MCPU KERNEL:
 0.000000000000 s,  0.000000000000 % : CPU/MCPU: VARIABLES
 0.000004000000 s,  0.000058338435 % : MCPU: SET DEVICE
 0.000000000000 s,  0.000000000000 % : CPU/MCPU: INPUTS
 6.856538772583 s, 99.999938964844 % : CPU/MCPU: KERNEL
Total time:
6.856543064117 s
Time spent in different stages of the application:
 0.000001000000 s,  0.000014566281 % : VARIABLES
 0.000287000003 s,  0.004180523101 % : INPUT ARGUMENTS
 0.000000000000 s,  0.000000000000 % : INPUTS
 0.000000000000 s,  0.000000000000 % : dim_cpu
 0.008035000414 s,  0.117040075362 % : SYS MEM: ALO
 6.856557846069 s, 99.874557495117 % : KERNEL: COMPUTE
 0.000288999989 s,  0.004209655337 % : SYS MEM: FRE
Total time:
6.865170001984 s
===========================================

-------------------------------------------

omp_num_threads=4

Configuration used: cores = 4, boxes1d = 10
Time spent in different stages of CPU/MCPU KERNEL:
 0.000001000000 s,  0.000027261891 % : CPU/MCPU: VARIABLES
 0.000003000000 s,  0.000081785678 % : MCPU: SET DEVICE
 0.000000000000 s,  0.000000000000 % : CPU/MCPU: INPUTS
 3.668119907379 s, 99.999893188477 % : CPU/MCPU: KERNEL
Total time:
3.668123960495 s
Time spent in different stages of the application:
 0.000001000000 s,  0.000027196003 % : VARIABLES
 0.000338999991 s,  0.009219444357 % : INPUT ARGUMENTS
 0.000000000000 s,  0.000000000000 % : INPUTS
 0.000000000000 s,  0.000000000000 % : dim_cpu
 0.008220000193 s,  0.223551124334 % : SYS MEM: ALO
 3.668145895004 s, 99.758903503418 % : KERNEL: COMPUTE
 0.000304999994 s,  0.008294780739 % : SYS MEM: FRE
Total time:
3.677011013031 s
===========================================

-------------------------------------------

omp_num_threads=6

Configuration used: cores = 6, boxes1d = 10
Time spent in different stages of CPU/MCPU KERNEL:
 0.000000000000 s,  0.000000000000 % : CPU/MCPU: VARIABLES
 0.000003000000 s,  0.000120859411 % : MCPU: SET DEVICE
 0.000000000000 s,  0.000000000000 % : CPU/MCPU: INPUTS
 2.482219934464 s, 99.999877929688 % : CPU/MCPU: KERNEL
Total time:
2.482223033905 s
Time spent in different stages of the application:
 0.000001000000 s,  0.000040127445 % : VARIABLES
 0.000742000004 s,  0.029774563387 % : INPUT ARGUMENTS
 0.000000000000 s,  0.000000000000 % : INPUTS
 0.000000000000 s,  0.000000000000 % : dim_cpu
 0.008739000186 s,  0.350673735142 % : SYS MEM: ALO
 2.482245922089 s, 99.606193542480 % : KERNEL: COMPUTE
 0.000331999996 s,  0.013322311454 % : SYS MEM: FRE
Total time:
2.492059946060 s
===========================================

-------------------------------------------

omp_num_threads=8

Configuration used: cores = 8, boxes1d = 10
Time spent in different stages of CPU/MCPU KERNEL:
 0.000000000000 s,  0.000000000000 % : CPU/MCPU: VARIABLES
 0.000003000000 s,  0.000161470540 % : MCPU: SET DEVICE
 0.000001000000 s,  0.000053823514 % : CPU/MCPU: INPUTS
 1.857920050621 s, 99.999786376953 % : CPU/MCPU: KERNEL
Total time:
1.857923984528 s
Time spent in different stages of the application:
 0.000002000000 s,  0.000107105996 % : VARIABLES
 0.000280000007 s,  0.014994841069 % : INPUT ARGUMENTS
 0.000000000000 s,  0.000000000000 % : INPUTS
 0.000000000000 s,  0.000000000000 % : dim_cpu
 0.008772999980 s,  0.469820469618 % : SYS MEM: ALO
 1.857936024666 s, 99.498046875000 % : KERNEL: COMPUTE
 0.000318000006 s,  0.017029855400 % : SYS MEM: FRE
Total time:
1.867308974266 s
===========================================

-------------------------------------------

omp_num_threads=10

Configuration used: cores = 10, boxes1d = 10
Time spent in different stages of CPU/MCPU KERNEL:
 0.000000000000 s,  0.000000000000 % : CPU/MCPU: VARIABLES
 0.000003000000 s,  0.000204173994 % : MCPU: SET DEVICE
 0.000000000000 s,  0.000000000000 % : CPU/MCPU: INPUTS
 1.469331979752 s, 99.999794006348 % : CPU/MCPU: KERNEL
Total time:
1.469334959984 s
Time spent in different stages of the application:
 0.000001000000 s,  0.000067617591 % : VARIABLES
 0.000291000004 s,  0.019676720724 % : INPUT ARGUMENTS
 0.000000000000 s,  0.000000000000 % : INPUTS
 0.000000000000 s,  0.000000000000 % : dim_cpu
 0.008883999661 s,  0.600714683533 % : SYS MEM: ALO
 1.469365954399 s, 99.354995727539 % : KERNEL: COMPUTE
 0.000362999999 s,  0.024545187131 % : SYS MEM: FRE
Total time:
1.478904962540 s
===========================================

-------------------------------------------

omp_num_threads=12

Configuration used: cores = 12, boxes1d = 10
Time spent in different stages of CPU/MCPU KERNEL:
 0.000001000000 s,  0.000077503755 % : CPU/MCPU: VARIABLES
 0.000003000000 s,  0.000232511273 % : MCPU: SET DEVICE
 0.000000000000 s,  0.000000000000 % : CPU/MCPU: INPUTS
 1.290256023407 s, 99.999687194824 % : CPU/MCPU: KERNEL
Total time:
1.290259957314 s
Time spent in different stages of the application:
 0.000002000000 s,  0.000153882254 % : VARIABLES
 0.000310000003 s,  0.023851750419 % : INPUT ARGUMENTS
 0.000000000000 s,  0.000000000000 % : INPUTS
 0.000000000000 s,  0.000000000000 % : dim_cpu
 0.008770000190 s,  0.674773693085 % : SYS MEM: ALO
 1.290271043777 s, 99.274909973145 % : KERNEL: COMPUTE
 0.000342000014 s,  0.026313863695 % : SYS MEM: FRE
Total time:
1.299695014954 s
===========================================

-------------------------------------------

omp_num_threads=14

Configuration used: cores = 14, boxes1d = 10
Time spent in different stages of CPU/MCPU KERNEL:
 0.000000000000 s,  0.000000000000 % : CPU/MCPU: VARIABLES
 0.000003000000 s,  0.000265337148 % : MCPU: SET DEVICE
 0.000000000000 s,  0.000000000000 % : CPU/MCPU: INPUTS
 1.130633950233 s, 99.999732971191 % : CPU/MCPU: KERNEL
Total time:
1.130637049675 s
Time spent in different stages of the application:
 0.000001000000 s,  0.000087707063 % : VARIABLES
 0.000304999994 s,  0.026750653982 % : INPUT ARGUMENTS
 0.000000000000 s,  0.000000000000 % : INPUTS
 0.000000000000 s,  0.000000000000 % : dim_cpu
 0.008886000142 s,  0.779365003109 % : SYS MEM: ALO
 1.130653977394 s, 99.166343688965 % : KERNEL: COMPUTE
 0.000312999997 s,  0.027452310547 % : SYS MEM: FRE
Total time:
1.140159010887 s
===========================================

-------------------------------------------

omp_num_threads=16

Configuration used: cores = 16, boxes1d = 10
Time spent in different stages of CPU/MCPU KERNEL:
 0.000000000000 s,  0.000000000000 % : CPU/MCPU: VARIABLES
 0.000003000000 s,  0.000301141030 % : MCPU: SET DEVICE
 0.000000000000 s,  0.000000000000 % : CPU/MCPU: INPUTS
 0.996208012104 s, 99.999694824219 % : CPU/MCPU: KERNEL
Total time:
0.996210992336 s
Time spent in different stages of the application:
 0.000001000000 s,  0.000099408520 % : VARIABLES
 0.000356000004 s,  0.035389434546 % : INPUT ARGUMENTS
 0.000001000000 s,  0.000099408520 % : INPUTS
 0.000000000000 s,  0.000000000000 % : dim_cpu
 0.008851000108 s,  0.879864752293 % : SYS MEM: ALO
 0.996244013309 s, 99.035140991211 % : KERNEL: COMPUTE
 0.000497000001 s,  0.049406033009 % : SYS MEM: FRE
Total time:
1.005949974060 s
===========================================

-------------------------------------------

omp_num_threads=18

Configuration used: cores = 18, boxes1d = 10
Time spent in different stages of CPU/MCPU KERNEL:
 0.000000000000 s,  0.000000000000 % : CPU/MCPU: VARIABLES
 0.000004000000 s,  0.000449534185 % : MCPU: SET DEVICE
 0.000000000000 s,  0.000000000000 % : CPU/MCPU: INPUTS
 0.889805972576 s, 99.999549865723 % : CPU/MCPU: KERNEL
Total time:
0.889810025692 s
Time spent in different stages of the application:
 0.000001000000 s,  0.000111215282 % : VARIABLES
 0.000288000010 s,  0.032030001283 % : INPUT ARGUMENTS
 0.000000000000 s,  0.000000000000 % : INPUTS
 0.000000000000 s,  0.000000000000 % : dim_cpu
 0.008704000153 s,  0.968017816544 % : SYS MEM: ALO
 0.889828026295 s, 98.962471008301 % : KERNEL: COMPUTE
 0.000335999997 s,  0.037368334830 % : SYS MEM: FRE
Total time:
0.899156987667 s
===========================================

-------------------------------------------

omp_num_threads=20

Configuration used: cores = 20, boxes1d = 10
Time spent in different stages of CPU/MCPU KERNEL:
 0.000000000000 s,  0.000000000000 % : CPU/MCPU: VARIABLES
 0.000003000000 s,  0.000405148108 % : MCPU: SET DEVICE
 0.000000000000 s,  0.000000000000 % : CPU/MCPU: INPUTS
 0.740467011929 s, 99.999595642090 % : CPU/MCPU: KERNEL
Total time:
0.740469992161 s
Time spent in different stages of the application:
 0.000001000000 s,  0.000133288020 % : VARIABLES
 0.000474000000 s,  0.063178516924 % : INPUT ARGUMENTS
 0.000000000000 s,  0.000000000000 % : INPUTS
 0.000000000000 s,  0.000000000000 % : dim_cpu
 0.008960999548 s,  1.194393873215 % : SYS MEM: ALO
 0.740486979485 s, 98.698043823242 % : KERNEL: COMPUTE
 0.000331999996 s,  0.044251620770 % : SYS MEM: FRE
Total time:
0.750254988670 s
===========================================

-------------------------------------------

omp_num_threads=22

Configuration used: cores = 22, boxes1d = 10
Time spent in different stages of CPU/MCPU KERNEL:
 0.000000000000 s,  0.000000000000 % : CPU/MCPU: VARIABLES
 0.000003000000 s,  0.000411175191 % : MCPU: SET DEVICE
 0.000000000000 s,  0.000000000000 % : CPU/MCPU: INPUTS
 0.729613006115 s, 99.999588012695 % : CPU/MCPU: KERNEL
Total time:
0.729615986347 s
Time spent in different stages of the application:
 0.000001000000 s,  0.000135334660 % : VARIABLES
 0.000280000007 s,  0.037893705070 % : INPUT ARGUMENTS
 0.000001000000 s,  0.000135334660 % : INPUTS
 0.000000000000 s,  0.000000000000 % : dim_cpu
 0.008541000076 s,  1.155893325806 % : SYS MEM: ALO
 0.729638993740 s, 98.745445251465 % : KERNEL: COMPUTE
 0.000446999999 s,  0.060494594276 % : SYS MEM: FRE
Total time:
0.738909006119 s
===========================================

-------------------------------------------

omp_num_threads=24

Configuration used: cores = 24, boxes1d = 10
Time spent in different stages of CPU/MCPU KERNEL:
 0.000000000000 s,  0.000000000000 % : CPU/MCPU: VARIABLES
 0.000003000000 s,  0.000451156986 % : MCPU: SET DEVICE
 0.000000000000 s,  0.000000000000 % : CPU/MCPU: INPUTS
 0.664954006672 s, 99.999549865723 % : CPU/MCPU: KERNEL
Total time:
0.664956986904 s
Time spent in different stages of the application:
 0.000001000000 s,  0.000148274674 % : VARIABLES
 0.000296999991 s,  0.044037580490 % : INPUT ARGUMENTS
 0.000000000000 s,  0.000000000000 % : INPUTS
 0.000000000000 s,  0.000000000000 % : dim_cpu
 0.008808000013 s,  1.306003332138 % : SYS MEM: ALO
 0.664969980717 s, 98.598213195801 % : KERNEL: COMPUTE
 0.000348000001 s,  0.051599588245 % : SYS MEM: FRE
Total time:
0.674423992634 s
===========================================

-------------------------------------------

omp_num_threads=26

Configuration used: cores = 26, boxes1d = 10
Time spent in different stages of CPU/MCPU KERNEL:
 0.000000000000 s,  0.000000000000 % : CPU/MCPU: VARIABLES
 0.000003000000 s,  0.000486679579 % : MCPU: SET DEVICE
 0.000000000000 s,  0.000000000000 % : CPU/MCPU: INPUTS
 0.616419017315 s, 99.999511718750 % : CPU/MCPU: KERNEL
Total time:
0.616421997547 s
Time spent in different stages of the application:
 0.000002000000 s,  0.000319621555 % : VARIABLES
 0.000296999991 s,  0.047463800758 % : INPUT ARGUMENTS
 0.000000000000 s,  0.000000000000 % : INPUTS
 0.000000000000 s,  0.000000000000 % : dim_cpu
 0.008663999848 s,  1.384600639343 % : SYS MEM: ALO
 0.616434991360 s, 98.512962341309 % : KERNEL: COMPUTE
 0.000342000014 s,  0.054655287415 % : SYS MEM: FRE
Total time:
0.625739991665 s
===========================================

-------------------------------------------

omp_num_threads=28

Configuration used: cores = 28, boxes1d = 10
Time spent in different stages of CPU/MCPU KERNEL:
 0.000001000000 s,  0.000174592584 % : CPU/MCPU: VARIABLES
 0.000003000000 s,  0.000523777795 % : MCPU: SET DEVICE
 0.000000000000 s,  0.000000000000 % : CPU/MCPU: INPUTS
 0.572758018970 s, 99.999305725098 % : CPU/MCPU: KERNEL
Total time:
0.572762012482 s
Time spent in different stages of the application:
 0.000001000000 s,  0.000171755499 % : VARIABLES
 0.000331999996 s,  0.057022824883 % : INPUT ARGUMENTS
 0.000001000000 s,  0.000171755499 % : INPUTS
 0.000000000000 s,  0.000000000000 % : dim_cpu
 0.008763999678 s,  1.505265235901 % : SYS MEM: ALO
 0.572778999805 s, 98.377944946289 % : KERNEL: COMPUTE
 0.000345999986 s,  0.059427402914 % : SYS MEM: FRE
Total time:
0.582222998142 s
===========================================

-------------------------------------------

omp_num_threads=30

Configuration used: cores = 30, boxes1d = 10
Time spent in different stages of CPU/MCPU KERNEL:
 0.000000000000 s,  0.000000000000 % : CPU/MCPU: VARIABLES
 0.000003000000 s,  0.000528531906 % : MCPU: SET DEVICE
 0.000001000000 s,  0.000176177302 % : CPU/MCPU: INPUTS
 0.567605972290 s, 99.999298095703 % : CPU/MCPU: KERNEL
Total time:
0.567610025406 s
Time spent in different stages of the application:
 0.000001000000 s,  0.000173240260 % : VARIABLES
 0.000387999986 s,  0.067217223346 % : INPUT ARGUMENTS
 0.000001000000 s,  0.000173240260 % : INPUTS
 0.000000000000 s,  0.000000000000 % : dim_cpu
 0.008864000440 s,  1.535601735115 % : SYS MEM: ALO
 0.567632019520 s, 98.336723327637 % : KERNEL: COMPUTE
 0.000346999994 s,  0.060114376247 % : SYS MEM: FRE
Total time:
0.577233016491 s
===========================================

-------------------------------------------

omp_num_threads=32

Configuration used: cores = 32, boxes1d = 10
Time spent in different stages of CPU/MCPU KERNEL:
 0.000001000000 s,  0.000177520880 % : CPU/MCPU: VARIABLES
 0.000003000000 s,  0.000532562670 % : MCPU: SET DEVICE
 0.000000000000 s,  0.000000000000 % : CPU/MCPU: INPUTS
 0.563310027122 s, 99.999290466309 % : CPU/MCPU: KERNEL
Total time:
0.563314020634 s
Time spent in different stages of the application:
 0.000002000000 s,  0.000349041366 % : VARIABLES
 0.000350999995 s,  0.061256758869 % : INPUT ARGUMENTS
 0.000000000000 s,  0.000000000000 % : INPUTS
 0.000000000000 s,  0.000000000000 % : dim_cpu
 0.008941000327 s,  1.560389399529 % : SYS MEM: ALO
 0.563336014748 s, 98.313781738281 % : KERNEL: COMPUTE
 0.000368000008 s,  0.064223609865 % : SYS MEM: FRE
Total time:
0.572997987270 s
===========================================

-------------------------------------------

omp_num_threads=34

Configuration used: cores = 34, boxes1d = 10
Time spent in different stages of CPU/MCPU KERNEL:
 0.000000000000 s,  0.000000000000 % : CPU/MCPU: VARIABLES
 0.000004000000 s,  0.000701595563 % : MCPU: SET DEVICE
 0.000000000000 s,  0.000000000000 % : CPU/MCPU: INPUTS
 0.570124983788 s, 99.999298095703 % : CPU/MCPU: KERNEL
Total time:
0.570128977299 s
Time spent in different stages of the application:
 0.000001000000 s,  0.000172488450 % : VARIABLES
 0.000319000013 s,  0.055023811758 % : INPUT ARGUMENTS
 0.000000000000 s,  0.000000000000 % : INPUTS
 0.000000000000 s,  0.000000000000 % : dim_cpu
 0.008717999794 s,  1.503754258156 % : SYS MEM: ALO
 0.570155978203 s, 98.345314025879 % : KERNEL: COMPUTE
 0.000554999977 s,  0.095731087029 % : SYS MEM: FRE
Total time:
0.579748988152 s
===========================================

-------------------------------------------

omp_num_threads=36

Configuration used: cores = 36, boxes1d = 10
Time spent in different stages of CPU/MCPU KERNEL:
 0.000000000000 s,  0.000000000000 % : CPU/MCPU: VARIABLES
 0.000003000000 s,  0.000601332576 % : MCPU: SET DEVICE
 0.000000000000 s,  0.000000000000 % : CPU/MCPU: INPUTS
 0.498888999224 s, 99.999397277832 % : CPU/MCPU: KERNEL
Total time:
0.498892009258 s
Time spent in different stages of the application:
 0.000001000000 s,  0.000196705194 % : VARIABLES
 0.000421000004 s,  0.082812882960 % : INPUT ARGUMENTS
 0.000000000000 s,  0.000000000000 % : INPUTS
 0.000000000000 s,  0.000000000000 % : dim_cpu
 0.008644999936 s,  1.700516462326 % : SYS MEM: ALO
 0.498903989792 s, 98.137001037598 % : KERNEL: COMPUTE
 0.000403999991 s,  0.079468891025 % : SYS MEM: FRE
Total time:
0.508374989033 s
===========================================

-------------------------------------------

omp_num_threads=38

Configuration used: cores = 38, boxes1d = 10
Time spent in different stages of CPU/MCPU KERNEL:
 0.000000000000 s,  0.000000000000 % : CPU/MCPU: VARIABLES
 0.000004000000 s,  0.000794858905 % : MCPU: SET DEVICE
 0.000000000000 s,  0.000000000000 % : CPU/MCPU: INPUTS
 0.503229975700 s, 99.999206542969 % : CPU/MCPU: KERNEL
Total time:
0.503234028816 s
Time spent in different stages of the application:
 0.000001000000 s,  0.000195033659 % : VARIABLES
 0.000377999997 s,  0.073722727597 % : INPUT ARGUMENTS
 0.000000000000 s,  0.000000000000 % : INPUTS
 0.000000000000 s,  0.000000000000 % : dim_cpu
 0.008732000366 s,  1.703033924103 % : SYS MEM: ALO
 0.503257989883 s, 98.152252197266 % : KERNEL: COMPUTE
 0.000362999999 s,  0.070797219872 % : SYS MEM: FRE
Total time:
0.512732028961 s
===========================================

-------------------------------------------

omp_num_threads=40

Configuration used: cores = 40, boxes1d = 10
Time spent in different stages of CPU/MCPU KERNEL:
 0.000000000000 s,  0.000000000000 % : CPU/MCPU: VARIABLES
 0.000003000000 s,  0.000641343533 % : MCPU: SET DEVICE
 0.000000000000 s,  0.000000000000 % : CPU/MCPU: INPUTS
 0.467765003443 s, 99.999359130859 % : CPU/MCPU: KERNEL
Total time:
0.467768013477 s
Time spent in different stages of the application:
 0.000001000000 s,  0.000209499107 % : VARIABLES
 0.000349999988 s,  0.073324687779 % : INPUT ARGUMENTS
 0.000001000000 s,  0.000209499107 % : INPUTS
 0.000000000000 s,  0.000000000000 % : dim_cpu
 0.008822999895 s,  1.848410606384 % : SYS MEM: ALO
 0.467788994312 s, 98.001380920410 % : KERNEL: COMPUTE
 0.000365000014 s,  0.076467178762 % : SYS MEM: FRE
Total time:
0.477328985929 s
===========================================

-------------------------------------------

omp_num_threads=42

Configuration used: cores = 42, boxes1d = 10
Time spent in different stages of CPU/MCPU KERNEL:
 0.000000000000 s,  0.000000000000 % : CPU/MCPU: VARIABLES
 0.000003000000 s,  0.000657736091 % : MCPU: SET DEVICE
 0.000000000000 s,  0.000000000000 % : CPU/MCPU: INPUTS
 0.456106990576 s, 99.999343872070 % : CPU/MCPU: KERNEL
Total time:
0.456110000610 s
Time spent in different stages of the application:
 0.000001000000 s,  0.000214678425 % : VARIABLES
 0.000334999990 s,  0.071917273104 % : INPUT ARGUMENTS
 0.000001000000 s,  0.000214678425 % : INPUTS
 0.000000000000 s,  0.000000000000 % : dim_cpu
 0.008723000064 s,  1.872639894485 % : SYS MEM: ALO
 0.456140011549 s, 97.923416137695 % : KERNEL: COMPUTE
 0.000613000011 s,  0.131597876549 % : SYS MEM: FRE
Total time:
0.465813010931 s
===========================================

-------------------------------------------

omp_num_threads=44

Configuration used: cores = 44, boxes1d = 10
Time spent in different stages of CPU/MCPU KERNEL:
 0.000000000000 s,  0.000000000000 % : CPU/MCPU: VARIABLES
 0.000004000000 s,  0.000869833748 % : MCPU: SET DEVICE
 0.000000000000 s,  0.000000000000 % : CPU/MCPU: INPUTS
 0.459854006767 s, 99.999130249023 % : CPU/MCPU: KERNEL
Total time:
0.459858000278 s
Time spent in different stages of the application:
 0.000001000000 s,  0.000213027030 % : VARIABLES
 0.000311000011 s,  0.066251404583 % : INPUT ARGUMENTS
 0.000000000000 s,  0.000000000000 % : INPUTS
 0.000000000000 s,  0.000000000000 % : dim_cpu
 0.008853999898 s,  1.886141300201 % : SYS MEM: ALO
 0.459874004126 s, 97.965591430664 % : KERNEL: COMPUTE
 0.000384000014 s,  0.081802383065 % : SYS MEM: FRE
Total time:
0.469424009323 s
===========================================

-------------------------------------------

omp_num_threads=46

Configuration used: cores = 46, boxes1d = 10
Time spent in different stages of CPU/MCPU KERNEL:
 0.000000000000 s,  0.000000000000 % : CPU/MCPU: VARIABLES
 0.000003000000 s,  0.000703733065 % : MCPU: SET DEVICE
 0.000000000000 s,  0.000000000000 % : CPU/MCPU: INPUTS
 0.426295012236 s, 99.999298095703 % : CPU/MCPU: KERNEL
Total time:
0.426297992468 s
Time spent in different stages of the application:
 0.000001000000 s,  0.000229516241 % : VARIABLES
 0.000246999989 s,  0.056690514088 % : INPUT ARGUMENTS
 0.000000000000 s,  0.000000000000 % : INPUTS
 0.000000000000 s,  0.000000000000 % : dim_cpu
 0.008671999909 s,  1.990364909172 % : SYS MEM: ALO
 0.426313012838 s, 97.845764160156 % : KERNEL: COMPUTE
 0.000465999998 s,  0.106954574585 % : SYS MEM: FRE
Total time:
0.435698986053 s
===========================================

-------------------------------------------

omp_num_threads=48

Configuration used: cores = 48, boxes1d = 10
Time spent in different stages of CPU/MCPU KERNEL:
 0.000000000000 s,  0.000000000000 % : CPU/MCPU: VARIABLES
 0.000004000000 s,  0.000883585366 % : MCPU: SET DEVICE
 0.000000000000 s,  0.000000000000 % : CPU/MCPU: INPUTS
 0.452697008848 s, 99.999114990234 % : CPU/MCPU: KERNEL
Total time:
0.452701002359 s
Time spent in different stages of the application:
 0.000002000000 s,  0.000432691566 % : VARIABLES
 0.000269000011 s,  0.058197014034 % : INPUT ARGUMENTS
 0.000000000000 s,  0.000000000000 % : INPUTS
 0.000000000000 s,  0.000000000000 % : dim_cpu
 0.008782000281 s,  1.899948716164 % : SYS MEM: ALO
 0.452713012695 s, 97.942550659180 % : KERNEL: COMPUTE
 0.000456999987 s,  0.098870031536 % : SYS MEM: FRE
Total time:
0.462222993374 s
===========================================

-------------------------------------------

omp_num_threads=50

Configuration used: cores = 50, boxes1d = 10
Time spent in different stages of CPU/MCPU KERNEL:
 0.000000000000 s,  0.000000000000 % : CPU/MCPU: VARIABLES
 0.000003000000 s,  0.000735528476 % : MCPU: SET DEVICE
 0.000000000000 s,  0.000000000000 % : CPU/MCPU: INPUTS
 0.407867014408 s, 99.999267578125 % : CPU/MCPU: KERNEL
Total time:
0.407869994640 s
Time spent in different stages of the application:
 0.000001000000 s,  0.000239464745 % : VARIABLES
 0.000258999993 s,  0.062021367252 % : INPUT ARGUMENTS
 0.000001000000 s,  0.000239464745 % : INPUTS
 0.000000000000 s,  0.000000000000 % : dim_cpu
 0.008810999803 s,  2.109923839569 % : SYS MEM: ALO
 0.407902002335 s, 97.678146362305 % : KERNEL: COMPUTE
 0.000623999978 s,  0.149425998330 % : SYS MEM: FRE
Total time:
0.417598009109 s
===========================================

-------------------------------------------

omp_num_threads=52

Configuration used: cores = 52, boxes1d = 10
Time spent in different stages of CPU/MCPU KERNEL:
 0.000000000000 s,  0.000000000000 % : CPU/MCPU: VARIABLES
 0.000003000000 s,  0.000746801845 % : MCPU: SET DEVICE
 0.000000000000 s,  0.000000000000 % : CPU/MCPU: INPUTS
 0.401710003614 s, 99.999252319336 % : CPU/MCPU: KERNEL
Total time:
0.401713013649 s
Time spent in different stages of the application:
 0.000001000000 s,  0.000243093702 % : VARIABLES
 0.000288999989 s,  0.070254079998 % : INPUT ARGUMENTS
 0.000000000000 s,  0.000000000000 % : INPUTS
 0.000000000000 s,  0.000000000000 % : dim_cpu
 0.008774000220 s,  2.132904052734 % : SYS MEM: ALO
 0.401737004519 s, 97.659736633301 % : KERNEL: COMPUTE
 0.000562999980 s,  0.136861756444 % : SYS MEM: FRE
Total time:
0.411363989115 s
===========================================

-------------------------------------------

omp_num_threads=54

Configuration used: cores = 54, boxes1d = 10
Time spent in different stages of CPU/MCPU KERNEL:
 0.000001000000 s,  0.000258868851 % : CPU/MCPU: VARIABLES
 0.000003000000 s,  0.000776606495 % : MCPU: SET DEVICE
 0.000000000000 s,  0.000000000000 % : CPU/MCPU: INPUTS
 0.386292010546 s, 99.998962402344 % : CPU/MCPU: KERNEL
Total time:
0.386296004057 s
Time spent in different stages of the application:
 0.000002000000 s,  0.000505023694 % : VARIABLES
 0.000288000010 s,  0.072723418474 % : INPUT ARGUMENTS
 0.000000000000 s,  0.000000000000 % : INPUTS
 0.000000000000 s,  0.000000000000 % : dim_cpu
 0.008944000117 s,  2.258466243744 % : SYS MEM: ALO
 0.386326998472 s, 97.552146911621 % : KERNEL: COMPUTE
 0.000460000010 s,  0.116155460477 % : SYS MEM: FRE
Total time:
0.396021008492 s
===========================================

-------------------------------------------

omp_num_threads=56

Configuration used: cores = 56, boxes1d = 10
Time spent in different stages of CPU/MCPU KERNEL:
 0.000000000000 s,  0.000000000000 % : CPU/MCPU: VARIABLES
 0.000003000000 s,  0.000795768690 % : MCPU: SET DEVICE
 0.000000000000 s,  0.000000000000 % : CPU/MCPU: INPUTS
 0.376991003752 s, 99.999198913574 % : CPU/MCPU: KERNEL
Total time:
0.376994013786 s
Time spent in different stages of the application:
 0.000002000000 s,  0.000517256965 % : VARIABLES
 0.000292999990 s,  0.075778149068 % : INPUT ARGUMENTS
 0.000000000000 s,  0.000000000000 % : INPUTS
 0.000000000000 s,  0.000000000000 % : dim_cpu
 0.008871999569 s,  2.294551849365 % : SYS MEM: ALO
 0.377016007900 s, 97.507080078125 % : KERNEL: COMPUTE
 0.000472000014 s,  0.122072651982 % : SYS MEM: FRE
Total time:
0.386655002832 s
===========================================

