sample points,power,avg power=128.627857W,
1,68.916,128.627857,128.627856692308
2,68.916,128.627857,
3,69.0681,128.627857,
4,69.111,128.627857,
5,69.111,128.627857,
6,69.111,128.627857,
7,69.111,128.627857,
8,69.111,128.627857,
9,69.111,128.627857,
10,69.111,128.627857,
11,69.111,128.627857,
12,69.111,128.627857,
13,69.111,128.627857,
14,69.111,128.627857,
15,69.111,128.627857,
16,69.111,128.627857,
17,69.111,128.627857,
18,69.111,128.627857,
19,69.111,128.627857,
20,69.111,128.627857,
21,69.111,128.627857,
22,69.111,128.627857,
23,97.0429,128.627857,
24,98.513,128.627857,
25,98.513,128.627857,
26,114.45263,128.627857,
27,123.814,128.627857,
28,123.814,128.627857,
29,125.02424,128.627857,
30,127.718,128.627857,
31,127.718,128.627857,
32,127.718,128.627857,
33,128.38526,128.627857,
34,128.392,128.627857,
35,128.392,128.627857,
36,128.51997,128.627857,
37,128.583,128.627857,
38,128.583,128.627857,
39,128.6166,128.627857,
40,128.679,128.627857,
41,128.679,128.627857,
42,128.67668,128.627857,
43,128.563,128.627857,
44,128.563,128.627857,
45,128.563,128.627857,
46,128.6442,128.627857,
47,128.679,128.627857,
48,128.679,128.627857,
49,128.71415,128.627857,
50,128.774,128.627857,
51,128.774,128.627857,
52,128.7664,128.627857,
53,128.679,128.627857,
54,128.679,128.627857,
55,128.679,128.627857,
56,128.8965,128.627857,
57,128.969,128.627857,
58,128.969,128.627857,
59,128.92784,128.627857,
60,128.871,128.627857,
61,128.871,128.627857,
62,128.871,128.627857,
63,128.871,128.627857,
64,128.871,128.627857,
65,128.871,128.627857,
66,128.7942,128.627857,
67,128.775,128.627857,
68,128.775,128.627857,
69,128.91324,128.627857,
70,129.063,128.627857,
71,129.063,128.627857,
72,129.04796,128.627857,
73,128.969,128.627857,
74,128.969,128.627857,
75,128.969,128.627857,
76,128.969,128.627857,
77,128.969,128.627857,
78,128.969,128.627857,
79,128.969,128.627857,
80,128.969,128.627857,
81,128.969,128.627857,
82,128.988,128.627857,
83,129.064,128.627857,
84,129.064,128.627857,
85,129.064,128.627857,
86,128.89416,128.627857,
87,128.871,128.627857,
88,128.871,128.627857,
89,128.871,128.627857,
90,128.871,128.627857,
91,128.871,128.627857,
92,128.87146,128.627857,
93,128.873,128.627857,
94,128.873,128.627857,
95,128.873,128.627857,
96,128.87118,128.627857,
97,128.871,128.627857,
98,128.871,128.627857,
99,128.92784,128.627857,
100,128.969,128.627857,
101,128.969,128.627857,
102,128.99344,128.627857,
103,129.063,128.627857,
104,129.063,128.627857,
105,129.063,128.627857,
106,128.88252,128.627857,
107,128.871,128.627857,
108,128.871,128.627857,
109,128.98995,128.627857,
110,129.066,128.627857,
111,129.066,128.627857,
112,129.06544,128.627857,
113,129.064,128.627857,
114,129.064,128.627857,
115,129.064,128.627857,
116,128.96992,128.627857,
117,128.966,128.627857,
118,128.966,128.627857,
119,129.0297,128.627857,
120,129.064,128.627857,
121,129.064,128.627857,
122,129.06464,128.627857,
123,129.066,128.627857,
124,129.066,128.627857,
125,129.06406,128.627857,
126,128.969,128.627857,
127,128.969,128.627857,
128,128.969,128.627857,
129,129.03787,128.627857,
130,129.066,128.627857,
131,129.066,128.627857,
132,129.05742,128.627857,
133,129.044,128.627857,
134,129.044,128.627857,
135,129.04532,128.627857,
136,129.066,128.627857,
137,129.066,128.627857,
138,129.066,128.627857,
139,129.066,128.627857,
140,129.066,128.627857,
141,129.066,128.627857,
142,129.066,128.627857,
143,129.066,128.627857,
144,129.066,128.627857,
145,129.07455,128.627857,
146,129.161,128.627857,
147,129.161,128.627857,
148,129.161,128.627857,
149,129.07208,128.627857,
150,129.044,128.627857,
151,129.044,128.627857,
152,129.1151,128.627857,
153,129.202,128.627857,
154,129.202,128.627857,
155,122.95485,128.627857,
156,81.147,128.627857,
157,81.147,128.627857,
158,81.147,128.627857,
