rm -f *.o *~ *.txt sc_cpu sc_omp
g++   streamcluster_original.cpp -o sc_cpu  -DENABLE_THREADS -pthread
g++ -O3 -fopenmp -o sc_omp streamcluster_omp.cpp
OMP_NUM_THREADS=1 

PARSEC Benchmark Suite
time = 69957.984044
time pgain = 68784.357950
time pgain_dist = 67765.728722
time pgain_init = 402.543088
time pselect = 0.363243
time pspeedy = 763.742280
time pshuffle = 5.766961
time localSearch = 69597.433270
loops=7
---------------------------------------------------------------------------

