100000000,545432,17247,97935,19358,2426947,17318,139525,18018,5872654,81602,358654,38730,19451792,350004,576995
100000000,320184,6935,57863,6932,1435842,6948,66785,6847,3771817,38294,207844,28641,14436505,187330,348654
100000000,6243,6077,6023,6219,6371,6137,6035,6184,8458,6151,6014,6072,4755737,11807,5979
100000000,5934,5780,5780,5890,6063,5780,5780,5802,8192,5780,5784,5782,4755614,11560,5788
100000000,5921,5780,5780,5792,6052,5780,5780,5782,8148,5780,5780,5780,4755611,11560,5788
100000000,6063,5905,5905,5907,6200,5905,5905,5905,8566,5905,5905,5905,4725549,11810,5914
100000000,6040,5910,5910,5910,6163,5910,5910,5910,8278,5910,5910,5910,4724080,11820,5918
100000000,6380,6240,6240,6240,6520,6240,6240,6240,8724,6240,6240,6240,4902872,12480,6249
100000000,5902,5780,5780,5780,6028,5780,5780,5780,8331,5780,5780,5780,4755611,11560,5788
100000000,5896,5780,5780,5780,6028,5780,5780,5780,8145,5780,5780,5780,4755614,11560,5788
100000000,5896,5781,5781,5781,6029,5781,5781,5781,8133,5781,5781,5781,4755613,11562,5789
100000000,5888,5780,5780,5780,6028,5780,5780,5780,8132,5780,5780,5780,4755614,11560,5788
100000000,5977,5860,5860,5860,6138,5860,5860,5860,8504,5860,5860,5860,4736396,11720,5869
100000000,6010,5910,5910,5910,6158,5910,5910,5910,8262,5910,5910,5910,4724081,11820,5918
100000000,6394,6285,6285,6285,6558,6285,6285,6285,8684,6285,6285,6285,4892021,12570,6294
100000000,5876,5780,5780,5780,5997,5780,5780,5780,8324,5780,5780,5780,4755614,11560,5788
100000000,5876,5780,5780,5780,5981,5780,5780,5780,8192,5780,5780,5780,4755611,11560,5788
100000000,5839,5781,5781,5781,5908,5781,5781,5781,8125,5781,5781,5781,4755613,11562,5789
100000000,5820,5780,5780,5780,5876,5780,5780,5780,8124,5780,5780,5780,4755614,11560,5788
100000000,5862,5816,5816,5816,5924,5816,5816,5816,8319,5816,5816,5816,4747247,11632,5825
100000000,5949,5909,5909,5909,6005,5909,5909,5909,8385,5909,5909,5909,4724080,11818,5917
100000000,6114,6070,6070,6070,6172,6070,6070,6070,8438,6070,6070,6070,4795010,12140,6079
100000000,6080,6040,6040,6040,6142,6040,6040,6040,8532,6040,6040,6040,4841775,12080,6048
100000000,5820,5780,5780,5780,5876,5780,5780,5780,8247,5780,5780,5780,4755614,11560,5788
100000000,5820,5780,5780,5780,5876,5780,5780,5780,8124,5780,5780,5780,4755611,11560,5788
100000000,5820,5781,5781,5781,5877,5781,5781,5781,8125,5781,5781,5781,4755613,11562,5789
100000000,5816,5780,5780,5780,5876,5780,5780,5780,8124,5780,5780,5780,4755614,11560,5788
100000000,5942,5901,5901,5901,6007,5901,5901,5901,8536,5901,5901,5901,4726564,11802,5910
100000000,5945,5909,5909,5909,6001,5909,5909,5909,8253,5909,5909,5909,4724079,11818,5917
100000000,6285,6245,6245,6245,6345,6245,6245,6245,8695,6245,6245,6245,4901857,12490,6254
100000000,5816,5780,5780,5780,5868,5780,5780,5780,8313,5780,5780,5780,4755612,11560,5788
100000000,5816,5780,5780,5780,5865,5780,5780,5780,8124,5780,5780,5780,4755614,11560,5788
100000000,5816,5781,5781,5781,5865,5781,5781,5781,8125,5781,5781,5781,4755613,11562,5789
100000000,5812,5780,5780,5780,5860,5780,5780,5780,8124,5780,5780,5780,4755611,11560,5788
100000000,5893,5856,5856,5856,5946,5856,5856,5856,8491,5856,5856,5856,4737414,11712,5865
100000000,5942,5910,5910,5910,5990,5910,5910,5910,8254,5910,5910,5910,4724080,11820,5918
100000000,6314,6279,6279,6279,6365,6279,6279,6279,8647,6279,6279,6279,4888117,12558,6288
100000000,5822,5790,5790,5790,5874,5790,5790,5790,8342,5790,5790,5790,4758503,11580,5798
100000000,5812,5780,5780,5780,5860,5780,5780,5780,8187,5780,5780,5780,4755612,11560,5788
100000000,5812,5780,5780,5780,5860,5780,5780,5780,8124,5780,5780,5780,4755614,11560,5788
100000000,5813,5781,5781,5781,5861,5781,5781,5781,8125,5781,5781,5781,4755613,11562,5789
100000000,5848,5811,5811,5811,5901,5811,5811,5811,8298,5811,5811,5811,4748261,11622,5820
100000000,5942,5910,5910,5910,5990,5910,5910,5910,8402,5910,5910,5910,4724080,11820,5918
100000000,6083,6048,6048,6048,6134,6048,6048,6048,8416,6048,6048,6048,4785397,12096,6057
100000000,6098,6066,6066,6066,6150,6066,6066,6066,8552,6066,6066,6066,4850374,12132,6074
100000000,5812,5780,5780,5780,5860,5780,5780,5780,8253,5780,5780,5780,4755613,11560,5788
100000000,5812,5780,5780,5780,5860,5780,5780,5780,8124,5780,5780,5780,4755612,11560,5788
100000000,5813,5781,5781,5781,5861,5781,5781,5781,8125,5781,5781,5781,4755613,11562,5789
100000000,5812,5780,5780,5780,5860,5780,5780,5780,8124,5780,5780,5780,4755614,11560,5788
100000000,5934,5897,5897,5897,5987,5897,5897,5897,8532,5897,5897,5897,4727578,11794,5906
100000000,5941,5909,5909,5909,5989,5909,5909,5909,8253,5909,5909,5909,4724080,11818,5917
100000000,6283,6248,6248,6248,6338,6248,6248,6248,8690,6248,6248,6248,4900841,12496,6257
100000000,5813,5781,5781,5781,5861,5781,5781,5781,8319,5781,5781,5781,4755613,11562,5789
100000000,5812,5780,5780,5780,5860,5780,5780,5780,8127,5780,5780,5780,4755613,11560,5788
100000000,5813,5781,5781,5781,5861,5781,5781,5781,8125,5781,5781,5781,4755613,11562,5789
100000000,5812,5780,5780,5780,5860,5780,5780,5780,8124,5780,5780,5780,4755612,11560,5788
100000000,5889,5852,5852,5852,5942,5852,5852,5852,8481,5852,5852,5852,4738428,11704,5861
100000000,5942,5910,5910,5910,5990,5910,5910,5910,8260,5910,5910,5910,4724081,11820,5918
100000000,6292,6257,6257,6257,6343,6257,6257,6257,8625,6257,6257,6257,4878504,12514,6266
100000000,5848,5816,5816,5816,5900,5816,5816,5816,8362,5816,5816,5816,4767099,11632,5824
100000000,5812,5780,5780,5780,5860,5780,5780,5780,8193,5780,5780,5780,4755614,11560,5788
100000000,5812,5780,5780,5780,5860,5780,5780,5780,8124,5780,5780,5780,4755612,11560,5788
100000000,5813,5781,5781,5781,5861,5781,5781,5781,8125,5781,5781,5781,4755614,11562,5789
100000000,5844,5807,5807,5807,5897,5807,5807,5807,8280,5807,5807,5807,4749277,11614,5816
100000000,5942,5910,5910,5910,5990,5910,5910,5910,8416,5910,5910,5910,4724080,11820,5918
100000000,6062,6027,6027,6027,6113,6027,6027,6027,8395,6027,6027,6027,4775785,12054,6036
100000000,6123,6091,6091,6091,6175,6091,6091,6091,8571,6091,6091,6091,4858971,12182,6099
100000000,5812,5780,5780,5780,5860,5780,5780,5780,8259,5780,5780,5780,4755611,11560,5788
100000000,5812,5780,5780,5780,5860,5780,5780,5780,8124,5780,5780,5780,4755614,11560,5788
100000000,5813,5781,5781,5781,5861,5781,5781,5781,8125,5781,5781,5781,4755613,11562,5789
100000000,5812,5780,5780,5780,5860,5780,5780,5780,8124,5780,5780,5780,4755613,11560,5788
100000000,5929,5892,5892,5892,5982,5892,5892,5892,8527,5892,5892,5892,4728593,11784,5901
100000000,5942,5910,5910,5910,5990,5910,5910,5910,8254,5910,5910,5910,4724081,11820,5918
100000000,6287,6252,6252,6252,6342,6252,6252,6252,8688,6252,6252,6252,4899826,12504,6261
100000000,5813,5781,5781,5781,5861,5781,5781,5781,8319,5781,5781,5781,4755613,11562,5789
100000000,5812,5780,5780,5780,5860,5780,5780,5780,8133,5780,5780,5780,4755611,11560,5788
100000000,5812,5780,5780,5780,5860,5780,5780,5780,8124,5780,5780,5780,4755614,11560,5788
100000000,5813,5781,5781,5781,5861,5781,5781,5781,8125,5781,5781,5781,4755613,11562,5789
100000000,5885,5848,5848,5848,5938,5848,5848,5848,8463,5848,5848,5848,4739443,11696,5857
100000000,5941,5909,5909,5909,5989,5909,5909,5909,8273,5909,5909,5909,4724080,11818,5917
100000000,6271,6236,6236,6236,6322,6236,6236,6236,8604,6236,6236,6236,4868891,12472,6245
100000000,5874,5842,5842,5842,5926,5842,5842,5842,8382,5842,5842,5842,4775698,11684,5850
100000000,5812,5780,5780,5780,5860,5780,5780,5780,8199,5780,5780,5780,4755614,11560,5788
100000000,5812,5780,5780,5780,5860,5780,5780,5780,8124,5780,5780,5780,4755611,11560,5788
100000000,5813,5781,5781,5781,5861,5781,5781,5781,8125,5781,5781,5781,4755613,11562,5789
100000000,5840,5803,5803,5803,5893,5803,5803,5803,8262,5803,5803,5803,4750293,11606,5812
100000000,5942,5910,5910,5910,5990,5910,5910,5910,8430,5910,5910,5910,4724081,11820,5918
100000000,6040,6005,6005,6005,6091,6005,6005,6005,8373,6005,6005,6005,4766172,12010,6014
100000000,6148,6116,6116,6116,6200,6116,6116,6116,8588,6116,6116,6116,4867567,12232,6124
100000000,5813,5781,5781,5781,5861,5781,5781,5781,8268,5781,5781,5781,4755613,11562,5789
100000000,5812,5780,5780,5780,5860,5780,5780,5780,8124,5780,5780,5780,4755614,11560,5788
100000000,5812,5780,5780,5780,5860,5780,5780,5780,8124,5780,5780,5780,4755611,11560,5788
100000000,5813,5781,5781,5781,5861,5781,5781,5781,8125,5781,5781,5781,4755613,11562,5789
100000000,5925,5888,5888,5888,5978,5888,5888,5888,8523,5888,5888,5888,4729610,11776,5897
100000000,5942,5910,5910,5910,5990,5910,5910,5910,8254,5910,5910,5910,4724081,11820,5918
100000000,6291,6256,6256,6256,6346,6256,6256,6256,8686,6256,6256,6256,4898808,12512,6265
100000000,5813,5781,5781,5781,5861,5781,5781,5781,8319,5781,5781,5781,4755614,11562,5789
100000000,5812,5780,5780,5780,5860,5780,5780,5780,8139,5780,5780,5780,4755613,11560,5788
100000000,5812,5780,5780,5780,5860,5780,5780,5780,8124,5780,5780,5780,4755614,11560,5788
100000000,5813,5781,5781,5781,5861,5781,5781,5781,8125,5781,5781,5781,4755613,11562,5789
100000000,5880,5843,5843,5843,5933,5843,5843,5843,8442,5843,5843,5843,4740457,11686,5852
100000000,5942,5910,5910,5910,5990,5910,5910,5910,8290,5910,5910,5910,4724081,11820,5918
100000000,6249,6214,6214,6214,6300,6214,6214,6214,8582,6214,6214,6214,4859278,12428,6223
100000000,5899,5867,5867,5867,5951,5867,5867,5867,8399,5867,5867,5867,4784294,11734,5875
100000000,5813,5781,5781,5781,5861,5781,5781,5781,8208,5781,5781,5781,4755613,11562,5789
100000000,5812,5780,5780,5780,5860,5780,5780,5780,8124,5780,5780,5780,4755614,11560,5788
100000000,5812,5780,5780,5780,5860,5780,5780,5780,8124,5780,5780,5780,4755614,11560,5788
100000000,5837,5800,5800,5800,5890,5800,5800,5800,8245,5800,5800,5800,4751307,11600,5809
100000000,5941,5909,5909,5909,5989,5909,5909,5909,8443,5909,5909,5909,4724080,11818,5917
100000000,6019,5984,5984,5984,6070,5984,5984,5984,8352,5984,5984,5984,4756560,11968,5993
100000000,6174,6142,6142,6142,6226,6142,6142,6142,8608,6142,6142,6142,4876165,12284,6150
100000000,5813,5781,5781,5781,5861,5781,5781,5781,8274,5781,5781,5781,4755613,11562,5789
100000000,5812,5780,5780,5780,5860,5780,5780,5780,8124,5780,5780,5780,4755611,11560,5788
100000000,5812,5780,5780,5780,5860,5780,5780,5780,8124,5780,5780,5780,4755614,11560,5788
100000000,5813,5781,5781,5781,5861,5781,5781,5781,8125,5781,5781,5781,4755613,11562,5789
100000000,5921,5884,5884,5884,5974,5884,5884,5884,8519,5884,5884,5884,4730625,11768,5893
100000000,5941,5909,5909,5909,5989,5909,5909,5909,8253,5909,5909,5909,4724080,11818,5917
100000000,6296,6261,6261,6261,6351,6261,6261,6261,8685,6261,6261,6261,4897794,12522,6270
100000000,5813,5781,5781,5781,5861,5781,5781,5781,8319,5781,5781,5781,4755613,11562,5789
100000000,5812,5780,5780,5780,5860,5780,5780,5780,8145,5780,5780,5780,4755614,11560,5788
100000000,5812,5780,5780,5780,5860,5780,5780,5780,8124,5780,5780,5780,4755611,11560,5788
100000000,5813,5781,5781,5781,5861,5781,5781,5781,8125,5781,5781,5781,4755614,11562,5789
100000000,5876,5839,5839,5839,5929,5839,5839,5839,8424,5839,5839,5839,4741474,11678,5848
100000000,5942,5910,5910,5910,5990,5910,5910,5910,8304,5910,5910,5910,4724081,11820,5918
100000000,6227,6192,6192,6192,6278,6192,6192,6192,8560,6192,6192,6192,4849665,12384,6201
100000000,5925,5893,5893,5893,5977,5893,5893,5893,8419,5893,5893,5893,4792892,11786,5901
100000000,5813,5781,5781,5781,5861,5781,5781,5781,8214,5781,5781,5781,4755613,11562,5789
100000000,5812,5780,5780,5780,5860,5780,5780,5780,8124,5780,5780,5780,4755614,11560,5788
100000000,5812,5780,5780,5780,5860,5780,5780,5780,8124,5780,5780,5780,4755611,11560,5788
100000000,5832,5795,5795,5795,5885,5795,5795,5795,8224,5795,5795,5795,4752324,11590,5804
100000000,5942,5910,5910,5910,5990,5910,5910,5910,8460,5910,5910,5910,4724081,11820,5918
100000000,5997,5962,5962,5962,6048,5962,5962,5962,8330,5962,5962,5962,4746946,11924,5971
100000000,6200,6168,6168,6168,6252,6168,6168,6168,8628,6168,6168,6168,4884764,12336,6176
100000000,5813,5781,5781,5781,5861,5781,5781,5781,8280,5781,5781,5781,4755613,11562,5789
100000000,5812,5780,5780,5780,5860,5780,5780,5780,8124,5780,5780,5780,4755611,11560,5788
100000000,5812,5780,5780,5780,5860,5780,5780,5780,8124,5780,5780,5780,4755614,11560,5788
100000000,5813,5781,5781,5781,5861,5781,5781,5781,8125,5781,5781,5781,4755613,11562,5789
100000000,5916,5879,5879,5879,5969,5879,5879,5879,8514,5879,5879,5879,4731639,11758,5888
100000000,5942,5910,5910,5910,5990,5910,5910,5910,8254,5910,5910,5910,4724081,11820,5918
100000000,6300,6265,6265,6265,6355,6265,6265,6265,8683,6265,6265,6265,4896779,12530,6274
100000000,5812,5780,5780,5780,5860,5780,5780,5780,8316,5780,5780,5780,4755613,11560,5788
100000000,5813,5781,5781,5781,5861,5781,5781,5781,8154,5781,5781,5781,4755614,11562,5789
100000000,5812,5780,5780,5780,5860,5780,5780,5780,8124,5780,5780,5780,4755611,11560,5788
100000000,5812,5780,5780,5780,5860,5780,5780,5780,8124,5780,5780,5780,4755614,11560,5788
100000000,5873,5836,5836,5836,5926,5836,5836,5836,8407,5836,5836,5836,4742489,11672,5845
100000000,5941,5909,5909,5909,5989,5909,5909,5909,8317,5909,5909,5909,4724080,11818,5917
100000000,6207,6172,6172,6172,6258,6172,6172,6172,8540,6172,6172,6172,4840054,12344,6181
100000000,5950,5918,5918,5918,6002,5918,5918,5918,8438,5918,5918,5918,4801489,11836,5926
100000000,5813,5781,5781,5781,5861,5781,5781,5781,8220,5781,5781,5781,4755613,11562,5789
100000000,5812,5780,5780,5780,5860,5780,5780,5780,8124,5780,5780,5780,4755614,11560,5788
100000000,5812,5780,5780,5780,5860,5780,5780,5780,8124,5780,5780,5780,4755611,11560,5788
100000000,5828,5791,5791,5791,5881,5791,5791,5791,8206,5791,5791,5791,4753339,11582,5800
100000000,5942,5910,5910,5910,5990,5910,5910,5910,8474,5910,5910,5910,4724081,11820,5918
100000000,5975,5940,5940,5940,6026,5940,5940,5940,8308,5940,5940,5940,4737333,11880,5949
100000000,6226,6194,6194,6194,6278,6194,6194,6194,8648,6194,6194,6194,4893359,12388,6202
100000000,5812,5780,5780,5780,5860,5780,5780,5780,8285,5780,5780,5780,4755614,11560,5788
100000000,5813,5781,5781,5781,5861,5781,5781,5781,8125,5781,5781,5781,4755613,11562,5789
100000000,5812,5780,5780,5780,5860,5780,5780,5780,8124,5780,5780,5780,4755614,11560,5788
100000000,5812,5780,5780,5780,5860,5780,5780,5780,8124,5780,5780,5780,4755611,11560,5788
100000000,5913,5876,5876,5876,5966,5876,5876,5876,8511,5876,5876,5876,4732656,11752,5885
100000000,5942,5910,5910,5910,5990,5910,5910,5910,8254,5910,5910,5910,4724081,11820,5918
100000000,6304,6269,6269,6269,6359,6269,6269,6269,8681,6269,6269,6269,4895764,12538,6278
100000000,5812,5780,5780,5780,5860,5780,5780,5780,8316,5780,5780,5780,4755611,11560,5788
100000000,5813,5781,5781,5781,5861,5781,5781,5781,8160,5781,5781,5781,4755613,11562,5789
100000000,5812,5780,5780,5780,5860,5780,5780,5780,8124,5780,5780,5780,4755614,11560,5788
100000000,5812,5780,5780,5780,5860,5780,5780,5780,8124,5780,5780,5780,4755614,11560,5788
100000000,5869,5832,5832,5832,5922,5832,5832,5832,8389,5832,5832,5832,4743504,11664,5841
100000000,5941,5909,5909,5909,5989,5909,5909,5909,8331,5909,5909,5909,4724080,11818,5917
100000000,6185,6150,6150,6150,6236,6150,6150,6150,8518,6150,6150,6150,4830440,12300,6159
100000000,5976,5944,5944,5944,6028,5944,5944,5944,8458,5944,5944,5944,4810088,11888,5952
100000000,5813,5781,5781,5781,5861,5781,5781,5781,8226,5781,5781,5781,4755613,11562,5789
100000000,5812,5780,5780,5780,5860,5780,5780,5780,8124,5780,5780,5780,4755611,11560,5788
100000000,5812,5780,5780,5780,5860,5780,5780,5780,8124,5780,5780,5780,4755614,11560,5788
100000000,5824,5787,5787,5787,5877,5787,5787,5787,8188,5787,5787,5787,4754354,11574,5796
100000000,5942,5910,5910,5910,5990,5910,5910,5910,8488,5910,5910,5910,4724081,11820,5918
100000000,5953,5918,5918,5918,6004,5918,5918,5918,8286,5918,5918,5918,4727720,11836,5927
100000000,6252,6220,6220,6220,6304,6220,6220,6220,8668,6220,6220,6220,4901957,12440,6228
100000000,5812,5780,5780,5780,5860,5780,5780,5780,8291,5780,5780,5780,4755614,11560,5788
100000000,5813,5781,5781,5781,5861,5781,5781,5781,8125,5781,5781,5781,4755613,11562,5789
100000000,5812,5780,5780,5780,5860,5780,5780,5780,8124,5780,5780,5780,4755611,11560,5788
100000000,5812,5780,5780,5780,5860,5780,5780,5780,8124,5780,5780,5780,4755614,11560,5788
100000000,5909,5872,5872,5872,5962,5872,5872,5872,8507,5872,5872,5872,4733671,11744,5881
100000000,5942,5910,5910,5910,5990,5910,5910,5910,8254,5910,5910,5910,4724080,11820,5918
100000000,6308,6273,6273,6273,6363,6273,6273,6273,8679,6273,6273,6273,4894749,12546,6282
100000000,5812,5780,5780,5780,5860,5780,5780,5780,8316,5780,5780,5780,4755612,11560,5788
100000000,5813,5781,5781,5781,5861,5781,5781,5781,8166,5781,5781,5781,4755613,11562,5789
100000000,5812,5780,5780,5780,5860,5780,5780,5780,8124,5780,5780,5780,4755614,11560,5788
100000000,5812,5780,5780,5780,5860,5780,5780,5780,8124,5780,5780,5780,4755611,11560,5788
100000000,5864,5827,5827,5827,5917,5827,5827,5827,8368,5827,5827,5827,4744521,11654,5836
100000000,5942,5910,5910,5910,5990,5910,5910,5910,8348,5910,5910,5910,4724080,11820,5918
100000000,6163,6128,6128,6128,6214,6128,6128,6128,8496,6128,6128,6128,4820828,12256,6137
100000000,6002,5970,5970,5970,6054,5970,5970,5970,8478,5970,5970,5970,4818685,11940,5978
100000000,5812,5780,5780,5780,5860,5780,5780,5780,8231,5780,5780,5780,4755612,11560,5788
100000000,5813,5781,5781,5781,5861,5781,5781,5781,8125,5781,5781,5781,4755613,11562,5789
100000000,5812,5780,5780,5780,5860,5780,5780,5780,8124,5780,5780,5780,4755614,11560,5788
100000000,5820,5783,5783,5783,5873,5783,5783,5783,8170,5783,5783,5783,4755369,11566,5792
100000000,5941,5909,5909,5909,5989,5909,5909,5909,8501,5909,5909,5909,4724079,11818,5917
100000000,5942,5910,5910,5910,5990,5910,5910,5910,8254,5910,5910,5910,4724081,11820,5918
100000000,6268,6233,6233,6233,6323,6233,6233,6233,8699,6233,6233,6233,4904583,12466,6242
100000000,5812,5780,5780,5780,5860,5780,5780,5780,8297,5780,5780,5780,4755613,11560,5788
100000000,5813,5781,5781,5781,5861,5781,5781,5781,8125,5781,5781,5781,4755613,11562,5789
100000000,5812,5780,5780,5780,5860,5780,5780,5780,8124,5780,5780,5780,4755612,11560,5788
100000000,5812,5780,5780,5780,5860,5780,5780,5780,8124,5780,5780,5780,4755614,11560,5788
100000000,5905,5868,5868,5868,5958,5868,5868,5868,8503,5868,5868,5868,4734685,11736,5877
100000000,5941,5909,5909,5909,5989,5909,5909,5909,8253,5909,5909,5909,4724080,11818,5917
100000000,6313,6278,6278,6278,6368,6278,6278,6278,8678,6278,6278,6278,4893733,12556,6287
100000000,5812,5780,5780,5780,5860,5780,5780,5780,8316,5780,5780,5780,4755614,11560,5788
100000000,5812,5780,5780,5780,5860,5780,5780,5780,8171,5780,5780,5780,4755612,11560,5788
100000000,5813,5781,5781,5781,5861,5781,5781,5781,8125,5781,5781,5781,4755614,11562,5789
100000000,5812,5780,5780,5780,5860,5780,5780,5780,8124,5780,5780,5780,4755612,11560,5788
100000000,5860,5823,5823,5823,5913,5823,5823,5823,8350,5823,5823,5823,4745536,11646,5832
100000000,5942,5910,5910,5910,5990,5910,5910,5910,8362,5910,5910,5910,4724080,11820,5918
100000000,6141,6106,6106,6106,6192,6106,6106,6106,8474,6106,6106,6106,4811215,12212,6115
100000000,6028,5996,5996,5996,6080,5996,5996,5996,8498,5996,5996,5996,4827281,11992,6004
100000000,5812,5780,5780,5780,5860,5780,5780,5780,8237,5780,5780,5780,4755614,11560,5788
100000000,5813,5781,5781,5781,5861,5781,5781,5781,8125,5781,5781,5781,4755613,11562,5789
100000000,5812,5780,5780,5780,5860,5780,5780,5780,8124,5780,5780,5780,4755613,11560,5788
100000000,5812,5780,5780,5780,5860,5780,5780,5780,8124,5780,5780,5780,4755612,11560,5788
100000000,5945,5908,5908,5908,5998,5908,5908,5908,8543,5908,5908,5908,4724852,11816,5917
100000000,5942,5910,5910,5910,5990,5910,5910,5910,8254,5910,5910,5910,4724081,11820,5918
100000000,6272,6237,6237,6237,6327,6237,6237,6237,8697,6237,6237,6237,4903568,12474,6246
100000000,5812,5780,5780,5780,5860,5780,5780,5780,8303,5780,5780,5780,4755611,11560,5788
100000000,5813,5781,5781,5781,5861,5781,5781,5781,8125,5781,5781,5781,4755616,11561,5789
100000000,5812,5780,5780,5780,5860,5780,5780,5780,8124,5780,5780,5780,4755611,11561,5788
100000000,5812,5780,5780,5780,5860,5780,5780,5780,8124,5780,5780,5780,4755613,11560,5788
100000000,5900,5863,5863,5863,5953,5863,5863,5863,8498,5863,5863,5863,4735700,11726,5872
100000000,5942,5910,5910,5910,5990,5910,5910,5910,8254,5910,5910,5910,4724081,11820,5918
100000000,6317,6282,6282,6282,6372,6282,6282,6282,8676,6282,6282,6282,4892718,12564,6291
100000000,5812,5780,5780,5780,5860,5780,5780,5780,8316,5780,5780,5780,4755614,11560,5788
100000000,5812,5780,5780,5780,5860,5780,5780,5780,8177,5780,5780,5780,4755611,11560,5788
100000000,5813,5781,5781,5781,5861,5781,5781,5781,8125,5781,5781,5781,4755613,11562,5789
100000000,5812,5780,5780,5780,5860,5780,5780,5780,8124,5780,5780,5780,4755614,11560,5788
100000000,5856,5819,5819,5819,5909,5819,5819,5819,8332,5819,5819,5819,4746550,11638,5828
100000000,5941,5909,5909,5909,5989,5909,5909,5909,8375,5909,5909,5909,4724080,11818,5917
100000000,6120,6085,6085,6085,6171,6085,6085,6085,8453,6085,6085,6085,4801603,12170,6094
100000000,6054,6022,6022,6022,6106,6022,6022,6022,8518,6022,6022,6022,4835879,12044,6030
100000000,5812,5780,5780,5780,5860,5780,5780,5780,8243,5780,5780,5780,4755614,11560,5788
100000000,5813,5781,5781,5781,5861,5781,5781,5781,8125,5781,5781,5781,4755613,11562,5789
100000000,5812,5780,5780,5780,5860,5780,5780,5780,8124,5780,5780,5780,4755611,11560,5788
100000000,5812,5780,5780,5780,5860,5780,5780,5780,8124,5780,5780,5780,4755614,11560,5788
100000000,5941,5904,5904,5904,5994,5904,5904,5904,8539,5904,5904,5904,4725867,11808,5913
100000000,5941,5909,5909,5909,5989,5909,5909,5909,8253,5909,5909,5909,4724080,11818,5917
100000000,6277,6242,6242,6242,6332,6242,6242,6242,8696,6242,6242,6242,4902552,12484,6251
100000000,5812,5780,5780,5780,5860,5780,5780,5780,8309,5780,5780,5780,4755613,11560,5788
100000000,5812,5780,5780,5780,5860,5780,5780,5780,8124,5780,5780,5780,4755614,11560,5788
100000000,5813,5781,5781,5781,5861,5781,5781,5781,8125,5781,5781,5781,4755613,11562,5789
100000000,5812,5780,5780,5780,5860,5780,5780,5780,8124,5780,5780,5780,4755611,11560,5788
100000000,5896,5859,5859,5859,5949,5859,5859,5859,8494,5859,5859,5859,4736717,11718,5868
100000000,5942,5910,5910,5910,5990,5910,5910,5910,8254,5910,5910,5910,4724081,11820,5918
100000000,6321,6286,6286,6286,6376,6286,6286,6286,8674,6286,6286,6286,4891703,12572,6295
100000000,5812,5780,5780,5780,5860,5780,5780,5780,8316,5780,5780,5780,4755611,11560,5788
100000000,5812,5780,5780,5780,5860,5780,5780,5780,8183,5780,5780,5780,4755614,11560,5788
100000000,5813,5781,5781,5781,5861,5781,5781,5781,8125,5781,5781,5781,4755613,11562,5789
100000000,5812,5780,5780,5780,5860,5780,5780,5780,8124,5780,5780,5780,4755614,11560,5788
100000000,5851,5814,5814,5814,5904,5814,5814,5814,8311,5814,5814,5814,4747564,11628,5823
100000000,5942,5910,5910,5910,5990,5910,5910,5910,8392,5910,5910,5910,4724081,11820,5918
100000000,6098,6063,6063,6063,6149,6063,6063,6063,8431,6063,6063,6063,4791989,12126,6072
100000000,6080,6048,6048,6048,6132,6048,6048,6048,8538,6048,6048,6048,4844478,12096,6056
100000000,5812,5780,5780,5780,5860,5780,5780,5780,8249,5780,5780,5780,4755611,11560,5788
100000000,5812,5780,5780,5780,5860,5780,5780,5780,8124,5780,5780,5780,4755614,11560,5788
100000000,5813,5781,5781,5781,5861,5781,5781,5781,8125,5781,5781,5781,4755613,11562,5789
100000000,5812,5780,5780,5780,5860,5780,5780,5780,8124,5780,5780,5780,4755614,11560,5788
100000000,5936,5899,5899,5899,5989,5899,5899,5899,8534,5899,5899,5899,4726881,11798,5908
100000000,5942,5910,5910,5910,5990,5910,5910,5910,8254,5910,5910,5910,4724081,11820,5918
100000000,6281,6246,6246,6246,6336,6246,6246,6246,8694,6246,6246,6246,4901536,12492,6255
100000000,5812,5780,5780,5780,5860,5780,5780,5780,8315,5780,5780,5780,4755614,11560,5788
100000000,5812,5780,5780,5780,5860,5780,5780,5780,8124,5780,5780,5780,4755611,11560,5788
100000000,5813,5781,5781,5781,5861,5781,5781,5781,8125,5781,5781,5781,4755614,11562,5789
100000000,5812,5780,5780,5780,5860,5780,5780,5780,8124,5780,5780,5780,4755613,11560,5788
100000000,5892,5855,5855,5855,5945,5855,5855,5855,8490,5855,5855,5855,4737732,11710,5864
100000000,5942,5910,5910,5910,5990,5910,5910,5910,8254,5910,5910,5910,4724081,11820,5918
100000000,6307,6272,6272,6272,6358,6272,6272,6272,8640,6272,6272,6272,4885096,12544,6281
100000000,5830,5798,5798,5798,5882,5798,5798,5798,8348,5798,5798,5798,4761203,11596,5806
100000000,5812,5780,5780,5780,5860,5780,5780,5780,8189,5780,5780,5780,4755614,11560,5788
100000000,5812,5780,5780,5780,5860,5780,5780,5780,8124,5780,5780,5780,4755611,11560,5788
100000000,5813,5781,5781,5781,5861,5781,5781,5781,8125,5781,5781,5781,4755614,11562,5789
100000000,5847,5810,5810,5810,5900,5810,5810,5810,8293,5810,5810,5810,4748581,11620,5819
100000000,5942,5910,5910,5910,5990,5910,5910,5910,8406,5910,5910,5910,4724081,11820,5918
100000000,6076,6041,6041,6041,6127,6041,6041,6041,8409,6041,6041,6041,4782376,12082,6050
100000000,6106,6074,6074,6074,6158,6074,6074,6074,8558,6074,6074,6074,4853076,12148,6082
100000000,5812,5780,5780,5780,5860,5780,5780,5780,8255,5780,5780,5780,4755611,11560,5788
100000000,5812,5780,5780,5780,5860,5780,5780,5780,8124,5780,5780,5780,4755614,11560,5788
100000000,5813,5781,5781,5781,5861,5781,5781,5781,8125,5781,5781,5781,4755613,11562,5789
100000000,5812,5780,5780,5780,5860,5780,5780,5780,8124,5780,5780,5780,4755611,11560,5788
100000000,5932,5895,5895,5895,5985,5895,5895,5895,8530,5895,5895,5895,4727899,11790,5904
100000000,5942,5910,5910,5910,5990,5910,5910,5910,8254,5910,5910,5910,4724081,11820,5918
100000000,6285,6250,6250,6250,6340,6250,6250,6250,8692,6250,6250,6250,4900521,12500,6259
100000000,5812,5780,5780,5780,5860,5780,5780,5780,8316,5780,5780,5780,4755614,11560,5788
100000000,5812,5780,5780,5780,5860,5780,5780,5780,8129,5780,5780,5780,4755611,11560,5788
100000000,5813,5781,5781,5781,5861,5781,5781,5781,8125,5781,5781,5781,4755613,11562,5789
100000000,5812,5780,5780,5780,5860,5780,5780,5780,8124,5780,5780,5780,4755614,11560,5788
100000000,5888,5851,5851,5851,5941,5851,5851,5851,8476,5851,5851,5851,4738747,11702,5860
100000000,5941,5909,5909,5909,5989,5909,5909,5909,8263,5909,5909,5909,4724080,11818,5917
100000000,6286,6251,6251,6251,6337,6251,6251,6251,8619,6251,6251,6251,4875483,12502,6260
100000000,5856,5824,5824,5824,5908,5824,5824,5824,8368,5824,5824,5824,4769802,11648,5832
100000000,5812,5780,5780,5780,5860,5780,5780,5780,8195,5780,5780,5780,4755614,11560,5788
100000000,5812,5780,5780,5780,5860,5780,5780,5780,8124,5780,5780,5780,4755611,11560,5788
100000000,5813,5781,5781,5781,5861,5781,5781,5781,8125,5781,5781,5781,4755613,11562,5789
100000000,5843,5806,5806,5806,5896,5806,5806,5806,8275,5806,5806,5806,4749597,11612,5815
100000000,5942,5910,5910,5910,5990,5910,5910,5910,8420,5910,5910,5910,4724081,11820,5918
100000000,6055,6020,6020,6020,6106,6020,6020,6020,8388,6020,6020,6020,4772764,12040,6029
100000000,6131,6099,6099,6099,6183,6099,6099,6099,8577,6099,6099,6099,4861670,12198,6107
100000000,5812,5780,5780,5780,5860,5780,5780,5780,8261,5780,5780,5780,4755614,11560,5788
100000000,5812,5780,5780,5780,5860,5780,5780,5780,8124,5780,5780,5780,4755614,11560,5788
100000000,5813,5781,5781,5781,5861,5781,5781,5781,8125,5781,5781,5781,4755613,11562,5789
100000000,5812,5780,5780,5780,5860,5780,5780,5780,8124,5780,5780,5780,4755611,11560,5788
100000000,5928,5891,5891,5891,5981,5891,5891,5891,8526,5891,5891,5891,4728914,11782,5900
100000000,5942,5910,5910,5910,5990,5910,5910,5910,8254,5910,5910,5910,4724081,11820,5918
100000000,6288,6253,6253,6253,6343,6253,6253,6253,8687,6253,6253,6253,4899504,12506,6262
100000000,5813,5781,5781,5781,5861,5781,5781,5781,8319,5781,5781,5781,4755613,11562,5789
100000000,5812,5780,5780,5780,5860,5780,5780,5780,8135,5780,5780,5780,4755614,11560,5788
100000000,5812,5780,5780,5780,5860,5780,5780,5780,8124,5780,5780,5780,4755614,11560,5788
100000000,5813,5781,5781,5781,5861,5781,5781,5781,8125,5781,5781,5781,4755613,11562,5789
100000000,5883,5846,5846,5846,5936,5846,5846,5846,8455,5846,5846,5846,4739761,11692,5855
100000000,5942,5910,5910,5910,5990,5910,5910,5910,8280,5910,5910,5910,4724081,11820,5918
100000000,6264,6229,6229,6229,6315,6229,6229,6229,8597,6229,6229,6229,4865870,12458,6238
100000000,5882,5850,5850,5850,5934,5850,5850,5850,8388,5850,5850,5850,4778400,11700,5858
100000000,5812,5780,5780,5780,5860,5780,5780,5780,8201,5780,5780,5780,4755611,11560,5788
100000000,5812,5780,5780,5780,5860,5780,5780,5780,8124,5780,5780,5780,4755614,11560,5788
100000000,5813,5781,5781,5781,5861,5781,5781,5781,8125,5781,5781,5781,4755613,11562,5789
100000000,5839,5802,5802,5802,5892,5802,5802,5802,8257,5802,5802,5802,4750612,11604,5811
100000000,5941,5909,5909,5909,5989,5909,5909,5909,8433,5909,5909,5909,4724080,11818,5917
100000000,6034,5999,5999,5999,6085,5999,5999,5999,8367,5999,5999,5999,4763151,11998,6008
100000000,6156,6124,6124,6124,6208,6124,6124,6124,8594,6124,6124,6124,4870270,12248,6132
100000000,5813,5781,5781,5781,5861,5781,5781,5781,8270,5781,5781,5781,4755613,11562,5789
100000000,5812,5780,5780,5780,5860,5780,5780,5780,8124,5780,5780,5780,4755611,11560,5788
100000000,5812,5780,5780,5780,5860,5780,5780,5780,8124,5780,5780,5780,4755614,11560,5788
100000000,5813,5781,5781,5781,5861,5781,5781,5781,8125,5781,5781,5781,4755613,11562,5789
100000000,5924,5887,5887,5887,5977,5887,5887,5887,8522,5887,5887,5887,4729929,11774,5896
100000000,5941,5909,5909,5909,5989,5909,5909,5909,8253,5909,5909,5909,4724079,11818,5917
100000000,6293,6258,6258,6258,6348,6258,6258,6258,8686,6258,6258,6258,4898491,12516,6267
100000000,5813,5781,5781,5781,5861,5781,5781,5781,8319,5781,5781,5781,4755613,11562,5789
100000000,5812,5780,5780,5780,5860,5780,5780,5780,8141,5780,5780,5780,4755614,11560,5788
100000000,5812,5780,5780,5780,5860,5780,5780,5780,8124,5780,5780,5780,4755611,11560,5788
100000000,5813,5781,5781,5781,5861,5781,5781,5781,8125,5781,5781,5781,4755613,11562,5789
100000000,5879,5842,5842,5842,5932,5842,5842,5842,8437,5842,5842,5842,4740779,11684,5851
100000000,5942,5910,5910,5910,5990,5910,5910,5910,8294,5910,5910,5910,4724080,11820,5918
100000000,6242,6207,6207,6207,6293,6207,6207,6207,8575,6207,6207,6207,4856258,12414,6216
100000000,5908,5876,5876,5876,5960,5876,5876,5876,8408,5876,5876,5876,4786998,11752,5884
100000000,5812,5780,5780,5780,5860,5780,5780,5780,8207,5780,5780,5780,4755611,11560,5788
100000000,5812,5780,5780,5780,5860,5780,5780,5780,8124,5780,5780,5780,4755614,11560,5788
100000000,5813,5781,5781,5781,5861,5781,5781,5781,8125,5781,5781,5781,4755613,11562,5789
100000000,5834,5797,5797,5797,5887,5797,5797,5797,8236,5797,5797,5797,4751626,11594,5806
100000000,5942,5910,5910,5910,5990,5910,5910,5910,8450,5910,5910,5910,4724080,11820,5918
100000000,6012,5977,5977,5977,6063,5977,5977,5977,8345,5977,5977,5977,4753539,11954,5986
100000000,6182,6150,6150,6150,6234,6150,6150,6150,8614,6150,6150,6150,4878867,12300,6158
100000000,5813,5781,5781,5781,5861,5781,5781,5781,8276,5781,5781,5781,4755613,11562,5789
100000000,5812,5780,5780,5780,5860,5780,5780,5780,8124,5780,5780,5780,4755612,11560,5788
100000000,5812,5780,5780,5780,5860,5780,5780,5780,8124,5780,5780,5780,4755614,11560,5788
100000000,5813,5781,5781,5781,5861,5781,5781,5781,8125,5781,5781,5781,4755613,11562,5789
100000000,5919,5882,5882,5882,5972,5882,5882,5882,8517,5882,5882,5882,4730942,11764,5891
100000000,5942,5910,5910,5910,5990,5910,5910,5910,8254,5910,5910,5910,4724081,11820,5918
100000000,6297,6262,6262,6262,6352,6262,6262,6262,8684,6262,6262,6262,4897476,12524,6271
100000000,5813,5781,5781,5781,5861,5781,5781,5781,8319,5781,5781,5781,4755613,11562,5789
100000000,5812,5780,5780,5780,5860,5780,5780,5780,8147,5780,5780,5780,4755613,11560,5788
100000000,5812,5780,5780,5780,5860,5780,5780,5780,8124,5780,5780,5780,4755612,11560,5788
100000000,5813,5781,5781,5781,5861,5781,5781,5781,8125,5781,5781,5781,4755613,11562,5789
100000000,5875,5838,5838,5838,5928,5838,5838,5838,8419,5838,5838,5838,4741794,11676,5847
100000000,5941,5909,5909,5909,5989,5909,5909,5909,8307,5909,5909,5909,4724079,11818,5917
100000000,6221,6186,6186,6186,6272,6186,6186,6186,8554,6186,6186,6186,4846646,12372,6195
100000000,5933,5901,5901,5901,5985,5901,5901,5901,8425,5901,5901,5901,4795594,11802,5909
100000000,5813,5781,5781,5781,5861,5781,5781,5781,8216,5781,5781,5781,4755613,11562,5789
100000000,5812,5780,5780,5780,5860,5780,5780,5780,8124,5780,5780,5780,4755613,11560,5788
100000000,5812,5780,5780,5780,5860,5780,5780,5780,8124,5780,5780,5780,4755612,11560,5788
100000000,5831,5794,5794,5794,5884,5794,5794,5794,8219,5794,5794,5794,4752643,11588,5803
100000000,5942,5910,5910,5910,5990,5910,5910,5910,8464,5910,5910,5910,4724080,11820,5918
100000000,5990,5955,5955,5955,6041,5955,5955,5955,8323,5955,5955,5955,4743926,11910,5964
100000000,6208,6176,6176,6176,6260,6176,6176,6176,8634,6176,6176,6176,4887463,12352,6184
100000000,5813,5781,5781,5781,5861,5781,5781,5781,8282,5781,5781,5781,4755613,11562,5789
100000000,5812,5780,5780,5780,5860,5780,5780,5780,8124,5780,5780,5780,4755614,11560,5788
100000000,5812,5780,5780,5780,5860,5780,5780,5780,8124,5780,5780,5780,4755613,11560,5788
100000000,5813,5781,5781,5781,5861,5781,5781,5781,8125,5781,5781,5781,4755614,11562,5789
100000000,5915,5878,5878,5878,5968,5878,5878,5878,8513,5878,5878,5878,4731957,11756,5887
100000000,5942,5910,5910,5910,5990,5910,5910,5910,8254,5910,5910,5910,4724081,11820,5918
100000000,6301,6266,6266,6266,6356,6266,6266,6266,8682,6266,6266,6266,4896461,12532,6275
100000000,5812,5780,5780,5780,5860,5780,5780,5780,8316,5780,5780,5780,4755611,11560,5788
100000000,5813,5781,5781,5781,5861,5781,5781,5781,8156,5781,5781,5781,4755613,11562,5789
100000000,5812,5780,5780,5780,5860,5780,5780,5780,8124,5780,5780,5780,4755614,11560,5788
100000000,5812,5780,5780,5780,5860,5780,5780,5780,8124,5780,5780,5780,4755613,11560,5788
100000000,5872,5835,5835,5835,5925,5835,5835,5835,8402,5835,5835,5835,4742808,11670,5844
100000000,5941,5909,5909,5909,5989,5909,5909,5909,8321,5909,5909,5909,4724080,11818,5917
100000000,6199,6164,6164,6164,6250,6164,6164,6164,8532,6164,6164,6164,4837032,12328,6173
100000000,5959,5927,5927,5927,6011,5927,5927,5927,8445,5927,5927,5927,4804193,11854,5935
100000000,5813,5781,5781,5781,5861,5781,5781,5781,8222,5781,5781,5781,4755613,11562,5789
100000000,5812,5780,5780,5780,5860,5780,5780,5780,8124,5780,5780,5780,4755611,11560,5788
100000000,5812,5780,5780,5780,5860,5780,5780,5780,8124,5780,5780,5780,4755614,11560,5788
100000000,5827,5790,5790,5790,5880,5790,5790,5790,8201,5790,5790,5790,4753657,11580,5799
100000000,5942,5910,5910,5910,5990,5910,5910,5910,8478,5910,5910,5910,4724081,11820,5918
100000000,5968,5933,5933,5933,6019,5933,5933,5933,8301,5933,5933,5933,4734313,11866,5942
100000000,6234,6202,6202,6202,6286,6202,6202,6202,8654,6202,6202,6202,4896061,12404,6210
100000000,5812,5780,5780,5780,5860,5780,5780,5780,8287,5780,5780,5780,4755614,11560,5788
100000000,5813,5781,5781,5781,5861,5781,5781,5781,8125,5781,5781,5781,4755613,11562,5789
100000000,5812,5780,5780,5780,5860,5780,5780,5780,8124,5780,5780,5780,4755611,11560,5788
100000000,5813,5781,5781,5781,5861,5781,5781,5781,8125,5781,5781,5781,4755613,11562,5789
100000000,5911,5874,5874,5874,5964,5874,5874,5874,8509,5874,5874,5874,4732975,11748,5883
100000000,5942,5910,5910,5910,5990,5910,5910,5910,8254,5910,5910,5910,4724081,11820,5918
100000000,6305,6270,6270,6270,6360,6270,6270,6270,8680,6270,6270,6270,4895443,12540,6279
100000000,5812,5780,5780,5780,5860,5780,5780,5780,8316,5780,5780,5780,4755614,11560,5788
100000000,5813,5781,5781,5781,5861,5781,5781,5781,8162,5781,5781,5781,4755613,11562,5789
100000000,5812,5780,5780,5780,5860,5780,5780,5780,8124,5780,5780,5780,4755614,11560,5788
100000000,5812,5780,5780,5780,5860,5780,5780,5780,8124,5780,5780,5780,4755611,11560,5788
100000000,5867,5830,5830,5830,5920,5830,5830,5830,8381,5830,5830,5830,4743824,11660,5839
100000000,5942,5910,5910,5910,5990,5910,5910,5910,8338,5910,5910,5910,4724081,11820,5918
100000000,6178,6143,6143,6143,6229,6143,6143,6143,8511,6143,6143,6143,4827420,12286,6152
100000000,5984,5952,5952,5952,6036,5952,5952,5952,8464,5952,5952,5952,4812787,11904,5960
100000000,5813,5781,5781,5781,5861,5781,5781,5781,8228,5781,5781,5781,4755615,11562,5789
100000000,5812,5780,5780,5780,5860,5780,5780,5780,8124,5780,5780,5780,4755612,11560,5788
100000000,5812,5780,5780,5780,5860,5780,5780,5780,8124,5780,5780,5780,4755614,11560,5788
100000000,5823,5786,5786,5786,5876,5786,5786,5786,8183,5786,5786,5786,4754672,11572,5795
100000000,5941,5909,5909,5909,5989,5909,5909,5909,8491,5909,5909,5909,4724080,11818,5917
100000000,5947,5912,5912,5912,5998,5912,5912,5912,8280,5912,5912,5912,4724700,11824,5921
100000000,6260,6228,6228,6228,6312,6228,6228,6228,8674,6228,6228,6228,4904660,12456,6236
100000000,5812,5780,5780,5780,5860,5780,5780,5780,8293,5780,5780,5780,4755611,11560,5788
100000000,5813,5781,5781,5781,5861,5781,5781,5781,8125,5781,5781,5781,4755614,11562,5789
100000000,5812,5780,5780,5780,5860,5780,5780,5780,8124,5780,5780,5780,4755613,11560,5788
100000000,5812,5780,5780,5780,5860,5780,5780,5780,8124,5780,5780,5780,4755614,11560,5788
100000000,5908,5871,5871,5871,5961,5871,5871,5871,8506,5871,5871,5871,4733989,11742,5880
100000000,5941,5909,5909,5909,5989,5909,5909,5909,8253,5909,5909,5909,4724080,11818,5917
100000000,6310,6275,6275,6275,6365,6275,6275,6275,8679,6275,6275,6275,4894429,12550,6284
100000000,5812,5780,5780,5780,5860,5780,5780,5780,8316,5780,5780,5780,4755614,11560,5788
100000000,5813,5781,5781,5781,5861,5781,5781,5781,8168,5781,5781,5781,4755613,11562,5789
100000000,5812,5780,5780,5780,5860,5780,5780,5780,8124,5780,5780,5780,4755612,11560,5788
100000000,5812,5780,5780,5780,5860,5780,5780,5780,8124,5780,5780,5780,4755613,11560,5788
100000000,5863,5826,5826,5826,5916,5826,5826,5826,8363,5826,5826,5826,4744839,11652,5835
100000000,5942,5910,5910,5910,5990,5910,5910,5910,8352,5910,5910,5910,4724081,11820,5918
100000000,6156,6121,6121,6121,6207,6121,6121,6121,8489,6121,6121,6121,4817807,12242,6130
100000000,6010,5978,5978,5978,6062,5978,5978,5978,8484,5978,5978,5978,4821385,11956,5986
100000000,5812,5780,5780,5780,5860,5780,5780,5780,8233,5780,5780,5780,4755614,11560,5788
100000000,5813,5781,5781,5781,5861,5781,5781,5781,8125,5781,5781,5781,4755613,11562,5789
100000000,5812,5780,5780,5780,5860,5780,5780,5780,8124,5780,5780,5780,4755611,11560,5788
100000000,5812,5780,5780,5780,5860,5780,5780,5780,8124,5780,5780,5780,4755614,11560,5788
100000000,5948,5911,5911,5911,6001,5911,5911,5911,8546,5911,5911,5911,4724156,11822,5920
100000000,5942,5910,5910,5910,5990,5910,5910,5910,8254,5910,5910,5910,4724081,11820,5918
100000000,6269,6234,6234,6234,6324,6234,6234,6234,8698,6234,6234,6234,4904264,12468,6243
100000000,5812,5780,5780,5780,5860,5780,5780,5780,8299,5780,5780,5780,4755611,11560,5788
100000000,5813,5781,5781,5781,5861,5781,5781,5781,8125,5781,5781,5781,4755613,11562,5789
100000000,5812,5780,5780,5780,5860,5780,5780,5780,8124,5780,5780,5780,4755614,11560,5788
100000000,5812,5780,5780,5780,5860,5780,5780,5780,8124,5780,5780,5780,4755611,11560,5788
100000000,5903,5866,5866,5866,5956,5866,5866,5866,8501,5866,5866,5866,4735006,11732,5875
100000000,5942,5910,5910,5910,5990,5910,5910,5910,8254,5910,5910,5910,4724081,11820,5918
100000000,6314,6279,6279,6279,6369,6279,6279,6279,8677,6279,6279,6279,4893414,12558,6288
100000000,5812,5780,5780,5780,5860,5780,5780,5780,8316,5780,5780,5780,4755614,11560,5788
100000000,5812,5780,5780,5780,5860,5780,5780,5780,8173,5780,5780,5780,4755611,11560,5788
100000000,5813,5781,5781,5781,5861,5781,5781,5781,8125,5781,5781,5781,4755613,11562,5789
100000000,5812,5780,5780,5780,5860,5780,5780,5780,8124,5780,5780,5780,4755614,11560,5788
100000000,5859,5822,5822,5822,5912,5822,5822,5822,8345,5822,5822,5822,4745854,11644,5831
100000000,5941,5909,5909,5909,5989,5909,5909,5909,8365,5909,5909,5909,4724080,11818,5917
100000000,6135,6100,6100,6100,6186,6100,6100,6100,8468,6100,6100,6100,4808194,12200,6109
100000000,6036,6004,6004,6004,6088,6004,6004,6004,8504,6004,6004,6004,4829984,12008,6012
100000000,5812,5780,5780,5780,5860,5780,5780,5780,8239,5780,5780,5780,4755614,11560,5788
100000000,5813,5781,5781,5781,5861,5781,5781,5781,8125,5781,5781,5781,4755613,11562,5789
100000000,5812,5780,5780,5780,5860,5780,5780,5780,8124,5780,5780,5780,4755611,11560,5788
100000000,5812,5780,5780,5780,5860,5780,5780,5780,8124,5780,5780,5780,4755614,11560,5788
100000000,5944,5907,5907,5907,5997,5907,5907,5907,8542,5907,5907,5907,4725171,11814,5916
100000000,5941,5909,5909,5909,5989,5909,5909,5909,8253,5909,5909,5909,4724080,11818,5917
100000000,6274,6239,6239,6239,6329,6239,6239,6239,8697,6239,6239,6239,4903247,12478,6248
100000000,5812,5780,5780,5780,5860,5780,5780,5780,8305,5780,5780,5780,4755614,11560,5788
100000000,5813,5781,5781,5781,5861,5781,5781,5781,8125,5781,5781,5781,4755613,11562,5789
100000000,5812,5780,5780,5780,5860,5780,5780,5780,8124,5780,5780,5780,4755614,11560,5788
100000000,5812,5780,5780,5780,5860,5780,5780,5780,8124,5780,5780,5780,4755611,11560,5788
100000000,5899,5862,5862,5862,5952,5862,5862,5862,8497,5862,5862,5862,4736021,11724,5871
100000000,5942,5910,5910,5910,5990,5910,5910,5910,8254,5910,5910,5910,4724081,11820,5918
100000000,6318,6283,6283,6283,6373,6283,6283,6283,8675,6283,6283,6283,4892399,12566,6292
100000000,5812,5780,5780,5780,5860,5780,5780,5780,8316,5780,5780,5780,4755611,11560,5788
100000000,5812,5780,5780,5780,5860,5780,5780,5780,8179,5780,5780,5780,4755614,11560,5788
100000000,5813,5781,5781,5781,5861,5781,5781,5781,8125,5781,5781,5781,4755613,11562,5789
100000000,5812,5780,5780,5780,5860,5780,5780,5780,8124,5780,5780,5780,4755614,11560,5788
100000000,5854,5817,5817,5817,5907,5817,5817,5817,8324,5817,5817,5817,4746868,11634,5826
100000000,5942,5910,5910,5910,5990,5910,5910,5910,8382,5910,5910,5910,4724081,11820,5918
100000000,6113,6078,6078,6078,6164,6078,6078,6078,8446,6078,6078,6078,4798581,12156,6087
100000000,6062,6030,6030,6030,6114,6030,6030,6030,8524,6030,6030,6030,4838582,12060,6038
100000000,5812,5780,5780,5780,5860,5780,5780,5780,8245,5780,5780,5780,4755611,11560,5788
100000000,5813,5781,5781,5781,5861,5781,5781,5781,8125,5781,5781,5781,4755613,11562,5789
100000000,5812,5780,5780,5780,5860,5780,5780,5780,8124,5780,5780,5780,4755614,11560,5788
100000000,5812,5780,5780,5780,5860,5780,5780,5780,8124,5780,5780,5780,4755614,11560,5788
100000000,5939,5902,5902,5902,5992,5902,5902,5902,8537,5902,5902,5902,4726185,11804,5911
100000000,5942,5910,5910,5910,5990,5910,5910,5910,8254,5910,5910,5910,4724080,11820,5918
100000000,6278,6243,6243,6243,6333,6243,6243,6243,8695,6243,6243,6243,4902233,12486,6252
100000000,5812,5780,5780,5780,5860,5780,5780,5780,8311,5780,5780,5780,4755614,11560,5788
100000000,5812,5780,5780,5780,5860,5780,5780,5780,8124,5780,5780,5780,4755611,11560,5788
100000000,5813,5781,5781,5781,5861,5781,5781,5781,8125,5781,5781,5781,4755613,11562,5789
100000000,5812,5780,5780,5780,5860,5780,5780,5780,8124,5780,5780,5780,4755614,11560,5788
100000000,5895,5858,5858,5858,5948,5858,5858,5858,8493,5858,5858,5858,4737036,11716,5867
100000000,5942,5910,5910,5910,5990,5910,5910,5910,8254,5910,5910,5910,4724080,11820,5918
100000000,6322,6287,6287,6287,6377,6287,6287,6287,8673,6287,6287,6287,4891385,12573,6296
100000000,5812,5780,5780,5780,5860,5780,5780,5780,8316,5780,5780,5780,4755611,11561,5788
100000000,5812,5780,5780,5780,5860,5780,5780,5780,8185,5780,5780,5780,4755614,11560,5788
100000000,5813,5781,5781,5781,5861,5781,5781,5781,8125,5781,5781,5781,4755613,11562,5789
100000000,5812,5780,5780,5780,5860,5780,5780,5780,8124,5780,5780,5780,4755611,11560,5788
100000000,5850,5813,5813,5813,5903,5813,5813,5813,8306,5813,5813,5813,4747886,11626,5822
100000000,5942,5910,5910,5910,5990,5910,5910,5910,8396,5910,5910,5910,4724080,11820,5918
100000000,6091,6056,6056,6056,6142,6056,6056,6056,8424,6056,6056,6056,4788969,12112,6065
100000000,6088,6056,6056,6056,6140,6056,6056,6056,8544,6056,6056,6056,4847179,12112,6064
100000000,5812,5780,5780,5780,5860,5780,5780,5780,8251,5780,5780,5780,4755612,11560,5788
100000000,5812,5780,5780,5780,5860,5780,5780,5780,8124,5780,5780,5780,4755614,11560,5788
100000000,5813,5781,5781,5781,5861,5781,5781,5781,8125,5781,5781,5781,4755613,11562,5789
100000000,5812,5780,5780,5780,5860,5780,5780,5780,8124,5780,5780,5780,4755611,11560,5788
100000000,5935,5898,5898,5898,5988,5898,5898,5898,8533,5898,5898,5898,4727202,11796,5907
100000000,5942,5910,5910,5910,5990,5910,5910,5910,8254,5910,5910,5910,4724081,11820,5918
100000000,6282,6247,6247,6247,6337,6247,6247,6247,8693,6247,6247,6247,4901218,12494,6256
100000000,5812,5780,5780,5780,5860,5780,5780,5780,8316,5780,5780,5780,4755613,11560,5788
100000000,5812,5780,5780,5780,5860,5780,5780,5780,8125,5780,5780,5780,4755612,11560,5788
100000000,5813,5781,5781,5781,5861,5781,5781,5781,8125,5781,5781,5781,4755613,11562,5789
100000000,5812,5780,5780,5780,5860,5780,5780,5780,8124,5780,5780,5780,4755614,11560,5788
100000000,5891,5854,5854,5854,5944,5854,5854,5854,8489,5854,5854,5854,4738051,11708,5863
100000000,5941,5909,5909,5909,5989,5909,5909,5909,8253,5909,5909,5909,4724079,11818,5917
100000000,6301,6266,6266,6266,6352,6266,6266,6266,8634,6266,6266,6266,4882076,12532,6275
100000000,5838,5806,5806,5806,5890,5806,5806,5806,8354,5806,5806,5806,4763906,11612,5814
100000000,5812,5780,5780,5780,5860,5780,5780,5780,8191,5780,5780,5780,4755613,11560,5788
100000000,5813,5781,5781,5781,5861,5781,5781,5781,8125,5781,5781,5781,4755614,11562,5789
100000000,5812,5780,5780,5780,5860,5780,5780,5780,8124,5780,5780,5780,4755611,11560,5788
100000000,5846,5809,5809,5809,5899,5809,5809,5809,8288,5809,5809,5809,4748901,11618,5818
100000000,5942,5910,5910,5910,5990,5910,5910,5910,8410,5910,5910,5910,4724080,11820,5918
100000000,6069,6034,6034,6034,6120,6034,6034,6034,8402,6034,6034,6034,4779356,12068,6043
100000000,6114,6082,6082,6082,6166,6082,6082,6082,8564,6082,6082,6082,4855775,12164,6090
100000000,5812,5780,5780,5780,5860,5780,5780,5780,8257,5780,5780,5780,4755614,11560,5788
100000000,5812,5780,5780,5780,5860,5780,5780,5780,8124,5780,5780,5780,4755613,11560,5788
100000000,5813,5781,5781,5781,5861,5781,5781,5781,8125,5781,5781,5781,4755614,11562,5789
100000000,5812,5780,5780,5780,5860,5780,5780,5780,8124,5780,5780,5780,4755611,11560,5788
100000000,5931,5894,5894,5894,5984,5894,5894,5894,8529,5894,5894,5894,4728217,11788,5903
100000000,5942,5910,5910,5910,5990,5910,5910,5910,8254,5910,5910,5910,4724081,11820,5918
100000000,6286,6251,6251,6251,6341,6251,6251,6251,8691,6251,6251,6251,4900203,12502,6260
100000000,5812,5780,5780,5780,5860,5780,5780,5780,8316,5780,5780,5780,4755611,11560,5788
100000000,5812,5780,5780,5780,5860,5780,5780,5780,8131,5780,5780,5780,4755614,11560,5788
100000000,5813,5781,5781,5781,5861,5781,5781,5781,8125,5781,5781,5781,4755613,11562,5789
100000000,5812,5780,5780,5780,5860,5780,5780,5780,8124,5780,5780,5780,4755613,11560,5788
100000000,5886,5849,5849,5849,5939,5849,5849,5849,8468,5849,5849,5849,4739065,11698,5858
100000000,5942,5910,5910,5910,5990,5910,5910,5910,8270,5910,5910,5910,4724081,11820,5918
100000000,6279,6244,6244,6244,6330,6244,6244,6244,8612,6244,6244,6244,4872463,12488,6253
100000000,5864,5832,5832,5832,5916,5832,5832,5832,8374,5832,5832,5832,4772504,11664,5840
100000000,5812,5780,5780,5780,5860,5780,5780,5780,8197,5780,5780,5780,4755611,11560,5788
100000000,5812,5780,5780,5780,5860,5780,5780,5780,8124,5780,5780,5780,4755614,11560,5788
100000000,5813,5781,5781,5781,5861,5781,5781,5781,8125,5781,5781,5781,4755613,11562,5789
100000000,5842,5805,5805,5805,5895,5805,5805,5805,8270,5805,5805,5805,4749915,11610,5814
100000000,5941,5909,5909,5909,5989,5909,5909,5909,8423,5909,5909,5909,4724080,11818,5917
100000000,6048,6013,6013,6013,6099,6013,6013,6013,8381,6013,6013,6013,4769743,12026,6022
100000000,6140,6108,6108,6108,6192,6108,6108,6108,8584,6108,6108,6108,4864374,12216,6116
100000000,5812,5780,5780,5780,5860,5780,5780,5780,8263,5780,5780,5780,4755614,11560,5788
100000000,5812,5780,5780,5780,5860,5780,5780,5780,8124,5780,5780,5780,4755611,11560,5788
100000000,5813,5781,5781,5781,5861,5781,5781,5781,8125,5781,5781,5781,4755613,11562,5789
100000000,5812,5780,5780,5780,5860,5780,5780,5780,8124,5780,5780,5780,4755614,11560,5788
100000000,5927,5890,5890,5890,5980,5890,5890,5890,8525,5890,5890,5890,4729232,11780,5899
100000000,5941,5909,5909,5909,5989,5909,5909,5909,8253,5909,5909,5909,4724080,11818,5917
100000000,6290,6255,6255,6255,6345,6255,6255,6255,8687,6255,6255,6255,4899187,12510,6264
100000000,5813,5781,5781,5781,5861,5781,5781,5781,8319,5781,5781,5781,4755613,11562,5789
100000000,5812,5780,5780,5780,5860,5780,5780,5780,8137,5780,5780,5780,4755614,11560,5788
100000000,5812,5780,5780,5780,5860,5780,5780,5780,8124,5780,5780,5780,4755611,11560,5788
100000000,5813,5781,5781,5781,5861,5781,5781,5781,8125,5781,5781,5781,4755613,11562,5789
100000000,5882,5845,5845,5845,5935,5845,5845,5845,8450,5845,5845,5845,4740082,11690,5854
100000000,5942,5910,5910,5910,5990,5910,5910,5910,8284,5910,5910,5910,4724081,11820,5918
100000000,6257,6222,6222,6222,6308,6222,6222,6222,8590,6222,6222,6222,4862850,12444,6231
100000000,5890,5858,5858,5858,5942,5858,5858,5858,8394,5858,5858,5858,4781101,11716,5866
100000000,5812,5780,5780,5780,5860,5780,5780,5780,8203,5780,5780,5780,4755612,11560,5788
100000000,5812,5780,5780,5780,5860,5780,5780,5780,8124,5780,5780,5780,4755614,11560,5788
100000000,5813,5781,5781,5781,5861,5781,5781,5781,8125,5781,5781,5781,4755613,11562,5789
100000000,5837,5800,5800,5800,5890,5800,5800,5800,8249,5800,5800,5800,4750929,11600,5809
100000000,5942,5910,5910,5910,5990,5910,5910,5910,8440,5910,5910,5910,4724081,11820,5918
100000000,6027,5992,5992,5992,6078,5992,5992,5992,8360,5992,5992,5992,4760131,11984,6001
100000000,6164,6132,6132,6132,6216,6132,6132,6132,8600,6132,6132,6132,4872969,12264,6140
100000000,5813,5781,5781,5781,5861,5781,5781,5781,8272,5781,5781,5781,4755614,11562,5789
100000000,5812,5780,5780,5780,5860,5780,5780,5780,8124,5780,5780,5780,4755613,11560,5788
100000000,5813,5781,5781,5781,5861,5781,5781,5781,8125,5781,5781,5781,4755614,11561,5789
100000000,5812,5780,5780,5780,5860,5780,5780,5780,8124,5780,5780,5780,4755613,11561,5788
100000000,5922,5885,5885,5885,5975,5885,5885,5885,8520,5885,5885,5885,4730246,11770,5894
100000000,5942,5910,5910,5910,5990,5910,5910,5910,8254,5910,5910,5910,4724081,11820,5918
100000000,6294,6259,6259,6259,6349,6259,6259,6259,8685,6259,6259,6259,4898172,12518,6268
100000000,5813,5781,5781,5781,5861,5781,5781,5781,8319,5781,5781,5781,4755613,11562,5789
100000000,5812,5780,5780,5780,5860,5780,5780,5780,8143,5780,5780,5780,4755612,11560,5788
100000000,5812,5780,5780,5780,5860,5780,5780,5780,8124,5780,5780,5780,4755613,11560,5788
100000000,5813,5781,5781,5781,5861,5781,5781,5781,8125,5781,5781,5781,4755613,11562,5789
100000000,5878,5841,5841,5841,5931,5841,5841,5841,8432,5841,5841,5841,4741097,11682,5850
100000000,5941,5909,5909,5909,5989,5909,5909,5909,8297,5909,5909,5909,4724080,11818,5917
100000000,6236,6201,6201,6201,6287,6201,6201,6201,8569,6201,6201,6201,4853237,12402,6210
100000000,5916,5884,5884,5884,5968,5884,5884,5884,8414,5884,5884,5884,4789698,11768,5892
100000000,5812,5780,5780,5780,5860,5780,5780,5780,8209,5780,5780,5780,4755614,11560,5788
100000000,5812,5780,5780,5780,5860,5780,5780,5780,8124,5780,5780,5780,4755611,11560,5788
100000000,5813,5781,5781,5781,5861,5781,5781,5781,8125,5781,5781,5781,4755615,11562,5789
100000000,5833,5796,5796,5796,5886,5796,5796,5796,8231,5796,5796,5796,4751945,11592,5805
100000000,5942,5910,5910,5910,5990,5910,5910,5910,8454,5910,5910,5910,4724081,11820,5918
100000000,6005,5970,5970,5970,6056,5970,5970,5970,8338,5970,5970,5970,4750518,11940,5979
100000000,6190,6158,6158,6158,6242,6158,6158,6158,8620,6158,6158,6158,4881567,12316,6166
100000000,5813,5781,5781,5781,5861,5781,5781,5781,8278,5781,5781,5781,4755613,11562,5789
100000000,5812,5780,5780,5780,5860,5780,5780,5780,8124,5780,5780,5780,4755614,11560,5788
100000000,5812,5780,5780,5780,5860,5780,5780,5780,8124,5780,5780,5780,4755611,11560,5788
100000000,5813,5781,5781,5781,5861,5781,5781,5781,8125,5781,5781,5781,4755615,11562,5789
100000000,5918,5881,5881,5881,5971,5881,5881,5881,8516,5881,5881,5881,4731262,11762,5890
100000000,5942,5910,5910,5910,5990,5910,5910,5910,8254,5910,5910,5910,4724081,11820,5918
100000000,6298,6263,6263,6263,6353,6263,6263,6263,8683,6263,6263,6263,4897157,12526,6272
100000000,5813,5781,5781,5781,5861,5781,5781,5781,8319,5781,5781,5781,4755613,11562,5789
100000000,5812,5780,5780,5780,5860,5780,5780,5780,8149,5780,5780,5780,4755611,11560,5788
100000000,5812,5780,5780,5780,5860,5780,5780,5780,8124,5780,5780,5780,4755614,11560,5788
100000000,5813,5781,5781,5781,5861,5781,5781,5781,8125,5781,5781,5781,4755613,11562,5789
100000000,5873,5836,5836,5836,5926,5836,5836,5836,8411,5836,5836,5836,4742111,11672,5845
100000000,5942,5910,5910,5910,5990,5910,5910,5910,8314,5910,5910,5910,4724081,11820,5918
100000000,6214,6179,6179,6179,6265,6179,6179,6179,8547,6179,6179,6179,4843624,12358,6188
100000000,5941,5909,5909,5909,5993,5909,5909,5909,8431,5909,5909,5909,4798297,11818,5917
100000000,5813,5781,5781,5781,5861,5781,5781,5781,8218,5781,5781,5781,4755613,11562,5789
100000000,5812,5780,5780,5780,5860,5780,5780,5780,8124,5780,5780,5780,4755611,11560,5788
100000000,5812,5780,5780,5780,5860,5780,5780,5780,8124,5780,5780,5780,4755614,11560,5788
100000000,5830,5793,5793,5793,5883,5793,5793,5793,8214,5793,5793,5793,4752961,11586,5802
100000000,5942,5910,5910,5910,5990,5910,5910,5910,8468,5910,5910,5910,4724081,11820,5918
100000000,5983,5948,5948,5948,6034,5948,5948,5948,8316,5948,5948,5948,4740905,11896,5957
72790310,4358,4334,4334,4334,4394,4334,4334,4334,6092,4334,4334,4334,3490232,8668,4340
