thread block size of kernel = 512 
Configuration used: boxes1d = 10
Time spent in different stages of GPU_CUDA KERNEL:
 2.691013097763 s, 91.213729858398 % : GPU: SET DEVICE / DRIVER INIT
 0.001689999946 s,  0.057283706963 % : GPU MEM: ALO
 0.003978000022 s,  0.134837031364 % : GPU MEM: COPY IN
 0.251215994358 s,  8.515138626099 % : GPU: KERNEL
 0.001134000020 s,  0.038437709212 % : GPU MEM: COPY OUT
 0.001197000034 s,  0.040573135018 % : GPU MEM: FRE
Total time:
2.950227975845 s
