Default settings results:

thread block size of kernel = 128 
Configuration used: boxes1d = 10
Time spent in different stages of GPU_CUDA KERNEL:
 2.705204963684 s, 91.247421264648 % : GPU: SET DEVICE / DRIVER INIT
 0.000823999988 s,  0.027793779969 % : GPU MEM: ALO
 0.003694999963 s,  0.124633520842 % : GPU MEM: COPY IN
 0.252640008926 s,  8.521626472473 % : GPU: KERNEL
 0.001132000005 s,  0.038182716817 % : GPU MEM: COPY OUT
 0.001196000027 s,  0.040341459215 % : GPU MEM: FRE
Total time:
2.964692115784 s
