1000000000,151594563,18797237,273581131,546574915,0,7130744,1483885,6820,360,169772519,417500,1038867
1000000000,152251579,14995403,280651159,545260730,0,5620528,1223865,0,0,166007163,329701,906854
1000000000,152398980,15237723,280200878,545476790,0,5709782,1268583,0,0,166088255,334945,920767
1000000000,152388131,15332561,280025981,545515031,0,5747046,1277182,0,0,166170492,337127,927141
1000000000,152415241,15041978,280548672,545385746,0,5637841,1252903,0,0,165934621,330716,909501
1000000000,152439051,14814453,280962285,545287822,0,5551459,1233700,0,0,165743567,325651,895516
1000000000,152377512,15438151,279836613,545560000,0,5786500,1285638,0,0,166258602,339445,933202
1000000000,152407826,15120070,280407037,545420526,0,5666768,1259323,0,0,165999772,332410,914164
1000000000,152432641,14869449,280862565,545307415,0,5573496,1238595,0,0,165791867,326942,899120
1000000000,152420651,15009445,280612760,545372709,0,5624446,1249565,0,0,165903639,329925,906956
1000000000,152397343,15227195,280213922,545466360,0,5707186,1268350,0,0,166088669,334793,920720
1000000000,169031590,16238737,271500112,566891701,1,4781524,5584107,5,12262,150121618,319419,789229
195067005,46895360,3406299,44478356,132678112,20,1120325,1783805,144,344896,14411753,89341,150242
