98720,1602,1300,120
76897,1371,215,25
78124,1459,215,25
78308,1285,218,27
77032,1340,215,25
76055,1394,215,25
78704,1248,215,25
77390,1306,218,27
76191,1357,215,25
76965,1435,215,25
77798,1266,218,27
975443,18895,676,75
154441,5114,862,86
