100000000,25866,20097,20800,22078,39485,20143,20951,21043,75535,21328,21674,20102,14297304,34033,21318
100000000,1744,1744,1744,1744,1744,1744,1744,1744,1744,1744,1744,1744,14285963,3488,1744
100000000,1743,1743,1743,1743,1743,1743,1743,1743,1743,1743,1743,1743,14285964,3486,1743
100000000,1744,1744,1744,1744,1744,1744,1744,1744,1744,1744,1744,1744,14285963,3488,1744
100000000,1743,1743,1743,1743,1743,1743,1743,1743,1743,1743,1743,1743,14285963,3486,1743
100000000,83185,130167,65254,65672,182368,130171,81383,65478,380237,324053,323994,324134,3690403,647680,582880
100000000,82723,132264,66132,66132,182339,132264,82647,66132,382711,330357,330357,330357,3474330,660713,594658
100000000,82696,132244,66122,66122,182198,132244,82638,66122,382077,330383,330383,330383,3473283,660767,594702
100000000,82683,132235,66117,66117,182128,132235,82634,66117,381760,330396,330396,330396,3472760,660793,594724
100000000,82676,132230,66115,66115,182085,132230,82633,66115,381551,330406,330406,330406,3472417,660811,594740
100000000,82671,132228,66114,66114,182051,132228,82633,66114,381376,330413,330413,330413,3472133,660826,594750
100000000,82667,132224,66112,66112,182033,132224,82631,66112,381305,330416,330416,330416,3472014,660832,594756
100000000,82693,132244,66197,66278,182078,132244,82694,66232,381253,330445,330454,330495,3471957,660844,594765
100000000,82676,132243,66121,66156,182043,132243,82643,66144,381295,330475,330473,330484,3472447,660946,594858
100000000,82681,132247,66123,66123,182065,132247,82645,66123,381366,330468,330468,330468,3472575,660937,594849
100000000,82683,132246,66123,66123,182082,132246,82644,66123,381471,330465,330465,330465,3472739,660929,594845
100000000,82693,132255,66128,66128,182127,132255,82649,66128,381648,330457,330457,330457,3473038,660914,594830
100000000,82698,132259,66129,66129,182161,132259,82649,66129,381822,330449,330449,330449,3473319,660899,594818
100000000,82713,132269,66135,66135,182240,132269,82654,66135,382174,330434,330434,330434,3473898,660868,594792
100000000,82738,132286,66143,66143,182387,132286,82659,66143,382875,330404,330404,330404,3475042,660808,594744
94593034,89266,120998,63862,62651,264181,121153,78521,62128,603477,298408,310871,297010,3943112,610638,566323
number,of,instructions:,2094592960
