input:020M,,,,,,,,,
euler3d_single,…………..,……………..,………..,…………..,…………,…………..,………….,…………..,………..
haci3,,,,,,,,,
omp threads,cpu delay,avg power,cpu energy,cpu edp,,,,speedup,
1,416.580624808092,67.07292883782,27941.2826029677,11639796.9646838,,,,1,
2,208.417227020953,73.859472276121,15393.5864010201,3208288.59160806,,,,1.99878211010941,
4,106.507509909105,83.810285513195,8926.42481478154,950731.279413225,,,,3.911279356391,
8,52.894133122172,103.118224105785,5454.34907317336,288503.065971227,,,,7.87574349400711,
14,31.12129816087,133.03969861687,4140.3681278879,128853.631003762,,,,13.3857084834551,
28,17.578242874239,196.271845013388,3450.11416102033,60646.9446662667,,,,23.6986499611172,
42,18.387985826004,198.138816443526,3643.37374834476,66994.3048433986,,,,22.6550438286161,
56,15.027677332982,209.634203865156,3150.31517364213,47341.9199266911,,,,27.720892296097,
,,,,,,,,,
dungani,gpu delay,gpu energy,gpu edp,,avg power,,,,
default WG,4.10192,535.3171932856,2195.82830148207,,130.504055,,,,
,,,,,,,,,
euler3d_double,…………..,……………..,………..,…………..,…………,…………..,………….,…………..,………..
haci3,,,,,,,,,
omp threads,cpu delay,avg power,cpu energy,cpu edp,,,,speedup,
1,450.347474638373,68.783784945291,30976.6038461807,13950235.3150008,,,,1,
2,206.522265926935,75.074027924889,15504.4583593101,3202015.87233452,,,,2.18062431485088,
4,106.924808993004,85.946013900026,9189.76111997035,982613.452444164,,,,4.21181462823879,
8,55.999173243996,105.221989073245,5892.3443951905,329966.414599562,,,,8.04203791859833,
14,32.568083239254,134.809539758766,4390.48831230901,142989.788816252,,,,13.8278777823674,
28,30.870541097131,197.948156049865,6110.76668643866,188642.674128684,,,,14.5882598306716,
42,19.840080721769,197.367981449951,3915.79668385963,77689.7222978105,,,,22.6988731020757,
56,15.759168225806,208.208727181446,3281.19635773335,51708.9253834219,,,,28.576855591967,
,,,,,,,,,
dungani,gpu delay,gpu energy,gpu edp,,avg power,,,,
default WG,8.27724,1073.07722547695,8882.11773380682,,129.6419127,,,,
,,,,,,,,,
pre_euler3d_single,…………..,……………..,………..,…………..,…………,…………..,………….,…………..,………..
haci3,,,,,,,,,
omp threads,cpu delay,avg power,cpu energy,cpu edp,,,,speedup,
1,481.067468686961,68.007157626055,32716.0311717614,15738618.301283,,,,1,
2,231.918795363978,74.230441550595,17215.4345837502,3992582.85033071,,,,2.07429271927687,
4,118.684753999114,84.379163241901,10014.5202320161,1188570.87015598,,,,4.05332153016513,
8,60.594376441557,104.681173724381,6343.09044699917,384355.610348312,,,,7.93914381066283,
14,35.402960461099,131.409583061126,4652.28827332255,164704.777794073,,,,13.5883401393949,
28,31.982631100807,157.57108384935,5039.53784690809,161177.679876217,,,,15.0415226055252,
42,21.648574088234,201.651245779107,4365.46193423368,94506.0261126232,,,,22.2216699689436,
56,17.258702447172,216.065494350599,3729.01007609811,64357.8753258835,,,,27.8739071004604,
,,,,,,,,,
dungani,gpu delay,gpu energy,gpu edp,,avg power,,,,
default WG,9.79265,1209.55183545984,11844.7177815158,,123.5162939,,,,
,,,,,,,,,
pre_euler3d_double,…………..,……………..,………..,…………..,…………,…………..,………….,…………..,………..
haci3,,,,,,,,,
omp threads,cpu delay,avg power,cpu energy,cpu edp,,,,speedup,
1,635.095207329839,69.251751679765,43981.4555910149,27932411.6572437,,,,1,
2,281.496075392701,74.395169200598,20941.9481581443,5895076.21759502,,,,2.25614231546159,
4,179.369130947161,85.369127568676,15312.5862217107,2746605.28314173,,,,3.54071630930144,
8,90.251794937998,104.046098883307,9390.34718051489,847495.688132437,,,,7.03692605522297,
14,44.257859013043,134.604988729614,5957.3286136475,263658.609877178,,,,14.3498854552064,
28,47.0576241198,156.146685028989,7347.89201164697,345774.340356964,,,,13.4961171374272,
42,29.83019697899,200.853305070393,5991.49365413099,178727.435901096,,,,21.2903457451907,
56,22.709033874329,212.643994825479,4828.93968166444,109660.554808009,,,,27.9666326116925,
,,,,,,,,,
dungani,gpu delay,gpu energy,gpu edp,,avg power,,,,
default WG,14.1443,1902.34487886818,26907.3366701752,,134.4955126,,,,
