1000000000,262855790,133896895,243042730,584977773,388429,78861596,8383176,9666,3893432,71937324,1995784,6040533
1000000000,263706407,133588188,244053400,585292283,393558,77846452,8062409,0,3943288,71768475,2012115,6142693
1000000000,263387296,133549769,244018319,585323588,392067,77897872,8115486,0,3929402,71705539,2005387,6128720
1000000000,307124363,108220904,76567040,500287113,85036,16774128,1736446,31,356777692,35469184,435481,8576551
1000000000,319438452,100682423,30738246,476278325,0,4286,418,0,454163681,25544122,37,9203117
1000000000,321475208,100428986,30285582,475882097,0,3971,386,0,454596171,25892574,34,9216300
1000000000,319378915,100388678,30608813,475767497,0,4079,398,0,454657991,25643764,36,9234140
1000000000,319436155,100684525,30741169,476283290,0,4286,418,0,454156835,25543707,37,9202699
1000000000,320245493,100875240,30263804,476089334,0,4078,396,0,454579157,25711970,36,9256676
1000000000,319431358,100688785,30746393,476292933,0,4286,418,0,454143558,25543142,37,9202015
1000000000,321423937,100127782,30146355,475353990,0,3764,366,0,455114288,25993460,33,9248671
1000000000,319433701,100686732,30743976,476288351,0,4286,418,0,454149868,25543373,37,9202321
1000000000,319437640,100683186,30739512,476280251,0,4286,418,0,454161016,25543892,37,9202919
1000000000,320245728,100875008,30263197,476088613,0,4078,396,0,454580164,25712125,36,9256786
1000000000,320718193,100067933,30637566,475673019,0,4077,396,0,454615363,25782983,35,9181218
1000000000,320134564,100750937,30258431,475979381,0,3973,388,0,454634927,25753150,35,9269002
1000000000,319435574,100685044,30741815,476284469,0,4286,418,0,454155213,25543632,37,9202613
1000000000,319441098,100680061,30735187,476272879,0,4286,418,0,454171183,25544501,37,9203533
1000000000,320237708,100882217,30272776,476105384,0,4078,396,0,454557052,25710878,36,9255459
1000000000,320615596,99936179,30622617,475545930,0,3972,388,0,454694741,25825321,34,9194841
1000000000,320240471,100879737,30269506,476099626,0,4078,396,0,454564982,25711300,36,9255910
1000000000,319437101,100683675,30740126,476281369,0,4286,418,0,454159481,25543819,37,9202836
1000000000,319439494,100681500,30737051,476276194,0,4286,418,0,454166614,25544270,37,9203280
1000000000,321110391,100557237,30210517,475778167,0,3972,384,0,454815399,25841545,35,9235260
1000000000,319743222,100260880,30684477,475872482,0,4078,400,0,454437312,25694715,35,9215097
1000000000,320241184,100879095,30268699,476098159,0,4078,396,0,454566999,25711393,36,9256019
1000000000,319439201,100681806,30737722,476277068,0,4286,418,0,454165410,25544109,37,9203160
1000000000,319433139,100687183,30744358,476289264,0,4286,418,0,454148605,25543386,37,9202291
1000000000,321423931,100127799,30146343,475354010,0,3764,366,0,455114266,25993469,33,9248674
1000000000,319432822,100687505,30744993,476290143,0,4286,418,0,454147396,25543245,37,9202182
1000000000,320242752,100877699,30266948,476094976,0,4078,396,0,454571389,25711590,36,9256250
1000000000,319441492,100679723,30734745,476272095,0,4286,418,0,454172263,25544555,37,9203594
1000000000,320695469,100218289,30657583,475820118,0,4180,406,0,454516020,25732007,36,9172471
1000000000,320156560,100601246,30239261,475833803,0,3870,378,0,454732180,25804021,34,9277633
1000000000,319435536,100685058,30741849,476284514,0,4286,418,0,454155144,25543629,37,9202609
1000000000,320242866,100877614,30266847,476094785,0,4078,396,0,454571655,25711598,36,9256262
1000000000,319436709,100683985,30740235,476281910,0,4286,418,0,454158741,25543889,37,9202850
1000000000,321424171,100127638,30146540,475353883,0,3764,366,0,455114428,25993334,33,9248610
1000000000,319431216,100688884,30746371,476293069,0,4286,418,0,454143372,25543187,37,9202033
1000000000,319436783,100683963,30740495,476282030,0,4286,418,0,454158567,25543777,37,9202787
1000000000,320247095,100873770,30261609,476085771,0,4078,396,0,454584078,25712318,36,9257002
1000000000,319961295,100492310,30710229,476097068,0,4180,406,0,454296203,25622614,36,9189491
1000000000,320890537,100327396,30186864,475557263,0,3870,378,0,454951429,25913376,34,9260577
1000000000,319435427,100685174,30741960,476284761,0,4286,418,0,454154811,25543624,37,9202596
1000000000,319438174,100682741,30738916,476279205,0,4286,418,0,454162466,25543965,37,9202998
1000000000,320243448,100877033,30265827,476093292,0,4078,396,0,454573714,25711802,36,9256429
1000000000,320615600,99936179,30622620,475545932,0,3972,388,0,454694736,25825321,34,9194841
1000000000,320238539,100881454,30271758,476103601,0,4078,396,0,454559501,25711015,36,9255602
1000000000,319436201,100684486,30741113,476283193,0,4286,418,0,454156974,25543712,37,9202705
1000000000,319442298,100678983,30733808,476270413,0,4286,418,0,454174577,25544669,37,9203722
1000000000,320234485,100885101,30276457,476111988,0,4078,396,0,454547953,25710438,36,9254961
1000000000,320616600,99935285,30621482,475543893,0,3972,388,0,454697552,25825455,34,9194993
1000000000,320241063,100879207,30268832,476098405,0,4078,396,0,454566661,25711378,36,9256001
1000000000,319437641,100683184,30739506,476280249,0,4286,418,0,454161018,25543896,37,9202921
1000000000,319437359,100683422,30739490,476280594,0,4286,418,0,454160563,25543978,37,9202949
1000000000,321519873,100250908,30160364,475472759,0,3869,374,0,455040099,25953871,34,9235929
1000000000,319334808,100566238,30733362,476175643,0,4181,410,0,454215698,25582552,36,9214605
1000000000,320242056,100878321,30267753,476096405,0,4078,396,0,454569420,25711490,36,9256140
1000000000,319441099,100680076,30735193,476272910,0,4286,418,0,454171145,25544502,37,9203533
1000000000,319620234,100619261,30733999,476224640,0,4180,406,0,454195714,25571792,36,9197512
1000000000,321233015,100199177,30161454,475426771,0,3870,378,0,455055940,25964401,34,9252780
1000000000,319434661,100685850,30742847,476286322,0,4286,418,0,454152656,25543512,37,9202475
1000000000,320242935,100877549,30266762,476094636,0,4078,396,0,454571859,25711610,36,9256274
1000000000,319439465,100681529,30737076,476276256,0,4286,418,0,454166538,25544267,37,9203275
1000000000,321234421,100407759,30440006,476041834,0,4075,396,0,454353296,25844343,35,9200854
1000000000,319619225,100410327,30454958,475608745,0,3975,388,0,454899504,25691920,35,9249508
1000000000,319435804,100684834,30741558,476283995,0,4286,418,0,454155864,25543662,37,9202647
1000000000,320244693,100875960,30264735,476090993,0,4078,396,0,454576870,25711855,36,9256550
1000000000,319433000,100687305,30744514,476289547,0,4286,418,0,454148218,25543367,37,9202269
1000000000,321423923,100127805,30146345,475354026,0,3764,366,0,455114250,25993468,33,9248674
1000000000,319432903,100687429,30744909,476289970,0,4286,418,0,454147624,25543255,37,9202194
1000000000,319437453,100683372,30739716,476280653,0,4286,418,0,454160472,25543872,37,9202891
1000000000,320246713,100874111,30262060,476086568,0,4078,396,0,454582977,25712262,36,9256941
1000000000,320713910,100211400,30656214,475813106,0,4180,406,0,454521633,25734755,36,9172051
1000000000,320138144,100608120,30240604,475840770,0,3870,378,0,454726630,25801276,34,9278056
1000000000,319435529,100685066,30741851,476284524,0,4286,418,0,454155130,25543631,37,9202609
1000000000,319440194,100680929,30736585,476275055,0,4286,418,0,454168186,25544250,37,9203316
1000000000,320239369,100880686,30270520,476101679,0,4078,396,0,454562156,25711233,36,9255793
1000000000,320615590,99936179,30622617,475545935,0,3972,388,0,454694733,25825323,34,9194842
1000000000,320239870,100880271,30270205,476100860,0,4078,396,0,454563282,25711210,36,9255814
1000000000,319436726,100684011,30740553,476282138,0,4286,418,0,454158419,25543772,37,9202779
1000000000,319440469,100680646,30735926,476274216,0,4286,418,0,454169353,25544407,37,9203431
1000000000,320786335,100678553,30234575,475901644,0,3972,384,0,454716491,25793265,35,9242637
1000000000,320066556,100140196,30661272,475750480,0,4078,400,0,454534179,25742883,35,9207603
1000000000,320240996,100879265,30268896,476098539,0,4078,396,0,454566478,25711375,36,9255994
1000000000,319438210,100682699,30738868,476279118,0,4286,418,0,454162584,25543972,37,9203005
1000000000,319435045,100685468,30742164,476285330,0,4286,418,0,454154023,25543651,37,9202587
1000000000,321423942,100127791,30146355,475354007,0,3764,366,0,455114274,25993457,33,9248671
1000000000,319432203,100688054,30745677,476291391,0,4286,418,0,454145671,25543172,37,9202093
1000000000,320242568,100877878,30267164,476095373,0,4078,396,0,454570845,25711565,36,9256220
1000000000,319442275,100678998,30733833,476270445,0,4286,418,0,454174534,25544662,37,9203717
1000000000,320371422,100339637,30681639,475943644,0,4180,406,0,454417060,25683732,36,9179848
1000000000,320479699,100480716,30216264,475712163,0,3870,378,0,454828541,25852166,34,9270112
1000000000,319435483,100685119,30741905,476284642,0,4286,418,0,454154971,25543627,37,9202603
1000000000,320243187,100877307,30266469,476094090,0,4078,396,0,454572611,25711640,36,9256312
1000000000,319437354,100683422,30739495,476280599,0,4286,418,0,454160547,25543982,37,9202951
1000000000,321513201,100242273,30159429,475464433,0,3869,374,0,455045298,25956616,34,9236807
1000000000,319341501,100574847,30734265,476183915,0,4181,410,0,454210579,25579809,36,9213730
1000000000,319436573,100684163,30740739,476282477,0,4286,418,0,454157953,25543750,37,9202754
1000000000,320246604,100874213,30262182,476086784,0,4078,396,0,454582683,25712245,36,9256922
1000000000,319638629,100612409,30732688,476217728,0,4180,406,0,454201188,25574532,36,9197085
1000000000,321214569,100206067,30162823,475433783,0,3870,378,0,455050327,25961653,34,9253200
1000000000,319434749,100685785,30742747,476286156,0,4286,418,0,454152889,25543525,37,9202488
1000000000,319437679,100683180,30739485,476280227,0,4286,418,0,454161059,25543897,37,9202921
1000000000,320244641,100875972,30264453,476090839,0,4078,396,0,454577092,25711970,36,9256616
1000000000,320615724,99936079,30622727,475545852,0,3972,388,0,454694839,25825246,34,9194805
1000000000,320237951,100881965,30272198,476104639,0,4078,396,0,454558082,25711017,36,9255561
1000000000,319435828,100684819,30741535,476283961,0,4286,418,0,454155910,25543667,37,9202651
1000000000,319441839,100679392,30734332,476271353,0,4286,418,0,454173286,25544604,37,9203650
1000000000,320235790,100883933,30274979,476109309,0,4078,396,0,454551639,25710612,36,9255159
1000000000,320616096,99935739,30622048,475544924,0,3972,388,0,454696133,25825389,34,9194918
1000000000,320240827,100879415,30269101,476098888,0,4078,396,0,454565998,25711345,36,9255964
1000000000,319437376,100683447,30739809,476280831,0,4286,418,0,454160229,25543862,37,9202879
1000000000,319438370,100682494,30738346,476278497,0,4286,418,0,454163437,25544112,37,9203105
1000000000,321540676,100396110,30178572,475614151,0,3972,384,0,454946791,25905650,35,9225467
1000000000,319313515,100421489,30715742,476035292,0,4078,400,0,454307575,25630698,35,9224985
1000000000,320241769,100878566,30268030,476096946,0,4078,396,0,454568674,25711469,36,9256106
1000000000,319440246,100680881,30736524,476274942,0,4286,418,0,454168339,25544258,37,9203325
1000000000,319430710,100689302,30746730,476293927,0,4286,418,0,454142191,25543197,37,9202003
1000000000,321424149,100127642,30146519,475353881,0,3764,366,0,455114432,25993343,33,9248616
1000000000,319433823,100686616,30743835,476288081,0,4286,418,0,454150233,25543390,37,9202340
1000000000,320242782,100877671,30266915,476094914,0,4078,396,0,454571476,25711593,36,9256254
1000000000,319440461,100680650,30735935,476274226,0,4286,418,0,454169332,25544409,37,9203431
1000000000,321018265,100292548,30544988,475910119,0,4075,396,0,454451484,25796063,35,9185404
1000000000,319834791,100526062,30350670,475741680,0,3975,388,0,454799637,25740110,35,9264862
1000000000,319435608,100684999,30741769,476284378,0,4286,418,0,454155336,25543637,37,9202619
1000000000,320243487,100877043,30266121,476093476,0,4078,396,0,454573449,25711690,36,9256362
1000000000,319434988,100685540,30742227,476285477,0,4286,418,0,454153834,25543644,37,9202578
1000000000,321423949,100127780,30146354,475353988,0,3764,366,0,455114290,25993459,33,9248672
1000000000,319432224,100688030,30745652,476291338,0,4286,418,0,454145745,25543172,37,9202095
1000000000,319437077,100683716,30740152,476281446,0,4286,418,0,454159381,25543822,37,9202833
1000000000,320247744,100873186,30260872,476084432,0,4078,396,0,454585915,25712405,36,9257102
1000000000,320389855,100332732,30680268,475936606,0,4180,406,0,454422706,25686477,36,9179427
1000000000,320461439,100487453,30217427,475718822,0,3870,378,0,454823416,25849446,34,9270561
1000000000,319435342,100685239,30742065,476284922,0,4286,418,0,454154588,25543604,37,9202580
1000000000,319439613,100681462,30737255,476276254,0,4286,418,0,454166534,25544170,37,9203224
1000000000,320240889,100879304,30268755,476098519,0,4078,396,0,454566508,25711447,36,9256033
1000000000,320615598,99936179,30622617,475545935,0,3972,388,0,454694733,25825323,34,9194842
1000000000,320239139,100880935,30271048,476102376,0,4078,396,0,454561197,25711108,36,9255699
1000000000,319436660,100684063,30740631,476282267,0,4286,418,0,454158241,25543759,37,9202768
1000000000,319441266,100679939,30735006,476272580,0,4286,418,0,454171601,25544525,37,9203558
1000000000,320462284,100799889,30258633,476025155,0,3972,384,0,454617552,25744985,35,9250012
1000000000,320390308,100019123,30637560,475627581,0,4078,400,0,454632277,25791118,35,9200180
1000000000,320240600,100879620,30269351,476099353,0,4078,396,0,454565357,25711320,36,9255932
1000000000,319437786,100683071,30739356,476279979,0,4286,418,0,454161394,25543912,37,9202939
1000000000,319436162,100684489,30740875,476283060,0,4286,418,0,454157162,25543809,37,9202762
1000000000,321424079,100127689,30146459,475353912,0,3764,366,0,455114390,25993384,33,9248636
1000000000,319431524,100688636,30746199,476292588,0,4286,418,0,454144034,25543167,37,9202041
1000000000,320242294,100878107,30267475,476095922,0,4078,396,0,454570086,25711527,36,9256179
1000000000,319441913,100679322,30734253,476271192,0,4286,418,0,454173498,25544614,37,9203662
1000000000,320048552,100459933,30704339,476064740,0,4180,406,0,454321452,25635618,36,9187406
1000000000,320803506,100359598,30192494,475589166,0,3870,378,0,454926780,25900406,34,9262696
1000000000,319434991,100685553,30742464,476285642,0,4286,418,0,454153589,25543562,37,9202529
1000000000,320242920,100877561,30266781,476094658,0,4078,396,0,454571828,25711605,36,9256270
1000000000,319438370,100682494,30738346,476278497,0,4286,418,0,454163437,25544112,37,9203105
1000000000,321566477,100389206,30210349,475684463,0,3971,386,0,454845617,25908399,34,9221364
1000000000,319287721,100428391,30683955,475964975,0,4079,398,0,454408765,25627949,36,9229088
1000000000,319436334,100684364,30740962,476282920,0,4286,418,0,454157345,25543732,37,9202727
1000000000,320245789,100874975,30263468,476088723,0,4078,396,0,454579997,25712009,36,9256720
1000000000,319430598,100689407,30746861,476294164,0,4286,418,0,454141869,25543178,37,9201985
1000000000,321424153,100127647,30146520,475353889,0,3764,366,0,455114419,25993346,33,9248617
1000000000,319433846,100686597,30743790,476288031,0,4286,418,0,454150314,25543397,37,9202345
1000000000,319437573,100683258,30739600,476280414,0,4286,418,0,454160793,25543882,37,9202907
1000000000,320245638,100875073,30263296,476088774,0,4078,396,0,454579937,25712112,36,9256773
1000000000,320679764,100018180,30632173,475625046,0,4077,396,0,454645303,25798811,35,9186283
1000000000,320173435,100800295,30263306,476026433,0,3973,388,0,454606255,25737385,35,9264008
1000000000,319435502,100685124,30741907,476284650,0,4286,418,0,454154972,25543622,37,9202599
1000000000,319441096,100680051,30735192,476272874,0,4286,418,0,454171184,25544499,37,9203534
1000000000,320237351,100882551,30273196,476106130,0,4078,396,0,454556022,25710828,36,9255401
1000000000,320615590,99936179,30622617,475545937,0,3972,388,0,454694731,25825323,34,9194842
1000000000,320240570,100879633,30269390,476099392,0,4078,396,0,454565301,25711309,36,9255924
1000000000,319437158,100683635,30740068,476281274,0,4286,418,0,454159612,25543828,37,9202845
1000000000,319439338,100681644,30737227,476276526,0,4286,418,0,454166159,25544252,37,9203257
1000000000,321216627,100517450,30202628,475737665,0,3972,384,0,454847852,25857370,35,9232841
1000000000,319637068,100300585,30692257,475912786,0,4078,400,0,454405130,25678903,35,9217531
1000000000,320241319,100878973,30268555,476097890,0,4078,396,0,454567372,25711406,36,9256037
1000000000,319439665,100681401,30737185,476276126,0,4286,418,0,454166711,25544178,37,9203233
1000000000,319432440,100687801,30745136,476290681,0,4286,418,0,454146655,25543297,37,9202187
1000000000,321423951,100127780,30146354,475353987,0,3764,366,0,455114291,25993459,33,9248672
1000000000,319433192,100687173,30744563,476289373,0,4286,418,0,454148456,25543298,37,9202240
1000000000,320242726,100877724,30266980,476095033,0,4078,396,0,454571309,25711588,36,9256245
1000000000,319441143,100680031,30735143,476272810,0,4286,418,0,454171282,25544505,37,9203540
1000000000,320801708,100178517,30649695,475779631,0,4180,406,0,454548452,25747835,36,9170053
1000000000,320050966,100640430,30246407,475872945,0,3870,378,0,454701595,25788281,34,9280152
1000000000,319435067,100685507,30742392,476285523,0,4286,418,0,454153765,25543567,37,9202535
1000000000,320243288,100877224,30266352,476093896,0,4078,396,0,454572876,25711660,36,9256330
1000000000,319436115,100684523,30740928,476283141,0,4286,418,0,454157045,25543802,37,9202755
1000000000,321424072,100127702,30146461,475353933,0,3764,366,0,455114367,25993386,33,9248635
1000000000,319431548,100688600,30746175,476292529,0,4286,418,0,454144108,25543169,37,9202046
1000000000,319436962,100683800,30740284,476281651,0,4286,418,0,454159086,25543805,37,9202816
1000000000,320247356,100873550,30261322,476085257,0,4078,396,0,454584788,25712350,36,9257040
1000000000,320066855,100453126,30703116,476057953,0,4180,406,0,454326742,25638347,36,9186968
1000000000,320785174,100366403,30193742,475595967,0,3870,378,0,454921457,25897675,34,9263132
1000000000,319434940,100685617,30742526,476285773,0,4286,418,0,454153419,25543553,37,9202519
1000000000,319439393,100685795,30739911,476282088,0,4348,437,0,454158567,25543704,41,9203227
1000000000,320534273,101801090,30525901,477062886,0,4078,396,0,453399837,25628832,36,9296919
1000000000,322488008,105867172,32315946,481735493,0,3972,388,0,447162493,25291569,34,9463030
1000000000,327276416,118547644,35272060,494658364,0,3764,366,0,431787406,24343046,33,10058561
1000000000,333528824,138261994,40794412,515298814,0,3764,366,0,406802015,22574606,33,10931223
1000000000,345172994,165816167,48679517,544177915,0,3344,324,0,371232701,20470922,29,12175488
1000000000,351015054,184844984,54315376,563991543,0,2928,288,0,346683465,18872232,25,13129083
1000000000,356032301,197735753,56840926,577427950,0,2928,284,0,331401722,17869085,26,13611606
1000000000,357620950,201094133,59077188,580898043,0,2822,276,0,325792414,17561002,24,13871973
1000000000,357168409,201305784,57847162,581148255,0,2928,284,0,326884556,17548788,26,13773187
1000000000,357628525,201141111,59099538,580948296,0,2822,276,0,325723552,17556212,24,13874051
1000000000,358689531,201626125,58013244,581539785,0,2614,254,0,326074867,17735299,23,13809667
1000000000,356114859,200822641,58927890,580555334,0,3136,306,0,326539167,17369853,27,13838205
1000000000,358676034,201623073,58023278,581542761,0,2614,254,0,326063725,17735055,23,13808551
1000000000,356114142,200822495,58928409,580555478,0,3136,306,0,326538597,17369842,27,13838149
1000000000,358684322,201624704,58017151,581540691,0,2614,254,0,326070829,17735183,23,13809212
1000000000,358684901,201625323,58016667,581541087,0,2614,254,0,326070732,17735237,23,13809306
1000000000,356122217,200824779,58922366,580554221,0,3136,306,0,326544681,17370032,27,13838858
1000000000,358672528,201621540,58025963,581542725,0,2614,254,0,326061720,17734923,23,13808193
1000000000,357636335,201075348,59029151,580846006,0,3030,294,0,325999351,17497123,26,13838682
1000000000,357163385,201372187,57915472,581249935,0,2720,266,0,326611059,17607927,24,13808786
1000000000,357635109,201143354,59094558,580947690,0,2822,276,0,325728059,17556404,24,13874668
1000000000,357166885,201305342,57848306,581148472,0,2928,284,0,326883431,17548748,26,13773051
1000000000,357630924,201141760,59097743,580947898,0,2822,276,0,325725388,17556267,24,13874260
1000000000,358687163,201625869,58014982,581540633,0,2614,254,0,326072548,17735282,23,13809497
1000000000,356119154,200824008,58924653,580554811,0,3136,306,0,326542247,17369968,27,13838597
1000000000,358673318,201621727,58025364,581542543,0,2614,254,0,326062390,17734937,23,13808259
1000000000,356554211,200897738,58957604,580642115,0,3030,294,0,326379630,17406848,26,13838481
1000000000,358244963,201549658,57987423,581453933,0,2720,266,0,326230343,17698194,24,13808942
1000000000,358682764,201624736,58018270,581541457,0,2614,254,0,326069075,17735190,23,13809121
1000000000,356122041,200824763,58922496,580554277,0,3136,306,0,326544521,17370028,27,13838843
1000000000,358674535,201622087,58024454,581542379,0,2614,254,0,326063273,17734969,23,13808369
1000000000,357643541,201145078,59088325,580945639,0,2822,276,0,325735221,17556537,24,13875345
1000000000,357156390,201302472,57856153,581150234,0,2928,284,0,326875376,17548516,26,13772139
1000000000,357634450,201143264,59095040,580947896,0,2822,276,0,325727455,17556394,24,13874617
1000000000,357165336,201304880,57849472,581148692,0,2928,284,0,326882283,17548711,26,13772912
1000000000,357633058,201142300,59096134,580947471,0,2822,276,0,325727114,17556311,24,13874443
1000000000,358685002,201625360,58016600,581541097,0,2614,254,0,326070768,17735244,23,13809317
1000000000,356122218,200824781,58922366,580554229,0,3136,306,0,326544675,17370031,27,13838857
1000000000,358672341,201621488,58026103,581542744,0,2614,254,0,326061593,17734915,23,13808176
1000000000,357571673,201064733,59024832,580833796,0,3030,294,0,326022139,17491728,26,13838675
1000000000,357227929,201382742,57919872,581262134,0,2720,266,0,326588219,17613319,24,13808782
1000000000,358683099,201624863,58018017,581541435,0,2614,254,0,326069295,17735200,23,13809152
1000000000,356119217,200823954,58924625,580554725,0,3136,306,0,326542368,17369963,27,13838595
1000000000,358676917,201622757,58022670,581542000,0,2614,254,0,326065083,17735022,23,13808577
1000000000,357641141,201144862,59090055,580946508,0,2822,276,0,325732877,17556528,24,13875179
1000000000,357160533,201303157,57853103,581149048,0,2928,284,0,326879098,17548564,26,13772456
1000000000,357631925,201142574,59096933,580948325,0,2822,276,0,325725505,17556339,24,13874399
1000000000,357163719,201304430,57850681,581148961,0,2928,284,0,326881044,17548676,26,13772771
1000000000,357635473,201142954,59094338,580947069,0,2822,276,0,325728955,17556366,24,13874651
1000000000,358682625,201624707,58018365,581541477,0,2614,254,0,326068980,17735187,23,13809109
1000000000,356122203,200824787,58922388,580554242,0,3136,306,0,326544643,17370029,27,13838857
1000000000,358674408,201622083,58024552,581542435,0,2614,254,0,326063136,17734967,23,13808359
1000000000,358091094,201292631,58604199,581315066,0,2925,284,0,325903727,17576559,25,13798229
1000000000,356708906,201154949,58340223,580780803,0,2825,276,0,326706920,17528496,25,13849261
1000000000,358682535,201624711,58018419,581541520,0,2614,254,0,326068884,17735191,23,13809105
1000000000,356117290,200823427,58926054,580555040,0,3136,306,0,326540912,17369916,27,13838429
1000000000,358679388,201623414,58020827,581541551,0,2614,254,0,326067012,17735077,23,13808789
1000000000,357638687,201144257,59091905,580947024,0,2822,276,0,325730866,17556477,24,13874970
1000000000,357165113,201304340,57849686,581148202,0,2928,284,0,326882695,17548661,26,13772848
1000000000,357629131,201141831,59099016,580948811,0,2822,276,0,325723345,17556279,24,13874158
1000000000,357161925,201303968,57852009,581149288,0,2928,284,0,326879648,17548638,26,13772619
166062160,59122776,33216121,10371646,96237252,0,522,52,0,53797297,2856309,4,2343909
