omp threads, total ins, total cyc, ipc,,ipc dw
1,192808526303,144507193525,1.334248661995,,0.005956467138904
2,196277442004,102453357891,0.957886815071,,0.008552560876601
4,197308438298,41888047521,1.177593946457,,0.021028462641048
6,209163848296,35520048400,0.981435656548,,0.026288454603932
8,226448135278,31118774817,0.909612178802,,0.032486149640954
10,260637095061,30965144745,0.841711223125,,0.037576393382809
12,271180102620,30694180953,0.736241877079,,0.039441529975299
14,275234239351,27901991539,0.704594433308,,0.044037153444747
16,268341485910,25839503800,0.649058222771,,0.046361302886096
18,300556337994,27971690210,0.596945464611,,0.047968834059408
20,287273270882,24347290836,0.589949131012,,0.052674031288868
22,292599037017,24120564331,0.551394879818,,0.054154856538325
24,294273539425,23247254735,0.527434229851,,0.056510808399645
26,300607824890,23402247915,0.494048237801,,0.057344885121004
28,305010010455,23535852731,0.462834924459,,0.057854365760664
30,318114512693,22730005421,0.466511845589,,0.062479266864154
32,319789792257,22010487231,0.454030424356,,0.064861490168951
34,329925543348,21784820577,0.445433676243,,0.067610466872583
36,330600094935,20450126828,0.449060112238,,0.072170372994414
38,331383394018,19340863965,0.450890690088,,0.07649038608323
40,333000896920,18729300045,0.444491922855,,0.079373556053482
42,335378888473,18617031716,0.428919702768,,0.080422443465909
44,333417233484,18751684342,0.404105812311,,0.079377924947543
46,336796387385,17951554063,0.4078566432,,0.083756275114079
48,332690930244,17422068684,0.397832274437,,0.085249771086295
50,336016277668,16637070046,0.403936833143,,0.090164473913565
52,336395539457,16047797130,0.403117328882,,0.093580806697755
54,350363651766,16781406047,0.386631250381,,0.093205744560573
56,351199332863,16679125437,0.376003921032,,0.09400098167551
