1000009484,218053854,153561907,141142169,141125637
1000000000,218038742,153495881,141083809,141083810
1000000000,218038770,153495893,141083825,141083827
1000000000,218038769,153495893,141083827,141083826
1000000000,218038764,153495904,141083822,141083824
1000000000,218038768,153495893,141083828,141083827
1000000000,218038772,153495892,141083827,141083826
1000000000,218038764,153495905,141083825,141083824
1000000000,218038767,153495892,141083825,141083827
1000000000,218038773,153495893,141083827,141083822
1000000000,218038763,153495905,141083822,141083828
1000000000,218038768,153495892,141083828,141083827
1000000000,218038773,153495893,141083824,141083822
1000000000,218038762,153495900,141083825,141083828
1000000000,218038768,153495897,141083828,141083827
1000000000,218038773,153495892,141083827,141083823
1000000000,218038763,153495897,141083822,141083827
1000000000,218038767,153495901,141083828,141083825
1000000000,218038774,153495892,141083825,141083824
1000000000,218038762,153495901,141083824,141083828
1000000000,218038768,153495896,141083827,141083823
1000000000,218038770,153495893,141083824,141083826
1000000000,218038766,153495896,141083826,141083828
1000000000,218038767,153495901,141083828,141083825
1000000000,218038768,153495893,141083822,141083824
1000000000,218038769,153495894,141083827,141083827
1000000000,218038767,153495903,141083826,141083823
1000000000,218038768,153495892,141083823,141083826
1000000000,218038769,153495893,141083827,141083826
1000000000,218038766,153495904,141083825,141083823
1000000000,218038768,153495893,141083824,141083827
1000000000,218038770,153495893,141083827,141083826
1000000000,218038764,153495905,141083826,141083824
1000000000,218038770,153495892,141083824,141083827
1000000000,218038769,153495893,141083827,141083826
1000000000,218038764,153495904,141083822,141083823
1000000000,218038770,153495892,141083827,141083827
1000000000,218038770,153495893,141083827,141083826
1000000000,218038764,153495904,141083826,141083824
1000000000,218038767,153495894,141083824,141083827
1000000000,218038773,153495892,141083827,141083824
1000000000,218038763,153495905,141083823,141083826
1000000000,218038770,153495892,141083827,141083827
1000000000,218038771,153495892,141083827,141083822
1000000000,218038762,153495903,141083822,141083828
1000000000,218038768,153495894,141083828,141083827
1000000000,218038773,153495894,141083827,141083824
1000000000,218038763,153495898,141083822,141083826
1000000000,218038767,153495899,141083828,141083827
1000000000,218038774,153495892,141083827,141083822
1000000000,218038762,153495903,141083822,141083828
1000000000,218038768,153495894,141083828,141083824
1000000000,218038773,153495892,141083824,141083825
1000000000,218038763,153495900,141083825,141083828
1000000000,218038768,153495898,141083828,141083827
1000000000,218038768,153495893,141083823,141083822
1000000000,218038768,153495896,141083826,141083828
1000000000,218038767,153495901,141083828,141083824
1000000000,218038768,153495892,141083822,141083825
1000000000,218038769,153495893,141083827,141083827
1000000000,218038766,153495905,141083826,141083823
1000000000,218038770,153495892,141083824,141083826
1000000000,218038768,153495893,141083826,141083826
1000000000,218038765,153495904,141083826,141083824
1000000000,218038769,153495893,141083824,141083827
1000000000,218038769,153495893,141083827,141083827
1000000000,218038765,153495904,141083824,141083822
1000000000,218038770,153495892,141083825,141083827
1000000000,218038769,153495894,141083827,141083826
1000000000,218038765,153495904,141083825,141083823
1000000000,218038767,153495892,141083824,141083827
1000000000,218038772,153495893,141083827,141083826
1000000000,218038764,153495904,141083826,141083824
1000000000,218038770,153495893,141083824,141083827
1000000000,218038770,153495892,141083827,141083823
1000000000,218038763,153495906,141083822,141083827
1000000000,218038768,153495892,141083828,141083827
1000000000,218747982,154738536,142666522,142666246
1000000000,247729238,201499993,201497536,201494114
1000000000,247748377,201553975,201551531,201548170
1000000000,247751238,201553060,201550615,201547167
1000000000,247758769,201567795,201565368,201561885
1000000000,247757526,201570695,201568233,201564846
1000000000,247756924,201566500,201564050,201560651
1000000000,247762449,201584767,201582353,201578935
1000000000,247759149,201575935,201573540,201570071
1000000000,247753656,201568545,201566040,201562644
1000000000,247759948,201572030,201569535,201566110
1000000000,247760041,201575713,201573271,201569845
1000000000,247762518,201580073,201577625,201574186
1000000000,247758235,201575680,201573180,201569823
1000000000,247759401,201573711,201571256,201567867
1000000000,247758119,201571138,201568652,201565281
1000000000,247763427,201582381,201579964,201576554
1000000000,247757173,201574010,201571575,201568185
1000000000,247765758,201579884,201577397,201574007
1000000000,247765592,201578882,201576374,201572953
1000000000,247752819,201568618,201566223,201562803
1000000000,247759498,201577065,201574607,201571204
1000000000,247761773,201575022,201572618,201569142
1000000000,247760028,201566829,201564379,201560934
1000000000,247758185,201567325,201564899,201561455
1000000000,247761455,201581851,201579432,201576011
1000000000,247767297,201582508,201580069,201576659
1000000000,247762422,201585335,201582884,201579521
1000000000,247759818,201579433,201577003,201573577
1000000000,247771570,201592505,201590027,201586639
1000000000,247767383,201584768,201582374,201578905
1000000000,247759032,201572243,201569828,201566366
1000000000,247765706,201583929,201581481,201578083
1000000000,247768467,201589043,201586646,201583206
1000000000,247757084,201571508,201569028,201565638
1000000000,247762890,201578332,201575867,201572463
1000000000,247761571,201581465,201579005,201575585
1000000000,247760815,201582651,201580195,201576795
1000000000,247759555,201576358,201573901,201570475
1000000000,247760335,201576648,201574216,201570796
1000000000,247762081,201579784,201577339,201573922
1000000000,247764875,201582304,201579863,201576479
1000000000,247761519,201579371,201576982,201573515
1000000000,247766158,201581179,201578719,201575274
1000000000,247766415,201582694,201580230,201576875
1000000000,247759994,201580442,201577967,201574547
1000000000,247759053,201573863,201571333,201567945
1000000000,247765838,201590270,201587911,201584437
1000000000,247763362,201582944,201580465,201577059
1000000000,247761564,201578693,201576218,201572795
1000000000,247766531,201583870,201581439,201577964
1000000000,247757622,201578549,201576067,201572681
1000000000,247757042,201571676,201569240,201565800
1000000000,247761336,201578863,201576417,201573034
1000000000,247762207,201580162,201577742,201574310
1000000000,247759544,201577204,201574766,201571344
1000000000,247767921,201585320,201582878,201579423
1000000000,247760838,201583341,201580913,201577455
1000000000,247757378,201576079,201573607,201570179
1000000000,247757558,201576285,201573861,201570486
1000000000,247763753,201579422,201576945,201573540
1000000000,247761452,201580546,201578106,201574672
1000000000,247760036,201577067,201574653,201571213
1000000000,247762481,201582539,201580063,201576651
1000000000,247765832,201587257,201584786,201581376
1000000000,247764857,201588061,201585623,201582189
1000000000,247758819,201584550,201582205,201578756
1000000000,247762853,201582974,201580484,201577087
1000000000,247761609,201578024,201575615,201572219
1000000000,247764340,201586809,201584416,201580980
1000000000,247760763,201576393,201573975,201570556
1000000000,247763144,201580188,201577729,201574312
1000000000,247758621,201575970,201573574,201570168
1000000000,247762830,201578304,201575875,201572477
574950689,142447325,115896648,115894831,115892355
number,of,instructions:,151574950619
