1000000000,294959656,141011076,205155695,653773361,0,47096,76928286,9562,408,64069429,5325,20322
1000000000,294994092,141084082,205213224,653702948,0,0,76954814,0,0,64129014,0,0
1000000000,294994097,141084083,205213222,653702954,0,0,76954813,0,0,64129011,0,0
1000000000,294994093,141084080,205213218,653702956,0,0,76954816,0,0,64129010,0,0
1000000000,294994095,141084084,205213225,653702948,0,0,76954813,0,0,64129014,0,0
1000000000,294994095,141084082,205213222,653702954,0,0,76954813,0,0,64129011,0,0
1000000000,294994095,141084081,205213220,653702955,0,0,76954815,0,0,64129010,0,0
1000000000,294994093,141084082,205213224,653702948,0,0,76954814,0,0,64129014,0,0
1000000000,294994096,141084083,205213221,653702955,0,0,76954813,0,0,64129011,0,0
1000000000,294994094,141084082,205213221,653702954,0,0,76954815,0,0,64129010,0,0
1000000000,294994094,141084082,205213223,653702949,0,0,76954814,0,0,64129014,0,0
1000000000,294994096,141084083,205213222,653702954,0,0,76954813,0,0,64129011,0,0
1000000000,294994094,141084080,205213222,653702953,0,0,76954815,0,0,64129010,0,0
1000000000,294994096,141084083,205213222,653702952,0,0,76954814,0,0,64129012,0,0
1000000000,294994093,141084082,205213221,653702953,0,0,76954813,0,0,64129013,0,0
1000000000,294994094,141084082,205213221,653702954,0,0,76954815,0,0,64129010,0,0
1000000000,294994097,141084082,205213223,653702952,0,0,76954814,0,0,64129011,0,0
1000000000,294994095,141084082,205213223,653702951,0,0,76954813,0,0,64129013,0,0
1000000000,294994092,141084081,205213221,653702953,0,0,76954815,0,0,64129011,0,0
1000000000,294994096,141084083,205213222,653702952,0,0,76954814,0,0,64129012,0,0
1000000000,294994098,141084082,205213223,653702952,0,0,76954813,0,0,64129012,0,0
1000000000,294994092,141084082,205213222,653702953,0,0,76954814,0,0,64129011,0,0
1000000000,294994094,141084082,205213220,653702954,0,0,76954815,0,0,64129011,0,0
1000000000,294994095,141084082,205213223,653702951,0,0,76954813,0,0,64129013,0,0
1000000000,294994097,141084083,205213224,653702953,0,0,76954812,0,0,64129011,0,0
1000000000,294994094,141084081,205213219,653702953,0,0,76954817,0,0,64129011,0,0
1000000000,294994095,141084082,205213223,653702951,0,0,76954813,0,0,64129013,0,0
1000000000,294994097,141084084,205213225,653702952,0,0,76954812,0,0,64129011,0,0
1000000000,294994093,141084080,205213217,653702957,0,0,76954816,0,0,64129010,0,0
1000000000,294994095,141084082,205213225,653702948,0,0,76954813,0,0,64129014,0,0
1000000000,294994093,141084083,205213222,653702954,0,0,76954813,0,0,64129011,0,0
1000000000,294994096,141084082,205213220,653702954,0,0,76954816,0,0,64129010,0,0
1000000000,294994093,141084082,205213224,653702949,0,0,76954813,0,0,64129014,0,0
1000000000,294994097,141084083,205213223,653702953,0,0,76954813,0,0,64129011,0,0
1000000000,294994093,141084080,205213217,653702956,0,0,76954817,0,0,64129010,0,0
1000000000,294994094,141084084,205213226,653702948,0,0,76954812,0,0,64129014,0,0
1000000000,294994097,141084083,205213222,653702954,0,0,76954813,0,0,64129011,0,0
1000000000,294994093,141084080,205213219,653702955,0,0,76954816,0,0,64129010,0,0
1000000000,294994093,141084082,205213225,653702948,0,0,76954813,0,0,64129014,0,0
1000000000,294994097,141084084,205213221,653702955,0,0,76954813,0,0,64129011,0,0
1000000000,294994094,141084081,205213221,653702954,0,0,76954815,0,0,64129010,0,0
1000000000,294994093,141084082,205213224,653702948,0,0,76954814,0,0,64129014,0,0
1000000000,294994097,141084083,205213221,653702955,0,0,76954813,0,0,64129011,0,0
1000000000,294994093,141084081,205213221,653702954,0,0,76954815,0,0,64129010,0,0
1000000000,294994096,141084082,205213222,653702950,0,0,76954814,0,0,64129014,0,0
1000000000,294994095,141084083,205213222,653702954,0,0,76954813,0,0,64129011,0,0
1000000000,294994093,141084081,205213221,653702954,0,0,76954815,0,0,64129010,0,0
1000000000,294994097,141084082,205213223,653702952,0,0,76954814,0,0,64129011,0,0
1000000000,294994094,141084083,205213222,653702952,0,0,76954813,0,0,64129013,0,0
1000000000,294994092,141084081,205213221,653702953,0,0,76954815,0,0,64129011,0,0
1000000000,294994096,141084083,205213223,653702949,0,0,76954814,0,0,64129014,0,0
1000000000,294994098,141084082,205213222,653702955,0,0,76954813,0,0,64129010,0,0
1000000000,294994092,141084081,205213222,653702952,0,0,76954815,0,0,64129011,0,0
1000000000,294994095,141084082,205213221,653702954,0,0,76954814,0,0,64129011,0,0
1000000000,294994094,141084083,205213222,653702951,0,0,76954813,0,0,64129014,0,0
1000000000,294994097,141084082,205213224,653702953,0,0,76954813,0,0,64129010,0,0
1000000000,294994094,141084082,205213220,653702953,0,0,76954816,0,0,64129011,0,0
1000000000,294994095,141084082,205213222,653702952,0,0,76954813,0,0,64129013,0,0
1000000000,294994097,141084083,205213225,653702952,0,0,76954812,0,0,64129011,0,0
1000000000,294994093,141084081,205213218,653702954,0,0,76954817,0,0,64129011,0,0
1000000000,294994096,141084081,205213224,653702951,0,0,76954812,0,0,64129013,0,0
1000000000,294994092,141084083,205213222,653702952,0,0,76954815,0,0,64129011,0,0
1000000000,294994097,141084082,205213220,653702956,0,0,76954814,0,0,64129010,0,0
1000000000,294994094,141084082,205213225,653702948,0,0,76954813,0,0,64129014,0,0
1000000000,294994095,141084083,205213222,653702954,0,0,76954813,0,0,64129011,0,0
1000000000,294994093,141084081,205213218,653702954,0,0,76954817,0,0,64129011,0,0
1000000000,294994095,141084083,205213226,653702949,0,0,76954812,0,0,64129013,0,0
1000000000,294994097,141084083,205213222,653702954,0,0,76954813,0,0,64129011,0,0
1000000000,294994094,141084080,205213218,653702956,0,0,76954816,0,0,64129010,0,0
1000000000,294994093,141084082,205213225,653702948,0,0,76954813,0,0,64129014,0,0
1000000000,294994097,141084085,205213222,653702954,0,0,76954813,0,0,64129011,0,0
1000000000,294994094,141084080,205213220,653702955,0,0,76954815,0,0,64129010,0,0
1000000000,294994093,141084082,205213224,653702948,0,0,76954814,0,0,64129014,0,0
1000000000,294994096,141084083,205213222,653702954,0,0,76954813,0,0,64129011,0,0
1000000000,294994094,141084082,205213220,653702955,0,0,76954815,0,0,64129010,0,0
1000000000,294994094,141084082,205213224,653702948,0,0,76954814,0,0,64129014,0,0
1000000000,294994096,141084083,205213221,653702955,0,0,76954813,0,0,64129011,0,0
1000000000,299944603,138931456,203062974,654482885,0,792,76156932,0,0,64033829,41,2262547
1000000000,452425911,67959739,139063057,670841155,0,13872,46986004,0,0,64757544,0,78338368
1000000000,452429977,67953933,139036928,670855231,0,13872,46981800,0,0,64766254,0,78345915
1000000000,452429906,67954033,139037373,670853847,0,13872,46983015,0,0,64766105,0,78345788
1000000000,452431014,67952449,139030254,670855965,0,13872,46983586,0,0,64768479,0,78347844
1000000000,452431233,67952136,139028844,670857890,0,13872,46982193,0,0,64768950,0,78348251
1000000000,452430919,67952584,139030863,670856208,0,13872,46983114,0,0,64768275,0,78347668
1000000000,452432416,67950473,139022006,670861436,0,13770,46981292,0,0,64771222,0,78350274
1000000000,452431628,67951571,139026308,670859146,0,13872,46981895,0,0,64769795,0,78348984
1000000000,452431074,67952367,139029874,670858666,0,13872,46981030,0,0,64768605,0,78347953
1000000000,452431333,67951993,139028201,670857449,0,13872,46982878,0,0,64769163,0,78348437
1000000000,452431612,67951595,139026410,670858965,0,13872,46982037,0,0,64769761,0,78348955
1000000000,452431940,67951126,139024302,670859898,0,13872,46981901,0,0,64770463,0,78349564
1000000000,452431608,67951602,139026432,670859727,0,13872,46981269,0,0,64769752,0,78348948
1000000000,452431584,67951660,139027354,670858779,0,13770,46981929,0,0,64769440,0,78348728
1000000000,452431267,67952088,139028630,670857988,0,13872,46982177,0,0,64769020,0,78348313
1000000000,452432112,67950880,139023192,670860142,0,13872,46982075,0,0,64770834,0,78349885
1000000000,452431483,67951780,139027242,670859775,0,13872,46980914,0,0,64769483,0,78348714
1000000000,452431926,67951147,139024388,670857762,0,13872,46984007,0,0,64770433,0,78349538
1000000000,452431851,67951255,139024879,670857339,0,13872,46984242,0,0,64770271,0,78349397
1000000000,452431199,67952207,139029824,670859600,0,13770,46980173,0,0,64768617,0,78348016
1000000000,452431714,67951452,139025758,670859979,0,13872,46981272,0,0,64769977,0,78349142
1000000000,452431557,67951671,139026755,670857665,0,13872,46983205,0,0,64769647,0,78348856
1000000000,452430944,67952552,139030709,670855270,0,13872,46984112,0,0,64768325,0,78347712
1000000000,452430980,67952498,139030473,670856663,0,13872,46982806,0,0,64768406,0,78347780
1000000000,452432075,67950935,139023440,670860720,0,13872,46981404,0,0,64770751,0,78349813
1000000000,452432121,67950866,139023130,670858457,0,13872,46983784,0,0,64770854,0,78349903
1000000000,452432460,67950410,139021732,670861892,0,13770,46980940,0,0,64771314,0,78350352
1000000000,452431891,67951197,139024611,670860506,0,13872,46981178,0,0,64770359,0,78349474
1000000000,452432877,67949789,139018283,670860270,0,13872,46983804,0,0,64772469,0,78351302
1000000000,452432292,67950624,139022036,670859239,0,13872,46983417,0,0,64771218,0,78350218
1000000000,452431350,67951969,139028091,670858037,0,13872,46982331,0,0,64769200,0,78348469
1000000000,452432229,67950713,139022441,670859784,0,13872,46982719,0,0,64771083,0,78350101
1000000000,452432739,67950010,139019932,670860591,0,13770,46982920,0,0,64771914,0,78350873
1000000000,452431294,67952047,139028447,670858425,0,13872,46981807,0,0,64769082,0,78348367
1000000000,452431809,67951314,139025145,670858591,0,13872,46982892,0,0,64770181,0,78349319
1000000000,452432044,67950981,139023638,670860280,0,13872,46981771,0,0,64770684,0,78349755
1000000000,452432134,67950849,139023052,670861032,0,13872,46981239,0,0,64770880,0,78349925
1000000000,452431659,67951527,139026106,670859347,0,13872,46981769,0,0,64769863,0,78349043
1000000000,452431683,67951497,139025962,670859258,0,13872,46981917,0,0,64769908,0,78349083
1000000000,452432040,67951006,139024418,670859531,0,13770,46982284,0,0,64770419,0,78349578
1000000000,452432108,67950888,139023224,670859292,0,13872,46982916,0,0,64770822,0,78349874
1000000000,452431886,67951203,139024642,670859699,0,13872,46981973,0,0,64770349,0,78349465
1000000000,452432023,67951009,139023770,670858320,0,13872,46983681,0,0,64770640,0,78349717
1000000000,452432136,67950846,139023042,670858798,0,13872,46983476,0,0,64770884,0,78349928
1000000000,452431968,67951088,139024122,670860919,0,13872,46980949,0,0,64770522,0,78349616
1000000000,452431472,67951794,139027304,670858805,0,13872,46981860,0,0,64769463,0,78348696
1000000000,452432830,67949878,139019341,670862637,0,13770,46981099,0,0,64772110,0,78351043
1000000000,452432157,67950818,139022915,670859970,0,13872,46982352,0,0,64770926,0,78349965
1000000000,452431836,67951277,139024970,670859624,0,13872,46981924,0,0,64770240,0,78349370
1000000000,452432225,67950719,139022466,670859457,0,13872,46983036,0,0,64771075,0,78350094
1000000000,452431823,67951291,139025048,670861484,0,13872,46980034,0,0,64770214,0,78349348
1000000000,452431309,67952032,139028370,670858684,0,13872,46981579,0,0,64769107,0,78348388
1000000000,452431971,67951106,139024861,670859966,0,13770,46981683,0,0,64770271,0,78349449
1000000000,452431947,67951118,139024261,670859712,0,13872,46982104,0,0,64770476,0,78349575
1000000000,452431723,67951435,139025693,670859669,0,13872,46981604,0,0,64770000,0,78349162
1000000000,452432334,67950564,139021766,670859250,0,13872,46983508,0,0,64771308,0,78350296
1000000000,452432186,67950775,139022722,670861517,0,13872,46980878,0,0,64770990,0,78350021
1000000000,452431639,67951558,139026235,670860449,0,13872,46980622,0,0,64769818,0,78349004
1000000000,452431655,67951534,139026138,670860191,0,13872,46980915,0,0,64769851,0,78349033
1000000000,452432013,67951045,139024592,670858819,0,13770,46982931,0,0,64770361,0,78349527
1000000000,452431974,67951079,139024082,670860487,0,13872,46981396,0,0,64770536,0,78349627
1000000000,452431713,67951450,139025759,670859357,0,13872,46981892,0,0,64769977,0,78349143
1000000000,452432126,67950863,139023107,670860533,0,13872,46981719,0,0,64770861,0,78349908
1000000000,452432481,67950354,139020828,670861059,0,13872,46982053,0,0,64771621,0,78350567
1000000000,452432541,67950268,139020435,670861626,0,13872,46981634,0,0,64771752,0,78350681
1000000000,452432399,67950495,139022115,670863443,0,13770,46979244,0,0,64771186,0,78350242
1000000000,452432157,67950816,139022905,670860621,0,13872,46981705,0,0,64770929,0,78349968
1000000000,452431784,67951349,139025302,670858781,0,13872,46982642,0,0,64770129,0,78349274
1000000000,452432446,67950404,139021046,670861037,0,13872,46981992,0,0,64771549,0,78350504
1000000000,452431662,67951524,139026091,670858652,0,13872,46982472,0,0,64769866,0,78349047
1000000000,452431948,67951116,139024247,670859258,0,13872,46982563,0,0,64770481,0,78349579
1000000000,452431632,67951567,139026288,670859786,0,13872,46981263,0,0,64769801,0,78348990
1000000000,452431929,67951167,139025131,670858664,0,13770,46982885,0,0,64770180,0,78349370
574950689,260120910,39070654,79934742,385711365,1,9976,27010997,79,48,37238707,160,45044621
