809151,12729,1037,102
801641,12534,10,2
801640,12533,10,2
801641,12534,10,2
801640,12533,10,2
801640,12533,10,2
801641,12534,10,2
801640,12534,10,2
801642,12533,10,2
801641,12533,10,2
801640,12533,10,2
801641,12535,10,2
801641,12533,10,2
801640,12533,10,2
801641,12533,10,2
801641,12534,10,2
801640,12534,10,2
801641,12533,10,2
801640,12533,10,2
801640,12534,10,2
801641,12533,10,2
801640,12534,10,2
801641,12533,10,2
801641,12534,10,2
801640,12533,10,2
801641,12533,10,2
801641,12534,10,2
801640,12534,10,2
801641,12533,10,2
801641,12533,10,2
801640,12533,10,2
801641,12535,10,2
801641,12533,10,2
801640,12533,10,2
801641,12533,10,2
801640,12534,10,2
801640,12534,10,2
801641,12533,10,2
801640,12533,10,2
801642,12534,10,2
801641,12533,10,2
801640,12534,10,2
801641,12533,10,2
801641,12534,10,2
801640,12533,10,2
801641,12533,10,2
801641,12534,10,2
801640,12534,10,2
801641,12533,10,2
801641,12533,10,2
801640,12533,10,2
801641,12535,10,2
801640,12533,10,2
801641,12533,10,2
801641,12533,10,2
801640,12534,10,2
801641,12534,10,2
801641,12533,10,2
801640,12533,10,2
801641,12534,10,2
801641,12533,10,2
801640,12534,10,2
801641,12533,10,2
801641,12534,10,2
801640,12533,10,2
801641,12533,10,2
801640,12534,10,2
801640,12534,10,2
801641,12533,10,2
801640,12533,10,2
801642,12533,10,2
801641,12535,10,2
801640,12533,10,2
801641,12533,10,2
801641,12533,10,2
801640,12534,10,2
801641,12534,10,2
820676,12870,186,29
861729,13477,87,14
861657,13475,87,14
861658,13475,87,14
861639,13475,87,14
861634,13475,87,14
861640,13475,87,14
861616,13474,87,14
861627,13475,87,14
861638,13475,87,14
861632,13475,87,14
861628,13474,87,14
861622,13476,87,14
861627,13474,87,14
861630,13475,87,14
861634,13475,87,14
861619,13475,87,14
861630,13474,87,14
861622,13475,87,14
861623,13475,87,14
861637,13475,87,14
861626,13474,87,14
861628,13475,87,14
861639,13475,87,14
861639,13475,87,14
861619,13474,87,14
861619,13475,87,14
861615,13475,87,14
861623,13475,87,14
861605,13474,87,14
861615,13474,87,14
861632,13476,87,14
861616,13474,87,14
861611,13474,87,14
861633,13476,87,14
861624,13474,87,14
861620,13475,87,14
861618,13474,87,14
861627,13475,87,14
861627,13475,87,14
861622,13474,87,14
861619,13475,87,14
861623,13475,87,14
861620,13475,87,14
861618,13474,87,14
861621,13474,87,14
861630,13476,87,14
861609,13474,87,14
861617,13475,87,14
861623,13475,87,14
861617,13474,87,14
861624,13475,87,14
861633,13474,87,14
861624,13476,87,14
861621,13474,87,14
861625,13475,87,14
861615,13474,87,14
861617,13475,87,14
861627,13475,87,14
861627,13474,87,14
861624,13475,87,14
861621,13475,87,14
861626,13475,87,14
861618,13474,87,14
861612,13475,87,14
861611,13475,87,14
861617,13474,87,14
861617,13474,87,14
861624,13476,87,14
861613,13474,87,14
861627,13475,87,14
861621,13474,87,14
861627,13474,87,14
861623,13474,87,14
501204,7921,600,77
number,of,instructions:,151574950619
