7013,158,1025,90
4118,72,55,11
4118,72,55,11
121183,1928,221,33
21890,358,128,18
21444,351,128,18
20300,334,128,18
20268,333,128,18
20692,340,127,18
21607,354,128,18
20735,340,128,18
21519,352,128,18
22073,362,112,18
22073,361,111,18
22072,361,111,18
22074,361,112,18
22073,362,112,18
22072,361,112,18
22073,361,112,18
22072,362,112,18
22073,361,112,18
22073,361,112,18
22072,361,111,18
22073,362,111,18
22072,361,111,18
22073,361,112,18
22072,361,112,18
22072,362,112,18
22072,361,112,18
22072,361,112,18
22073,362,112,18
22072,361,112,18
22073,361,112,18
22072,361,112,18
21203,348,128,18
20307,334,127,18
20281,333,128,18
20451,336,128,18
20302,333,128,18
20300,334,128,18
20272,333,128,18
21484,352,128,18
22101,362,112,18
22100,361,112,18
22101,362,112,18
22100,362,112,18
22100,361,112,18
21590,354,128,18
20761,341,128,18
20282,333,128,18
20279,333,128,18
20508,337,128,18
21323,349,128,18
20910,343,128,18
21699,356,128,18
21633,354,128,18
20377,335,128,18
20272,333,128,18
20425,335,128,18
21801,357,128,18
20683,340,128,18
21375,350,128,18
22072,361,112,18
22073,362,112,18
22072,361,112,18
22074,361,112,18
22073,361,112,18
22072,362,112,18
22073,361,112,18
22072,361,112,18
22073,361,112,18
22072,362,112,18
22073,361,112,18
22073,361,112,18
22072,362,112,18
22073,361,112,18
22072,361,111,18
22073,361,111,18
22073,362,111,18
22072,361,111,18
22073,361,112,18
22072,361,112,18
22073,362,112,18
22073,361,112,18
21363,350,128,18
20412,335,128,18
20279,334,128,18
20265,333,128,18
20490,336,128,18
20300,333,128,18
20272,334,128,18
21212,347,128,18
22101,362,112,18
22101,362,112,18
22100,361,112,18
22101,362,112,18
22100,362,112,18
21810,357,128,18
20809,341,128,18
20282,334,128,18
20279,333,128,18
20460,336,128,18
21259,348,128,18
3538282,55338,454,56
155126,2430,5,1
155126,2431,5,1
155124,2430,5,1
155134,2431,5,1
155133,2430,5,1
155126,2431,5,1
155120,2428,5,1
155125,2430,5,1
155124,2431,5,1
155135,2430,5,1
155134,2431,5,1
155129,2430,5,1
155324,2462,136,21
155240,2432,5,1
155228,2432,5,1
155238,2433,5,1
155238,2431,5,1
155236,2433,5,1
155212,2431,5,1
155237,2432,5,1
155228,2432,5,1
155230,2432,5,1
155239,2431,5,1
155236,2433,5,1
155266,2442,96,14
155231,2433,5,1
155228,2432,5,1
155229,2432,5,1
155236,2432,5,1
155234,2432,5,1
155209,2432,5,1
155230,2431,5,1
155229,2432,5,1
155230,2432,5,1
155236,2432,5,1
155235,2431,5,1
155268,2443,96,14
155231,2432,5,1
155229,2433,5,1
155228,2432,5,1
155235,2432,5,1
155235,2432,5,1
155212,2431,5,1
155232,2433,5,1
155229,2431,5,1
155228,2432,5,1
155235,2432,5,1
155235,2432,5,1
155274,2442,96,14
155231,2433,5,1
155229,2431,5,1
155228,2433,5,1
155235,2433,5,1
155235,2431,5,1
155222,2432,5,1
155230,2432,5,1
155229,2432,5,1
155230,2432,5,1
155234,2432,5,1
155235,2431,5,1
155282,2443,96,14
155233,2432,5,1
155228,2432,5,1
155229,2434,5,1
155234,2431,5,1
155236,2432,5,1
155233,2432,5,1
155226,2432,5,1
155230,2431,5,1
155228,2433,5,1
155235,2431,5,1
155235,2433,5,1
155233,2431,5,1
155281,2443,96,14
155234,2432,5,1
155231,2432,5,1
155234,2433,5,1
155235,2432,5,1
155234,2432,5,1
155228,2431,5,1
155234,2433,5,1
155230,2431,5,1
155229,2433,5,1
155234,2431,5,1
155235,2432,5,1
155285,2443,96,14
155235,2432,5,1
155228,2431,5,1
155230,2434,5,1
155235,2432,5,1
155234,2432,5,1
155231,2433,5,1
155236,2431,5,1
155230,2433,5,1
155229,2431,5,1
155234,2432,5,1
155235,2432,5,1
155286,2443,96,14
155237,2431,5,1
155229,2433,5,1
155229,2431,5,1
155235,2434,5,1
155231,2432,5,1
155232,2431,5,1
155235,2433,5,1
155229,2431,5,1
155229,2433,5,1
155233,2431,5,1
155231,2432,5,1
155284,2443,96,14
155234,2432,5,1
155230,2431,5,1
155228,2433,5,1
155235,2433,5,1
155234,2432,5,1
155233,2432,5,1
155235,2431,5,1
155228,2433,5,1
155229,2431,5,1
155236,2433,5,1
155232,2432,5,1
155289,2443,96,14
155235,2432,5,1
155229,2432,5,1
155229,2431,5,1
155234,2434,5,1
155234,2432,5,1
155234,2432,5,1
155235,2432,5,1
155234,2431,5,1
155228,2433,5,1
155233,2431,5,1
155234,2433,5,1
155233,2432,5,1
155287,2443,96,14
155237,2432,5,1
155229,2432,5,1
155227,2431,5,1
155233,2433,5,1
155234,2432,5,1
155232,2432,5,1
155235,2432,5,1
155229,2431,5,1
155228,2433,5,1
155234,2431,5,1
155234,2433,5,1
155290,2442,96,14
155237,2432,5,1
155229,2432,5,1
155229,2432,5,1
155233,2433,5,1
155235,2432,5,1
155236,2432,5,1
155236,2432,5,1
155229,2432,5,1
155229,2431,5,1
155234,2433,5,1
155234,2431,5,1
155288,2443,96,14
155236,2432,5,1
155229,2432,5,1
155229,2432,5,1
155234,2433,5,1
155228,2432,5,1
155235,2432,5,1
155238,2432,5,1
155228,2432,5,1
155229,2432,5,1
155234,2431,5,1
155229,2433,5,1
155290,2442,96,14
155235,2433,5,1
155229,2431,5,1
155229,2432,5,1
155234,2434,5,1
155234,2431,5,1
155234,2433,5,1
155237,2431,5,1
155230,2432,5,1
155228,2432,5,1
155234,2432,5,1
155234,2432,5,1
155288,2443,96,14
155237,2431,5,1
155227,2433,5,1
155229,2431,5,1
155234,2432,5,1
155234,2433,5,1
155235,2431,5,1
155236,2433,5,1
155234,2431,5,1
155230,2432,5,1
155233,2432,5,1
155234,2432,5,1
155236,2432,5,1
155287,2443,96,14
155237,2431,5,1
155228,2433,5,1
155229,2431,5,1
155234,2433,5,1
155235,2433,5,1
155235,2431,5,1
155236,2433,5,1
155229,2431,5,1
155230,2432,5,1
155233,2432,5,1
155235,2432,5,1
155289,2443,96,14
155237,2432,5,1
155230,2431,5,1
155228,2433,5,1
155234,2433,5,1
155235,2432,5,1
155235,2432,5,1
155237,2431,5,1
155228,2433,5,1
155229,2431,5,1
155234,2433,5,1
155230,2431,5,1
155290,2443,96,14
155236,2432,5,1
155229,2432,5,1
155230,2431,5,1
155233,2434,5,1
155229,2432,5,1
155235,2432,5,1
155237,2432,5,1
155229,2431,5,1
155228,2433,5,1
155233,2431,5,1
155228,2433,5,1
155289,2442,96,14
155237,2432,5,1
155228,2432,5,1
155229,2432,5,1
155235,2434,5,1
155233,2432,5,1
155235,2432,5,1
155237,2432,5,1
155229,2432,5,1
155229,2431,5,1
155233,2433,5,1
155234,2431,5,1
155235,2433,5,1
1980,88,532,65
number,of,instructions:,34801047865
