100000000 177314243 44723939 98437045 156052075 43656463 43950660 62464652 94911464 95344429 95749897 96048261
100000000 185717523 57143854 100444722 157142110 57131646 57135134 71422841 99989537 99998257 100010465 100026161
100000000 185717524 57143852 100444463 157142109 57131652 57135138 71422844 99989541 99998256 100010457 100026144
100000000 185717524 57143855 100444720 157142110 57131646 57135134 71422842 99989536 99998256 100010464 100026160
100000000 185717522 57143853 100444467 157142111 57131652 57135138 71422844 99989543 99998258 100010459 100026146
100000000 189815004 72667754 114129226 158446890 41420697 52940066 68641949 82818175 93859469 104284885 106487674
100000000 189910760 72979579 114299070 158532046 41155228 52902788 68628025 82505891 93759236 104385503 106622423
100000000 189917199 72980726 114281807 158538502 41156364 52904074 68630541 82508839 93761900 104387719 106623161
100000000 189920431 72981300 114273186 158541742 41156942 52904729 68631814 82510323 93763240 104388830 106623535
100000000 189922331 72981588 114267597 158543830 41157280 52905114 68632574 82511238 93764176 104389690 106623898
100000000 189923773 72981784 114262993 158545552 41157565 52905428 68633190 82511986 93764980 104390468 106624255
100000000 189924663 72981971 114260982 158546307 41157710 52905596 68633514 82512353 93765246 104390632 106624261
100000000 189925885 72982325 114257900 158546847 41157978 52906386 68634077 82512599 93765131 104390535 106623930
100000000 189940462 72994355 114244753 158540186 41164778 52931103 68645284 82509869 93747884 104374883 106608819
100000000 189939234 72994040 114246780 158539353 41164611 52930900 68644882 82509431 93747689 104374878 106608966
100000000 189938584 72994017 114249524 158538361 41164461 52930739 68644563 82509027 93747159 104374297 106608654
100000000 189936340 72993550 114254551 158536452 41164116 52930326 68643758 82508110 93746483 104373869 106608636
100000000 189934869 72993363 114259142 158534734 41163861 52930031 68643165 82507377 93745683 104373095 106608295
100000000 189931165 72992710 114268773 158531102 41163247 52929315 68641758 82505717 93744209 104371898 106607943
100000000 189924489 72991686 114287606 158523995 41162089 52927973 68639112 82502549 93741103 104369129 106606883
94593034 178379537 68252111 107910819 147329114 37912293 48964339 63532609 76418514 87117760 97352761 99905586
number of instructions: 2094592960
