100000000,73291,67215,67958,69349,86445,67277,68098,68285,1858436,68485,68852,67306,16080882,128304,68502
100000000,57853,57853,57853,57853,57876,57853,57853,57853,1844983,57853,57853,57853,16080812,115706,57853
100000000,57855,57855,57855,57855,57876,57855,57855,57855,1844987,57855,57855,57855,16080813,115710,57855
100000000,57854,57854,57854,57854,57875,57854,57854,57854,1844985,57854,57854,57854,16080811,115708,57854
100000000,57854,57854,57854,57854,57874,57854,57854,57854,1844984,57854,57854,57854,16080814,115708,57854
100000000,57853,57853,57853,57853,57867,57853,57853,57853,1844984,57853,57853,57853,16080811,115706,57853
100000000,57854,57854,57854,57854,57868,57854,57854,57854,1844984,57854,57854,57854,16080813,115708,57854
100000000,57854,57854,57854,57854,57868,57854,57854,57854,1844985,57854,57854,57854,16080812,115708,57854
100000000,57854,57854,57854,57854,57868,57854,57854,57854,1844984,57854,57854,57854,16080811,115708,57854
100000000,57853,57853,57853,57853,57864,57853,57853,57853,1844984,57853,57853,57853,16080812,115706,57853
100000000,57854,57854,57854,57854,57861,57854,57854,57854,1844984,57854,57854,57854,16080812,115708,57854
100000000,57854,57854,57854,57854,57861,57854,57854,57854,1844985,57854,57854,57854,16080813,115708,57854
100000000,57855,57855,57855,57855,57862,57855,57855,57855,1844987,57855,57855,57855,16080812,115710,57855
100000000,57853,57853,57853,57853,57860,57853,57853,57853,1844983,57853,57853,57853,16080814,115706,57853
100000000,57854,57854,57854,57854,57861,57854,57854,57854,1844985,57854,57854,57854,16080811,115708,57854
100000000,57854,57854,57854,57854,57861,57854,57854,57854,1844984,57854,57854,57854,16080813,115708,57854
100000000,57854,57854,57854,57854,57862,57854,57854,57854,1844985,57854,57854,57854,16080812,115708,57854
100000000,57853,57853,57853,57853,57860,57853,57853,57853,1844983,57853,57853,57853,16080811,115706,57853
100000000,57854,57854,57854,57854,57854,57854,57854,57854,1844985,57854,57854,57854,16080812,115708,57854
100000000,57854,57854,57854,57854,57854,57854,57854,57854,1844984,57854,57854,57854,16080812,115708,57854
100000000,57854,57854,57854,57854,57854,57854,57854,57854,1844983,57854,57854,57854,16080813,115708,57854
100000000,57854,57854,57854,57854,57854,57854,57854,57854,1844986,57854,57854,57854,16080812,115708,57854
100000000,57854,57854,57854,57854,57854,57854,57854,57854,1844984,57854,57854,57854,16080813,115708,57854
100000000,57854,57854,57854,57854,57854,57854,57854,57854,1844985,57854,57854,57854,16080812,115708,57854
100000000,57854,57854,57854,57854,57854,57854,57854,57854,1844984,57854,57854,57854,16080812,115708,57854
100000000,57854,57854,57854,57854,57854,57854,57854,57854,1844984,57854,57854,57854,16080812,115707,57854
100000000,57853,57853,57853,57853,57853,57853,57853,57853,1844984,57853,57853,57853,16080812,115707,57853
100000000,57854,57854,57854,57854,57854,57854,57854,57854,1844985,57854,57854,57854,16080812,115708,57854
100000000,57854,57854,57854,57854,57854,57854,57854,57854,1844984,57854,57854,57854,16080811,115708,57854
100000000,57854,57854,57854,57854,57854,57854,57854,57854,1844985,57854,57854,57854,16080814,115708,57854
100000000,57853,57853,57853,57853,57853,57853,57853,57853,1844983,57853,57853,57853,16080811,115706,57853
100000000,57855,57855,57855,57855,57855,57855,57855,57855,1844987,57855,57855,57855,16080814,115710,57855
100000000,57854,57854,57854,57854,57854,57854,57854,57854,1844985,57854,57854,57854,16080812,115708,57854
100000000,57854,57854,57854,57854,57854,57854,57854,57854,1844984,57854,57854,57854,16080812,115708,57854
100000000,57853,57853,57853,57853,57853,57853,57853,57853,1844984,57853,57853,57853,16080811,115706,57853
100000000,57854,57854,57854,57854,57854,57854,57854,57854,1844984,57854,57854,57854,16080813,115708,57854
100000000,57854,57854,57854,57854,57854,57854,57854,57854,1844985,57854,57854,57854,16080812,115708,57854
100000000,34911,33937,33774,34198,36729,34411,33763,34039,1396842,35535,34185,34325,12239721,68397,35060
100000000,2022,812,391,385,5679,1929,593,540,791253,6487,2425,2289,7046751,6052,5891
100000000,1618,658,339,307,5024,1702,553,516,791168,6393,2397,2268,7046624,5998,5830
100000000,1340,559,331,283,4622,1618,548,501,791171,6354,2396,2266,7046646,6000,5839
100000000,546,265,159,144,2055,739,261,233,785807,2927,1107,1041,7038331,2767,2693
100000000,945,420,274,234,3378,1214,433,399,788870,4891,1853,1748,7043090,4618,4492
100000000,631,280,185,156,2283,832,299,260,786554,3387,1283,1208,7039466,3202,3114
100000000,805,370,233,213,2917,1075,381,370,788082,4371,1655,1567,7041842,4126,4013
100000000,887,393,257,203,3240,1156,423,353,788984,4956,1870,1747,7043283,4680,4567
100000000,863,401,258,210,3214,1150,424,363,788987,4951,1867,1754,7043275,4688,4572
100000000,687,320,205,175,2553,919,338,304,787388,3921,1480,1397,7040780,3714,3618
100000000,800,374,247,223,2864,1071,394,370,788018,4341,1654,1560,7041744,4094,3974
100000000,950,446,281,238,3504,1249,468,410,789689,5415,2044,1920,7044368,5114,4982
100000000,593,284,179,161,2212,796,299,265,786614,3433,1296,1222,7039563,3243,3160
100000000,845,412,267,231,3141,1150,430,395,788859,4871,1845,1740,7043038,4598,4469
100000000,820,411,257,228,3149,1145,425,388,788915,4919,1854,1750,7043156,4644,4522
100000000,1080,541,341,298,4068,1481,559,513,791108,6323,2397,2258,7046543,5971,5801
100000000,907,456,289,243,3458,1238,474,414,789655,5402,2043,1919,7044330,5099,4967
100000000,1328,650,418,367,4976,1815,680,635,793430,7758,2938,2775,7050087,7347,7137
100000000,579,292,185,169,2190,806,301,287,786548,3399,1287,1218,7039466,3208,3116
100000000,653,331,210,185,2517,904,343,309,787396,3941,1489,1403,7040813,3729,3634
100000000,492,252,162,134,1873,684,260,235,785791,2911,1106,1042,7038307,2753,2678
100000000,1297,635,413,351,4992,1788,676,602,793607,7884,2973,2807,7050407,7472,7275
100000000,714,347,228,184,2806,973,377,325,788190,4434,1673,1568,7042036,4201,4096
100000000,901,454,290,259,3413,1271,474,443,789534,5318,2016,1903,7044097,5016,4866
100000000,709,362,223,193,2802,998,378,329,788147,4414,1664,1569,7041967,4174,4071
100000000,872,435,277,237,3453,1227,469,406,789766,5470,2062,1938,7044518,5171,5049
100000000,660,330,218,187,2492,913,348,314,787326,3891,1479,1400,7040686,3682,3581
100000000,1278,636,410,345,4986,1780,676,595,793548,7872,2968,2794,7050356,7448,7257
100000000,1375,686,442,399,5285,1943,725,683,794204,8283,3132,2965,7051323,7832,7618
100000000,1152,566,374,328,4339,1579,602,549,791878,6782,2571,2425,7047690,6417,6230
100000000,988,476,324,278,3734,1350,520,477,790281,5806,2210,2071,7045287,5474,5312
100000000,404,197,130,108,1556,555,211,185,785063,2444,921,865,7037166,2306,2242
100000000,1056,513,339,280,4081,1453,560,485,791277,6435,2432,2288,7046848,6083,5935
100000000,879,480,312,314,3372,1275,496,436,789309,5182,1990,1865,7043766,4890,4721
100000000,707,355,235,181,2830,983,407,285,788199,4457,1695,1562,7042079,4217,4116
100000000,626,319,212,170,2510,896,362,272,787387,3935,1500,1385,7040812,3728,3630
100000000,627,309,210,158,2492,875,355,266,787379,3931,1493,1375,7040777,3714,3612
100000000,867,434,286,225,3429,1219,488,370,789684,5407,2051,1893,7044346,5105,4967
100000000,619,316,206,169,2498,900,355,270,787383,3933,1491,1380,7040778,3714,3618
100000000,312,151,103,80,1245,439,176,132,784326,1963,746,688,7036028,1861,1812
100000000,948,487,316,267,3757,1363,538,424,790468,5906,2243,2086,7045558,5584,5437
100000000,869,435,286,232,3430,1232,492,375,789729,5436,2063,1908,7044419,5134,5003
100000000,1266,652,428,355,4988,1826,725,570,793424,7819,2977,2763,7050166,7389,7184
100000000,481,249,163,146,1830,684,272,227,785699,2832,1085,1010,7038103,2673,2586
100000000,569,285,194,161,2193,808,322,261,786539,3409,1302,1205,7039474,3214,3121
100000000,856,443,285,241,3433,1240,490,388,789620,5366,2039,1891,7044251,5070,4933
100000000,1343,658,444,352,5288,1894,752,589,794309,8342,3167,2933,7051499,7894,7675
100000000,1099,562,370,318,4314,1579,626,503,791817,6748,2574,2394,7047603,6381,6193
100000000,711,356,237,188,2798,1003,404,304,788138,4410,1678,1548,7041948,4173,4059
100000000,638,317,212,181,2471,914,360,294,787308,3876,1479,1373,7040627,3656,3554
100000000,548,270,182,135,2188,762,312,221,786658,3471,1316,1208,7039670,3278,3196
100000000,958,494,325,293,3705,1383,543,457,790216,5727,2193,2047,7045109,5409,5241
100000000,470,232,155,117,1876,651,267,193,785911,2986,1132,1042,7038501,2828,2754
100000000,1008,505,331,261,4048,1434,575,423,791289,6421,2433,2250,7046849,6077,5922
100000000,783,398,259,214,3099,1118,446,339,788906,4900,1862,1725,7043130,4635,4512
100000000,1412,725,470,387,5583,2017,806,619,794953,8758,3333,3093,7052492,8288,8059
100000000,943,496,320,280,3711,1363,542,443,790288,5792,2209,2060,7045261,5471,5313
100000000,630,311,207,165,2477,877,357,266,787357,3903,1488,1370,7040730,3695,3594
100000000,628,321,208,169,2501,899,356,283,787404,3942,1495,1384,7040803,3727,3627
100000000,1173,610,393,331,4670,1693,670,533,792670,7319,2781,2580,7048975,6914,6723
100000000,950,491,321,272,3707,1368,544,433,790282,5782,2212,2050,7045260,5467,5310
100000000,1094,551,360,293,4355,1563,623,468,792093,6934,2627,2441,7048083,6560,6400
100000000,870,444,292,236,3429,1234,497,382,789624,5384,2050,1896,7044275,5086,4945
100000000,304,158,101,81,1247,446,176,133,784338,1975,748,694,7036053,1871,1825
100000000,621,314,203,168,2481,891,352,274,787365,3906,1482,1375,7040729,3694,3593
100000000,705,345,231,181,2806,989,401,291,788223,4455,1693,1563,7042089,4224,4120
100000000,552,282,184,154,2183,798,313,254,786610,3439,1305,1213,7039566,3243,3159
100000000,1549,801,515,436,6200,2261,887,708,796516,9758,3705,3447,7054908,9227,8980
100000000,311,154,104,78,1256,441,180,127,784362,1996,758,699,7036105,1889,1846
100000000,797,413,266,228,3124,1144,450,366,788899,4901,1862,1731,7043111,4634,4502
100000000,930,473,311,254,3710,1337,534,394,790396,5842,2221,2061,7045430,5528,5382
100000000,780,395,258,214,3105,1115,445,336,788942,4918,1864,1730,7043185,4657,4536
100000000,707,361,236,190,2823,1013,408,312,788133,4429,1687,1558,7041968,4186,4077
100000000,316,158,107,85,1239,448,179,137,784299,1954,742,685,7035979,1843,1792
100000000,1187,600,400,324,4667,1689,672,532,792687,7329,2788,2584,7048993,6922,6730
100000000,867,427,289,233,3392,1223,494,379,789617,5347,2041,1885,7044214,5057,4913
100000000,1016,514,340,275,4075,1462,584,440,791254,6429,2440,2257,7046822,6078,5923
100000000,1178,593,389,330,4637,1693,671,525,792649,7275,2771,2574,7048902,6888,6692
100000000,1124,544,380,304,4361,1560,633,489,791915,6834,2608,2410,7047814,6466,6283
100000000,393,197,134,105,1567,559,228,165,785075,2469,939,866,7037217,2329,2269
100000000,778,399,257,211,3117,1116,445,331,788978,4945,1874,1739,7043256,4684,4565
100000000,804,394,266,209,3100,1112,452,339,788896,4894,1866,1724,7043113,4624,4500
100000000,1267,641,427,346,4971,1798,725,552,793436,7809,2977,2755,7050164,7388,7184
100000000,631,317,210,171,2490,898,358,273,787355,3916,1489,1376,7040729,3699,3599
100000000,793,403,263,222,3107,1130,448,358,788915,4887,1858,1733,7043111,4627,4500
100000000,72992,78047,71862,74829,75575,78260,71872,72192,542136,75606,72539,72507,5893868,112214,73832
100000000,175256,177263,175203,176022,175777,178029,175193,175196,175301,177066,175192,175192,4174036,270504,175192
100000000,174628,175577,174593,174868,174744,175708,174588,174588,174620,176363,174588,174588,4174012,270206,174588
100000000,175498,176242,175447,175649,175559,176193,175444,175444,175485,177317,175444,175444,4174049,270222,175444
100000000,175464,175934,175413,175552,175539,175825,175413,175413,175413,177222,175413,175413,4174045,270766,175413
100000000,174873,175212,174825,174919,174883,175115,174825,174825,174825,176719,174825,174825,4174021,269846,174825
100000000,174518,174854,174479,174549,174550,174784,174479,174479,174479,176352,174479,174479,4174009,268813,174479
100000000,175510,175843,175488,175536,175557,175699,175488,175488,175488,177267,175488,175488,4174048,270577,175488
100000000,175198,175434,175163,175215,175214,175326,175163,175163,175163,176940,175163,175163,4174036,269896,175163
100000000,175732,175953,175697,175744,175727,175836,175697,175697,175697,177526,175697,175697,4174058,270936,175697
100000000,175033,175217,175001,175037,175012,175129,175001,175001,175001,176887,175001,175001,4174030,269480,175001
100000000,175509,175663,175476,175506,175488,175590,175476,175476,175476,177353,175476,175476,4174048,270832,175476
100000000,175024,175127,174985,175000,174995,175097,174985,174985,174985,176796,174985,174985,4174030,270158,174985
100000000,175159,175313,175134,175156,175135,175267,175134,175134,175134,176986,175134,175134,4174035,270340,175134
100000000,174087,174221,174056,174081,174068,174166,174056,174056,174056,175883,174056,174056,4173989,269034,174056
100000000,175125,175244,175105,175138,175109,175190,175105,175105,175105,176930,175105,175105,4174034,269985,175105
100000000,176319,176451,176288,176302,176291,176371,176288,176288,176288,178151,176288,176288,4174081,272037,176288
100000000,174632,174781,174613,174641,174619,174693,174613,174613,174613,176437,174613,174613,4174015,270088,174613
100000000,175061,175182,175044,175067,175050,175101,175044,175044,175044,176887,175044,175044,4174030,270200,175044
100000000,174179,174310,174170,174183,174173,174232,174170,174170,174170,175979,174170,174170,4173994,269328,174170
100000000,174412,174546,174402,174409,174404,174470,174402,174402,174402,176250,174402,174402,4174006,269204,174402
100000000,174095,174219,174077,174088,174084,174144,174077,174077,174077,175923,174077,174077,4173989,269257,174077
100000000,175232,175320,175217,175220,175224,175277,175217,175217,175217,177043,175217,175217,4174039,270603,175217
100000000,174286,174393,174279,174289,174285,174360,174279,174279,174279,176140,174279,174279,4174000,268754,174279
100000000,174932,175056,174924,174935,174929,174994,174924,174924,174924,176736,174924,174924,4174024,270284,174924
100000000,174373,174476,174365,174377,174370,174412,174365,174365,174365,176168,174365,174365,4174003,269290,174365
100000000,174371,174477,174366,174377,174371,174417,174366,174366,174366,176158,174366,174366,4174003,269672,174366
100000000,175296,175387,175285,175294,175290,175340,175285,175285,175285,177184,175285,175285,4174040,270480,175285
100000000,175369,175457,175361,175366,175366,175420,175361,175361,175361,177149,175361,175361,4174045,270290,175361
100000000,175328,175388,175321,175327,175330,175378,175321,175321,175321,177185,175321,175321,4174042,270460,175321
100000000,175216,175308,175211,175212,175215,175282,175211,175211,175211,177069,175211,175211,4174039,269918,175211
100000000,174421,174499,174414,174422,174421,174475,174414,174414,174414,176239,174414,174414,4174003,269748,174414
100000000,175066,175162,175060,175068,175064,175121,175060,175060,175060,176938,175060,175060,4174033,269994,175060
100000000,175872,175963,175863,175872,175870,175914,175863,175863,175863,177759,175863,175863,4174064,270688,175863
100000000,174183,174242,174174,174178,174176,174254,174174,174174,174174,175997,174174,174174,4173995,269326,174174
100000000,174883,174947,174875,174881,174877,174951,174875,174875,174875,176718,174875,174875,4174024,269850,174875
100000000,175540,175610,175534,175544,175535,175617,175534,175534,175534,177378,175534,175534,4174053,270592,175534
100000000,175011,175097,175008,175010,175010,175095,175008,175008,175008,176861,175008,175008,4174027,270246,175008
100000000,174402,174464,174394,174398,174396,174452,174394,174394,174394,176203,174394,174394,4174004,269195,174394
100000000,173787,173842,173784,173790,173785,173855,173784,173784,173784,175605,173784,173784,4173979,269185,173784
100000000,174291,174359,174287,174291,174289,174353,174287,174287,174287,176105,174287,174287,4174000,269716,174287
100000000,174648,174738,174639,174643,174643,174721,174639,174639,174639,176419,174639,174639,4174015,269222,174639
100000000,175874,175949,175870,175874,175871,175934,175870,175870,175870,177718,175870,175870,4174063,270777,175870
100000000,175470,175521,175464,175464,175466,175534,175464,175464,175464,177322,175464,175464,4174051,270503,175464
100000000,174348,174421,174345,174345,174346,174397,174345,174345,174345,176181,174345,174345,4174001,269818,174345
100000000,174968,175029,174964,174966,174965,175049,174964,174964,174964,176751,174964,174964,4174027,270322,174964
100000000,175174,175243,175168,175171,175170,175225,175168,175168,175168,177035,175168,175168,4174036,270862,175168
100000000,175601,175667,175595,175596,175596,175667,175595,175595,175595,177482,175595,175595,4174054,270582,175595
100000000,147347,147402,147319,147335,147437,147390,147313,147320,147760,148857,147301,147310,4034599,226583,147278
100000000,407,407,407,407,407,407,407,407,548,407,407,407,3333754,814,407
100000000,407,407,407,407,407,407,407,407,407,407,407,407,3333754,814,407
100000000,407,407,407,407,407,407,407,407,407,407,407,407,3333754,814,407
100000000,407,407,407,407,407,407,407,407,407,407,407,407,3333754,814,407
100000000,406,406,406,406,406,406,406,406,406,406,406,406,3333753,812,406
100000000,407,407,407,407,407,407,407,407,407,407,407,407,3333753,814,407
100000000,407,407,407,407,407,407,407,407,407,407,407,407,3333754,814,407
100000000,407,407,407,407,407,407,407,407,407,407,407,407,3333754,814,407
100000000,407,407,407,407,407,407,407,407,407,407,407,407,3333754,814,407
100000000,407,407,407,407,407,407,407,407,407,407,407,407,3333754,814,407
100000000,407,407,407,407,407,407,407,407,407,407,407,407,3333754,814,407
100000000,406,406,406,406,406,406,406,406,406,406,406,406,3333753,812,406
100000000,407,407,407,407,407,407,407,407,407,407,407,407,3333754,814,407
100000000,407,407,407,407,407,407,407,407,407,407,407,407,3333754,814,407
100000000,407,407,407,407,407,407,407,407,407,407,407,407,3333754,814,407
100000000,407,407,407,407,407,407,407,407,407,407,407,407,3333753,814,407
100000000,407,407,407,407,407,407,407,407,407,407,407,407,3333754,814,407
100000000,407,407,407,407,407,407,407,407,407,407,407,407,3333754,814,407
100000000,406,406,406,406,406,406,406,406,406,406,406,406,3333753,812,406
100000000,10132,10136,10116,10136,10139,10144,10109,10132,10528,10229,10098,10125,3372038,12319,10091
100000000,282484,283186,282463,282498,282474,283259,282463,282465,282577,286697,282463,282463,4178508,360920,282463
100000000,283554,284234,283542,283572,283546,284237,283542,283542,283548,287752,283542,283542,4178552,362006,283542
100000000,283146,283798,283135,283157,283144,283700,283135,283135,283135,287251,283135,283135,4178533,361746,283135
100000000,283055,283622,283046,283071,283053,283727,283046,283046,283046,287235,283046,283046,4178533,360710,283046
100000000,282367,282937,282354,282384,282362,282971,282354,282354,282354,286543,282354,282354,4178502,361124,282354
100000000,283389,283911,283372,283401,283372,284083,283372,283372,283372,287680,283372,283372,4178543,361507,283372
100000000,283283,283727,283271,283277,283271,283881,283271,283271,283271,287671,283271,283271,4178542,361986,283271
100000000,284212,284630,284195,284215,284195,284840,284195,284195,284195,288518,284195,284195,4178578,362071,284195
100000000,283189,283596,283180,283190,283180,283870,283180,283180,283180,287371,283180,283180,4178536,361570,283180
100000000,282703,283078,282688,282690,282688,283355,282688,282688,282688,287095,282688,282688,4178518,361376,282688
100000000,284256,284601,284245,284252,284245,284979,284245,284245,284245,288428,284245,284245,4178581,362568,284245
100000000,283399,283741,283384,283392,283384,284059,283384,283384,283384,287685,283384,283384,4178545,361340,283384
100000000,283974,284340,283969,283978,283969,284572,283969,283969,283969,288301,283969,283969,4178569,362590,283969
100000000,282261,282561,282251,282255,282251,282847,282251,282251,282251,286304,282251,282251,4178497,361228,282251
100000000,283458,283770,283448,283462,283448,284108,283448,283448,283448,287762,283448,283448,4178548,362226,283448
100000000,283948,284242,283945,283949,283945,284683,283945,283945,283945,288278,283945,283945,4178569,361824,283945
100000000,283108,283382,283106,283113,283106,283754,283106,283106,283106,287446,283106,283106,4178533,362437,283106
100000000,282764,282990,282757,282761,282757,283413,282757,282757,282757,287433,282757,282757,4178521,361611,282757
100000000,283407,283678,283400,283404,283400,284045,283400,283400,283400,287664,283400,283400,4178545,361892,283400
100000000,281950,282178,281946,281946,281946,282536,281946,281946,281946,286142,281946,281946,4178485,360281,281946
100000000,282143,282401,282140,282143,282140,282850,282140,282140,282140,286405,282140,282140,4178494,360999,282140
100000000,282809,282996,282802,282803,282802,283416,282802,282802,282802,286976,282802,282802,4178521,361622,282802
100000000,282465,282678,282453,282454,282453,283088,282453,282453,282453,286666,282453,282453,4178506,360914,282453
100000000,283204,283401,283196,283198,283196,283835,283196,283196,283196,287526,283196,283196,4178536,361516,283196
100000000,282533,282735,282528,282527,282528,283220,282528,282528,282528,286888,282528,282528,4178511,360926,282528
100000000,281747,281941,281741,281742,281741,282422,281741,281741,281741,285880,281741,281741,4178477,360741,281741
100000000,283028,283235,283022,283024,283022,283602,283022,283022,283022,287290,283022,283022,4178530,361628,283022
100000000,284132,284321,284129,284130,284129,284864,284129,284129,284129,288497,284129,284129,4178575,362855,284129
100000000,283018,283191,283015,283018,283015,283620,283015,283015,283015,287202,283015,283015,4178530,361360,283015
100000000,284179,284350,284170,284170,284170,284879,284170,284170,284170,288418,284170,284170,4178578,361957,284170
100000000,281996,282156,281988,281986,281988,282660,281988,281988,281988,286195,281988,281988,4178488,361002,281988
100000000,285036,285225,285033,285036,285033,285709,285033,285033,285033,289404,285033,285033,4178614,362861,285033
100000000,283919,284071,283909,283909,283909,284589,283909,283909,283909,288284,283909,283909,4178566,362395,283909
100000000,282294,282476,282289,282289,282289,282917,282289,282289,282289,286320,282289,282289,4178500,361443,282289
100000000,283172,283310,283165,283164,283165,283847,283165,283165,283165,287485,283165,283165,4178536,361924,283165
100000000,284047,284218,284042,284041,284042,284741,284042,284042,284042,288273,284042,284042,4178572,362154,284042
100000000,282522,282714,282518,282518,282518,283201,282518,282518,282518,286654,282518,282518,4178509,361662,282518
100000000,282527,282676,282523,282524,282523,283174,282523,282523,282523,286731,282523,282523,4178509,360724,282523
100000000,282442,282573,282438,282438,282438,283088,282438,282438,282438,286694,282438,282438,4178506,361109,282438
100000000,281669,281812,281667,281669,281667,282313,281667,281667,281667,286100,281667,281667,4178473,361241,281667
100000000,283434,283583,283432,283432,283432,284124,283432,283432,283432,287651,283432,283432,4178548,361182,283432
100000000,283167,283338,283166,283169,283166,283838,283166,283166,283166,287285,283166,283166,4178536,361350,283166
100000000,283595,283761,283592,283593,283592,284260,283592,283592,283592,287767,283592,283592,4178554,360725,283592
100000000,282408,282561,282405,282405,282405,283104,282405,282405,282405,286521,282405,282405,4178505,361547,282405
100000000,283621,283774,283619,283619,283619,284301,283619,283619,283619,287729,283619,283619,4178555,361844,283619
100000000,283522,283651,283518,283519,283518,284267,283518,283518,283518,287815,283518,283518,4178551,361944,283518
100000000,283895,284014,283892,283892,283892,284586,283892,283892,283892,288195,283892,283892,4178566,362311,283892
100000000,283980,284066,283973,283973,283973,284642,283973,283973,283973,288326,283973,283973,4178569,362134,283973
100000000,45136,45122,45109,45145,45154,45206,45109,45141,45660,45646,45109,45136,3464779,57106,45109
100000000,407,407,407,407,407,407,407,407,407,407,407,407,3333753,814,407
100000000,407,407,407,407,407,407,407,407,407,407,407,407,3333754,814,407
100000000,407,407,407,407,407,407,407,407,407,407,407,407,3333754,814,407
100000000,407,407,407,407,407,407,407,407,407,407,407,407,3333754,814,407
100000000,407,407,407,407,407,407,407,407,407,407,407,407,3333754,814,407
100000000,406,406,406,406,406,406,406,406,406,406,406,406,3333753,812,406
100000000,407,407,407,407,407,407,407,407,407,407,407,407,3333754,814,407
100000000,407,407,407,407,407,407,407,407,407,407,407,407,3333754,814,407
100000000,407,407,407,407,407,407,407,407,407,407,407,407,3333754,814,407
100000000,407,407,407,407,407,407,407,407,407,407,407,407,3333753,814,407
100000000,407,407,407,407,407,407,407,407,407,407,407,407,3333754,814,407
100000000,407,407,407,407,407,407,407,407,407,407,407,407,3333754,814,407
100000000,406,406,406,406,406,406,406,406,406,406,406,406,3333753,812,406
100000000,407,407,407,407,407,407,407,407,407,407,407,407,3333754,814,407
100000000,407,407,407,407,407,407,407,407,407,407,407,407,3333754,814,407
100000000,407,407,407,407,407,407,407,407,407,407,407,407,3333754,814,407
100000000,407,407,407,407,407,407,407,407,407,407,407,407,3333754,814,407
100000000,407,407,407,407,407,407,407,407,407,407,407,407,3333754,814,407
100000000,407,407,407,407,407,407,407,407,407,407,407,407,3333754,814,407
29037218,1658,1042,801,1015,2849,890,763,949,2118,967,723,863,972736,789,499
