1000000000,264981934,134516976,243503449,582852208,395104,79400165,7979319,9624,3951568,72882308,2415675,6133842
1000000000,264836394,134845404,243079172,582517799,391435,80234509,7840959,0,3927958,73009863,2397239,6117625
1000000000,265009641,134205633,244323922,583106607,396136,78516583,7929589,0,3968952,72662253,2422009,6185462
1000000000,265002127,134068013,244335422,583366392,394997,78402574,7905161,0,3955710,72489181,2413265,6250442
1000000000,264948396,133999435,244326145,583485094,394597,78362613,7893861,0,3948110,72418620,2408286,6276752
1000000000,264907161,134309611,243712015,583226197,391973,79187079,7848170,0,3929370,72572863,2398058,6250660
1000000000,300575511,116780184,110499685,517063554,147048,29038316,2943070,31,286791391,42586859,897299,7348347
1000000000,328169385,105502026,29437223,474924658,0,1778,171,0,456836163,26251298,16,8365805
1000000000,324353990,106345265,30414857,476321970,0,2300,222,0,455710360,25404009,20,8097522
1000000000,326742006,104957264,30188228,474781744,0,1986,192,0,456662465,25958087,17,8271533
1000000000,326282014,105677228,30278842,475544264,0,2194,210,0,456207221,25686775,19,8186997
1000000000,324818656,105620815,30318482,475549890,0,2092,204,0,456179148,25675961,18,8182816
1000000000,328171650,105499876,29434467,474920086,0,1778,171,0,456842641,26251603,16,8366169
1000000000,324353345,106345923,30415818,476323417,0,2300,222,0,455708306,25403865,20,8097382
1000000000,326742215,104957057,30187971,474781307,0,1986,192,0,456663079,25958116,17,8271567
1000000000,324349128,106349936,30420963,476331959,0,2300,222,0,455696199,25403299,20,8096706
1000000000,326749892,104949650,30178212,474765428,0,1986,192,0,456685597,25959272,17,8272877
1000000000,328198150,105517979,29430351,474931873,0,1883,179,0,456845917,26243473,17,8364215
1000000000,324322711,106331882,30425470,476320417,0,2195,214,0,455692567,25411280,19,8098572
1000000000,326748696,104950734,30179512,474767695,0,1986,192,0,456682381,25959161,17,8272717
1000000000,324353248,106346001,30415835,476323542,0,2300,222,0,455708137,25403885,20,8097386
1000000000,326743540,104955766,30186285,474778548,0,1986,192,0,456666990,25958311,17,8271793
1000000000,327048044,105410383,30222669,475231486,0,2194,210,0,456410842,25798675,19,8222617
1000000000,325472701,106439553,29633111,476020906,0,1884,183,0,456127507,25856125,17,8240189
1000000000,326750041,104949473,30177953,474765030,0,1986,192,0,456686152,25959314,17,8272916
1000000000,324356629,106342729,30411507,476316522,0,2300,222,0,455718090,25404405,20,8097970
1000000000,326739919,104959305,30191027,474786170,0,1986,192,0,456656181,25957726,17,8271147
1000000000,324347781,106351050,30421961,476334165,0,2300,222,0,455693088,25403327,20,8096625
1000000000,328171753,105499981,29435162,474920539,0,1778,171,0,456841978,26251349,16,8366015
1000000000,326756627,104943184,30169734,474751561,0,1986,192,0,456705261,25960258,17,8274006
1000000000,324344098,106354870,30427692,476342645,0,2300,222,0,455681034,25402435,20,8095782
1000000000,326748420,104951010,30179839,474768269,0,1986,192,0,456681577,25959128,17,8272674
1000000000,324352161,106347042,30417210,476325784,0,2300,222,0,455704957,25403723,20,8097203
1000000000,328165398,105505936,29442561,474933128,0,1778,171,0,456824139,26250613,16,8365073
1000000000,325813810,105840450,30313347,475735731,0,2194,210,0,456082308,25618395,19,8165211
1000000000,325286593,105457847,30284263,475358945,0,2092,204,0,456303324,25744321,18,8204568
1000000000,326749781,104949733,30178272,474765580,0,1986,192,0,456685382,25959281,17,8272873
1000000000,324357095,106342265,30410928,476315548,0,2300,222,0,455719465,25404467,20,8098047
1000000000,328160697,105510518,29448598,474942947,0,1778,171,0,456810235,26249886,16,8364256
1000000000,324349806,106349296,30420136,476330599,0,2300,222,0,455698122,25403395,20,8096818
1000000000,326748943,104950535,30179380,474767320,0,1986,192,0,456682906,25959136,17,8272721
1000000000,326754880,104944845,30171905,474755126,0,1986,192,0,456700203,25960011,17,8273719
1000000000,324346561,106352530,30424674,476337652,0,2300,222,0,455688117,25402770,20,8096178
1000000000,328168482,105502905,29438360,474926537,0,1778,171,0,456833502,26251168,16,8365655
1000000000,324353823,106345425,30415058,476322306,0,2300,222,0,455709887,25403986,20,8097495
1000000000,326742596,104956674,30187470,474780487,0,1986,192,0,456664240,25958175,17,8271634
1000000000,326580012,105573429,30256991,475422595,0,2194,210,0,456286427,25730305,19,8200853
1000000000,324520707,105724593,30340290,475671503,0,2092,204,0,456100030,25632436,18,8168964
1000000000,328171008,105500498,29435268,474921411,0,1778,171,0,456840764,26251513,16,8366063
1000000000,324354432,106344814,30414245,476321000,0,2300,222,0,455711733,25404090,20,8097608
1000000000,326741419,104957880,30189181,474783117,0,1986,192,0,456660510,25957931,17,8271389
1000000000,324348825,106350211,30421314,476332549,0,2300,222,0,455695359,25403264,20,8096662
1000000000,326750531,104949052,30177443,474764147,0,1986,192,0,456687419,25959352,17,8272975
1000000000,328177721,105494178,29427365,474908033,0,1778,171,0,456859720,26252318,16,8367077
1000000000,324343137,106355689,30428454,476344267,0,2300,222,0,455678750,25402440,20,8095712
1000000000,326748583,104950843,30179661,474767932,0,1986,192,0,456682044,25959141,17,8272697
1000000000,324352737,106346476,30416468,476324572,0,2300,222,0,455706672,25403812,20,8097303
1000000000,326744050,104955277,30185625,474777482,0,1986,192,0,456668499,25958394,17,8271882
1000000000,327269048,105483196,30141824,475306501,0,2089,200,0,456352502,25842161,18,8236483
1000000000,325251802,106366652,29713850,475945707,0,1989,193,0,456186109,25812647,18,8226336
1000000000,326749812,104949688,30178233,474765490,0,1986,192,0,456685504,25959281,17,8272877
1000000000,324357768,106341638,30410093,476314196,0,2300,222,0,455721387,25404566,20,8098158
1000000000,326738908,104960254,30192286,474788211,0,1986,192,0,456653276,25957580,17,8270981
1000000000,324346229,106352016,30421854,476335674,0,2300,222,0,455690993,25403770,20,8096792
1000000000,328173453,105498905,29435094,474918774,0,1778,171,0,456844447,26250928,16,8365871
1000000000,326755935,104943804,30170534,474752888,0,1986,192,0,456703371,25960176,17,8273903
1000000000,324344834,106354192,30426826,476341207,0,2300,222,0,455683081,25402525,20,8095894
1000000000,326747879,104951517,30180512,474769358,0,1986,192,0,456680029,25959048,17,8272584
1000000000,324351996,106347206,30417420,476326133,0,2300,222,0,455704458,25403703,20,8097177
1000000000,328165955,105505414,29441846,474931989,0,1778,171,0,456825766,26250698,16,8365167
1000000000,326111842,105736586,30291454,475613953,0,2194,210,0,456161656,25661925,19,8179073
1000000000,324988623,105561646,30306097,475480600,0,2092,204,0,456224147,25700792,18,8190713
1000000000,326750172,104949352,30177787,474764763,0,1986,192,0,456686535,25959334,17,8272936
1000000000,324356089,106343253,30412185,476317646,0,2300,222,0,455716502,25404326,20,8097880
1000000000,328160966,105510227,29448255,474942351,0,1778,171,0,456811060,26249928,16,8364305
1000000000,324349526,106349564,30420476,476331169,0,2300,222,0,455697321,25403355,20,8096772
1000000000,326749596,104949935,30178578,474766028,0,1986,192,0,456684750,25959228,17,8272826
1000000000,326754234,104945443,30172710,474756411,0,1986,192,0,456698370,25959914,17,8273612
1000000000,324347783,106351382,30423155,476335182,0,2300,222,0,455691630,25402945,20,8096378
1000000000,328167734,105503579,29439227,474927986,0,1778,171,0,456831435,26251083,16,8365547
1000000000,324353352,106345907,30415711,476323345,0,2300,222,0,455708417,25403900,20,8097404
1000000000,326743171,104956121,30186749,474779298,0,1986,192,0,456665926,25958256,17,8271729
1000000000,326878027,105469596,30235105,475300870,0,2194,210,0,456365710,25773840,19,8214715
1000000000,324222767,105828354,30362086,475793081,0,2092,204,0,456020953,25588913,18,8155115
1000000000,328170357,105501112,29436077,474922726,0,1778,171,0,456838900,26251416,16,8365954
1000000000,324355789,106343526,30412557,476318237,0,2300,222,0,455715652,25404285,20,8097832
1000000000,326740570,104958684,30190218,474784836,0,1986,192,0,456658074,25957816,17,8271253
1000000000,324348202,106350760,30421881,476333666,0,2300,222,0,455693781,25403245,20,8096604
1000000000,326751267,104948389,30176752,474762798,0,1986,192,0,456689319,25959381,17,8273049
1000000000,328176900,105494874,29427997,474909403,0,1778,171,0,456857791,26252328,16,8367021
1000000000,324343982,106354973,30427798,476342851,0,2300,222,0,455680745,25402430,20,8095770
1000000000,326748148,104951256,30180183,474768808,0,1986,192,0,456680803,25959086,17,8272629
1000000000,324352533,106346692,30416747,476325033,0,2300,222,0,455706020,25403780,20,8097266
1000000000,326744640,104954710,30184882,474776273,0,1986,192,0,456670216,25958481,17,8271981
1000000000,327472463,105596574,30047719,475426710,0,2089,200,0,456262081,25885691,18,8250341
1000000000,325048428,106253210,29807895,475825374,0,1989,193,0,456276699,25769121,18,8212486
1000000000,326750041,104949491,30177962,474765061,0,1986,192,0,456686118,25959312,17,8272913
1000000000,324357101,106342263,30410913,476315535,0,2300,222,0,455719485,25404473,20,8098049
1000000000,326739263,104959925,30191841,474787498,0,1986,192,0,456654296,25957630,17,8271039
1000000000,324596911,106264640,30403021,476233309,0,2194,210,0,455757706,25440673,19,8108592
1000000000,327922797,105586250,29453844,475021052,0,1884,183,0,456777859,26214048,17,8354086
1000000000,326755357,104944379,30171312,474754133,0,1986,192,0,456701607,25960076,17,8273797
1000000000,324345770,106353288,30425664,476339272,0,2300,222,0,455685819,25402655,20,8096046
1000000000,326747431,104951951,30181075,474770287,0,1986,192,0,456678709,25958986,17,8272511
1000000000,324351509,106347656,30418022,476327103,0,2300,222,0,455703080,25403630,20,8097096
1000000000,328166531,105504844,29441092,474930777,0,1778,171,0,456827483,26250793,16,8365271
1000000000,326409851,105632775,30269601,475492265,0,2194,210,0,456240890,25705450,19,8192927
1000000000,324690720,105665375,30327854,475602108,0,2092,204,0,456145170,25657271,18,8176868
1000000000,326749729,104949789,30178342,474765694,0,1986,192,0,456685222,25959271,17,8272863
1000000000,324355846,106343475,30412482,476318126,0,2300,222,0,455715814,25404295,20,8097842
1000000000,328161494,105509733,29447604,474941285,0,1778,171,0,456812579,26249998,16,8364389
1000000000,324349004,106350054,30421125,476332222,0,2300,222,0,455695823,25403280,20,8096686
1000000000,326750211,104949331,30177800,474764744,0,1986,192,0,456686567,25959318,17,8272930
432012602,141352486,45039204,13097814,204829845,0,836,81,0,197435233,11264181,7,3589742
