1000000000,1631064434,592569943,1023513401,1046279616,219360881,327812378,442957219,577522633,722562419,813209243,888182865
1000000000,1630830519,594202833,1025086168,1047040637,219169235,327800362,442754714,576722554,722237548,814494172,889402656
1000000000,1631163008,590397808,1021853724,1044802218,219095959,327198709,442361159,577342231,722334595,810763807,886437994
1000000000,1631905425,590109195,1021831376,1044865339,218887602,326889550,441842109,576860223,721956250,810457321,886177456
1000000000,1632290714,590033861,1021703068,1044902402,218744190,326695822,441552203,576558772,721757140,810300823,886060124
1000000000,1632138154,591836824,1023180240,1046014434,218810185,327029936,441772915,576338248,721623080,811999702,887512652
1000000000,1597376449,741041531,1231516160,1425663933,257965343,414884969,595420577,782243954,911191764,1010350606,1092043683
1000000000,1567310026,835712894,1351295341,1652026215,280304058,468958656,686367491,903742012,1019189891,1123816032,1204630541
1000000000,1572392071,832908105,1356613521,1652903737,281401621,467443583,685510739,902769668,1021689619,1129161861,1213118251
1000000000,1570539542,834757097,1351336337,1651151357,280826614,468889825,687887597,904977385,1020981468,1125297094,1206228001
1000000000,1570682424,833850533,1353631795,1651504751,281757688,468496542,687070613,903971370,1021553459,1127980494,1209577648
1000000000,1572247243,833829294,1354324712,1652560806,280475129,467845918,686328625,903782787,1021120067,1126482659,1209775406
1000000000,1567309069,835719895,1351298476,1652031189,280306257,468962977,686367919,903745413,1019191054,1123818049,1204633796
1000000000,1572392360,832905759,1356612165,1652901702,281400893,467442047,685510443,902768227,1021688996,1129161017,1213117007
1000000000,1570539463,834757756,1351336640,1651151813,280826825,468890251,687887644,904977699,1020981580,1125297289,1206228311
1000000000,1572394136,832892690,1356606299,1652892416,281396796,467433988,685509669,902761922,1021686857,1129157293,1213110957
1000000000,1570536189,834782333,1351348337,1651170082,280834513,468905589,687889423,904990207,1020986104,1125304651,1206240021
1000000000,1567274385,835708572,1351358323,1652024414,280370838,468974846,686358129,903721816,1019218600,1123939997,1204740529
1000000000,1572428837,832903285,1356545275,1652897658,281331994,467421419,685518995,902784338,1021658552,1129034678,1213003458
1000000000,1570536690,834778958,1351347094,1651167988,280833451,468903586,687889355,904988824,1020985746,1125303822,1206238585
1000000000,1572392377,832905649,1356612299,1652901843,281400847,467442021,685510504,902768329,1021689096,1129161070,1213117033
1000000000,1570538916,834762013,1351338675,1651154980,280828152,468892898,687887954,904979865,1020982355,1125298557,1206230336
1000000000,1570004622,834230191,1352452628,1650953023,281900744,468916706,687687107,904447849,1021498893,1127513619,1208178416
1000000000,1569698613,834381660,1355451252,1653969419,279802093,467479659,684190175,902058617,1019378510,1125461233,1209565736
1000000000,1570536137,834782965,1351348769,1651170687,280834707,468906010,687889524,904990628,1020986294,1125304893,1206240374
1000000000,1572390934,832916535,1356617522,1652909986,281404254,467448835,685511326,902773927,1021691147,1129164365,1213122248
1000000000,1570540458,834750134,1351332777,1651145865,280824444,468885424,687886981,904973595,1020980008,1125294883,1206224566
1000000000,1572394637,832889807,1356606118,1652891721,281395885,467432543,685510070,902761664,1021687241,1129157081,1213110190
1000000000,1567309124,835718582,1351296454,1652028537,280305862,468961756,686367133,903743366,1019189761,1123816905,1204632474
1000000000,1570533315,834803717,1351358400,1651185812,280841192,468918876,687890865,905000900,1020989902,1125310953,1206250114
1000000000,1572396322,832875923,1356597753,1652879295,281391565,467423372,685508212,902752893,1021683382,1129152000,1213102714
1000000000,1570536788,834778106,1351346743,1651167418,280833177,468903058,687889293,904988414,1020985604,1125303573,1206238185
1000000000,1572392847,832902189,1356610649,1652899284,281399768,467439872,685510281,902766608,1021688488,1129160057,1213115405
1000000000,1567311763,835699597,1351288556,1652015811,280299922,468950244,686366345,903734862,1019187144,1123811846,1204624015
1000000000,1571096588,833618059,1354351992,1651841566,281670114,468239519,686693923,903680055,1021586762,1128265636,1210432352
1000000000,1571833173,834061010,1353604250,1652223543,280562461,468102485,686705298,904073808,1021086696,1126197343,1208920387
1000000000,1570536230,834782143,1351348389,1651170077,280834445,468905502,687889457,904990205,1020986151,1125304646,1206239978
1000000000,1572390760,832918018,1356618200,1652911052,281404720,467449759,685511436,902774670,1021691410,1129164806,1213122952
1000000000,1567313739,835684395,1351281225,1652004418,280295153,468940712,686365167,903727006,1019184250,1123807215,1204616705
1000000000,1572393843,832894785,1356607247,1652893920,281397466,467435300,685509815,902762972,1021687226,1129157915,1213111946
1000000000,1570536615,834779393,1351346998,1651167952,280833589,468903756,687889234,904988748,1020985592,1125303789,1206238642
1000000000,1570534068,834798235,1351355860,1651181814,280839476,468915486,687890522,904998204,1020988967,1125309366,1206247545
1000000000,1572395274,832883575,1356601205,1652884749,281393961,467428097,685508661,902756579,1021684638,1129154180,1213106259
1000000000,1567310400,835710014,1351293998,1652024129,280303162,468956870,686367305,903740601,1019189396,1123815197,1204629192
1000000000,1572392138,832907591,1356613283,1652903364,281401457,467443262,685510695,902769398,1021689516,1129161694,1213117999
1000000000,1570539312,834759021,1351337270,1651152783,280827216,468891036,687887747,904978363,1020981824,1125297675,1206228924
1000000000,1570418740,833998216,1353173126,1651290113,281813333,468659976,687310422,904156707,1021532224,1127798871,1209033329
1000000000,1572510882,833681707,1354783396,1652775492,280419511,467682524,686088793,903597465,1021141300,1126664297,1210319755
1000000000,1567309333,835717864,1351297541,1652029716,280305625,468961726,686367785,903744406,1019190701,1123817453,1204632841
1000000000,1572391890,832909631,1356614314,1652904951,281402106,467444571,685510902,902770530,1021689963,1129162366,1213119024
1000000000,1570539818,834754809,1351334914,1651149232,280825898,468888292,687887246,904975855,1020980773,1125296212,1206226729
1000000000,1572394271,832891797,1356605931,1652891820,281396512,467433445,685509639,902761531,1021686740,1129157062,1213110566
1000000000,1570535914,834784285,1351349198,1651171447,280835118,468906775,687889509,904991104,1020986388,1125305173,1206240894
1000000000,1567306546,835738098,1351306098,1652043462,280311969,468974051,686368722,903753643,1019193626,1123822950,1204641954
1000000000,1572396669,832873756,1356597496,1652878613,281390875,467422235,685508421,902752531,1021683550,1129151746,1213102052
1000000000,1570536743,834778587,1351346916,1651167716,280833335,468903353,687889329,904988641,1020985675,1125303715,1206238410
1000000000,1572392609,832904060,1356611555,1652900677,281400352,467441036,685510415,902767561,1021688836,1129160616,1213116295
1000000000,1570538687,834763664,1351339476,1651156241,280828669,468893931,687888076,904980717,1020982669,1125299057,1206231130
1000000000,1569555082,834319024,1352292754,1651005568,281778852,468891103,687475146,904323186,1021237278,1127247588,1207814476
1000000000,1570148106,834293101,1355611248,1653917040,279924067,467505421,684402132,902183379,1019640138,1125727322,1209929781
1000000000,1570536236,834782257,1351348434,1651170151,280834479,468905568,687889462,904990248,1020986159,1125304673,1206240030
1000000000,1572390455,832920114,1356619167,1652912587,281405378,467451060,685511569,902775709,1021691772,1129165412,1213123930
1000000000,1570540908,834746970,1351331310,1651143550,280823458,468883458,687886785,904972038,1020979462,1125293966,1206223088
1000000000,1572395073,832888991,1356609225,1652895327,281395604,467433076,685511769,902764720,1021689736,1129158719,1213111555
1000000000,1567308593,835719816,1351293549,1652025257,280306272,468961483,686365448,903740510,1019187333,1123815385,1204631302
1000000000,1570533633,834801688,1351357548,1651184414,280840557,468917650,687890785,904999974,1020989617,1125310409,1206249205
1000000000,1572395999,832878125,1356598680,1652880809,281392259,467424719,685508317,902753913,1021683709,1129152604,1213103713
1000000000,1570537030,834776416,1351345951,1651166181,280832646,468901998,687889184,904987582,1020985315,1125303084,1206237394
1000000000,1572392910,832901655,1356610411,1652898898,281399609,467439551,685510252,902766349,1021688399,1129159905,1213115157
1000000000,1567311506,835701377,1351289415,1652017160,280300464,468951339,686366451,903735753,1019187460,1123812364,1204624851
1000000000,1570832929,833765881,1353893373,1651626996,281725815,468403056,686933762,903865462,1021565541,1128084044,1209888087
1000000000,1572096821,833913357,1354062918,1652438188,280506814,467939051,686465460,903888449,1021107917,1126378961,1209464711
1000000000,1570536074,834783378,1351348956,1651170975,280834831,468906262,687889535,904990811,1020986363,1125305013,1206240564
1000000000,1572391159,832914817,1356616715,1652908738,281403721,467447773,685511220,902773086,1021690849,1129163860,1213121440
1000000000,1567313656,835685290,1351281644,1652005042,280295443,468941281,686365255,903727478,1019184434,1123807503,1204617145
1000000000,1572393960,832893919,1356606855,1652893312,281397187,467434759,685509761,902762550,1021687080,1129157661,1213111541
1000000000,1570536314,834781404,1351347923,1651169411,280834211,468904995,687889336,904989713,1020985920,1125304357,1206239566
1000000000,1570534368,834796221,1351354918,1651180339,280838850,468914242,687890403,904997208,1020988610,1125308776,1206246605
1000000000,1572394731,832887396,1356602980,1652887542,281395148,467430448,685508884,902758453,1021685289,1129155283,1213108039
1000000000,1567310737,835707813,1351293073,1652022622,280302485,468955555,686367246,903739637,1019189115,1123814632,1204628229
1000000000,1572392330,832905961,1356612426,1652902074,281400955,467442231,685510543,902768509,1021689169,1129161181,1213117197
1000000000,1570539069,834760843,1351338115,1651154110,280827778,468892153,687887854,904979249,1020982128,1125298192,1206229767
1000000000,1570155066,834145994,1352714538,1651075563,281869010,468823488,687550260,904342116,1021511015,1127617277,1208489052
1000000000,1572774524,833534160,1355242103,1652990204,280363907,467519156,685848970,903412169,1021162546,1126845954,1210864135
1000000000,1567309622,835715826,1351296584,1652028232,280304985,468960451,686367649,903743390,1019190340,1123816853,1204631884
1000000000,1572391301,832913890,1356616294,1652908054,281403431,467447204,685511168,902772635,1021690700,1129163607,1213121015
1000000000,1570540181,834752179,1351333721,1651147356,280825079,468886677,687887099,904974592,1020980347,1125295467,1206225517
1000000000,1572394506,832890246,1356605570,1652891135,281396033,467432602,685509733,902761145,1021686755,1129156812,1213110026
1000000000,1570535646,834786168,1351349675,1651172329,280835711,468907833,687889439,904991636,1020986418,1125305514,1206241585
1000000000,1567306839,835736284,1351305941,1652042958,280311387,468973102,686368915,903753386,1019193796,1123822758,1204641421
1000000000,1572396365,832875633,1356597686,1652879164,281391470,467423205,685508214,902752801,1021683371,1129151940,1213102603
1000000000,1570536923,834777255,1351346334,1651166787,280832917,468902533,687889255,904988010,1020985467,1125303340,1206237798
1000000000,1572392681,832903353,1356611200,1652900132,281400137,467440604,685510360,902767193,1021688698,1129160402,1213115951
1000000000,1570538435,834765538,1351340351,1651157603,280829256,468895102,687888205,904981652,1020983008,1125299615,1206232018
1000000000,1569062819,834394035,1352201509,1651118442,281616362,468822165,687159858,904127394,1020920436,1126961890,1207491177
1000000000,1570640376,834218260,1355702563,1653804274,280086609,467574463,684717439,902379251,1019957007,1126013065,1210253160
1000000000,1570536121,834782931,1351348735,1651170654,280834691,468905978,687889502,904990593,1020986277,1125304875,1206240346
1000000000,1572390747,832918046,1356618218,1652911076,281404732,467449783,685511436,902774681,1021691418,1129164811,1213122964
1000000000,1570540747,834748082,1351331841,1651144390,280823796,468884139,687886848,904972586,1020979651,1125294284,1206223607
1000000000,1572173069,833013891,1356223725,1652717017,281442545,467571556,685714936,902922971,1021673341,1129006765,1212653819
1000000000,1567530570,835595092,1351679215,1652203795,280259390,468823142,686162331,903582425,1019203819,1123967433,1205089159
1000000000,1570533877,834799745,1351356550,1651182907,280839947,468916412,687890621,904998947,1020989224,1125309803,1206248255
1000000000,1572395612,832881075,1356600045,1652882930,281393180,467426537,685508490,902755334,1021684193,1129153441,1213105078
1000000000,1570537217,834774990,1351345295,1651165147,280832208,468901135,687889105,904986891,1020985077,1125302680,1206236735
1000000000,1572393135,832900146,1356609700,1652897791,281399133,467438602,685510152,902765598,1021688133,1129159460,1213114447
1000000000,1567311266,835703273,1351290352,1652018586,280301063,468952555,686366622,903736757,1019187847,1123812961,1204625778
1000000000,1570569248,833913580,1353434702,1651412341,281781459,468566479,687173547,904050765,1021544267,1127902391,1209343745
1000000000,1572360449,833765910,1354521651,1652652978,280451248,467775751,686225650,903703213,1021129187,1126560655,1210009143
1000000000,1570536249,834781964,1351348293,1651169953,280834389,468905383,687889440,904990114,1020986114,1125304593,1206239895
1000000000,1572391270,832914073,1356616384,1652908190,281403490,467447327,685511183,902772724,1021690734,1129163659,1213121102
1000000000,1567313426,835686929,1351282397,1652006245,280295949,468942282,686365344,903728275,1019184701,1123807967,1204617901
1000000000,1572394192,832892287,1356606096,1652892119,281396674,467433742,685509656,902761741,1021686795,1129157184,1213110776
1000000000,1570536064,834783377,1351348840,1651170838,280834831,468906231,687889482,904990704,1020986280,1125304946,1206240503
432012602,678632238,360816100,582966836,712936871,121307328,202803743,297764997,391495382,441211578,485732614,520231684
