275858901,224983,191203171,172377,83907436,28112,26134,276048,11181,3476,2035,1656,1104,691,497,0,0,0,0,0,0
285861256,863242,262699703,445612,2408100,246919,1354,10139756,3417,6025,10615,17866,29294,45946,67151,87294,102307,128987,86935,210047,8260686
285684357,0,265096876,89182,334352,5,239,10484384,43,206,260,502,1087,2289,3853,8767,16218,32646,65892,130865,9416691
285282016,2531,263594201,169868,256082,387,1157,11373137,102766,46201,21579,8982,11117,2712,3870,8696,16055,101808,67081,137603,9356183
284698614,0,263702669,390565,249,280,416,10914373,95030,2211,278,535,17853,2220,3716,8457,15612,31419,63433,126155,9323143
284821382,1,263669959,321063,33008,268,378,11092991,104206,3029,278,530,15781,2214,3713,8468,15601,31407,63502,126154,9328831
284872927,2,263567680,255242,65789,291,420,11280463,102110,7039,477,529,15808,2199,3709,8463,15611,31345,63500,126195,9326055
284823919,0,263638310,439169,251,280,384,11097974,56411,645,268,551,17852,2217,3715,8459,15616,31415,63405,126087,9320910
284805621,0,263647700,432074,252,280,390,11071461,62070,559,266,549,17851,2210,3714,8469,15580,31403,63503,126036,9321254
284833106,1,263553948,357947,33032,303,422,11225646,70204,3216,297,539,17881,2197,3703,8453,15577,31342,63469,126089,9318840
284914472,0,263591795,474290,253,280,359,11231997,26459,225,284,535,17848,2221,3717,8460,15606,31425,63411,126077,9319230
284857297,0,263621173,452110,254,282,384,11147775,45081,374,281,534,17852,2211,3716,8472,15569,31387,63508,126028,9320306
284747383,0,263564972,442525,281,318,434,11103430,51075,416,285,533,19949,2218,3702,8451,15583,31341,63406,126070,9312394
284874858,0,263612174,458923,254,280,420,11173278,39611,396,284,534,17852,2217,3706,8465,15610,31398,63399,126075,9319982
284847514,0,263626192,448317,254,280,390,11132982,48627,422,281,533,17852,2211,3721,8467,15566,31401,63469,126093,9320456
284755914,0,263560577,445831,285,315,409,11111970,51597,1138,288,533,19947,2198,3703,8451,15588,31340,63426,126036,9312282
284824722,0,263637901,439476,254,280,390,11100739,54707,494,284,534,17853,2218,3705,8468,15627,31394,63434,126043,9320921
284858365,0,263620626,452528,252,280,390,11146863,47199,382,281,536,17851,2211,3720,8473,15564,31422,63482,126064,9320241
284821768,0,263526793,471377,282,315,457,11210813,28950,259,285,530,19945,2197,3707,8445,15573,31332,63418,126008,9311082
284893722,0,263602466,466239,253,280,385,11200853,33755,302,286,534,17854,2219,3702,8467,15610,31386,63426,126073,9319632
284798084,0,263651582,429145,253,285,387,11062831,62151,481,279,537,17852,2229,3719,8474,15580,31427,63504,126042,9321326
284807717,0,263533988,465926,282,315,437,11190069,33576,320,285,530,19944,2201,3708,8440,15576,31334,63396,126079,9311311
284836036,0,263632074,443865,253,280,364,11117694,50780,439,287,535,17856,2217,3705,8472,15609,31370,63424,126086,9320726
284826328,0,263637092,440098,257,280,417,11098878,57678,1198,281,537,17852,2209,3717,8474,15570,31421,63484,126091,9320794
284779489,0,263548470,454976,283,315,408,11149116,42207,365,285,529,19945,2202,3709,8440,15594,31347,63419,125995,9311884
284751327,0,263675142,411048,640,284,398,10994243,77039,715,287,536,17856,2221,3703,8472,15641,31385,63480,126092,9322145
284863436,0,263618037,454491,258,280,417,11158874,41037,310,278,536,17852,2205,3722,8473,15575,31386,63458,126067,9320180
284821297,0,263527000,471192,285,315,408,11207770,31500,263,285,528,19946,2205,3705,8444,15573,31350,63451,126006,9311071
284829365,0,263635531,441278,250,280,411,11108372,52466,398,287,537,17855,2218,3704,8465,15617,31415,63424,126054,9320803
284829492,0,263635456,441326,255,280,390,11102539,57585,1272,281,536,17851,2203,3720,8476,15570,31377,63470,126104,9320801
284696618,0,263591040,422834,280,315,434,11029754,66510,566,288,527,19946,2226,3708,8445,15583,31374,63434,126038,9313316
284916815,0,263590609,475197,255,280,391,11231544,29489,296,284,538,17853,2216,3702,8467,15606,31387,63422,126060,9319219
284896685,0,263600946,467388,256,280,384,11206791,31260,253,280,536,17850,2203,3721,8475,15555,31387,63452,126080,9319588
284788941,0,263543632,458644,282,320,437,11163181,38964,331,287,527,19948,2210,3709,8440,15584,31346,63395,126035,9311669
284813826,0,263643496,435253,252,280,394,11085890,57092,485,283,538,17853,2216,3698,8468,15645,31400,63465,126056,9321062
284916059,0,263590999,474901,257,280,387,11230913,29289,268,280,535,17851,2202,3721,8474,15552,31366,63486,126075,9319223
284752422,0,263562370,444478,281,315,405,11110877,49479,361,287,528,19950,2211,3710,8441,15586,31370,63411,126033,9312329
284800168,0,263650512,429954,251,280,390,11061404,65133,1301,286,537,17851,2215,3700,8470,15613,31433,63463,126061,9321314
284821303,0,263639675,438150,255,280,414,11095951,55583,472,280,535,17852,2221,3719,8475,15561,31359,63465,126079,9320977
284784621,0,263545831,456967,284,315,409,11153705,43446,412,287,529,19949,2210,3712,8440,15594,31366,63391,126015,9311759
284909790,0,263594232,472471,255,280,413,11225460,27564,245,284,538,17848,2214,3699,8476,15604,31423,63421,126052,9319311
284912132,0,263593015,473381,253,284,387,11228232,27521,223,279,533,17852,2203,3718,8467,15555,31353,63452,126090,9319334
284709682,0,263584318,427903,279,316,417,11047943,63288,563,287,529,19951,2211,3712,8441,15631,31347,63437,126030,9313079
284862604,0,263618443,454170,256,280,387,11157030,41961,308,284,539,17848,2214,3699,8477,15591,31415,63446,126092,9320164
284849477,0,263573843,464169,273,306,426,11186388,37439,310,282,536,18286,2203,3717,8459,15557,31356,63462,125999,9316466
284791055,0,263593895,444373,262,289,390,11113629,50760,649,288,526,19516,2209,3715,8453,15596,31386,63430,126050,9315639
127542721,0,118099089,186232,126,140,198,4926372,35212,818,128,245,8872,986,1652,3801,6990,14044,28420,56446,4172950
number,of,instructions:,46448014605
