1000000000,96464,89728,90759,92259,110610,89819,90844,91105,254268,91180,91656,89971,54310930,172910,91261
1000000000,644798,650736,644131,652390,645045,646754,644096,646034,802562,645116,644050,644373,140210341,1196831,643902
1000000000,682085,698092,681939,698344,682124,699389,681939,700395,1041821,691729,681941,689478,143061788,1282279,707757
1000000000,697925,705224,697000,708275,698533,705581,696766,704110,1038702,703911,696574,701118,143998857,1274023,718005
1000000000,703906,708074,703445,714314,704266,707275,703443,709957,1095035,704469,703451,703531,144756797,1306430,703314
1000000000,739397,743718,739048,743611,739757,741638,739043,741095,1094414,741504,739049,740051,144595431,1331594,739987
1000000000,746818,759201,746467,763710,747201,760996,746467,762020,1077275,754256,746474,751709,144678440,1336263,764033
1000000000,654773,656029,654427,655942,655157,655378,654423,655350,1094618,655233,654427,654567,144722043,1256486,654443
1000000000,661886,662793,661556,662678,662246,662281,661556,662195,1094508,662514,661564,661548,144727118,1266767,661580
1000000000,691587,698020,691268,698627,691937,698408,691268,698675,1086990,696341,691276,695008,144819399,1288383,698638
1000000000,619393,619158,619104,619139,619720,619178,619104,619138,1094354,619323,619112,619096,144696928,1217494,619128
1000000000,641684,641870,641402,641787,641962,641642,641402,641649,1094341,641986,641410,641394,144712785,1243708,641426
1000000000,650321,650498,650003,650449,650585,650234,650002,650268,1093456,650701,650009,649990,144972287,1255078,650025
1000000000,634841,634965,634553,634879,635065,634675,634553,634647,1094303,635046,634561,634545,144707914,1234486,634577
1000000000,645503,645827,645218,645708,645723,645369,645218,645350,1094363,645917,645226,645210,144715498,1247400,645242
1000000000,646984,647344,646671,647370,647230,646964,646671,646951,1093433,647290,646680,646662,144969921,1241610,646698
1000000000,654388,654654,654112,654496,654609,654255,654110,654197,1094412,654853,654117,654101,144721821,1259498,654133
1000000000,641247,641347,640983,641207,641441,641080,640983,641035,1094338,641629,640991,640975,144712488,1240592,641007
1000000000,621267,621051,620987,621018,621489,621042,620987,620982,1093293,621245,620996,620978,144951656,1218734,621014
1000000000,627398,627341,627197,627251,627630,627264,627197,627215,1094267,627586,627205,627188,144702682,1226192,627221
1000000000,664665,664917,664496,664761,664904,664585,664496,664572,1094467,665366,664504,664488,144729209,1273520,664520
1000000000,626654,626629,626466,626551,626925,626531,626466,626488,1093324,626859,626475,626457,144955552,1224571,626493
1000000000,649864,650083,649695,649930,650109,649768,649695,649726,1094389,650418,649703,649687,144718682,1254465,649719
1000000000,653647,654018,653481,653839,653889,653577,653481,653562,1094406,654238,653489,653473,144721375,1248804,653505
1000000000,637659,637678,637477,637577,637934,637533,637477,637465,1093386,637974,637486,637468,144963382,1238885,637504
1000000000,682868,683302,682705,683031,683232,682767,682700,682720,1094709,683902,682705,682695,144741722,1293756,682719
1000000000,639158,639088,639007,639053,639415,639051,639007,638995,1094319,639455,639015,638999,144711082,1243806,639031
1000000000,621341,621229,621173,621204,621631,621223,621173,621156,1093285,621535,621182,621164,144951787,1216177,621200
1000000000,652447,652487,652296,652388,652696,652346,652296,652284,1094393,652993,652304,652288,144720532,1259070,652320
1000000000,652397,652628,652247,652431,652647,652303,652247,652243,1094390,653028,652255,652239,144720498,1245634,652271
1000000000,669977,670144,669813,669973,670257,669868,669803,669797,1093559,670789,669808,669793,144986367,1279852,669826
1000000000,618339,618259,618187,618213,618587,618224,618187,618168,1094206,618510,618195,618179,144696276,1211496,618211
1000000000,626191,626078,626039,626051,626439,626081,626039,626025,1094250,626315,626047,626031,144701860,1226898,626063
1000000000,633959,633883,633789,633837,634239,633842,633789,633774,1093355,634267,633798,633780,144960760,1234104,633816
1000000000,658507,658595,658356,658441,658756,658407,658356,658346,1094425,659147,658364,658348,144724843,1265767,658380
1000000000,618635,618523,618485,618507,618885,618531,618485,618470,1094206,618813,618493,618477,144696487,1212592,618509
1000000000,648202,648150,648033,648086,648483,648086,648033,648017,1093432,648686,648042,648024,144970889,1253543,648060
1000000000,663837,663894,663685,663759,664087,663751,663685,663683,1094458,664569,663693,663677,144728631,1261872,663709
1000000000,655591,655621,655441,655530,655841,655494,655441,655425,1094408,656215,655449,655433,144722769,1261688,655465
1000000000,635644,635622,635473,635526,635923,635519,635473,635455,1093366,636074,635482,635464,144961958,1232604,635500
1000000000,621080,620943,620928,620929,621328,620969,620928,620912,1094222,621151,620936,620920,144698225,1219920,620952
1000000000,620166,620035,620015,620011,620415,620059,620015,619999,1094215,620263,620023,620007,144697576,1218197,620039
1000000000,664872,664957,664702,664795,665152,664761,664702,664684,1093524,665631,664711,664693,144982744,1271567,664729
1000000000,639482,639381,639330,639349,639730,639379,639330,639314,1094323,639820,639338,639322,144711312,1243354,639354
1000000000,628954,628859,628796,628818,629228,628844,628796,628777,1093862,629292,628804,628786,144822422,1225575,628821
1000000000,648784,648707,648624,648612,649042,648680,648624,648608,1093835,649231,648633,648617,144852707,1251206,648649
448014605,303409,303440,303334,303333,303534,303361,303334,303326,489975,303868,303338,303330,64950183,569409,303346
number,of,instructions:,46448014605
