275858839,11450,275711154,275771944,275778356,275803437,275811538,275815501,15025,100928556,168094398,168113329,168124394,168145024,168261039,168108249,82,167958811,168099871,168103024,168103963,168104617,168104624,1,33579896,100900705,100917137,100917615,100917814,100917832
285861256,22,281539763,284054563,284057062,284609836,284693368,285015421,0,3543295,6045911,6046609,6470474,6714474,8600656,6164234,8,3932486,5304806,5380433,5396910,5479998,5798778,0,2188045,4332736,4395088,4397503,4410472,4470474
285684357,0,282920892,284580669,284580675,285132537,285132839,285136614,0,271608,1001828,1002276,1080085,1349442,3488257,882824,15,490457,768983,876288,882808,882808,882808,0,129444,615181,700750,704467,704467,704467
285282016,144,281990028,284054350,284076271,284624037,284650056,284737947,0,1246077,2085445,2086188,2336995,2585931,4581954,1011688,8705,464836,929774,949345,956728,992627,1011352,8656,414906,776805,788466,793682,829577,926851
284698614,64,281574272,283572321,283605001,284151872,284152174,284155947,0,1578655,2672537,2672793,2703070,2944917,4851985,582953,56,537300,582095,582672,582752,582752,582952,0,367689,368945,369377,369489,369489,582345
284821382,64,281765229,283691274,283727246,284274366,284274667,284278439,0,1512542,2475859,2476127,2571640,2811182,4735140,644431,56,476017,643676,644180,644250,644251,644429,0,371724,438444,438847,438954,438955,643861
284872927,72,281883999,283742664,283779324,284326179,284326478,284330286,0,1644198,2475900,2476212,2637999,2876798,4815082,709888,63,412655,709127,709631,709701,709705,709884,0,397207,529548,529976,530092,530094,709280
284823919,64,281651650,283711290,283730578,284277312,284277612,284281382,0,1578144,2671754,2672010,2701776,2944134,4843026,582818,56,531816,581918,582538,582618,582618,582818,0,417229,418485,418917,419029,419029,582210
284805621,64,281640351,283691094,283712242,284258992,284259294,284263063,0,1578144,2671792,2672048,2701814,2940084,4863504,582838,56,533220,581873,582558,582638,582638,582838,0,407009,408265,408697,408809,408809,582230
284833106,72,281743277,283715490,283740236,284286727,284287028,284290833,0,1709805,2671881,2672181,2767199,3007790,4928675,648313,63,470189,647442,648027,648107,648109,648311,0,416741,483618,484075,484196,484197,647667
284914472,64,281707560,283812159,283821324,284367962,284368261,284372023,0,1577633,2671053,2671309,2701586,2941405,4849479,582722,56,526416,581812,582442,582522,582522,582722,0,455930,457186,457618,457730,457730,582114
284857297,64,281672258,283748607,283764028,284310723,284311023,284314797,0,1578144,2671686,2671942,2701708,2938461,4790325,582783,56,530467,581843,582503,582583,582583,582783,0,429899,431155,431587,431699,431699,582175
284747383,72,281574516,283637657,283655135,284201322,284201625,284205421,0,1775412,2867965,2868253,2898035,3137363,5040327,586790,63,530444,585798,586475,586565,586565,586790,0,421209,422622,423108,423234,423234,586106
284874858,64,281683102,283768020,283781626,284328306,284328605,284332372,0,1578655,2672159,2672415,2702692,2942000,4853651,582764,56,529332,581813,582484,582564,582564,582764,0,439064,440320,440752,440864,440864,582156
284847514,64,281666214,283737602,283754223,284300929,284301230,284305002,0,1578144,2671708,2671964,2702241,2943593,4863420,582794,56,530777,581856,582514,582594,582594,582794,0,426239,427495,427927,428039,428039,582186
284755914,72,281579785,283645792,283663684,284209862,284210164,284213957,0,1774901,2867436,2867724,2896995,3132235,5029578,586781,63,531016,585674,586466,586556,586556,586781,0,434649,436062,436548,436674,436674,586097
284824722,64,281652143,283712709,283731382,284278116,284278413,284282177,0,1578149,2671766,2672022,2703321,2944162,4853258,582819,56,532166,581832,582539,582619,582619,582819,0,414217,415473,415905,416017,416017,582211
284858365,64,281672922,283748970,283765100,284311793,284312095,284315876,0,1578144,2671682,2671938,2701193,2939990,4859306,582781,56,532997,581917,582502,582582,582582,582781,0,433007,434263,434695,434807,434807,582173
284821768,72,281620445,283719630,283729678,284275786,284276088,284279874,0,1775923,2868318,2868606,2898899,3135672,5037614,586711,63,526867,585689,586396,586486,586486,586711,0,457314,458727,459213,459339,459339,586027
284893722,64,281694748,283788906,283800530,284347190,284347488,284351254,0,1578144,2671608,2671864,2700608,2937872,4842369,582744,56,528249,581800,582464,582544,582544,582744,0,447300,448556,448988,449100,449100,582136
284798084,64,281635697,283683541,283704689,284251447,284251748,284255532,0,1578144,2671812,2672068,2702345,2943186,4798116,582846,56,532755,581967,582566,582646,582646,582846,0,400276,401532,401964,402076,402076,582238
284807717,72,281611769,283703986,283715597,284261721,284262024,284265810,0,1775412,2867837,2868125,2897907,3136724,5048886,586726,63,528108,585662,586411,586501,586501,586726,0,451521,452934,453420,453546,453546,586042
284836036,64,281659128,283725375,283742720,284289441,284289739,284293501,0,1577638,2671231,2671487,2700742,2938517,4856811,582807,56,530381,581931,582527,582607,582607,582807,0,419213,420469,420901,421013,421013,582199
284826328,64,281653138,283713098,283732995,284279722,284280022,284283803,0,1578655,2672263,2672519,2703307,2943126,4835870,582816,56,532924,581765,582536,582616,582616,582816,0,424902,426158,426590,426702,426702,582208
284779489,72,281594339,283672803,283687307,284233462,284233764,284237552,0,1774901,2867386,2867674,2897456,3136273,5056100,586756,63,529724,585651,586441,586531,586531,586756,0,437299,438712,439198,439324,439324,586072
284751327,64,281606733,283631606,283657835,284204643,284204943,284208706,0,1578595,2672672,2672967,2702733,2942041,4848582,583679,56,535788,582780,583398,583478,583478,583678,0,380343,381913,382382,382494,382494,582793
284863436,64,281676051,283756126,283770181,284316869,284317171,284320957,0,1578655,2672183,2672439,2702716,2939469,4843455,582776,56,529026,581889,582496,582576,582576,582776,0,429780,431036,431468,431580,431580,582168
284821297,72,281620152,283718305,283729205,284275315,284275617,284279407,0,1774901,2867298,2867586,2897879,3138229,4987027,586712,63,529523,585452,586397,586487,586487,586712,0,459874,461287,461773,461899,461899,586028
284829365,64,281655009,283718144,283736035,284282763,284283060,284286817,0,1578655,2672257,2672513,2701768,2938521,4849150,582813,56,530973,581932,582533,582613,582613,582813,0,414627,415883,416315,416427,416427,582205
284829492,64,281655094,283716276,283736165,284282889,284283190,284286977,0,1578144,2671744,2672000,2702788,2943118,4857324,582812,56,532628,581783,582532,582612,582612,582812,0,428062,429318,429750,429862,429862,582204
284696618,72,281543168,283581587,283604260,284150503,284150806,284154598,0,1775417,2868085,2868373,2897133,3140038,5040958,586846,63,532802,585881,586531,586621,586621,586846,0,396603,398016,398502,398628,398628,586162
284916815,64,281709009,283813473,283823673,284370307,284370604,284374361,0,1578144,2671558,2671814,2703624,2938844,4851006,582719,56,530194,581825,582440,582520,582520,582719,0,461917,463173,463605,463717,463717,582111
284896685,64,281696578,283792726,283803500,284350153,284350455,284354241,0,1578144,2671602,2671858,2701113,2940421,4847984,582741,56,527135,581856,582461,582541,582541,582741,0,446581,447837,448269,448381,448381,582133
284788941,72,281600175,283683369,283696781,284242925,284243228,284247014,0,1775412,2867877,2868165,2896925,3133698,5044327,586746,63,528437,585742,586431,586521,586521,586746,0,442049,443462,443948,444074,444074,586062
284813826,64,281645418,283700998,283720464,284267208,284267505,284271263,0,1578144,2671778,2672034,2703844,2944685,4846116,582829,56,531815,581951,582549,582629,582629,582829,0,407978,409234,409666,409778,409778,582221
284916059,64,281708543,283812794,283822916,284369548,284369851,284373640,0,1578144,2671560,2671816,2701071,2938846,4799908,582720,56,529430,581565,582440,582520,582520,582720,0,460825,462081,462513,462625,462625,582112
284752422,72,281577627,283643259,283660184,284206367,284206670,284210457,0,1774901,2867444,2867732,2898536,3136842,5038273,586785,63,530316,585790,586470,586560,586560,586785,0,422728,424141,424627,424753,424753,586101
284800168,64,281636983,283684361,283706776,284253535,284253829,284257588,0,1578149,2671818,2672074,2701329,2941659,4854843,582845,56,532995,581906,582565,582645,582645,582845,0,411921,413177,413609,413721,413721,582237
284821303,64,281650036,283709002,283727958,284274691,284274995,284278778,0,1578655,2672273,2672529,2702295,2938537,4850699,582821,56,532090,581873,582541,582621,582621,582821,0,412035,413291,413723,413835,413835,582213
284784621,72,281597506,283677519,283692451,284238600,284238902,284242692,0,1774901,2867376,2867664,2898468,3138307,5041782,586751,63,532035,585776,586437,586527,586527,586751,0,443562,444975,445461,445587,445587,586067
284909790,64,281704669,283807090,283816632,284363274,284363569,284367328,0,1578655,2672085,2672341,2701085,2939371,4854088,582727,56,526563,581827,582447,582527,582527,582727,0,453517,454773,455205,455317,455317,582119
284912132,64,281706119,283809463,283818981,284365618,284365922,284369708,0,1578144,2671568,2671824,2702101,2941409,4846928,582724,56,526854,581816,582444,582524,582524,582724,0,455233,456489,456921,457033,457033,582116
284709682,72,281551237,283595755,283617354,284163583,284163887,284167677,0,1774901,2867536,2867824,2897606,3136934,5048585,586830,63,532645,585846,586515,586605,586605,586830,0,404839,406252,406738,406864,406864,586146
284862604,64,281675532,283754983,283769344,284316035,284316331,284320086,0,1578144,2671674,2671930,2701696,2937427,4788269,582778,56,529638,581825,582498,582578,582578,582778,0,430235,431491,431923,432035,432035,582170
284849477,67,281653795,283743887,283756773,284303191,284303493,284307280,0,1670756,2763755,2764033,2794322,3035178,4942741,582682,56,530388,581543,582392,582482,582482,582682,0,447224,448560,449005,449126,449126,582034
284791055,69,281615117,283680903,283698318,284244747,284245049,284248843,0,1682800,2775820,2776086,2806367,3046191,4962952,586853,63,530313,585906,586548,586628,586628,586853,0,425775,427108,427581,427698,427698,586209
127542721,32,126133002,127041127,127053277,127298026,127298156,127299836,0,789072,1278652,1278780,1293152,1397987,2239093,262796,28,240023,262283,262656,262696,262696,262796,0,181609,182237,182453,182509,182509,262492
