dataset1

file:massif.out.45368

snapshot=51

mem_heap_B=77849869

mem_heap_extra_B=20146363

Total: 97996232 bytes, (~ 93.46 MB)
---------------------------------------

dataset2

file:massif.out.45371

snapshot=51

mem_heap_B=101561873

mem_heap_extra_B=20146359

Total: 121708232 bytes, (~ 116.07 MB)
---------------------------------------

dataset3

file:massif.out.45378

snapshot=52

mem_heap_B=125561875

mem_heap_extra_B=20160437

Total: 145722312 bytes, (~ 138.97 MB)
---------------------------------------

