1,0.000828000000,0.703142912948,0.116929000000,99.296857087052,0.117757000000
1,0.000824000000,0.008865331208,9.293809000000,99.991134668792,9.294633000000
1,0.000830000000,0.004581143813,18.116916000000,99.995418856187,18.117746000000
