1000000000,215102975,151710930,218386789,621987932,530735,59462586,7573368,6644,9686744,67848825,2781055,11741897
1000000000,210887713,150231649,217753086,616187391,480945,59576812,7808771,0,8807341,75313591,3009419,11062644
1000000000,372740830,24576451,61265168,608023856,36896,4570890,599449,0,229632342,94791731,230953,848715
1000000000,386189100,13997995,48267668,607212049,0,260,106,0,248073552,96446286,53,26
1000000000,386141070,13996243,48386044,607136512,0,260,104,0,248042703,96434299,52,26
1000000000,386164513,13997117,48328252,607173398,0,270,106,0,248057747,96440147,53,27
1000000000,386198883,13998337,48243581,607227405,0,260,104,0,248079842,96448730,52,26
1000000000,386160344,13996953,48338532,607166837,0,260,106,0,248055080,96439106,53,26
1000000000,386141073,13996243,48386041,607136509,0,260,104,0,248042714,96434294,52,26
1000000000,386193268,13998159,48257391,607218609,0,270,106,0,248076216,96447328,53,27
1000000000,386189399,13998005,48266933,607212522,0,260,106,0,248073739,96446361,53,26
1000000000,386141072,13996243,48386041,607136509,0,260,104,0,248042711,96434297,52,26
1000000000,386164213,13997106,48328991,607172930,0,270,106,0,248057550,96440073,53,27
1000000000,386198880,13998345,48243582,607227414,0,260,104,0,248079834,96448728,52,26
1000000000,386160646,13996963,48337794,607167307,0,260,106,0,248055278,96439176,53,26
1000000000,386141071,13996243,48386044,607136511,0,260,104,0,248042704,96434299,52,26
1000000000,386192972,13998148,48258125,607218143,0,270,106,0,248076025,96447251,53,27
1000000000,386189695,13998017,48266197,607212982,0,260,106,0,248073941,96446435,53,26
1000000000,386141074,13996242,48386043,607136516,0,260,104,0,248042702,96434297,52,26
1000000000,386163916,13997096,48329724,607172457,0,270,106,0,248057368,96439995,53,27
1000000000,386198880,13998337,48243581,607227406,0,260,104,0,248079836,96448735,52,26
1000000000,386160943,13996974,48337060,607167775,0,260,106,0,248055467,96439253,53,26
1000000000,386141074,13996243,48386041,607136511,0,260,104,0,248042711,96434295,52,26
1000000000,386192671,13998137,48258862,607217673,0,270,106,0,248075831,96447178,53,27
1000000000,386189994,13998027,48265462,607213455,0,260,106,0,248074128,96446510,53,26
1000000000,386141072,13996243,48386042,607136510,0,260,104,0,248042707,96434299,52,26
1000000000,386163619,13997085,48330460,607171992,0,270,106,0,248057172,96439920,53,27
1000000000,386198880,13998345,48243582,607227414,0,260,104,0,248079834,96448728,52,26
1000000000,386161241,13996985,48336325,607168243,0,260,106,0,248055660,96439327,53,26
1000000000,386141072,13996242,48386043,607136514,0,260,104,0,248042702,96434299,52,26
1000000000,386192372,13998127,48259597,607217203,0,270,106,0,248075640,96447104,53,27
1000000000,386190294,13998038,48264725,607213923,0,260,106,0,248074324,96446583,53,26
1000000000,386141074,13996242,48386043,607136514,0,260,104,0,248042705,96434296,52,26
1000000000,386163319,13997074,48331195,607171522,0,270,106,0,248056980,96439847,53,27
1000000000,386198879,13998338,48243580,607227401,0,260,104,0,248079841,96448736,52,26
1000000000,386161541,13996995,48335590,607168716,0,260,106,0,248055849,96439400,53,26
1000000000,386141072,13996243,48386041,607136509,0,260,104,0,248042709,96434299,52,26
1000000000,386192075,13998116,48260334,607216737,0,270,106,0,248075446,96447027,53,27
1000000000,386190592,13998048,48263990,607214392,0,260,106,0,248074516,96446657,53,26
1000000000,386141071,13996243,48386044,607136511,0,260,104,0,248042704,96434299,52,26
1000000000,386163024,13997063,48331929,607171054,0,270,106,0,248056791,96439770,53,27
1000000000,386198881,13998345,48243582,607227413,0,260,104,0,248079835,96448728,52,26
1000000000,386161835,13997007,48334854,607169182,0,260,106,0,248056040,96439479,53,26
1000000000,386141074,13996242,48386043,607136514,0,260,104,0,248042704,96434297,52,26
1000000000,386191773,13998106,48261067,607216262,0,270,106,0,248075258,96446957,53,27
1000000000,386190890,13998059,48263255,607214863,0,260,106,0,248074704,96446733,53,26
1000000000,386141076,13996242,48386043,607136514,0,260,104,0,248042708,96434293,52,26
1000000000,386162722,13997053,48332667,607170585,0,270,106,0,248056592,96439700,53,27
1000000000,386198880,13998338,48243580,607227399,0,260,104,0,248079848,96448731,52,26
1000000000,386162137,13997016,48334118,607169654,0,260,106,0,248056231,96439552,53,26
1000000000,386141071,13996243,48386043,607136511,0,260,104,0,248042705,96434299,52,26
1000000000,386191477,13998095,48261804,607215796,0,270,106,0,248075064,96446880,53,27
1000000000,386191191,13998070,48262519,607215330,0,260,106,0,248074902,96446804,53,26
1000000000,386141072,13996242,48386043,607136514,0,260,104,0,248042702,96434299,52,26
1000000000,386162425,13997042,48333401,607170117,0,270,106,0,248056403,96439623,53,27
1000000000,386198880,13998345,48243582,607227413,0,260,104,0,248079835,96448728,52,26
1000000000,386162433,13997028,48333382,607170118,0,260,106,0,248056426,96439629,53,26
1000000000,386141075,13996242,48386043,607136514,0,260,104,0,248042707,96434294,52,26
1000000000,386191177,13998085,48262539,607215323,0,270,106,0,248074877,96446805,53,27
1000000000,386191486,13998080,48261784,607215803,0,260,106,0,248075082,96446886,53,26
1000000000,386141076,13996242,48386042,607136513,0,260,104,0,248042711,96434292,52,26
1000000000,386162122,13997032,48334139,607169645,0,270,106,0,248056207,96439553,53,27
1000000000,386198884,13998337,48243579,607227404,0,260,104,0,248079846,96448729,52,26
1000000000,386162734,13997038,48332647,607170588,0,260,106,0,248056619,96439701,53,26
1000000000,386141071,13996243,48386044,607136512,0,260,104,0,248042703,96434299,52,26
1000000000,386190880,13998074,48263273,607214858,0,270,106,0,248074684,96446729,53,27
1000000000,386191786,13998091,48261049,607216269,0,260,106,0,248075280,96446957,53,26
1000000000,386141074,13996242,48386043,607136514,0,260,104,0,248042704,96434297,52,26
1000000000,386161826,13997021,48334873,607169177,0,270,106,0,248056018,96439476,53,27
1000000000,386198879,13998345,48243582,607227414,0,260,104,0,248079834,96448728,52,26
1000000000,386163030,13997049,48331911,607171056,0,260,106,0,248056810,96439778,53,26
1000000000,386141077,13996242,48386042,607136515,0,260,104,0,248042709,96434292,52,26
1000000000,386190581,13998063,48264010,607214388,0,270,106,0,248074490,96446656,53,27
1000000000,386192081,13998102,48260315,607216738,0,260,106,0,248075467,96447035,53,26
1000000000,386141077,13996242,48386040,607136511,0,260,104,0,248042715,96434292,52,26
1000000000,386161527,13997011,48335609,607168708,0,270,106,0,248055825,96439402,53,27
1000000000,386198882,13998337,48243581,607227406,0,260,104,0,248079838,96448733,52,26
1000000000,386163328,13997060,48331176,607171523,0,260,106,0,248057006,96439850,53,26
1000000000,386141074,13996242,48386043,607136515,0,260,104,0,248042703,96434297,52,26
1000000000,386190285,13998052,48264744,607213918,0,270,106,0,248074303,96446579,53,27
1000000000,386192380,13998113,48259578,607217207,0,260,106,0,248075660,96447110,53,26
1000000000,386141075,13996242,48386043,607136514,0,260,104,0,248042707,96434294,52,26
1000000000,386161228,13997000,48336343,607168238,0,270,106,0,248055635,96439328,53,27
1000000000,386198879,13998345,48243582,607227413,0,260,104,0,248079834,96448729,52,26
1000000000,386163628,13997070,48330443,607171997,0,260,106,0,248057190,96439925,53,26
1000000000,386141076,13996242,48386040,607136512,0,260,104,0,248042714,96434292,52,26
1000000000,386189984,13998042,48265482,607213453,0,270,106,0,248074100,96446509,53,27
1000000000,386192680,13998123,48258843,607217676,0,260,106,0,248075854,96447182,53,26
1000000000,386141075,13996243,48386041,607136508,0,260,104,0,248042716,96434293,52,26
1000000000,386160932,13996988,48337079,607167773,0,270,106,0,248055441,96439251,53,27
1000000000,386198878,13998338,48243582,607227403,0,260,104,0,248079837,96448736,52,26
1000000000,386163928,13997081,48329704,607172465,0,260,106,0,248057388,96439998,53,26
1000000000,386141075,13996242,48386043,607136514,0,260,104,0,248042705,96434296,52,26
1000000000,386189686,13998031,48266216,607212982,0,270,106,0,248073914,96446432,53,27
1000000000,386192976,13998134,48258107,607218142,0,260,106,0,248076047,96447259,53,26
1000000000,386141077,13996242,48386042,607136515,0,260,104,0,248042709,96434292,52,26
1000000000,386160632,13996979,48337815,607167298,0,270,106,0,248055255,96439176,53,27
1000000000,386198879,13998345,48243582,607227413,0,260,104,0,248079834,96448729,52,26
1000000000,386164225,13997091,48328971,607172937,0,260,106,0,248057570,96440077,53,26
1000000000,386141076,13996242,48386040,607136510,0,260,104,0,248042716,96434292,52,26
1000000000,386189384,13998021,48266954,607212514,0,270,106,0,248073714,96446362,53,27
1000000000,386193280,13998144,48257371,607218617,0,260,106,0,248076238,96447329,53,26
1000000000,386141073,13996243,48386041,607136508,0,260,104,0,248042714,96434295,52,26
1000000000,386160335,13996967,48338551,607166836,0,270,106,0,248055055,96439102,53,27
1000000000,386198881,13998338,48243580,607227401,0,260,104,0,248079845,96448732,52,26
1000000000,386164522,13997102,48328234,607173403,0,260,106,0,248057766,96440152,53,26
1000000000,386141075,13996242,48386043,607136513,0,260,104,0,248042709,96434293,52,26
1000000000,386189088,13998010,48267688,607212044,0,270,106,0,248073527,96446285,53,27
1000000000,386193575,13998155,48256637,607219082,0,260,106,0,248076430,96447406,53,26
1000000000,386141076,13996242,48386040,607136512,0,260,104,0,248042714,96434292,52,26
1000000000,386160036,13996957,48339286,607166365,0,270,106,0,248054865,96439028,53,27
1000000000,386198880,13998345,48243582,607227413,0,260,104,0,248079835,96448728,52,26
1000000000,386164821,13997113,48327500,607173873,0,260,106,0,248057956,96440226,53,26
1000000000,386141073,13996243,48386041,607136509,0,260,104,0,248042714,96434294,52,26
1000000000,386188791,13997999,48268423,607211576,0,270,106,0,248073336,96446209,53,27
1000000000,386193876,13998165,48255901,607219555,0,260,106,0,248076619,96447480,53,26
1000000000,386141072,13996243,48386041,607136509,0,260,104,0,248042711,96434297,52,26
1000000000,386159738,13996946,48340023,607165896,0,270,106,0,248054672,96438953,53,27
1000000000,386198884,13998337,48243579,607227402,0,260,104,0,248079848,96448729,52,26
1000000000,386165116,13997124,48326765,607174341,0,260,106,0,248058146,96440303,53,26
1000000000,386141076,13996242,48386041,607136513,0,260,104,0,248042712,96434292,52,26
1000000000,386188490,13997989,48269158,607211104,0,270,106,0,248073144,96446138,53,27
1000000000,386194174,13998176,48255167,607220023,0,260,106,0,248076812,96447553,53,26
1000000000,386141076,13996242,48386040,607136510,0,260,104,0,248042716,96434292,52,26
1000000000,386159438,13996936,48340758,607165429,0,270,106,0,248054476,96438881,53,27
1000000000,386198880,13998338,48243580,607227399,0,260,104,0,248079848,96448731,52,26
1000000000,386165418,13997141,48326030,607174824,0,260,106,0,248058331,96440370,53,26
1000000000,386141074,13996243,48386041,607136511,0,260,104,0,248042711,96434295,52,26
1000000000,386188195,13997977,48269894,607210636,0,270,106,0,248072956,96446058,53,27
1000000000,386194470,13998187,48254430,607220492,0,260,106,0,248077003,96447630,53,26
1000000000,386141072,13996243,48386042,607136510,0,260,104,0,248042707,96434299,52,26
1000000000,386159141,13996925,48341492,607164957,0,270,106,0,248054292,96438803,53,27
1000000000,386198883,13998337,48243581,607227405,0,260,104,0,248079842,96448730,52,26
1000000000,386165715,13997145,48325294,607175278,0,260,106,0,248058533,96440450,53,26
1000000000,386141077,13996242,48386040,607136511,0,260,104,0,248042715,96434292,52,26
1000000000,386187893,13997968,48270630,607210166,0,270,106,0,248072762,96445986,53,27
1000000000,386194770,13998197,48253695,607220963,0,260,106,0,248077192,96447705,53,26
1000000000,386141073,13996243,48386041,607136509,0,260,104,0,248042714,96434294,52,26
1000000000,386158841,13996914,48342229,607164489,0,270,106,0,248054094,96438732,53,27
1000000000,386198884,13998337,48243579,607227404,0,260,104,0,248079846,96448729,52,26
1000000000,386166014,13997163,48324559,607175760,0,260,106,0,248058717,96440519,53,26
1000000000,386141072,13996243,48386041,607136509,0,260,104,0,248042709,96434299,52,26
1000000000,386187599,13997949,48271364,607209689,0,270,106,0,248072580,96445911,53,27
1000000000,386195068,13998215,48252960,607221440,0,260,106,0,248077382,96447773,53,26
1000000000,386141071,13996243,48386044,607136511,0,260,104,0,248042704,96434299,52,26
1000000000,386158546,13996904,48342962,607164017,0,270,106,0,248053914,96438651,53,27
1000000000,386198880,13998337,48243581,607227406,0,260,104,0,248079836,96448735,52,26
1000000000,386166315,13997166,48323822,607176218,0,260,106,0,248058918,96440597,53,26
1000000000,386141074,13996243,48386041,607136508,0,260,104,0,248042716,96434293,52,26
1000000000,386187299,13997945,48272100,607209233,0,270,106,0,248072375,96445836,53,27
1000000000,386195366,13998219,48252224,607221897,0,260,106,0,248077580,96447854,53,26
1000000000,386141074,13996243,48386041,607136511,0,260,104,0,248042711,96434295,52,26
1000000000,386158245,13996893,48343699,607163549,0,270,106,0,248053716,96438580,53,27
1000000000,386198882,13998337,48243581,607227406,0,260,104,0,248079838,96448733,52,26
1000000000,386166611,13997184,48323087,607176695,0,260,106,0,248059107,96440666,53,26
1000000000,386141071,13996243,48386043,607136511,0,260,104,0,248042705,96434299,52,26
1000000000,386187005,13997927,48272833,607208750,0,270,106,0,248072200,96445761,53,27
1000000000,386195663,13998238,48251490,607222376,0,260,106,0,248077766,96447923,53,26
1000000000,386141072,13996242,48386043,607136514,0,260,104,0,248042702,96434299,52,26
1000000000,386157952,13996877,48344433,607163073,0,270,106,0,248053534,96438504,53,27
1000000000,386198875,13998343,48243580,607227409,0,260,104,0,248079834,96448735,52,26
1000000000,386166913,13997187,48322352,607177158,0,260,106,0,248059301,96440744,53,26
1000000000,386141074,13996243,48386041,607136509,0,260,104,0,248042713,96434295,52,26
1000000000,386186701,13997924,48273572,607208295,0,270,106,0,248071990,96445687,53,27
1000000000,386195964,13998240,48250752,607222835,0,260,106,0,248077967,96448001,53,26
1000000000,386141072,13996243,48386041,607136509,0,260,104,0,248042709,96434299,52,26
1000000000,386157651,13996871,48345170,607162613,0,270,106,0,248053335,96438426,53,27
1000000000,386198878,13998338,48243582,607227403,0,260,104,0,248079837,96448736,52,26
1000000000,386167212,13997205,48321615,607177634,0,260,106,0,248059493,96440813,53,26
1000000000,386141071,13996243,48386044,607136512,0,260,104,0,248042703,96434299,52,26
1000000000,386186406,13997906,48274304,607207815,0,270,106,0,248071811,96445614,53,27
1000000000,386196260,13998259,48250018,607223312,0,260,106,0,248078153,96448072,53,26
1000000000,386141074,13996242,48386043,607136514,0,260,104,0,248042704,96434297,52,26
1000000000,386157351,13996854,48345903,607162129,0,270,106,0,248053154,96438358,53,27
1000000000,386198879,13998345,48243582,607227413,0,260,104,0,248079834,96448729,52,26
1000000000,386167509,13997208,48320880,607178097,0,260,106,0,248059682,96440896,53,26
1000000000,386141072,13996243,48386041,607136510,0,260,104,0,248042710,96434297,52,26
1000000000,386186104,13997903,48275044,607207354,0,270,106,0,248071608,96445538,53,27
1000000000,386196563,13998261,48249280,607223774,0,260,106,0,248078353,96448148,53,26
1000000000,386141071,13996243,48386043,607136511,0,260,104,0,248042705,96434299,52,26
1000000000,386157054,13996850,48346640,607161676,0,270,106,0,248052949,96438279,53,27
1000000000,386198881,13998338,48243580,607227401,0,260,104,0,248079845,96448732,52,26
1000000000,386167804,13997227,48320146,607178571,0,260,106,0,248059872,96440966,53,26
1000000000,386141074,13996242,48386043,607136515,0,260,104,0,248042703,96434297,52,26
1000000000,386185807,13997885,48275776,607206874,0,270,106,0,248071427,96445467,53,27
1000000000,386196858,13998280,48248546,607224251,0,260,106,0,248078536,96448222,53,26
1000000000,386141075,13996242,48386043,607136514,0,260,104,0,248042707,96434294,52,26
1000000000,386156754,13996832,48347374,607161194,0,270,106,0,248052766,96438210,53,27
1000000000,386198880,13998345,48243582,607227413,0,260,104,0,248079835,96448728,52,26
1000000000,386168105,13997230,48319409,607179032,0,260,106,0,248060069,96441045,53,26
1000000000,386141071,13996243,48386042,607136510,0,260,104,0,248042707,96434299,52,26
1000000000,386185509,13997882,48276513,607206416,0,270,106,0,248071230,96445385,53,27
1000000000,386197160,13998282,48247810,607224711,0,260,106,0,248078735,96448299,53,26
1000000000,386141071,13996243,48386044,607136512,0,260,104,0,248042703,96434299,52,26
1000000000,386156455,13996829,48348111,607160737,0,270,106,0,248052564,96438132,53,27
1000000000,386198884,13998337,48243579,607227402,0,260,104,0,248079848,96448729,52,26
1000000000,386168399,13997249,48318675,607179511,0,260,106,0,248060252,96441117,53,26
1000000000,386141075,13996242,48386043,607136514,0,260,104,0,248042705,96434296,52,26
1000000000,386185208,13997864,48277246,607205933,0,270,106,0,248071045,96445320,53,27
1000000000,386197454,13998301,48247077,607225191,0,260,106,0,248078916,96448371,53,26
1000000000,386141077,13996242,48386042,607136515,0,260,104,0,248042709,96434292,52,26
1000000000,386156157,13996811,48348846,607160256,0,270,106,0,248052379,96438063,53,27
1000000000,386198880,13998345,48243582,607227414,0,260,104,0,248079834,96448728,52,26
1000000000,386168702,13997251,48317937,607179967,0,260,106,0,248060459,96441192,53,26
1000000000,386141070,13996243,48386044,607136512,0,260,104,0,248042703,96434299,52,26
1000000000,386184915,13997860,48277982,607205477,0,270,106,0,248070850,96445235,53,27
1000000000,386197752,13998305,48246340,607225648,0,260,106,0,248079116,96448451,53,26
1000000000,386141074,13996242,48386043,607136515,0,260,104,0,248042703,96434297,52,26
1000000000,386155857,13996808,48349581,607159796,0,270,106,0,248052183,96437984,53,27
1000000000,386198883,13998337,48243581,607227405,0,260,104,0,248079842,96448730,52,26
1000000000,386168997,13997270,48317203,607180447,0,260,106,0,248060638,96441267,53,26
1000000000,386141075,13996242,48386043,607136513,0,260,104,0,248042709,96434293,52,26
1000000000,386184613,13997843,48278718,607204995,0,270,106,0,248070663,96445168,53,27
1000000000,386198050,13998322,48245607,607226131,0,260,106,0,248079294,96448523,53,26
1000000000,386141076,13996242,48386040,607136512,0,260,104,0,248042714,96434292,52,26
1000000000,386155558,13996790,48350318,607159318,0,270,106,0,248051992,96437916,53,27
1000000000,386198880,13998345,48243582,607227414,0,260,104,0,248079834,96448728,52,26
1000000000,386169301,13997273,48316466,607180905,0,260,106,0,248060844,96441340,53,26
1000000000,386141072,13996242,48386043,607136515,0,260,104,0,248042702,96434298,52,26
1000000000,386184316,13997839,48279454,607204541,0,270,106,0,248070461,96445088,53,27
1000000000,386198350,13998326,48244868,607226585,0,260,106,0,248079503,96448599,53,26
1000000000,386141075,13996242,48386043,607136514,0,260,104,0,248042705,96434296,52,26
1000000000,386155260,13996787,48351053,607158856,0,270,106,0,248051803,96437832,53,27
1000000000,386198880,13998337,48243581,607227406,0,260,104,0,248079836,96448735,52,26
1000000000,386169595,13997291,48315733,607181385,0,260,106,0,248061022,96441415,53,26
1000000000,386141076,13996242,48386041,607136513,0,260,104,0,248042712,96434292,52,26
1000000000,386184017,13997821,48280189,607204061,0,270,106,0,248070275,96445019,53,27
1000000000,386198647,13998344,48244136,607227066,0,260,106,0,248079681,96448672,53,26
1000000000,386141076,13996242,48386040,607136510,0,260,104,0,248042716,96434292,52,26
1000000000,386154962,13996769,48351788,607158381,0,270,106,0,248051610,96437765,53,27
1000000000,386198880,13998345,48243582,607227414,0,260,104,0,248079834,96448728,52,26
1000000000,386169895,13997294,48314996,607181844,0,260,106,0,248061222,96441493,53,26
1000000000,386141074,13996242,48386043,607136515,0,260,104,0,248042704,96434296,52,26
1000000000,386183716,13997818,48280926,607203601,0,270,106,0,248070076,96444941,53,27
1000000000,386198884,13998337,48243579,607227401,0,260,104,0,248079849,96448729,52,26
1000000000,386141139,13996252,48385860,607136636,0,260,106,0,248042746,96434313,53,26
1000000000,386154664,13996765,48352524,607157922,0,270,106,0,248051414,96437684,53,27
1000000000,386198879,13998338,48243580,607227401,0,260,104,0,248079841,96448736,52,26
1000000000,386170193,13997312,48314264,607182326,0,260,106,0,248061403,96441562,53,26
1000000000,386141077,13996242,48386040,607136511,0,260,104,0,248042715,96434292,52,26
1000000000,386183418,13997800,48281661,607203125,0,270,106,0,248069886,96444872,53,27
1000000000,386198880,13998345,48243582,607227413,0,260,104,0,248079835,96448728,52,26
1000000000,386141438,13996263,48385123,607137100,0,260,106,0,248042947,96434385,53,26
1000000000,386154369,13996746,48353258,607157444,0,270,106,0,248051229,96437613,53,27
1000000000,386198881,13998345,48243582,607227413,0,260,104,0,248079835,96448728,52,26
1000000000,386170489,13997316,48313525,607182783,0,260,106,0,248061602,96441645,53,26
1000000000,386141075,13996242,48386043,607136514,0,260,104,0,248042707,96434294,52,26
1000000000,386183118,13997797,48282396,607202661,0,270,106,0,248069693,96444794,53,27
1000000000,386198883,13998337,48243581,607227405,0,260,104,0,248079843,96448729,52,26
1000000000,386141738,13996273,48384388,607137572,0,260,106,0,248043135,96434460,53,26
1000000000,386154067,13996744,48353996,607156985,0,270,106,0,248051026,96437537,53,27
1000000000,386198880,13998338,48243580,607227399,0,260,104,0,248079848,96448731,52,26
1000000000,386170790,13997333,48312792,607183267,0,260,106,0,248061782,96441714,53,26
1000000000,386141074,13996243,48386041,607136508,0,260,104,0,248042716,96434293,52,26
1000000000,386182821,13997778,48283132,607202186,0,270,106,0,248069502,96444724,53,27
1000000000,386198879,13998345,48243582,607227414,0,260,104,0,248079834,96448728,52,26
1000000000,386142039,13996284,48383651,607138041,0,260,106,0,248043330,96434533,53,26
1000000000,386153770,13996725,48354730,607156506,0,270,106,0,248050843,96437465,53,27
1000000000,386198880,13998345,48243582,607227413,0,260,104,0,248079835,96448728,52,26
1000000000,386171087,13997337,48312054,607183719,0,260,106,0,248061988,96441794,53,26
1000000000,386141076,13996242,48386042,607136514,0,260,104,0,248042710,96434292,52,26
1000000000,386182522,13997776,48283868,607201722,0,270,106,0,248069312,96444642,53,27
1000000000,386198881,13998337,48243581,607227407,0,260,104,0,248079836,96448734,52,26
1000000000,386142337,13996294,48382916,607138508,0,260,106,0,248043524,96434607,53,26
1000000000,386153466,13996723,48355468,607156046,0,270,106,0,248050640,96437390,53,27
1000000000,386198884,13998337,48243579,607227404,0,260,104,0,248079846,96448729,52,26
1000000000,386171386,13997355,48311321,607184202,0,260,106,0,248062169,96441863,53,26
1000000000,386141074,13996243,48386041,607136509,0,260,104,0,248042713,96434295,52,26
1000000000,386182225,13997757,48284602,607201247,0,270,106,0,248069124,96444571,53,27
1000000000,386198880,13998345,48243582,607227413,0,260,104,0,248079834,96448729,52,26
1000000000,386142632,13996305,48382181,607138979,0,260,106,0,248043708,96434687,53,26
1000000000,386153174,13996704,48356202,607155568,0,270,106,0,248050460,96437314,53,27
1000000000,386198879,13998345,48243582,607227414,0,260,104,0,248079834,96448728,52,26
1000000000,386171685,13997358,48310584,607184658,0,260,106,0,248062372,96441941,53,26
1000000000,386141076,13996242,48386040,607136512,0,260,104,0,248042714,96434292,52,26
1000000000,386181927,13997754,48285339,607200789,0,270,106,0,248068923,96444493,53,27
1000000000,386198878,13998338,48243581,607227400,0,260,104,0,248079841,96448736,52,26
1000000000,386142934,13996316,48381446,607139448,0,260,106,0,248043906,96434755,53,26
1000000000,386152873,13996701,48356937,607155109,0,270,106,0,248050260,96437238,53,27
1000000000,386198882,13998337,48243581,607227406,0,260,104,0,248079838,96448733,52,26
1000000000,386171983,13997376,48309849,607185138,0,260,106,0,248062558,96442010,53,26
1000000000,386141072,13996243,48386041,607136510,0,260,104,0,248042710,96434297,52,26
1000000000,386181632,13997735,48286073,607200308,0,270,106,0,248068744,96444419,53,27
1000000000,386198877,13998338,48243582,607227404,0,260,104,0,248079836,96448736,52,26
1000000000,386143229,13996334,48380712,607139927,0,260,106,0,248044086,96434830,53,26
1000000000,386152577,13996683,48357670,607154628,0,270,106,0,248050080,96437166,53,27
1000000000,386198879,13998345,48243582,607227413,0,260,104,0,248079834,96448729,52,26
1000000000,386172284,13997379,48309114,607185599,0,260,106,0,248062754,96442088,53,26
1000000000,386141076,13996243,48386040,607136510,0,260,104,0,248042716,96434292,52,26
1000000000,386181328,13997732,48286811,607199853,0,270,106,0,248068534,96444346,53,27
1000000000,386198880,13998338,48243580,607227399,0,260,104,0,248079848,96448731,52,26
1000000000,386143530,13996337,48379975,607140387,0,260,106,0,248044284,96434909,53,26
1000000000,386152277,13996679,48358408,607154171,0,270,106,0,248049879,96437086,53,27
1000000000,386198878,13998338,48243582,607227403,0,260,104,0,248079837,96448736,52,26
1000000000,386172583,13997397,48308377,607186078,0,260,106,0,248062943,96442157,53,26
1000000000,386141071,13996243,48386042,607136510,0,260,104,0,248042707,96434299,52,26
1000000000,386181035,13997714,48287544,607199373,0,270,106,0,248068357,96444270,53,27
1000000000,386198880,13998338,48243580,607227400,0,260,104,0,248079845,96448733,52,26
1000000000,386143825,13996355,48379243,607140866,0,260,106,0,248044466,96434980,53,26
1000000000,386151980,13996662,48359141,607153689,0,270,106,0,248049700,96437014,53,27
1000000000,386198880,13998337,48243581,607227406,0,260,104,0,248079836,96448735,52,26
1000000000,386172880,13997408,48307643,607186546,0,260,106,0,248063132,96442234,53,26
1000000000,386141073,13996243,48386041,607136509,0,260,104,0,248042714,96434294,52,26
1000000000,386180731,13997711,48288282,607198913,0,270,106,0,248068152,96444197,53,27
1000000000,386198884,13998337,48243579,607227403,0,260,104,0,248079847,96448729,52,26
1000000000,386144123,13996359,48378504,607141324,0,260,106,0,248044667,96435060,53,26
1000000000,386151681,13996658,48359880,607153234,0,270,106,0,248049493,96436937,53,27
1000000000,386198881,13998338,48243580,607227401,0,260,104,0,248079845,96448732,52,26
1000000000,386173178,13997418,48306907,607187015,0,260,106,0,248063325,96442308,53,26
1000000000,386141070,13996243,48386044,607136512,0,260,104,0,248042703,96434299,52,26
1000000000,386180437,13997693,48289014,607198433,0,270,106,0,248067974,96444123,53,27
1000000000,386198884,13998337,48243579,607227401,0,260,104,0,248079849,96448729,52,26
1000000000,386144420,13996377,48377772,607141806,0,260,106,0,248044846,96435131,53,26
1000000000,386151383,13996640,48360612,607152752,0,270,106,0,248049314,96436866,53,27
1000000000,386198879,13998338,48243580,607227401,0,260,104,0,248079841,96448736,52,26
1000000000,386173478,13997429,48306173,607187486,0,260,106,0,248063515,96442381,53,26
1000000000,386141073,13996243,48386041,607136510,0,260,104,0,248042711,96434296,52,26
1000000000,386180137,13997682,48289751,607197966,0,270,106,0,248067778,96444049,53,27
1000000000,386198880,13998345,48243582,607227413,0,260,104,0,248079835,96448728,52,26
1000000000,386144720,13996380,48377033,607142260,0,260,106,0,248045053,96435209,53,26
1000000000,386151084,13996637,48361351,607152295,0,270,106,0,248049110,96436788,53,27
1000000000,386198884,13998337,48243579,607227402,0,260,104,0,248079848,96448729,52,26
1000000000,386173772,13997441,48305437,607187951,0,260,106,0,248063708,96442459,53,26
1000000000,386141072,13996242,48386043,607136515,0,260,104,0,248042702,96434298,52,26
1000000000,386179838,13997672,48290484,607197492,0,270,106,0,248067592,96443976,53,27
1000000000,386198883,13998337,48243581,607227405,0,260,104,0,248079843,96448729,52,26
1000000000,386145020,13996398,48376300,607142743,0,260,106,0,248045234,96435278,53,26
1000000000,386150785,13996619,48362084,607151814,0,270,106,0,248048927,96436719,53,27
1000000000,386198880,13998338,48243580,607227399,0,260,104,0,248079848,96448731,52,26
1000000000,386174074,13997450,48304701,607188426,0,260,106,0,248063895,96442533,53,26
1000000000,386141071,13996243,48386041,607136509,0,260,104,0,248042709,96434299,52,26
1000000000,386179540,13997661,48291223,607197026,0,270,106,0,248067396,96443899,53,27
1000000000,386198879,13998345,48243582,607227414,0,260,104,0,248079834,96448728,52,26
1000000000,386145319,13996401,48375563,607143200,0,260,106,0,248045436,96435356,53,26
1000000000,386150487,13996616,48362819,607151355,0,270,106,0,248048730,96436640,53,27
1000000000,386198883,13998337,48243581,607227405,0,260,104,0,248079842,96448730,52,26
1000000000,386174370,13997462,48303965,607188888,0,260,106,0,248064094,96442608,53,26
1000000000,386141074,13996242,48386043,607136515,0,260,104,0,248042704,96434296,52,26
1000000000,386179241,13997651,48291956,607196552,0,270,106,0,248067212,96443824,53,27
1000000000,386198881,13998337,48243581,607227407,0,260,104,0,248079836,96448734,52,26
1000000000,386145617,13996419,48374828,607143679,0,260,106,0,248045623,96435425,53,26
1000000000,386150186,13996598,48363556,607150875,0,270,106,0,248048541,96436572,53,27
1000000000,386198884,13998337,48243579,607227404,0,260,104,0,248079846,96448729,52,26
1000000000,386174669,13997472,48303230,607189359,0,260,106,0,248064284,96442682,53,26
1000000000,386141071,13996243,48386044,607136511,0,260,104,0,248042704,96434299,52,26
1000000000,386178945,13997640,48292690,607196088,0,270,106,0,248067018,96443748,53,27
1000000000,386198880,13998345,48243582,607227413,0,260,104,0,248079834,96448729,52,26
1000000000,386145915,13996422,48374093,607144140,0,260,106,0,248045816,96435506,53,26
1000000000,386149891,13996587,48364290,607150407,0,270,106,0,248048352,96436495,53,27
1000000000,386198879,13998345,48243582,607227414,0,260,104,0,248079834,96448728,52,26
1000000000,386174968,13997483,48302493,607189827,0,260,106,0,248064478,96442757,53,26
1000000000,386141075,13996242,48386043,607136514,0,260,104,0,248042707,96434294,52,26
1000000000,386178645,13997629,48293427,607195618,0,270,106,0,248066824,96443675,53,27
1000000000,386198878,13998338,48243581,607227400,0,260,104,0,248079841,96448736,52,26
1000000000,386146216,13996440,48373357,607144620,0,260,106,0,248046006,96435572,53,26
1000000000,386149591,13996577,48365026,607149937,0,270,106,0,248048160,96436421,53,27
1000000000,386198882,13998337,48243581,607227406,0,260,104,0,248079838,96448733,52,26
1000000000,386175267,13997493,48301758,607190294,0,260,106,0,248064674,96442829,53,26
1000000000,386141072,13996243,48386044,607136513,0,260,104,0,248042702,96434299,52,26
1000000000,386178348,13997618,48294161,607195149,0,270,106,0,248066636,96443598,53,27
1000000000,386198880,13998345,48243582,607227413,0,260,104,0,248079835,96448728,52,26
1000000000,386146510,13996452,48372622,607145088,0,260,106,0,248046193,96435652,53,26
1000000000,386149293,13996558,48365760,607149458,0,270,106,0,248047974,96436352,53,27
1000000000,386198879,13998345,48243582,607227413,0,260,104,0,248079834,96448729,52,26
1000000000,386175565,13997504,48301024,607190767,0,260,106,0,248064858,96442906,53,26
1000000000,386141076,13996242,48386042,607136514,0,260,104,0,248042710,96434292,52,26
1000000000,386178047,13997608,48294899,607194681,0,270,106,0,248066436,96443528,53,27
1000000000,386198880,13998338,48243580,607227399,0,260,104,0,248079848,96448731,52,26
1000000000,386146813,13996461,48371886,607145557,0,260,106,0,248046388,96435724,53,26
1000000000,386148994,13996555,48366497,607149001,0,270,106,0,248047775,96436271,53,27
1000000000,386198878,13998338,48243582,607227403,0,260,104,0,248079837,96448736,52,26
1000000000,386175864,13997515,48300287,607191234,0,260,106,0,248065056,96442978,53,26
1000000000,386141075,13996242,48386043,607136515,0,260,104,0,248042703,96434297,52,26
1000000000,386177750,13997597,48295633,607194212,0,270,106,0,248066248,96443451,53,27
1000000000,386198879,13998345,48243582,607227412,0,260,104,0,248079836,96448728,52,26
1000000000,386147107,13996473,48371150,607146023,0,260,106,0,248046579,96435803,53,26
1000000000,386148699,13996537,48367232,607148520,0,270,106,0,248047596,96436196,53,27
1000000000,386198879,13998345,48243582,607227413,0,260,104,0,248079834,96448729,52,26
1000000000,386176160,13997525,48299554,607191707,0,260,106,0,248065236,96443058,53,26
1000000000,386141076,13996242,48386040,607136512,0,260,104,0,248042714,96434292,52,26
1000000000,386177449,13997587,48296371,607193742,0,270,106,0,248066050,96443381,53,27
1000000000,386198884,13998337,48243579,607227403,0,260,104,0,248079847,96448729,52,26
1000000000,346262451,15082625,75423741,568880469,0,543,175,0,259533186,96161784,69,31
1000000000,303970816,16235339,104041819,528327521,0,0,61,0,271750015,95880523,61,0
1000000000,303961056,16234814,104070584,528310562,0,0,61,0,271741286,95877446,61,0
1000000000,303967293,16235154,104052201,528321404,0,0,61,0,271746861,95879412,61,0
1000000000,303964576,16235007,104060206,528316688,0,0,61,0,271744426,95878558,61,0
1000000000,303963772,16234961,104062579,528315277,0,0,61,0,271743721,95878301,61,0
1000000000,303968100,16235192,104049824,528322802,0,0,61,0,271747584,95879668,61,0
1000000000,303960247,16234783,104072964,528309176,0,0,61,0,271740547,95877191,61,0
1000000000,303971623,16235378,104039443,528328917,0,0,61,0,271750739,95880779,61,0
1000000000,303956726,16234590,104083342,528303048,0,0,61,0,271737408,95876080,61,0
1000000000,303975143,16235571,104029065,528335044,0,0,61,0,271753879,95881890,61,0
1000000000,303953206,16234397,104093720,528296921,0,0,61,0,271734268,95874969,61,0
1000000000,303978665,16235757,104018684,528341158,0,0,61,0,271757035,95883001,61,0
1000000000,303949684,16234211,104104101,528290808,0,0,61,0,271731111,95873858,61,0
1000000000,303982187,16235949,104008305,528347285,0,0,61,0,271760177,95884111,61,0
1000000000,303946162,16234019,104114480,528284680,0,0,61,0,271727970,95872748,61,0
1000000000,303985706,16236135,103997926,528353401,0,0,61,0,271763326,95885225,61,0
1000000000,303942644,16233840,104124857,528278571,0,0,61,0,271724821,95871629,61,0
1000000000,303989228,16236321,103987548,528359520,0,0,61,0,271766471,95886339,61,0
1000000000,303939121,16233647,104135237,528272446,0,0,61,0,271721675,95870520,61,0
1000000000,303992748,16236506,103977171,528365637,0,0,61,0,271769617,95887453,61,0
1000000000,303935601,16233462,104145614,528266329,0,0,61,0,271718529,95869406,61,0
1000000000,303996270,16236699,103966790,528371762,0,0,61,0,271772763,95888563,61,0
1000000000,303932078,16233269,104155995,528260203,0,0,61,0,271715384,95868296,61,0
1000000000,303999792,16236884,103956412,528377882,0,0,61,0,271775910,95889674,61,0
1000000000,303928557,16233084,104166373,528254084,0,0,61,0,271712236,95867185,61,0
1000000000,304003313,16237077,103946034,528384005,0,0,61,0,271779054,95890785,61,0
1000000000,303926918,16232966,104172192,528249835,0,0,60,0,271710320,95867533,60,0
1000000000,304002968,16237053,103947057,528383398,0,0,61,0,271778749,95890674,61,0
1000000000,303928901,16233100,104165352,528254684,0,0,61,0,271712543,95867299,61,0
1000000000,303999448,16236876,103957432,528377289,0,0,61,0,271775600,95889557,61,0
1000000000,303932422,16233285,104154973,528260800,0,0,61,0,271715692,95868413,61,0
1000000000,303995927,16236683,103967812,528371165,0,0,61,0,271772455,95888446,61,0
1000000000,303935944,16233470,104144593,528266920,0,0,61,0,271718842,95869523,61,0
1000000000,303992404,16236498,103978192,528365045,0,0,61,0,271769305,95887336,61,0
1000000000,303939466,16233663,104134215,528273046,0,0,61,0,271721983,95870634,61,0
1000000000,303988883,16236305,103988570,528358919,0,0,61,0,271766164,95886225,61,0
1000000000,303942988,16233856,104123835,528279171,0,0,61,0,271725127,95871745,61,0
1000000000,303985361,16236112,103998950,528352794,0,0,61,0,271763020,95885114,61,0
1000000000,303946510,16234041,104113455,528285290,0,0,61,0,271728278,95872855,61,0
1000000000,303981839,16235927,104009330,528346676,0,0,61,0,271759869,95884003,61,0
1000000000,303950030,16234234,104103077,528291416,0,0,61,0,271731418,95873967,61,0
1000000000,303978317,16235741,104019711,528340562,0,0,61,0,271756713,95882892,61,0
1000000000,303953555,16234412,104092692,528297517,0,0,61,0,271734592,95875077,61,0
1000000000,303974793,16235556,104030093,528334448,0,0,61,0,271753555,95881782,61,0
1000000000,303957077,16234605,104082314,528303645,0,0,61,0,271737731,95876188,61,0
1000000000,303971272,16235363,104040471,528328320,0,0,61,0,271750416,95880671,61,0
1000000000,303960598,16234791,104071933,528309760,0,0,61,0,271740885,95877300,61,0
1000000000,303967751,16235177,104050852,528322205,0,0,61,0,271747262,95879559,61,0
1000000000,303964121,16234983,104061554,528315887,0,0,61,0,271744028,95878409,61,0
1000000000,303964228,16234985,104061231,528316079,0,0,61,0,271744118,95878450,61,0
1000000000,303967640,16235169,104051176,528322002,0,0,61,0,271747176,95879524,61,0
1000000000,303960710,16234807,104071607,528309970,0,0,61,0,271740971,95877330,61,0
1000000000,303971161,16235354,104040797,528328123,0,0,61,0,271750321,95880637,61,0
1000000000,303957188,16234613,104081988,528303842,0,0,61,0,271737826,95876222,61,0
1000000000,303974683,16235548,104030418,528334248,0,0,61,0,271753466,95881746,61,0
1000000000,303953666,16234420,104092367,528297718,0,0,61,0,271734680,95875113,61,0
1000000000,303978202,16235733,104020041,528340363,0,0,61,0,271756612,95882862,61,0
1000000000,303950147,16234235,104102744,528291603,0,0,61,0,271731534,95873997,61,0
1000000000,303981724,16235926,104009660,528346489,0,0,61,0,271759758,95883971,61,0
1000000000,303946624,16234042,104113125,528285476,0,0,61,0,271728389,95872888,61,0
1000000000,303985246,16236111,103999283,528352608,0,0,61,0,271762904,95885083,61,0
1000000000,303943101,16233865,104123506,528279367,0,0,61,0,271725228,95871777,61,0
1000000000,303988770,16236296,103988899,528358723,0,0,61,0,271766063,95886193,61,0
1000000000,303939578,16233672,104133886,528273242,0,0,61,0,271722084,95870666,61,0
1000000000,303992293,16236481,103978519,528364842,0,0,61,0,271769214,95887303,61,0
1000000000,303936056,16233487,104144266,528267123,0,0,61,0,271718933,95869556,61,0
1000000000,303995813,16236674,103968141,528370969,0,0,61,0,271772354,95888414,61,0
1000000000,303932535,16233294,104154644,528260996,0,0,61,0,271715793,95868445,61,0
1000000000,303999337,16236859,103957759,528377083,0,0,61,0,271775512,95889524,61,0
1000000000,303929012,16233109,104165025,528254883,0,0,61,0,271712635,95867335,61,0
1000000000,304002858,16237052,103947382,528383210,0,0,61,0,271778651,95890635,61,0
1000000000,303926916,16232966,104172198,528249833,0,0,60,0,271710312,95867537,60,0
1000000000,304003428,16237078,103945699,528384193,0,0,61,0,271779170,95890816,61,0
1000000000,303928443,16233075,104166704,528253890,0,0,61,0,271712131,95867153,61,0
1000000000,303999906,16236893,103956081,528378075,0,0,61,0,271776016,95889706,61,0
1000000000,303931964,16233268,104156326,528260018,0,0,61,0,271715270,95868264,61,0
1000000000,303996384,16236707,103966462,528371961,0,0,61,0,271772861,95888594,61,0
1000000000,303935488,16233446,104145941,528266118,0,0,61,0,271718444,95869375,61,0
1000000000,303992860,16236522,103976844,528365847,0,0,61,0,271769703,95887484,61,0
1000000000,303939009,16233639,104135563,528272245,0,0,61,0,271721584,95870486,61,0
1000000000,303989339,16236329,103987222,528359720,0,0,61,0,271766563,95886373,61,0
365964415,111243694,5941640,38071418,193352089,0,0,23,0,99452209,35088653,23,0
