1000000000,1674821922,571536059,1021350390,1055011512,167439017,247709350,366312608,467602106,602168132,724644646,800738452
1000000000,1669796730,575547562,1009270858,1055370603,164542838,240288953,359225817,467196190,597466554,722599293,805931248
1000000000,1726219318,820729025,965685385,1456480995,203835699,298686561,486079339,596477750,727502317,851680745,902761089
1000000000,1731033271,841234420,961893376,1489683738,206998267,303471917,496552944,607050591,738055640,862200582,910595161
1000000000,1730942353,841129795,961648818,1489498454,206972511,303434162,496491174,606975073,737839450,861968952,910233613
1000000000,1730986726,841180872,961768701,1489588890,206985101,303452620,496521351,607011963,737945017,862082066,910410172
1000000000,1731051771,841255722,961942465,1489721441,207003498,303479590,496565506,607065944,738099620,862247707,910668714
1000000000,1730978843,841171782,961747302,1489572820,206982854,303449320,496515968,607005389,737926227,862061926,910378735
1000000000,1730942342,841129803,961648831,1489498460,206972521,303434175,496491194,606975089,737839463,861968969,910233630
1000000000,1731041158,841243505,961914761,1489699805,207000512,303475212,496558318,607057157,738074424,862220717,910626593
1000000000,1731033839,841235069,961894876,1489684886,206998421,303472145,496553319,607051053,738056978,862202014,910597398
1000000000,1730942345,841129802,961648829,1489498460,206972519,303434171,496491188,606975085,737839459,861968964,910233626
1000000000,1730986170,841180215,961767184,1489587733,206984938,303452380,496520958,607011485,737943667,862080619,910407918
1000000000,1731051770,841255715,961943099,1489721441,207003503,303479592,496565507,607065950,738099620,862247708,910668717
1000000000,1730979400,841172439,961748809,1489573974,206983017,303449559,496516363,607005867,737927579,862063376,910380992
1000000000,1730942352,841129795,961648818,1489498455,206972513,303434164,496491175,606975074,737839450,861968952,910233614
1000000000,1731040589,841242858,961913266,1489698654,207000350,303474977,496557934,607056688,738073083,862219280,910624347
1000000000,1731034399,841235721,961896384,1489686044,206998593,303472393,496553721,607051537,738058332,862203468,910599661
1000000000,1730942351,841129797,961648818,1489498452,206972509,303434159,496491170,606975068,737839446,861968949,910233611
1000000000,1730985592,841179572,961765689,1489586590,206984786,303452155,496520590,607011031,737942337,862079196,910405687
1000000000,1731051779,841255720,961942471,1489721438,207003494,303479586,496565499,607065937,738099612,862247698,910668705
1000000000,1730979969,841173085,961750308,1489575125,206983175,303449791,496516742,607006334,737928920,862064809,910383232
1000000000,1730942342,841129802,961648830,1489498459,206972519,303434172,496491188,606975084,737839457,861968963,910233624
1000000000,1731040031,841242205,961911754,1489697502,207000190,303474741,496557549,607056218,738071739,862217840,910622101
1000000000,1731034967,841236370,961897884,1489687191,206998747,303472621,496554096,607051999,738059670,862204899,910601898
1000000000,1730942350,841129798,961648822,1489498457,206972515,303434166,496491179,606975078,737839452,861968956,910233618
1000000000,1730985025,841178922,961764195,1489585433,206984622,303451917,496520200,607010553,737940987,862077750,910403435
1000000000,1731051772,841255714,961943098,1489721442,207003503,303479592,496565507,607065951,738099620,862247707,910668716
1000000000,1730980536,841173735,961751804,1489576277,206983337,303450027,496517127,607006803,737930265,862066253,910385484
1000000000,1730942352,841129797,961648821,1489498452,206972509,303434160,496491171,606975069,737839446,861968949,910233610
1000000000,1731039464,841241555,961910259,1489696351,207000032,303474509,496557167,607055750,738070395,862216400,910619853
1000000000,1731035524,841237024,961899396,1489688345,206998911,303472861,496554488,607052475,738061018,862206344,910604151
1000000000,1730942352,841129797,961648812,1489498456,206972510,303434160,496491172,606975073,737839453,861968956,910233618
1000000000,1730984467,841178271,961762684,1489584284,206984463,303451683,496519819,607010088,737939646,862076312,910401188
1000000000,1731051776,841255720,961942472,1489721444,207003500,303479592,496565507,607065946,738099616,862247703,910668712
1000000000,1730981097,841174386,961753312,1489577423,206983493,303450259,496517507,607007267,737931604,862067686,910387722
1000000000,1730942349,841129800,961648825,1489498460,206972517,303434168,496491183,606975082,737839456,861968961,910233623
1000000000,1731038898,841240903,961908752,1489695196,206999869,303474270,496556776,607055274,738069048,862214957,910617604
1000000000,1731036093,841237674,961900892,1489689496,206999071,303473095,496554873,607052944,738062361,862207785,910606397
1000000000,1730942352,841129795,961648818,1489498455,206972513,303434164,496491175,606975074,737839450,861968952,910233614
1000000000,1730983897,841177624,961761184,1489583134,206984303,303451448,496519435,607009619,737938305,862074877,910398947
1000000000,1731051769,841255715,961943099,1489721442,207003504,303479593,496565508,607065951,738099620,862247708,910668718
1000000000,1730981666,841175034,961754825,1489578576,206983654,303450496,496517892,607007738,737932946,862069123,910389968
1000000000,1730942351,841129797,961648812,1489498455,206972510,303434159,496491170,606975071,737839450,861968953,910233615
1000000000,1731038335,841240256,961907257,1489694051,206999715,303474044,496556407,607054819,738067712,862213525,910615364
1000000000,1731036660,841238322,961902395,1489690646,206999227,303473325,496555248,607053406,738063700,862209218,910608639
1000000000,1730942345,841129799,961648816,1489498455,206972513,303434164,496491178,606975076,737839455,861968959,910233620
1000000000,1730983340,841176967,961759677,1489581979,206984139,303451208,496519039,607009140,737936952,862073426,910396689
1000000000,1731051768,841255724,961942478,1489721446,207003506,303479600,496565521,607065956,738099626,862247715,910668723
1000000000,1730982232,841175686,961756314,1489579727,206983811,303450725,496518272,607008204,737934287,862070562,910392212
1000000000,1730942353,841129796,961648819,1489498456,206972515,303434166,496491178,606975077,737839452,861968953,910233615
1000000000,1731037768,841239604,961905750,1489692897,206999552,303473805,496556015,607054342,738066365,862212083,910613116
1000000000,1731037218,841238975,961903897,1489691800,206999391,303473564,496555639,607053882,738065050,862210666,910610893
1000000000,1730942352,841129797,961648821,1489498452,206972509,303434160,496491171,606975069,737839446,861968949,910233610
1000000000,1730982772,841176320,961758175,1489580830,206983980,303450976,496518662,607008678,737935617,862071993,910394450
1000000000,1731051770,841255715,961943099,1489721442,207003504,303479593,496565509,607065952,738099621,862247709,910668718
1000000000,1730982793,841176337,961757831,1489580881,206983977,303450967,496518664,607008679,737935633,862072004,910394464
1000000000,1730942349,841129798,961648814,1489498455,206972512,303434162,496491175,606975075,737839454,861968957,910233618
1000000000,1731037201,841238955,961904249,1489691749,206999398,303473578,496555641,607053881,738065027,862210651,910610876
1000000000,1731037799,841239619,961905397,1489692947,206999543,303473789,496556008,607054339,738066379,862212086,910613121
1000000000,1730942340,841129803,961648822,1489498457,206972515,303434167,496491184,606975081,737839460,861968966,910233627
1000000000,1730982215,841175664,961756670,1489579675,206983820,303450740,496518273,607008203,737934265,862070545,910392194
1000000000,1731051766,841255726,961942471,1489721446,207003501,303479594,496565513,607065950,738099624,862247714,910668721
1000000000,1730983358,841176987,961759328,1489582031,206984136,303451200,496519045,607009147,737936976,862073443,910396709
1000000000,1730942352,841129795,961648818,1489498454,206972511,303434162,496491174,606975072,737839449,861968951,910233612
1000000000,1731036633,841238308,961902755,1489690596,206999236,303473341,496555255,607053411,738063684,862209210,910608629
1000000000,1731038356,841240271,961906901,1489694099,206999707,303474029,496556399,607054813,738067729,862213535,910615376
1000000000,1730942351,841129797,961648812,1489498455,206972510,303434159,496491170,606975071,737839450,861968953,910233615
1000000000,1730981645,841175018,961755169,1489578527,206983661,303450508,496517896,607007738,737932926,862069113,910389955
1000000000,1731051771,841255715,961943100,1489721440,207003503,303479592,496565507,607065950,738099621,862247708,910668717
1000000000,1730983927,841177636,961760831,1489583185,206984296,303451435,496519431,607009620,737938321,862074882,910398956
1000000000,1730942341,841129802,961648820,1489498456,206972514,303434166,496491181,606975078,737839457,861968962,910233623
1000000000,1731036074,841237654,961901241,1489689445,206999074,303473103,496554867,607052938,738062338,862207768,910606378
1000000000,1731038926,841240918,961908403,1489695247,206999865,303474260,496556776,607055276,738069065,862214966,910617616
1000000000,1730942340,841129805,961648825,1489498460,206972519,303434171,496491190,606975087,737839463,861968969,910233630
1000000000,1730981076,841174367,961753673,1489577374,206983500,303450273,496517509,607007267,737931581,862067670,910387705
1000000000,1731051778,841255719,961942460,1489721442,207003495,303479585,496565498,607065939,738099616,862247702,910668710
1000000000,1730984487,841178288,961762341,1489584336,206984460,303451675,496519822,607010092,737939667,862076327,910401206
1000000000,1730942351,841129797,961648812,1489498453,206972509,303434159,496491170,606975070,737839448,861968951,910233613
1000000000,1731035504,841237008,961899741,1489688297,206998919,303472874,496554492,607052476,738061001,862206337,910604141
1000000000,1731039486,841241571,961909913,1489696400,207000024,303474496,496557164,607055749,738070412,862216407,910619863
1000000000,1730942349,841129798,961648814,1489498455,206972512,303434162,496491175,606975075,737839454,861968957,910233618
1000000000,1730980515,841173718,961752168,1489576227,206983343,303450041,496517130,607006803,737930241,862066236,910385465
1000000000,1731051773,841255714,961943097,1489721441,207003503,303479592,496565507,607065951,738099620,862247707,910668716
1000000000,1730985056,841178934,961763831,1489585481,206984613,303451900,496520191,607010548,737941001,862077755,910403442
1000000000,1730942341,841129805,961648825,1489498460,206972517,303434169,496491188,606975085,737839463,861968970,910233631
1000000000,1731034947,841236350,961898233,1489687138,206998749,303472628,496554087,607051990,738059644,862204879,910601876
1000000000,1731040051,841242222,961911411,1489697551,207000186,303474732,496557550,607056218,738071755,862217849,910622112
1000000000,1730942340,841129803,961648822,1489498464,206972522,303434174,496491193,606975091,737839466,861968972,910233634
1000000000,1730979951,841173068,961750661,1489575070,206983179,303449801,496516740,607006328,737928895,862064793,910383212
1000000000,1731051779,841255717,961942467,1489721441,207003497,303479589,496565502,607065941,738099614,862247699,910668708
1000000000,1730985612,841179591,961765348,1489586637,206984776,303452140,496520584,607011026,737942351,862079202,910405695
1000000000,1730942350,841129797,961648812,1489498455,206972510,303434160,496491172,606975072,737839452,861968955,910233617
1000000000,1731034379,841235704,961896733,1489685991,206998594,303472400,496553716,607051531,738058309,862203451,910599641
1000000000,1731040620,841242871,961912915,1489698705,207000348,303474968,496557936,607056692,738073100,862219289,910624359
1000000000,1730942341,841129802,961648820,1489498456,206972514,303434166,496491181,606975078,737839457,861968962,910233623
1000000000,1730979381,841172417,961749156,1489573925,206983026,303449573,496516364,607005866,737927558,862063362,910380977
1000000000,1731051772,841255715,961943108,1489721440,207003503,303479593,496565508,607065951,738099620,862247707,910668716
1000000000,1730986190,841180234,961766832,1489587783,206984928,303452364,496520952,607011481,737943682,862080627,910407928
1000000000,1730942341,841129805,961648825,1489498462,206972521,303434173,496491191,606975089,737839466,861968972,910233634
1000000000,1731033822,841235047,961895226,1489684835,206998429,303472159,496553322,607051053,738056956,862201999,910597381
1000000000,1731041177,841243524,961914417,1489699854,207000503,303475197,496558312,607057154,738074443,862220728,910626606
1000000000,1730942341,841129803,961648831,1489498460,206972521,303434175,496491194,606975089,737839462,861968968,910233629
1000000000,1730978824,841171765,961747645,1489572768,206982856,303449328,496515966,607005386,737926208,862061912,910378718
1000000000,1731051768,841255723,961942478,1489721445,207003504,303479597,496565515,607065951,738099620,862247709,910668717
1000000000,1730986755,841180886,961768340,1489588939,206985092,303452603,496521343,607011958,737945033,862082074,910410182
1000000000,1730942345,841129800,961648817,1489498455,206972514,303434165,496491180,606975078,737839457,861968961,910233622
1000000000,1731033252,841234401,961893727,1489683686,206998272,303471928,496552942,607050586,738055616,862200567,910595143
1000000000,1731041747,841244171,961915917,1489701006,207000667,303475436,496558702,607057629,738075786,862222166,910628850
1000000000,1730942341,841129805,961648825,1489498460,206972517,303434169,496491188,606975085,737839463,861968970,910233631
1000000000,1730978255,841171116,961746150,1489571619,206982700,303449099,496515589,607004922,737924868,862060476,910376476
1000000000,1731051770,841255715,961943099,1489721442,207003504,303479593,496565508,607065951,738099620,862247709,910668718
1000000000,1730987318,841181534,961769846,1489590086,206985250,303452835,496521720,607012421,737946371,862083507,910412424
1000000000,1730942342,841129803,961648831,1489498460,206972521,303434175,496491194,606975089,737839463,861968969,910233630
1000000000,1731032683,841233753,961892224,1489682535,206998112,303471693,496552560,607050120,738054275,862199128,910592896
1000000000,1731042314,841244821,961917413,1489702156,207000821,303475664,496559077,607058090,738077127,862223603,910631095
1000000000,1730942345,841129802,961648829,1489498460,206972519,303434171,496491188,606975085,737839459,861968964,910233626
1000000000,1730977693,841170463,961744640,1489570465,206982538,303448861,496515200,607004447,737923519,862059034,910374225
1000000000,1731051766,841255726,961942472,1489721446,207003505,303479597,496565517,607065954,738099626,862247715,910668723
1000000000,1730987889,841182182,961771347,1489591238,206985410,303453071,496522107,607012893,737947714,862084944,910414666
1000000000,1730942340,841129804,961648823,1489498459,206972516,303434168,496491185,606975082,737839461,861968968,910233629
1000000000,1731032123,841233101,961890724,1489681385,206997953,303471460,496552177,607049653,738052933,862197689,910590652
1000000000,1731042875,841245471,961918920,1489703305,207000983,303475901,496559463,607058558,738078467,862225041,910633338
1000000000,1730942341,841129805,961648825,1489498462,206972521,303434173,496491191,606975089,737839466,861968972,910233634
1000000000,1730977129,841169812,961743143,1489569313,206982375,303448623,496514811,607003975,737922174,862057590,910371976
1000000000,1731051768,841255724,961942478,1489721446,207003506,303479600,496565521,607065956,738099626,862247715,910668723
1000000000,1730988447,841182829,961773474,1489592387,206985571,303453302,496522487,607013364,737949060,862086387,910416918
1000000000,1730942342,841129802,961648830,1489498459,206972519,303434172,496491188,606975084,737839457,861968963,910233624
1000000000,1731031555,841232453,961889211,1489680235,206997795,303471226,496551796,607049185,738051594,862196258,910588412
1000000000,1731043443,841246122,961920427,1489704458,207001142,303476136,496559849,607059032,738079815,862226481,910635587
1000000000,1730942350,841129798,961648822,1489498457,206972515,303434166,496491179,606975078,737839452,861968956,910233618
1000000000,1730976557,841169167,961741646,1489568167,206982222,303448397,496514441,607003517,737920840,862056163,910369741
1000000000,1731051771,841255722,961942465,1489721441,207003498,303479590,496565506,607065944,738099620,862247707,910668714
1000000000,1730989013,841183485,961774354,1489593541,206985733,303453542,496522878,607013832,737950401,862087827,910419163
1000000000,1730942340,841129805,961648825,1489498461,206972520,303434172,496491190,606975087,737839463,861968970,910233632
1000000000,1731030990,841231800,961887715,1489679083,206997634,303470993,496551412,607048716,738050250,862194815,910586163
1000000000,1731044010,841246771,961921928,1489705607,207001299,303476365,496560223,607059493,738081151,862227914,910637826
1000000000,1730942342,841129803,961648831,1489498460,206972521,303434175,496491194,606975089,737839463,861968969,910233630
1000000000,1730976002,841168512,961740130,1489567012,206982058,303448156,496514048,607003041,737919490,862054714,910367486
1000000000,1731051766,841255726,961942471,1489721446,207003501,303479594,496565513,607065950,738099624,862247714,910668721
1000000000,1730989574,841184130,961776488,1489594689,206985894,303453776,496523260,607014306,737951748,862089267,910421413
1000000000,1730942349,841129800,961648825,1489498460,206972517,303434168,496491183,606975082,737839456,861968961,910233623
1000000000,1731030420,841231160,961885588,1489677932,206997472,303470759,496551031,607048242,738048905,862193376,910583914
1000000000,1731044571,841247417,961924056,1489706760,207001468,303476606,496560618,607059976,738082504,862229366,910640087
1000000000,1730942352,841129795,961648818,1489498455,206972513,303434164,496491175,606975074,737839450,861968952,910233614
1000000000,1730975421,841167869,961738637,1489565868,206981906,303447932,496513680,607002585,737918160,862053293,910365257
1000000000,1731051779,841255720,961942471,1489721438,207003494,303479586,496565499,607065937,738099612,862247698,910668705
1000000000,1730990139,841184787,961777360,1489595844,206986052,303454011,496523646,607014771,737953089,862090706,910423657
1000000000,1730942340,841129803,961648822,1489498463,206972522,303434174,496491193,606975091,737839466,861968972,910233633
1000000000,1731029863,841230502,961884710,1489676779,206997310,303470519,496550640,607047774,738047561,862191934,910581667
1000000000,1731045137,841248072,961924936,1489707911,207001623,303476839,496560998,607060437,738083842,862230797,910642324
1000000000,1730942342,841129802,961648830,1489498459,206972519,303434172,496491188,606975084,737839457,861968963,910233624
1000000000,1730974863,841167216,961737135,1489564711,206981742,303447693,496513289,607002109,737916810,862051845,910363003
1000000000,1731051778,841255719,961942460,1489721442,207003495,303479585,496565498,607065939,738099616,862247702,910668710
1000000000,1730990701,841185434,961779496,1489596996,206986219,303454251,496524039,607015253,737954440,862092156,910425915
1000000000,1730942353,841129796,961648819,1489498456,206972515,303434166,496491178,606975077,737839452,861968953,910233615
1000000000,1731029288,841229863,961882579,1489675634,206997154,303470291,496550267,607047308,738046224,862190506,910579430
1000000000,1731045698,841248716,961927068,1489709063,207001789,303477078,496561387,607060916,738085191,862232243,910644579
1000000000,1730942352,841129797,961648821,1489498452,206972509,303434160,496491171,606975069,737839446,861968949,910233610
1000000000,1730974295,841166572,961735376,1489563563,206981584,303447463,496512912,607001646,737915473,862050411,910360758
1000000000,1731051778,841255716,961942727,1489721445,207003500,303479590,496565506,607065947,738099617,862247704,910668715
1000000000,1730991267,841186088,961780364,1489598144,206986369,303454477,496524409,607015705,737955776,862093585,910428149
1000000000,1730942340,841129803,961648831,1489498459,206972521,303434174,496491192,606975087,737839460,861968966,910233627
1000000000,1731028737,841229198,961881694,1489674476,206996989,303470046,496549865,607046831,738044872,862189053,910577173
1000000000,1731046263,841249376,961927943,1489710216,207001946,303477314,496561776,607061383,738086534,862233682,910646822
1000000000,1730942349,841129800,961648825,1489498460,206972517,303434168,496491183,606975082,737839456,861968961,910233623
1000000000,1730973730,841165917,961734126,1489562409,206981424,303447225,496512524,607001172,737914126,862048971,910358513
1000000000,1731051779,841255717,961942467,1489721441,207003497,303479589,496565502,607065941,738099614,862247699,910668708
1000000000,1730991825,841186737,961782503,1489599300,206986539,303454720,496524805,607016191,737957128,862095036,910430410
1000000000,1730942352,841129795,961648818,1489498454,206972511,303434162,496491174,606975072,737839449,861968951,910233612
1000000000,1731028164,841228560,961879572,1489673329,206996830,303469818,496549493,607046366,738043535,862187621,910574931
1000000000,1731046825,841250019,961930084,1489711366,207002113,303477552,496562161,607061858,738087878,862235124,910649074
1000000000,1730942351,841129797,961648812,1489498455,206972510,303434159,496491170,606975071,737839450,861968953,910233615
1000000000,1730973166,841165274,961731995,1489561265,206981265,303446996,496512150,607000707,737912787,862047536,910356270
1000000000,1731051772,841255715,961943108,1489721440,207003503,303479593,496565508,607065951,738099620,862247707,910668716
1000000000,1730992402,841187388,961783365,1489600447,206986687,303454944,496525175,607016643,737958460,862096459,910432637
1000000000,1730942346,841129801,961648828,1489498460,206972518,303434170,496491186,606975083,737839457,861968962,910233624
1000000000,1731027605,841227897,961878690,1489672173,206996673,303469582,496549104,607045897,738042187,862186177,910572682
1000000000,1731047389,841250679,961930951,1489712519,207002265,303477781,496562542,607062320,738089221,862236564,910651318
1000000000,1730942353,841129796,961648819,1489498456,206972515,303434166,496491178,606975077,737839452,861968953,910233615
1000000000,1730972600,841164617,961731123,1489560107,206981100,303446753,496511752,607000232,737911440,862046091,910354020
1000000000,1731051768,841255723,961942478,1489721445,207003504,303479597,496565515,607065951,738099620,862247709,910668717
1000000000,1730992964,841188032,961785506,1489601600,206986857,303455186,496525567,607017124,737959811,862097909,910434897
1000000000,1730942351,841129797,961648812,1489498453,206972509,303434159,496491170,606975070,737839448,861968951,910233613
1000000000,1731027037,841227258,961876566,1489671027,206996512,303469351,496548728,607045428,738040847,862184742,910570437
1000000000,1731047953,841251321,961933088,1489713670,207002431,303478019,496562928,607062797,738090566,862238002,910653567
1000000000,1730942349,841129798,961648814,1489498455,206972512,303434162,496491175,606975075,737839454,861968957,910233618
1000000000,1730972041,841163973,961728990,1489558960,206980941,303446523,496511376,606999764,737910097,862044653,910351772
1000000000,1731051770,841255715,961943099,1489721442,207003504,303479593,496565508,607065951,738099620,862247709,910668718
1000000000,1730993529,841188689,961786379,1489602751,206987011,303455418,496525949,607017586,737961149,862099341,910437134
1000000000,1730942352,841129798,961648822,1489498457,206972516,303434167,496491180,606975079,737839453,861968956,910233618
1000000000,1731026462,841226603,961875700,1489669873,206996356,303469118,496548345,607044965,738039507,862183307,910568198
1000000000,1731048525,841251976,961933947,1489714822,207002585,303478249,496563306,607063256,738091905,862239439,910655808
1000000000,1730942352,841129795,961648818,1489498454,206972511,303434162,496491174,606975072,737839449,861968951,910233612
1000000000,1730971475,841163315,961728117,1489557805,206980782,303446285,496510985,606999294,737908751,862043211,910349526
1000000000,1731051766,841255726,961942472,1489721446,207003505,303479597,496565517,607065954,738099626,862247715,910668723
1000000000,1730994093,841189332,961788519,1489603900,206987174,303455654,496526332,607018060,737962493,862100780,910439382
1000000000,1730942350,841129797,961648812,1489498455,206972510,303434160,496491172,606975072,737839452,861968955,910233617
1000000000,1731025909,841225958,961873563,1489668727,206996195,303468885,496547965,607044496,738038163,862181866,910565948
1000000000,1731049090,841252617,961936085,1489715969,207002747,303478483,496563687,607063727,738093246,862240874,910658052
1000000000,1730942341,841129802,961648820,1489498456,206972514,303434166,496491181,606975078,737839457,861968962,910233623
1000000000,1730970914,841162669,961725983,1489556655,206980618,303446048,496510597,606998817,737907404,862041767,910347273
1000000000,1731051770,841255715,961943099,1489721441,207003503,303479592,496565508,607065951,738099621,862247708,910668717
1000000000,1730994656,841189993,961789387,1489605056,206987337,303455894,496526728,607018533,737963841,862102228,910441634
1000000000,1730942353,841129795,961648818,1489498454,206972512,303434163,496491174,606975073,737839450,861968952,910233614
1000000000,1731025333,841225305,961872689,1489667576,206996039,303468651,496547582,607044032,738036825,862180435,910563712
1000000000,1731049655,841253274,961936967,1489717122,207002904,303478719,496564073,607064193,738094589,862242312,910660295
1000000000,1730942351,841129797,961648812,1489498453,206972509,303434159,496491170,606975070,737839448,861968951,910233613
1000000000,1730970344,841162016,961725116,1489555507,206980466,303445821,496510226,606998364,737906070,862040337,910345038
1000000000,1731051771,841255722,961942465,1489721441,207003498,303479590,496565506,607065944,738099620,862247707,910668714
1000000000,1730995224,841190633,961791522,1489606206,206987497,303456125,496527103,607019001,737965180,862103661,910443878
1000000000,1730942345,841129800,961648817,1489498455,206972514,303434165,496491180,606975078,737839457,861968961,910233622
1000000000,1731024774,841224657,961870555,1489666424,206995876,303468417,496547197,607043556,738035477,862178990,910561458
1000000000,1731050225,841253915,961939089,1489718268,207003063,303478947,496564447,607064659,738095925,862243743,910662535
1000000000,1730942341,841129805,961648825,1489498460,206972517,303434169,496491188,606975085,737839463,861968970,910233631
1000000000,1730969788,841161366,961722975,1489554351,206980298,303445580,496509830,606997879,737904716,862038884,910342776
1000000000,1731051770,841255715,961943099,1489721441,207003503,303479592,496565507,607065950,738099620,862247708,910668717
1000000000,1730995780,841191294,961792392,1489607361,206987656,303456362,496527493,607019470,737966529,862105108,910446129
1000000000,1730942353,841129797,961648821,1489498451,206972509,303434160,496491171,606975069,737839447,861968950,910233611
1000000000,1731024208,841224001,961869680,1489665271,206995715,303468178,496546808,607043090,738034136,862177550,910559213
1000000000,1731050781,841254578,961939975,1489719426,207003228,303479192,496564847,607065136,738097277,862245194,910664791
1000000000,1730942350,841129797,961648812,1489498455,206972510,303434160,496491172,606975072,737839452,861968955,910233617
1000000000,1730969211,841160715,961722104,1489553205,206980150,303445355,496509462,606997428,737903386,862037464,910340551
1000000000,1731051779,841255720,961942471,1489721438,207003494,303479586,496565499,607065937,738099612,862247698,910668705
1000000000,1730996355,841191932,961794522,1489608508,206987817,303456594,496527871,607019941,737967867,862106538,910448369
1000000000,1730942340,841129804,961648823,1489498459,206972516,303434168,496491185,606975082,737839461,861968968,910233629
1000000000,1731023647,841223356,961867547,1489664119,206995551,303467942,496546423,607042613,738032788,862176106,910556959
1000000000,1731051351,841255216,961942097,1489720571,207003385,303479419,496565217,607065598,738098612,862246624,910667031
1000000000,1730942341,841129805,961648825,1489498462,206972521,303434173,496491191,606975089,737839466,861968972,910233634
1000000000,1730968650,841160069,961719979,1489552048,206979978,303445112,496509067,606996943,737902031,862036009,910338286
1000000000,1731051772,841255714,961943098,1489721442,207003503,303479592,496565507,607065951,738099620,862247707,910668716
1000000000,1730996918,841192591,961795397,1489609659,206987972,303456827,496528254,607020402,737969210,862107979,910450614
1000000000,1730942352,841129797,961648812,1489498454,206972510,303434159,496491170,606975071,737839450,861968953,910233615
1000000000,1731023082,841222699,961866675,1489662967,206995396,303467710,496546041,607042149,738031446,862174670,910554718
1000000000,1731051766,841255726,961942471,1489721447,207003505,303479598,496565518,607065956,738099627,862247716,910668724
1000000000,1730942492,841129952,961649322,1489498739,206972555,303434226,496491275,606975197,737839795,861969317,910234182
1000000000,1730968085,841159414,961719099,1489550899,206979824,303444880,496508686,606996483,737900695,862034579,910336051
1000000000,1731051776,841255720,961942472,1489721444,207003500,303479592,496565507,607065946,738099616,862247703,910668712
1000000000,1730997482,841193232,961797525,1489610805,206988133,303457058,496528631,607020869,737970549,862109414,910452858
1000000000,1730942340,841129805,961648825,1489498461,206972520,303434172,496491190,606975087,737839463,861968970,910233632
1000000000,1731022522,841222052,961864539,1489661813,206995226,303467467,496545645,607041667,738030096,862173220,910552459
1000000000,1731051770,841255715,961943099,1489721442,207003503,303479593,496565509,607065952,738099622,862247709,910668718
1000000000,1730943050,841130607,961650836,1489499895,206972725,303434473,496491675,606975679,737841146,861970769,910236442
1000000000,1730967522,841158771,961716959,1489549748,206979659,303444641,496508299,606996006,737899348,862033136,910333798
1000000000,1731051769,841255715,961943099,1489721442,207003504,303479593,496565508,607065951,738099620,862247708,910668718
1000000000,1730998051,841193890,961798408,1489611961,206988289,303457294,496529018,607021338,737971893,862110851,910455101
1000000000,1730942348,841129798,961648814,1489498454,206972512,303434163,496491176,606975075,737839454,861968957,910233618
1000000000,1731021953,841221399,961863672,1489660667,206995078,303467242,496545275,607041215,738028761,862171793,910550228
1000000000,1731051770,841255722,961942466,1489721442,207003499,303479591,496565508,607065945,738099621,862247708,910668715
1000000000,1730943617,841131256,961652330,1489501045,206972880,303434701,496492050,606976141,737842484,861972203,910238682
1000000000,1730966958,841158110,961716092,1489548593,206979500,303444405,496507907,606995536,737898002,862031692,910331551
1000000000,1731051768,841255724,961942478,1489721446,207003506,303479600,496565521,607065956,738099626,862247715,910668723
1000000000,1730998617,841194531,961800526,1489613106,206988448,303457522,496529391,607021801,737973229,862112284,910457343
1000000000,1730942340,841129803,961648822,1489498463,206972522,303434174,496491193,606975091,737839466,861968972,910233633
1000000000,1731021396,841220752,961861535,1489659511,206994908,303467000,496544881,607040731,738027409,862170342,910547967
1000000000,1731051771,841255715,961943099,1489721440,207003503,303479592,496565507,607065950,738099621,862247708,910668717
1000000000,1730944175,841131909,961653842,1489502198,206973041,303434938,496492438,606976614,737843830,861973644,910240931
1000000000,1730966396,841157468,961713952,1489547444,206979336,303444170,496507527,606995065,737896662,862030256,910329305
1000000000,1731051770,841255715,961943099,1489721442,207003504,303479593,496565509,607065952,738099621,862247709,910668718
1000000000,1730999182,841195190,961801409,1489614264,206988612,303457765,496529788,607022278,737974578,862113730,910459594
1000000000,1730942342,841129802,961648821,1489498457,206972515,303434167,496491183,606975080,737839459,861968964,910233625
1000000000,1731020819,841220098,961860664,1489658364,206994760,303466775,496544509,607040277,738026077,862168918,910545739
1000000000,1731051777,841255720,961942468,1489721438,207003494,303479585,496565498,607065936,738099611,862247697,910668704
1000000000,1730944743,841132559,961655337,1489503351,206973204,303435174,496492825,606977087,737845177,861975088,910243182
1000000000,1730965834,841156807,961713084,1489546290,206979180,303443937,496507142,606994600,737895316,862028812,910327056
1000000000,1731051766,841255726,961942471,1489721446,207003501,303479594,496565513,607065950,738099624,862247714,910668721
1000000000,1730999744,841195832,961803540,1489615410,206988770,303457994,496530162,607022744,737975920,862115166,910461840
1000000000,1730942340,841129803,961648831,1489498459,206972521,303434174,496491192,606975087,737839460,861968966,910233627
1000000000,1731020259,841219455,961858530,1489657212,206994592,303466535,496544120,607039799,738024729,862167472,910543483
1000000000,1731051770,841255714,961943098,1489721442,207003503,303479592,496565507,607065950,738099620,862247707,910668717
1000000000,1730945320,841133205,961656834,1489504498,206973357,303435401,496493197,606977547,737846513,861976517,910245418
1000000000,1730965262,841156167,961710950,1489545141,206979018,303443703,496506761,606994125,737893972,862027377,910324811
1000000000,1731051771,841255715,961943100,1489721440,207003503,303479592,496565507,607065950,738099621,862247708,910668717
1000000000,1731000310,841196490,961804412,1489616566,206988932,303458234,496530556,607023217,737977266,862116609,910464087
1000000000,1730942341,841129805,961648825,1489498460,206972518,303434170,496491189,606975086,737839463,861968970,910233631
1000000000,1731019691,841218797,961857655,1489656060,206994434,303466300,496543734,607039333,738023387,862166033,910541239
1000000000,1731051777,841255719,961942471,1489721442,207003500,303479592,496565507,607065946,738099616,862247702,910668711
1000000000,1730945870,841133858,961658339,1489505651,206973522,303435641,496493588,606978019,737847861,861977964,910247671
1000000000,1730964695,841155513,961710091,1489543988,206978862,303443471,496506380,606993665,737892632,862025939,910322569
1000000000,1731051778,841255719,961942460,1489721442,207003495,303479585,496565498,607065939,738099616,862247702,910668710
1000000000,1731000871,841197136,961806547,1489617716,206989095,303458470,496530942,607023692,737978613,862118053,910466340
1000000000,1730942346,841129801,961648828,1489498460,206972518,303434170,496491186,606975083,737839457,861968962,910233624
1000000000,1731019125,841218156,961855519,1489654910,206994275,303466068,496543356,607038863,738022046,862164600,910538996
1000000000,1731051780,841255717,961942467,1489721439,207003496,303479588,496565501,607065940,738099614,862247698,910668706
1000000000,1730946442,841134499,961660474,1489506799,206973682,303435873,496493967,606978491,737849200,861979396,910249913
1000000000,1730964128,841154871,961707954,1489542844,206978701,303443238,496506001,606993196,737891293,862024506,910320327
1000000000,1731051773,841255714,961943097,1489721441,207003503,303479592,496565507,607065951,738099620,862247707,910668716
1000000000,1731001437,841197791,961807417,1489618864,206989248,303458699,496531317,607024146,737979948,862119485,910468576
1000000000,1730942340,841129804,961648823,1489498464,206972522,303434174,496491193,606975091,737839467,861968973,910233635
1000000000,1731018567,841217494,961854649,1489653751,206994109,303465824,496542956,607038386,738020693,862163146,910536738
1000000000,1731051768,841255724,961942478,1489721446,207003506,303479601,496565521,607065956,738099626,862247715,910668723
1000000000,1730947005,841135157,961661348,1489507950,206973837,303436105,496494349,606978952,737850540,861980832,910252153
1000000000,1730963569,841154212,961707068,1489541689,206978544,303443001,496505613,606992729,737889950,862023067,910318082
1000000000,1731051779,841255717,961942467,1489721441,207003497,303479589,496565502,607065941,738099614,862247699,910668708
1000000000,1731001996,841198439,961809554,1489620020,206989414,303458938,496531709,607024630,737981301,862120934,910470835
1000000000,1730942352,841129798,961648822,1489498457,206972516,303434167,496491180,606975079,737839453,861968956,910233618
1000000000,1731017993,841216855,961852517,1489652606,206993950,303465595,496542583,607037920,738019358,862161718,910534500
1000000000,1731051768,841255723,961942478,1489721445,207003504,303479597,496565515,607065951,738099621,862247709,910668718
1000000000,1730947578,841135796,961663470,1489509098,206973998,303436337,496494727,606979422,737851882,861982270,910254400
1000000000,1730962996,841153571,961704943,1489540543,206978386,303442773,496505239,606992263,737888612,862021634,910315841
1000000000,1731051779,841255720,961942471,1489721438,207003494,303479586,496565499,607065937,738099612,862247698,910668705
1000000000,1731002565,841199085,961811054,1489621169,206989573,303459170,496532086,607025095,737982639,862122366,910473074
1000000000,1730942342,841129803,961648831,1489498460,206972521,303434175,496491194,606975089,737839463,861968969,910233630
1000000000,1731017439,841216193,961851635,1489651453,206993793,303465358,496542194,607037453,738018010,862160272,910532250
1000000000,1731051766,841255726,961942472,1489721445,207003501,303479594,496565513,607065950,738099624,862247714,910668721
1000000000,1730948139,841136456,961664358,1489510254,206974158,303436576,496495118,606979892,737853227,861983709,910256646
1000000000,1730962437,841152910,961704063,1489539383,206978221,303442530,496504841,606991787,737887262,862020185,910313586
1000000000,1731051768,841255723,961942478,1489721445,207003504,303479597,496565515,607065951,738099620,862247709,910668717
1000000000,1731003133,841199737,961812552,1489622320,206989734,303459405,496532473,607025565,737983985,862123810,910475325
1000000000,1730942353,841129795,961648818,1489498454,206972512,303434163,496491174,606975073,737839450,861968952,910233614
1000000000,1731016866,841215555,961849514,1489650306,206993632,303465128,496541818,607036984,738016671,862158840,910530008
1000000000,1731051766,841255726,961942471,1489721447,207003505,303479598,496565518,607065956,738099627,862247716,910668724
1000000000,1730948707,841137095,961666483,1489511398,206974315,303436803,496495489,606980355,737854564,861985142,910258888
1000000000,1730961870,841152271,961701938,1489538240,206978064,303442303,496504472,606991325,737885926,862018754,910311345
1000000000,1731051776,841255720,961942472,1489721444,207003500,303479592,496565507,607065946,738099616,862247703,910668712
1000000000,1731003693,841200386,961814058,1489623468,206989891,303459637,496532852,607026029,737985325,862125244,910477565
1000000000,1730942342,841129802,961648830,1489498460,206972519,303434172,496491188,606975084,737839458,861968964,910233626
1000000000,1731016309,841214901,961848001,1489649151,206993469,303464888,496541426,607036510,738015325,862157396,910527758
1000000000,1731051770,841255715,961943099,1489721442,207003503,303479593,496565509,607065952,738099622,862247709,910668718
1000000000,1730949271,841137757,961667360,1489512557,206974481,303437048,496495890,606980834,737855914,861986590,910261140
1000000000,1730961304,841151610,961701062,1489537082,206977902,303442062,496504075,606990848,737884574,862017308,910309095
1000000000,1731051766,841255726,961942472,1489721446,207003505,303479597,496565517,607065954,738099626,862247715,910668723
1000000000,1731004261,841201035,961815563,1489624624,206990054,303459876,496533241,607026504,737986671,862126686,910479816
1000000000,1730942353,841129797,961648821,1489498451,206972509,303434160,496491171,606975069,737839447,861968950,910233611
1000000000,1731015738,841214255,961846510,1489648007,206993316,303464663,496541057,607036055,738013990,862155965,910525520
1000000000,1731051770,841255722,961942466,1489721442,207003499,303479591,496565508,607065945,738099621,862247708,910668715
1000000000,1730949831,841138399,961669491,1489513703,206974638,303437276,496496262,606981298,737857254,861988026,910263386
1000000000,1730960744,841150967,961698931,1489535935,206977742,303441830,496503695,606990379,737883232,862015869,910306847
1000000000,1731051768,841255724,961942478,1489721446,207003506,303479600,496565521,607065956,738099626,862247715,910668723
1000000000,1731004828,841201686,961817059,1489625771,206990208,303460104,496533617,607026966,737988008,862128118,910482053
1000000000,1730942351,841129799,961648824,1489498460,206972517,303434168,496491183,606975082,737839456,861968960,910233622
1000000000,1731015174,841213601,961845000,1489646849,206993153,303464424,496540665,607035575,738012640,862154520,910523268
1000000000,1731051771,841255715,961943099,1489721440,207003503,303479592,496565507,607065950,738099621,862247708,910668717
1000000000,1730950397,841139057,961670364,1489514857,206974797,303437513,496496652,606981767,737858599,861989467,910265631
1000000000,1730960173,841150313,961698064,1489534786,206977586,303441598,496503316,606989920,737881894,862014435,910304609
1000000000,1731051771,841255722,961942465,1489721441,207003498,303479590,496565506,607065944,738099620,862247707,910668714
1000000000,1731005387,841202338,961818579,1489626926,206990377,303460349,496534014,607027445,737989357,862129566,910484310
1000000000,1730942352,841129797,961648812,1489498454,206972510,303434159,496491170,606975071,737839450,861968953,910233615
1000000000,1731014604,841212955,961843503,1489645705,206993000,303464199,496540296,607035119,738011307,862153093,910521033
1000000000,1731051777,841255720,961942468,1489721438,207003494,303479585,496565498,607065936,738099611,862247697,910668704
1000000000,1730950959,841139702,961672497,1489516010,206974962,303437750,496497040,606982247,737859950,861990913,910267887
1000000000,1730959618,841149664,961695924,1489533631,206977422,303441361,496502927,606989440,737880543,862012987,910302351
1000000000,1731051766,841255726,961942471,1489721446,207003501,303479594,496565513,607065950,738099624,862247714,910668721
1000000000,1731005956,841202987,961820074,1489628075,206990533,303460578,496534392,607027910,737990698,862131002,910486552
1000000000,1730942352,841129795,961648818,1489498454,206972514,303434165,496491176,606975075,737839450,861968951,910233613
1000000000,1731014035,841212308,961842009,1489644552,206992836,303463960,496539906,607034645,738009961,862151651,910518785
1000000000,1731051770,841255714,961943098,1489721442,207003503,303479592,496565507,607065950,738099620,862247707,910668717
1000000000,1730951534,841140355,961673362,1489517156,206975113,303437977,496497412,606982698,737861281,861992341,910270118
1000000000,1730959048,841149017,961694422,1489532483,206977262,303441127,496502546,606988974,737879204,862011553,910300111
1000000000,1731051771,841255715,961943100,1489721440,207003503,303479592,496565507,607065950,738099621,862247708,910668717
1000000000,1731006517,841203640,961821583,1489629231,206990696,303460817,496534782,607028386,737992046,862132445,910488804
1000000000,1730942348,841129798,961648814,1489498454,206972512,303434163,496491176,606975075,737839454,861968957,910233618
1000000000,1731013477,841211654,961840495,1489643401,206992676,303463724,496539521,607034175,738008616,862150210,910516535
1000000000,1731051777,841255719,961942471,1489721442,207003500,303479592,496565507,607065946,738099616,862247702,910668711
1000000000,1730952086,841141004,961675502,1489518311,206975281,303438218,496497805,606983180,737862634,861993792,910272379
1000000000,1730958479,841148367,961692928,1489531328,206977103,303440894,496502163,606988504,737877859,862010111,910297861
1000000000,1731051778,841255719,961942460,1489721442,207003495,303479585,496565498,607065939,738099616,862247702,910668710
1000000000,1731007082,841204291,961823081,1489630382,206990859,303461055,496535170,607028857,737993391,862133889,910491053
1000000000,1730942351,841129795,961648818,1489498453,206972510,303434161,496491173,606975071,737839447,861968949,910233610
1000000000,1731012909,841211007,961838995,1489642251,206992519,303463492,496539141,607033710,738007278,862148777,910514297
1000000000,1731051770,841255715,961943099,1489721441,207003503,303479593,496565508,607065952,738099621,862247708,910668717
1000000000,1730952656,841141650,961677007,1489519460,206975439,303438451,496498185,606983646,737863972,861995224,910274616
1000000000,1730957924,841147722,961690789,1489530181,206976937,303440655,496501776,606988029,737876514,862008668,910295613
1000000000,1731051773,841255714,961943097,1489721441,207003503,303479592,496565507,607065951,738099620,862247707,910668716
1000000000,1731007651,841204937,961824580,1489631528,206991012,303461281,496535541,607029315,737994726,862135317,910493289
1000000000,1730942342,841129802,961648821,1489498457,206972515,303434167,496491183,606975080,737839459,861968964,910233625
1000000000,1731012351,841210350,961837488,1489641094,206992352,303463249,496538742,607033228,738005923,862147323,910512035
1000000000,1731051768,841255724,961942478,1489721446,207003506,303479601,496565521,607065956,738099626,862247715,910668723
1000000000,1730953220,841142303,961678503,1489520613,206975600,303438684,496498569,606984116,737865316,861996665,910276867
1000000000,1730957354,841147066,961689913,1489529026,206976781,303440422,496501393,606987565,737875174,862007234,910293368
1000000000,1731051779,841255717,961942467,1489721441,207003497,303479589,496565502,607065941,738099614,862247699,910668708
1000000000,1731008209,841205591,961826094,1489632683,206991176,303461522,496535934,607029792,737996076,862136765,910495543
1000000000,1730942350,841129797,961648812,1489498454,206972509,303434158,496491169,606975069,737839448,861968951,910233613
1000000000,1731011782,841209704,961835987,1489639946,206992195,303463020,496538369,607032768,738004588,862145892,910509797
1000000000,1731051771,841255715,961943099,1489721442,207003505,303479594,496565511,607065954,738099623,862247710,910668719
1000000000,1730953788,841142952,961680016,1489521765,206975761,303438922,496498955,606984588,737866659,861998103,910279114
1000000000,1730956783,841146423,961687776,1489527879,206976622,303440191,496501015,606987094,737873833,862005800,910291126
1000000000,1731051772,841255715,961943108,1489721440,207003503,303479593,496565508,607065951,738099620,862247707,910668716
1000000000,1731008788,841206234,961827578,1489633828,206991328,303461745,496536301,607030247,737997406,862138187,910497773
1000000000,1730942341,841129805,961648825,1489498460,206972518,303434170,496491189,606975086,737839463,861968970,910233631
1000000000,1731011224,841209047,961834480,1489638792,206992032,303462781,496537975,607032290,738003235,862144441,910507539
1000000000,1731051766,841255726,961942472,1489721445,207003501,303479594,496565513,607065950,738099624,862247714,910668721
1000000000,1725587532,805519206,927665932,1496410337,222941107,319177770,488439661,584171239,717451212,816300743,895372164
1000000000,1719963587,767794316,891848479,1503868164,239904644,335910137,479934080,560016702,696138483,768075619,880019875
1000000000,1719940482,767769666,891819727,1503819882,239896937,335899349,479918664,559998714,696148170,768050954,879991552
1000000000,1719955246,767785415,891838281,1503850736,239901863,335906242,479928516,560010210,696141975,768066714,880009651
1000000000,1719948822,767778555,891830298,1503837299,239899712,335903236,479924219,560005198,696144670,768059848,880001765
1000000000,1719946908,767776526,891827710,1503833319,239899088,335902355,479922962,560003727,696145476,768057821,879999439
1000000000,1719957160,767787457,891840495,1503854728,239902498,335907134,479929789,560011693,696141179,768068752,880011989
1000000000,1719938569,767767615,891817891,1503815878,239896292,335898447,479917380,559997221,696148960,768048906,879989203
1000000000,1719965498,767796355,891850688,1503872159,239905282,335911030,479935354,560018186,696137685,768077656,880022213
1000000000,1719930231,767758726,891807320,1503798459,239893518,335894561,479911827,559990739,696152460,768040012,879978990
1000000000,1719973837,767805244,891861259,1503889576,239908057,335914917,479940908,560024669,696134186,768086550,880032426
1000000000,1719921892,767749837,891796747,1503781042,239890743,335890674,479906273,559984255,696155959,768031118,879968777
1000000000,1719982175,767814144,891871456,1503907004,239910842,335918814,479946476,560031164,696130694,768095453,880042650
1000000000,1719913554,767740937,891786552,1503763613,239887958,335886776,479900704,559977760,696159451,768022215,879958553
1000000000,1719990514,767823035,891882029,1503924425,239913617,335922702,479952032,560037648,696127196,768104349,880052865
1000000000,1719905215,767732046,891775979,1503746193,239885183,335882889,479895149,559971277,696162950,768013319,879948338
1000000000,1719998856,767831930,891892226,1503941844,239916396,335926593,479957592,560044135,696123694,768113242,880063080
1000000000,1719896868,767723151,891766164,1503728779,239882406,335879001,479889595,559964798,696166465,768004438,879938133
1000000000,1720007197,767840823,891902412,1503959262,239919173,335930481,479963146,560050615,696120187,768122131,880073289
1000000000,1719888532,767714258,891755596,1503711355,239879626,335875109,479884033,559958308,696169957,767995536,879927913
1000000000,1720015541,767849715,891912604,1503976680,239921950,335934369,479968701,560057096,696116681,768131019,880083498
1000000000,1719880188,767705366,891745404,1503693937,239876849,335871221,479878479,559951828,696173464,767986649,879917705
1000000000,1720023876,767858609,891923181,1503994105,239924729,335938261,479974263,560063587,696113188,768139920,880093719
1000000000,1719871854,767696472,891734827,1503676514,239874071,335867330,479872918,559945338,696176958,767977749,879907485
1000000000,1720032218,767867504,891933372,1504011521,239927505,335942150,479979817,560070068,696109685,768148814,880103931
1000000000,1719863511,767687577,891724636,1503659096,239871295,335863440,479867362,559938855,696180459,767968853,879897271
1000000000,1720040555,767876394,891943942,1504028942,239930284,335946040,479985378,560076556,696106189,768157709,880114146
1000000000,1719857401,767682669,891717660,1503650008,239869597,335861068,479863972,559934389,696181575,767962405,879890527
1000000000,1720039734,767875521,891942680,1504027224,239930010,335945656,479984826,560075915,696106528,768156835,880113140
1000000000,1719864337,767688452,891725513,1503660809,239871566,335863821,479867907,559939488,696180111,767969721,879898271
1000000000,1720031387,767866626,891932879,1504009810,239927235,335941771,479979279,560069442,696110043,768147951,880102937
1000000000,1719872679,767697347,891735704,1503678233,239874343,335867711,479873463,559945973,696176607,767978616,879908485
1000000000,1720023050,767857734,891922303,1503992385,239924457,335937880,479973718,560062952,696113539,768139053,880092719
1000000000,1719881021,767706245,891745899,1503695654,239877122,335871603,479879021,559952459,696173110,767987516,879918703
1000000000,1720014708,767848837,891912110,1503974963,239921678,335933988,479968160,560056466,696117036,768130153,880082501
1000000000,1719889358,767715134,891756468,1503713073,239879898,335875491,479884578,559958942,696169609,767996407,879928914
1000000000,1720006371,767839947,891901540,1503957545,239918902,335930099,479962602,560049982,696120536,768121261,880072289
1000000000,1719897696,767724025,891767042,1503730498,239882677,335879382,479890139,559965432,696166114,768005305,879939132
1000000000,1719998033,767831056,891890960,1503940120,239916123,335926209,479957042,560043493,696124032,768112364,880062071
1000000000,1719906036,767732924,891777243,1503747919,239885456,335883274,479895697,559971918,696162617,768014205,879949351
1000000000,1719989692,767822157,891880765,1503922699,239913344,335922317,479951483,560037006,696127528,768103463,880051852
1000000000,1719914375,767741814,891787815,1503765336,239888231,335887161,479901254,559978403,696159118,768023099,879959565
1000000000,1719981354,767813258,891870571,1503905271,239910559,335918420,479945915,560030512,696131022,768094561,880041629
1000000000,1719922715,767750724,891797633,1503782779,239891027,335891069,479906834,559984907,696155633,768032013,879969800
1000000000,1719973015,767804357,891860375,1503887838,239907773,335914522,479940347,560024017,696134512,768085654,880031402
1000000000,1719931052,767759613,891808204,1503800196,239893800,335894955,479912387,559991390,696152132,768040906,879980012
1000000000,1719964677,767795468,891849804,1503870422,239905000,335910636,479934794,560017535,696138013,768076762,880021191
1000000000,1719939392,767768512,891818404,1503817621,239896584,335898850,479917953,559997882,696148638,768049807,879990235
1000000000,1719956337,767786569,891839602,1503852997,239902216,335906741,479929228,560011042,696141507,768067861,880010968
1000000000,1719947729,767777404,891828974,1503835042,239899360,335902739,479923510,560004368,696145142,768058705,880000450
1000000000,1719948000,767777677,891829034,1503835575,239899440,335902851,479923670,560004556,696145003,768058963,880000753
1000000000,1719956071,767786297,891839168,1503852462,239902138,335906629,479929068,560010853,696141638,768067595,880010663
1000000000,1719939652,767768783,891819221,1503818163,239896665,335898966,479918120,559998082,696148523,768050086,879990552
1000000000,1719964415,767795192,891849364,1503869878,239904914,335910517,479934622,560017332,696138130,768076484,880020871
1000000000,1719931315,767759890,891808645,1503800738,239893885,335895073,479912558,559991591,696152014,768041183,879980330
1000000000,1719972750,767804083,891859930,1503887304,239907694,335914409,479940183,560023823,696134639,768085387,880031093
1000000000,1719922979,767750998,891798078,1503783313,239891105,335891181,479906996,559985100,696155505,768032280,879970109
1000000000,1719981093,767812975,891870123,1503904721,239910470,335918296,479945738,560030304,696131131,768094273,880041301
1000000000,1719914636,767742106,891787885,1503765896,239888329,335887294,479901442,559978620,696159014,768023395,879959902
1000000000,1719989429,767821870,891880701,1503922145,239913250,335922189,479951301,560036796,696127641,768103177,880051524
1000000000,1719906301,767733211,891777307,1503748474,239885550,335883402,479895880,559972129,696162505,768014492,879949680
1000000000,1719997771,767830763,891890887,1503939560,239916026,335926077,479956854,560043274,696124134,768112065,880061731
1000000000,1719897956,767724306,891767494,1503731047,239882767,335879505,479890317,559965642,696166004,768005591,879939461
1000000000,1720006111,767839666,891901088,1503956996,239918812,335929976,479962424,560049772,696120646,768120975,880071960
1000000000,1719889619,767715415,891756920,1503713622,239879988,335875615,479884757,559959153,696169500,767996694,879929244
1000000000,1720014450,767848565,891911283,1503974417,239921591,335933868,479967982,560056258,696117149,768129875,880082178
1000000000,1719881278,767706516,891746725,1503696200,239877208,335871722,479879198,559952666,696172996,767987792,879919024
1000000000,1720022789,767857455,891921855,1503991835,239924367,335937756,479973539,560062743,696113650,768138770,880092393
1000000000,1719872941,767697626,891736154,1503678783,239874433,335867835,479873642,559946182,696176496,767978899,879908811
1000000000,1720031128,767866356,891932050,1504009267,239927153,335941654,479979107,560069237,696110159,768147675,880102618
1000000000,1719864601,767688726,891725959,1503661352,239871647,335863937,479868074,559939688,696179987,767969994,879898586
1000000000,1720039466,767875244,891942620,1504026682,239929926,335945540,479984660,560075719,696106657,768156566,880112828
1000000000,1719857402,767682660,891717647,1503649997,239869593,335861060,479863963,559934378,696181562,767962389,879890512
1000000000,1720040818,767876689,891944024,1504029505,239930381,335946173,479985566,560076775,696106087,768158009,880114488
1000000000,1719863252,767687293,891724182,1503658540,239871200,335863313,479867178,559938641,696180566,767968564,879896939
1000000000,1720032477,767867788,891933820,1504012078,239927600,335942278,479980003,560070284,696109580,768149105,880104264
1000000000,1719871590,767696182,891734759,1503675957,239873974,335867199,479872731,559945123,696177065,767977457,879907152
1000000000,1720024138,767858889,891923626,1503994651,239924816,335938382,479974437,560063791,696113074,768140203,880094042
1000000000,1719879930,767705094,891744579,1503693396,239876770,335871107,479878313,559951628,696173580,767986369,879917385
1000000000,1720015799,767849988,891913430,1503977221,239922030,335934484,479968868,560057297,696116566,768131299,880083818
1000000000,1719888269,767713982,891755149,1503710816,239879545,335874994,479883868,559958112,696170081,767995264,879927599
1000000000,1720007461,767841099,891902859,1503959801,239919255,335930597,479963313,560050812,696120064,768122403,880073603
365964415,629449800,280988932,326389733,550368803,87797779,122932858,175641226,204949365,254761081,281092921,322060769
