omp threads, time, accuracy 
1,47.223648071289062,0.000252585217822
2,24.073747634887695,0.000252585217822
4,24.958486557006836,0.000252585217822
8,24.382251739501953,0.000252585217822
10,24.079927444458008,0.000252585217822
20,24.323284149169922,0.000252585217822
30,36.329261779785156,0.000252585217822
40,39.013031005859375,0.000252585217822
