40198,736,1610,160
32693,552,244,36
32625,551,255,36
200846,3238,626,80
200215,3140,137,15
200215,3140,137,15
200215,3140,137,15
200215,3140,137,15
200215,3140,137,15
200215,3140,137,15
200215,3140,137,15
200215,3140,137,15
200215,3140,137,15
200215,3140,137,15
200215,3140,137,15
200215,3140,137,15
200215,3140,137,15
200215,3140,137,15
200215,3140,137,15
200215,3140,137,15
200215,3140,137,15
200215,3140,137,15
200215,3140,137,15
200215,3140,137,15
200215,3140,137,15
200215,3140,137,15
200215,3140,137,15
200215,3140,137,15
200215,3140,137,15
200215,3140,137,15
200215,3140,137,15
200215,3140,137,15
200215,3140,137,15
200215,3140,137,15
200215,3140,137,15
200215,3140,137,15
200215,3140,137,15
200215,3140,137,15
200215,3140,137,15
200215,3140,137,15
200215,3140,137,15
200215,3140,137,15
200215,3140,137,15
200215,3140,137,15
200215,3140,137,15
200215,3140,137,15
200215,3140,137,15
200215,3140,137,15
200215,3140,137,15
200215,3140,137,15
200215,3140,137,15
200215,3140,137,15
200215,3140,137,15
200215,3140,137,15
200215,3140,137,15
200215,3140,137,15
200215,3140,137,15
200215,3140,137,15
200215,3140,137,15
200215,3140,137,15
200215,3140,137,15
200215,3140,137,15
200215,3140,137,15
200215,3140,137,15
200215,3140,137,15
200215,3140,137,15
200215,3140,137,15
200215,3140,137,15
200215,3140,137,15
200215,3140,137,15
200215,3140,137,15
200215,3140,137,15
200215,3140,137,15
200215,3140,137,15
200215,3140,137,15
200215,3140,137,15
200215,3140,137,15
200215,3140,137,15
200215,3140,137,15
200215,3140,137,15
200215,3140,137,15
200215,3140,137,15
200215,3140,137,15
200215,3140,137,15
200215,3140,137,15
200215,3140,137,15
200215,3140,137,15
200215,3140,137,15
200215,3140,137,15
200215,3140,137,15
200215,3140,137,15
200215,3140,137,15
200215,3140,137,15
200215,3140,137,15
200215,3140,137,15
200215,3140,137,15
200215,3140,137,15
200215,3140,137,15
200215,3140,137,15
200215,3140,137,15
200215,3140,137,15
200215,3140,137,15
200215,3140,137,15
200215,3140,137,15
200215,3140,137,15
200215,3140,137,15
200215,3140,137,15
200215,3140,137,15
200215,3140,137,15
200215,3140,137,15
200215,3140,137,15
200215,3140,137,15
200215,3140,137,15
200215,3140,137,15
200215,3140,137,15
200215,3140,137,15
200215,3140,137,15
200215,3140,137,15
200215,3140,137,15
200215,3140,137,15
200215,3140,137,15
200215,3140,137,15
200215,3140,137,15
200215,3140,137,15
200215,3140,137,15
200215,3140,137,15
200215,3140,137,15
200215,3140,137,15
200215,3140,137,15
200215,3140,137,15
200215,3140,137,15
200215,3140,137,15
200215,3140,137,15
200215,3140,137,15
200215,3140,137,15
200215,3140,137,15
200215,3140,137,15
200215,3140,137,15
200215,3140,137,15
200215,3140,137,15
200215,3140,137,15
200215,3140,137,15
200215,3140,137,15
200215,3140,137,15
200215,3140,137,15
200215,3140,137,15
200215,3140,137,15
200215,3140,137,15
200215,3140,137,15
200215,3140,137,15
200215,3140,137,15
200215,3140,137,15
200215,3140,137,15
200215,3140,137,15
200215,3140,137,15
200215,3140,137,15
200215,3140,137,15
200215,3140,137,15
200215,3140,137,15
200215,3140,137,15
200215,3140,137,15
200215,3140,137,15
200215,3140,137,15
200215,3140,137,15
200215,3140,137,15
200215,3140,137,15
200215,3140,137,15
200215,3140,137,15
200215,3140,137,15
200215,3140,137,15
200215,3140,137,15
200215,3140,137,15
200215,3140,137,15
200215,3140,137,15
200215,3140,137,15
200215,3140,137,15
200215,3140,137,15
200215,3140,137,15
200215,3140,137,15
200215,3140,137,15
200215,3140,137,15
200215,3140,137,15
200215,3140,137,15
200215,3140,137,15
200215,3140,137,15
200215,3140,137,15
200215,3140,137,15
200215,3140,137,15
200215,3140,137,15
200215,3140,137,15
200215,3140,137,15
200215,3140,137,15
200215,3140,137,15
200215,3140,137,15
200215,3140,137,15
200215,3140,137,15
200215,3140,137,15
200215,3140,137,15
200215,3140,137,15
200215,3140,137,15
200215,3140,137,15
200215,3140,137,15
200215,3140,137,15
200215,3140,137,15
200215,3140,137,15
200215,3140,137,15
200215,3140,137,15
200215,3140,137,15
200215,3140,137,15
200215,3140,137,15
200215,3140,137,15
200215,3140,137,15
200215,3140,137,15
200215,3140,137,15
200215,3140,137,15
200215,3140,137,15
200215,3140,137,15
200215,3140,137,15
200215,3140,137,15
200215,3140,137,15
200215,3140,137,15
200215,3140,137,15
200215,3140,137,15
200215,3140,137,15
200215,3140,137,15
200215,3140,137,15
200215,3140,137,15
200215,3140,137,15
200215,3140,137,15
200215,3140,137,15
200215,3140,137,15
200215,3140,137,15
200215,3140,137,15
200215,3140,137,15
200215,3140,137,15
200215,3140,137,15
200215,3140,137,15
200215,3140,137,15
200215,3140,137,15
200215,3140,137,15
200215,3140,137,15
200215,3140,137,15
200215,3140,137,15
200215,3140,137,15
200215,3140,137,15
200215,3140,137,15
200215,3140,137,15
200215,3140,137,15
200215,3140,137,15
200215,3140,137,15
200215,3140,137,15
200215,3140,137,15
200215,3140,137,15
200215,3140,137,15
200215,3140,137,15
200215,3140,137,15
200215,3140,137,15
200215,3140,137,15
200215,3140,137,15
200215,3140,137,15
200215,3140,137,15
200215,3140,137,15
200215,3140,137,15
