1000006753 257793625 250097897 242863062 232886468
1000000000 267077579 261189173 254820340 246551695
1000000000 266095203 260300355 253615423 245096368
1000000000 265615733 259877218 252946353 244505945
1000000000 266101196 260726278 253572879 245446494
1000000000 266467619 261117272 254036796 246133250
1000000000 264674258 258867940 251653860 243308041
1000000000 265525489 259665272 252613276 244239013
1000000000 266208832 260095123 253411269 244922690
1000000000 265870957 259267975 252764375 243965965
1000000000 265216107 258074304 251697888 242620917
1000000004 261100193 251725978 246302931 238133433
1000000000 123926036 123520784 122588703 120886643
1000000000 123925986 123520736 122588661 120886611
1000000000 123926112 123520857 122588771 120886701
1000000000 123926167 123520914 122588834 120886799
1000000000 123926085 123520835 122588759 120886682
1000000000 123926044 123520792 122588711 120886651
1000000000 123925987 123520738 122588661 120886613
1000000000 123926142 123520887 122588803 120886730
1000000000 123926151 123520897 122588816 120886755
1000000000 123926088 123520838 122588763 120886713
1000000000 123926026 123520776 122588693 120886635
1000000000 123926005 123520753 122588678 120886624
1000000000 123926154 123520898 122588814 120886746
1000000000 123926139 123520887 122588806 120886744
1000000000 123926086 123520836 122588761 120886711
1000000000 123926012 123520760 122588679 120886619
1000000000 123926019 123520769 122588692 120886640
1000000000 123926170 123520914 122588830 120886762
1000000000 123926123 123520871 122588790 120886728
1000000000 123926088 123520838 122588763 120886713
1000000000 123925994 123520742 122588661 120886601
1000000000 123926044 123520789 122588703 120886633
1000000000 123926175 123520925 122588850 120886800
1000000000 123926111 123520858 122588777 120886715
1000000040 135657550 127320846 118879759 110159055
1000000000 157714341 134987323 112948967 90222237
1000000040 116231291 113487424 110270180 105760761
1000000000 168633544 166952710 165391665 163656570
1000000000 169014083 169014085 169014083 169014087
1000000000 169014086 169014083 169014085 169014085
1000000000 169014083 169014085 169014084 169014085
1000000000 169014085 169014083 169014085 169014084
1000000000 169014084 169014085 169014087 169014085
1000000000 169014086 169014085 169014083 169014083
1000000000 169014082 169014084 169014087 169014086
1000000000 169014086 169014087 169014084 169014084
1000000000 169014082 169014085 169014085 169014086
1000000000 169014086 169014085 169014083 169014082
1000000000 169014084 169014084 169014086 169014086
1000000000 169014084 169014085 169014083 169014082
1000000000 169014085 169014083 169014086 169014086
1000000000 169014085 169014086 169014083 169014084
1000000000 169014083 169014084 169014086 169014084
1000000000 169014085 169014086 169014082 169014085
1000000000 169014083 169014082 169014086 169014085
1000000000 169014085 169014086 169014084 169014083
1000000000 169014085 169014082 169014084 169014085
1000000000 169014084 169014086 169014085 169014083
1000000000 169014087 169014084 169014085 169014085
1000000000 169014085 169014084 169014083 169014084
1000000000 169014085 169014085 169014085 169014085
1000000000 169014084 169014085 169014083 169014087
1000000000 169014085 169014083 169014085 169014083
1000000000 169014083 169014085 169014084 169014087
1000000000 169014086 169014083 169014084 169014084
1000000000 169014084 169014085 169014086 169014085
1000000000 169014086 169014084 169014084 169014083
1000000000 169014082 169014085 169014088 169014086
1000000000 169014086 169014087 169014084 169014083
1000000000 169014082 169014083 169014085 169014086
1000000000 169014086 169014087 169014083 169014083
1000000000 169014084 169014084 169014086 169014086
1000000000 169014084 169014085 169014083 169014082
1000000000 169014085 169014083 169014085 169014086
1000000000 169014085 169014086 169014084 169014084
1000000000 169014083 169014083 169014086 169014084
1000000000 169014085 169014086 169014082 169014085
1000000000 169014083 169014083 169014086 169014085
1000000000 169014085 169014086 169014082 169014083
1000000000 169014084 169014082 169014086 169014085
1000000000 169014085 169014086 169014084 169014083
1000000000 169014087 169014084 169014084 169014085
1000000000 169014083 169014084 169014085 169014084
1000000000 169014087 169014085 169014085 169014084
1000000000 169014084 169014085 169014083 169014086
1000000000 169014085 169014083 169014085 169014084
1000000000 169014083 169014085 169014083 169014088
1000000000 169014086 169014083 169014085 169014084
1000000000 169014083 169014085 169014085 169014085
1000000000 169014086 169014084 169014084 169014083
1000000000 169014083 169014084 169014087 169014086
1000000000 169014086 169014086 169014085 169014083
1000000000 169014082 169014084 169014085 169014085
1000000000 169014086 169014088 169014084 169014084
1000000000 169014084 169014084 169014085 169014086
1000000000 169014084 169014085 169014083 169014082
1000000000 169014085 169014083 169014086 169014086
1000000000 169014085 169014086 169014084 169014082
1000000000 169014083 169014083 169014086 169014086
1000000000 169014085 169014085 169014082 169014084
1000000000 169014083 169014084 169014086 169014084
1000000000 169014085 169014086 169014082 169014085
1000000000 169014084 169014082 169014086 169014085
1000000000 169014084 169014086 169014084 169014083
1000000000 169014086 169014082 169014084 169014085
1000000000 169014084 169014086 169014085 169014083
1000000000 169014088 169014084 169014085 169014085
1000000000 169014084 169014084 169014083 169014085
1000000000 169014085 169014085 169014085 169014084
1000000000 169014083 169014085 169014083 169014087
1000000000 169014086 169014083 169014085 169014085
1000000000 169014083 169014085 169014084 169014085
1000000000 169014085 169014083 169014085 169014084
1000000000 169014084 169014085 169014087 169014085
1000000000 169014086 169014085 169014083 169014083
1000000000 169014082 169014084 169014087 169014086
1000000000 169014086 169014087 169014084 169014084
1000000000 169014082 169014085 169014085 169014086
1000000000 169014086 169014085 169014083 169014082
1000000000 169014084 169014084 169014086 169014086
1000000000 169014084 169014085 169014083 169014082
1000000000 169014085 169014083 169014086 169014086
1000000000 169014085 169014086 169014083 169014084
1000000000 169014083 169014084 169014086 169014084
1000000000 169014085 169014086 169014082 169014085
1000000000 169014083 169014082 169014086 169014085
1000000000 169014085 169014086 169014084 169014083
1000000000 169014085 169014082 169014084 169014085
1000000000 169014084 169014086 169014085 169014083
1000000000 169014087 169014084 169014085 169014085
1000000000 169014085 169014084 169014083 169014084
1000000000 169014085 169014085 169014085 169014085
1000000000 169014084 169014085 169014083 169014087
1000000000 169014085 169014083 169014085 169014083
1000000000 169014083 169014085 169014084 169014087
1000000000 169014086 169014083 169014084 169014084
1000000000 169014084 169014085 169014086 169014085
1000000000 169014086 169014084 169014084 169014083
1000000000 169014082 169014085 169014088 169014086
1000000000 169014086 169014087 169014084 169014083
1000000000 169014082 169014083 169014085 169014086
1000000000 169014086 169014087 169014083 169014083
1000000000 169014084 169014084 169014086 169014086
1000000000 169014084 169014085 169014083 169014082
1000000000 169014085 169014083 169014085 169014086
1000000000 169014085 169014086 169014084 169014084
1000000000 169014083 169014083 169014086 169014084
1000000000 169014085 169014086 169014082 169014085
1000000000 169014083 169014083 169014086 169014085
1000000000 169014085 169014086 169014082 169014083
1000000000 169014084 169014082 169014086 169014085
1000000000 169014085 169014086 169014084 169014083
1000000000 169014087 169014084 169014084 169014085
1000000000 169014083 169014084 169014085 169014084
1000000000 169014087 169014085 169014085 169014084
1000000000 169014084 169014085 169014083 169014086
1000000000 169014085 169014083 169014085 169014084
1000000000 169014083 169014085 169014083 169014088
1000000000 169014086 169014083 169014085 169014084
1000000000 169014083 169014085 169014085 169014085
1000000000 169014086 169014084 169014084 169014083
1000000000 169014083 169014084 169014087 169014086
1000000000 169014086 169014086 169014085 169014083
1000000000 169014082 169014084 169014085 169014085
1000000000 169014086 169014088 169014084 169014084
1000000000 169014084 169014084 169014085 169014086
1000000000 169014084 169014085 169014083 169014082
1000000000 169014085 169014083 169014086 169014086
1000000000 169014085 169014086 169014084 169014082
1000000000 169014083 169014083 169014086 169014086
1000000000 169014085 169014085 169014082 169014084
1000000000 169014083 169014084 169014086 169014084
1000000000 169014085 169014086 169014082 169014085
1000000000 169014084 169014082 169014086 169014085
1000000000 169014084 169014086 169014084 169014083
1000000000 169014086 169014082 169014084 169014085
1000000000 169014084 169014086 169014085 169014083
1000000000 169014088 169014084 169014085 169014085
1000000000 169014084 169014084 169014083 169014085
1000000000 169014085 169014085 169014085 169014084
1000000000 169014083 169014085 169014083 169014087
1000000000 169014086 169014083 169014085 169014085
1000000000 169014083 169014085 169014084 169014085
1000000000 169014085 169014083 169014085 169014084
1000000000 169014084 169014085 169014087 169014085
1000000000 169014086 169014085 169014083 169014083
1000000000 169014082 169014084 169014087 169014086
1000000000 169014086 169014087 169014084 169014084
1000000000 169014082 169014085 169014085 169014086
1000000000 169014086 169014085 169014083 169014082
1000000000 169014084 169014084 169014086 169014086
1000000000 169014084 169014085 169014083 169014082
1000000000 169014085 169014083 169014086 169014086
1000000000 169014085 169014086 169014083 169014084
1000000000 169014083 169014084 169014086 169014084
1000000000 169014085 169014086 169014082 169014085
1000000000 169014083 169014082 169014086 169014085
1000000000 169014085 169014086 169014084 169014083
1000000000 169014085 169014082 169014084 169014085
1000000000 169014084 169014086 169014085 169014083
1000000000 169014087 169014084 169014085 169014085
1000000000 169014085 169014084 169014083 169014084
1000000000 169014085 169014085 169014085 169014085
1000000000 169014084 169014085 169014083 169014087
1000000000 169014085 169014083 169014085 169014083
1000000000 169014083 169014085 169014084 169014087
1000000000 169014086 169014083 169014084 169014084
1000000000 169014084 169014085 169014086 169014085
1000000000 169014086 169014084 169014084 169014083
1000000000 169014082 169014085 169014088 169014086
1000000000 169014086 169014087 169014084 169014083
1000000000 169014082 169014083 169014085 169014086
1000000000 169014086 169014087 169014083 169014083
1000000000 169014084 169014084 169014086 169014086
1000000000 169014084 169014085 169014083 169014082
1000000000 169014085 169014083 169014085 169014086
1000000000 169014085 169014086 169014084 169014084
1000000000 169014083 169014083 169014086 169014084
1000000000 169014085 169014086 169014082 169014085
1000000000 169014083 169014083 169014086 169014085
1000000000 169014085 169014086 169014082 169014083
1000000000 169014084 169014082 169014086 169014085
1000000000 169014085 169014086 169014084 169014083
1000000000 169014087 169014084 169014084 169014085
1000000000 169014083 169014084 169014085 169014084
1000000000 169014087 169014085 169014085 169014084
1000000000 169014084 169014085 169014083 169014086
1000000000 169014085 169014083 169014085 169014084
1000000000 169014083 169014085 169014083 169014088
1000000000 169014086 169014083 169014085 169014084
1000000000 169014083 169014085 169014085 169014085
1000000000 169014086 169014084 169014084 169014083
1000000000 169014083 169014084 169014087 169014086
1000000000 169014086 169014086 169014085 169014083
1000000000 169014082 169014084 169014085 169014085
1000000000 169014086 169014088 169014084 169014084
1000000000 169014084 169014084 169014085 169014086
1000000000 169014084 169014085 169014083 169014082
1000000000 169014085 169014083 169014086 169014086
1000000000 169014085 169014086 169014084 169014082
1000000000 169014083 169014083 169014086 169014086
1000000000 169014085 169014085 169014082 169014084
1000000000 169014083 169014084 169014086 169014084
1000000000 169014085 169014086 169014082 169014085
1000000000 169014084 169014082 169014086 169014085
1000000000 169014084 169014086 169014084 169014083
1000000000 169014086 169014082 169014084 169014085
1000000000 169014084 169014086 169014085 169014083
1000000000 169014088 169014084 169014085 169014085
1000000000 169014084 169014084 169014083 169014085
1000000000 169014085 169014085 169014085 169014084
1000000000 169014083 169014085 169014083 169014087
1000000000 169014086 169014083 169014085 169014085
1000000000 169014083 169014085 169014084 169014085
1000000000 169014085 169014083 169014085 169014084
1000000000 169014084 169014085 169014087 169014085
1000000000 169014086 169014085 169014083 169014083
1000000000 169014082 169014084 169014087 169014086
1000000000 169014086 169014087 169014084 169014084
1000000000 169014082 169014085 169014085 169014086
1000000000 169014086 169014085 169014083 169014082
1000000000 169014084 169014084 169014086 169014086
1000000000 169014084 169014085 169014083 169014082
1000000000 169014085 169014083 169014086 169014086
1000000000 169014085 169014086 169014083 169014084
1000000000 169014083 169014084 169014086 169014084
1000000000 169014085 169014086 169014082 169014085
1000000000 169014083 169014082 169014086 169014085
1000000000 169014085 169014086 169014084 169014083
1000000000 169014085 169014082 169014084 169014085
1000000000 169014084 169014086 169014085 169014083
1000000000 169014087 169014084 169014085 169014085
1000000000 169014085 169014084 169014083 169014084
1000000000 169014085 169014085 169014085 169014085
1000000000 169014084 169014085 169014083 169014087
1000000000 169014085 169014083 169014085 169014083
1000000000 169014083 169014085 169014084 169014087
1000000000 169014086 169014083 169014084 169014084
1000000000 169014084 169014085 169014086 169014085
1000000000 169014086 169014084 169014084 169014083
1000000000 169014082 169014085 169014088 169014086
1000000000 169014086 169014087 169014084 169014083
1000000000 169014082 169014083 169014085 169014086
1000000000 169014086 169014087 169014083 169014083
1000000000 169014084 169014084 169014086 169014086
1000000000 169014084 169014085 169014083 169014082
1000000000 169014085 169014083 169014085 169014086
1000000000 169014085 169014086 169014084 169014084
1000000000 169014083 169014083 169014086 169014084
1000000000 169014085 169014086 169014082 169014085
1000000000 169014083 169014083 169014086 169014085
1000000000 169014085 169014086 169014082 169014083
1000000000 169014084 169014082 169014086 169014085
1000000000 169014085 169014086 169014084 169014083
1000000000 169014087 169014084 169014084 169014085
1000000000 169014083 169014084 169014085 169014084
1000000000 169014087 169014085 169014085 169014084
1000000000 169014084 169014085 169014083 169014086
1000000000 169014085 169014083 169014085 169014084
1000000000 169014083 169014085 169014083 169014088
1000000000 169014086 169014083 169014085 169014084
1000000000 169014083 169014085 169014085 169014085
1000000000 169014086 169014084 169014084 169014083
1000000000 169014083 169014084 169014087 169014086
1000000000 169014086 169014086 169014085 169014083
1000000000 169014082 169014084 169014085 169014085
1000000000 169014086 169014088 169014084 169014084
1000000000 169014084 169014084 169014085 169014086
1000000000 169014084 169014085 169014083 169014082
1000000000 169014085 169014083 169014086 169014086
1000000000 169014085 169014086 169014084 169014082
1000000000 169014083 169014083 169014086 169014086
1000000000 169014085 169014085 169014082 169014084
1000000000 169014083 169014084 169014086 169014084
1000000000 169014085 169014086 169014082 169014085
1000000000 169014084 169014082 169014086 169014085
1000000000 169014084 169014086 169014084 169014083
1000000000 169014086 169014082 169014084 169014085
1000000000 169014084 169014086 169014085 169014083
1000000000 169014088 169014084 169014085 169014085
1000000000 169014084 169014084 169014083 169014085
1000000000 169014085 169014085 169014085 169014084
1000000000 169014083 169014085 169014083 169014087
1000000000 169014086 169014083 169014085 169014085
1000000000 169014083 169014085 169014084 169014085
1000000000 169014085 169014083 169014085 169014084
1000000000 169014084 169014085 169014087 169014085
1000000000 169014086 169014085 169014083 169014083
1000000000 169014082 169014084 169014087 169014086
1000000000 169014086 169014087 169014084 169014084
1000000000 169014082 169014085 169014085 169014086
1000000000 169014086 169014085 169014083 169014082
1000000000 169014084 169014084 169014086 169014086
1000000000 169014084 169014085 169014083 169014082
1000000000 169014085 169014083 169014086 169014086
1000000000 169014085 169014086 169014083 169014084
1000000000 169014083 169014084 169014086 169014084
1000000000 169014085 169014086 169014082 169014085
1000000000 169014083 169014082 169014086 169014085
1000000000 169014085 169014086 169014084 169014083
1000000000 169014085 169014082 169014084 169014085
1000000000 169014084 169014086 169014085 169014083
1000000000 169014087 169014084 169014085 169014085
1000000000 169014085 169014084 169014083 169014084
1000000000 169014085 169014085 169014085 169014085
1000000000 169014084 169014085 169014083 169014087
1000000000 169014085 169014083 169014085 169014083
1000000000 169014083 169014085 169014084 169014087
1000000000 169014086 169014083 169014084 169014084
1000000000 169014084 169014085 169014086 169014085
1000000000 169014086 169014084 169014084 169014083
1000000000 169014082 169014085 169014088 169014086
1000000000 169014086 169014087 169014084 169014083
1000000000 169014082 169014083 169014085 169014086
1000000000 169014086 169014087 169014083 169014083
1000000000 169014084 169014084 169014086 169014086
1000000000 169014084 169014085 169014083 169014082
1000000000 169014085 169014083 169014085 169014086
1000000000 169014085 169014086 169014084 169014084
1000000000 169014083 169014083 169014086 169014084
1000000000 169014085 169014086 169014082 169014085
1000000000 169014083 169014083 169014086 169014085
1000000000 169014085 169014086 169014082 169014083
1000000000 169014084 169014082 169014086 169014085
1000000000 169014085 169014086 169014084 169014083
1000000000 169014087 169014084 169014084 169014085
1000000000 169014083 169014084 169014085 169014084
1000000000 169014087 169014085 169014085 169014084
1000000000 169014084 169014085 169014083 169014086
1000000000 169014085 169014083 169014085 169014084
1000000000 169014083 169014085 169014083 169014088
1000000000 169014086 169014083 169014085 169014084
1000000000 169014083 169014085 169014085 169014085
1000000000 169014086 169014084 169014084 169014083
1000000000 169014083 169014084 169014087 169014086
1000000000 169014086 169014086 169014085 169014083
1000000000 169014082 169014084 169014085 169014085
1000000000 169014086 169014088 169014084 169014084
1000000000 169014084 169014084 169014085 169014086
1000000000 169014084 169014085 169014083 169014082
1000000000 169014085 169014083 169014086 169014086
1000000000 169014085 169014086 169014084 169014082
1000000000 169014083 169014083 169014086 169014086
1000000000 169014085 169014085 169014082 169014084
1000000000 169014083 169014084 169014086 169014084
1000000000 169014085 169014086 169014082 169014085
1000000000 169014084 169014082 169014086 169014085
1000000000 169014084 169014086 169014084 169014083
1000000000 169014086 169014082 169014084 169014085
1000000000 169014084 169014086 169014085 169014083
1000000000 169014088 169014084 169014085 169014085
1000000000 169014084 169014084 169014083 169014085
1000000000 169014085 169014085 169014085 169014084
1000000000 169014083 169014085 169014083 169014087
1000000000 169014086 169014083 169014085 169014085
1000000000 169014083 169014085 169014084 169014085
1000000000 169014085 169014083 169014085 169014084
1000000000 169014084 169014085 169014087 169014085
1000000000 169014086 169014085 169014083 169014083
1000000000 169014082 169014084 169014087 169014086
1000000000 169014086 169014087 169014084 169014084
1000000000 169014082 169014085 169014085 169014086
1000000000 169014086 169014085 169014083 169014082
1000000000 169014084 169014084 169014086 169014086
1000000000 169014084 169014085 169014083 169014082
1000000000 169014085 169014083 169014086 169014086
1000000000 169014085 169014086 169014083 169014084
1000000000 169014083 169014084 169014086 169014084
1000000000 169014085 169014086 169014082 169014085
1000000000 169014083 169014082 169014086 169014085
1000000000 169014085 169014086 169014084 169014083
1000000000 169014085 169014082 169014084 169014085
1000000000 169014084 169014086 169014085 169014083
1000000000 169014087 169014084 169014085 169014085
1000000000 169014085 169014084 169014083 169014084
1000000000 169014085 169014085 169014085 169014085
1000000000 169014084 169014085 169014083 169014087
1000000000 169014085 169014083 169014085 169014083
1000000000 169014083 169014085 169014084 169014087
1000000000 169014086 169014083 169014084 169014084
1000000000 169014084 169014085 169014086 169014085
1000000000 169014086 169014084 169014084 169014083
1000000000 169014082 169014085 169014088 169014086
1000000000 169014086 169014087 169014084 169014083
1000000000 169014082 169014083 169014085 169014086
1000000000 169014086 169014087 169014083 169014083
1000000000 169014084 169014084 169014086 169014086
1000000000 169014084 169014085 169014083 169014082
1000000000 169014085 169014083 169014085 169014086
1000000000 169014085 169014086 169014084 169014084
1000000000 169014083 169014083 169014086 169014084
1000000000 169014085 169014086 169014082 169014085
1000000000 169014083 169014083 169014086 169014085
1000000000 169014085 169014086 169014082 169014083
1000000000 169014084 169014082 169014086 169014085
1000000000 169014085 169014086 169014084 169014083
1000000000 169014087 169014084 169014084 169014085
1000000000 169014083 169014084 169014085 169014084
1000000000 169014087 169014085 169014085 169014084
1000000000 169014084 169014085 169014083 169014086
1000000000 169014085 169014083 169014085 169014084
1000000000 169014083 169014085 169014083 169014088
1000000000 169014086 169014083 169014085 169014084
1000000000 169014083 169014085 169014085 169014085
1000000000 169014086 169014084 169014084 169014083
1000000000 169014083 169014084 169014087 169014086
1000000000 169014086 169014086 169014085 169014083
1000000000 169014082 169014084 169014085 169014085
1000000000 169014086 169014088 169014084 169014084
1000000000 169014084 169014084 169014085 169014086
1000000000 169014084 169014085 169014083 169014082
1000000000 169014085 169014083 169014086 169014086
1000000000 169014085 169014086 169014084 169014082
1000000000 169014083 169014083 169014086 169014086
1000000000 169014085 169014085 169014082 169014084
1000000000 169014083 169014084 169014086 169014084
1000000000 169014085 169014086 169014082 169014085
1000000000 169014084 169014082 169014086 169014085
1000000000 169014084 169014086 169014084 169014083
1000000000 169014086 169014082 169014084 169014085
1000000000 169014084 169014086 169014085 169014083
1000000000 169014088 169014084 169014085 169014085
1000000000 169014084 169014084 169014083 169014085
1000000000 169014085 169014085 169014085 169014084
1000000000 169014083 169014085 169014083 169014087
1000000000 169014086 169014083 169014085 169014085
1000000000 169014083 169014085 169014084 169014085
1000000000 169014085 169014083 169014085 169014084
1000000000 169014084 169014085 169014087 169014085
1000000000 169014086 169014085 169014083 169014083
1000000000 169014082 169014084 169014087 169014086
1000000000 169014086 169014087 169014084 169014084
1000000000 169014082 169014085 169014085 169014086
1000000000 169014086 169014085 169014083 169014082
1000000000 169014084 169014084 169014086 169014086
1000000000 169014084 169014085 169014083 169014082
1000000000 169014085 169014083 169014086 169014086
1000000000 169014085 169014086 169014083 169014084
1000000000 169014083 169014084 169014086 169014084
1000000000 169014085 169014086 169014082 169014085
1000000000 169014083 169014082 169014086 169014085
1000000000 169014085 169014086 169014084 169014083
1000000000 169014085 169014082 169014084 169014085
1000000000 169014084 169014086 169014085 169014083
1000000000 169014087 169014084 169014085 169014085
1000000000 169014085 169014084 169014083 169014084
1000000000 169014085 169014085 169014085 169014085
1000000000 169014084 169014085 169014083 169014087
1000000000 169014085 169014083 169014085 169014083
1000000000 169014083 169014085 169014084 169014087
1000000000 169014086 169014083 169014084 169014084
1000000000 169014084 169014085 169014086 169014085
1000000000 169014086 169014084 169014084 169014083
1000000000 169014082 169014085 169014088 169014086
1000000000 169014086 169014087 169014084 169014083
1000000000 169014082 169014083 169014085 169014086
1000000000 169014086 169014087 169014083 169014083
1000000000 169014084 169014084 169014086 169014086
1000000000 169014084 169014085 169014083 169014082
1000000000 169014085 169014083 169014085 169014086
1000000000 169014085 169014086 169014084 169014084
1000000000 169014083 169014083 169014086 169014084
1000000000 169014085 169014086 169014082 169014085
1000000000 169014083 169014083 169014086 169014085
1000000000 169014085 169014086 169014082 169014083
1000000000 169014084 169014082 169014086 169014085
1000000000 169014085 169014086 169014084 169014083
1000000000 169014087 169014084 169014084 169014085
1000000000 169014083 169014084 169014085 169014084
1000000000 169014087 169014085 169014085 169014084
1000000000 169014084 169014085 169014083 169014086
1000000000 169014085 169014083 169014085 169014084
1000000000 169014083 169014085 169014083 169014088
1000000000 169014086 169014083 169014085 169014084
1000000000 169014083 169014085 169014085 169014085
1000000000 169014086 169014084 169014084 169014083
1000000000 169014083 169014084 169014087 169014086
1000000000 169014086 169014086 169014085 169014083
1000000000 169014082 169014084 169014085 169014085
1000000000 169014086 169014088 169014084 169014084
1000000000 169014084 169014084 169014085 169014086
1000000000 169014084 169014085 169014083 169014082
1000000000 169014085 169014083 169014086 169014086
1000000000 169014085 169014086 169014084 169014082
1000000000 169014083 169014083 169014086 169014086
1000000000 169014085 169014085 169014082 169014084
1000000000 169014083 169014084 169014086 169014084
1000000000 169014085 169014086 169014082 169014085
1000000000 169014084 169014082 169014086 169014085
1000000000 169014084 169014086 169014084 169014083
1000000000 169014086 169014082 169014084 169014085
1000000000 169014084 169014086 169014085 169014083
1000000000 169014088 169014084 169014085 169014085
1000000000 169014084 169014084 169014083 169014085
1000000000 169014085 169014085 169014085 169014084
1000000000 169014083 169014085 169014083 169014087
1000000000 169014086 169014083 169014085 169014085
1000000000 169014083 169014085 169014084 169014085
1000000000 169014085 169014083 169014085 169014084
1000000000 169014084 169014085 169014087 169014085
1000000000 169014086 169014085 169014083 169014083
1000000000 169014082 169014084 169014087 169014086
1000000000 169014086 169014087 169014084 169014084
1000000000 169014082 169014085 169014085 169014086
1000000000 169014086 169014085 169014083 169014082
1000000000 169014084 169014084 169014086 169014086
1000000000 169014084 169014085 169014083 169014082
1000000000 169014085 169014083 169014086 169014086
1000000000 169014085 169014086 169014083 169014084
1000000000 169014083 169014084 169014086 169014084
1000000000 169014085 169014086 169014082 169014085
1000000000 169014083 169014082 169014086 169014085
1000000000 169014085 169014086 169014084 169014083
1000000000 169014085 169014082 169014084 169014085
1000000000 169014084 169014086 169014085 169014083
1000000000 169014087 169014084 169014085 169014085
1000000000 169014085 169014084 169014083 169014084
1000000000 169014085 169014085 169014085 169014085
1000000000 169014084 169014085 169014083 169014087
1000000000 169014085 169014083 169014085 169014083
1000000000 169014083 169014085 169014084 169014087
1000000000 169014086 169014083 169014084 169014084
1000000000 169014084 169014085 169014086 169014085
1000000000 169014086 169014084 169014084 169014083
1000000000 169014082 169014085 169014088 169014086
1000000000 169014086 169014087 169014084 169014083
1000000000 169014082 169014083 169014085 169014086
1000000000 169014086 169014087 169014083 169014083
1000000000 169014084 169014084 169014086 169014086
1000000000 169014084 169014085 169014083 169014082
1000000000 169014085 169014083 169014085 169014086
1000000000 169014085 169014086 169014084 169014084
1000000000 169014083 169014083 169014086 169014084
1000000000 169014085 169014086 169014082 169014085
1000000000 169014083 169014083 169014086 169014085
1000000000 169014085 169014086 169014082 169014083
1000000000 169014084 169014082 169014086 169014085
1000000000 169014085 169014086 169014084 169014083
1000000000 169014087 169014084 169014084 169014085
1000000000 169014083 169014084 169014085 169014084
1000000000 169014087 169014085 169014085 169014084
1000000000 169014084 169014085 169014083 169014086
1000000000 169014085 169014083 169014085 169014084
1000000000 169014083 169014085 169014083 169014088
1000000000 169014086 169014083 169014085 169014084
1000000000 169014083 169014085 169014085 169014085
1000000000 169014086 169014084 169014084 169014083
1000000000 169014083 169014084 169014087 169014086
1000000000 169014086 169014086 169014085 169014083
1000000000 169014082 169014084 169014085 169014085
1000000000 169014086 169014088 169014084 169014084
1000000000 169014084 169014084 169014085 169014086
1000000000 169014084 169014085 169014083 169014082
1000000000 169014085 169014083 169014086 169014086
1000000000 169014085 169014086 169014084 169014082
1000000000 169014083 169014083 169014086 169014086
1000000000 169014085 169014085 169014082 169014084
1000000000 169014083 169014084 169014086 169014084
1000000000 169014085 169014086 169014082 169014085
1000000000 169014084 169014082 169014086 169014085
1000000000 169014084 169014086 169014084 169014083
1000000000 169014086 169014082 169014084 169014085
1000000000 169014084 169014086 169014085 169014083
1000000000 169014088 169014084 169014085 169014085
1000000000 169014084 169014084 169014083 169014085
1000000000 169014085 169014085 169014085 169014084
1000000000 169014083 169014085 169014083 169014087
1000000000 169014086 169014083 169014085 169014085
1000000000 169014083 169014085 169014084 169014085
1000000000 169014085 169014083 169014085 169014084
1000000000 169014084 169014085 169014087 169014085
1000000000 169014086 169014085 169014083 169014083
1000000000 169014082 169014084 169014087 169014086
1000000000 169014086 169014087 169014084 169014084
1000000000 169014082 169014085 169014085 169014086
1000000000 169014086 169014085 169014083 169014082
1000000000 169014084 169014084 169014086 169014086
1000000000 169014084 169014085 169014083 169014082
1000000000 169014085 169014083 169014086 169014086
1000000000 169014085 169014086 169014083 169014084
1000000000 169014083 169014084 169014086 169014084
1000000000 169014085 169014086 169014082 169014085
1000000000 169014083 169014082 169014086 169014085
1000000000 169014085 169014086 169014084 169014083
1000000000 169014085 169014082 169014084 169014085
1000000000 169014084 169014086 169014085 169014083
1000000000 169014087 169014084 169014085 169014085
1000000000 169014085 169014084 169014083 169014084
1000000000 169014085 169014085 169014085 169014085
1000000000 169014084 169014085 169014083 169014087
1000000000 169014085 169014083 169014085 169014083
1000000000 169014083 169014085 169014084 169014087
1000000000 169014086 169014083 169014084 169014084
1000000000 169014084 169014085 169014086 169014085
1000000000 169014086 169014084 169014084 169014083
1000000000 169014082 169014085 169014088 169014086
1000000000 169014086 169014087 169014084 169014083
1000000000 169014082 169014083 169014085 169014086
1000000000 169014086 169014087 169014083 169014083
1000000000 169014084 169014084 169014086 169014086
1000000000 169014084 169014085 169014083 169014082
1000000000 169014085 169014083 169014085 169014086
1000000000 169014085 169014086 169014084 169014084
1000000000 169014083 169014083 169014086 169014084
1000000000 169014085 169014086 169014082 169014085
1000000000 169014083 169014083 169014086 169014085
1000000000 169014085 169014086 169014082 169014083
1000000000 169014084 169014082 169014086 169014085
1000000000 169014085 169014086 169014084 169014083
1000000000 169014087 169014084 169014084 169014085
1000000000 169014083 169014084 169014085 169014084
1000000000 169014087 169014085 169014085 169014084
1000000000 169014084 169014085 169014083 169014086
1000000000 169014085 169014083 169014085 169014084
1000000000 169014083 169014085 169014083 169014088
1000000000 169014086 169014083 169014085 169014084
1000000000 169014083 169014085 169014085 169014085
1000000000 169014086 169014084 169014084 169014083
1000000000 169014083 169014084 169014087 169014086
1000000000 169014086 169014086 169014085 169014083
1000000000 169014082 169014084 169014085 169014085
1000000000 169014086 169014088 169014084 169014084
1000000000 169014084 169014084 169014085 169014086
1000000000 169014084 169014085 169014083 169014082
1000000000 169014085 169014083 169014086 169014086
1000000000 169014085 169014086 169014084 169014082
1000000000 169014083 169014083 169014086 169014086
1000000000 169014085 169014085 169014082 169014084
1000000000 169014083 169014084 169014086 169014084
1000000000 169014085 169014086 169014082 169014085
1000000000 169014084 169014082 169014086 169014085
1000000000 169014084 169014086 169014084 169014083
1000000000 169014086 169014082 169014084 169014085
1000000000 169014084 169014086 169014085 169014083
1000000000 169014088 169014084 169014085 169014085
1000000000 169014084 169014084 169014083 169014085
1000000000 169014085 169014085 169014085 169014084
1000000000 169014083 169014085 169014083 169014087
1000000000 169014086 169014083 169014085 169014085
1000000000 169014083 169014085 169014084 169014085
1000000000 169014085 169014083 169014085 169014084
1000000000 169014084 169014085 169014087 169014085
1000000000 169014086 169014085 169014083 169014083
1000000000 169014082 169014084 169014087 169014086
1000000000 169014086 169014087 169014084 169014084
1000000000 169014082 169014085 169014085 169014086
1000000000 169014086 169014085 169014083 169014082
1000000000 169014084 169014084 169014086 169014086
1000000000 169014084 169014085 169014083 169014082
1000000000 169014085 169014083 169014086 169014086
1000000000 169014085 169014086 169014083 169014084
1000000000 169014083 169014084 169014086 169014084
1000000000 169014085 169014086 169014082 169014085
1000000000 169014083 169014082 169014086 169014085
1000000000 169014085 169014086 169014084 169014083
1000000000 169014085 169014082 169014084 169014085
1000000000 169014084 169014086 169014085 169014083
1000000000 169014087 169014084 169014085 169014085
1000000000 169014085 169014084 169014083 169014084
1000000000 169014085 169014085 169014085 169014085
1000000000 169014084 169014085 169014083 169014087
1000000000 169014085 169014083 169014085 169014083
1000000000 169014083 169014085 169014084 169014087
1000000000 169014086 169014083 169014084 169014084
1000000000 169014084 169014085 169014086 169014085
1000000000 169014086 169014084 169014084 169014083
1000000000 169014082 169014085 169014088 169014086
1000000000 169014086 169014087 169014084 169014083
1000000000 169014082 169014083 169014085 169014086
1000000000 169014086 169014087 169014083 169014083
1000000000 169014084 169014084 169014086 169014086
1000000000 169014084 169014085 169014083 169014082
1000000000 169014085 169014083 169014085 169014086
1000000000 169014085 169014086 169014084 169014084
1000000000 169014083 169014083 169014086 169014084
1000000000 169014085 169014086 169014082 169014085
1000000000 169014083 169014083 169014086 169014085
1000000000 169014085 169014086 169014082 169014083
1000000000 169014084 169014082 169014086 169014085
1000000000 169014085 169014086 169014084 169014083
1000000000 169014087 169014084 169014084 169014085
1000000000 169014083 169014084 169014085 169014084
1000000000 169014087 169014085 169014085 169014084
1000000000 169014084 169014085 169014083 169014086
1000000000 169014085 169014083 169014085 169014084
1000000000 169014083 169014085 169014083 169014088
1000000000 169014086 169014083 169014085 169014084
1000000000 169014083 169014085 169014085 169014085
1000000000 169014086 169014084 169014084 169014083
1000000000 169014083 169014084 169014087 169014086
1000000000 169014086 169014086 169014085 169014083
746021887 126088237 126088242 126088241 126088239
number of instructions: 733746021887
