1000000000 1919267908 451745968 726144441 1125557987 108749112 156998906 410262660 466049326 481661622 500982871 518458609
1000000000 1935930692 437639844 685510151 1130431293 118368399 156699095 419874463 465073656 478027498 493870841 507719171
1000000000 1934779420 438518492 689946988 1129879922 117944221 156934200 419115806 465202261 478878950 495012622 509210625
1000000000 1934358066 438866992 692207125 1129720526 117713589 156952428 418827393 465202670 479086152 496148349 510278299
1000000000 1935604555 437841023 688534249 1130174164 118399741 156898576 419630722 465141561 478761859 496160288 510065093
1000000000 1936593337 437026309 685756743 1130537220 118946798 156857668 420270984 465096381 478510718 495811389 510022769
1000000000 1933904449 439238354 696073139 1129557431 117459494 156967768 418535389 465221560 479199375 497234286 512854115
1000000000 1935268386 438117570 691939422 1130056604 118213320 156911788 419416635 465158112 478849127 496508559 512677672
1000000000 1936347692 437226590 688842859 1130442670 118812086 156866095 420111879 465100873 478564969 495934117 512297919
1000000000 1935758100 437711027 691664516 1130236969 118483142 156889465 419734262 465133987 478723454 496252775 512891957
1000000000 1934805575 438497883 695835784 1129888385 117957745 156929976 419120067 465178187 478966453 496752589 513646595
1000000000 1921619065 454560947 745193531 1138981479 146865329 197980852 449245043 512675777 539010474 560576259 576950914
1000000000 2079915888 554060913 814029944 1182404326 263859872 346490652 430053509 611403574 735897283 753079970 754782030
1000000000 2079915837 554060751 814029701 1182404365 263859884 346490627 430053445 611403625 735897231 753080100 754782150
1000000000 2079915596 554060475 814029813 1182403693 263859448 346490433 430053502 611403928 735897205 753079844 754781904
1000000000 2079915318 554060060 814030123 1182403150 263859072 346490236 430053487 611404256 735897135 753079764 754781836
1000000000 2079915937 554060989 814029501 1182404300 263859869 346490663 430053532 611403545 735897300 753079900 754781950
1000000000 2079915871 554060872 814029973 1182404333 263859872 346490643 430053491 611403583 735897269 753080000 754782060
1000000000 2079915837 554060764 814029694 1182404365 263859884 346490630 430053453 611403625 735897235 753080092 754782142
1000000000 2079915509 554060341 814029761 1182403478 263859306 346490363 430053501 611404041 735897183 753079790 754781850
1000000000 2079915419 554060222 814030151 1182403356 263859212 346490310 430053496 611404132 735897165 753079794 754781866
1000000000 2079915938 554060987 814029499 1182404298 263859868 346490661 430053529 611403542 735897298 753079898 754781948
1000000000 2079915854 554060837 814030009 1182404347 263859876 346490640 430053481 611403600 735897261 753080035 754782095
1000000000 2079915855 554060799 814029659 1182404352 263859881 346490634 430053464 611403609 735897244 753080058 754782108
1000000000 2079915403 554060183 814029732 1182403277 263859167 346490290 430053498 611404168 735897157 753079767 754781831
1000000000 2079915527 554060380 814030181 1182403558 263859352 346490384 430053500 611404006 735897192 753079818 754781886
1000000000 2079915937 554060989 814029501 1182404300 263859869 346490663 430053532 611403545 735897300 753079900 754781950
1000000000 2079915838 554060798 814030039 1182404355 263859878 346490633 430053465 611403611 735897248 753080065 754782125
1000000000 2079915870 554060838 814029628 1182404343 263859878 346490640 430053479 611403597 735897256 753080027 754782077
1000000000 2079915301 554060020 814029702 1182403069 263859026 346490215 430053488 611404291 735897126 753079736 754781800
1000000000 2079915627 554060543 814030210 1182403765 263859492 346490458 430053509 611403882 735897222 753079848 754781916
1000000000 2079915938 554060987 814029499 1182404298 263859868 346490661 430053529 611403542 735897298 753079898 754781948
1000000000 2079915822 554060760 814030073 1182404367 263859881 346490628 430053452 611403625 735897237 753080098 754782158
1000000000 2079915787 554060747 814029952 1182404168 263859760 346490582 430053488 611403685 735897247 753079981 754782041
1000000000 2079915292 554059992 814029448 1182403032 263859005 346490206 430053487 611404316 735897123 753079728 754781787
1000000000 2079915738 554060700 814030108 1182403967 263859630 346490532 430053516 611403757 735897247 753079871 754781934
1000000000 1945224342 568488539 919409665 1166597696 252755243 341400193 436211178 588021523 713299158 766733255 810052167
1000000000 1701102194 595731349 1112955648 1139118920 233471003 333333000 449724396 546832658 674244167 793390878 912536817
1000000000 2034728726 538866223 818789798 1157632475 166806146 310711185 432869676 600956551 699840621 713142226 727579019
1000000000 1506883996 519769374 928673068 937036588 121288908 213394186 372044507 548970330 800904300 887645517 895580313
1000000000 1492957740 514084510 915492962 922535209 112676055 204225348 366197178 549295773 809859155 894366196 894366196
1000000000 1492957752 514084503 915492950 922535216 112676058 204225356 366197187 549295776 809859157 894366200 894366200
1000000000 1492957743 514084510 915492962 922535206 112676055 204225349 366197180 549295774 809859153 894366194 894366194
1000000000 1492957749 514084506 915492964 922535220 112676058 204225356 366197186 549295774 809859159 894366204 894366204
1000000000 1492957742 514084508 915492952 922535203 112676054 204225349 366197180 549295774 809859152 894366191 894366191
1000000000 1492957751 514084507 915492968 922535223 112676058 204225354 366197188 549295781 809859162 894366207 894366207
1000000000 1492957742 514084508 915492947 922535201 112676056 204225351 366197179 549295768 809859146 894366189 894366189
1000000000 1492957748 514084504 915492964 922535227 112676056 204225352 366197185 549295781 809859170 894366211 894366211
1000000000 1492957748 514084508 915492952 922535195 112676056 204225353 366197183 549295770 809859140 894366183 894366183
1000000000 1492957744 514084505 915492958 922535223 112676056 204225350 366197181 549295776 809859166 894366207 894366207
1000000000 1492957750 514084507 915492953 922535198 112676057 204225354 366197184 549295773 809859143 894366186 894366186
1000000000 1492957747 514084507 915492959 922535222 112676055 204225349 366197180 549295773 809859163 894366206 894366206
1000000000 1492957746 514084506 915492954 922535199 112676057 204225354 366197184 549295773 809859145 894366187 894366187
1000000000 1492957746 514084511 915492971 922535222 112676056 204225351 366197182 549295776 809859163 894366206 894366206
1000000000 1492957746 514084506 915492952 922535202 112676057 204225353 366197187 549295776 809859148 894366190 894366190
1000000000 1492957747 514084510 915492962 922535220 112676057 204225352 366197181 549295775 809859162 894366204 894366204
1000000000 1492957745 514084507 915492956 922535206 112676057 204225355 366197189 549295777 809859151 894366193 894366193
1000000000 1492957747 514084505 915492961 922535214 112676056 204225349 366197177 549295772 809859157 894366199 894366199
1000000000 1492957747 514084507 915492950 922535208 112676057 204225355 366197188 549295775 809859151 894366194 894366194
1000000000 1492957745 514084505 915492962 922535212 112676055 204225348 366197177 549295773 809859157 894366198 894366198
1000000000 1492957749 514084509 915492957 922535209 112676057 204225356 366197188 549295775 809859152 894366195 894366195
1000000000 1492957743 514084507 915492960 922535212 112676056 204225348 366197179 549295774 809859157 894366198 894366198
1000000000 1492957751 514084507 915492954 922535212 112676057 204225357 366197189 549295777 809859154 894366197 894366197
1000000000 1492957742 514084508 915492960 922535210 112676055 204225348 366197178 549295774 809859156 894366197 894366197
1000000000 1492957752 514084505 915492952 922535213 112676058 204225356 366197187 549295777 809859154 894366197 894366197
1000000000 1492957740 514084509 915492961 922535207 112676055 204225349 366197179 549295772 809859154 894366195 894366195
1000000000 1492957752 514084505 915492961 922535221 112676057 204225354 366197185 549295774 809859160 894366205 894366205
1000000000 1492957742 514084509 915492955 922535203 112676055 204225350 366197181 549295775 809859152 894366191 894366191
1000000000 1492957751 514084508 915492969 922535221 112676058 204225355 366197189 549295778 809859160 894366205 894366205
1000000000 1492957742 514084506 915492946 922535202 112676055 204225350 366197177 549295770 809859148 894366190 894366190
1000000000 1492957748 514084505 915492964 922535227 112676057 204225353 366197187 549295782 809859169 894366211 894366211
1000000000 1492957747 514084509 915492953 922535197 112676056 204225353 366197183 549295770 809859142 894366185 894366185
1000000000 1492957744 514084504 915492958 922535224 112676056 204225350 366197181 549295777 809859167 894366208 894366208
1000000000 1492957750 514084508 915492953 922535197 112676057 204225354 366197184 549295773 809859142 894366185 894366185
1000000000 1492957746 514084507 915492959 922535222 112676055 204225349 366197180 549295773 809859164 894366206 894366206
1000000000 1492957747 514084504 915492951 922535198 112676057 204225354 366197184 549295773 809859144 894366186 894366186
1000000000 1492957747 514084509 915492960 922535222 112676055 204225349 366197180 549295774 809859162 894366206 894366206
1000000000 1492957745 514084508 915492964 922535201 112676058 204225355 366197187 549295775 809859147 894366189 894366189
1000000000 1492957747 514084510 915492962 922535221 112676056 204225351 366197182 549295776 809859163 894366205 894366205
1000000000 1492957745 514084507 915492954 922535206 112676058 204225355 366197189 549295778 809859151 894366193 894366193
1000000000 1492957747 514084507 915492965 922535215 112676055 204225349 366197177 549295772 809859158 894366200 894366200
1000000000 1492957747 514084507 915492950 922535208 112676058 204225356 366197189 549295776 809859152 894366194 894366194
1000000000 1492957744 514084504 915492960 922535212 112676055 204225348 366197177 549295773 809859156 894366198 894366198
1000000000 1492957751 514084508 915492957 922535208 112676057 204225355 366197187 549295774 809859151 894366194 894366194
1000000000 1492957743 514084507 915492959 922535213 112676056 204225349 366197179 549295774 809859158 894366199 894366199
1000000000 1492957750 514084508 915492956 922535211 112676057 204225356 366197189 549295777 809859154 894366197 894366197
1000000000 1492957741 514084508 915492960 922535211 112676055 204225348 366197178 549295774 809859156 894366197 894366197
1000000000 1492957752 514084505 915492951 922535213 112676058 204225357 366197188 549295778 809859155 894366198 894366198
1000000000 1492957742 514084509 915492962 922535208 112676055 204225349 366197179 549295772 809859154 894366195 894366195
1000000000 1492957750 514084503 915492950 922535218 112676057 204225354 366197185 549295774 809859159 894366202 894366202
1000000000 1492957744 514084511 915492965 922535203 112676055 204225349 366197180 549295774 809859150 894366191 894366191
1000000000 1492957749 514084507 915492965 922535221 112676058 204225356 366197188 549295776 809859160 894366205 894366205
1000000000 1492957743 514084506 915492948 922535203 112676055 204225350 366197179 549295773 809859151 894366191 894366191
1000000000 1492957749 514084507 915492968 922535225 112676057 204225353 366197187 549295782 809859165 894366209 894366209
1000000000 1492957745 514084509 915492953 922535200 112676056 204225353 366197182 549295769 809859145 894366188 894366188
1000000000 1492957746 514084504 915492958 922535225 112676056 204225350 366197182 549295778 809859168 894366209 894366209
1000000000 1492957748 514084508 915492953 922535195 112676056 204225353 366197183 549295771 809859140 894366183 894366183
1000000000 1492957747 514084506 915492958 922535223 112676056 204225350 366197181 549295775 809859165 894366207 894366207
1000000000 1492957747 514084505 915492952 922535198 112676057 204225354 366197184 549295773 809859144 894366186 894366186
1000000000 1492957747 514084507 915492959 922535222 112676055 204225349 366197180 549295773 809859162 894366206 894366206
1000000000 1492957745 514084509 915492964 922535200 112676057 204225354 366197185 549295774 809859146 894366188 894366188
1000000000 1492957747 514084509 915492962 922535222 112676057 204225352 366197183 549295777 809859164 894366206 894366206
1000000000 1492957745 514084507 915492953 922535204 112676057 204225354 366197188 549295777 809859149 894366191 894366191
1000000000 1492957747 514084508 915492960 922535217 112676056 204225350 366197179 549295773 809859160 894366202 894366202
1000000000 1492957747 514084507 915492956 922535206 112676057 204225355 366197188 549295776 809859150 894366192 894366192
1000000000 1492957744 514084505 915492961 922535214 112676056 204225349 366197178 549295773 809859158 894366200 894366200
1000000000 1492957750 514084507 915492950 922535208 112676057 204225355 366197187 549295775 809859151 894366194 894366194
1000000000 1492957743 514084508 915492966 922535213 112676056 204225349 366197178 549295773 809859158 894366199 894366199
1000000000 1492957750 514084507 915492954 922535211 112676057 204225356 366197190 549295777 809859154 894366197 894366197
1000000000 1492957742 514084507 915492960 922535210 112676055 204225348 366197177 549295773 809859155 894366196 894366196
1000000000 1492957753 514084506 915492953 922535212 112676057 204225356 366197188 549295777 809859154 894366197 894366197
1000000000 1492957740 514084510 915492962 922535209 112676055 204225348 366197178 549295773 809859155 894366196 894366196
1000000000 1492957752 514084503 915492950 922535216 112676058 204225356 366197187 549295776 809859157 894366200 894366200
1000000000 1492957743 514084510 915492962 922535206 112676055 204225349 366197180 549295774 809859153 894366194 894366194
1000000000 1492957749 514084506 915492964 922535220 112676058 204225356 366197186 549295774 809859159 894366204 894366204
1000000000 1492957742 514084508 915492952 922535203 112676054 204225349 366197180 549295774 809859152 894366191 894366191
1000000000 1492957751 514084507 915492968 922535223 112676058 204225354 366197188 549295781 809859162 894366207 894366207
1000000000 1492957742 514084508 915492947 922535201 112676056 204225351 366197179 549295768 809859146 894366189 894366189
1000000000 1492957748 514084504 915492964 922535227 112676056 204225352 366197185 549295781 809859170 894366211 894366211
1000000000 1492957748 514084508 915492952 922535195 112676056 204225353 366197183 549295770 809859140 894366183 894366183
1000000000 1492957744 514084505 915492958 922535223 112676056 204225350 366197181 549295776 809859166 894366207 894366207
1000000000 1492957750 514084507 915492953 922535198 112676057 204225354 366197184 549295773 809859143 894366186 894366186
1000000000 1492957747 514084507 915492959 922535222 112676055 204225349 366197180 549295773 809859163 894366206 894366206
1000000000 1492957746 514084506 915492954 922535199 112676057 204225354 366197184 549295773 809859145 894366187 894366187
1000000000 1492957746 514084511 915492971 922535222 112676056 204225351 366197182 549295776 809859163 894366206 894366206
1000000000 1492957746 514084506 915492952 922535202 112676057 204225353 366197187 549295776 809859148 894366190 894366190
1000000000 1492957747 514084510 915492962 922535220 112676057 204225352 366197181 549295775 809859162 894366204 894366204
1000000000 1492957745 514084507 915492956 922535206 112676057 204225355 366197189 549295777 809859151 894366193 894366193
1000000000 1492957747 514084505 915492961 922535214 112676056 204225349 366197177 549295772 809859157 894366199 894366199
1000000000 1492957747 514084507 915492950 922535208 112676057 204225355 366197188 549295775 809859151 894366194 894366194
1000000000 1492957745 514084505 915492962 922535212 112676055 204225348 366197177 549295773 809859157 894366198 894366198
1000000000 1492957749 514084509 915492957 922535209 112676057 204225356 366197188 549295775 809859152 894366195 894366195
1000000000 1492957743 514084507 915492960 922535212 112676056 204225348 366197179 549295774 809859157 894366198 894366198
1000000000 1492957751 514084507 915492954 922535212 112676057 204225357 366197189 549295777 809859154 894366197 894366197
1000000000 1492957742 514084508 915492960 922535210 112676055 204225348 366197178 549295774 809859156 894366197 894366197
1000000000 1492957752 514084505 915492952 922535213 112676058 204225356 366197187 549295777 809859154 894366197 894366197
1000000000 1492957740 514084509 915492961 922535207 112676055 204225349 366197179 549295772 809859154 894366195 894366195
1000000000 1492957752 514084505 915492961 922535221 112676057 204225354 366197185 549295774 809859160 894366205 894366205
1000000000 1492957742 514084509 915492955 922535203 112676055 204225350 366197181 549295775 809859152 894366191 894366191
1000000000 1492957751 514084508 915492969 922535221 112676058 204225355 366197189 549295778 809859160 894366205 894366205
1000000000 1492957742 514084506 915492946 922535202 112676055 204225350 366197177 549295770 809859148 894366190 894366190
1000000000 1492957748 514084505 915492964 922535227 112676057 204225353 366197187 549295782 809859169 894366211 894366211
1000000000 1492957747 514084509 915492953 922535197 112676056 204225353 366197183 549295770 809859142 894366185 894366185
1000000000 1492957744 514084504 915492958 922535224 112676056 204225350 366197181 549295777 809859167 894366208 894366208
1000000000 1492957750 514084508 915492953 922535197 112676057 204225354 366197184 549295773 809859142 894366185 894366185
1000000000 1492957746 514084507 915492959 922535222 112676055 204225349 366197180 549295773 809859164 894366206 894366206
1000000000 1492957747 514084504 915492951 922535198 112676057 204225354 366197184 549295773 809859144 894366186 894366186
1000000000 1492957747 514084509 915492960 922535222 112676055 204225349 366197180 549295774 809859162 894366206 894366206
1000000000 1492957745 514084508 915492964 922535201 112676058 204225355 366197187 549295775 809859147 894366189 894366189
1000000000 1492957747 514084510 915492962 922535221 112676056 204225351 366197182 549295776 809859163 894366205 894366205
1000000000 1492957745 514084507 915492954 922535206 112676058 204225355 366197189 549295778 809859151 894366193 894366193
1000000000 1492957747 514084507 915492965 922535215 112676055 204225349 366197177 549295772 809859158 894366200 894366200
1000000000 1492957747 514084507 915492950 922535208 112676058 204225356 366197189 549295776 809859152 894366194 894366194
1000000000 1492957744 514084504 915492960 922535212 112676055 204225348 366197177 549295773 809859156 894366198 894366198
1000000000 1492957751 514084508 915492957 922535208 112676057 204225355 366197187 549295774 809859151 894366194 894366194
1000000000 1492957743 514084507 915492959 922535213 112676056 204225349 366197179 549295774 809859158 894366199 894366199
1000000000 1492957750 514084508 915492956 922535211 112676057 204225356 366197189 549295777 809859154 894366197 894366197
1000000000 1492957741 514084508 915492960 922535211 112676055 204225348 366197178 549295774 809859156 894366197 894366197
1000000000 1492957752 514084505 915492951 922535213 112676058 204225357 366197188 549295778 809859155 894366198 894366198
1000000000 1492957742 514084509 915492962 922535208 112676055 204225349 366197179 549295772 809859154 894366195 894366195
1000000000 1492957750 514084503 915492950 922535218 112676057 204225354 366197185 549295774 809859159 894366202 894366202
1000000000 1492957744 514084511 915492965 922535203 112676055 204225349 366197180 549295774 809859150 894366191 894366191
1000000000 1492957749 514084507 915492965 922535221 112676058 204225356 366197188 549295776 809859160 894366205 894366205
1000000000 1492957743 514084506 915492948 922535203 112676055 204225350 366197179 549295773 809859151 894366191 894366191
1000000000 1492957749 514084507 915492968 922535225 112676057 204225353 366197187 549295782 809859165 894366209 894366209
1000000000 1492957745 514084509 915492953 922535200 112676056 204225353 366197182 549295769 809859145 894366188 894366188
1000000000 1492957746 514084504 915492958 922535225 112676056 204225350 366197182 549295778 809859168 894366209 894366209
1000000000 1492957748 514084508 915492953 922535195 112676056 204225353 366197183 549295771 809859140 894366183 894366183
1000000000 1492957747 514084506 915492958 922535223 112676056 204225350 366197181 549295775 809859165 894366207 894366207
1000000000 1492957747 514084505 915492952 922535198 112676057 204225354 366197184 549295773 809859144 894366186 894366186
1000000000 1492957747 514084507 915492959 922535222 112676055 204225349 366197180 549295773 809859162 894366206 894366206
1000000000 1492957745 514084509 915492964 922535200 112676057 204225354 366197185 549295774 809859146 894366188 894366188
1000000000 1492957747 514084509 915492962 922535222 112676057 204225352 366197183 549295777 809859164 894366206 894366206
1000000000 1492957745 514084507 915492953 922535204 112676057 204225354 366197188 549295777 809859149 894366191 894366191
1000000000 1492957747 514084508 915492960 922535217 112676056 204225350 366197179 549295773 809859160 894366202 894366202
1000000000 1492957747 514084507 915492956 922535206 112676057 204225355 366197188 549295776 809859150 894366192 894366192
1000000000 1492957744 514084505 915492961 922535214 112676056 204225349 366197178 549295773 809859158 894366200 894366200
1000000000 1492957750 514084507 915492950 922535208 112676057 204225355 366197187 549295775 809859151 894366194 894366194
1000000000 1492957743 514084508 915492966 922535213 112676056 204225349 366197178 549295773 809859158 894366199 894366199
1000000000 1492957750 514084507 915492954 922535211 112676057 204225356 366197190 549295777 809859154 894366197 894366197
1000000000 1492957742 514084507 915492960 922535210 112676055 204225348 366197177 549295773 809859155 894366196 894366196
1000000000 1492957753 514084506 915492953 922535212 112676057 204225356 366197188 549295777 809859154 894366197 894366197
1000000000 1492957740 514084510 915492962 922535209 112676055 204225348 366197178 549295773 809859155 894366196 894366196
1000000000 1492957752 514084503 915492950 922535216 112676058 204225356 366197187 549295776 809859157 894366200 894366200
1000000000 1492957743 514084510 915492962 922535206 112676055 204225349 366197180 549295774 809859153 894366194 894366194
1000000000 1492957749 514084506 915492964 922535220 112676058 204225356 366197186 549295774 809859159 894366204 894366204
1000000000 1492957742 514084508 915492952 922535203 112676054 204225349 366197180 549295774 809859152 894366191 894366191
1000000000 1492957751 514084507 915492968 922535223 112676058 204225354 366197188 549295781 809859162 894366207 894366207
1000000000 1492957742 514084508 915492947 922535201 112676056 204225351 366197179 549295768 809859146 894366189 894366189
1000000000 1492957748 514084504 915492964 922535227 112676056 204225352 366197185 549295781 809859170 894366211 894366211
1000000000 1492957748 514084508 915492952 922535195 112676056 204225353 366197183 549295770 809859140 894366183 894366183
1000000000 1492957744 514084505 915492958 922535223 112676056 204225350 366197181 549295776 809859166 894366207 894366207
1000000000 1492957750 514084507 915492953 922535198 112676057 204225354 366197184 549295773 809859143 894366186 894366186
1000000000 1492957747 514084507 915492959 922535222 112676055 204225349 366197180 549295773 809859163 894366206 894366206
1000000000 1492957746 514084506 915492954 922535199 112676057 204225354 366197184 549295773 809859145 894366187 894366187
1000000000 1492957746 514084511 915492971 922535222 112676056 204225351 366197182 549295776 809859163 894366206 894366206
1000000000 1492957746 514084506 915492952 922535202 112676057 204225353 366197187 549295776 809859148 894366190 894366190
1000000000 1492957747 514084510 915492962 922535220 112676057 204225352 366197181 549295775 809859162 894366204 894366204
1000000000 1492957745 514084507 915492956 922535206 112676057 204225355 366197189 549295777 809859151 894366193 894366193
1000000000 1492957747 514084505 915492961 922535214 112676056 204225349 366197177 549295772 809859157 894366199 894366199
1000000000 1492957747 514084507 915492950 922535208 112676057 204225355 366197188 549295775 809859151 894366194 894366194
1000000000 1492957745 514084505 915492962 922535212 112676055 204225348 366197177 549295773 809859157 894366198 894366198
1000000000 1492957749 514084509 915492957 922535209 112676057 204225356 366197188 549295775 809859152 894366195 894366195
1000000000 1492957743 514084507 915492960 922535212 112676056 204225348 366197179 549295774 809859157 894366198 894366198
1000000000 1492957751 514084507 915492954 922535212 112676057 204225357 366197189 549295777 809859154 894366197 894366197
1000000000 1492957742 514084508 915492960 922535210 112676055 204225348 366197178 549295774 809859156 894366197 894366197
1000000000 1492957752 514084505 915492952 922535213 112676058 204225356 366197187 549295777 809859154 894366197 894366197
1000000000 1492957740 514084509 915492961 922535207 112676055 204225349 366197179 549295772 809859154 894366195 894366195
1000000000 1492957752 514084505 915492961 922535221 112676057 204225354 366197185 549295774 809859160 894366205 894366205
1000000000 1492957742 514084509 915492955 922535203 112676055 204225350 366197181 549295775 809859152 894366191 894366191
1000000000 1492957751 514084508 915492969 922535221 112676058 204225355 366197189 549295778 809859160 894366205 894366205
1000000000 1492957742 514084506 915492946 922535202 112676055 204225350 366197177 549295770 809859148 894366190 894366190
1000000000 1492957748 514084505 915492964 922535227 112676057 204225353 366197187 549295782 809859169 894366211 894366211
1000000000 1492957747 514084509 915492953 922535197 112676056 204225353 366197183 549295770 809859142 894366185 894366185
1000000000 1492957744 514084504 915492958 922535224 112676056 204225350 366197181 549295777 809859167 894366208 894366208
1000000000 1492957750 514084508 915492953 922535197 112676057 204225354 366197184 549295773 809859142 894366185 894366185
1000000000 1492957746 514084507 915492959 922535222 112676055 204225349 366197180 549295773 809859164 894366206 894366206
1000000000 1492957747 514084504 915492951 922535198 112676057 204225354 366197184 549295773 809859144 894366186 894366186
1000000000 1492957747 514084509 915492960 922535222 112676055 204225349 366197180 549295774 809859162 894366206 894366206
1000000000 1492957745 514084508 915492964 922535201 112676058 204225355 366197187 549295775 809859147 894366189 894366189
1000000000 1492957747 514084510 915492962 922535221 112676056 204225351 366197182 549295776 809859163 894366205 894366205
1000000000 1492957745 514084507 915492954 922535206 112676058 204225355 366197189 549295778 809859151 894366193 894366193
1000000000 1492957747 514084507 915492965 922535215 112676055 204225349 366197177 549295772 809859158 894366200 894366200
1000000000 1492957747 514084507 915492950 922535208 112676058 204225356 366197189 549295776 809859152 894366194 894366194
1000000000 1492957744 514084504 915492960 922535212 112676055 204225348 366197177 549295773 809859156 894366198 894366198
1000000000 1492957751 514084508 915492957 922535208 112676057 204225355 366197187 549295774 809859151 894366194 894366194
1000000000 1492957743 514084507 915492959 922535213 112676056 204225349 366197179 549295774 809859158 894366199 894366199
1000000000 1492957750 514084508 915492956 922535211 112676057 204225356 366197189 549295777 809859154 894366197 894366197
1000000000 1492957741 514084508 915492960 922535211 112676055 204225348 366197178 549295774 809859156 894366197 894366197
1000000000 1492957752 514084505 915492951 922535213 112676058 204225357 366197188 549295778 809859155 894366198 894366198
1000000000 1492957742 514084509 915492962 922535208 112676055 204225349 366197179 549295772 809859154 894366195 894366195
1000000000 1492957750 514084503 915492950 922535218 112676057 204225354 366197185 549295774 809859159 894366202 894366202
1000000000 1492957744 514084511 915492965 922535203 112676055 204225349 366197180 549295774 809859150 894366191 894366191
1000000000 1492957749 514084507 915492965 922535221 112676058 204225356 366197188 549295776 809859160 894366205 894366205
1000000000 1492957743 514084506 915492948 922535203 112676055 204225350 366197179 549295773 809859151 894366191 894366191
1000000000 1492957749 514084507 915492968 922535225 112676057 204225353 366197187 549295782 809859165 894366209 894366209
1000000000 1492957745 514084509 915492953 922535200 112676056 204225353 366197182 549295769 809859145 894366188 894366188
1000000000 1492957746 514084504 915492958 922535225 112676056 204225350 366197182 549295778 809859168 894366209 894366209
1000000000 1492957748 514084508 915492953 922535195 112676056 204225353 366197183 549295771 809859140 894366183 894366183
1000000000 1492957747 514084506 915492958 922535223 112676056 204225350 366197181 549295775 809859165 894366207 894366207
1000000000 1492957747 514084505 915492952 922535198 112676057 204225354 366197184 549295773 809859144 894366186 894366186
1000000000 1492957747 514084507 915492959 922535222 112676055 204225349 366197180 549295773 809859162 894366206 894366206
1000000000 1492957745 514084509 915492964 922535200 112676057 204225354 366197185 549295774 809859146 894366188 894366188
1000000000 1492957747 514084509 915492962 922535222 112676057 204225352 366197183 549295777 809859164 894366206 894366206
1000000000 1492957745 514084507 915492953 922535204 112676057 204225354 366197188 549295777 809859149 894366191 894366191
1000000000 1492957747 514084508 915492960 922535217 112676056 204225350 366197179 549295773 809859160 894366202 894366202
1000000000 1492957747 514084507 915492956 922535206 112676057 204225355 366197188 549295776 809859150 894366192 894366192
1000000000 1492957744 514084505 915492961 922535214 112676056 204225349 366197178 549295773 809859158 894366200 894366200
1000000000 1492957750 514084507 915492950 922535208 112676057 204225355 366197187 549295775 809859151 894366194 894366194
1000000000 1492957743 514084508 915492966 922535213 112676056 204225349 366197178 549295773 809859158 894366199 894366199
1000000000 1492957750 514084507 915492954 922535211 112676057 204225356 366197190 549295777 809859154 894366197 894366197
1000000000 1492957742 514084507 915492960 922535210 112676055 204225348 366197177 549295773 809859155 894366196 894366196
1000000000 1492957753 514084506 915492953 922535212 112676057 204225356 366197188 549295777 809859154 894366197 894366197
1000000000 1492957740 514084510 915492962 922535209 112676055 204225348 366197178 549295773 809859155 894366196 894366196
1000000000 1492957752 514084503 915492950 922535216 112676058 204225356 366197187 549295776 809859157 894366200 894366200
1000000000 1492957743 514084510 915492962 922535206 112676055 204225349 366197180 549295774 809859153 894366194 894366194
1000000000 1492957749 514084506 915492964 922535220 112676058 204225356 366197186 549295774 809859159 894366204 894366204
1000000000 1492957742 514084508 915492952 922535203 112676054 204225349 366197180 549295774 809859152 894366191 894366191
1000000000 1492957751 514084507 915492968 922535223 112676058 204225354 366197188 549295781 809859162 894366207 894366207
1000000000 1492957742 514084508 915492947 922535201 112676056 204225351 366197179 549295768 809859146 894366189 894366189
1000000000 1492957748 514084504 915492964 922535227 112676056 204225352 366197185 549295781 809859170 894366211 894366211
1000000000 1492957748 514084508 915492952 922535195 112676056 204225353 366197183 549295770 809859140 894366183 894366183
1000000000 1492957744 514084505 915492958 922535223 112676056 204225350 366197181 549295776 809859166 894366207 894366207
1000000000 1492957750 514084507 915492953 922535198 112676057 204225354 366197184 549295773 809859143 894366186 894366186
1000000000 1492957747 514084507 915492959 922535222 112676055 204225349 366197180 549295773 809859163 894366206 894366206
1000000000 1492957746 514084506 915492954 922535199 112676057 204225354 366197184 549295773 809859145 894366187 894366187
1000000000 1492957746 514084511 915492971 922535222 112676056 204225351 366197182 549295776 809859163 894366206 894366206
1000000000 1492957746 514084506 915492952 922535202 112676057 204225353 366197187 549295776 809859148 894366190 894366190
1000000000 1492957747 514084510 915492962 922535220 112676057 204225352 366197181 549295775 809859162 894366204 894366204
1000000000 1492957745 514084507 915492956 922535206 112676057 204225355 366197189 549295777 809859151 894366193 894366193
1000000000 1492957747 514084505 915492961 922535214 112676056 204225349 366197177 549295772 809859157 894366199 894366199
1000000000 1492957747 514084507 915492950 922535208 112676057 204225355 366197188 549295775 809859151 894366194 894366194
1000000000 1492957745 514084505 915492962 922535212 112676055 204225348 366197177 549295773 809859157 894366198 894366198
1000000000 1492957749 514084509 915492957 922535209 112676057 204225356 366197188 549295775 809859152 894366195 894366195
1000000000 1492957743 514084507 915492960 922535212 112676056 204225348 366197179 549295774 809859157 894366198 894366198
1000000000 1492957751 514084507 915492954 922535212 112676057 204225357 366197189 549295777 809859154 894366197 894366197
1000000000 1492957742 514084508 915492960 922535210 112676055 204225348 366197178 549295774 809859156 894366197 894366197
1000000000 1492957752 514084505 915492952 922535213 112676058 204225356 366197187 549295777 809859154 894366197 894366197
1000000000 1492957740 514084509 915492961 922535207 112676055 204225349 366197179 549295772 809859154 894366195 894366195
1000000000 1492957752 514084505 915492961 922535221 112676057 204225354 366197185 549295774 809859160 894366205 894366205
1000000000 1492957742 514084509 915492955 922535203 112676055 204225350 366197181 549295775 809859152 894366191 894366191
1000000000 1492957751 514084508 915492969 922535221 112676058 204225355 366197189 549295778 809859160 894366205 894366205
1000000000 1492957742 514084506 915492946 922535202 112676055 204225350 366197177 549295770 809859148 894366190 894366190
1000000000 1492957748 514084505 915492964 922535227 112676057 204225353 366197187 549295782 809859169 894366211 894366211
1000000000 1492957747 514084509 915492953 922535197 112676056 204225353 366197183 549295770 809859142 894366185 894366185
1000000000 1492957744 514084504 915492958 922535224 112676056 204225350 366197181 549295777 809859167 894366208 894366208
1000000000 1492957750 514084508 915492953 922535197 112676057 204225354 366197184 549295773 809859142 894366185 894366185
1000000000 1492957746 514084507 915492959 922535222 112676055 204225349 366197180 549295773 809859164 894366206 894366206
1000000000 1492957747 514084504 915492951 922535198 112676057 204225354 366197184 549295773 809859144 894366186 894366186
1000000000 1492957747 514084509 915492960 922535222 112676055 204225349 366197180 549295774 809859162 894366206 894366206
1000000000 1492957745 514084508 915492964 922535201 112676058 204225355 366197187 549295775 809859147 894366189 894366189
1000000000 1492957747 514084510 915492962 922535221 112676056 204225351 366197182 549295776 809859163 894366205 894366205
1000000000 1492957745 514084507 915492954 922535206 112676058 204225355 366197189 549295778 809859151 894366193 894366193
1000000000 1492957747 514084507 915492965 922535215 112676055 204225349 366197177 549295772 809859158 894366200 894366200
1000000000 1492957747 514084507 915492950 922535208 112676058 204225356 366197189 549295776 809859152 894366194 894366194
1000000000 1492957744 514084504 915492960 922535212 112676055 204225348 366197177 549295773 809859156 894366198 894366198
1000000000 1492957751 514084508 915492957 922535208 112676057 204225355 366197187 549295774 809859151 894366194 894366194
1000000000 1492957743 514084507 915492959 922535213 112676056 204225349 366197179 549295774 809859158 894366199 894366199
1000000000 1492957750 514084508 915492956 922535211 112676057 204225356 366197189 549295777 809859154 894366197 894366197
1000000000 1492957741 514084508 915492960 922535211 112676055 204225348 366197178 549295774 809859156 894366197 894366197
1000000000 1492957752 514084505 915492951 922535213 112676058 204225357 366197188 549295778 809859155 894366198 894366198
1000000000 1492957742 514084509 915492962 922535208 112676055 204225349 366197179 549295772 809859154 894366195 894366195
1000000000 1492957750 514084503 915492950 922535218 112676057 204225354 366197185 549295774 809859159 894366202 894366202
1000000000 1492957744 514084511 915492965 922535203 112676055 204225349 366197180 549295774 809859150 894366191 894366191
1000000000 1492957749 514084507 915492965 922535221 112676058 204225356 366197188 549295776 809859160 894366205 894366205
1000000000 1492957743 514084506 915492948 922535203 112676055 204225350 366197179 549295773 809859151 894366191 894366191
1000000000 1492957749 514084507 915492968 922535225 112676057 204225353 366197187 549295782 809859165 894366209 894366209
1000000000 1492957745 514084509 915492953 922535200 112676056 204225353 366197182 549295769 809859145 894366188 894366188
1000000000 1492957746 514084504 915492958 922535225 112676056 204225350 366197182 549295778 809859168 894366209 894366209
1000000000 1492957748 514084508 915492953 922535195 112676056 204225353 366197183 549295771 809859140 894366183 894366183
1000000000 1492957747 514084506 915492958 922535223 112676056 204225350 366197181 549295775 809859165 894366207 894366207
1000000000 1492957747 514084505 915492952 922535198 112676057 204225354 366197184 549295773 809859144 894366186 894366186
1000000000 1492957747 514084507 915492959 922535222 112676055 204225349 366197180 549295773 809859162 894366206 894366206
1000000000 1492957745 514084509 915492964 922535200 112676057 204225354 366197185 549295774 809859146 894366188 894366188
1000000000 1492957747 514084509 915492962 922535222 112676057 204225352 366197183 549295777 809859164 894366206 894366206
1000000000 1492957745 514084507 915492953 922535204 112676057 204225354 366197188 549295777 809859149 894366191 894366191
1000000000 1492957747 514084508 915492960 922535217 112676056 204225350 366197179 549295773 809859160 894366202 894366202
1000000000 1492957747 514084507 915492956 922535206 112676057 204225355 366197188 549295776 809859150 894366192 894366192
1000000000 1492957744 514084505 915492961 922535214 112676056 204225349 366197178 549295773 809859158 894366200 894366200
1000000000 1492957750 514084507 915492950 922535208 112676057 204225355 366197187 549295775 809859151 894366194 894366194
1000000000 1492957743 514084508 915492966 922535213 112676056 204225349 366197178 549295773 809859158 894366199 894366199
1000000000 1492957750 514084507 915492954 922535211 112676057 204225356 366197190 549295777 809859154 894366197 894366197
1000000000 1492957742 514084507 915492960 922535210 112676055 204225348 366197177 549295773 809859155 894366196 894366196
1000000000 1492957753 514084506 915492953 922535212 112676057 204225356 366197188 549295777 809859154 894366197 894366197
1000000000 1492957740 514084510 915492962 922535209 112676055 204225348 366197178 549295773 809859155 894366196 894366196
1000000000 1492957752 514084503 915492950 922535216 112676058 204225356 366197187 549295776 809859157 894366200 894366200
1000000000 1492957743 514084510 915492962 922535206 112676055 204225349 366197180 549295774 809859153 894366194 894366194
1000000000 1492957749 514084506 915492964 922535220 112676058 204225356 366197186 549295774 809859159 894366204 894366204
1000000000 1492957742 514084508 915492952 922535203 112676054 204225349 366197180 549295774 809859152 894366191 894366191
1000000000 1492957751 514084507 915492968 922535223 112676058 204225354 366197188 549295781 809859162 894366207 894366207
1000000000 1492957742 514084508 915492947 922535201 112676056 204225351 366197179 549295768 809859146 894366189 894366189
1000000000 1492957748 514084504 915492964 922535227 112676056 204225352 366197185 549295781 809859170 894366211 894366211
1000000000 1492957748 514084508 915492952 922535195 112676056 204225353 366197183 549295770 809859140 894366183 894366183
1000000000 1492957744 514084505 915492958 922535223 112676056 204225350 366197181 549295776 809859166 894366207 894366207
1000000000 1492957750 514084507 915492953 922535198 112676057 204225354 366197184 549295773 809859143 894366186 894366186
1000000000 1492957747 514084507 915492959 922535222 112676055 204225349 366197180 549295773 809859163 894366206 894366206
1000000000 1492957746 514084506 915492954 922535199 112676057 204225354 366197184 549295773 809859145 894366187 894366187
1000000000 1492957746 514084511 915492971 922535222 112676056 204225351 366197182 549295776 809859163 894366206 894366206
1000000000 1492957746 514084506 915492952 922535202 112676057 204225353 366197187 549295776 809859148 894366190 894366190
1000000000 1492957747 514084510 915492962 922535220 112676057 204225352 366197181 549295775 809859162 894366204 894366204
1000000000 1492957745 514084507 915492956 922535206 112676057 204225355 366197189 549295777 809859151 894366193 894366193
1000000000 1492957747 514084505 915492961 922535214 112676056 204225349 366197177 549295772 809859157 894366199 894366199
1000000000 1492957747 514084507 915492950 922535208 112676057 204225355 366197188 549295775 809859151 894366194 894366194
1000000000 1492957745 514084505 915492962 922535212 112676055 204225348 366197177 549295773 809859157 894366198 894366198
1000000000 1492957749 514084509 915492957 922535209 112676057 204225356 366197188 549295775 809859152 894366195 894366195
1000000000 1492957743 514084507 915492960 922535212 112676056 204225348 366197179 549295774 809859157 894366198 894366198
1000000000 1492957751 514084507 915492954 922535212 112676057 204225357 366197189 549295777 809859154 894366197 894366197
1000000000 1492957742 514084508 915492960 922535210 112676055 204225348 366197178 549295774 809859156 894366197 894366197
1000000000 1492957752 514084505 915492952 922535213 112676058 204225356 366197187 549295777 809859154 894366197 894366197
1000000000 1492957740 514084509 915492961 922535207 112676055 204225349 366197179 549295772 809859154 894366195 894366195
1000000000 1492957752 514084505 915492961 922535221 112676057 204225354 366197185 549295774 809859160 894366205 894366205
1000000000 1492957742 514084509 915492955 922535203 112676055 204225350 366197181 549295775 809859152 894366191 894366191
1000000000 1492957751 514084508 915492969 922535221 112676058 204225355 366197189 549295778 809859160 894366205 894366205
1000000000 1492957742 514084506 915492946 922535202 112676055 204225350 366197177 549295770 809859148 894366190 894366190
1000000000 1492957748 514084505 915492964 922535227 112676057 204225353 366197187 549295782 809859169 894366211 894366211
1000000000 1492957747 514084509 915492953 922535197 112676056 204225353 366197183 549295770 809859142 894366185 894366185
1000000000 1492957744 514084504 915492958 922535224 112676056 204225350 366197181 549295777 809859167 894366208 894366208
1000000000 1492957750 514084508 915492953 922535197 112676057 204225354 366197184 549295773 809859142 894366185 894366185
1000000000 1492957746 514084507 915492959 922535222 112676055 204225349 366197180 549295773 809859164 894366206 894366206
1000000000 1492957747 514084504 915492951 922535198 112676057 204225354 366197184 549295773 809859144 894366186 894366186
1000000000 1492957747 514084509 915492960 922535222 112676055 204225349 366197180 549295774 809859162 894366206 894366206
1000000000 1492957745 514084508 915492964 922535201 112676058 204225355 366197187 549295775 809859147 894366189 894366189
1000000000 1492957747 514084510 915492962 922535221 112676056 204225351 366197182 549295776 809859163 894366205 894366205
1000000000 1492957745 514084507 915492954 922535206 112676058 204225355 366197189 549295778 809859151 894366193 894366193
1000000000 1492957747 514084507 915492965 922535215 112676055 204225349 366197177 549295772 809859158 894366200 894366200
1000000000 1492957747 514084507 915492950 922535208 112676058 204225356 366197189 549295776 809859152 894366194 894366194
1000000000 1492957744 514084504 915492960 922535212 112676055 204225348 366197177 549295773 809859156 894366198 894366198
1000000000 1492957751 514084508 915492957 922535208 112676057 204225355 366197187 549295774 809859151 894366194 894366194
1000000000 1492957743 514084507 915492959 922535213 112676056 204225349 366197179 549295774 809859158 894366199 894366199
1000000000 1492957750 514084508 915492956 922535211 112676057 204225356 366197189 549295777 809859154 894366197 894366197
1000000000 1492957741 514084508 915492960 922535211 112676055 204225348 366197178 549295774 809859156 894366197 894366197
1000000000 1492957752 514084505 915492951 922535213 112676058 204225357 366197188 549295778 809859155 894366198 894366198
1000000000 1492957742 514084509 915492962 922535208 112676055 204225349 366197179 549295772 809859154 894366195 894366195
1000000000 1492957750 514084503 915492950 922535218 112676057 204225354 366197185 549295774 809859159 894366202 894366202
1000000000 1492957744 514084511 915492965 922535203 112676055 204225349 366197180 549295774 809859150 894366191 894366191
1000000000 1492957749 514084507 915492965 922535221 112676058 204225356 366197188 549295776 809859160 894366205 894366205
1000000000 1492957743 514084506 915492948 922535203 112676055 204225350 366197179 549295773 809859151 894366191 894366191
1000000000 1492957749 514084507 915492968 922535225 112676057 204225353 366197187 549295782 809859165 894366209 894366209
1000000000 1492957745 514084509 915492953 922535200 112676056 204225353 366197182 549295769 809859145 894366188 894366188
1000000000 1492957746 514084504 915492958 922535225 112676056 204225350 366197182 549295778 809859168 894366209 894366209
1000000000 1492957748 514084508 915492953 922535195 112676056 204225353 366197183 549295771 809859140 894366183 894366183
1000000000 1492957747 514084506 915492958 922535223 112676056 204225350 366197181 549295775 809859165 894366207 894366207
1000000000 1492957747 514084505 915492952 922535198 112676057 204225354 366197184 549295773 809859144 894366186 894366186
1000000000 1492957747 514084507 915492959 922535222 112676055 204225349 366197180 549295773 809859162 894366206 894366206
1000000000 1492957745 514084509 915492964 922535200 112676057 204225354 366197185 549295774 809859146 894366188 894366188
1000000000 1492957747 514084509 915492962 922535222 112676057 204225352 366197183 549295777 809859164 894366206 894366206
1000000000 1492957745 514084507 915492953 922535204 112676057 204225354 366197188 549295777 809859149 894366191 894366191
1000000000 1492957747 514084508 915492960 922535217 112676056 204225350 366197179 549295773 809859160 894366202 894366202
1000000000 1492957747 514084507 915492956 922535206 112676057 204225355 366197188 549295776 809859150 894366192 894366192
1000000000 1492957744 514084505 915492961 922535214 112676056 204225349 366197178 549295773 809859158 894366200 894366200
1000000000 1492957750 514084507 915492950 922535208 112676057 204225355 366197187 549295775 809859151 894366194 894366194
1000000000 1492957743 514084508 915492966 922535213 112676056 204225349 366197178 549295773 809859158 894366199 894366199
1000000000 1492957750 514084507 915492954 922535211 112676057 204225356 366197190 549295777 809859154 894366197 894366197
1000000000 1492957742 514084507 915492960 922535210 112676055 204225348 366197177 549295773 809859155 894366196 894366196
1000000000 1492957753 514084506 915492953 922535212 112676057 204225356 366197188 549295777 809859154 894366197 894366197
1000000000 1492957740 514084510 915492962 922535209 112676055 204225348 366197178 549295773 809859155 894366196 894366196
1000000000 1492957752 514084503 915492950 922535216 112676058 204225356 366197187 549295776 809859157 894366200 894366200
1000000000 1492957743 514084510 915492962 922535206 112676055 204225349 366197180 549295774 809859153 894366194 894366194
1000000000 1492957749 514084506 915492964 922535220 112676058 204225356 366197186 549295774 809859159 894366204 894366204
1000000000 1492957742 514084508 915492952 922535203 112676054 204225349 366197180 549295774 809859152 894366191 894366191
1000000000 1492957751 514084507 915492968 922535223 112676058 204225354 366197188 549295781 809859162 894366207 894366207
1000000000 1492957742 514084508 915492947 922535201 112676056 204225351 366197179 549295768 809859146 894366189 894366189
1000000000 1492957748 514084504 915492964 922535227 112676056 204225352 366197185 549295781 809859170 894366211 894366211
1000000000 1492957748 514084508 915492952 922535195 112676056 204225353 366197183 549295770 809859140 894366183 894366183
1000000000 1492957744 514084505 915492958 922535223 112676056 204225350 366197181 549295776 809859166 894366207 894366207
1000000000 1492957750 514084507 915492953 922535198 112676057 204225354 366197184 549295773 809859143 894366186 894366186
1000000000 1492957747 514084507 915492959 922535222 112676055 204225349 366197180 549295773 809859163 894366206 894366206
1000000000 1492957746 514084506 915492954 922535199 112676057 204225354 366197184 549295773 809859145 894366187 894366187
1000000000 1492957746 514084511 915492971 922535222 112676056 204225351 366197182 549295776 809859163 894366206 894366206
1000000000 1492957746 514084506 915492952 922535202 112676057 204225353 366197187 549295776 809859148 894366190 894366190
1000000000 1492957747 514084510 915492962 922535220 112676057 204225352 366197181 549295775 809859162 894366204 894366204
1000000000 1492957745 514084507 915492956 922535206 112676057 204225355 366197189 549295777 809859151 894366193 894366193
1000000000 1492957747 514084505 915492961 922535214 112676056 204225349 366197177 549295772 809859157 894366199 894366199
1000000000 1492957747 514084507 915492950 922535208 112676057 204225355 366197188 549295775 809859151 894366194 894366194
1000000000 1492957745 514084505 915492962 922535212 112676055 204225348 366197177 549295773 809859157 894366198 894366198
1000000000 1492957749 514084509 915492957 922535209 112676057 204225356 366197188 549295775 809859152 894366195 894366195
1000000000 1492957743 514084507 915492960 922535212 112676056 204225348 366197179 549295774 809859157 894366198 894366198
1000000000 1492957751 514084507 915492954 922535212 112676057 204225357 366197189 549295777 809859154 894366197 894366197
1000000000 1492957742 514084508 915492960 922535210 112676055 204225348 366197178 549295774 809859156 894366197 894366197
1000000000 1492957752 514084505 915492952 922535213 112676058 204225356 366197187 549295777 809859154 894366197 894366197
1000000000 1492957740 514084509 915492961 922535207 112676055 204225349 366197179 549295772 809859154 894366195 894366195
1000000000 1492957752 514084505 915492961 922535221 112676057 204225354 366197185 549295774 809859160 894366205 894366205
1000000000 1492957742 514084509 915492955 922535203 112676055 204225350 366197181 549295775 809859152 894366191 894366191
1000000000 1492957751 514084508 915492969 922535221 112676058 204225355 366197189 549295778 809859160 894366205 894366205
1000000000 1492957742 514084506 915492946 922535202 112676055 204225350 366197177 549295770 809859148 894366190 894366190
1000000000 1492957748 514084505 915492964 922535227 112676057 204225353 366197187 549295782 809859169 894366211 894366211
1000000000 1492957747 514084509 915492953 922535197 112676056 204225353 366197183 549295770 809859142 894366185 894366185
1000000000 1492957744 514084504 915492958 922535224 112676056 204225350 366197181 549295777 809859167 894366208 894366208
1000000000 1492957750 514084508 915492953 922535197 112676057 204225354 366197184 549295773 809859142 894366185 894366185
1000000000 1492957746 514084507 915492959 922535222 112676055 204225349 366197180 549295773 809859164 894366206 894366206
1000000000 1492957747 514084504 915492951 922535198 112676057 204225354 366197184 549295773 809859144 894366186 894366186
1000000000 1492957747 514084509 915492960 922535222 112676055 204225349 366197180 549295774 809859162 894366206 894366206
1000000000 1492957745 514084508 915492964 922535201 112676058 204225355 366197187 549295775 809859147 894366189 894366189
1000000000 1492957747 514084510 915492962 922535221 112676056 204225351 366197182 549295776 809859163 894366205 894366205
1000000000 1492957745 514084507 915492954 922535206 112676058 204225355 366197189 549295778 809859151 894366193 894366193
1000000000 1492957747 514084507 915492965 922535215 112676055 204225349 366197177 549295772 809859158 894366200 894366200
1000000000 1492957747 514084507 915492950 922535208 112676058 204225356 366197189 549295776 809859152 894366194 894366194
1000000000 1492957744 514084504 915492960 922535212 112676055 204225348 366197177 549295773 809859156 894366198 894366198
1000000000 1492957751 514084508 915492957 922535208 112676057 204225355 366197187 549295774 809859151 894366194 894366194
1000000000 1492957743 514084507 915492959 922535213 112676056 204225349 366197179 549295774 809859158 894366199 894366199
1000000000 1492957750 514084508 915492956 922535211 112676057 204225356 366197189 549295777 809859154 894366197 894366197
1000000000 1492957741 514084508 915492960 922535211 112676055 204225348 366197178 549295774 809859156 894366197 894366197
1000000000 1492957752 514084505 915492951 922535213 112676058 204225357 366197188 549295778 809859155 894366198 894366198
1000000000 1492957742 514084509 915492962 922535208 112676055 204225349 366197179 549295772 809859154 894366195 894366195
1000000000 1492957750 514084503 915492950 922535218 112676057 204225354 366197185 549295774 809859159 894366202 894366202
1000000000 1492957744 514084511 915492965 922535203 112676055 204225349 366197180 549295774 809859150 894366191 894366191
1000000000 1492957749 514084507 915492965 922535221 112676058 204225356 366197188 549295776 809859160 894366205 894366205
1000000000 1492957743 514084506 915492948 922535203 112676055 204225350 366197179 549295773 809859151 894366191 894366191
1000000000 1492957749 514084507 915492968 922535225 112676057 204225353 366197187 549295782 809859165 894366209 894366209
1000000000 1492957745 514084509 915492953 922535200 112676056 204225353 366197182 549295769 809859145 894366188 894366188
1000000000 1492957746 514084504 915492958 922535225 112676056 204225350 366197182 549295778 809859168 894366209 894366209
1000000000 1492957748 514084508 915492953 922535195 112676056 204225353 366197183 549295771 809859140 894366183 894366183
1000000000 1492957747 514084506 915492958 922535223 112676056 204225350 366197181 549295775 809859165 894366207 894366207
1000000000 1492957747 514084505 915492952 922535198 112676057 204225354 366197184 549295773 809859144 894366186 894366186
1000000000 1492957747 514084507 915492959 922535222 112676055 204225349 366197180 549295773 809859162 894366206 894366206
1000000000 1492957745 514084509 915492964 922535200 112676057 204225354 366197185 549295774 809859146 894366188 894366188
1000000000 1492957747 514084509 915492962 922535222 112676057 204225352 366197183 549295777 809859164 894366206 894366206
1000000000 1492957745 514084507 915492953 922535204 112676057 204225354 366197188 549295777 809859149 894366191 894366191
1000000000 1492957747 514084508 915492960 922535217 112676056 204225350 366197179 549295773 809859160 894366202 894366202
1000000000 1492957747 514084507 915492956 922535206 112676057 204225355 366197188 549295776 809859150 894366192 894366192
1000000000 1492957744 514084505 915492961 922535214 112676056 204225349 366197178 549295773 809859158 894366200 894366200
1000000000 1492957750 514084507 915492950 922535208 112676057 204225355 366197187 549295775 809859151 894366194 894366194
1000000000 1492957743 514084508 915492966 922535213 112676056 204225349 366197178 549295773 809859158 894366199 894366199
1000000000 1492957750 514084507 915492954 922535211 112676057 204225356 366197190 549295777 809859154 894366197 894366197
1000000000 1492957742 514084507 915492960 922535210 112676055 204225348 366197177 549295773 809859155 894366196 894366196
1000000000 1492957753 514084506 915492953 922535212 112676057 204225356 366197188 549295777 809859154 894366197 894366197
1000000000 1492957740 514084510 915492962 922535209 112676055 204225348 366197178 549295773 809859155 894366196 894366196
1000000000 1492957752 514084503 915492950 922535216 112676058 204225356 366197187 549295776 809859157 894366200 894366200
1000000000 1492957743 514084510 915492962 922535206 112676055 204225349 366197180 549295774 809859153 894366194 894366194
1000000000 1492957749 514084506 915492964 922535220 112676058 204225356 366197186 549295774 809859159 894366204 894366204
1000000000 1492957742 514084508 915492952 922535203 112676054 204225349 366197180 549295774 809859152 894366191 894366191
1000000000 1492957751 514084507 915492968 922535223 112676058 204225354 366197188 549295781 809859162 894366207 894366207
1000000000 1492957742 514084508 915492947 922535201 112676056 204225351 366197179 549295768 809859146 894366189 894366189
1000000000 1492957748 514084504 915492964 922535227 112676056 204225352 366197185 549295781 809859170 894366211 894366211
1000000000 1492957748 514084508 915492952 922535195 112676056 204225353 366197183 549295770 809859140 894366183 894366183
1000000000 1492957744 514084505 915492958 922535223 112676056 204225350 366197181 549295776 809859166 894366207 894366207
1000000000 1492957750 514084507 915492953 922535198 112676057 204225354 366197184 549295773 809859143 894366186 894366186
1000000000 1492957747 514084507 915492959 922535222 112676055 204225349 366197180 549295773 809859163 894366206 894366206
1000000000 1492957746 514084506 915492954 922535199 112676057 204225354 366197184 549295773 809859145 894366187 894366187
1000000000 1492957746 514084511 915492971 922535222 112676056 204225351 366197182 549295776 809859163 894366206 894366206
1000000000 1492957746 514084506 915492952 922535202 112676057 204225353 366197187 549295776 809859148 894366190 894366190
1000000000 1492957747 514084510 915492962 922535220 112676057 204225352 366197181 549295775 809859162 894366204 894366204
1000000000 1492957745 514084507 915492956 922535206 112676057 204225355 366197189 549295777 809859151 894366193 894366193
1000000000 1492957747 514084505 915492961 922535214 112676056 204225349 366197177 549295772 809859157 894366199 894366199
1000000000 1492957747 514084507 915492950 922535208 112676057 204225355 366197188 549295775 809859151 894366194 894366194
1000000000 1492957745 514084505 915492962 922535212 112676055 204225348 366197177 549295773 809859157 894366198 894366198
1000000000 1492957749 514084509 915492957 922535209 112676057 204225356 366197188 549295775 809859152 894366195 894366195
1000000000 1492957743 514084507 915492960 922535212 112676056 204225348 366197179 549295774 809859157 894366198 894366198
1000000000 1492957751 514084507 915492954 922535212 112676057 204225357 366197189 549295777 809859154 894366197 894366197
1000000000 1492957742 514084508 915492960 922535210 112676055 204225348 366197178 549295774 809859156 894366197 894366197
1000000000 1492957752 514084505 915492952 922535213 112676058 204225356 366197187 549295777 809859154 894366197 894366197
1000000000 1492957740 514084509 915492961 922535207 112676055 204225349 366197179 549295772 809859154 894366195 894366195
1000000000 1492957752 514084505 915492961 922535221 112676057 204225354 366197185 549295774 809859160 894366205 894366205
1000000000 1492957742 514084509 915492955 922535203 112676055 204225350 366197181 549295775 809859152 894366191 894366191
1000000000 1492957751 514084508 915492969 922535221 112676058 204225355 366197189 549295778 809859160 894366205 894366205
1000000000 1492957742 514084506 915492946 922535202 112676055 204225350 366197177 549295770 809859148 894366190 894366190
1000000000 1492957748 514084505 915492964 922535227 112676057 204225353 366197187 549295782 809859169 894366211 894366211
1000000000 1492957747 514084509 915492953 922535197 112676056 204225353 366197183 549295770 809859142 894366185 894366185
1000000000 1492957744 514084504 915492958 922535224 112676056 204225350 366197181 549295777 809859167 894366208 894366208
1000000000 1492957750 514084508 915492953 922535197 112676057 204225354 366197184 549295773 809859142 894366185 894366185
1000000000 1492957746 514084507 915492959 922535222 112676055 204225349 366197180 549295773 809859164 894366206 894366206
1000000000 1492957747 514084504 915492951 922535198 112676057 204225354 366197184 549295773 809859144 894366186 894366186
1000000000 1492957747 514084509 915492960 922535222 112676055 204225349 366197180 549295774 809859162 894366206 894366206
1000000000 1492957745 514084508 915492964 922535201 112676058 204225355 366197187 549295775 809859147 894366189 894366189
1000000000 1492957747 514084510 915492962 922535221 112676056 204225351 366197182 549295776 809859163 894366205 894366205
1000000000 1492957745 514084507 915492954 922535206 112676058 204225355 366197189 549295778 809859151 894366193 894366193
1000000000 1492957747 514084507 915492965 922535215 112676055 204225349 366197177 549295772 809859158 894366200 894366200
1000000000 1492957747 514084507 915492950 922535208 112676058 204225356 366197189 549295776 809859152 894366194 894366194
1000000000 1492957744 514084504 915492960 922535212 112676055 204225348 366197177 549295773 809859156 894366198 894366198
1000000000 1492957751 514084508 915492957 922535208 112676057 204225355 366197187 549295774 809859151 894366194 894366194
1000000000 1492957743 514084507 915492959 922535213 112676056 204225349 366197179 549295774 809859158 894366199 894366199
1000000000 1492957750 514084508 915492956 922535211 112676057 204225356 366197189 549295777 809859154 894366197 894366197
1000000000 1492957741 514084508 915492960 922535211 112676055 204225348 366197178 549295774 809859156 894366197 894366197
1000000000 1492957752 514084505 915492951 922535213 112676058 204225357 366197188 549295778 809859155 894366198 894366198
1000000000 1492957742 514084509 915492962 922535208 112676055 204225349 366197179 549295772 809859154 894366195 894366195
1000000000 1492957750 514084503 915492950 922535218 112676057 204225354 366197185 549295774 809859159 894366202 894366202
1000000000 1492957744 514084511 915492965 922535203 112676055 204225349 366197180 549295774 809859150 894366191 894366191
1000000000 1492957749 514084507 915492965 922535221 112676058 204225356 366197188 549295776 809859160 894366205 894366205
1000000000 1492957743 514084506 915492948 922535203 112676055 204225350 366197179 549295773 809859151 894366191 894366191
1000000000 1492957749 514084507 915492968 922535225 112676057 204225353 366197187 549295782 809859165 894366209 894366209
1000000000 1492957745 514084509 915492953 922535200 112676056 204225353 366197182 549295769 809859145 894366188 894366188
1000000000 1492957746 514084504 915492958 922535225 112676056 204225350 366197182 549295778 809859168 894366209 894366209
1000000000 1492957748 514084508 915492953 922535195 112676056 204225353 366197183 549295771 809859140 894366183 894366183
1000000000 1492957747 514084506 915492958 922535223 112676056 204225350 366197181 549295775 809859165 894366207 894366207
1000000000 1492957747 514084505 915492952 922535198 112676057 204225354 366197184 549295773 809859144 894366186 894366186
1000000000 1492957747 514084507 915492959 922535222 112676055 204225349 366197180 549295773 809859162 894366206 894366206
1000000000 1492957745 514084509 915492964 922535200 112676057 204225354 366197185 549295774 809859146 894366188 894366188
1000000000 1492957747 514084509 915492962 922535222 112676057 204225352 366197183 549295777 809859164 894366206 894366206
1000000000 1492957745 514084507 915492953 922535204 112676057 204225354 366197188 549295777 809859149 894366191 894366191
1000000000 1492957747 514084508 915492960 922535217 112676056 204225350 366197179 549295773 809859160 894366202 894366202
1000000000 1492957747 514084507 915492956 922535206 112676057 204225355 366197188 549295776 809859150 894366192 894366192
1000000000 1492957744 514084505 915492961 922535214 112676056 204225349 366197178 549295773 809859158 894366200 894366200
1000000000 1492957750 514084507 915492950 922535208 112676057 204225355 366197187 549295775 809859151 894366194 894366194
1000000000 1492957743 514084508 915492966 922535213 112676056 204225349 366197178 549295773 809859158 894366199 894366199
1000000000 1492957750 514084507 915492954 922535211 112676057 204225356 366197190 549295777 809859154 894366197 894366197
1000000000 1492957742 514084507 915492960 922535210 112676055 204225348 366197177 549295773 809859155 894366196 894366196
1000000000 1492957753 514084506 915492953 922535212 112676057 204225356 366197188 549295777 809859154 894366197 894366197
1000000000 1492957740 514084510 915492962 922535209 112676055 204225348 366197178 549295773 809859155 894366196 894366196
1000000000 1492957752 514084503 915492950 922535216 112676058 204225356 366197187 549295776 809859157 894366200 894366200
1000000000 1492957743 514084510 915492962 922535206 112676055 204225349 366197180 549295774 809859153 894366194 894366194
1000000000 1492957749 514084506 915492964 922535220 112676058 204225356 366197186 549295774 809859159 894366204 894366204
1000000000 1492957742 514084508 915492952 922535203 112676054 204225349 366197180 549295774 809859152 894366191 894366191
1000000000 1492957751 514084507 915492968 922535223 112676058 204225354 366197188 549295781 809859162 894366207 894366207
1000000000 1492957742 514084508 915492947 922535201 112676056 204225351 366197179 549295768 809859146 894366189 894366189
1000000000 1492957748 514084504 915492964 922535227 112676056 204225352 366197185 549295781 809859170 894366211 894366211
1000000000 1492957748 514084508 915492952 922535195 112676056 204225353 366197183 549295770 809859140 894366183 894366183
1000000000 1492957744 514084505 915492958 922535223 112676056 204225350 366197181 549295776 809859166 894366207 894366207
1000000000 1492957750 514084507 915492953 922535198 112676057 204225354 366197184 549295773 809859143 894366186 894366186
1000000000 1492957747 514084507 915492959 922535222 112676055 204225349 366197180 549295773 809859163 894366206 894366206
1000000000 1492957746 514084506 915492954 922535199 112676057 204225354 366197184 549295773 809859145 894366187 894366187
1000000000 1492957746 514084511 915492971 922535222 112676056 204225351 366197182 549295776 809859163 894366206 894366206
1000000000 1492957746 514084506 915492952 922535202 112676057 204225353 366197187 549295776 809859148 894366190 894366190
1000000000 1492957747 514084510 915492962 922535220 112676057 204225352 366197181 549295775 809859162 894366204 894366204
1000000000 1492957745 514084507 915492956 922535206 112676057 204225355 366197189 549295777 809859151 894366193 894366193
1000000000 1492957747 514084505 915492961 922535214 112676056 204225349 366197177 549295772 809859157 894366199 894366199
1000000000 1492957747 514084507 915492950 922535208 112676057 204225355 366197188 549295775 809859151 894366194 894366194
1000000000 1492957745 514084505 915492962 922535212 112676055 204225348 366197177 549295773 809859157 894366198 894366198
1000000000 1492957749 514084509 915492957 922535209 112676057 204225356 366197188 549295775 809859152 894366195 894366195
1000000000 1492957743 514084507 915492960 922535212 112676056 204225348 366197179 549295774 809859157 894366198 894366198
1000000000 1492957751 514084507 915492954 922535212 112676057 204225357 366197189 549295777 809859154 894366197 894366197
1000000000 1492957742 514084508 915492960 922535210 112676055 204225348 366197178 549295774 809859156 894366197 894366197
1000000000 1492957752 514084505 915492952 922535213 112676058 204225356 366197187 549295777 809859154 894366197 894366197
1000000000 1492957740 514084509 915492961 922535207 112676055 204225349 366197179 549295772 809859154 894366195 894366195
1000000000 1492957752 514084505 915492961 922535221 112676057 204225354 366197185 549295774 809859160 894366205 894366205
1000000000 1492957742 514084509 915492955 922535203 112676055 204225350 366197181 549295775 809859152 894366191 894366191
1000000000 1492957751 514084508 915492969 922535221 112676058 204225355 366197189 549295778 809859160 894366205 894366205
1000000000 1492957742 514084506 915492946 922535202 112676055 204225350 366197177 549295770 809859148 894366190 894366190
1000000000 1492957748 514084505 915492964 922535227 112676057 204225353 366197187 549295782 809859169 894366211 894366211
1000000000 1492957747 514084509 915492953 922535197 112676056 204225353 366197183 549295770 809859142 894366185 894366185
1000000000 1492957744 514084504 915492958 922535224 112676056 204225350 366197181 549295777 809859167 894366208 894366208
1000000000 1492957750 514084508 915492953 922535197 112676057 204225354 366197184 549295773 809859142 894366185 894366185
1000000000 1492957746 514084507 915492959 922535222 112676055 204225349 366197180 549295773 809859164 894366206 894366206
1000000000 1492957747 514084504 915492951 922535198 112676057 204225354 366197184 549295773 809859144 894366186 894366186
1000000000 1492957747 514084509 915492960 922535222 112676055 204225349 366197180 549295774 809859162 894366206 894366206
1000000000 1492957745 514084508 915492964 922535201 112676058 204225355 366197187 549295775 809859147 894366189 894366189
1000000000 1492957747 514084510 915492962 922535221 112676056 204225351 366197182 549295776 809859163 894366205 894366205
1000000000 1492957745 514084507 915492954 922535206 112676058 204225355 366197189 549295778 809859151 894366193 894366193
1000000000 1492957747 514084507 915492965 922535215 112676055 204225349 366197177 549295772 809859158 894366200 894366200
1000000000 1492957747 514084507 915492950 922535208 112676058 204225356 366197189 549295776 809859152 894366194 894366194
1000000000 1492957744 514084504 915492960 922535212 112676055 204225348 366197177 549295773 809859156 894366198 894366198
1000000000 1492957751 514084508 915492957 922535208 112676057 204225355 366197187 549295774 809859151 894366194 894366194
1000000000 1492957743 514084507 915492959 922535213 112676056 204225349 366197179 549295774 809859158 894366199 894366199
1000000000 1492957750 514084508 915492956 922535211 112676057 204225356 366197189 549295777 809859154 894366197 894366197
1000000000 1492957741 514084508 915492960 922535211 112676055 204225348 366197178 549295774 809859156 894366197 894366197
1000000000 1492957752 514084505 915492951 922535213 112676058 204225357 366197188 549295778 809859155 894366198 894366198
1000000000 1492957742 514084509 915492962 922535208 112676055 204225349 366197179 549295772 809859154 894366195 894366195
1000000000 1492957750 514084503 915492950 922535218 112676057 204225354 366197185 549295774 809859159 894366202 894366202
1000000000 1492957744 514084511 915492965 922535203 112676055 204225349 366197180 549295774 809859150 894366191 894366191
1000000000 1492957749 514084507 915492965 922535221 112676058 204225356 366197188 549295776 809859160 894366205 894366205
1000000000 1492957743 514084506 915492948 922535203 112676055 204225350 366197179 549295773 809859151 894366191 894366191
1000000000 1492957749 514084507 915492968 922535225 112676057 204225353 366197187 549295782 809859165 894366209 894366209
1000000000 1492957745 514084509 915492953 922535200 112676056 204225353 366197182 549295769 809859145 894366188 894366188
1000000000 1492957746 514084504 915492958 922535225 112676056 204225350 366197182 549295778 809859168 894366209 894366209
1000000000 1492957748 514084508 915492953 922535195 112676056 204225353 366197183 549295771 809859140 894366183 894366183
1000000000 1492957747 514084506 915492958 922535223 112676056 204225350 366197181 549295775 809859165 894366207 894366207
1000000000 1492957747 514084505 915492952 922535198 112676057 204225354 366197184 549295773 809859144 894366186 894366186
1000000000 1492957747 514084507 915492959 922535222 112676055 204225349 366197180 549295773 809859162 894366206 894366206
1000000000 1492957745 514084509 915492964 922535200 112676057 204225354 366197185 549295774 809859146 894366188 894366188
1000000000 1492957747 514084509 915492962 922535222 112676057 204225352 366197183 549295777 809859164 894366206 894366206
1000000000 1492957745 514084507 915492953 922535204 112676057 204225354 366197188 549295777 809859149 894366191 894366191
1000000000 1492957747 514084508 915492960 922535217 112676056 204225350 366197179 549295773 809859160 894366202 894366202
1000000000 1492957747 514084507 915492956 922535206 112676057 204225355 366197188 549295776 809859150 894366192 894366192
1000000000 1492957744 514084505 915492961 922535214 112676056 204225349 366197178 549295773 809859158 894366200 894366200
1000000000 1492957750 514084507 915492950 922535208 112676057 204225355 366197187 549295775 809859151 894366194 894366194
1000000000 1492957743 514084508 915492966 922535213 112676056 204225349 366197178 549295773 809859158 894366199 894366199
1000000000 1492957750 514084507 915492954 922535211 112676057 204225356 366197190 549295777 809859154 894366197 894366197
1000000000 1492957742 514084507 915492960 922535210 112676055 204225348 366197177 549295773 809859155 894366196 894366196
1000000000 1492957753 514084506 915492953 922535212 112676057 204225356 366197188 549295777 809859154 894366197 894366197
1000000000 1492957740 514084510 915492962 922535209 112676055 204225348 366197178 549295773 809859155 894366196 894366196
1000000000 1492957752 514084503 915492950 922535216 112676058 204225356 366197187 549295776 809859157 894366200 894366200
1000000000 1492957743 514084510 915492962 922535206 112676055 204225349 366197180 549295774 809859153 894366194 894366194
1000000000 1492957749 514084506 915492964 922535220 112676058 204225356 366197186 549295774 809859159 894366204 894366204
1000000000 1492957742 514084508 915492952 922535203 112676054 204225349 366197180 549295774 809859152 894366191 894366191
1000000000 1492957751 514084507 915492968 922535223 112676058 204225354 366197188 549295781 809859162 894366207 894366207
1000000000 1492957742 514084508 915492947 922535201 112676056 204225351 366197179 549295768 809859146 894366189 894366189
1000000000 1492957748 514084504 915492964 922535227 112676056 204225352 366197185 549295781 809859170 894366211 894366211
1000000000 1492957748 514084508 915492952 922535195 112676056 204225353 366197183 549295770 809859140 894366183 894366183
1000000000 1492957744 514084505 915492958 922535223 112676056 204225350 366197181 549295776 809859166 894366207 894366207
1000000000 1492957750 514084507 915492953 922535198 112676057 204225354 366197184 549295773 809859143 894366186 894366186
1000000000 1492957747 514084507 915492959 922535222 112676055 204225349 366197180 549295773 809859163 894366206 894366206
1000000000 1492957746 514084506 915492954 922535199 112676057 204225354 366197184 549295773 809859145 894366187 894366187
1000000000 1492957746 514084511 915492971 922535222 112676056 204225351 366197182 549295776 809859163 894366206 894366206
1000000000 1492957746 514084506 915492952 922535202 112676057 204225353 366197187 549295776 809859148 894366190 894366190
1000000000 1492957747 514084510 915492962 922535220 112676057 204225352 366197181 549295775 809859162 894366204 894366204
1000000000 1492957745 514084507 915492956 922535206 112676057 204225355 366197189 549295777 809859151 894366193 894366193
1000000000 1492957747 514084505 915492961 922535214 112676056 204225349 366197177 549295772 809859157 894366199 894366199
1000000000 1492957747 514084507 915492950 922535208 112676057 204225355 366197188 549295775 809859151 894366194 894366194
1000000000 1492957745 514084505 915492962 922535212 112676055 204225348 366197177 549295773 809859157 894366198 894366198
1000000000 1492957749 514084509 915492957 922535209 112676057 204225356 366197188 549295775 809859152 894366195 894366195
1000000000 1492957743 514084507 915492960 922535212 112676056 204225348 366197179 549295774 809859157 894366198 894366198
1000000000 1492957751 514084507 915492954 922535212 112676057 204225357 366197189 549295777 809859154 894366197 894366197
1000000000 1492957742 514084508 915492960 922535210 112676055 204225348 366197178 549295774 809859156 894366197 894366197
1000000000 1492957752 514084505 915492952 922535213 112676058 204225356 366197187 549295777 809859154 894366197 894366197
1000000000 1492957740 514084509 915492961 922535207 112676055 204225349 366197179 549295772 809859154 894366195 894366195
1000000000 1492957752 514084505 915492961 922535221 112676057 204225354 366197185 549295774 809859160 894366205 894366205
1000000000 1492957742 514084509 915492955 922535203 112676055 204225350 366197181 549295775 809859152 894366191 894366191
1000000000 1492957751 514084508 915492969 922535221 112676058 204225355 366197189 549295778 809859160 894366205 894366205
1000000000 1492957742 514084506 915492946 922535202 112676055 204225350 366197177 549295770 809859148 894366190 894366190
1000000000 1492957748 514084505 915492964 922535227 112676057 204225353 366197187 549295782 809859169 894366211 894366211
1000000000 1492957747 514084509 915492953 922535197 112676056 204225353 366197183 549295770 809859142 894366185 894366185
1000000000 1492957744 514084504 915492958 922535224 112676056 204225350 366197181 549295777 809859167 894366208 894366208
1000000000 1492957750 514084508 915492953 922535197 112676057 204225354 366197184 549295773 809859142 894366185 894366185
1000000000 1492957746 514084507 915492959 922535222 112676055 204225349 366197180 549295773 809859164 894366206 894366206
1000000000 1492957747 514084504 915492951 922535198 112676057 204225354 366197184 549295773 809859144 894366186 894366186
1000000000 1492957747 514084509 915492960 922535222 112676055 204225349 366197180 549295774 809859162 894366206 894366206
1000000000 1492957745 514084508 915492964 922535201 112676058 204225355 366197187 549295775 809859147 894366189 894366189
1000000000 1492957747 514084510 915492962 922535221 112676056 204225351 366197182 549295776 809859163 894366205 894366205
1000000000 1492957745 514084507 915492954 922535206 112676058 204225355 366197189 549295778 809859151 894366193 894366193
1000000000 1492957747 514084507 915492965 922535215 112676055 204225349 366197177 549295772 809859158 894366200 894366200
1000000000 1492957747 514084507 915492950 922535208 112676058 204225356 366197189 549295776 809859152 894366194 894366194
1000000000 1492957744 514084504 915492960 922535212 112676055 204225348 366197177 549295773 809859156 894366198 894366198
1000000000 1492957751 514084508 915492957 922535208 112676057 204225355 366197187 549295774 809859151 894366194 894366194
1000000000 1492957743 514084507 915492959 922535213 112676056 204225349 366197179 549295774 809859158 894366199 894366199
1000000000 1492957750 514084508 915492956 922535211 112676057 204225356 366197189 549295777 809859154 894366197 894366197
1000000000 1492957741 514084508 915492960 922535211 112676055 204225348 366197178 549295774 809859156 894366197 894366197
1000000000 1492957752 514084505 915492951 922535213 112676058 204225357 366197188 549295778 809859155 894366198 894366198
1000000000 1492957742 514084509 915492962 922535208 112676055 204225349 366197179 549295772 809859154 894366195 894366195
1000000000 1492957750 514084503 915492950 922535218 112676057 204225354 366197185 549295774 809859159 894366202 894366202
1000000000 1492957744 514084511 915492965 922535203 112676055 204225349 366197180 549295774 809859150 894366191 894366191
1000000000 1492957749 514084507 915492965 922535221 112676058 204225356 366197188 549295776 809859160 894366205 894366205
1000000000 1492957743 514084506 915492948 922535203 112676055 204225350 366197179 549295773 809859151 894366191 894366191
1000000000 1492957749 514084507 915492968 922535225 112676057 204225353 366197187 549295782 809859165 894366209 894366209
1000000000 1492957745 514084509 915492953 922535200 112676056 204225353 366197182 549295769 809859145 894366188 894366188
1000000000 1492957746 514084504 915492958 922535225 112676056 204225350 366197182 549295778 809859168 894366209 894366209
1000000000 1492957748 514084508 915492953 922535195 112676056 204225353 366197183 549295771 809859140 894366183 894366183
1000000000 1492957747 514084506 915492958 922535223 112676056 204225350 366197181 549295775 809859165 894366207 894366207
1000000000 1492957747 514084505 915492952 922535198 112676057 204225354 366197184 549295773 809859144 894366186 894366186
1000000000 1492957747 514084507 915492959 922535222 112676055 204225349 366197180 549295773 809859162 894366206 894366206
1000000000 1492957745 514084509 915492964 922535200 112676057 204225354 366197185 549295774 809859146 894366188 894366188
1000000000 1492957747 514084509 915492962 922535222 112676057 204225352 366197183 549295777 809859164 894366206 894366206
1000000000 1492957745 514084507 915492953 922535204 112676057 204225354 366197188 549295777 809859149 894366191 894366191
1000000000 1492957747 514084508 915492960 922535217 112676056 204225350 366197179 549295773 809859160 894366202 894366202
1000000000 1492957747 514084507 915492956 922535206 112676057 204225355 366197188 549295776 809859150 894366192 894366192
1000000000 1492957744 514084505 915492961 922535214 112676056 204225349 366197178 549295773 809859158 894366200 894366200
1000000000 1492957750 514084507 915492950 922535208 112676057 204225355 366197187 549295775 809859151 894366194 894366194
1000000000 1492957743 514084508 915492966 922535213 112676056 204225349 366197178 549295773 809859158 894366199 894366199
1000000000 1492957750 514084507 915492954 922535211 112676057 204225356 366197190 549295777 809859154 894366197 894366197
1000000000 1492957742 514084507 915492960 922535210 112676055 204225348 366197177 549295773 809859155 894366196 894366196
1000000000 1492957753 514084506 915492953 922535212 112676057 204225356 366197188 549295777 809859154 894366197 894366197
1000000000 1492957740 514084510 915492962 922535209 112676055 204225348 366197178 549295773 809859155 894366196 894366196
1000000000 1492957752 514084503 915492950 922535216 112676058 204225356 366197187 549295776 809859157 894366200 894366200
1000000000 1492957743 514084510 915492962 922535206 112676055 204225349 366197180 549295774 809859153 894366194 894366194
1000000000 1492957749 514084506 915492964 922535220 112676058 204225356 366197186 549295774 809859159 894366204 894366204
1000000000 1492957742 514084508 915492952 922535203 112676054 204225349 366197180 549295774 809859152 894366191 894366191
1000000000 1492957751 514084507 915492968 922535223 112676058 204225354 366197188 549295781 809859162 894366207 894366207
1000000000 1492957742 514084508 915492947 922535201 112676056 204225351 366197179 549295768 809859146 894366189 894366189
1000000000 1492957748 514084504 915492964 922535227 112676056 204225352 366197185 549295781 809859170 894366211 894366211
1000000000 1492957748 514084508 915492952 922535195 112676056 204225353 366197183 549295770 809859140 894366183 894366183
1000000000 1492957744 514084505 915492958 922535223 112676056 204225350 366197181 549295776 809859166 894366207 894366207
1000000000 1492957750 514084507 915492953 922535198 112676057 204225354 366197184 549295773 809859143 894366186 894366186
1000000000 1492957747 514084507 915492959 922535222 112676055 204225349 366197180 549295773 809859163 894366206 894366206
1000000000 1492957746 514084506 915492954 922535199 112676057 204225354 366197184 549295773 809859145 894366187 894366187
1000000000 1492957746 514084511 915492971 922535222 112676056 204225351 366197182 549295776 809859163 894366206 894366206
1000000000 1492957746 514084506 915492952 922535202 112676057 204225353 366197187 549295776 809859148 894366190 894366190
1000000000 1492957747 514084510 915492962 922535220 112676057 204225352 366197181 549295775 809859162 894366204 894366204
1000000000 1492957745 514084507 915492956 922535206 112676057 204225355 366197189 549295777 809859151 894366193 894366193
1000000000 1492957747 514084505 915492961 922535214 112676056 204225349 366197177 549295772 809859157 894366199 894366199
1000000000 1492957747 514084507 915492950 922535208 112676057 204225355 366197188 549295775 809859151 894366194 894366194
1000000000 1492957745 514084505 915492962 922535212 112676055 204225348 366197177 549295773 809859157 894366198 894366198
1000000000 1492957749 514084509 915492957 922535209 112676057 204225356 366197188 549295775 809859152 894366195 894366195
1000000000 1492957743 514084507 915492960 922535212 112676056 204225348 366197179 549295774 809859157 894366198 894366198
1000000000 1492957751 514084507 915492954 922535212 112676057 204225357 366197189 549295777 809859154 894366197 894366197
1000000000 1492957742 514084508 915492960 922535210 112676055 204225348 366197178 549295774 809859156 894366197 894366197
1000000000 1492957752 514084505 915492952 922535213 112676058 204225356 366197187 549295777 809859154 894366197 894366197
1000000000 1492957740 514084509 915492961 922535207 112676055 204225349 366197179 549295772 809859154 894366195 894366195
1000000000 1492957752 514084505 915492961 922535221 112676057 204225354 366197185 549295774 809859160 894366205 894366205
1000000000 1492957742 514084509 915492955 922535203 112676055 204225350 366197181 549295775 809859152 894366191 894366191
1000000000 1492957751 514084508 915492969 922535221 112676058 204225355 366197189 549295778 809859160 894366205 894366205
1000000000 1492957742 514084506 915492946 922535202 112676055 204225350 366197177 549295770 809859148 894366190 894366190
1000000000 1492957748 514084505 915492964 922535227 112676057 204225353 366197187 549295782 809859169 894366211 894366211
1000000000 1492957747 514084509 915492953 922535197 112676056 204225353 366197183 549295770 809859142 894366185 894366185
1000000000 1492957744 514084504 915492958 922535224 112676056 204225350 366197181 549295777 809859167 894366208 894366208
1000000000 1492957750 514084508 915492953 922535197 112676057 204225354 366197184 549295773 809859142 894366185 894366185
1000000000 1492957746 514084507 915492959 922535222 112676055 204225349 366197180 549295773 809859164 894366206 894366206
1000000000 1492957747 514084504 915492951 922535198 112676057 204225354 366197184 549295773 809859144 894366186 894366186
1000000000 1492957747 514084509 915492960 922535222 112676055 204225349 366197180 549295774 809859162 894366206 894366206
1000000000 1492957745 514084508 915492964 922535201 112676058 204225355 366197187 549295775 809859147 894366189 894366189
1000000000 1492957747 514084510 915492962 922535221 112676056 204225351 366197182 549295776 809859163 894366205 894366205
1000000000 1492957745 514084507 915492954 922535206 112676058 204225355 366197189 549295778 809859151 894366193 894366193
1000000000 1492957747 514084507 915492965 922535215 112676055 204225349 366197177 549295772 809859158 894366200 894366200
1000000000 1492957747 514084507 915492950 922535208 112676058 204225356 366197189 549295776 809859152 894366194 894366194
1000000000 1492957744 514084504 915492960 922535212 112676055 204225348 366197177 549295773 809859156 894366198 894366198
1000000000 1492957751 514084508 915492957 922535208 112676057 204225355 366197187 549295774 809859151 894366194 894366194
1000000000 1492957743 514084507 915492959 922535213 112676056 204225349 366197179 549295774 809859158 894366199 894366199
1000000000 1492957750 514084508 915492956 922535211 112676057 204225356 366197189 549295777 809859154 894366197 894366197
1000000000 1492957741 514084508 915492960 922535211 112676055 204225348 366197178 549295774 809859156 894366197 894366197
1000000000 1492957752 514084505 915492951 922535213 112676058 204225357 366197188 549295778 809859155 894366198 894366198
1000000000 1492957742 514084509 915492962 922535208 112676055 204225349 366197179 549295772 809859154 894366195 894366195
1000000000 1492957750 514084503 915492950 922535218 112676057 204225354 366197185 549295774 809859159 894366202 894366202
1000000000 1492957744 514084511 915492965 922535203 112676055 204225349 366197180 549295774 809859150 894366191 894366191
1000000000 1492957749 514084507 915492965 922535221 112676058 204225356 366197188 549295776 809859160 894366205 894366205
1000000000 1492957743 514084506 915492948 922535203 112676055 204225350 366197179 549295773 809859151 894366191 894366191
1000000000 1492957749 514084507 915492968 922535225 112676057 204225353 366197187 549295782 809859165 894366209 894366209
746021887 1113779153 383518293 682977779 688231449 84058804 152356580 273191109 409786663 604172646 667216749 667216749
number of instructions: 733746021887
