PACKAGE_ENERGY:PACKAGE0,PACKAGE_ENERGY:PACKAGE1,DRAM_ENERGY:PACKAGE0,DRAM_ENERGY:PACKAGE1,TOTAL_ENERGY,TOTAL_TIME,POWER
1284.781738281000,961.468261718000,681.137847900000,672.229873657000,3599.617721556000,50.802006959915,70.855817259272
1386.183837890000,1301.088378906000,740.437789916000,737.870147705000,4165.580154417000,55.628709077835,74.881841111728
681.732971191000,610.872680664000,351.244873046000,327.270843505000,1971.121368406000,24.690802097321,79.832212847387
435.984497070000,366.426574707000,206.594161987000,171.067901611000,1180.073135375000,12.891100883484,91.541688025025
461.909851074000,379.151550292000,211.751541137000,169.733444213000,1222.546386716000,12.780129909515,95.659934239460
412.865356445000,349.017333984000,165.583709716000,123.220474243000,1050.686874388000,9.297764062881,113.004252127945
332.488952636000,275.915954589000,136.207763671000,94.856628417000,839.469299313000,7.141004800797,117.556187501704
294.562500000000,242.048461914000,123.965545654000,81.871810913000,742.448318481000,6.170061826706,120.330774526027
