omp threads,pgain,pgain_dist,pgain_init,pselect,pspeedy,pshuffle,local search,total time
omp threads,pgain,pgain_dist,pgain_init,pselect,pspeedy,pshuffle,local search,total time
omp threads,pgain,pgain_dist,pgain_init,pselect,pspeedy,pshuffle,local search,total time
omp threads,pgain,pgain_dist,pgain_init,pselect,pspeedy,pshuffle,local search,total time
