100000000 30285152 17746284 28437386 59052078 1 47706 1833015 9604 1761788 7089955 6197 1771784
100000000 30373998 17866033 28587398 58904634 0 0 1786603 0 1786603 7147287 872 1786603
100000000 23948505 12445255 17827242 53241036 0 1993412 2640704 0 1144328 4579177 2417 15584280
100000000 20305824 9372540 11729472 50033993 0 3122990 3124796 0 780207 3123485 3628 23401469
100000000 20302598 9371361 11734743 50050649 0 3122026 3124680 0 779699 3122735 5408 23383796
100000000 20308597 9373569 11725012 50019856 0 3123828 3124882 0 780641 3124114 2118 23416451
100000000 20309217 9373792 11724063 50016817 0 3124014 3124892 0 780735 3124250 1795 23419668
100000000 19361683 8733020 10082941 47146166 0 2306492 2307626 0 12575903 2307308 2855 19814963
100000000 16704229 6956757 5392719 38967484 0 0 0 0 45901152 2037 0 9736608
100000000 16704248 6956759 5392713 38967508 0 0 0 0 45901137 2040 0 9736602
100000000 20778501 6069612 4889612 41673371 0 172 41 0 42818354 2410 408 8983786
100000000 33340385 3333387 3335014 50015457 0 0 0 0 33317606 3254 1627 6663520
100000000 16951728 6905490 5274890 39167917 0 120 14 0 45768944 2234 153 9692488
100000000 16722320 6964290 5290295 39009679 0 0 0 0 45950840 2040 0 9747146
100000000 16722104 6964200 5291493 39009177 0 0 0 0 45950263 2040 0 9747027
100000000 32885692 3432936 3388446 49714480 0 108 10 0 33663094 3267 1584 6747861
100000000 21489944 5922665 4664648 42196460 0 120 14 0 42367186 2568 596 8860950
100000000 16741551 6972303 5181311 39054553 0 0 0 0 46003729 2040 0 9758367
100000000 16741460 6972260 5181908 39054324 0 0 0 0 46003424 2043 0 9758301
100000000 28424489 4411246 3882102 46769337 0 108 10 0 37074314 2942 1147 7580006
100000000 25960087 4948080 4120316 45162465 0 120 14 0 38980563 2893 1033 8034022
100000000 16760655 6980258 5073112 39099115 0 0 0 0 46056226 2043 0 9769504
100000000 16760482 6980181 5074183 39098698 0 0 0 0 46055686 2046 0 9769387
100000000 24030158 5381346 4312003 43885313 0 108 10 0 40470051 2621 715 8407485
100000000 30363254 3981661 3640364 48067104 0 120 14 0 35609110 3214 1465 7211695
100000000 16778466 6987675 4972269 39140661 0 0 0 0 46105146 2046 0 9779878
100000000 16778593 6987723 4971628 39140945 0 0 0 0 46105436 2049 0 9779942
100000000 19697925 6343491 4685539 41057183 0 108 10 0 43849617 2304 288 9230241
100000000 33340386 3333387 3335015 50015459 0 0 0 0 33317605 3254 1627 6663520
100000000 18158026 6683990 4765539 40077495 0 120 14 0 45084306 2326 265 9519557
100000000 16794685 6994427 4880458 39178487 0 0 0 0 46149681 2049 0 9789325
100000000 16794365 6994294 4882222 39177747 0 0 0 0 46148835 2049 0 9789147
100000000 31967078 3637428 3463493 49116052 0 108 10 0 34382333 3199 1493 6922896
100000000 22457489 5738556 4312403 42909047 0 120 14 0 41782452 2639 687 8714446
100000000 16809041 7000404 4799157 39211977 0 0 0 0 46189121 2052 0 9797693
100000000 16808424 7000152 4802572 39210548 0 0 0 0 46187486 2049 0 9797345
100000000 27723289 4579433 3833795 46344356 0 108 10 0 37690114 2893 1076 7728243
100000000 26707201 4799014 3908630 45694549 0 120 14 0 38490894 2948 1104 7912538
100000000 16821191 7005467 4730311 39240326 0 0 0 0 46222530 2052 0 9804781
100000000 16820473 7005167 4734364 39238651 0 0 0 0 46220571 2052 0 9804362
100000000 23521257 5516085 4166195 43610229 0 108 10 0 40987030 2585 661 8530418
100000000 30915041 3864782 3543310 48442227 0 120 14 0 35209955 3256 1519 7113755
100000000 16831248 7009657 4673312 39263793 0 0 0 0 46250196 2052 0 9810647
100000000 16831507 7009760 4671900 39264384 0 0 0 0 46250869 2055 0 9810792
100000000 19354527 6447752 4470650 40906664 0 108 10 0 44272151 2282 250 9329333
100000000 33340382 3333387 3335014 50015454 0 0 0 0 33317607 3254 1627 6663522
100000000 18586692 6615237 4497587 40426915 0 120 14 0 44896016 2360 303 9470151
100000000 16840439 7013481 4621300 39285223 0 0 0 0 46275424 2055 0 9815998
100000000 16840233 7013402 4622411 39284759 0 0 0 0 46274891 2052 0 9815887
100000000 31718674 3695202 3462135 48960749 0 108 10 0 34590523 3182 1468 6973227
100000000 22735394 5693063 4146718 43133157 0 120 14 0 41655302 2662 712 8681305
100000000 16848367 7016785 4576390 39303723 0 0 0 0 46297212 2055 0 9820620
100000000 16848196 7016715 4577360 39303326 0 0 0 0 46296738 2055 0 9820521
100000000 27600597 4615409 3768104 46287221 0 108 10 0 37834079 2883 1062 7762113
100000000 26857010 4774328 3820722 45814941 0 120 15 0 38421453 2963 1119 7894479
100000000 16855043 7019566 4538564 39319299 0 0 0 0 46315568 2055 0 9824514
100000000 16854822 7019471 4539888 39318772 0 0 0 0 46314908 2058 0 9824374
100000000 23505711 5532610 4053337 43634476 0 108 10 0 41071396 2585 658 8549192
100000000 30955229 3858519 3516590 48475466 0 120 14 0 35193313 3259 1522 7109346
100000000 16860659 7021907 4506701 39332407 0 0 0 0 46331040 2055 0 9827797
100000000 16861058 7022067 4504551 39333318 0 0 0 0 46332061 2058 0 9828012
100000000 19430210 6446938 4324424 40998151 0 108 10 0 44301477 2289 255 9334316
100000000 33340381 3333388 3335015 50015455 0 0 0 0 33317605 3254 1627 6663522
100000000 18559004 6636037 4371982 40447385 0 120 14 0 44998581 2359 298 9493145
100000000 16865942 7024103 4476874 39344718 0 0 0 0 46345490 2058 0 9830860
100000000 16866007 7024135 4476422 39344883 0 0 0 0 46345728 2055 0 9830912
100000000 31846534 3668188 3439063 49047854 0 108 10 0 34498393 3193 1481 6950614
100000000 22624290 5727055 4074926 43085138 0 120 14 0 41793446 2654 699 8713679
100000000 16870514 7026008 4450974 39355384 0 0 0 0 46358057 2058 0 9833527
100000000 16870410 7025964 4451524 39355146 0 0 0 0 46357798 2058 0 9833474
100000000 27798411 4576050 3711122 46428386 0 108 10 0 37705017 2897 1081 7730077
100000000 26674536 4820084 3790784 45709573 0 120 14 0 38592696 2947 1099 7935461
100000000 16874348 7027604 4429214 39364331 0 0 0 0 46368627 2058 0 9835770
100000000 16874278 7027577 4429637 39364169 0 0 0 0 46368415 2058 0 9835721
100000000 23763698 5482135 3971544 43820836 0 108 10 0 40907801 2606 682 8508449
100000000 30711254 3914828 3519063 48321787 0 120 14 0 35395382 3241 1498 7158251
100000000 16877594 7028958 4410807 39371907 0 0 0 0 46377561 2058 0 9837667
100000000 16877877 7029071 4409307 39372553 0 0 0 0 46378265 2061 0 9837814
100000000 19740124 6386541 4224043 41222649 0 108 10 0 44106309 2311 284 9285664
100000000 33340384 3333388 3335015 50015459 0 0 0 0 33317604 3254 1627 6663521
100000000 18276706 6707937 4315927 40287314 0 120 14 0 45269652 2340 269 9557898
100000000 16880705 7030254 4393215 39379166 0 0 0 0 46386088 2058 0 9839473
100000000 16880795 7030292 4392694 39379374 0 0 0 0 46386347 2058 0 9839527
100000000 32186498 3592701 3409621 49269827 0 108 10 0 34233268 3217 1514 6886067
100000000 22294211 5806662 4048376 42886231 0 120 14 0 42085735 2630 666 8783988
100000000 16883676 7031486 4376424 39386083 0 0 0 0 46394231 2061 0 9841201
100000000 16883474 7031408 4377542 39385625 0 0 0 0 46393691 2058 0 9841084
100000000 28179279 4493220 3662915 46681647 0 108 10 0 37417622 2926 1118 7659876
100000000 26302609 4906633 3788375 45477162 0 120 14 0 38904646 2921 1062 8010870
100000000 16885953 7032436 4363554 39391395 0 0 0 0 46400465 2061 0 9842525
100000000 16885806 7032380 4364276 39391072 0 0 0 0 46400139 2058 0 9842455
100000000 24180288 5392729 3908429 44100984 0 108 10 0 40600024 2637 723 8433097
81591805 27201510 2723254 2727329 40813766 2 2187 697 84 27173178 3779 1495 5434663
number of instructions: 9281591731
