100000000 171473031 57258251 100212194 101947181 16204638 28551271 51725147 71332393 83756115 94412079 99781701
100000000 171240581 57174793 100053117 101731584 16079429 28471258 51754735 71350610 83858576 94579068 99941493
100000000 187598410 72520406 113496187 117586522 21269986 37219929 58607382 74677094 93154754 104014791 110443572
100000000 196869707 81214999 121117227 126574086 24211147 42177689 62490605 76562597 98422467 109361796 116395119
100000000 196867045 81197831 121128529 126579791 24207481 42172866 62486080 76562644 98415144 109355373 116389709
100000000 196871902 81229558 121107451 126569261 24214308 42181777 62494508 76562555 98428713 109367287 116399741
100000000 196872349 81232669 121105432 126568247 24215010 42182639 62495363 76562560 98430083 109368491 116400770
100000000 192976587 81790903 124578981 138507065 25485892 42046028 65788400 81633011 101036279 113462181 119744963
100000000 181909581 83476333 134321724 172339273 29213898 41733752 75121161 95812905 108336154 125033593 129212536
100000000 181909567 83476339 134323088 172339275 29213893 41733744 75121153 95812891 108336147 125033591 129212543
100000000 178993699 85071780 135444575 175841806 28588027 41305439 69779566 94382734 107923039 127875676 131039316
100000000 170004392 89994958 138907643 186648555 26658963 39986005 53313047 89975431 106652132 136642860 136675400
100000000 181744713 83640946 134432031 172580804 29175200 41738028 74890238 95763374 108343793 125225704 129346882
100000000 181889990 83566705 134359232 172417590 29245527 41778932 75202487 95808368 108345177 125060697 129244165
100000000 181890224 83565651 134358815 172416671 29245153 41778404 75201536 95808425 108345074 125060378 129243796
100000000 170329344 89819030 138783673 186258731 26729830 40035154 53912063 90134798 106698233 136325651 136471859
100000000 178493827 85459838 135699482 176514897 28495028 41284238 68992436 94171829 107889693 128399678 131394165
100000000 181869158 83662867 134397698 172500928 29279188 41827019 75289033 95803559 108354791 125089542 129277818
100000000 181869262 83662341 134398857 172500464 29278993 41826743 75288551 95803570 108354725 125089375 129277633
100000000 173518024 88119313 137573114 182457930 27434930 40531153 59821146 91701241 107156125 133220875 134484246
100000000 175295462 87204271 136927933 180354450 27805574 40810591 63123593 92603153 107436277 131517870 133397432
100000000 181848469 83758339 134437258 172583658 29312596 41874748 75374949 95798773 108364327 125118175 129311233
100000000 181848665 83757391 134438252 172582829 29312254 41874260 75374080 95798795 108364212 125117871 129310890
100000000 176655163 86491921 136397896 178749411 28148826 41046211 65700747 93245230 107613262 130170793 132539646
100000000 172148752 88875822 138120814 184101239 27107142 40317620 57283739 91056949 106983545 134581195 135357480
100000000 181829181 83847317 134474218 172660768 29343727 41919221 75455014 95794304 108373212 125144856 129342372
100000000 181829054 83847878 134475814 172661241 29343929 41919507 75455511 95794250 108373241 125145004 129342553
100000000 179744634 84929340 135254899 175124814 28869896 41577621 71549979 94768321 108069399 127171097 130634339
100000000 170004392 89994956 138907648 186648554 26658963 39986006 53313049 89975431 106652131 136642857 136675397
100000000 180857582 84413008 134880655 173843980 29113616 41780541 73686482 95346601 108260696 126119548 129972540
100000000 181811619 83928324 134507990 172730965 29372081 41959723 75527911 95790230 108381290 125169143 129370715
100000000 181811967 83926771 134507378 172729611 29371530 41958942 75526511 95790315 108381141 125168676 129370173
100000000 170984162 89491153 138542094 185492773 26884158 40149792 55156707 90457834 106795403 135690193 136068824
100000000 177786009 86032300 136040268 177492819 28426302 41291886 67967907 93836543 107816964 129108498 131882799
100000000 181796078 84000058 134538062 172793117 29397185 41995586 75592460 95786621 108388441 125190643 129395809
100000000 181796735 83997050 134535485 172790524 29396131 41994083 75589764 95786800 108388168 125189764 129394774
100000000 174010862 87956811 137423662 181939387 27588994 40668278 60881921 91949720 107241727 132751057 134201372
100000000 174752901 87596172 137171881 181071791 27731798 40788157 62269259 92343158 107373575 132056479 133760579
100000000 181782914 84060805 134562357 172845767 29418447 42025962 75647132 95783584 108394516 125208868 129417072
100000000 181783692 84057232 134560936 172842668 29417188 42024164 75643915 95783769 108394168 125207800 129415828
100000000 177005498 86466057 136324117 178442464 28298669 41197780 66586718 93427583 107687397 129845843 132360343
100000000 171751973 89115974 138283042 184593887 27032292 40273184 56590609 90863846 106930809 134970408 135611774
100000000 181772019 84111100 134582478 172889355 29436045 42051102 75692396 95781074 108399552 125223960 129434679
100000000 181771747 84112347 134584350 172890423 29436477 42051721 75693509 95780996 108399663 125224321 129435112
100000000 179973313 85008729 135243332 174990659 29011015 41734643 72269955 94893463 108132035 126968646 130540682
100000000 170004394 89994958 138907640 186648552 26658967 39986008 53313049 89975432 106652133 136642861 136675401
100000000 180536566 84759646 135068120 174347328 29121593 41836512 73349887 95200071 108240589 126449747 130215275
100000000 181762070 84156994 134602210 172929119 29452098 42074037 75733689 95778762 108404126 125237715 129450738
100000000 181762285 84156009 134600436 172928279 29451773 42073567 75732818 95778823 108404037 125237431 129450394
100000000 171159800 89420494 138484270 185299208 26933317 40190959 55515974 90545579 106824027 135521486 135964924
100000000 177578429 86250352 136159797 177814101 28428716 41324396 67741271 93741397 107803052 129321400 132038280
100000000 181753482 84196617 134618056 172963461 29465971 42093853 75769350 95776775 108408084 125249598 129464601
100000000 181753667 84195759 134617707 172962719 29465681 42093436 75768582 95776816 108407995 125249342 129464300
100000000 174093298 87975970 137414757 181884529 27635603 40719169 61127534 91994249 107262921 132677150 134165321
100000000 174641098 87712541 137236359 181244059 27732613 40805021 62145605 92291820 107365898 132171007 133844034
100000000 181746250 84229994 134631405 172992389 29477654 42110544 75799390 95775110 108411425 125259616 129476287
100000000 181746496 84228823 134632303 172991367 29477245 42109956 75798327 95775146 108411289 125259251 129475871
100000000 177009015 86555387 136357009 178500997 28340467 41253345 66727427 93435115 107701413 129851587 132380319
100000000 171721770 89149802 138300792 184642078 27033590 40279186 56560727 90850138 106929095 135001597 135634899
100000000 181740166 84258109 134642659 173016748 29487495 42124601 75824696 95773703 108414233 125268046 129486124
100000000 181739741 84260007 134644780 173018391 29488152 42125541 75826390 95773594 108414414 125268611 129486791
100000000 179910077 85152162 135308270 175141493 29046392 41791009 72314230 94869381 108139203 127041243 130606755
100000000 170004395 89994955 138907642 186648549 26658967 39986008 53313050 89975431 106652130 136642856 136675396
100000000 180547824 84856067 135101864 174404345 29170151 41900054 73521456 95212130 108257382 126449085 130233146
100000000 181734451 84284424 134654553 173039551 29496701 42137751 75848364 95772364 108416847 125275929 129495330
100000000 181734372 84284825 134653339 173039907 29496846 42137960 75848739 95772367 108416906 125276063 129495476
100000000 171067823 89476621 138522848 185413718 26916177 40180939 55355973 90500833 106811859 135611741 136023978
100000000 177652262 86277924 136156063 177772123 28475151 41376264 67976591 93781932 107823567 129256236 132008508
100000000 181729498 84307276 134663688 173059357 29504705 42149184 75868937 95771223 108419131 125282785 129503326
100000000 181729613 84306794 134663504 173058930 29504529 42148938 75868498 95771248 108419083 125282635 129503155
100000000 173949578 88080508 137479478 182075051 27616396 40713674 60902311 91925432 107246428 132819897 134261696
100000000 174768196 87684697 137202318 181120046 27778673 40848870 62439858 92356817 107390082 132051296 133774531
100000000 181725346 84326480 134671382 173075991 29511417 42158777 75886217 95770267 108421054 125288543 129510047
100000000 181725419 84326105 134671221 173075679 29511289 42158591 75885880 95770284 108421022 125288438 129509924
100000000 176821086 86697939 136444743 178754134 28317981 41249689 66441538 93345483 107680689 130038815 132507742
100000000 171894527 89077236 138242418 184449587 27080570 40317831 56909593 90936250 106956800 134835353 135531964
100000000 181721830 84342721 134677864 173090069 29517108 42166906 75900838 95769457 108422680 125293418 129515735
100000000 181721529 84344043 134679772 173091210 29517564 42167556 75902012 95769369 108422796 125293803 129516192
100000000 179684178 85325182 135412971 175446937 29020102 41787608 71973014 94761764 108114561 127266491 130760346
100000000 170004393 89994955 138907646 186648553 26658964 39986007 53313050 89975431 106652130 136642857 136675397
100000000 180743813 84821078 135053744 174218514 29244751 41972465 73986888 95312825 108295809 126265233 130127860
100000000 181718458 84358240 134684084 173103520 29522535 42174658 75914798 95768669 108424222 125298066 129521157
100000000 181718359 84358704 134684257 173103929 29522698 42174893 75915221 95768661 108424286 125298221 129521336
100000000 170825370 89599349 138611952 185698236 26859637 40139297 54897099 90381314 106776078 135847160 136173519
100000000 177884006 86204596 136086716 177530423 28548987 41442611 68479924 93898973 107864282 129035634 131876253
100000000 181715248 84373061 134691380 173116353 29527717 42182062 75928130 95767924 108425702 125302510 129526351
100000000 181715458 84372068 134689605 173115511 29527377 42181573 75927246 95767980 108425609 125302220 129526001
100000000 173676953 88230660 137585235 182403325 27558279 40674177 60404183 91791801 107207984 133085831 134432802
100000000 175031146 87579208 137115813 180830463 27852412 40910687 62978170 92488197 107432976 131798744 133619051
100000000 181712781 84384411 134695910 173126195 29531696 42187744 75938346 95767347 108426827 125305910 129530315
100000000 181712933 84383777 134694297 173125650 29531473 42187429 75937784 95767401 108426784 125305732 129530101
100000000 176522197 86870806 136563710 179119716 28257978 41211361 65907582 93199509 107639775 130331199 132697350
81591805 138709511 73418536 113327904 152263418 21751081 32623776 43497521 73404305 87009310 111471896 111501190
number of instructions: 9281591731
