21377011,2623256,14396720,16509438,21203574,21362911,21363926,21367839,18056,10700345,12422700,15571117,15573066,15577074,15578016,23095212,1576888,20350597,21794567,23092890,23093174,23093248,23093248,0,14426129,19420320,20995414,20995606,20995647,20995648
21107070,2516035,14793407,16806746,20947777,21102198,21102574,21105989,20864,10473643,12114705,15248149,15324925,15349266,15373586,22545557,1513739,20118361,21372498,22544697,22545427,22545427,22545427,0,14103159,18984353,20557664,20586656,20586656,20586656
20021122,2201507,17865361,19649118,19997255,20014275,20014275,20014400,64649,6217413,7633230,11564780,12429176,12701951,12974726,18662994,1079587,18219033,18308563,18656272,18662994,18662994,18662994,0,9816656,15141006,17181130,17507688,17507688,17507688
20101574,2230328,17924179,19734721,20082068,20096133,20096133,20096225,65102,6260756,7655738,11594728,12444843,12720644,12996445,18760918,1092456,18323481,18409812,18755569,18760918,18760918,18760918,0,9915248,15237594,17274257,17592810,17592810,17592810
19975554,2184798,17829375,19599932,19949082,19967860,19967860,19967982,64160,6192758,7622380,11548277,12422069,12693071,12964073,18608512,1072238,18161130,18251865,18600940,18608512,18608512,18608512,0,9758815,15087323,17128794,17460712,17460712,17460712
19984164,2190822,17838329,19608866,19957756,19976473,19976474,19976595,63801,6195700,7624968,11547778,12421259,12692635,12964010,18622221,1073693,18174449,18265171,18614652,18622221,18622221,18622221,0,9770596,15099941,17140757,17472837,17472837,17472837
19915107,2161088,17780409,19535740,19887481,19906222,19906223,19906343,65060,6170642,7607783,11544592,12422384,12690970,12959557,18518009,1063026,18071402,18160755,18509245,18518009,18518009,18518009,0,9675488,14999907,17046575,17380449,17380449,17380449
20228968,2275175,18035453,19874460,20217732,20227034,20227034,20227156,66821,6336801,7709478,11665410,12498386,12778414,13058442,18943102,1111174,18518762,18598152,18941290,18943102,18943102,18943102,0,10052329,15409497,17449566,17757078,17757078,17757078
19930286,2165197,17834607,19560844,19908430,19926395,19926396,19926489,65470,6196191,7682726,11635723,12552221,12817859,13083497,18591307,1054603,18153759,18235626,18587510,18591307,18591307,18591307,0,9583337,15055824,17120253,17466231,17466231,17466231
19828859,2138625,17797204,19459643,19804110,19826636,19826639,19826759,61028,6143503,7721047,11653924,12643031,12901188,13159345,18504649,1025661,18057388,18140894,18502549,18504649,18504649,18504649,0,9346788,14961103,17033362,17411255,17411255,17411255
19835038,2141371,17803385,19466110,19810170,19832690,19832692,19832782,61106,6145938,7722144,11655635,12643847,12902221,13160595,18510462,1026784,18062688,18146946,18508206,18510462,18510462,18510462,0,9355526,14969366,17038750,17416156,17416156,17416156
19871043,2153341,17786728,19496042,19844014,19865606,19865607,19865728,62265,6150115,7658627,11577478,12508313,12772401,13036488,18526854,1046521,18077353,18164821,18521539,18526854,18526854,18526854,0,9534002,14994097,17050802,17408334,17408334,17408334
19936913,2173108,17803000,19560357,19910369,19929312,19929312,19929434,63408,6175309,7623183,11545202,12431844,12700908,12969973,18564414,1064753,18116153,18205867,18556935,18564414,18564414,18564414,0,9694546,15042418,17086316,17424828,17424828,17424828
20101740,2223531,17915258,19732693,20084656,20097554,20097554,20097645,64776,6270317,7675150,11611842,12468783,12743929,13019075,18766860,1091436,18331019,18415804,18762765,18766860,18766860,18766860,0,9899129,15243277,17279644,17601514,17601514,17601514
20361502,2329174,18115415,20004598,20356846,20360938,20360942,20361066,67815,6408580,7728347,11688014,12486381,12772211,13058041,19080525,1136811,18663094,18741768,19080089,19080525,19080525,19080525,0,10256236,15555223,17579953,17869927,17869927,17869927
19858798,2148271,17778199,19484771,19832594,19853450,19853455,19853577,61743,6147617,7666239,11592076,12534407,12797039,13059671,18497721,1041393,18047977,18135729,18492500,18497721,18497721,18497721,0,9487643,14966913,17024529,17385377,17385377,17385377
19830281,2139409,17798460,19461285,19805779,19828222,19828224,19828345,61050,6145331,7721664,11654500,12642590,12900843,13159096,18507049,1026128,18060062,18143603,18505113,18507049,18507049,18507049,0,9349673,14962501,17035768,17413241,17413241,17413241
19824223,2136405,17794394,19454880,19799175,19821573,19821580,19821671,61125,6142488,7722028,11656046,12646203,12904078,13161953,18494641,1025209,18046023,18130951,18492089,18494641,18494641,18494641,0,9338041,14954092,17023836,17402451,17402451,17402451
20263084,2293415,18064478,19911306,20255029,20262484,20262485,20262605,66018,6352779,7724586,11683800,12520875,12801447,13082018,18974661,1114148,18553471,18631097,18974182,18974661,18974661,18974661,0,10073138,15442994,17479017,17786337,17786337,17786337
19915264,2146967,17781023,19540379,19890947,19909660,19909669,19909791,63233,6175840,7649078,11572530,12474579,12741748,13008918,18561397,1058824,18116588,18202494,18555924,18561397,18561397,18561397,0,9630046,15032710,17083920,17429833,17429833,17429833
19958893,2179310,17837673,19585774,19934122,19954118,19954121,19954212,63072,6192056,7664113,11576379,12476003,12745035,13014066,18649681,1067450,18205011,18290679,18645000,18649681,18649681,18649681,0,9694463,15113633,17165007,17510231,17510231,17510231
20385628,2338571,18132301,20030110,20382370,20385504,20385504,20385628,68264,6423296,7735018,11698855,12491623,12778366,13065109,19108611,1140629,18693185,18771259,19108611,19108611,19108611,19108611,0,10286956,15583305,17607400,17894143,17894143,17894143
20385678,2338030,18132394,20030190,20382413,20385554,20385554,20385678,68264,6423336,7735067,11698916,12491680,12778425,13065171,19108703,1140653,18693294,18771343,19108703,19108703,19108703,19108703,0,10286965,15583389,17607490,17894235,17894235,17894235
20385719,2336183,18132625,20030198,20382472,20385595,20385595,20385719,68263,6423377,7735112,11698936,12491698,12778444,13065189,19108814,1140658,18693402,18771446,19108814,19108814,19108814,19108814,0,10287055,15583496,17607588,17894334,17894334,17894334
20385618,2336362,18132480,20030079,20382341,20385470,20385470,20385618,68265,6423284,7735015,11698857,12491623,12778364,13065106,19108520,1140627,18693078,18771158,19108520,19108520,19108520,19108520,0,10286886,15583222,17607313,17894054,17894054,17894054
20385695,2338207,18132239,20030178,20382431,20385564,20385564,20385695,68264,6423342,7735084,11698914,12491680,12778426,13065172,19108796,1140653,18693393,18771455,19108796,19108796,19108796,19108796,0,10287026,15583470,17607576,17894322,17894322,17894322
20385726,2338224,18132240,20030185,20382467,20385602,20385602,20385726,68261,6423370,7735110,11698934,12491696,12778442,13065188,19108804,1140658,18693399,18771457,19108804,19108804,19108804,19108804,0,10287042,15583484,17607578,17894324,17894324,17894324
20385603,2338169,18132070,20030071,20382346,20385479,20385479,20385603,68263,6423290,7735009,11698876,12491640,12778381,13065122,19108489,1140639,18693084,18771144,19108489,19108489,19108489,19108489,0,10286882,15583199,17607285,17894027,17894027,17894027
20385703,2338215,18132218,20030200,20382439,20385579,20385579,20385703,68261,6423345,7735085,11698920,12491683,12778430,13065177,19108741,1140660,18693362,18771392,19108741,19108741,19108741,19108741,0,10286990,15583425,17607523,17894269,17894269,17894269
20385725,2338227,18132193,20030212,20382475,20385601,20385601,20385725,68262,6423366,7735104,11698930,12491694,12778440,13065186,19108804,1140660,18693418,18771446,19108804,19108804,19108804,19108804,0,10287047,15583487,17607580,17894326,17894326,17894326
20385604,2338146,18132031,20030071,20382347,20385480,20385480,20385604,68264,6423305,7735023,11698884,12491648,12778389,13065130,19108487,1140635,18693103,18771130,19108487,19108487,19108487,19108487,0,10286891,15583202,17607286,17894027,17894027,17894027
20385688,2338146,18132207,20030204,20382418,20385564,20385564,20385688,68264,6423347,7735078,11698916,12491681,12778427,13065173,19108764,1140660,18693386,18771406,19108764,19108764,19108764,19108764,0,10286997,15583442,17607546,17894292,17894292,17894292
20385730,2338219,18132208,20030205,20382457,20385606,20385606,20385730,68263,6423383,7735117,11698936,12491700,12778446,13065192,19108816,1140655,18693408,18771452,19108816,19108816,19108816,19108816,0,10287062,15583500,17607590,17894336,17894336,17894336
20385591,2337734,18132114,20030080,20382331,20385467,20385467,20385591,68265,6423286,7735000,11698870,12491635,12778376,13065117,19108486,1140639,18693070,18771123,19108486,19108486,19108486,19108486,0,10286882,15583196,17607285,17894026,17894026,17894026
20385692,2336483,18132526,20030185,20382448,20385568,20385568,20385692,68263,6423351,7735089,11698919,12491681,12778427,13065173,19108756,1140656,18693352,18771394,19108756,19108756,19108756,19108756,0,10287003,15583442,17607538,17894284,17894284,17894284
20385727,2336359,18132560,20030177,20382468,20385603,20385603,20385727,68263,6423382,7735119,11698946,12491709,12778455,13065200,19108805,1140658,18693386,18771437,19108805,19108805,19108805,19108805,0,10287054,15583487,17607579,17894325,17894325,17894325
20385568,2336267,18132424,20030038,20382311,20385444,20385444,20385568,68265,6423271,7734989,11698856,12491622,12778363,13065105,19108429,1140637,18693055,18771092,19108429,19108429,19108429,19108429,0,10286835,15583147,17607236,17893977,17893977,17893977
20385724,2336254,18132558,20030149,20382465,20385600,20385600,20385724,68263,6423385,7735126,11698950,12491710,12778456,13065201,19108815,1140658,18693419,18771463,19108815,19108815,19108815,19108815,0,10287056,15583497,17607589,17894335,17894335,17894335
20385686,2336231,18132562,20030140,20382429,20385562,20385562,20385686,68264,6423351,7735088,11698919,12491683,12778427,13065172,19108735,1140652,18693348,18771398,19108735,19108735,19108735,19108735,0,10287006,15583421,17607517,17894261,17894261,17894261
20385610,2336227,18132493,20030083,20382346,20385486,20385486,20385610,68265,6423299,7735024,11698899,12491664,12778407,13065149,19108501,1140645,18693129,18771169,19108501,19108501,19108501,19108501,0,10286860,15583207,17607300,17894043,17894043,17894043
20385724,2336281,18132603,20030178,20382472,20385600,20385600,20385724,68263,6423368,7735106,11698930,12491692,12778438,13065184,19108810,1140657,18693411,18771464,19108810,19108810,19108810,19108810,0,10287046,15583489,17607584,17894330,17894330,17894330
20385669,2336214,18132537,20030119,20382405,20385545,20385545,20385669,68262,6423343,7735077,11698912,12491675,12778419,13065163,19108679,1140651,18693286,18771336,19108679,19108679,19108679,19108679,0,10286978,15583372,17607463,17894207,17894207,17894207
20385621,2336192,18132535,20030126,20382369,20385497,20385497,20385621,68265,6423297,7735021,11698892,12491658,12778400,13065143,19108558,1140646,18693170,18771217,19108558,19108558,19108558,19108558,0,10286892,15583258,17607355,17894098,17894098,17894098
20273103,2298924,18062092,19913392,20263830,20271616,20271616,20271740,67112,6361818,7715664,11666826,12487662,12769745,13051828,18990095,1121284,18566702,18647104,18988732,18990095,18990095,18990095,0,10130836,15461042,17493505,17795367,17795367,17795367
19869126,2155754,17804315,19496421,19842478,19864917,19864919,19865040,61305,6149269,7677051,11588932,12533734,12796976,13060218,18546462,1044063,18098754,18183040,18542376,18546462,18546462,18546462,0,9508628,15009147,17067590,17431532,17431532,17431532
19834317,2139882,17801911,19465500,19809097,19831943,19831952,19832043,61170,6145609,7721936,11655463,12643673,12902036,13160399,18510596,1025872,18065306,18146366,18508322,18510596,18510596,18510596,0,9354289,14968581,17038911,17416334,17416334,17416334
19832755,2137553,17799938,19463601,19807912,19830683,19830690,19830811,60951,6145345,7723885,11656296,12645618,12903831,13162044,18505761,1025014,18060754,18141244,18503817,18505761,18505761,18505761,0,9352573,14968266,17033809,17412123,17412123,17412123
19868302,2148120,17805904,19496627,19845059,19865672,19865679,19865770,61245,6160291,7706630,11632382,12595337,12856653,13117969,18540193,1038389,18095875,18177968,18537661,18540193,18540193,18540193,0,9448638,15001684,17064644,17433427,17433427,17433427
19835526,2134893,17807509,19466511,19810016,19833048,19833048,19833169,61317,6150992,7728020,11659469,12645111,12903701,13162291,18525398,1027315,18077596,18161266,18523041,18525398,18525398,18525398,0,9357797,14976856,17052820,17430174,17430174,17430174
19827115,2138727,17795611,19457779,19802053,19824465,19824465,19824556,61108,6146184,7722995,11657311,12645103,12903194,13161285,18499574,1026360,18052670,18136126,18497015,18499574,18499574,18499574,0,9342842,14955529,17028805,17406464,17406464,17406464
19921534,2178590,17854078,19554592,19899776,19919115,19919115,19919237,62070,6186682,7714462,11650017,12602265,12865613,13128961,18601389,1046988,18158977,18242111,18599092,18601389,18601389,18601389,0,9515387,15061154,17124613,17486005,17486005,17486005
20392853,2360440,18161170,20042558,20387999,20392729,20392729,20392853,68035,6413012,7727980,11684636,12479353,12766807,13054261,19147459,1142411,18726807,18809270,19147459,19147459,19147459,19147459,0,10303952,15613451,17642533,17929987,17929987,17929987
20392713,2360430,18160457,20042397,20387866,20392589,20392589,20392713,68036,6412943,7727893,11684609,12479327,12766775,13054223,19147096,1142394,18726467,18808925,19147096,19147096,19147096,19147096,0,10303741,15613124,17642200,17929648,17929648,17929648
20392873,2359042,18149332,20042523,20388018,20392749,20392749,20392873,68033,6413057,7728033,11684687,12479398,12766851,13054304,19147486,1142414,18726836,18809295,19147486,19147486,19147486,19147486,0,10303975,15613482,17642557,17930010,17930010,17930010
20392682,2358784,18148636,20042367,20387832,20392558,20392558,20392682,68037,6412941,7727892,11684608,12479323,12766770,13054217,19147071,1142392,18726420,18808895,19147071,19147071,19147071,19147071,0,10303711,15613101,17642180,17929627,17929627,17929627
20392805,2358792,18148733,20042465,20387955,20392681,20392681,20392805,68034,6413009,7727968,11684646,12479361,12766811,13054261,19147307,1142401,18726679,18809119,19147307,19147307,19147307,19147307,0,10303899,15613322,17642391,17929841,17929841,17929841
20392791,2358816,18148704,20042472,20387936,20392667,20392667,20392791,68036,6413003,7727965,11684645,12479360,12766811,13054262,19147260,1142405,18726616,18809078,19147260,19147260,19147260,19147260,0,10303826,15613277,17642351,17929802,17929802,17929802
19933408,2196328,17824976,19558768,19906227,19927124,19927125,19927248,60733,6162713,7631709,11523126,12421430,12690593,12959756,18597563,1066762,18147584,18235706,18591403,18597563,18597563,18597563,0,9697756,15069352,17109592,17457551,17457551,17457551
19838895,2132450,17778503,19468002,19813080,19834921,19834924,19835014,61446,6142260,7684921,11609032,12567794,12828697,13089600,18495642,1035573,18047204,18132577,18491761,18495642,18495642,18495642,0,9432099,14959772,17022465,17390628,17390628,17390628
19829687,2126498,17794187,19460968,19804740,19827351,19827354,19827475,61134,6145248,7722441,11654897,12643227,12901459,13159691,18508493,1026079,18060805,18144855,18506281,18508493,18508493,18508493,0,9348776,14963595,17037025,17414777,17414777,17414777
19830043,2126843,17797973,19461258,19805305,19827749,19827761,19827853,61121,6143811,7721082,11654529,12643839,12901994,13160149,18504433,1026302,18056606,18141075,18502243,18504433,18504433,18504433,0,9348261,14962569,17033264,17411055,17411055,17411055
19904192,2171061,17787025,19528233,19878064,19897671,19897674,19897796,61601,6157570,7630934,11541211,12446335,12713457,12980579,18532722,1058473,18084180,18171952,18526329,18532722,18532722,18532722,0,9632359,15010525,17052980,17401354,17401354,17401354
19311585,1712400,17642897,19030594,19298971,19308130,19308156,19308252,49341,8757160,9815081,12811827,13456318,13667428,13878493,18297224,837456,17966371,18030792,18294076,18297115,18297115,18297115,0,11560503,15614120,17161853,17403226,17403228,17403228
27961219,94,27476691,27574756,27890150,27960312,27960324,27960331,0,294522,501407,807453,879891,879999,879999,3187866,1,3109802,3125948,3182220,3187496,3187496,3187496,0,2861099,2926994,2978983,2992049,2992050,2992050
28700268,0,28217387,28299758,28630890,28700268,28700268,28700268,0,67057,272321,600269,670568,670568,670568,2548166,0,2475651,2482939,2545845,2548166,2548166,2548166,0,2212881,2279938,2341318,2346995,2346995,2346995
28704219,0,28231713,28302290,28636637,28704219,28704219,28704219,0,67065,269269,602612,670657,670657,670657,2548501,0,2480232,2481901,2547984,2548501,2548501,2548501,0,2213173,2280238,2345864,2347304,2347304,2347304
28705567,0,28236082,28303152,28638497,28705567,28705567,28705567,0,67070,268279,603624,670693,670693,670693,2548629,0,2481560,2481560,2548629,2548629,2548629,2548629,0,2213282,2280352,2347421,2347421,2347421,2347421
28705567,0,28236084,28303153,28638498,28705567,28705567,28705567,0,67069,268276,603621,670690,670690,670690,2548622,0,2481553,2481553,2548622,2548622,2548622,2548622,0,2213277,2280346,2347415,2347415,2347415,2347415
28705331,0,28235463,28303012,28638204,28705331,28705331,28705331,0,67068,268351,603478,670684,670684,670684,2548584,0,2481375,2481609,2548525,2548584,2548584,2548584,0,2213244,2280312,2347198,2347380,2347380,2347380
28704976,0,28234286,28302778,28637709,28704976,28704976,28704976,0,67068,268588,603292,670678,670678,670678,2548584,0,2481045,2481724,2548385,2548584,2548584,2548584,0,2213244,2280312,2346811,2347380,2347380,2347380
28666231,18,28175806,28270089,28595893,28666042,28666043,28666043,0,67154,272832,590408,671175,671187,671187,2547869,7,2473697,2486978,2544699,2547803,2547803,2547803,0,2211787,2278987,2313258,2346749,2346749,2346749
28658273,0,28179685,28259252,28590179,28658273,28658273,28658273,0,67029,270837,597547,670292,670292,670292,2547102,0,2477302,2483228,2546037,2547102,2547102,2547102,0,2211957,2278986,2304556,2346015,2346015,2346015
28660459,0,28187172,28259122,28593114,28660459,28660459,28660459,0,67050,268668,601756,670498,670498,670498,2547900,0,2479681,2481811,2547605,2547900,2547900,2547900,0,2212650,2279700,2315377,2346750,2346750,2346750
28657716,0,28187917,28255031,28590602,28657716,28657716,28657716,0,67114,268456,604027,671141,671141,671141,2550332,0,2483218,2483218,2550332,2550332,2550332,2550332,0,2214762,2281876,2348990,2348990,2348990,2348990
28657718,0,28187920,28255034,28590604,28657718,28657718,28657718,0,67114,268456,604026,671140,671140,671140,2550332,0,2483218,2483218,2550332,2550332,2550332,2550332,0,2214762,2281876,2348990,2348990,2348990,2348990
28661912,0,28191164,28259815,28594832,28661912,28661912,28661912,0,67053,268241,603414,670531,670531,670531,2548014,0,2480559,2481183,2547987,2548014,2548014,2548014,0,2212749,2279802,2316798,2346855,2346855,2346855
28660564,0,28190886,28258209,28593479,28660564,28660564,28660564,0,67071,268295,603533,670713,670713,670713,2548721,0,2481603,2481721,2548707,2548721,2548721,2548721,0,2213363,2280434,2326239,2347506,2347506,2347506
28652571,8,28175261,28254058,28585011,28652567,28652567,28652567,0,67097,268854,596771,670977,670986,670986,2547415,7,2478502,2483969,2546870,2547414,2547414,2547414,0,2211480,2278591,2297095,2346329,2346329,2346329
28626324,0,28147579,28229669,28559167,28626324,28626324,28626324,0,67028,270226,593600,670280,670280,670280,2547047,0,2478630,2485532,2546918,2547047,2547047,2547047,0,2211907,2278935,2292397,2345963,2345963,2345963
28632300,0,28156912,28232977,28565178,28632300,28632300,28632300,0,67045,268389,598474,670447,670447,670447,2547701,0,2479568,2483603,2547624,2547701,2547701,2547701,0,2212479,2279524,2302028,2346568,2346568,2346568
28657619,0,28187820,28254936,28590505,28657619,28657619,28657619,0,67114,268456,604026,671139,671139,671139,2550332,0,2483217,2483218,2550332,2550332,2550332,2550332,0,2214762,2281876,2348811,2348990,2348990,2348990
28657716,0,28187917,28255031,28590602,28657716,28657716,28657716,0,67114,268456,604026,671141,671141,671141,2550332,0,2483218,2483218,2550332,2550332,2550332,2550332,0,2214762,2281876,2348990,2348990,2348990,2348990
28653930,0,28183105,28251401,28586812,28653930,28653930,28653930,0,67104,268440,603907,671043,671043,671043,2549955,0,2482519,2482946,2549941,2549955,2549955,2549955,0,2214432,2281536,2341568,2348641,2348641,2348641
28632170,0,28162218,28229942,28565101,28632170,28632170,28632170,0,67054,268221,603395,670536,670536,670536,2548049,0,2480830,2481090,2548034,2548049,2548049,2548049,0,2212782,2279836,2302175,2346889,2346889,2346889
28638772,0,28167112,28237115,28571670,28638772,28638772,28638772,0,67066,268391,602525,670661,670661,670661,2548508,0,2480949,2482182,2548472,2548508,2548508,2548508,0,2213178,2280244,2313419,2347310,2347310,2347310
28629775,8,28150903,28233646,28562669,28629771,28629771,28629771,0,67113,268303,594728,671136,671145,671145,2548020,7,2479763,2487037,2547945,2548019,2548019,2548019,0,2212005,2279132,2299672,2346886,2346886,2346886
28626617,0,28152704,28226934,28559554,28626617,28626617,28626617,0,67036,268175,599961,670361,670361,670361,2547368,0,2479635,2482866,2547341,2547368,2547368,2547368,0,2212188,2279224,2292864,2346260,2346260,2346260
28649199,0,28176887,28247324,28582076,28649199,28649199,28649199,0,67092,268447,603071,670923,670923,670923,2549529,0,2481750,2483114,2549498,2549529,2549529,2549529,0,2214066,2281158,2333275,2348251,2348251,2348251
28657719,0,28187919,28255034,28590604,28657719,28657719,28657719,0,67115,268459,604029,671143,671143,671143,2550337,0,2483223,2483223,2550337,2550337,2550337,2550337,0,2214765,2281880,2348994,2348994,2348994,2348994
28657717,0,28187919,28255033,28590603,28657717,28657717,28657717,0,67114,268456,604026,671140,671140,671140,2550332,0,2483218,2483218,2550332,2550332,2550332,2550332,0,2214762,2281876,2348990,2348990,2348990,2348990
28629903,0,28159179,28227725,28562839,28629903,28629903,28629903,0,67048,268209,603404,670487,670487,670487,2547854,0,2480388,2480920,2547838,2547854,2547854,2547854,0,2212611,2279659,2298225,2346708,2346708,2346708
28650113,0,28178802,28247826,28582999,28650113,28650113,28650113,0,67096,268393,603581,670956,670956,670956,2549618,0,2482071,2482810,2549600,2549618,2549618,2549618,0,2214141,2281237,2335130,2348332,2348332,2348332
28623595,8,28147724,28225560,28556534,28623591,28623591,28623591,0,67109,268235,598014,671097,671106,671106,2547868,7,2479974,2484960,2547834,2547867,2547867,2547867,0,2211873,2278996,2288929,2346746,2346746,2346746
28630180,0,28155129,28229988,28563093,28630180,28630180,28630180,0,67045,268205,600747,670454,670454,670454,2547745,0,2479465,2482779,2547703,2547745,2547745,2547745,0,2212517,2279562,2301044,2346608,2346608,2346608
28636866,0,28164224,28235302,28569771,28636866,28636866,28636866,0,67064,268322,602585,670635,670635,670635,2548397,0,2480512,2482151,2548366,2548397,2548397,2548397,0,2213080,2280144,2310901,2347207,2347207,2347207
28657715,0,28187917,28255031,28590601,28657715,28657715,28657715,0,67114,268456,604027,671141,671141,671141,2550332,0,2483218,2483218,2550332,2550332,2550332,2550332,0,2214762,2281876,2348990,2348990,2348990,2348990
28657718,0,28187919,28255033,28590604,28657718,28657718,28657718,0,67114,268456,604026,671140,671140,671140,2550332,0,2483218,2483218,2550332,2550332,2550332,2550332,0,2214762,2281876,2348990,2348990,2348990,2348990
28643385,0,28172744,28240940,28576296,28643385,28643385,28643385,0,67080,268323,603699,670801,670801,670801,2549040,0,2481605,2481996,2549031,2549040,2549040,2549040,0,2213640,2280720,2322664,2347800,2347800,2347800
28642494,0,28172447,28240047,28575406,28642494,28642494,28642494,0,67079,268317,603683,670786,670786,670786,2549002,0,2481757,2481946,2548993,2549002,2549002,2549002,0,2213607,2280686,2321110,2347765,2347765,2347765
28630786,8,28157830,28229836,28563712,28630782,28630782,28630782,0,67130,268312,601991,671307,671316,671316,2548666,7,2480829,2482948,2548640,2548665,2548665,2548665,0,2212566,2279710,2300649,2347481,2347481,2347481
28627013,0,28152481,28226574,28559940,28627013,28627013,28627013,0,67037,268157,601317,670372,670372,670372,2547406,0,2479186,2482154,2547370,2547406,2547406,2547406,0,2212221,2279258,2294262,2346295,2346295,2346295
28631976,0,28158444,28230935,28564900,28631976,28631976,28631976,0,67051,268267,602020,670509,670509,670509,2547938,0,2479891,2482151,2547913,2547938,2547938,2547938,0,2212683,2279734,2301757,2346785,2346785,2346785
28654482,0,28183702,28251870,28587371,28654482,28654482,28654482,0,67106,268427,603933,671063,671063,671063,2550028,0,2482583,2482949,2550023,2550028,2550028,2550028,0,2214498,2281604,2343071,2348710,2348710,2348710
28657718,0,28187920,28255034,28590604,28657718,28657718,28657718,0,67114,268456,604026,671140,671140,671140,2550332,0,2483218,2483218,2550332,2550332,2550332,2550332,0,2214762,2281876,2348990,2348990,2348990,2348990
28656921,0,28186881,28254258,28589805,28656921,28656921,28656921,0,67113,268453,604008,671126,671126,671126,2550294,0,2483095,2483191,2550290,2550294,2550294,2550294,0,2214729,2281842,2347551,2348955,2348955,2348955
28628845,0,28158234,28226601,28561788,28628845,28628845,28628845,0,67046,268187,603394,670462,670462,670462,2547748,0,2480277,2480737,2547738,2547748,2547748,2547748,0,2212518,2279564,2296238,2346610,2346610,2346610
28641700,0,28170918,28239335,28574614,28641700,28641700,28641700,0,67076,268305,603589,670762,670762,670762,2548888,0,2481419,2481905,2548878,2548888,2548888,2548888,0,2213508,2280584,2319726,2347660,2347660,2347660
28630848,8,28156781,28229647,28563762,28630844,28630844,28630844,0,67127,268306,602435,671277,671286,671286,2548552,7,2480242,2482568,2548511,2548551,2548551,2548551,0,2212467,2279608,2300299,2347376,2347376,2347376
28627974,0,28156072,28226013,28560921,28627974,28627974,28627974,0,67042,268172,603086,670419,670419,670419,2547596,0,2479774,2480844,2547585,2547596,2547596,2547596,0,2212386,2279428,2293733,2346470,2346470,2346470
28645747,0,28174148,28243324,28578644,28645747,28645747,28645747,0,67085,268405,603698,670854,670854,670854,2549233,0,2481490,2482236,2549215,2549233,2549233,2549233,0,2213805,2280890,2326765,2347976,2347976,2347976
28657724,0,28187926,28255040,28590610,28657724,28657724,28657724,0,67114,268456,604026,671140,671140,671140,2550355,0,2483241,2483241,2550355,2550355,2550355,2550355,0,2214785,2281899,2349013,2349013,2349013,2349013
28657721,0,28187921,28255036,28590606,28657721,28657721,28657721,0,67115,268459,604029,671143,671143,671143,2550344,0,2483230,2483230,2550344,2550344,2550344,2550344,0,2214772,2281887,2349001,2349001,2349001,2349001
28633686,0,28163006,28231377,28566617,28633686,28633686,28633686,0,67057,268232,603500,670574,670574,670574,2548166,0,2480684,2481146,2548154,2548166,2548166,2548166,0,2212881,2279938,2305016,2346995,2346995,2346995
28649876,0,28179643,28247316,28582779,28649876,28649876,28649876,0,67096,268384,603852,670957,670957,670957,2549648,0,2482368,2482565,2549647,2549648,2549648,2549648,0,2214168,2281264,2334591,2348360,2348360,2348360
28625602,8,28153721,28223583,28558548,28625598,28625598,28625598,0,67118,268263,603283,671187,671196,671196,2548210,7,2480340,2481363,2548192,2548209,2548209,2548209,0,2212170,2279302,2289884,2347061,2347061,2347061
28628223,0,28155933,28226097,28561149,28628223,28628223,28628223,0,67042,268179,603283,670426,670426,670426,2547611,0,2479592,2480698,2547579,2547611,2547611,2547611,0,2212398,2279440,2295902,2346483,2346483,2346483
28638158,0,28166628,28235825,28571077,28638158,28638158,28638158,0,67066,268329,603573,670660,670660,670660,2548515,0,2480766,2481512,2548500,2548515,2548515,2548515,0,2213185,2280251,2312066,2347317,2347317,2347317
28657721,0,28187921,28255036,28590606,28657721,28657721,28657721,0,67115,268459,604029,671143,671143,671143,2550348,0,2483234,2483234,2550348,2550348,2550348,2550348,0,2214776,2281891,2349005,2349005,2349005,2349005
28657718,0,28187920,28255034,28590604,28657718,28657718,28657718,0,67114,268456,604026,671140,671140,671140,2550332,0,2483218,2483218,2550332,2550332,2550332,2550332,0,2214762,2281876,2348990,2348990,2348990,2348990
28647182,0,28176709,28244677,28580088,28647182,28647182,28647182,0,67089,268359,603794,670891,670891,670891,2549382,0,2482012,2482323,2549377,2549382,2549382,2549382,0,2213937,2281026,2329580,2348115,2348115,2348115
28638879,0,28169041,28236467,28571805,28638879,28638879,28638879,0,67070,268281,603626,670699,670699,670699,2548660,0,2481474,2481597,2548656,2548660,2548660,2548660,0,2213310,2280380,2314511,2347450,2347450,2347450
28634136,8,28163156,28231845,28567064,28634132,28634132,28634132,0,67139,268347,603622,671400,671409,671409,2549008,7,2481426,2481997,2548993,2549007,2549007,2549007,0,2212863,2280016,2306122,2347796,2347796,2347796
28654074,0,28180863,28251808,28586996,28654074,28654074,28654074,0,67058,268239,603498,670579,670579,670579,2548204,0,2479893,2481227,2548184,2548204,2548204,2548204,0,2212914,2279972,2317441,2347030,2347030,2347030
28670058,0,28197373,28267672,28602979,28670058,28670058,28670058,0,67073,268298,603640,670735,670735,670735,2548783,0,2480666,2481764,2548777,2548783,2548783,2548783,0,2213415,2280488,2332267,2347562,2347562,2347562
28657712,0,28185614,28255158,28590602,28657712,28657712,28657712,0,67104,268478,603927,671035,671035,671035,2549943,0,2482067,2482907,2549937,2549943,2549943,2549943,0,2214426,2281530,2342963,2348633,2348633,2348633
28657718,0,28187920,28255034,28590604,28657718,28657718,28657718,0,67114,268456,604026,671140,671140,671140,2550332,0,2483218,2483218,2550332,2550332,2550332,2550332,0,2214762,2281876,2348990,2348990,2348990,2348990
28657715,0,28187916,28255030,28590601,28657715,28657715,28657715,0,67114,268456,604027,671141,671141,671141,2550332,0,2483218,2483218,2550332,2550332,2550332,2550332,0,2214762,2281876,2348990,2348990,2348990,2348990
28690565,0,28218521,28288136,28623481,28690565,28690565,28690565,0,67078,268316,603692,670777,670777,670777,2548964,0,2481058,2481922,2548958,2548964,2548964,2548964,0,2213574,2280652,2344723,2347730,2347730,2347730
28665325,0,28191485,28262770,28598227,28665325,28665325,28665325,0,67095,268381,603851,670954,670954,670954,2549610,0,2481129,2482534,2549607,2549610,2549610,2549610,0,2214135,2281230,2342400,2348325,2348325,2348325
28663148,8,28171167,28260873,28596066,28663144,28663144,28663144,0,67146,268380,603695,671465,671474,671474,2549274,7,2474715,2482309,2549256,2549273,2549273,2549273,0,2213094,2280254,2325233,2348041,2348041,2348041
28659006,0,28179373,28256485,28591904,28659006,28659006,28659006,0,67098,268397,603862,670978,670978,670978,2549724,0,2479326,2482691,2549720,2549724,2549724,2549724,0,2214234,2281332,2341384,2348430,2348430,2348430
28659416,0,28187257,28256841,28592305,28659416,28659416,28659416,0,67108,268497,603976,671087,671087,671087,2550118,0,2482236,2483087,2550115,2550118,2550118,2550118,0,2214575,2281683,2346888,2348792,2348792,2348792
28657725,0,28187927,28255041,28590611,28657725,28657725,28657725,0,67115,268458,604028,671142,671142,671142,2550354,0,2483240,2483240,2550354,2550354,2550354,2550354,0,2214784,2281898,2349012,2349012,2349012,2349012
28657718,0,28187918,28255033,28590603,28657718,28657718,28657718,0,67114,268457,604027,671141,671141,671141,2550334,0,2483220,2483220,2550334,2550334,2550334,2550334,0,2214762,2281877,2348991,2348991,2348991,2348991
28659573,0,28189533,28256932,28592458,28659573,28659573,28659573,0,67112,268452,604006,671121,671121,671121,2550256,0,2483070,2483176,2550253,2550256,2550256,2550256,0,2214696,2281808,2348817,2348920,2348920,2348920
28657700,0,28187746,28255018,28590586,28657700,28657700,28657700,0,67114,268456,604025,671139,671139,671139,2550332,0,2483166,2483219,2550332,2550332,2550332,2550332,0,2214762,2281876,2348867,2348990,2348990,2348990
28662367,8,28179824,28259861,28595265,28662363,28662363,28662363,0,67176,268495,603978,671768,671777,671777,2550414,7,2479037,2483371,2550406,2550413,2550413,2550413,0,2214084,2281274,2341060,2349091,2349091,2349091
28656761,0,28174269,28254300,28589656,28656761,28656761,28656761,0,67099,268406,603870,670990,670990,670990,2549762,0,2478437,2482796,2549756,2549762,2549762,2549762,0,2214267,2281366,2342121,2348465,2348465,2348465
28657913,0,28183110,28255355,28590800,28657913,28657913,28657913,0,67109,268501,603979,671091,671091,671091,2550142,0,2481383,2483130,2550138,2550142,2550142,2550142,0,2214597,2281706,2346363,2348815,2348815,2348815
28657718,0,28187920,28255034,28590604,28657718,28657718,28657718,0,67114,268456,604026,671140,671140,671140,2550332,0,2483218,2483218,2550332,2550332,2550332,2550332,0,2214762,2281876,2348990,2348990,2348990,2348990
28657715,0,28187916,28255030,28590601,28657715,28657715,28657715,0,67114,268456,604027,671141,671141,671141,2550332,0,2483218,2483218,2550332,2550332,2550332,2550332,0,2214762,2281876,2348990,2348990,2348990,2348990
28657734,0,28187854,28255078,28590620,28657734,28657734,28657734,0,67114,268459,604026,671140,671140,671140,2550332,0,2483200,2483246,2550332,2550332,2550332,2550332,0,2214762,2281876,2348970,2348990,2348990,2348990
28657767,0,28187849,28255089,28590653,28657767,28657767,28657767,0,67114,268457,604026,671140,671140,671140,2550332,0,2483181,2483224,2550332,2550332,2550332,2550332,0,2214762,2281876,2348947,2348990,2348990,2348990
28657787,0,28185886,28255154,28590673,28657787,28657787,28657787,0,67112,268451,604005,671119,671119,671119,2550256,0,2482454,2483182,2550254,2550256,2550256,2550256,0,2214696,2281808,2347917,2348920,2348920,2348920
28654409,8,28170006,28251943,28587302,28654405,28654405,28654405,0,67181,268519,604023,671819,671828,671828,2550604,7,2478634,2483627,2550596,2550603,2550603,2550603,0,2214249,2281444,2342005,2349266,2349266,2349266
28656976,0,28181215,28254368,28589865,28656976,28656976,28656976,0,67110,268444,603973,671098,671098,671098,2550180,0,2481085,2483120,2550179,2550180,2550180,2550180,0,2214630,2281740,2346174,2348850,2348850,2348850
28657537,0,28186310,28254940,28590422,28657537,28657537,28657537,0,67113,268516,604015,671130,671130,671130,2550294,0,2482728,2483262,2550292,2550294,2550294,2550294,0,2214729,2281842,2348374,2348955,2348955,2348955
28657715,0,28187916,28255030,28590601,28657715,28657715,28657715,0,67114,268456,604027,671141,671141,671141,2550332,0,2483218,2483218,2550332,2550332,2550332,2550332,0,2214762,2281876,2348990,2348990,2348990,2348990
28657718,0,28187920,28255034,28590604,28657718,28657718,28657718,0,67114,268456,604026,671140,671140,671140,2550332,0,2483218,2483218,2550332,2550332,2550332,2550332,0,2214762,2281876,2348990,2348990,2348990,2348990
28657695,0,28187759,28255044,28590581,28657695,28657695,28657695,0,67114,268460,604026,671140,671140,671140,2550332,0,2483183,2483251,2550332,2550332,2550332,2550332,0,2214762,2281876,2348949,2348990,2348990,2348990
28657666,0,28187363,28255002,28590550,28657666,28657666,28657666,0,67114,268457,604022,671138,671138,671138,2550332,0,2483056,2483236,2550330,2550332,2550332,2550332,0,2214762,2281876,2348792,2348990,2348990,2348990
28654982,8,28171866,28252470,28587871,28654978,28654978,28654978,0,67186,268538,604069,671867,671876,671876,2550794,7,2479253,2483794,2550787,2550793,2550793,2550793,0,2214414,2281614,2343055,2349441,2349441,2349441
28655690,0,28180867,28253125,28588580,28655690,28655690,28655690,0,67108,268439,603955,671081,671081,671081,2550104,0,2481331,2483080,2550102,2550104,2550104,2550104,0,2214564,2281672,2346657,2348780,2348780,2348780
28657464,0,28186187,28254868,28590349,28657464,28657464,28657464,0,67113,268516,604016,671131,671131,671131,2550294,0,2482712,2483264,2550292,2550294,2550294,2550294,0,2214729,2281842,2348390,2348955,2348955,2348955
28657716,0,28187918,28255032,28590602,28657716,28657716,28657716,0,67114,268456,604026,671140,671140,671140,2550332,0,2483218,2483218,2550332,2550332,2550332,2550332,0,2214762,2281876,2348990,2348990,2348990,2348990
28657717,0,28187918,28255032,28590603,28657717,28657717,28657717,0,67114,268456,604026,671141,671141,671141,2550332,0,2483218,2483218,2550332,2550332,2550332,2550332,0,2214762,2281876,2348990,2348990,2348990,2348990
28657694,0,28187810,28255042,28590580,28657694,28657694,28657694,0,67114,268460,604026,671140,671140,671140,2550332,0,2483200,2483250,2550332,2550332,2550332,2550332,0,2214762,2281876,2348968,2348990,2348990,2348990
28657712,0,28187876,28255028,28590598,28657712,28657712,28657712,0,67114,268457,604029,671143,671143,671143,2550337,0,2483210,2483223,2550337,2550337,2550337,2550337,0,2214764,2281878,2348980,2348993,2348993,2348993
28656173,8,28180494,28253575,28589056,28656169,28656169,28656169,0,67192,268558,604117,671921,671930,671930,2551017,7,2481946,2483958,2551010,2551016,2551016,2551016,0,2214610,2281816,2346574,2349648,2349648,2349648
28654912,0,28177002,28252400,28587803,28654912,28654912,28654912,0,67106,268434,603937,671061,671061,671061,2550028,0,2480240,2483047,2550025,2550028,2550028,2550028,0,2214498,2281604,2345332,2348710,2348710,2348710
28656867,0,28182906,28254298,28589753,28656867,28656867,28656867,0,67112,268513,604003,671118,671118,671118,2550256,0,2481781,2483244,2550253,2550256,2550256,2550256,0,2214696,2281808,2347230,2348920,2348920,2348920
28657718,0,28187919,28255033,28590603,28657718,28657718,28657718,0,67114,268456,604026,671140,671140,671140,2550332,0,2483218,2483218,2550332,2550332,2550332,2550332,0,2214762,2281876,2348990,2348990,2348990,2348990
28657715,0,28187916,28255030,28590601,28657715,28657715,28657715,0,67114,268456,604027,671141,671141,671141,2550332,0,2483218,2483218,2550332,2550332,2550332,2550332,0,2214762,2281876,2348990,2348990,2348990,2348990
28657703,0,28187855,28255045,28590589,28657703,28657703,28657703,0,67114,268459,604026,671140,671140,671140,2550332,0,2483210,2483244,2550332,2550332,2550332,2550332,0,2214762,2281876,2348981,2348990,2348990,2348990
28657704,0,28187842,28255027,28590590,28657704,28657704,28657704,0,67114,268457,604026,671140,671140,671140,2550332,0,2483199,2483225,2550332,2550332,2550332,2550332,0,2214762,2281876,2348970,2348990,2348990,2348990
28657455,0,28186658,28254801,28590340,28657455,28657455,28657455,0,67113,268454,604017,671132,671132,671132,2550294,0,2482857,2483207,2550292,2550294,2550294,2550294,0,2214729,2281842,2348577,2348955,2348955,2348955
28654038,8,28173729,28251536,28586926,28654034,28654034,28654034,0,67186,268540,604067,671868,671877,671877,2550794,7,2480191,2483805,2550786,2550793,2550793,2550793,0,2214414,2281614,2344502,2349441,2349441,2349441
28656867,0,28182925,28254243,28589754,28656867,28656867,28656867,0,67112,268452,603991,671118,671118,671118,2550256,0,2481769,2483189,2550255,2550256,2550256,2550256,0,2214696,2281808,2347244,2348920,2348920,2348920
28657488,0,28186640,28254887,28590373,28657488,28657488,28657488,0,67113,268516,604016,671132,671132,671132,2550294,0,2482855,2483261,2550292,2550294,2550294,2550294,0,2214729,2281842,2348583,2348955,2348955,2348955
28657724,0,28187925,28255039,28590610,28657724,28657724,28657724,0,67114,268457,604029,671143,671143,671143,2550349,0,2483234,2483234,2550349,2550349,2550349,2550349,0,2214776,2281890,2349005,2349005,2349005,2349005
28657724,0,28187925,28255040,28590610,28657724,28657724,28657724,0,67115,268459,604029,671143,671143,671143,2550353,0,2483239,2483239,2550353,2550353,2550353,2550353,0,2214781,2281896,2349010,2349010,2349010,2349010
28657695,0,28187825,28255042,28590580,28657695,28657695,28657695,0,67114,268460,604026,671140,671140,671140,2550332,0,2483205,2483250,2550332,2550332,2550332,2550332,0,2214762,2281876,2348976,2348990,2348990,2348990
28657634,0,28187454,28254969,28590519,28657634,28657634,28657634,0,67113,268454,604021,671137,671137,671137,2550312,0,2483077,2483216,2550310,2550312,2550312,2550312,0,2214744,2281857,2348839,2348971,2348971,2348971
28655437,8,28176724,28252855,28588323,28655433,28655433,28655433,0,67190,268551,604102,671903,671912,671912,2550928,7,2480844,2483877,2550922,2550927,2550927,2550927,0,2214531,2281735,2345308,2349565,2349565,2349565
28655625,0,28181422,28253073,28588513,28655625,28655625,28655625,0,67109,268444,603962,671089,671089,671089,2550142,0,2481584,2483134,2550139,2550142,2550142,2550142,0,2214597,2281706,2347076,2348815,2348815,2348815
28657325,0,28185672,28254731,28590210,28657325,28657325,28657325,0,67113,268517,604015,671130,671130,671130,2550294,0,2482587,2483265,2550292,2550294,2550294,2550294,0,2214729,2281842,2348274,2348955,2348955,2348955
28657715,0,28187916,28255030,28590601,28657715,28657715,28657715,0,67114,268456,604027,671141,671141,671141,2550332,0,2483218,2483218,2550332,2550332,2550332,2550332,0,2214762,2281876,2348990,2348990,2348990,2348990
28657718,0,28187920,28255034,28590604,28657718,28657718,28657718,0,67114,268456,604026,671140,671140,671140,2550332,0,2483218,2483218,2550332,2550332,2550332,2550332,0,2214762,2281876,2348990,2348990,2348990,2348990
28657699,0,28187856,28255040,28590585,28657699,28657699,28657699,0,67114,268459,604026,671141,671141,671141,2550332,0,2483212,2483244,2550332,2550332,2550332,2550332,0,2214762,2281876,2348983,2348990,2348990,2348990
28657706,0,28187853,28255029,28590592,28657706,28657706,28657706,0,67114,268457,604026,671140,671140,671140,2550332,0,2483202,2483225,2550332,2550332,2550332,2550332,0,2214762,2281876,2348974,2348990,2348990,2348990
28656555,8,28183123,28253935,28589437,28656551,28656551,28656551,0,67193,268563,604131,671936,671945,671945,2551060,7,2482737,2483986,2551053,2551059,2551059,2551059,0,2214645,2281852,2347584,2349686,2349686,2349686
28655266,0,28179114,28252727,28588155,28655266,28655266,28655266,0,67108,268441,603967,671078,671078,671078,2550104,0,2480897,2483103,2550101,2550104,2550104,2550104,0,2214564,2281672,2346329,2348780,2348780,2348780
28656730,0,28182456,28254153,28589617,28656730,28656730,28656730,0,67111,268507,603985,671114,671114,671114,2550220,0,2481639,2483201,2550218,2550220,2550220,2550220,0,2214663,2281774,2347149,2348885,2348885,2348885
28657709,0,28187843,28255039,28590594,28657709,28657709,28657709,0,67114,268460,604027,671142,671142,671142,2550345,0,2483212,2483245,2550344,2550345,2550345,2550345,0,2214774,2281888,2348985,2349003,2349003,2349003
28657725,0,28187927,28255041,28590611,28657725,28657725,28657725,0,67115,268459,604029,671143,671143,671143,2550355,0,2483241,2483241,2550355,2550355,2550355,2550355,0,2214783,2281898,2349012,2349012,2349012,2349012
28657710,0,28187890,28255036,28590595,28657710,28657710,28657710,0,67114,268457,604026,671140,671140,671140,2550332,0,2483216,2483229,2550332,2550332,2550332,2550332,0,2214762,2281876,2348987,2348990,2348990,2348990
28657694,0,28187817,28255032,28590580,28657694,28657694,28657694,0,67114,268459,604026,671140,671140,671140,2550332,0,2483198,2483240,2550332,2550332,2550332,2550332,0,2214762,2281876,2348970,2348990,2348990,2348990
28657649,0,28187534,28254982,28590533,28657649,28657649,28657649,0,67114,268457,604024,671140,671140,671140,2550332,0,2483119,2483235,2550330,2550332,2550332,2550332,0,2214762,2281876,2348883,2348990,2348990,2348990
28654229,8,28175381,28251710,28587116,28654225,28654225,28654225,0,67187,268545,604076,671877,671886,671886,2550832,7,2480717,2483830,2550824,2550831,2550831,2550831,0,2214447,2281648,2345286,2349476,2349476,2349476
28656952,0,28183651,28254324,28589839,28656952,28656952,28656952,0,67112,268452,603993,671121,671121,671121,2550256,0,2481985,2483189,2550255,2550256,2550256,2550256,0,2214696,2281808,2347554,2348920,2348920,2348920
28657512,0,28186839,28254910,28590397,28657512,28657512,28657512,0,67113,268516,604017,671133,671133,671133,2550294,0,2482913,2483260,2550292,2550294,2550294,2550294,0,2214729,2281842,2348656,2348955,2348955,2348955
28657724,0,28187925,28255039,28590610,28657724,28657724,28657724,0,67114,268457,604029,671143,671143,671143,2550349,0,2483234,2483234,2550349,2550349,2550349,2550349,0,2214776,2281890,2349005,2349005,2349005,2349005
28657724,0,28187925,28255040,28590610,28657724,28657724,28657724,0,67115,268459,604029,671143,671143,671143,2550353,0,2483239,2483239,2550353,2550353,2550353,2550353,0,2214781,2281896,2349010,2349010,2349010,2349010
28657695,0,28187831,28255042,28590580,28657695,28657695,28657695,0,67114,268460,604026,671140,671140,671140,2550332,0,2483207,2483250,2550332,2550332,2550332,2550332,0,2214762,2281876,2348978,2348990,2348990,2348990
28657692,0,28187791,28255018,28590576,28657692,28657692,28657692,0,67114,268456,604024,671140,671140,671140,2550332,0,2483186,2483228,2550330,2550332,2550332,2550332,0,2214762,2281876,2348956,2348990,2348990,2348990
28655895,8,28179475,28253288,28588781,28655891,28655891,28655891,0,67191,268555,604116,671918,671927,671927,2550984,7,2481664,2483915,2550979,2550983,2550983,2550983,0,2214579,2281784,2346375,2349616,2349616,2349616
28655543,0,28180974,28252987,28588431,28655543,28655543,28655543,0,67108,268443,603958,671086,671086,671086,2550129,0,2481447,2483116,2550125,2550129,2550129,2550129,0,2214586,2281694,2346971,2348803,2348803,2348803
28657372,0,28185974,28254769,28590256,28657372,28657372,28657372,0,67114,268520,604018,671133,671133,671133,2550307,0,2482684,2483270,2550305,2550307,2550307,2550307,0,2214740,2281854,2348395,2348967,2348967,2348967
28657715,0,28187916,28255030,28590601,28657715,28657715,28657715,0,67114,268456,604027,671141,671141,671141,2550332,0,2483218,2483218,2550332,2550332,2550332,2550332,0,2214762,2281876,2348990,2348990,2348990,2348990
28657718,0,28187920,28255034,28590604,28657718,28657718,28657718,0,67114,268456,604026,671140,671140,671140,2550332,0,2483218,2483218,2550332,2550332,2550332,2550332,0,2214762,2281876,2348990,2348990,2348990,2348990
28657700,0,28187860,28255041,28590586,28657700,28657700,28657700,0,67114,268459,604027,671141,671141,671141,2550332,0,2483213,2483244,2550332,2550332,2550332,2550332,0,2214762,2281876,2348984,2348990,2348990,2348990
28657706,0,28187854,28255028,28590592,28657706,28657706,28657706,0,67114,268457,604026,671140,671140,671140,2550332,0,2483202,2483224,2550332,2550332,2550332,2550332,0,2214762,2281876,2348974,2348990,2348990,2348990
28656814,8,28184590,28254184,28589696,28656810,28656810,28656810,0,67193,268564,604135,671942,671951,671951,2551095,7,2483170,2484014,2551088,2551094,2551094,2551094,0,2214677,2281884,2348118,2349719,2349719,2349719
28655564,0,28180208,28252975,28588452,28655564,28655564,28655564,0,67109,268442,603973,671084,671084,671084,2550107,0,2481151,2483059,2550104,2550107,2550107,2550107,0,2214565,2281674,2346690,2348782,2348782,2348782
28657040,0,28183959,28254405,28589927,28657040,28657040,28657040,0,67112,268453,603992,671120,671120,671120,2550256,0,2482057,2483182,2550255,2550256,2550256,2550256,0,2214696,2281808,2347674,2348920,2348920,2348920
28657665,0,28187375,28255038,28590549,28657665,28657665,28657665,0,67114,268519,604023,671139,671139,671139,2550332,0,2483071,2483274,2550330,2550332,2550332,2550332,0,2214762,2281876,2348831,2348990,2348990,2348990
28657715,0,28187916,28255030,28590601,28657715,28657715,28657715,0,67114,268456,604027,671141,671141,671141,2550332,0,2483218,2483218,2550332,2550332,2550332,2550332,0,2214762,2281876,2348990,2348990,2348990,2348990
28657717,0,28187919,28255033,28590603,28657717,28657717,28657717,0,67114,268456,604026,671140,671140,671140,2550332,0,2483218,2483218,2550332,2550332,2550332,2550332,0,2214762,2281876,2348990,2348990,2348990,2348990
28657694,0,28187798,28255034,28590580,28657694,28657694,28657694,0,67114,268460,604027,671141,671141,671141,2550332,0,2483193,2483243,2550332,2550332,2550332,2550332,0,2214762,2281876,2348963,2348990,2348990,2348990
28657669,0,28187607,28254999,28590553,28657669,28657669,28657669,0,67114,268457,604023,671139,671139,671139,2550332,0,2483133,2483231,2550330,2550332,2550332,2550332,0,2214762,2281876,2348898,2348990,2348990,2348990
28656475,8,28181831,28253897,28589359,28656471,28656471,28656471,0,67190,268556,604105,671909,671918,671918,2550946,7,2482220,2483902,2550938,2550945,2550945,2550945,0,2214546,2281750,2347126,2349581,2349581,2349581
28657129,0,28185576,28254507,28590016,28657129,28657129,28657129,0,67112,268453,603989,671117,671117,671117,2550256,0,2482567,2483191,2550255,2550256,2550256,2550256,0,2214696,2281808,2348293,2348920,2348920,2348920
28657678,0,28187432,28255064,28590563,28657678,28657678,28657678,0,67113,268516,604018,671134,671134,671134,2550294,0,2483052,2483249,2550292,2550294,2550294,2550294,0,2214729,2281842,2348815,2348955,2348955,2348955
28657718,0,28187920,28255034,28590604,28657718,28657718,28657718,0,67114,268456,604026,671140,671140,671140,2550332,0,2483218,2483218,2550332,2550332,2550332,2550332,0,2214762,2281876,2348990,2348990,2348990,2348990
28657726,0,28187927,28255041,28590612,28657726,28657726,28657726,0,67114,268457,604029,671143,671143,671143,2550352,0,2483237,2483237,2550352,2550352,2550352,2550352,0,2214779,2281893,2349008,2349008,2349008,2349008
28657698,0,28187831,28255041,28590584,28657698,28657698,28657698,0,67114,268460,604026,671140,671140,671140,2550339,0,2483211,2483252,2550339,2550339,2550339,2550339,0,2214769,2281883,2348981,2348997,2348997,2348997
28657717,0,28187895,28255033,28590602,28657717,28657717,28657717,0,67115,268459,604029,671143,671143,671143,2550343,0,2483222,2483230,2550343,2550343,2550343,2550343,0,2214771,2281886,2348993,2349000,2349000,2349000
28657322,8,28185613,28254696,28590204,28657318,28657318,28657318,0,67193,268563,604134,671940,671949,671949,2551060,7,2483308,2483984,2551053,2551059,2551059,2551059,0,2214645,2281852,2348318,2349686,2349686,2349686
28656494,0,28185065,28253920,28589381,28656494,28656494,28656494,0,67110,268450,603972,671101,671101,671101,2550180,0,2482544,2483157,2550177,2550180,2550180,2550180,0,2214630,2281740,2348280,2348850,2348850,2348850
28657689,0,28187358,28255083,28590572,28657689,28657689,28657689,0,67114,268521,604022,671138,671138,671138,2550332,0,2483063,2483294,2550329,2550332,2550332,2550332,0,2214762,2281876,2348828,2348990,2348990,2348990
28657718,0,28187920,28255034,28590604,28657718,28657718,28657718,0,67114,268456,604026,671140,671140,671140,2550332,0,2483218,2483218,2550332,2550332,2550332,2550332,0,2214762,2281876,2348990,2348990,2348990,2348990
28657716,0,28187917,28255031,28590602,28657716,28657716,28657716,0,67114,268456,604027,671141,671141,671141,2550332,0,2483218,2483218,2550332,2550332,2550332,2550332,0,2214762,2281876,2348990,2348990,2348990,2348990
28657696,0,28187848,28255035,28590582,28657696,28657696,28657696,0,67114,268459,604026,671140,671140,671140,2550332,0,2483209,2483241,2550332,2550332,2550332,2550332,0,2214762,2281876,2348979,2348990,2348990,2348990
28657710,0,28187880,28255031,28590596,28657710,28657710,28657710,0,67114,268457,604026,671141,671141,671141,2550332,0,2483209,2483223,2550332,2550332,2550332,2550332,0,2214762,2281876,2348981,2348990,2348990,2348990
28657648,0,28187469,28254998,28590532,28657648,28657648,28657648,0,67114,268459,604022,671137,671137,671137,2550332,0,2483100,2483250,2550330,2550332,2550332,2550332,0,2214762,2281876,2348858,2348990,2348990,2348990
28656327,8,28185633,28253740,28589211,28656323,28656323,28656323,0,67191,268560,604116,671922,671931,671931,2550986,7,2483579,2483939,2550979,2550985,2550985,2550985,0,2214579,2281784,2348622,2349616,2349616,2349616
28657738,0,28187579,28255090,28590623,28657738,28657738,28657738,0,67114,268459,604008,671137,671137,671137,2550330,0,2483106,2483251,2550329,2550330,2550330,2550330,0,2214762,2281876,2348863,2348990,2348990,2348990
28657694,0,28187725,28255079,28590578,28657694,28657694,28657694,0,67114,268520,604023,671139,671139,671139,2550332,0,2483182,2483286,2550330,2550332,2550332,2550332,0,2214762,2281876,2348954,2348990,2348990,2348990
28657717,0,28187918,28255032,28590603,28657717,28657717,28657717,0,67114,268456,604027,671141,671141,671141,2550332,0,2483218,2483218,2550332,2550332,2550332,2550332,0,2214762,2281876,2348990,2348990,2348990,2348990
28657718,0,28187920,28255034,28590604,28657718,28657718,28657718,0,67114,268456,604026,671140,671140,671140,2550332,0,2483218,2483218,2550332,2550332,2550332,2550332,0,2214762,2281876,2348990,2348990,2348990,2348990
28657693,0,28187827,28255036,28590579,28657693,28657693,28657693,0,67114,268460,604026,671141,671141,671141,2550332,0,2483205,2483246,2550332,2550332,2550332,2550332,0,2214762,2281876,2348976,2348990,2348990,2348990
28657710,0,28187853,28255041,28590594,28657710,28657710,28657710,0,67114,268457,604024,671140,671140,671140,2550332,0,2483202,2483233,2550330,2550332,2550332,2550332,0,2214762,2281876,2348973,2348990,2348990,2348990
28656803,8,28186601,28254201,28589685,28656799,28656799,28656799,0,67193,268566,604131,671937,671946,671946,2551060,7,2483817,2484005,2551053,2551059,2551059,2551059,0,2214645,2281852,2348868,2349686,2349686,2349686
28657126,0,28187165,28254508,28590012,28657126,28657126,28657126,0,67113,268459,603998,671127,671127,671127,2550294,0,2483141,2483238,2550293,2550294,2550294,2550294,0,2214729,2281842,2348898,2348955,2348955,2348955
28657680,0,28187758,28255064,28590564,28657680,28657680,28657680,0,67114,268520,604024,671140,671140,671140,2550332,0,2483198,2483286,2550330,2550332,2550332,2550332,0,2214762,2281876,2348971,2348990,2348990,2348990
28657715,0,28187916,28255030,28590601,28657715,28657715,28657715,0,67114,268456,604027,671141,671141,671141,2550332,0,2483218,2483218,2550332,2550332,2550332,2550332,0,2214762,2281876,2348990,2348990,2348990,2348990
28657718,0,28187920,28255034,28590604,28657718,28657718,28657718,0,67114,268456,604026,671140,671140,671140,2550332,0,2483218,2483218,2550332,2550332,2550332,2550332,0,2214762,2281876,2348990,2348990,2348990,2348990
28657695,0,28187839,28255037,28590581,28657695,28657695,28657695,0,67114,268460,604027,671141,671141,671141,2550332,0,2483208,2483245,2550332,2550332,2550332,2550332,0,2214762,2281876,2348979,2348990,2348990,2348990
28657716,0,28187917,28255033,28590602,28657716,28657716,28657716,0,67114,268456,604026,671140,671140,671140,2550332,0,2483218,2483219,2550332,2550332,2550332,2550332,0,2214762,2281876,2348990,2348990,2348990,2348990
28657305,8,28187385,28254665,28590186,28657301,28657301,28657301,0,67195,268571,604149,671956,671965,671965,2551136,7,2483981,2484052,2551130,2551135,2551135,2551135,0,2214711,2281920,2349032,2349756,2349756,2349756
28656487,0,28186491,28253906,28589375,28656487,28656487,28656487,0,67111,268454,603982,671110,671110,671110,2550218,0,2483061,2483192,2550217,2550218,2550218,2550218,0,2214663,2281774,2348821,2348885,2348885,2348885
28657668,0,28187725,28255066,28590551,28657668,28657668,28657668,0,67114,268521,604023,671140,671140,671140,2550332,0,2483195,2483300,2550329,2550332,2550332,2550332,0,2214762,2281876,2348969,2348990,2348990,2348990
28657715,0,28187916,28255030,28590601,28657715,28657715,28657715,0,67114,268456,604027,671141,671141,671141,2550332,0,2483218,2483218,2550332,2550332,2550332,2550332,0,2214762,2281876,2348990,2348990,2348990,2348990
28657718,0,28187920,28255034,28590604,28657718,28657718,28657718,0,67114,268456,604026,671140,671140,671140,2550332,0,2483218,2483218,2550332,2550332,2550332,2550332,0,2214762,2281876,2348990,2348990,2348990,2348990
28657698,0,28187856,28255037,28590584,28657698,28657698,28657698,0,67114,268459,604026,671140,671140,671140,2550332,0,2483211,2483241,2550332,2550332,2550332,2550332,0,2214762,2281876,2348982,2348990,2348990,2348990
28657713,0,28187903,28255033,28590599,28657713,28657713,28657713,0,67114,268457,604026,671141,671141,671141,2550332,0,2483216,2483223,2550332,2550332,2550332,2550332,0,2214762,2281876,2348988,2348990,2348990,2348990
28657639,0,28187769,28254984,28590525,28657639,28657639,28657639,0,67114,268459,604026,671139,671139,671139,2550332,0,2483203,2483246,2550332,2550332,2550332,2550332,0,2214762,2281876,2348974,2348990,2348990,2348990
28656173,8,28186240,28253597,28589058,28656169,28656169,28656169,0,67192,268563,604124,671928,671937,671937,2551022,7,2483876,2483989,2551017,2551021,2551021,2551021,0,2214612,2281818,2348933,2349651,2349651,2349651
28657669,0,28187802,28255024,28590554,28657669,28657669,28657669,0,67114,268460,604010,671140,671140,671140,2550332,0,2483207,2483257,2550331,2550332,2550332,2550332,0,2214762,2281876,2348966,2348990,2348990,2348990
28657679,0,28187782,28255071,28590563,28657679,28657679,28657679,0,67114,268520,604024,671140,671140,671140,2550332,0,2483208,2483294,2550330,2550332,2550332,2550332,0,2214762,2281876,2348982,2348990,2348990,2348990
28657720,0,28187921,28255035,28590606,28657720,28657720,28657720,0,67114,268457,604029,671143,671143,671143,2550337,0,2483222,2483222,2550337,2550337,2550337,2550337,0,2214764,2281878,2348993,2348993,2348993,2348993
28657725,0,28187927,28255041,28590611,28657725,28657725,28657725,0,67114,268456,604026,671140,671140,671140,2550355,0,2483241,2483241,2550355,2550355,2550355,2550355,0,2214785,2281899,2349013,2349013,2349013,2349013
28657699,0,28187849,28255043,28590585,28657699,28657699,28657699,0,67115,268463,604029,671143,671143,671143,2550342,0,2483220,2483256,2550342,2550342,2550342,2550342,0,2214770,2281885,2348990,2348999,2348999,2348999
28657702,0,28187864,28255034,28590587,28657702,28657702,28657702,0,67114,268457,604026,671140,671140,671140,2550332,0,2483212,2483235,2550332,2550332,2550332,2550332,0,2214762,2281876,2348983,2348990,2348990,2348990
28657259,8,28187359,28254651,28590142,28657255,28657255,28657255,0,67194,268568,604145,671951,671960,671960,2551098,7,2483961,2484046,2551093,2551097,2551097,2551097,0,2214678,2281886,2349017,2349721,2349721,2349721
28656517,0,28186609,28253941,28589404,28656517,28656517,28656517,0,67112,268456,603989,671116,671116,671116,2550256,0,2483130,2483236,2550255,2550256,2550256,2550256,0,2214696,2281808,2348891,2348920,2348920,2348920
28657678,0,28187779,28255081,28590562,28657678,28657678,28657678,0,67114,268521,604024,671140,671140,671140,2550332,0,2483211,2483305,2550330,2550332,2550332,2550332,0,2214762,2281876,2348985,2348990,2348990,2348990
28657718,0,28187920,28255034,28590604,28657718,28657718,28657718,0,67114,268456,604026,671140,671140,671140,2550332,0,2483218,2483218,2550332,2550332,2550332,2550332,0,2214762,2281876,2348990,2348990,2348990,2348990
28657715,0,28187916,28255030,28590601,28657715,28657715,28657715,0,67114,268456,604027,671141,671141,671141,2550332,0,2483218,2483218,2550332,2550332,2550332,2550332,0,2214762,2281876,2348990,2348990,2348990,2348990
28657700,0,28187862,28255041,28590586,28657700,28657700,28657700,0,67114,268459,604026,671140,671140,671140,2550332,0,2483213,2483243,2550332,2550332,2550332,2550332,0,2214762,2281876,2348984,2348990,2348990,2348990
28657712,0,28187904,28255033,28590598,28657712,28657712,28657712,0,67114,268457,604027,671141,671141,671141,2550332,0,2483217,2483224,2550332,2550332,2550332,2550332,0,2214762,2281876,2348989,2348990,2348990,2348990
28657286,8,28187418,28254663,28590168,28657282,28657282,28657282,0,67195,268571,604149,671955,671964,671964,2551136,7,2484005,2484068,2551131,2551135,2551135,2551135,0,2214711,2281920,2349058,2349756,2349756,2349756
28656478,0,28186521,28253934,28589367,28656478,28656478,28656478,0,67111,268453,603985,671111,671111,671111,2550218,0,2483087,2483230,2550218,2550218,2550218,2550218,0,2214663,2281774,2348849,2348885,2348885,2348885
28657664,0,28187744,28255084,28590547,28657664,28657664,28657664,0,67114,268521,604023,671140,671140,671140,2550332,0,2483209,2483322,2550329,2550332,2550332,2550332,0,2214762,2281876,2348984,2348990,2348990,2348990
28657711,0,28187902,28255036,28590597,28657711,28657711,28657711,0,67114,268457,604027,671141,671141,671141,2550332,0,2483218,2483228,2550332,2550332,2550332,2550332,0,2214762,2281876,2348990,2348990,2348990,2348990
28657718,0,28187920,28255034,28590604,28657718,28657718,28657718,0,67114,268456,604026,671140,671140,671140,2550332,0,2483218,2483218,2550332,2550332,2550332,2550332,0,2214762,2281876,2348990,2348990,2348990,2348990
28657701,0,28187869,28255039,28590587,28657701,28657701,28657701,0,67114,268459,604026,671140,671140,671140,2550332,0,2483214,2483240,2550332,2550332,2550332,2550332,0,2214762,2281876,2348985,2348990,2348990,2348990
28657711,0,28187899,28255036,28590597,28657711,28657711,28657711,0,67114,268457,604027,671141,671141,671141,2550332,0,2483217,2483228,2550332,2550332,2550332,2550332,0,2214762,2281876,2348989,2348990,2348990,2348990
28657646,0,28187808,28254983,28590532,28657646,28657646,28657646,0,67114,268458,604025,671139,671139,671139,2550332,0,2483212,2483238,2550332,2550332,2550332,2550332,0,2214762,2281876,2348983,2348990,2348990,2348990
28656139,8,28186167,28253632,28589024,28656135,28656135,28656135,0,67192,268564,604125,671928,671937,671937,2551022,7,2483885,2484058,2551017,2551021,2551021,2551021,0,2214612,2281818,2348943,2349651,2349651,2349651
28657663,0,28187792,28255040,28590548,28657663,28657663,28657663,0,67114,268460,604010,671140,671140,671140,2550332,0,2483212,2483279,2550331,2550332,2550332,2550332,0,2214762,2281876,2348971,2348990,2348990,2348990
28657676,0,28187786,28255073,28590560,28657676,28657676,28657676,0,67114,268520,604024,671140,671140,671140,2550332,0,2483213,2483299,2550330,2550332,2550332,2550332,0,2214762,2281876,2348987,2348990,2348990,2348990
28657718,0,28187920,28255034,28590604,28657718,28657718,28657718,0,67114,268456,604026,671140,671140,671140,2550332,0,2483218,2483218,2550332,2550332,2550332,2550332,0,2214762,2281876,2348990,2348990,2348990,2348990
28657716,0,28187917,28255031,28590602,28657716,28657716,28657716,0,67114,268456,604026,671141,671141,671141,2550332,0,2483218,2483218,2550332,2550332,2550332,2550332,0,2214762,2281876,2348990,2348990,2348990,2348990
28657701,0,28187861,28255047,28590587,28657701,28657701,28657701,0,67114,268460,604026,671140,671140,671140,2550332,0,2483214,2483248,2550332,2550332,2550332,2550332,0,2214762,2281876,2348985,2348990,2348990,2348990
28657708,0,28187882,28255038,28590594,28657708,28657708,28657708,0,67114,268458,604029,671143,671143,671143,2550337,0,2483219,2483237,2550337,2550337,2550337,2550337,0,2214764,2281878,2348989,2348993,2348993,2348993
28657262,8,28187377,28254671,28590144,28657258,28657258,28657258,0,67195,268569,604148,671953,671962,671962,2551131,7,2484005,2484096,2551126,2551130,2551130,2551130,0,2214709,2281918,2349060,2349753,2349753,2349753
28656463,0,28186492,28253935,28589351,28656463,28656463,28656463,0,67111,268454,603983,671111,671111,671111,2550218,0,2483086,2483246,2550217,2550218,2550218,2550218,0,2214663,2281774,2348849,2348885,2348885,2348885
28657673,0,28187775,28255078,28590557,28657673,28657673,28657673,0,67114,268521,604024,671140,671140,671140,2550332,0,2483213,2483307,2550330,2550332,2550332,2550332,0,2214762,2281876,2348987,2348990,2348990,2348990
28657721,0,28187922,28255036,28590607,28657721,28657721,28657721,0,67114,268457,604029,671143,671143,671143,2550338,0,2483223,2483223,2550338,2550338,2550338,2550338,0,2214765,2281879,2348994,2348994,2348994,2348994
28657725,0,28187927,28255041,28590611,28657725,28657725,28657725,0,67114,268456,604026,671140,671140,671140,2550356,0,2483242,2483242,2550356,2550356,2550356,2550356,0,2214786,2281900,2349014,2349014,2349014,2349014
28657703,0,28187869,28255043,28590588,28657703,28657703,28657703,0,67115,268462,604029,671143,671143,671143,2550340,0,2483223,2483251,2550340,2550340,2550340,2550340,0,2214768,2281883,2348993,2348997,2348997,2348997
28657715,0,28187907,28255038,28590601,28657715,28657715,28657715,0,67114,268457,604026,671140,671140,671140,2550332,0,2483217,2483225,2550332,2550332,2550332,2550332,0,2214762,2281876,2348989,2348990,2348990,2348990
28657271,8,28187408,28254657,28590154,28657267,28657267,28657267,0,67194,268568,604148,671954,671963,671963,2551116,7,2483990,2484058,2551111,2551115,2551115,2551115,0,2214693,2281901,2349044,2349737,2349737,2349737
28656502,0,28186553,28253960,28589390,28656502,28656502,28656502,0,67112,268454,604002,671113,671113,671113,2550238,0,2483111,2483252,2550238,2550238,2550238,2550238,0,2214681,2281793,2348886,2348904,2348904,2348904
28657593,0,28187697,28254997,28590478,28657593,28657593,28657593,0,67113,268461,604006,671137,671137,671137,2550319,0,2483198,2483292,2550317,2550319,2550319,2550319,0,2214751,2281864,2348959,2348978,2348978,2348978
28657739,0,28187870,28255116,28590623,28657739,28657739,28657739,0,67115,268519,604028,671143,671143,671143,2550345,0,2483228,2483293,2550344,2550345,2550345,2550345,0,2214773,2281888,2349000,2349002,2349002,2349002
28657715,0,28187917,28255031,28590601,28657715,28657715,28657715,0,67114,268456,604027,671141,671141,671141,2550332,0,2483218,2483218,2550332,2550332,2550332,2550332,0,2214762,2281876,2348990,2348990,2348990,2348990
28657718,0,28187919,28255033,28590604,28657718,28657718,28657718,0,67114,268456,604026,671140,671140,671140,2550332,0,2483218,2483218,2550332,2550332,2550332,2550332,0,2214762,2281876,2348990,2348990,2348990,2348990
28657698,0,28187856,28255046,28590584,28657698,28657698,28657698,0,67114,268460,604026,671140,671140,671140,2550332,0,2483214,2483250,2550332,2550332,2550332,2550332,0,2214762,2281876,2348985,2348990,2348990,2348990
28657700,0,28187871,28255036,28590586,28657700,28657700,28657700,0,67114,268457,604027,671141,671141,671141,2550332,0,2483215,2483239,2550332,2550332,2550332,2550332,0,2214762,2281876,2348987,2348990,2348990,2348990
28656641,8,28186666,28254131,28589525,28656637,28656637,28656637,0,67193,268568,604134,671939,671948,671948,2551060,7,2483926,2484099,2551055,2551059,2551059,2551059,0,2214645,2281852,2348982,2349686,2349686,2349686
28657085,0,28187205,28254490,28589971,28657085,28657085,28657085,0,67113,268457,603999,671127,671127,671127,2550294,0,2483174,2483261,2550293,2550294,2550294,2550294,0,2214729,2281842,2348935,2348955,2348955,2348955
28657674,0,28187782,28255073,28590558,28657674,28657674,28657674,0,67114,268520,604024,671140,671140,671140,2550332,0,2483213,2483301,2550330,2550332,2550332,2550332,0,2214762,2281876,2348987,2348990,2348990,2348990
28657715,0,28187916,28255030,28590601,28657715,28657715,28657715,0,67114,268456,604027,671141,671141,671141,2550332,0,2483218,2483218,2550332,2550332,2550332,2550332,0,2214762,2281876,2348990,2348990,2348990,2348990
28657718,0,28187920,28255034,28590604,28657718,28657718,28657718,0,67114,268456,604026,671140,671140,671140,2550332,0,2483218,2483218,2550332,2550332,2550332,2550332,0,2214762,2281876,2348990,2348990,2348990,2348990
28657697,0,28187855,28255043,28590583,28657697,28657697,28657697,0,67114,268460,604027,671141,671141,671141,2550332,0,2483214,2483249,2550332,2550332,2550332,2550332,0,2214762,2281876,2348985,2348990,2348990,2348990
28657714,0,28187911,28255035,28590600,28657714,28657714,28657714,0,67114,268456,604026,671140,671140,671140,2550332,0,2483218,2483223,2550332,2550332,2550332,2550332,0,2214762,2281876,2348990,2348990,2348990,2348990
28657260,8,28187368,28254677,28590142,28657256,28657256,28657256,0,67195,268571,604150,671956,671965,671965,2551136,7,2484010,2484109,2551131,2551135,2551135,2551135,0,2214711,2281920,2349064,2349756,2349756,2349756
28656451,0,28186467,28253939,28589339,28656451,28656451,28656451,0,67111,268454,603984,671111,671111,671111,2550218,0,2483087,2483262,2550217,2550218,2550218,2550218,0,2214663,2281774,2348850,2348885,2348885,2348885
28657673,0,28187774,28255081,28590557,28657673,28657673,28657673,0,67114,268521,604023,671139,671139,671139,2550332,0,2483213,2483309,2550330,2550332,2550332,2550332,0,2214762,2281876,2348987,2348990,2348990,2348990
28657715,0,28187916,28255030,28590601,28657715,28657715,28657715,0,67114,268456,604027,671141,671141,671141,2550332,0,2483218,2483218,2550332,2550332,2550332,2550332,0,2214762,2281876,2348990,2348990,2348990,2348990
28657717,0,28187918,28255032,28590603,28657717,28657717,28657717,0,67114,268456,604026,671141,671141,671141,2550332,0,2483218,2483218,2550332,2550332,2550332,2550332,0,2214762,2281876,2348990,2348990,2348990,2348990
28657702,0,28187870,28255043,28590588,28657702,28657702,28657702,0,67114,268459,604026,671140,671140,671140,2550332,0,2483215,2483243,2550332,2550332,2550332,2550332,0,2214762,2281876,2348986,2348990,2348990,2348990
28657714,0,28187906,28255037,28590600,28657714,28657714,28657714,0,67114,268457,604026,671140,671140,671140,2550332,0,2483217,2483225,2550332,2550332,2550332,2550332,0,2214762,2281876,2348989,2348990,2348990,2348990
28657278,8,28187420,28254661,28590160,28657274,28657274,28657274,0,67195,268571,604151,671956,671965,671965,2551136,7,2484010,2484075,2551131,2551135,2551135,2551135,0,2214711,2281920,2349064,2349756,2349756,2349756
28656491,0,28186533,28253960,28589380,28656491,28656491,28656491,0,67111,268452,604002,671114,671114,671114,2550223,0,2483096,2483248,2550223,2550223,2550223,2550223,0,2214665,2281776,2348871,2348888,2348888,2348888
28657652,0,28187780,28255035,28590537,28657652,28657652,28657652,0,67114,268459,604007,671137,671137,671137,2550327,0,2483209,2483280,2550326,2550327,2550327,2550327,0,2214760,2281874,2348969,2348987,2348987,2348987
28657674,0,28187782,28255073,28590558,28657674,28657674,28657674,0,67114,268520,604024,671140,671140,671140,2550332,0,2483213,2483301,2550330,2550332,2550332,2550332,0,2214762,2281876,2348987,2348990,2348990,2348990
28657724,0,28187925,28255039,28590610,28657724,28657724,28657724,0,67114,268457,604029,671143,671143,671143,2550345,0,2483230,2483230,2550345,2550345,2550345,2550345,0,2214772,2281886,2349001,2349001,2349001,2349001
28657724,0,28187926,28255040,28590610,28657724,28657724,28657724,0,67114,268456,604026,671140,671140,671140,2550355,0,2483241,2483241,2550355,2550355,2550355,2550355,0,2214785,2281899,2349013,2349013,2349013,2349013
28657699,0,28187855,28255046,28590584,28657699,28657699,28657699,0,67115,268463,604029,671143,671143,671143,2550334,0,2483216,2483252,2550334,2550334,2550334,2550334,0,2214762,2281877,2348986,2348991,2348991,2348991
28657702,0,28187874,28255039,28590588,28657702,28657702,28657702,0,67114,268457,604026,671140,671140,671140,2550332,0,2483215,2483239,2550332,2550332,2550332,2550332,0,2214762,2281876,2348987,2348990,2348990,2348990
28656634,8,28186652,28254131,28589518,28656630,28656630,28656630,0,67193,268568,604135,671939,671948,671948,2551060,7,2483926,2484106,2551055,2551059,2551059,2551059,0,2214645,2281852,2348982,2349686,2349686,2349686
28657082,0,28187201,28254486,28589968,28657082,28657082,28657082,0,67113,268457,603999,671128,671128,671128,2550294,0,2483174,2483261,2550293,2550294,2550294,2550294,0,2214729,2281842,2348935,2348955,2348955,2348955
28657675,0,28187785,28255075,28590560,28657675,28657675,28657675,0,67114,268520,604024,671140,671140,671140,2550332,0,2483213,2483301,2550330,2550332,2550332,2550332,0,2214762,2281876,2348987,2348990,2348990,2348990
28657719,0,28187919,28255034,28590604,28657719,28657719,28657719,0,67114,268456,604026,671140,671140,671140,2550332,0,2483218,2483218,2550332,2550332,2550332,2550332,0,2214762,2281876,2348990,2348990,2348990,2348990
28657715,0,28187916,28255030,28590601,28657715,28657715,28657715,0,67114,268456,604027,671141,671141,671141,2550332,0,2483218,2483218,2550332,2550332,2550332,2550332,0,2214762,2281876,2348990,2348990,2348990,2348990
28657698,0,28187857,28255045,28590584,28657698,28657698,28657698,0,67114,268460,604026,671140,671140,671140,2550332,0,2483214,2483249,2550332,2550332,2550332,2550332,0,2214762,2281876,2348985,2348990,2348990,2348990
28657718,0,28187919,28255035,28590604,28657718,28657718,28657718,0,67114,268456,604026,671140,671140,671140,2550332,0,2483218,2483219,2550332,2550332,2550332,2550332,0,2214762,2281876,2348990,2348990,2348990,2348990
28657258,8,28187366,28254675,28590140,28657254,28657254,28657254,0,67195,268571,604150,671956,671965,671965,2551136,7,2484010,2484109,2551131,2551135,2551135,2551135,0,2214711,2281920,2349064,2349756,2349756,2349756
28656455,0,28186478,28253940,28589344,28656455,28656455,28656455,0,67111,268454,603985,671111,671111,671111,2550218,0,2483090,2483259,2550218,2550218,2550218,2550218,0,2214663,2281774,2348852,2348885,2348885,2348885
28657660,0,28187742,28255081,28590543,28657660,28657660,28657660,0,67114,268521,604023,671140,671140,671140,2550332,0,2483210,2483323,2550329,2550332,2550332,2550332,0,2214762,2281876,2348985,2348990,2348990,2348990
28657718,0,28187920,28255034,28590604,28657718,28657718,28657718,0,67114,268456,604026,671140,671140,671140,2550332,0,2483218,2483218,2550332,2550332,2550332,2550332,0,2214762,2281876,2348990,2348990,2348990,2348990
28657715,0,28187916,28255030,28590601,28657715,28657715,28657715,0,67114,268456,604027,671141,671141,671141,2550332,0,2483218,2483218,2550332,2550332,2550332,2550332,0,2214762,2281876,2348990,2348990,2348990,2348990
28657702,0,28187870,28255043,28590588,28657702,28657702,28657702,0,67114,268459,604026,671140,671140,671140,2550332,0,2483215,2483243,2550332,2550332,2550332,2550332,0,2214762,2281876,2348986,2348990,2348990,2348990
28657711,0,28187902,28255033,28590597,28657711,28657711,28657711,0,67114,268457,604027,671141,671141,671141,2550332,0,2483217,2483225,2550332,2550332,2550332,2550332,0,2214762,2281876,2348989,2348990,2348990,2348990
28657637,0,28187787,28254998,28590523,28657637,28657637,28657637,0,67114,268459,604025,671139,671139,671139,2550332,0,2483215,2483262,2550332,2550332,2550332,2550332,0,2214762,2281876,2348987,2348990,2348990,2348990
28656124,8,28186154,28253621,28589009,28656120,28656120,28656120,0,67192,268563,604125,671928,671937,671937,2551022,7,2483887,2484062,2551017,2551021,2551021,2551021,0,2214612,2281818,2348945,2349651,2349651,2349651
28657657,0,28187785,28255040,28590542,28657657,28657657,28657657,0,67114,268460,604009,671139,671139,671139,2550332,0,2483213,2483284,2550331,2550332,2550332,2550332,0,2214762,2281876,2348972,2348990,2348990,2348990
28657676,0,28187784,28255075,28590560,28657676,28657676,28657676,0,67114,268520,604024,671140,671140,671140,2550332,0,2483213,2483301,2550330,2550332,2550332,2550332,0,2214762,2281876,2348987,2348990,2348990,2348990
28657715,0,28187916,28255030,28590601,28657715,28657715,28657715,0,67114,268456,604027,671141,671141,671141,2550332,0,2483218,2483218,2550332,2550332,2550332,2550332,0,2214762,2281876,2348990,2348990,2348990,2348990
28657715,0,28187916,28255030,28590601,28657715,28657715,28657715,0,67114,268456,604026,671141,671141,671141,2550332,0,2483218,2483218,2550332,2550332,2550332,2550332,0,2214762,2281876,2348990,2348990,2348990,2348990
28657698,0,28187856,28255046,28590584,28657698,28657698,28657698,0,67114,268460,604026,671140,671140,671140,2550332,0,2483214,2483250,2550332,2550332,2550332,2550332,0,2214762,2281876,2348985,2348990,2348990,2348990
28657704,0,28187876,28255041,28590590,28657704,28657704,28657704,0,67114,268457,604026,671140,671140,671140,2550332,0,2483215,2483239,2550332,2550332,2550332,2550332,0,2214762,2281876,2348987,2348990,2348990,2348990
12404965,127,12199461,12228822,12374400,12403814,12403831,12403831,0,30360,118338,264285,294304,294460,294461,1107140,15,1076872,1077051,1106451,1106679,1106679,1106679,0,958717,989327,1018933,1019682,1019693,1019693
number,of,instructions:,33543289040
