1,66.203000
2,66.203000
3,66.203000
4,66.203000
5,66.203000
6,66.203000
7,66.203000
8,66.203000
9,66.203000
10,66.203000
11,66.203000
12,66.203000
13,66.203000
14,66.203000
15,66.203000
16,66.203000
17,66.203000
18,66.203000
19,66.203000
20,66.203000
21,66.203000
22,66.203000
23,66.203000
24,66.203000
25,66.203000
26,66.203000
27,66.203000
28,66.203000
29,66.203000
30,66.203000
31,66.203000
32,66.203000
33,66.203000
34,66.203000
35,66.203000
36,66.203000
37,66.203000
38,66.203000
39,66.203000
40,66.203000
41,66.203000
42,66.203000
43,66.203000
44,66.203000
45,66.203000
46,66.203000
47,66.203000
48,66.203000
49,66.203000
50,66.203000
51,66.203000
52,66.203000
53,66.203000
54,66.203000
55,66.203000
56,66.203000
57,66.203000
58,66.203000
59,66.203000
60,66.203000
61,66.203000
62,66.203000
63,66.203000
64,66.203000
65,66.203000
66,66.203000
67,66.203000
68,66.203000
69,66.203000
70,66.203000
71,66.203000
72,66.203000
73,66.203000
74,66.203000
75,66.203000
76,66.203000
77,66.203000
78,66.203000
79,66.203000
80,66.203000
81,66.203000
82,66.203000
83,66.203000
84,66.203000
85,66.203000
86,66.203000
87,66.203000
88,66.203000
89,66.203000
90,66.203000
91,66.203000
92,66.203000
93,66.203000
94,66.203000
95,66.203000
96,66.203000
97,66.203000
98,66.203000
99,66.203000
100,66.203000
101,66.203000
102,66.203000
103,66.203000
104,66.203000
105,66.203000
106,66.203000
107,66.203000
108,66.203000
109,66.203000
110,66.203000
111,66.203000
112,66.203000
113,66.203000
114,66.203000
115,66.203000
116,66.203000
117,66.203000
118,66.203000
119,66.203000
120,66.203000
121,66.203000
122,66.203000
123,66.203000
124,66.203000
125,66.203000
126,66.203000
127,66.203000
128,66.203000
129,66.203000
130,66.203000
131,66.203000
132,66.203000
133,66.203000
134,66.203000
135,66.203000
136,66.203000
137,66.203000
138,66.203000
139,66.203000
140,66.203000
141,66.283000
142,66.283000
143,66.283000
144,66.283000
145,66.283000
146,66.283000
147,66.283000
148,66.283000
149,66.283000
150,66.283000
151,66.283000
152,66.283000
153,66.283000
154,66.283000
155,66.283000
156,66.283000
157,66.283000
158,66.283000
159,66.283000
160,66.283000
161,66.283000
162,66.283000
163,66.283000
164,66.283000
165,66.283000
166,66.283000
167,66.283000
168,66.283000
169,66.283000
170,66.283000
171,66.283000
172,66.283000
173,66.283000
174,66.283000
175,66.283000
176,66.283000
177,66.283000
178,66.283000
179,66.283000
180,66.283000
181,66.283000
182,66.283000
183,66.283000
184,66.283000
185,66.283000
186,66.283000
187,66.283000
188,66.283000
189,66.283000
190,66.283000
191,66.283000
192,66.283000
193,66.283000
194,66.283000
195,66.283000
196,66.283000
197,66.283000
198,66.283000
199,66.283000
200,66.283000
201,66.283000
202,66.283000
203,66.283000
204,66.283000
205,66.283000
206,66.283000
207,66.283000
208,66.283000
209,66.283000
210,66.283000
211,66.283000
212,66.283000
213,66.283000
214,66.283000
215,66.283000
216,66.283000
217,66.283000
218,66.283000
219,66.283000
220,66.283000
221,66.283000
222,66.283000
223,66.283000
224,66.283000
225,66.283000
226,66.283000
227,66.283000
228,66.283000
229,66.283000
230,66.283000
231,66.283000
232,66.283000
233,66.283000
234,66.283000
235,66.283000
236,66.283000
237,66.283000
238,66.283000
239,66.283000
240,66.283000
241,66.283000
242,66.283000
243,66.283000
244,66.283000
245,66.283000
246,66.283000
247,66.283000
248,66.283000
249,66.283000
250,66.283000
251,66.283000
252,66.283000
253,66.283000
254,66.283000
255,66.283000
256,66.283000
257,66.283000
258,66.283000
259,66.283000
260,66.283000
261,66.283000
262,66.283000
263,66.283000
264,66.283000
265,66.283000
266,66.283000
267,66.283000
268,66.283000
269,66.283000
270,66.283000
271,66.283000
272,66.283000
273,66.283000
274,66.283000
275,66.283000
276,66.283000
277,66.283000
278,66.283000
279,66.283000
280,66.283000
281,66.283000
282,66.283000
283,66.283000
284,66.283000
285,66.283000
286,66.283000
287,66.283000
288,66.283000
289,66.283000
290,66.283000
291,66.283000
292,66.283000
293,66.283000
294,66.283000
295,66.283000
296,66.283000
297,66.283000
298,66.283000
299,66.283000
300,66.283000
301,66.283000
302,66.283000
303,66.283000
304,66.283000
305,66.283000
306,66.283000
307,66.283000
308,66.283000
309,66.283000
310,66.283000
311,66.283000
312,66.283000
313,66.283000
314,66.283000
315,66.283000
316,66.283000
317,66.283000
318,66.283000
319,66.283000
320,66.283000
321,66.283000
322,66.283000
323,66.283000
324,66.283000
325,66.283000
326,66.283000
327,66.283000
328,66.283000
329,66.283000
330,66.283000
331,66.283000
332,66.283000
333,66.283000
334,66.283000
335,66.283000
336,66.283000
337,66.283000
338,66.283000
339,66.283000
340,66.283000
341,66.283000
342,66.283000
343,66.283000
344,66.283000
345,66.283000
346,66.283000
347,66.283000
348,66.283000
349,66.283000
350,66.283000
351,66.283000
352,66.283000
353,66.283000
354,66.283000
355,66.283000
356,66.283000
357,66.283000
358,66.283000
359,66.283000
360,66.283000
361,66.283000
362,66.283000
363,66.283000
364,66.283000
365,66.283000
366,66.283000
367,66.283000
368,66.283000
369,66.283000
370,66.283000
371,66.283000
372,66.283000
373,66.283000
374,66.283000
375,66.283000
376,66.283000
377,66.283000
378,66.283000
379,66.283000
380,66.283000
381,66.283000
382,66.283000
383,66.283000
384,66.283000
385,66.283000
386,66.283000
387,66.283000
388,66.283000
389,66.283000
390,66.283000
391,66.283000
392,66.283000
393,66.283000
394,66.283000
395,77.252000
396,77.252000
397,77.252000
398,77.252000
399,77.252000
400,77.252000
401,77.252000
402,77.252000
403,77.252000
404,77.252000
405,77.252000
406,77.252000
407,77.252000
408,77.252000
409,77.252000
410,77.252000
411,77.252000
412,77.252000
413,77.252000
414,77.252000
415,77.252000
416,77.252000
417,77.252000
418,77.252000
419,77.252000
420,77.252000
421,77.252000
422,77.252000
423,77.252000
424,77.252000
425,77.252000
426,77.252000
427,77.252000
428,77.252000
429,77.252000
430,77.252000
431,77.252000
432,77.252000
433,77.252000
434,77.252000
435,77.252000
436,77.252000
437,77.252000
438,77.252000
439,77.252000
440,77.252000
441,77.252000
442,77.252000
443,77.252000
444,77.252000
445,77.252000
446,77.252000
447,77.252000
448,77.252000
449,77.252000
450,77.252000
451,77.252000
452,77.252000
453,77.252000
454,77.252000
455,77.252000
456,77.252000
457,77.252000
458,77.252000
459,77.252000
460,77.252000
461,77.252000
462,77.252000
463,77.252000
464,77.252000
465,77.252000
466,77.252000
467,77.252000
468,77.252000
469,77.252000
470,77.252000
471,77.252000
472,77.252000
473,77.252000
474,77.252000
475,77.252000
476,77.252000
477,77.252000
478,77.252000
479,77.252000
480,77.252000
481,77.252000
482,77.252000
483,77.252000
484,77.252000
485,77.252000
486,77.252000
487,77.252000
488,77.252000
489,77.252000
490,77.252000
491,77.252000
492,77.252000
493,77.252000
494,77.252000
495,77.252000
496,77.252000
497,77.252000
498,77.252000
499,77.252000
500,77.252000
501,77.252000
502,77.252000
503,77.252000
504,77.252000
505,77.252000
506,77.252000
507,77.252000
508,77.252000
509,77.252000
510,77.252000
511,77.252000
512,77.252000
513,77.252000
514,77.252000
515,77.252000
516,77.252000
517,77.252000
518,77.252000
519,77.252000
520,77.252000
521,77.252000
522,77.252000
523,77.252000
524,77.252000
525,77.252000
526,77.252000
527,77.252000
528,77.252000
529,77.252000
530,77.252000
531,77.252000
532,77.252000
533,77.252000
534,77.252000
535,77.252000
536,77.252000
537,77.252000
538,77.252000
539,77.252000
540,77.252000
541,77.252000
542,77.252000
543,77.252000
544,77.252000
545,77.252000
546,77.252000
547,77.252000
548,77.252000
549,77.252000
550,77.252000
551,77.252000
552,77.252000
553,77.252000
554,77.252000
555,77.252000
556,77.252000
557,77.252000
558,77.252000
559,77.252000
560,77.252000
561,77.252000
562,77.252000
563,77.252000
564,77.252000
565,77.252000
566,77.252000
567,77.252000
568,77.252000
569,77.252000
570,77.252000
571,77.252000
572,77.252000
573,77.252000
574,77.252000
575,77.252000
576,77.252000
577,77.252000
578,77.252000
579,77.252000
580,77.252000
581,77.252000
582,77.252000
583,77.252000
584,77.252000
585,77.252000
586,77.252000
587,77.252000
588,77.252000
589,77.252000
590,77.252000
591,77.252000
592,77.252000
593,77.252000
594,77.252000
595,77.252000
596,77.252000
597,77.252000
598,77.252000
599,77.252000
600,77.252000
601,77.252000
602,77.252000
603,77.252000
604,77.252000
605,77.252000
606,77.252000
607,77.252000
608,77.252000
609,77.252000
610,77.252000
611,77.252000
612,77.252000
613,77.252000
614,77.252000
615,77.252000
616,77.252000
617,77.252000
618,77.252000
619,77.252000
620,77.252000
621,77.252000
622,77.252000
623,77.252000
624,77.252000
625,77.252000
626,77.252000
627,77.252000
628,77.252000
629,77.252000
630,77.252000
631,77.252000
632,77.252000
633,77.252000
634,77.252000
635,77.252000
636,77.252000
637,77.252000
638,77.252000
639,77.252000
640,77.252000
641,77.252000
642,77.252000
643,77.252000
644,77.252000
645,77.252000
646,77.252000
647,77.252000
648,77.252000
649,77.252000
650,77.252000
651,77.252000
652,77.252000
653,77.252000
654,77.252000
655,77.252000
656,77.252000
657,77.252000
658,77.252000
659,77.252000
660,77.252000
661,77.252000
662,77.252000
663,77.252000
664,77.252000
665,77.252000
666,77.252000
667,77.252000
668,77.252000
669,77.252000
670,77.252000
671,77.252000
672,77.252000
673,77.252000
674,77.252000
675,77.252000
676,77.252000
677,77.252000
678,77.252000
679,77.252000
680,77.252000
681,77.252000
682,77.252000
683,77.252000
684,77.252000
685,77.252000
686,77.252000
687,77.252000
688,77.252000
689,77.252000
690,77.252000
691,77.252000
692,77.252000
693,77.252000
694,77.252000
695,77.252000
696,77.252000
697,77.252000
698,77.252000
699,77.252000
700,77.252000
701,77.252000
702,77.252000
703,77.252000
704,77.252000
705,77.252000
706,77.252000
707,77.252000
708,77.252000
709,77.252000
710,77.252000
711,77.252000
712,77.252000
713,77.252000
714,77.252000
715,77.252000
716,77.252000
717,77.252000
718,77.252000
719,77.252000
720,71.298000
721,71.298000
722,71.298000
723,71.298000
724,71.298000
725,71.298000
726,71.298000
727,71.298000
728,71.298000
729,71.298000
730,71.298000
731,71.298000
732,71.298000
733,71.298000
734,71.298000
735,71.298000
736,71.298000
737,71.298000
738,71.298000
739,71.298000
740,71.298000
741,71.298000
742,71.298000
743,71.298000
744,71.298000
745,71.298000
746,71.298000
747,71.298000
748,71.298000
749,71.298000
750,71.298000
751,71.298000
752,71.298000
753,71.298000
754,71.298000
755,71.298000
756,71.298000
757,71.298000
758,71.298000
759,71.298000
760,71.298000
761,71.298000
762,71.298000
763,71.298000
764,71.298000
765,71.298000
766,71.298000
767,71.298000
768,71.298000
769,71.298000
770,71.298000
771,71.298000
772,71.298000
773,71.298000
774,71.298000
775,71.298000
776,71.298000
777,71.298000
778,71.298000
779,71.298000
780,71.298000
781,71.298000
782,71.298000
783,71.298000
784,71.298000
785,71.298000
786,71.298000
787,71.298000
788,71.298000
789,71.298000
790,71.298000
791,71.298000
792,71.298000
793,71.298000
794,71.298000
795,71.298000
796,71.298000
797,71.298000
798,71.298000
799,71.298000
800,71.298000
801,71.298000
802,71.298000
803,71.298000
804,71.298000
805,71.298000
806,71.298000
807,71.298000
808,71.298000
809,71.298000
810,71.298000
811,71.298000
812,71.298000
813,71.298000
814,71.298000
815,71.298000
816,71.298000
817,71.298000
818,71.298000
819,71.298000
820,71.298000
821,71.298000
822,71.298000
823,71.298000
824,71.298000
825,71.298000
826,71.298000
827,71.298000
828,71.298000
829,71.298000
830,71.298000
831,71.298000
832,71.298000
833,71.298000
834,71.298000
835,71.298000
836,71.298000
837,71.298000
838,71.298000
839,71.298000
840,71.298000
841,71.298000
842,71.298000
843,71.298000
844,71.298000
845,71.298000
846,71.298000
847,71.298000
848,71.298000
849,71.298000
850,71.298000
851,71.298000
852,71.298000
853,71.298000
854,71.298000
855,71.298000
856,71.298000
857,71.298000
858,71.298000
859,71.298000
860,71.298000
861,71.298000
862,71.298000
863,71.298000
864,71.298000
865,71.298000
866,71.298000
867,71.298000
868,71.298000
869,71.298000
870,71.298000
871,71.298000
872,71.298000
873,71.298000
874,71.298000
875,71.298000
876,71.298000
877,71.298000
878,71.298000
879,71.298000
880,71.298000
881,71.298000
882,71.298000
883,71.298000
884,71.298000
885,71.298000
886,71.298000
887,71.298000
888,71.298000
889,71.298000
890,71.298000
891,71.298000
892,71.298000
893,71.298000
894,71.298000
895,71.298000
896,71.298000
897,71.298000
898,71.298000
899,71.298000
900,71.298000
901,71.298000
902,71.298000
903,71.298000
904,71.298000
905,71.298000
906,71.298000
907,71.298000
908,71.298000
909,71.298000
910,71.298000
911,71.298000
912,71.298000
913,71.298000
914,71.298000
915,71.298000
916,71.298000
917,71.298000
918,71.298000
919,71.298000
920,71.298000
921,71.298000
922,71.298000
923,71.298000
924,71.298000
925,71.298000
926,71.298000
927,71.298000
928,71.298000
929,71.298000
930,71.298000
931,71.298000
932,71.298000
933,71.298000
934,71.298000
935,71.298000
936,71.298000
937,71.298000
938,71.298000
939,71.298000
940,71.298000
941,71.298000
942,71.298000
943,71.298000
944,71.298000
945,71.298000
946,71.298000
947,71.298000
948,71.298000
949,71.298000
950,71.298000
951,71.298000
952,71.298000
953,71.298000
954,71.298000
955,71.298000
956,71.298000
957,71.298000
958,71.298000
959,71.298000
960,71.298000
961,71.298000
962,71.298000
963,71.298000
964,71.298000
965,71.298000
966,71.298000
967,71.298000
968,71.298000
969,71.298000
970,71.298000
971,71.298000
972,71.298000
973,71.298000
974,71.298000
975,71.298000
976,71.298000
977,71.298000
978,71.298000
979,71.298000
980,71.298000
981,71.298000
982,71.298000
983,71.298000
984,71.298000
985,71.298000
986,71.298000
987,71.298000
988,71.298000
989,71.298000
990,71.298000
991,71.298000
992,71.298000
993,71.298000
994,71.298000
995,71.298000
996,71.298000
997,71.298000
998,71.298000
999,71.298000
1000,71.298000
1001,71.298000
1002,71.298000
1003,71.298000
1004,71.298000
1005,71.298000
1006,71.298000
1007,71.298000
1008,71.298000
1009,71.298000
1010,71.298000
1011,71.298000
1012,71.298000
1013,71.298000
1014,71.298000
1015,71.298000
1016,71.298000
1017,71.298000
1018,71.298000
1019,71.298000
1020,71.298000
1021,71.298000
1022,71.298000
1023,71.298000
1024,71.298000
1025,71.298000
1026,71.298000
1027,71.298000
1028,71.298000
1029,71.298000
1030,71.298000
1031,71.298000
1032,71.298000
1033,71.298000
1034,71.298000
1035,71.298000
1036,71.298000
1037,71.298000
1038,71.298000
1039,71.298000
1040,71.298000
1041,71.298000
1042,71.298000
1043,71.298000
1044,71.298000
1045,71.298000
1046,71.298000
1047,71.298000
1048,71.298000
1049,71.298000
1050,67.169000
1051,67.169000
1052,67.169000
1053,67.169000
1054,67.169000
1055,67.169000
1056,67.169000
1057,67.169000
1058,67.169000
1059,67.169000
1060,67.169000
1061,67.169000
1062,67.169000
1063,67.169000
1064,67.169000
1065,67.169000
1066,67.169000
1067,67.169000
1068,67.169000
1069,67.169000
1070,67.169000
1071,67.169000
1072,67.169000
1073,67.169000
1074,67.169000
1075,67.169000
1076,67.169000
1077,67.169000
1078,67.169000
1079,67.169000
1080,67.169000
1081,67.169000
1082,67.169000
1083,67.169000
1084,67.169000
1085,67.169000
1086,67.169000
1087,67.169000
1088,67.169000
1089,67.169000
1090,67.169000
1091,67.169000
1092,67.169000
1093,67.169000
1094,67.169000
1095,67.169000
1096,67.169000
1097,67.169000
1098,67.169000
1099,67.169000
1100,67.169000
1101,67.169000
1102,67.169000
1103,67.169000
1104,67.169000
1105,67.169000
1106,67.169000
1107,67.169000
1108,67.169000
1109,67.169000
1110,67.169000
1111,67.169000
1112,67.169000
1113,67.169000
1114,67.169000
1115,67.169000
1116,67.169000
1117,67.169000
1118,67.169000
1119,67.169000
1120,67.169000
1121,67.169000
1122,67.169000
1123,67.169000
1124,67.169000
1125,67.169000
1126,67.169000
1127,67.169000
1128,67.169000
1129,67.169000
1130,67.169000
1131,67.169000
1132,67.169000
1133,67.169000
1134,67.169000
1135,67.169000
1136,67.169000
1137,67.169000
1138,67.169000
1139,67.169000
1140,67.169000
1141,67.169000
1142,67.169000
1143,67.169000
1144,67.169000
1145,67.169000
1146,67.169000
1147,67.169000
1148,67.169000
1149,67.169000
1150,67.169000
1151,67.169000
1152,67.169000
1153,67.169000
1154,67.169000
1155,67.169000
1156,67.169000
1157,67.169000
1158,67.169000
1159,67.169000
1160,67.169000
1161,67.169000
1162,67.169000
1163,67.169000
1164,67.169000
1165,67.169000
1166,67.169000
1167,67.169000
1168,67.169000
1169,67.169000
1170,67.169000
1171,67.169000
1172,67.169000
1173,67.169000
1174,67.169000
1175,67.169000
1176,67.169000
1177,67.169000
1178,67.169000
1179,67.169000
1180,67.169000
1181,67.169000
1182,67.169000
1183,67.169000
1184,67.169000
1185,67.169000
1186,67.169000
1187,67.169000
1188,67.169000
1189,67.169000
1190,67.169000
1191,67.169000
1192,67.169000
1193,67.169000
1194,67.169000
1195,67.169000
1196,67.169000
1197,67.169000
1198,67.169000
1199,67.169000
1200,67.169000
1201,67.169000
1202,67.169000
1203,67.169000
1204,67.169000
1205,67.169000
1206,67.169000
1207,67.169000
1208,67.169000
1209,67.169000
1210,67.169000
1211,67.169000
1212,67.169000
1213,67.169000
1214,67.169000
1215,67.169000
1216,67.169000
1217,67.169000
1218,67.169000
1219,67.169000
1220,67.169000
1221,67.169000
1222,67.169000
1223,67.169000
1224,67.169000
1225,67.169000
1226,67.169000
1227,67.169000
1228,67.169000
1229,67.169000
1230,67.169000
1231,67.169000
1232,67.169000
1233,67.169000
1234,67.169000
1235,67.169000
1236,67.169000
1237,67.169000
1238,67.169000
1239,67.169000
1240,67.169000
1241,67.169000
1242,67.169000
1243,67.169000
1244,67.169000
1245,67.169000
1246,67.169000
1247,67.169000
1248,67.169000
1249,67.169000
1250,67.169000
1251,67.169000
1252,67.169000
1253,67.169000
1254,67.169000
1255,67.169000
1256,67.169000
1257,67.169000
1258,67.169000
1259,67.169000
1260,67.169000
1261,67.169000
1262,67.169000
1263,67.169000
1264,67.169000
1265,67.169000
1266,67.169000
1267,67.169000
1268,67.169000
1269,67.169000
1270,67.169000
1271,67.169000
1272,67.169000
1273,67.169000
1274,67.169000
1275,67.169000
1276,67.169000
1277,67.169000
1278,67.169000
1279,67.169000
1280,67.169000
1281,67.169000
1282,67.169000
1283,67.169000
1284,67.169000
1285,67.169000
1286,67.169000
1287,67.169000
1288,67.169000
1289,67.169000
1290,67.169000
1291,67.169000
1292,67.169000
1293,67.169000
1294,67.169000
1295,67.169000
1296,67.169000
1297,67.169000
1298,67.169000
1299,67.169000
1300,67.169000
1301,67.169000
1302,67.169000
1303,67.169000
1304,67.169000
1305,67.169000
1306,67.169000
1307,67.169000
1308,67.169000
1309,67.169000
1310,67.169000
1311,67.169000
1312,67.169000
1313,67.169000
1314,67.169000
1315,67.169000
1316,67.169000
1317,67.169000
1318,67.169000
1319,67.169000
1320,67.169000
1321,67.169000
1322,67.169000
1323,67.169000
1324,67.169000
1325,67.169000
1326,67.169000
1327,67.169000
1328,67.169000
1329,67.169000
1330,67.169000
1331,67.169000
1332,67.169000
1333,67.169000
1334,67.169000
1335,67.169000
1336,67.169000
1337,67.169000
1338,67.169000
1339,67.169000
1340,67.169000
1341,67.169000
1342,67.169000
1343,67.169000
1344,67.169000
1345,67.169000
1346,67.169000
1347,67.169000
1348,67.169000
1349,67.169000
1350,67.169000
1351,67.169000
1352,67.169000
1353,67.169000
1354,67.169000
1355,67.169000
1356,67.169000
1357,67.169000
1358,67.169000
1359,67.169000
1360,67.169000
1361,67.169000
1362,67.169000
1363,67.169000
1364,67.169000
1365,67.169000
1366,67.169000
1367,67.169000
1368,67.169000
1369,67.169000
1370,67.169000
1371,67.169000
1372,67.169000
1373,67.169000
1374,67.169000
1375,67.169000
1376,67.169000
1377,67.169000
1378,67.169000
1379,67.169000
1380,67.169000
1381,66.574000
1382,66.574000
1383,66.574000
1384,66.574000
1385,66.574000
1386,66.574000
1387,66.574000
1388,66.574000
1389,66.574000
1390,66.574000
1391,66.574000
1392,66.574000
1393,66.574000
1394,66.574000
1395,66.574000
1396,66.574000
1397,66.574000
1398,66.574000
1399,66.574000
1400,66.574000
1401,66.574000
1402,66.574000
1403,66.574000
1404,66.574000
1405,66.574000
1406,66.574000
1407,66.574000
1408,66.574000
1409,66.574000
1410,66.574000
1411,66.574000
1412,66.574000
1413,66.574000
1414,66.574000
1415,66.574000
1416,66.574000
1417,66.574000
1418,66.574000
1419,66.574000
1420,66.574000
1421,66.574000
1422,66.574000
1423,66.574000
1424,66.574000
1425,66.574000
1426,66.574000
1427,66.574000
1428,66.574000
1429,66.574000
1430,66.574000
1431,66.574000
1432,66.574000
1433,66.574000
1434,66.574000
1435,66.574000
1436,66.574000
1437,66.574000
1438,66.574000
1439,66.574000
1440,66.574000
1441,66.574000
1442,66.574000
1443,66.574000
1444,66.574000
1445,66.574000
1446,66.574000
1447,66.574000
1448,66.574000
1449,66.574000
1450,66.574000
1451,66.574000
1452,66.574000
1453,66.574000
1454,66.574000
1455,66.574000
1456,66.574000
1457,66.574000
1458,66.574000
1459,66.574000
1460,66.574000
1461,66.574000
1462,66.574000
1463,66.574000
1464,66.574000
1465,66.574000
1466,66.574000
1467,66.574000
1468,66.574000
1469,66.574000
1470,66.574000
1471,66.574000
1472,66.574000
1473,66.574000
1474,66.574000
1475,66.574000
1476,66.574000
1477,66.574000
1478,66.574000
1479,66.574000
1480,66.574000
1481,66.574000
1482,66.574000
1483,66.574000
1484,66.574000
1485,66.574000
1486,66.574000
1487,66.574000
1488,66.574000
1489,66.574000
1490,66.574000
1491,66.574000
1492,66.574000
1493,66.574000
1494,66.574000
1495,66.574000
1496,66.574000
1497,66.574000
1498,66.574000
1499,66.574000
1500,66.574000
1501,66.574000
1502,66.574000
1503,66.574000
1504,66.574000
1505,66.574000
1506,66.574000
1507,66.574000
1508,66.574000
1509,66.574000
1510,66.574000
1511,66.574000
1512,66.574000
1513,66.574000
1514,66.574000
1515,66.574000
1516,66.574000
1517,66.574000
1518,66.574000
1519,66.574000
1520,66.574000
1521,66.574000
1522,66.574000
1523,66.574000
1524,66.574000
1525,66.574000
1526,66.574000
1527,66.574000
1528,66.574000
1529,66.574000
1530,66.574000
1531,66.574000
1532,66.574000
1533,66.574000
1534,66.574000
1535,66.574000
1536,66.574000
1537,66.574000
1538,66.574000
1539,66.574000
1540,66.574000
1541,66.574000
1542,66.574000
1543,66.574000
1544,66.574000
1545,66.574000
1546,66.574000
1547,66.574000
1548,66.574000
1549,66.574000
1550,66.574000
1551,66.574000
1552,66.574000
1553,66.574000
1554,66.574000
1555,66.574000
1556,66.574000
1557,66.574000
1558,66.574000
1559,66.574000
1560,66.574000
1561,66.574000
1562,66.574000
1563,66.574000
1564,66.574000
1565,66.574000
1566,66.574000
1567,66.574000
1568,66.574000
1569,66.574000
1570,66.574000
1571,66.574000
1572,66.574000
1573,66.574000
1574,66.574000
1575,66.574000
1576,66.574000
1577,66.574000
1578,66.574000
1579,66.574000
1580,66.574000
1581,66.574000
1582,66.574000
1583,66.574000
1584,66.574000
1585,66.574000
1586,66.574000
1587,66.574000
1588,66.574000
1589,66.574000
1590,66.574000
1591,66.574000
1592,66.574000
1593,66.574000
1594,66.574000
1595,66.574000
1596,66.574000
1597,66.574000
1598,66.574000
1599,66.574000
1600,66.574000
1601,66.574000
1602,66.574000
1603,66.574000
1604,66.574000
1605,66.574000
1606,66.574000
1607,66.574000
1608,66.574000
1609,66.574000
1610,66.574000
1611,66.574000
1612,66.574000
1613,66.574000
1614,66.574000
1615,66.574000
1616,66.574000
1617,66.574000
1618,66.574000
1619,66.574000
1620,66.574000
1621,66.574000
1622,66.574000
1623,66.574000
1624,66.574000
1625,66.574000
1626,66.574000
1627,66.574000
1628,66.574000
1629,66.574000
1630,66.574000
1631,66.574000
1632,66.574000
1633,66.574000
1634,66.574000
1635,66.574000
1636,66.574000
1637,66.574000
1638,66.574000
1639,66.574000
1640,66.574000
1641,66.574000
1642,66.574000
1643,66.574000
1644,66.574000
1645,66.574000
1646,66.574000
1647,66.574000
1648,66.574000
1649,66.574000
1650,66.574000
1651,66.574000
1652,66.574000
1653,66.574000
1654,66.574000
1655,66.574000
1656,66.574000
1657,66.574000
1658,66.574000
1659,66.574000
1660,66.574000
1661,66.574000
1662,66.574000
1663,66.574000
1664,66.574000
1665,66.574000
1666,66.574000
1667,66.574000
1668,66.574000
1669,66.574000
1670,66.574000
1671,66.574000
1672,66.574000
1673,66.574000
1674,66.574000
1675,66.574000
1676,66.574000
1677,66.574000
1678,66.574000
1679,66.574000
1680,66.574000
1681,66.574000
1682,66.574000
1683,66.574000
1684,66.574000
1685,66.574000
1686,66.574000
1687,66.574000
1688,66.574000
1689,66.574000
1690,66.574000
1691,66.574000
1692,66.574000
1693,66.574000
1694,66.574000
1695,66.574000
1696,66.574000
1697,66.574000
1698,66.574000
1699,66.574000
1700,66.574000
1701,66.574000
1702,66.494000
1703,66.494000
1704,66.494000
1705,66.494000
1706,66.494000
1707,66.494000
1708,66.494000
1709,66.494000
1710,66.494000
1711,66.494000
1712,66.494000
1713,66.494000
1714,66.494000
1715,66.494000
1716,66.494000
1717,66.494000
1718,66.494000
1719,66.494000
1720,66.494000
1721,66.494000
1722,66.494000
1723,66.494000
1724,66.494000
1725,66.494000
1726,66.494000
1727,66.494000
1728,66.494000
1729,66.494000
1730,66.494000
1731,66.494000
1732,66.494000
1733,66.494000
1734,66.494000
1735,66.494000
1736,66.494000
1737,66.494000
1738,66.494000
1739,66.494000
1740,66.494000
1741,66.494000
1742,66.494000
1743,66.494000
1744,66.494000
1745,66.494000
1746,66.494000
1747,66.494000
1748,66.494000
1749,66.494000
1750,66.494000
1751,66.494000
1752,66.494000
1753,66.494000
1754,66.494000
1755,66.494000
1756,66.494000
1757,66.494000
1758,66.494000
1759,66.494000
1760,66.494000
1761,66.494000
1762,66.494000
1763,66.494000
1764,66.494000
1765,66.494000
1766,66.494000
1767,66.494000
1768,66.494000
1769,66.494000
1770,66.494000
1771,66.494000
1772,66.494000
1773,66.494000
1774,66.494000
1775,66.494000
1776,66.494000
1777,66.494000
1778,66.494000
1779,66.494000
1780,66.494000
1781,66.494000
1782,66.494000
1783,66.494000
1784,66.494000
1785,66.494000
1786,66.494000
1787,66.494000
1788,66.494000
1789,66.494000
1790,66.494000
1791,66.494000
1792,66.494000
1793,66.494000
1794,66.494000
1795,66.494000
