dataset1

file:massif.out.37790

snapshot=4

mem_heap_B=6454912

mem_heap_extra_B=136

Total: 6455048 bytes, (~ 6.16 MB)
---------------------------------------

dataset2

file:massif.out.37793

snapshot=1

mem_heap_B=6454912

mem_heap_extra_B=136

Total: 6455048 bytes, (~ 6.16 MB)
---------------------------------------

dataset3

file:massif.out.37800

snapshot=1

mem_heap_B=6454912

mem_heap_extra_B=136

Total: 6455048 bytes, (~ 6.16 MB)
---------------------------------------

dataset4

file:massif.out.37821

snapshot=1

mem_heap_B=6454912

mem_heap_extra_B=136

Total: 6455048 bytes, (~ 6.16 MB)
---------------------------------------

