omp threads,kernel time,total_time, kernel percentage,,serial time,ser speedup,,kernel time,serial kernel,par speedup
1,0.019165039062,0.04314494133,44.420127868652,,0.04314494133,1,,0.019165039062,0.019165039062,1
2,0.029922008514,0.053213119507,56.23051071167,,0.04314494133,0.810795189790075,,0.029922008514,0.019165039062,0.640499752983928
3,0.017403125763,0.04033780098,43.143466949463,,0.04314494133,1.06959081263235,,0.017403125763,0.019165039062,1.10124119787412
4,0.014008998871,0.037060022354,37.800834655762,,0.04314494133,1.16419091488603,,0.014008998871,0.019165039062,1.36805200988869
5,0.010797023773,0.033352851868,32.372116088867,,0.04314494133,1.29359077001133,,0.010797023773,0.019165039062,1.77502981052295
6,0.010836839676,0.034554004669,31.362035751343,,0.04314494133,1.24862347340907,,0.010836839676,0.019165039062,1.76850812921448
7,0.009731054306,0.032827138901,29.643321990967,,0.04314494133,1.31430708780672,,0.009731054306,0.019165039062,1.969472007795
8,0.008106946945,0.031126976013,26.044761657715,,0.04314494133,1.38609485585689,,0.008106946945,0.019165039062,2.36402670352001
9,0.008503913879,0.031344175339,27.13076210022,,0.04314494133,1.37648991761212,,0.008503913879,0.019165039062,2.25367275994259
10,0.008239030838,0.031664848328,26.019487380981,,0.04314494133,1.36255007076249,,0.008239030838,0.019165039062,2.32612784668885
11,0.011475086212,0.034145832062,33.606113433838,,0.04314494133,1.26354927452522,,0.011475086212,0.019165039062,1.6701433617081
12,0.00977897644,0.033358097076,29.315149307251,,0.04314494133,1.2933873665426,,0.00977897644,0.019165039062,1.95982055786607
13,0.009479999542,0.033050060272,28.683757781982,,0.04314494133,1.30544213762153,,0.009479999542,0.019165039062,2.02162869070738
14,0.008558988571,0.035844087601,23.878383636475,,0.04314494133,1.2036836258819,,0.008558988571,0.019165039062,2.23917100753423
15,0.007185935974,0.02969789505,24.196784973145,,0.04314494133,1.45279459225512,,0.007185935974,0.019165039062,2.66702057064557
16,0.006389856339,0.029691934586,21.520511627197,,0.04314494133,1.45308623138161,,0.006389856339,0.019165039062,2.9992910709162
17,0.010489940643,0.034157037735,30.710920333862,,0.04314494133,1.26313475028867,,0.010489940643,0.019165039062,1.8269921360126
18,0.008105993271,0.031486034393,25.744728088379,,0.04314494133,1.37028819798253,,0.008105993271,0.019165039062,2.36430483239665
19,0.007104158401,0.030244112015,23.489393234253,,0.04314494133,1.42655672312686,,0.007104158401,0.019165039062,2.69772124722082
20,0.005945920944,0.029111146927,20.424894332886,,0.04314494133,1.4820763138667,,0.005945920944,0.019165039062,3.22322466822223
21,0.016895055771,0.04007101059,42.162788391113,,0.04314494133,1.07671208424095,,0.016895055771,0.019165039062,1.13435784538198
22,0.007004022598,0.030003070831,23.344352722168,,0.04314494133,1.43801751404131,,0.007004022598,0.019165039062,2.73629029516161
23,0.008363008499,0.031316995621,26.704376220703,,0.04314494133,1.37768455991572,,0.008363008499,0.019165039062,2.2916440972518
24,0.005716085434,0.028651952744,19.950073242188,,0.04314494133,1.50582899935276,,0.005716085434,0.019165039062,3.35282586016016
25,0.00638794899,0.02939414978,21.732042312622,,0.04314494133,1.46780708586292,,0.00638794899,0.019165039062,3.00018661576695
26,0.006103038788,0.029195070267,20.904346466064,,0.04314494133,1.47781597836289,,0.006103038788,0.019165039062,3.14024533150321
27,0.005759000778,0.028403043747,20.275997161865,,0.04314494133,1.51902527469638,,0.005759000778,0.019165039062,3.32784102673028
28,0.009839057922,0.032810926437,29.987138748169,,0.04314494133,1.31495651038206,,0.009839057922,0.019165039062,1.94785305808061
29,0.006036043167,0.028779029846,20.973754882812,,0.04314494133,1.49917983896169,,0.006036043167,0.019165039062,3.17509973533296
30,0.020297050476,0.043728113174,46.416481018066,,0.04314494133,0.986663686089553,,0.020297050476,0.019165039062,0.9442277874148
31,0.005660057068,0.028448104858,19.896078109741,,0.04314494133,1.51661917534964,,0.005660057068,0.019165039062,3.38601516411424
32,0.007104158401,0.03014588356,23.56593132019,,0.04314494133,1.4312050679864,,0.007104158401,0.019165039062,2.69772124722082
33,0.006078958511,0.029183149338,20.830371856689,,0.04314494133,1.47841964656707,,0.006078958511,0.019165039062,3.15268462966485
34,0.006038188934,0.028851032257,20.92885017395,,0.04314494133,1.49543839352687,,0.006038188934,0.019165039062,3.17397141286603
35,0.007916927338,0.030904054642,25.617763519287,,0.04314494133,1.39609322562367,,0.007916927338,0.019165039062,2.42076733103395
36,0.007353067398,0.030434131622,24.160594940186,,0.04314494133,1.41764982375287,,0.007353067398,0.019165039062,2.60640057062619
37,0.005977153778,0.029011011124,20.603052139282,,0.04314494133,1.48719191983996,,0.005977153778,0.019165039062,3.20638212999311
38,0.006273984909,0.029186010361,21.496549606323,,0.04314494133,1.47827472122235,,0.006273984909,0.019165039062,3.05468364045757
39,0.008100986481,0.031081199646,26.063941955566,,0.04314494133,1.38813629529749,,0.008100986481,0.019165039062,2.3657660837911
40,0.007357120514,0.030570983887,24.065696716309,,0.04314494133,1.41130365609028,,0.007357120514,0.019165039062,2.60496467680943
41,0.007014989853,0.030048847198,23.345287322998,,0.04314494133,1.43582684040111,,0.007014989853,0.019165039062,2.73201237116601
42,0.00742816925,0.030230998993,24.571365356445,,0.04314494133,1.42717550749779,,0.00742816925,0.019165039062,2.58004878685283
43,0.024605989456,0.047966957092,51.297790527344,,0.04314494133,0.899472135521304,,0.024605989456,0.019165039062,0.778876992379054
44,0.023207902908,0.046486854553,49.923580169678,,0.04314494133,0.928110575449026,,0.023207902908,0.019165039062,0.825797967958303
45,0.006894111633,0.030229091644,22.806215286255,,0.04314494133,1.42726555723561,,0.006894111633,0.019165039062,2.77991423438269
46,0.006746053696,0.029895067215,22.565774917603,,0.04314494133,1.44321272200893,,0.006746053696,0.019165039062,2.84092595844052
47,0.011407136917,0.034943819046,32.644218444824,,0.04314494133,1.2346945041469,,0.011407136917,0.019165039062,1.68009196360556
48,0.02038693428,0.043782949448,46.563636779785,,0.04314494133,0.985427931967951,,0.02038693428,0.019165039062,0.940064788495507
49,0.020790815353,0.043938875198,47.317584991455,,0.04314494133,0.981930946925193,,0.020790815353,0.019165039062,0.921803148967633
50,0.012508153915,0.222799062729,5.614096164703,,0.04314494133,0.193649563878458,,0.012508153915,0.019165039062,1.53220364829513
51,0.01509308815,0.039073944092,38.626991271973,,0.04314494133,1.10418700575542,,0.01509308815,0.019165039062,1.26978911615248
52,0.038206100464,0.061775922775,61.846263885498,,0.04314494133,0.698410309258225,,0.038206100464,0.019165039062,0.50162248513319
53,0.022618055344,0.045363903046,49.859149932861,,0.04314494133,0.951085299830794,,0.022618055344,0.019165039062,0.847333635474723
54,0.015985965729,0.039165973663,40.815952301025,,0.04314494133,1.10159246138591,,0.015985965729,0.019165039062,1.19886651747494
55,0.021631002426,0.045144796371,47.91471862793,,0.04314494133,0.955701316613211,,0.021631002426,0.019165039062,0.885998655289504
56,0.023172140121,0.046339988708,50.00463104248,,0.04314494133,0.931052046686226,,0.023172140121,0.019165039062,0.82707246555235
