nthreads, particlefilter, total_time
1,78.997833251953,79.002479553223
2,58.557472229004,58.562381744385
4,34.296985626221,34.301662445068
8,18.363882064819,18.368564605713
14,11.153829574585,11.158596992493
28,5.602915763855,5.607594013214
42,4.119715213776,4.124403953552
56,3.770094871521,3.774797916412
