1.767517089000,1.209289550000,1.005233764000,0.828262329000,4.810302732000,0.062526941299,76.931681480527
1.016296386000,0.624877929000,0.541259765000,0.441131591000,2.623565671000,0.033092021942,79.280911743238
0.643920898000,0.346008300000,0.277328491000,0.241119384000,1.508377073000,0.017555952072,85.918272435556
0.482727050000,0.215087890000,0.160842895000,0.149688720000,1.008346555000,0.010140895844,99.433676330059
0.547119140000,0.189880371000,0.172180175000,0.136444091000,1.045623777000,0.010394096375,100.597852793059
0.804870605000,0.443786621000,0.307357788000,0.202575683000,1.758590697000,0.014497041702,121.306866125975
0.857788085000,0.564941406000,0.325561523000,0.230026245000,1.978317259000,0.016384840012,120.740712609938
0.982482910000,0.716491699000,0.368194580000,0.269271850000,2.336441039000,0.019762039185,118.228742346804
