omp threads,pgain,pgain_dist,pgain_init,pselect,pspeedy,pshuffle,local search,total time
omp threads,pgain,pgain_dist,pgain_init,pselect,pspeedy,pshuffle,local search,total time
1,50.506473064423,49.904951334000,0.204702615738,0.000289916992,0.953680276871,0.006488084793,51.490926027298,51.693991184235
2,54.873512029648,54.265314340591,0.208954572678,0.000293016434,0.560477256775,0.006452083588,55.464040994644,55.689110994339
4,17.480037927628,17.044989585876,0.206221580505,0.000288963318,0.560379028320,0.006464242935,18.070461034775,18.275400876999
8,12.021380424500,11.493888616562,0.228927850723,0.000291824341,0.561834812164,0.006459236145,12.613291025162,12.818197965622
10,12.136283636093,10.780253410339,0.264684438705,0.000288963318,0.561032056808,0.006435871124,12.727200031281,12.931540012360
20,8.360415220261,6.184839487076,0.211652994156,0.000290870667,0.560694217682,0.006436109543,8.951423883438,9.163560152054
30,6.096103668213,4.039001464844,0.189258337021,0.000298023224,0.559175252914,0.006422996521,6.684816837311,6.890850067139
40,5.390517473221,3.318494319916,0.277116537094,0.000287055969,0.560928821564,0.006392002106,5.980624914169,6.185495138168
