omp threads,PACKAGE_ENERGY:PACKAGE0,PACKAGE_ENERGY:PACKAGE1,DRAM_ENERGY:PACKAGE0,DRAM_ENERGY:PACKAGE1,TOTAL_ENERGY,TOTAL_TIME,POWER
1,17.950927734,20.056884765,4.151214599,4.45677185,46.615798948,0.564388,82.595304910806
2,16.979553222,16.39868164,2.702911376,3.038558959,39.119705197,0.35536,110.084717461166
4,9.244506835,9.80883789,1.423461914,1.676986694,22.153793333,0.168943,131.131762387314
6,3.888061523,4.850463867,0.934890747,1.127075195,10.800491332,0.099279,108.789284058059
8,4.30279541,4.552490234,0.919891357,1.09236145,10.867538451,0.100667,107.955322508866
10,5.713012695,5.688293457,0.856170654,1.046264648,13.303741454,0.087811,151.50427001173
12,5.083923339,4.893676757,0.755874633,0.880691528,11.614166257,0.075013,154.828713116393
14,3.673400878,3.78161621,0.609344482,0.726745605,8.791107175,0.054735,160.612170914406
16,3.982971191,4.032775878,0.614547729,0.698867797,9.329162595,0.055589,167.823896724172
18,3.643981933,3.635375976,0.558792114,0.670257568,8.508407591,0.0504,168.81761093254
20,3.965881347,3.981994628,0.59197998,0.710693359,9.250549314,0.054272,170.447916310436
22,4.030029296,4.002685546,0.587844848,0.674575805,9.295135495,0.052273,177.819055631014
24,3.839477539,3.716125488,0.540664672,0.630050659,8.726318358,0.048447,180.12092302929
26,3.894836425,3.942565917,0.549774169,0.646774291,9.033950802,0.049128,183.885987664875
28,4.149963378,4.186889648,0.566680908,0.671203613,9.574737547,0.050334,190.22405425756
30,4.565124511,4.568237304,0.605163574,0.704681396,10.443206785,0.055846,187.000085682054
32,4.119567871,4.061462402,0.56300354,0.603149414,9.347183227,0.050011,186.902545979884
34,4.491455078,4.551940917,0.592453002,0.695129394,10.330978391,0.055114,187.447443317487
36,4.723754882,4.762390136,0.615524291,0.730117797,10.831787106,0.05779,187.433588960028
38,4.572265625,4.616455078,0.603591918,0.704986572,10.497299193,0.055766,188.238338647204
40,4.737487792,4.740844726,0.623474121,0.713500976,10.815307615,0.057081,189.472987771763
42,4.828918457,4.888061523,0.627532958,0.728713989,11.073226927,0.058313,189.892938572874
44,4.879089355,4.900390625,0.633071899,0.731231689,11.143783568,0.059722,186.594279628948
46,5.584777832,5.715332031,0.684020996,0.789337158,12.773468017,0.069323,184.260173636455
48,7.68585205,7.537109375,0.864959716,0.877777099,16.96569824,0.099547,170.429025887269
50,10.1171875,10.41027832,1.104965209,1.184692382,22.817123411,0.137463,165.987381411725
52,6.765502929,6.620361328,0.76663208,0.836578369,14.989074706,0.082667,181.318720964835
54,12.98651123,12.688476562,1.303115844,1.352050781,28.330154417,0.165937,170.728375329191
56,16.877624511,16.347412109,1.560195922,1.602981567,36.388214109,0.20973,173.500281833786
