nthreads, particlefilter, total_time
40,0.013395000249,0.016087999567
1,0.000488999998,0.003201999934
2,0.000388999993,0.003059000010
4,0.000387000007,0.003100000089
8,0.000437000010,0.003114999970
10,0.000445000012,0.003129000077
20,0.003069000086,0.005741000175
30,0.005991000216,0.008679999970
40,0.007185999770,0.009858000092
