
MOD:0, SIM:100, INSTANCES:100 

Time spent in different stages of the application:
0.000000000000 s, 0.000000000000 % : SETUP VARIABLES
1.147340059280 s, 2.352293729782 % : ALLOCATE CPU MEMORY AND GPU MEMORY
0.093691997230 s, 0.192088752985 % : READ DATA FROM FILES
47.533664703369 s, 97.454231262207 % : RUN COMPUTATION
0.000677999982 s, 0.001390045742 % : FREE MEMORY
Total time:
48.775371551514 s
--------------------------------------



MOD:0, SIM:1000, INSTANCES:100 

Time spent in different stages of the application:
0.000000000000 s, 0.000000000000 % : SETUP VARIABLES
0.079975999892 s, 0.017026754096 % : ALLOCATE CPU MEMORY AND GPU MEMORY
0.051082000136 s, 0.010875269771 % : READ DATA FROM FILES
469.571502685547 s, 99.970970153809 % : RUN COMPUTATION
0.005326000042 s, 0.001133896294 % : FREE MEMORY
Total time:
469.707885742188 s
--------------------------------------



MOD:1, SIM:100, INSTANCES:100 

Time spent in different stages of the application:
0.000000000000 s, 0.000000000000 % : SETUP VARIABLES
0.066334001720 s, 2.276393890381 % : ALLOCATE CPU MEMORY AND GPU MEMORY
0.088738001883 s, 3.045235157013 % : READ DATA FROM FILES, COPY TO GPU MEMORY
0.000029000001 s, 0.000995197333 % : RUN GPU KERNEL
2.758305072784 s, 94.657165527344 % : COPY GPU DATA TO CPU MEMORY
0.000589000003 s, 0.020212801173 % : FREE MEMORY
Total time:
2.913995027542 s
--------------------------------------



MOD:1, SIM:1000, INSTANCES:100 

Time spent in different stages of the application:
0.000001000000 s, 0.000002894016 % : SETUP VARIABLES
0.057457000017 s, 0.166281476617 % : ALLOCATE CPU MEMORY AND GPU MEMORY
0.071286998689 s, 0.206305712461 % : READ DATA FROM FILES, COPY TO GPU MEMORY
0.000034000001 s, 0.000098396536 % : RUN GPU KERNEL
34.424510955811 s, 99.625083923340 % : COPY GPU DATA TO CPU MEMORY
0.000766000012 s, 0.002216816181 % : FREE MEMORY
Total time:
34.554061889648 s
--------------------------------------


1000,1000 too slow 

MOD:0, SIM:100, INSTANCES:1000 

Time spent in different stages of the application:
0.000000000000 s, 0.000000000000 % : SETUP VARIABLES
0.070445999503 s, 0.014679694548 % : ALLOCATE CPU MEMORY AND GPU MEMORY
0.532669007778 s, 0.110998749733 % : READ DATA FROM FILES
479.279022216797 s, 99.873222351074 % : RUN COMPUTATION
0.005278000142 s, 0.001099841436 % : FREE MEMORY
Total time:
479.887390136719 s
--------------------------------------



MOD:1, SIM:100, INSTANCES:1000 

Time spent in different stages of the application:
0.000000000000 s, 0.000000000000 % : SETUP VARIABLES
0.065480999649 s, 1.462084412575 % : ALLOCATE CPU MEMORY AND GPU MEMORY
0.905108988285 s, 20.209615707397 % : READ DATA FROM FILES, COPY TO GPU MEMORY
0.000044000000 s, 0.000982448575 % : RUN GPU KERNEL
3.507158994675 s, 78.309165954590 % : COPY GPU DATA TO CPU MEMORY
0.000813000021 s, 0.018152970821 % : FREE MEMORY
Total time:
4.478606224060 s
--------------------------------------


