2667875054 66277 1410257216 378184057 276729319 214973797 310332827 13492329 18186723 38925610 6558964 13676 114955 211 82 38382 284 345 0 0 0
2683837429 33992 1467302767 401675591 183646336 204867792 341295521 14818759 19967785 42835868 7203103 10982 130529 298 86 47640 4 23 353 0 0
2686776245 34138 1466157986 401198695 183912617 206126901 343770325 14935528 20104373 43159581 7185088 10704 131741 186 93 47906 6 0 368 9 0
2686678154 34074 1466215091 401278954 183895510 206064832 343649019 14920178 20071321 43177403 7180690 10788 131654 256 100 47904 4 0 0 376 0
2684474590 30772 1467144229 401851542 183664647 205067955 341628972 14874096 19976849 42820493 7221821 16291 124290 689 63 42790 5 0 1 9085 0
2685794991 15198 1466451409 401363542 183851174 205596627 343068546 14895592 20069590 43048455 7228688 946 132397 8947 101 2647 45068 0 0 16064 0
2684172499 15192 1467103635 401667108 183696792 204897228 341687535 14828546 19975778 42854901 7240169 1163 128185 12623 114 20 47572 1 1 15936 0
2682895359 15077 1467597969 401936590 183577655 204283829 340606178 14769456 19915049 42769642 7219157 959 130447 9859 96 19 47441 0 0 15936 0
2684271972 15192 1467111150 401839412 183683067 204868389 341674058 14831749 19959662 42861295 7222512 1069 128615 12234 99 28 47503 1 0 15937 0
2685883114 15310 1466469197 401508504 183836760 205592691 343057922 14885639 20041887 43067870 7201096 1062 130483 10418 100 36 48010 1 0 16040 88
2684102902 15142 1467174037 401842073 183670052 204806352 341522502 14850326 19975520 42800370 7241323 956 130454 10162 102 30 47501 1 0 15874 125
2684749887 17498 1466926648 401651270 183730695 205150650 342067077 14867446 20002861 42892877 7238756 6149 131438 3940 84 7766 36171 0 0 18416 145
2685479308 15197 1466589581 401454013 183816452 205455838 342774188 14886634 20040235 42997667 7243493 940 132358 8816 104 4565 43163 1 0 15938 125
2684975570 15196 1466760310 401458359 183781614 205254661 342433664 14862565 20018215 42982397 7202902 922 133251 7735 106 42 47631 0 0 15875 125
2686194738 15198 1466273770 401269733 183893964 205749973 343449869 14880588 20070118 43166356 7218610 1026 130419 11103 89 34 47822 2 0 15939 125
2685158485 15196 1466735225 401575831 183778214 205295801 342490343 14898428 20018494 42962599 7182538 973 131029 9986 107 27 47695 0 0 15874 125
1503084142 8617 822191638 225276220 102833540 114454682 190793986 8306147 11153853 23893604 4057401 525 73115 5088 78 13 26673 1 0 8890 71
number of instructions: 165602206804
