165927524 4877428 58572677 4891847 24395979 63357072 9789494 5175 3931 1051 357 226 32280 7 0 0 0 0 0 0 0
165899670 4876177 58551638 4884834 24395313 63370090 9789872 0 0 0 0 0 31746 0 0 0 0 0 0 0 0
165899667 4876176 58551634 4884835 24395312 63370094 9789870 0 0 0 0 0 31746 0 0 0 0 0 0 0 0
165899660 4876177 58551632 4884834 24395311 63370089 9789871 0 0 0 0 0 31746 0 0 0 0 0 0 0 0
165899675 4876176 58551640 4884835 24395314 63370093 9789871 0 0 0 0 0 31746 0 0 0 0 0 0 0 0
165899656 4876176 58551630 4884834 24395310 63370090 9789870 0 0 0 0 0 31746 0 0 0 0 0 0 0 0
165899670 4876177 58551638 4884834 24395313 63370090 9789872 0 0 0 0 0 31746 0 0 0 0 0 0 0 0
165899667 4876176 58551634 4884835 24395312 63370094 9789870 0 0 0 0 0 31746 0 0 0 0 0 0 0 0
165899660 4876177 58551632 4884834 24395311 63370089 9789871 0 0 0 0 0 31746 0 0 0 0 0 0 0 0
165899675 4876176 58551640 4884835 24395314 63370093 9789871 0 0 0 0 0 31746 0 0 0 0 0 0 0 0
165899656 4876176 58551630 4884834 24395310 63370090 9789870 0 0 0 0 0 31746 0 0 0 0 0 0 0 0
165899670 4876177 58551638 4884834 24395313 63370090 9789872 0 0 0 0 0 31746 0 0 0 0 0 0 0 0
165899667 4876176 58551634 4884835 24395312 63370094 9789870 0 0 0 0 0 31746 0 0 0 0 0 0 0 0
165899660 4876177 58551632 4884834 24395311 63370089 9789871 0 0 0 0 0 31746 0 0 0 0 0 0 0 0
165899675 4876176 58551640 4884835 24395314 63370093 9789871 0 0 0 0 0 31746 0 0 0 0 0 0 0 0
165899656 4876176 58551630 4884834 24395310 63370090 9789870 0 0 0 0 0 31746 0 0 0 0 0 0 0 0
165899670 4876177 58551638 4884834 24395313 63370090 9789872 0 0 0 0 0 31746 0 0 0 0 0 0 0 0
165899667 4876176 58551634 4884835 24395312 63370094 9789870 0 0 0 0 0 31746 0 0 0 0 0 0 0 0
165899660 4876177 58551632 4884834 24395311 63370089 9789871 0 0 0 0 0 31746 0 0 0 0 0 0 0 0
165899675 4876176 58551640 4884835 24395314 63370093 9789871 0 0 0 0 0 31746 0 0 0 0 0 0 0 0
165899671 4876169 58551672 4884837 24395289 63370095 9789856 1 0 0 0 5 31746 0 0 0 0 0 0 0 1
165899658 4876176 58551632 4884834 24395310 63370090 9789870 0 0 0 0 0 31746 0 0 0 0 0 0 0 0
165899674 4876177 58551640 4884834 24395314 63370091 9789872 0 0 0 0 0 31746 0 0 0 0 0 0 0 0
165899659 4876176 58551630 4884835 24395311 63370091 9789870 0 0 0 0 0 31746 0 0 0 0 0 0 0 0
165899669 4876177 58551638 4884834 24395312 63370090 9789872 0 0 0 0 0 31746 0 0 0 0 0 0 0 0
165899668 4876176 58551634 4884835 24395313 63370094 9789870 0 0 0 0 0 31746 0 0 0 0 0 0 0 0
165899658 4876176 58551632 4884834 24395310 63370090 9789870 0 0 0 0 0 31746 0 0 0 0 0 0 0 0
165899674 4876177 58551640 4884834 24395314 63370091 9789872 0 0 0 0 0 31746 0 0 0 0 0 0 0 0
165899659 4876176 58551630 4884835 24395311 63370091 9789870 0 0 0 0 0 31746 0 0 0 0 0 0 0 0
165899669 4876177 58551638 4884834 24395312 63370090 9789872 0 0 0 0 0 31746 0 0 0 0 0 0 0 0
165899668 4876176 58551634 4884835 24395313 63370094 9789870 0 0 0 0 0 31746 0 0 0 0 0 0 0 0
165899658 4876176 58551632 4884834 24395310 63370090 9789870 0 0 0 0 0 31746 0 0 0 0 0 0 0 0
165899674 4876177 58551640 4884834 24395314 63370091 9789872 0 0 0 0 0 31746 0 0 0 0 0 0 0 0
165899659 4876176 58551630 4884835 24395311 63370091 9789870 0 0 0 0 0 31746 0 0 0 0 0 0 0 0
165899649 4876177 58551629 4884832 24395310 63370107 9789859 0 0 0 0 0 31735 0 0 0 0 0 0 0 0
165899670 4876177 58551638 4884834 24395313 63370090 9789872 0 0 0 0 0 31746 0 0 0 0 0 0 0 0
165899667 4876176 58551634 4884835 24395312 63370094 9789870 0 0 0 0 0 31746 0 0 0 0 0 0 0 0
165899660 4876177 58551632 4884834 24395311 63370089 9789871 0 0 0 0 0 31746 0 0 0 0 0 0 0 0
165899675 4876176 58551640 4884835 24395314 63370093 9789871 0 0 0 0 0 31746 0 0 0 0 0 0 0 0
165899656 4876176 58551630 4884834 24395310 63370090 9789870 0 0 0 0 0 31746 0 0 0 0 0 0 0 0
165899670 4876177 58551638 4884834 24395313 63370090 9789872 0 0 0 0 0 31746 0 0 0 0 0 0 0 0
306044044 202099 97173612 16933002 67809769 123767990 156955 4 8 0 4 0 517 0 0 0 0 0 0 0 84
308327374 125951 97802770 17129298 68517194 124752161 0 0 0 0 0 0 0 0 0 0 0 0 0 0 0
308327375 125951 97802767 17129299 68517196 124752162 0 0 0 0 0 0 0 0 0 0 0 0 0 0 0
308327374 125950 97802771 17129298 68517194 124752161 0 0 0 0 0 0 0 0 0 0 0 0 0 0 0
308327372 125951 97802767 17129299 68517194 124752161 0 0 0 0 0 0 0 0 0 0 0 0 0 0 0
308327377 125951 97802772 17129299 68517194 124752161 0 0 0 0 0 0 0 0 0 0 0 0 0 0 0
308327376 125950 97802771 17129298 68517194 124752163 0 0 0 0 0 0 0 0 0 0 0 0 0 0 0
308327373 125951 97802767 17129299 68517194 124752162 0 0 0 0 0 0 0 0 0 0 0 0 0 0 0
308327373 125951 97802771 17129298 68517194 124752159 0 0 0 0 0 0 0 0 0 0 0 0 0 0 0
308327375 125951 97802767 17129299 68517196 124752162 0 0 0 0 0 0 0 0 0 0 0 0 0 0 0
308327373 125950 97802770 17129298 68517193 124752162 0 0 0 0 0 0 0 0 0 0 0 0 0 0 0
308327376 125951 97802769 17129299 68517195 124752162 0 0 0 0 0 0 0 0 0 0 0 0 0 0 0
308327375 125951 97802769 17129299 68517194 124752162 0 0 0 0 0 0 0 0 0 0 0 0 0 0 0
308327375 125951 97802770 17129298 68517194 124752162 0 0 0 0 0 0 0 0 0 0 0 0 0 0 0
308327373 125950 97802767 17129299 68517194 124752163 0 0 0 0 0 0 0 0 0 0 0 0 0 0 0
308327373 125951 97802771 17129298 68517194 124752159 0 0 0 0 0 0 0 0 0 0 0 0 0 0 0
308327375 125951 97802767 17129299 68517196 124752162 0 0 0 0 0 0 0 0 0 0 0 0 0 0 0
308327376 125950 97802772 17129299 68517194 124752161 0 0 0 0 0 0 0 0 0 0 0 0 0 0 0
308327372 125951 97802767 17129298 68517194 124752162 0 0 0 0 0 0 0 0 0 0 0 0 0 0 0
308327376 125951 97802771 17129299 68517194 124752161 0 0 0 0 0 0 0 0 0 0 0 0 0 0 0
308327375 125951 97802771 17129298 68517194 124752161 0 0 0 0 0 0 0 0 0 0 0 0 0 0 0
308327374 125950 97802767 17129299 68517195 124752163 0 0 0 0 0 0 0 0 0 0 0 0 0 0 0
308327374 125951 97802771 17129298 68517194 124752160 0 0 0 0 0 0 0 0 0 0 0 0 0 0 0
308327373 125951 97802767 17129299 68517195 124752161 0 0 0 0 0 0 0 0 0 0 0 0 0 0 0
308327376 125951 97802772 17129299 68517194 124752160 0 0 0 0 0 0 0 0 0 0 0 0 0 0 0
308327372 125950 97802767 17129298 68517194 124752163 0 0 0 0 0 0 0 0 0 0 0 0 0 0 0
308327378 125951 97802771 17129299 68517194 124752163 0 0 0 0 0 0 0 0 0 0 0 0 0 0 0
308327373 125951 97802771 17129298 68517194 124752159 0 0 0 0 0 0 0 0 0 0 0 0 0 0 0
308327374 125950 97802767 17129299 68517195 124752163 0 0 0 0 0 0 0 0 0 0 0 0 0 0 0
308327373 125951 97802771 17129298 68517193 124752160 0 0 0 0 0 0 0 0 0 0 0 0 0 0 0
308327374 125951 97802767 17129299 68517196 124752161 0 0 0 0 0 0 0 0 0 0 0 0 0 0 0
308327378 125951 97802772 17129299 68517194 124752162 0 0 0 0 0 0 0 0 0 0 0 0 0 0 0
308327375 125950 97802771 17129298 68517194 124752162 0 0 0 0 0 0 0 0 0 0 0 0 0 0 0
308327372 125951 97802767 17129299 68517194 124752161 0 0 0 0 0 0 0 0 0 0 0 0 0 0 0
308327374 125951 97802771 17129298 68517194 124752160 0 0 0 0 0 0 0 0 0 0 0 0 0 0 0
308327373 125951 97802767 17129299 68517194 124752162 0 0 0 0 0 0 0 0 0 0 0 0 0 0 0
308327377 125950 97802771 17129299 68517196 124752161 0 0 0 0 0 0 0 0 0 0 0 0 0 0 0
308327373 125951 97802768 17129298 68517194 124752162 0 0 0 0 0 0 0 0 0 0 0 0 0 0 0
308327375 125951 97802770 17129299 68517194 124752161 0 0 0 0 0 0 0 0 0 0 0 0 0 0 0
308327375 125950 97802770 17129298 68517194 124752163 0 0 0 0 0 0 0 0 0 0 0 0 0 0 0
308327373 125951 97802767 17129299 68517194 124752162 0 0 0 0 0 0 0 0 0 0 0 0 0 0 0
308327374 125951 97802770 17129298 68517194 124752161 0 0 0 0 0 0 0 0 0 0 0 0 0 0 0
308327375 125951 97802767 17129299 68517196 124752162 0 0 0 0 0 0 0 0 0 0 0 0 0 0 0
308327375 125950 97802771 17129299 68517194 124752161 0 0 0 0 0 0 0 0 0 0 0 0 0 0 0
308327372 125951 97802767 17129298 68517194 124752162 0 0 0 0 0 0 0 0 0 0 0 0 0 0 0
308327377 125951 97802772 17129299 68517194 124752161 0 0 0 0 0 0 0 0 0 0 0 0 0 0 0
308327375 125950 97802771 17129298 68517194 124752162 0 0 0 0 0 0 0 0 0 0 0 0 0 0 0
308327373 125951 97802767 17129299 68517194 124752162 0 0 0 0 0 0 0 0 0 0 0 0 0 0 0
308327373 125951 97802771 17129298 68517194 124752159 0 0 0 0 0 0 0 0 0 0 0 0 0 0 0
308327375 125951 97802767 17129299 68517196 124752162 0 0 0 0 0 0 0 0 0 0 0 0 0 0 0
308327377 125950 97802772 17129299 68517194 124752162 0 0 0 0 0 0 0 0 0 0 0 0 0 0 0
308327375 125951 97802770 17129298 68517194 124752162 0 0 0 0 0 0 0 0 0 0 0 0 0 0 0
308327373 125951 97802767 17129299 68517194 124752162 0 0 0 0 0 0 0 0 0 0 0 0 0 0 0
308327374 125951 97802770 17129298 68517194 124752161 0 0 0 0 0 0 0 0 0 0 0 0 0 0 0
308327373 125950 97802767 17129299 68517194 124752163 0 0 0 0 0 0 0 0 0 0 0 0 0 0 0
308327377 125951 97802770 17129299 68517196 124752161 0 0 0 0 0 0 0 0 0 0 0 0 0 0 0
308327372 125951 97802767 17129298 68517194 124752162 0 0 0 0 0 0 0 0 0 0 0 0 0 0 0
308327376 125950 97802772 17129299 68517194 124752161 0 0 0 0 0 0 0 0 0 0 0 0 0 0 0
308327374 125951 97802770 17129298 68517194 124752161 0 0 0 0 0 0 0 0 0 0 0 0 0 0 0
308327374 125951 97802768 17129299 68517194 124752162 0 0 0 0 0 0 0 0 0 0 0 0 0 0 0
308327374 125951 97802771 17129298 68517194 124752160 0 0 0 0 0 0 0 0 0 0 0 0 0 0 0
308327375 125950 97802767 17129299 68517196 124752163 0 0 0 0 0 0 0 0 0 0 0 0 0 0 0
308327374 125951 97802771 17129298 68517194 124752160 0 0 0 0 0 0 0 0 0 0 0 0 0 0 0
308327372 125951 97802767 17129299 68517194 124752161 0 0 0 0 0 0 0 0 0 0 0 0 0 0 0
308327377 125951 97802771 17129299 68517194 124752162 0 0 0 0 0 0 0 0 0 0 0 0 0 0 0
308327376 125950 97802770 17129298 68517194 124752164 0 0 0 0 0 0 0 0 0 0 0 0 0 0 0
308327373 125951 97802767 17129299 68517194 124752162 0 0 0 0 0 0 0 0 0 0 0 0 0 0 0
308327373 125951 97802770 17129298 68517194 124752160 0 0 0 0 0 0 0 0 0 0 0 0 0 0 0
308327375 125950 97802767 17129299 68517196 124752163 0 0 0 0 0 0 0 0 0 0 0 0 0 0 0
308327374 125951 97802771 17129298 68517194 124752160 0 0 0 0 0 0 0 0 0 0 0 0 0 0 0
308327376 125951 97802770 17129299 68517194 124752162 0 0 0 0 0 0 0 0 0 0 0 0 0 0 0
308327375 125951 97802769 17129299 68517194 124752162 0 0 0 0 0 0 0 0 0 0 0 0 0 0 0
308327374 125950 97802771 17129298 68517194 124752161 0 0 0 0 0 0 0 0 0 0 0 0 0 0 0
308327373 125951 97802767 17129299 68517194 124752162 0 0 0 0 0 0 0 0 0 0 0 0 0 0 0
308327373 125951 97802771 17129298 68517194 124752159 0 0 0 0 0 0 0 0 0 0 0 0 0 0 0
308327375 125950 97802767 17129299 68517196 124752163 0 0 0 0 0 0 0 0 0 0 0 0 0 0 0
308327377 125951 97802772 17129299 68517194 124752161 0 0 0 0 0 0 0 0 0 0 0 0 0 0 0
308327372 125951 97802768 17129298 68517194 124752161 0 0 0 0 0 0 0 0 0 0 0 0 0 0 0
308327375 125951 97802770 17129299 68517194 124752161 0 0 0 0 0 0 0 0 0 0 0 0 0 0 0
308327375 125950 97802771 17129298 68517194 124752162 0 0 0 0 0 0 0 0 0 0 0 0 0 0 0
308327375 125951 97802767 17129299 68517196 124752162 0 0 0 0 0 0 0 0 0 0 0 0 0 0 0
308327373 125951 97802771 17129298 68517193 124752160 0 0 0 0 0 0 0 0 0 0 0 0 0 0 0
308327373 125951 97802767 17129299 68517195 124752161 0 0 0 0 0 0 0 0 0 0 0 0 0 0 0
308327376 125950 97802772 17129299 68517194 124752161 0 0 0 0 0 0 0 0 0 0 0 0 0 0 0
308327372 125951 97802767 17129298 68517194 124752162 0 0 0 0 0 0 0 0 0 0 0 0 0 0 0
308327378 125951 97802771 17129299 68517194 124752163 0 0 0 0 0 0 0 0 0 0 0 0 0 0 0
308327373 125950 97802771 17129298 68517194 124752160 0 0 0 0 0 0 0 0 0 0 0 0 0 0 0
308327374 125951 97802767 17129299 68517195 124752162 0 0 0 0 0 0 0 0 0 0 0 0 0 0 0
308327374 125951 97802771 17129298 68517194 124752160 0 0 0 0 0 0 0 0 0 0 0 0 0 0 0
308327373 125951 97802767 17129299 68517195 124752161 0 0 0 0 0 0 0 0 0 0 0 0 0 0 0
308327378 125950 97802772 17129299 68517194 124752163 0 0 0 0 0 0 0 0 0 0 0 0 0 0 0
308327375 125951 97802770 17129298 68517194 124752162 0 0 0 0 0 0 0 0 0 0 0 0 0 0 0
308327373 125951 97802767 17129299 68517194 124752162 0 0 0 0 0 0 0 0 0 0 0 0 0 0 0
308327373 125951 97802770 17129298 68517194 124752160 0 0 0 0 0 0 0 0 0 0 0 0 0 0 0
308327374 125950 97802767 17129299 68517195 124752163 0 0 0 0 0 0 0 0 0 0 0 0 0 0 0
308327377 125951 97802771 17129299 68517195 124752161 0 0 0 0 0 0 0 0 0 0 0 0 0 0 0
308327372 125951 97802767 17129298 68517194 124752162 0 0 0 0 0 0 0 0 0 0 0 0 0 0 0
308327376 125950 97802771 17129299 68517194 124752162 0 0 0 0 0 0 0 0 0 0 0 0 0 0 0
308327375 125951 97802771 17129298 68517194 124752161 0 0 0 0 0 0 0 0 0 0 0 0 0 0 0
90255309 1248035 34051758 4474123 17896488 32584899 0 0 0 0 0 0 0 0 0 0 0 0 0 0 6
13157895 1644737 11513158 0 0 0 0 0 0 0 0 0 0 0 0 0 0 0 0 0 0
13157894 1644737 11513157 0 0 0 0 0 0 0 0 0 0 0 0 0 0 0 0 0 0
13157895 1644736 11513159 0 0 0 0 0 0 0 0 0 0 0 0 0 0 0 0 0 0
13157895 1644737 11513158 0 0 0 0 0 0 0 0 0 0 0 0 0 0 0 0 0 0
13157895 1644737 11513158 0 0 0 0 0 0 0 0 0 0 0 0 0 0 0 0 0 0
13157894 1644737 11513157 0 0 0 0 0 0 0 0 0 0 0 0 0 0 0 0 0 0
53492292 1416444 24075374 2480041 20240349 5280066 0 0 0 0 0 0 0 0 0 0 0 0 0 0 18
303746399 0 102017292 17867435 145821318 38040354 0 0 0 0 0 0 0 0 0 0 0 0 0 0 0
303746398 0 102017291 17867435 145821318 38040354 0 0 0 0 0 0 0 0 0 0 0 0 0 0 0
303746397 0 102017289 17867435 145821319 38040354 0 0 0 0 0 0 0 0 0 0 0 0 0 0 0
303746399 0 102017292 17867436 145821335 38040336 0 0 0 0 0 0 0 0 0 0 0 0 0 0 0
303746397 0 102017290 17867435 145821322 38040350 0 0 0 0 0 0 0 0 0 0 0 0 0 0 0
371404390 24197493 46721795 148528165 66782138 17421493 75 69 125 10 0 0 0 0 0 0 0 0 0 0 67753027
428571313 7052544 118 258928358 11 13 14 11 0 0 0 0 0 0 0 0 0 0 0 0 162590244
428571403 0 9 258928541 1 2 0 0 0 0 0 0 0 0 0 0 0 0 0 0 169642850
428571374 0 18 258928507 2 4 0 0 0 0 0 0 0 0 0 0 0 0 0 0 169642843
428571403 0 9 258928540 1 2 0 0 0 0 0 0 0 0 0 0 0 0 0 0 169642851
428571400 0 9 258928539 1 2 0 0 0 0 0 0 0 0 0 0 0 0 0 0 169642849
428571376 0 18 258928508 2 4 0 0 0 0 0 0 0 0 0 0 0 0 0 0 169642844
428571401 0 9 258928538 1 2 0 0 0 0 0 0 0 0 0 0 0 0 0 0 169642851
428571375 0 18 258928508 2 4 0 0 0 0 0 0 0 0 0 0 0 0 0 0 169642843
428571402 0 9 258928540 1 2 0 0 0 0 0 0 0 0 0 0 0 0 0 0 169642850
428571374 0 18 258928507 2 4 0 0 0 0 0 0 0 0 0 0 0 0 0 0 169642843
375269506 3886556 496 170369822 57326661 99 85 93 50 8 0 0 0 0 0 0 0 0 0 0 143685636
272727274 11363636 0 0 167613639 0 0 0 0 0 0 0 0 0 0 0 0 0 0 0 93749999
272727272 9749820 2 0 167613630 0 0 0 0 0 0 0 0 0 0 0 0 0 0 0 95363820
272727273 0 0 0 167613637 0 0 0 0 0 0 0 0 0 0 0 0 0 0 0 105113636
272727272 0 0 0 167613636 0 0 0 0 0 0 0 0 0 0 0 0 0 0 0 105113636
272727273 0 2 0 167613631 0 0 0 0 0 0 0 0 0 0 0 0 0 0 0 105113640
272727274 0 0 0 167613639 0 0 0 0 0 0 0 0 0 0 0 0 0 0 0 105113635
272727274 0 2 0 167613632 0 0 0 0 0 0 0 0 0 0 0 0 0 0 0 105113640
272727272 0 0 0 167613633 0 0 0 0 0 0 0 0 0 0 0 0 0 0 0 105113639
272727274 0 2 0 167613632 0 0 0 0 0 0 0 0 0 0 0 0 0 0 0 105113640
272727272 0 0 0 167613637 0 0 0 0 0 0 0 0 0 0 0 0 0 0 0 105113635
272727273 0 2 0 167613631 0 0 0 0 0 0 0 0 0 0 0 0 0 0 0 105113640
272727274 0 0 0 167613638 0 0 0 0 0 0 0 0 0 0 0 0 0 0 0 105113636
272727273 0 2 0 167613632 0 0 0 0 0 0 0 0 0 0 0 0 0 0 0 105113639
272727272 0 0 0 167613635 0 0 0 0 0 0 0 0 0 0 0 0 0 0 0 105113637
272727274 0 0 0 167613638 0 0 0 0 0 0 0 0 0 0 0 0 0 0 0 105113636
272727274 0 2 0 167613632 0 0 0 0 0 0 0 0 0 0 0 0 0 0 0 105113640
272727272 0 0 0 167613635 0 0 0 0 0 0 0 0 0 0 0 0 0 0 0 105113637
272727273 0 2 0 167613632 0 0 0 0 0 0 0 0 0 0 0 0 0 0 0 105113639
272727272 0 0 0 167613634 0 0 0 0 0 0 0 0 0 0 0 0 0 0 0 105113638
272727273 0 2 0 167613631 0 0 0 0 0 0 0 0 0 0 0 0 0 0 0 105113640
272727274 0 0 0 167613639 0 0 0 0 0 0 0 0 0 0 0 0 0 0 0 105113635
272727274 0 2 0 167613632 0 0 0 0 0 0 0 0 0 0 0 0 0 0 0 105113640
272727272 0 0 0 167613635 0 0 0 0 0 0 0 0 0 0 0 0 0 0 0 105113637
272727274 0 2 0 167613631 0 0 0 0 0 0 0 0 0 0 0 0 0 0 0 105113641
272727272 0 0 0 167613637 0 0 0 0 0 0 0 0 0 0 0 0 0 0 0 105113635
272727273 0 0 0 167613637 0 0 0 0 0 0 0 0 0 0 0 0 0 0 0 105113636
272727274 0 2 0 167613632 0 0 0 0 0 0 0 0 0 0 0 0 0 0 0 105113640
272727271 0 0 0 167613635 0 0 0 0 0 0 0 0 0 0 0 0 0 0 0 105113636
272727274 0 2 0 167613632 0 0 0 0 0 0 0 0 0 0 0 0 0 0 0 105113640
272727274 0 0 0 167613637 0 0 0 0 0 0 0 0 0 0 0 0 0 0 0 105113637
272727274 0 2 0 167613632 0 0 0 0 0 0 0 0 0 0 0 0 0 0 0 105113640
272727272 0 0 0 167613635 0 0 0 0 0 0 0 0 0 0 0 0 0 0 0 105113637
272727273 0 2 0 167613632 0 0 0 0 0 0 0 0 0 0 0 0 0 0 0 105113639
272727272 0 0 0 167613636 0 0 0 0 0 0 0 0 0 0 0 0 0 0 0 105113636
270063306 0 9016995 4508403 143809955 16530751 4320537 4 15 0 0 0 0 0 0 0 0 0 0 0 91876646
253968257 0 63492065 31746032 0 116402117 30423281 0 0 0 0 0 0 0 0 0 0 0 0 0 11904762
253968250 0 63492061 31746032 0 116402116 30423280 0 0 0 0 0 0 0 0 0 0 0 0 0 11904761
253968255 0 63492066 31746031 0 116402115 30423281 0 0 0 0 0 0 0 0 0 0 0 0 0 11904762
253968256 0 63492064 31746033 0 116402118 30423279 0 0 0 0 0 0 0 0 0 0 0 0 0 11904762
253968252 0 63492062 31746031 0 116402115 30423282 0 0 0 0 0 0 0 0 0 0 0 0 0 11904762
253968259 0 63492065 31746032 0 116402119 30423281 0 0 0 0 0 0 0 0 0 0 0 0 0 11904762
253968249 0 63492061 31746031 0 116402116 30423279 0 0 0 0 0 0 0 0 0 0 0 0 0 11904762
253968256 0 63492066 31746032 0 116402115 30423282 0 0 0 0 0 0 0 0 0 0 0 0 0 11904761
253968250 0 63492060 31746033 0 116402116 30423278 0 0 0 0 0 0 0 0 0 0 0 0 0 11904763
253968255 0 63492066 31746030 0 116402116 30423282 0 0 0 0 0 0 0 0 0 0 0 0 0 11904761
253968260 0 63492065 31746033 0 116402119 30423281 0 0 0 0 0 0 0 0 0 0 0 0 0 11904762
253968249 0 63492061 31746031 0 116402115 30423279 0 0 0 0 0 0 0 0 0 0 0 0 0 11904763
253968257 0 63492065 31746032 0 116402117 30423282 0 0 0 0 0 0 0 0 0 0 0 0 0 11904761
253968249 0 63492061 31746031 0 116402116 30423279 0 0 0 0 0 0 0 0 0 0 0 0 0 11904762
253968256 0 63492066 31746032 0 116402115 30423281 0 0 0 0 0 0 0 0 0 0 0 0 0 11904762
253968255 0 63492064 31746033 0 116402117 30423280 0 0 0 0 0 0 0 0 0 0 0 0 0 11904761
253968252 0 63492062 31746030 0 116402116 30423281 0 0 0 0 0 0 0 0 0 0 0 0 0 11904763
253968260 0 63492065 31746033 0 116402119 30423281 0 0 0 0 0 0 0 0 0 0 0 0 0 11904762
260042002 42 60791946 34615538 21807281 103707718 23060770 437 75 109 186 373 745 1489 2979 5958 11916 23832 47662 95324 15867622
279069768 0 52325582 43604651 90116279 63953488 0 0 0 0 0 0 0 0 0 0 0 0 0 0 29069768
279069768 0 52325582 43604653 90116279 63953486 0 0 0 0 0 0 0 0 0 0 0 0 0 0 29069768
279069768 0 52325582 43604651 90116279 63953490 0 0 0 0 0 0 0 0 0 0 0 0 0 0 29069766
279069768 0 52325580 43604650 90116280 63953490 0 0 0 0 0 0 0 0 0 0 0 0 0 0 29069768
279069768 0 52325582 43604651 90116279 63953488 0 0 0 0 0 0 0 0 0 0 0 0 0 0 29069768
279069768 0 52325582 43604653 90116279 63953486 0 0 0 0 0 0 0 0 0 0 0 0 0 0 29069768
279069767 0 52325582 43604651 90116278 63953490 0 0 0 0 0 0 0 0 0 0 0 0 0 0 29069766
279069767 0 52325580 43604650 90116280 63953489 0 0 0 0 0 0 0 0 0 0 0 0 0 0 29069768
99919589 25 18737047 15612030 32264317 22897325 186 222 386 113 11 0 0 0 0 0 0 0 0 0 10407927
number of instructions: 227358045450
