------------------------

num of omp threads = 1 

Reading File
Start traversing the tree
Compute time: 0.005686
Result stored in result.txt
========================




------------------------

num of omp threads = 2 

Reading File
Start traversing the tree
Compute time: 0.006576
Result stored in result.txt
========================




------------------------

num of omp threads = 3 

Reading File
Start traversing the tree
Compute time: 0.004736
Result stored in result.txt
========================




------------------------

num of omp threads = 4 

Reading File
Start traversing the tree
Compute time: 0.003291
Result stored in result.txt
========================




------------------------

num of omp threads = 5 

Reading File
Start traversing the tree
Compute time: 0.003673
Result stored in result.txt
========================




------------------------

num of omp threads = 6 

Reading File
Start traversing the tree
Compute time: 0.003655
Result stored in result.txt
========================




------------------------

num of omp threads = 7 

Reading File
Start traversing the tree
Compute time: 0.002368
Result stored in result.txt
========================




------------------------

num of omp threads = 8 

Reading File
Start traversing the tree
Compute time: 0.003266
Result stored in result.txt
========================




------------------------

num of omp threads = 9 

Reading File
Start traversing the tree
Compute time: 0.003184
Result stored in result.txt
========================




------------------------

num of omp threads = 10 

Reading File
Start traversing the tree
Compute time: 0.003089
Result stored in result.txt
========================




------------------------

num of omp threads = 11 

Reading File
Start traversing the tree
Compute time: 0.005118
Result stored in result.txt
========================




------------------------

num of omp threads = 12 

Reading File
Start traversing the tree
Compute time: 0.010969
Result stored in result.txt
========================




------------------------

num of omp threads = 13 

Reading File
Start traversing the tree
Compute time: 0.002540
Result stored in result.txt
========================




------------------------

num of omp threads = 14 

Reading File
Start traversing the tree
Compute time: 0.003098
Result stored in result.txt
========================




------------------------

num of omp threads = 15 

Reading File
Start traversing the tree
Compute time: 0.002019
Result stored in result.txt
========================




------------------------

num of omp threads = 16 

Reading File
Start traversing the tree
Compute time: 0.002895
Result stored in result.txt
========================




------------------------

num of omp threads = 17 

Reading File
Start traversing the tree
Compute time: 0.002848
Result stored in result.txt
========================




------------------------

num of omp threads = 18 

Reading File
Start traversing the tree
Compute time: 0.002041
Result stored in result.txt
========================




------------------------

num of omp threads = 19 

Reading File
Start traversing the tree
Compute time: 0.002916
Result stored in result.txt
========================




------------------------

num of omp threads = 20 

Reading File
Start traversing the tree
Compute time: 0.002985
Result stored in result.txt
========================




------------------------

num of omp threads = 21 

Reading File
Start traversing the tree
Compute time: 0.001957
Result stored in result.txt
========================




------------------------

num of omp threads = 22 

Reading File
Start traversing the tree
Compute time: 0.003012
Result stored in result.txt
========================




------------------------

num of omp threads = 23 

Reading File
Start traversing the tree
Compute time: 0.003018
Result stored in result.txt
========================




------------------------

num of omp threads = 24 

Reading File
Start traversing the tree
Compute time: 0.002541
Result stored in result.txt
========================




------------------------

num of omp threads = 25 

Reading File
Start traversing the tree
Compute time: 0.006326
Result stored in result.txt
========================




------------------------

num of omp threads = 26 

Reading File
Start traversing the tree
Compute time: 0.003194
Result stored in result.txt
========================




------------------------

num of omp threads = 27 

Reading File
Start traversing the tree
Compute time: 0.025813
Result stored in result.txt
========================




------------------------

num of omp threads = 28 

Reading File
Start traversing the tree
Compute time: 0.003073
Result stored in result.txt
========================




------------------------

num of omp threads = 29 

Reading File
Start traversing the tree
Compute time: 0.002839
Result stored in result.txt
========================




------------------------

num of omp threads = 30 

Reading File
Start traversing the tree
Compute time: 0.003156
Result stored in result.txt
========================




------------------------

num of omp threads = 31 

Reading File
Start traversing the tree
Compute time: 0.002546
Result stored in result.txt
========================




------------------------

num of omp threads = 32 

Reading File
Start traversing the tree
Compute time: 0.003191
Result stored in result.txt
========================




------------------------

num of omp threads = 33 

Reading File
Start traversing the tree
Compute time: 0.003225
Result stored in result.txt
========================




------------------------

num of omp threads = 34 

Reading File
Start traversing the tree
Compute time: 0.003093
Result stored in result.txt
========================




------------------------

num of omp threads = 35 

Reading File
Start traversing the tree
Compute time: 0.003167
Result stored in result.txt
========================




------------------------

num of omp threads = 36 

Reading File
Start traversing the tree
Compute time: 0.061726
Result stored in result.txt
========================




------------------------

num of omp threads = 37 

Reading File
Start traversing the tree
Compute time: 0.024919
Result stored in result.txt
========================




------------------------

num of omp threads = 38 

Reading File
Start traversing the tree
Compute time: 0.013052
Result stored in result.txt
========================




------------------------

num of omp threads = 39 

Reading File
Start traversing the tree
Compute time: 0.003247
Result stored in result.txt
========================




------------------------

num of omp threads = 40 

Reading File
Start traversing the tree
Compute time: 0.003205
Result stored in result.txt
========================




------------------------

num of omp threads = 41 

Reading File
Start traversing the tree
Compute time: 0.003236
Result stored in result.txt
========================




------------------------

num of omp threads = 42 

Reading File
Start traversing the tree
Compute time: 0.004451
Result stored in result.txt
========================




------------------------

num of omp threads = 43 

Reading File
Start traversing the tree
Compute time: 0.003604
Result stored in result.txt
========================




------------------------

num of omp threads = 44 

Reading File
Start traversing the tree
Compute time: 0.005004
Result stored in result.txt
========================




------------------------

num of omp threads = 45 

Reading File
Start traversing the tree
Compute time: 0.022478
Result stored in result.txt
========================




------------------------

num of omp threads = 46 

Reading File
Start traversing the tree
Compute time: 0.015433
Result stored in result.txt
========================




------------------------

num of omp threads = 47 

Reading File
Start traversing the tree
Compute time: 0.016037
Result stored in result.txt
========================




------------------------

num of omp threads = 48 

Reading File
Start traversing the tree
Compute time: 0.029819
Result stored in result.txt
========================




------------------------

num of omp threads = 49 

Reading File
Start traversing the tree
Compute time: 0.112616
Result stored in result.txt
========================




------------------------

num of omp threads = 50 

Reading File
Start traversing the tree
Compute time: 0.053329
Result stored in result.txt
========================




------------------------

num of omp threads = 51 

Reading File
Start traversing the tree
Compute time: 0.095127
Result stored in result.txt
========================




------------------------

num of omp threads = 52 

Reading File
Start traversing the tree
Compute time: 0.091534
Result stored in result.txt
========================




------------------------

num of omp threads = 53 

Reading File
Start traversing the tree
Compute time: 0.016807
Result stored in result.txt
========================




------------------------

num of omp threads = 54 

Reading File
Start traversing the tree
Compute time: 0.103534
Result stored in result.txt
========================




------------------------

num of omp threads = 55 

Reading File
Start traversing the tree
Compute time: 0.081152
Result stored in result.txt
========================




------------------------

num of omp threads = 56 

Reading File
Start traversing the tree
Compute time: 0.104838
Result stored in result.txt
========================




