1000000000,219414174,100382256,128247672,509540757,1010,27387943,35190172,6644,164198020,27611020,1358404,91668674
1000000000,219485507,100217855,127921797,509086799,0,27253480,35214289,0,164892220,27393178,1354924,92021531
1000000000,219480443,100201943,127909956,509115645,0,27247010,35216503,0,164850704,27392256,1358537,92045605
1000000000,219486544,100207794,127898075,509072763,0,27248720,35217692,0,164881871,27393852,1355418,92065028
1000000000,219486664,100209435,127903708,509074248,0,27250326,35216621,0,164878130,27393870,1355359,92061558
1000000000,219489987,100209902,127900982,509068608,0,27250582,35216808,0,164886115,27394166,1354539,92061543
1000000000,219488102,100213391,127910235,509075637,0,27251631,35216097,0,164879964,27393471,1354757,92052691
1000000000,219487242,100211198,127904737,509070902,0,27251015,35216702,0,164883712,27393668,1354785,92058401
1000000000,219481318,100209790,127912451,509096108,0,27250730,35216101,0,164867782,27393070,1357105,92042673
628898127,138164940,63088467,80621895,320224209,12,17215796,22103944,104,103420364,17245414,846607,57875855
number,of,instructions:,9628898041
