PACKAGE_ENERGY:PACKAGE0,PACKAGE_ENERGY:PACKAGE1,DRAM_ENERGY:PACKAGE0,DRAM_ENERGY:PACKAGE1,TOTAL_ENERGY,TOTAL_TIME,POWER
2.753417968000,2.082824707000,1.440017700000,1.436920166000,7.713180541000,0.109350919724,70.536037195686
2.311645507000,1.571105957000,1.084701538000,1.104812622000,6.072265624000,0.083312034607,72.885815988638
1.899841308000,1.136230468000,0.772781372000,0.784805297000,4.593658445000,0.059439897537,77.282408539191
1.476684570000,0.700012207000,0.512283325000,0.492950439000,3.181930541000,0.037430047989,85.010057746769
1.932800292000,0.851440429000,0.610595703000,0.599868774000,3.994705198000,0.045474052429,87.845815022084
1.386230468000,0.942443847000,0.490478515000,0.440643310000,3.259796140000,0.033141136169,98.361025504205
1.340637207000,1.165344238000,0.476989746000,0.427795410000,3.410766601000,0.032253980637,105.747152248551
1.867553710000,1.668579101000,0.659698486000,0.589920043000,4.785751340000,0.044070959091,108.591948954364
