PACKAGE_ENERGY:PACKAGE0,PACKAGE_ENERGY:PACKAGE1,DRAM_ENERGY:PACKAGE0,DRAM_ENERGY:PACKAGE1,TOTAL_ENERGY,TOTAL_TIME,POWER
0.150573730000,0.094177246000,0.077621459000,0.066284179000,0.388656614000,0.005765914917,67.405887807090
0.137878417000,0.094726562000,0.065002441000,0.066284179000,0.363891599000,0.004661083221,78.070178478368
0.115112304000,0.056945800000,0.051391601000,0.040191650000,0.263641355000,0.003422975540,77.021103980074
0.139770507000,0.057861328000,0.051055908000,0.039901733000,0.288589476000,0.003041028976,94.898627482925
0.108642578000,0.057250976000,0.039337158000,0.040145874000,0.245376586000,0.002967834473,82.678662931085
0.118774414000,0.076538085000,0.042800903000,0.040420532000,0.278533934000,0.002700090408,103.157262120259
0.319152832000,0.253601074000,0.103652954000,0.107040405000,0.783447265000,0.007635831833,102.601429961550
0.247131347000,0.251464843000,0.078735351000,0.093902587000,0.671234128000,0.006630182266,101.239166744828
