omp threads,set device time,set device percentage,kernel time,kernel percentage,total time
1,0.000007000000,0.041336955238,0.016927000000,99.958663044762,0.016934000000
2,0.000006000000,0.067046597385,0.008943000000,99.932953402615,0.008949000000
4,0.000006000000,0.124921923798,0.004797000000,99.875078076202,0.004803000000
8,0.000005000000,0.187546886722,0.002661000000,99.812453113278,0.002666000000
10,0.000006000000,0.266666666667,0.002244000000,99.733333333333,0.002250000000
20,0.000006000000,0.275862068966,0.002169000000,99.724137931034,0.002175000000
30,0.000006000000,0.113593335858,0.005276000000,99.886406664142,0.005282000000
40,0.000005000000,0.067340067340,0.007420000000,99.932659932660,0.007425000000
